yw564|TIMEOUT|scavenger-gpu|2023-05-04T17:26:37|2023-05-11T17:27:01|7-00:00:24|dcc-mastatlab-gpu-01|1|2|50G||/hpc/group/jilab/imaging/huimin/Inference_rebuttal|
yk206|TIMEOUT|scavenger-gpu|2023-05-07T13:08:05|2023-05-14T13:08:33|7-00:00:28|dcc-motesa-gpu-04|1|6|12G||/hpc/home/yk206/script|
yk206|TIMEOUT|scavenger-gpu|2023-05-07T13:08:05|2023-05-14T13:08:33|7-00:00:28|dcc-motesa-gpu-01|1|6|12G||/hpc/home/yk206/script|
dl370|PREEMPTED|scavenger-gpu|2023-05-08T16:22:29|2023-05-10T21:17:59|2-04:55:30|dcc-youlab-gpu-53|1|10|2G||/work/dl370|
jrl78|COMPLETED|scavenger-gpu|2023-05-09T12:36:31|2023-05-10T17:20:40|1-04:44:09|dcc-youlab-gpu-37|1|10|2G||/work/jrl78/Nanoparticles/JawBreakers/Big Library/run2|
jrl78|COMPLETED|scavenger-gpu|2023-05-09T14:17:56|2023-05-10T11:35:11|21:17:15|dcc-pbenfeylab-gpu-01|1|10|2G||/work/jrl78/Nanoparticles/JawBreakers/Big Library/run2|
jrl78|COMPLETED|scavenger-gpu|2023-05-09T14:22:03|2023-05-10T10:44:36|20:22:33|dcc-youlab-gpu-52|1|10|2G||/work/jrl78/Nanoparticles/JawBreakers/Big Library/run2|
jrl78|COMPLETED|scavenger-gpu|2023-05-09T16:21:03|2023-05-10T15:41:03|23:20:00|dcc-dhvi-gpu-05|1|10|2G||/work/jrl78/Nanoparticles/JawBreakers/Big Library/run2|
jrl78|COMPLETED|scavenger-gpu|2023-05-09T22:31:58|2023-05-10T11:33:01|13:01:03|dcc-youlab-gpu-56|1|10|2G||/work/jrl78/Nanoparticles/JawBreakers/Big Library/run2|
jrl78|COMPLETED|scavenger-gpu|2023-05-10T00:14:54|2023-05-10T18:39:34|18:24:40|dcc-youlab-gpu-49|1|10|2G||/work/jrl78/Nanoparticles/JawBreakers/Big Library/run2|
jrl78|COMPLETED|scavenger-gpu|2023-05-10T02:09:08|2023-05-10T15:58:42|13:49:34|dcc-youlab-gpu-39|1|10|2G||/work/jrl78/Nanoparticles/JawBreakers/Big Library/run2|
jrl78|COMPLETED|scavenger-gpu|2023-05-10T03:21:12|2023-05-10T19:36:30|16:15:18|dcc-youlab-gpu-55|1|10|2G||/work/jrl78/Nanoparticles/JawBreakers/Big Library/run2|
jrl78|PREEMPTED|scavenger-gpu|2023-05-10T03:43:28|2023-05-10T21:18:01|17:34:33|dcc-youlab-gpu-51|1|10|2G||/work/jrl78/Nanoparticles/JawBreakers/Big Library/run2|
jrl78|PREEMPTED|scavenger-gpu|2023-05-10T03:56:47|2023-05-10T21:18:03|17:21:16|dcc-youlab-gpu-46|1|10|2G||/work/jrl78/Nanoparticles/JawBreakers/Big Library/run2|
jrl78|COMPLETED|scavenger-gpu|2023-05-10T04:06:57|2023-05-10T16:53:52|12:46:55|dcc-youlab-gpu-43|1|10|2G||/work/jrl78/Nanoparticles/JawBreakers/Big Library/run2|
jrl78|COMPLETED|scavenger-gpu|2023-05-10T04:10:37|2023-05-10T19:07:13|14:56:36|dcc-youlab-gpu-42|1|10|2G||/work/jrl78/Nanoparticles/JawBreakers/Big Library/run2|
jrl78|COMPLETED|scavenger-gpu|2023-05-10T04:12:33|2023-05-10T20:14:45|16:02:12|dcc-youlab-gpu-57|1|10|2G||/work/jrl78/Nanoparticles/JawBreakers/Big Library/run2|
jrl78|PREEMPTED|scavenger-gpu|2023-05-10T04:41:07|2023-05-10T21:18:05|16:36:58|dcc-youlab-gpu-50|1|10|2G||/work/jrl78/Nanoparticles/JawBreakers/Big Library/run2|
jrl78|PREEMPTED|scavenger-gpu|2023-05-10T05:05:50|2023-05-10T21:18:08|16:12:18|dcc-youlab-gpu-41|1|10|2G||/work/jrl78/Nanoparticles/JawBreakers/Big Library/run2|
jrl78|PREEMPTED|scavenger-gpu|2023-05-10T05:16:06|2023-05-10T21:18:10|16:02:04|dcc-youlab-gpu-27|1|10|2G||/work/jrl78/Nanoparticles/JawBreakers/Big Library/run2|
jrl78|PREEMPTED|scavenger-gpu|2023-05-10T07:48:02|2023-05-10T21:18:12|13:30:10|dcc-youlab-gpu-54|1|10|2G||/work/jrl78/Nanoparticles/JawBreakers/Big Library/run2|
jrl78|PREEMPTED|scavenger-gpu|2023-05-10T08:35:33|2023-05-10T21:18:14|12:42:41|dcc-youlab-gpu-40|1|10|2G||/work/jrl78/Nanoparticles/JawBreakers/Big Library/run2|
jrl78|COMPLETED|scavenger-gpu|2023-05-10T08:49:15|2023-05-11T03:18:51|18:29:36|dcc-youlab-gpu-14|1|10|2G||/work/jrl78/Nanoparticles/JawBreakers/Big Library/run2|
cem125|COMPLETED|scavenger-gpu|2023-05-09T15:09:34|2023-05-11T02:10:25|1-11:00:51|dcc-youlab-gpu-36|1|10|50G||/hpc/group/rekerlab/cem125/OpenNMT-py|
cem125|COMPLETED|scavenger-gpu|2023-05-09T15:09:34|2023-05-11T02:03:22|1-10:53:48|dcc-youlab-gpu-34|1|10|50G||/hpc/group/rekerlab/cem125/OpenNMT-py|
cem125|COMPLETED|scavenger-gpu|2023-05-09T15:09:34|2023-05-11T07:49:38|1-16:40:04|dcc-youlab-gpu-16|1|10|50G||/hpc/group/rekerlab/cem125/OpenNMT-py|
cem125|COMPLETED|scavenger-gpu|2023-05-09T15:09:34|2023-05-11T08:08:01|1-16:58:27|dcc-youlab-gpu-15|1|10|50G||/hpc/group/rekerlab/cem125/OpenNMT-py|
cem125|COMPLETED|scavenger-gpu|2023-05-09T16:13:17|2023-05-10T22:32:26|1-06:19:09|dcc-carin-gpu-08|1|19|50G||/hpc/group/rekerlab/cem125/OpenNMT-py|
cem125|COMPLETED|scavenger-gpu|2023-05-09T16:13:17|2023-05-10T23:44:27|1-07:31:10|dcc-carin-gpu-07|1|19|50G||/hpc/group/rekerlab/cem125/OpenNMT-py|
cem125|COMPLETED|scavenger-gpu|2023-05-09T16:21:03|2023-05-11T02:21:24|1-10:00:21|dcc-dhvi-gpu-04|1|10|50G||/hpc/group/rekerlab/cem125/OpenNMT-py|
cem125|COMPLETED|scavenger-gpu|2023-05-09T16:14:23|2023-05-11T00:56:11|1-08:41:48|dcc-gehmlab-gpu-49|1|19|50G||/hpc/group/rekerlab/cem125/OpenNMT-py|
mk423|CANCELLED by 1192605|scavenger-gpu|2023-05-09T19:00:44|2023-05-10T10:05:14|15:04:30|dcc-collinslab-gpu-04|1|12|80G||/hpc/home/mk423/Anxiety/FullDataWork/Code/Training/MultiTask|
yk206|COMPLETED|scavenger-gpu|2023-05-10T01:38:40|2023-05-10T11:02:49|09:24:09|dcc-dhvi-gpu-02|1|10|24G||/hpc/home/yk206/script/face_download|
byz6|FAILED|scavenger-gpu|2023-05-10T08:22:24|2023-05-10T11:04:58|02:42:34|dcc-youlab-gpu-38|1|10|2G||/hpc/group/rekerlab/byz6|
jbf18|TIMEOUT|scavenger-gpu|2023-05-10T08:46:41|2023-05-10T20:46:50|12:00:09|dcc-mastatlab-gpu-01|1|32|96G||/hpc/home/jbf18/ondemand/data/sys/dashboard/batch_connect/sys/bc_jupyter_singularity/output/025e531c-a53b-4ff5-8741-413cb414c8d0|
zcb2|CANCELLED by 1397940|scavenger-gpu|2023-05-10T08:52:41|2023-05-10T10:14:58|01:22:17|dcc-tdunn-gpu-02|1|19|182952M||/hpc/home/zcb2/predictive-electome-modeling/train|
kw297|CANCELLED by 1215097|scavenger-gpu|2023-05-10T08:56:06|2023-05-10T23:58:59|15:02:53|dcc-motesa-gpu-03|1|4|20G||/hpc/group/ychenlab/DA|
kw297|COMPLETED|scavenger-gpu|2023-05-10T09:51:55|2023-05-10T18:52:00|09:00:05|dcc-motesa-gpu-02|1|2|10G||/hpc/group/ychenlab/DA|
kw297|COMPLETED|scavenger-gpu|2023-05-10T09:51:55|2023-05-10T18:23:04|08:31:09|dcc-rekerlab-gpu-01|1|2|10G||/hpc/group/ychenlab/DA|
kw297|COMPLETED|scavenger-gpu|2023-05-10T09:51:55|2023-05-10T16:58:02|07:06:07|dcc-dhvi-gpu-01|1|2|10G||/hpc/group/ychenlab/DA|
kw297|COMPLETED|scavenger-gpu|2023-05-10T09:51:55|2023-05-10T17:03:31|07:11:36|dcc-dhvi-gpu-03|1|2|10G||/hpc/group/ychenlab/DA|
kw297|COMPLETED|scavenger-gpu|2023-05-10T09:51:55|2023-05-10T17:23:04|07:31:09|dcc-youlab-gpu-20|1|2|10G||/hpc/group/ychenlab/DA|
kw297|COMPLETED|scavenger-gpu|2023-05-10T09:51:55|2023-05-10T21:44:48|11:52:53|dcc-youlab-gpu-35|1|2|10G||/hpc/group/ychenlab/DA|
kw297|COMPLETED|scavenger-gpu|2023-05-10T09:51:55|2023-05-10T18:51:21|08:59:26|dcc-youlab-gpu-48|1|2|10G||/hpc/group/ychenlab/DA|
kw297|COMPLETED|scavenger-gpu|2023-05-10T09:51:55|2023-05-10T20:57:06|11:05:11|dcc-brunellab-gpu-04|1|2|10G||/hpc/group/ychenlab/DA|
kw297|COMPLETED|scavenger-gpu|2023-05-10T09:51:55|2023-05-10T23:42:28|13:50:33|dcc-youlab-gpu-17|1|2|10G||/hpc/group/ychenlab/DA|
kw297|COMPLETED|scavenger-gpu|2023-05-10T10:01:31|2023-05-10T19:31:40|09:30:09|dcc-youlab-gpu-18|1|2|10G||/hpc/group/ychenlab/DA|
byz6|FAILED|scavenger-gpu|2023-05-10T10:03:29|2023-05-10T10:10:03|00:06:34|dcc-youlab-gpu-33|1|10|2G||/hpc/group/rekerlab/byz6|
mk423|CANCELLED by 1192605|scavenger-gpu|2023-05-10T10:08:11|2023-05-10T10:21:48|00:13:37|dcc-biostat-gpu-01|1|12|80G||/hpc/home/mk423/Anxiety/FullDataWork/Code/Training/MultiTask|
mk423|CANCELLED by 1192605|scavenger-gpu|2023-05-10T10:08:11|2023-05-10T10:21:48|00:13:37|dcc-biostat-gpu-02|1|12|80G||/hpc/home/mk423/Anxiety/FullDataWork/Code/Training/MultiTask|
mk423|CANCELLED by 1192605|scavenger-gpu|2023-05-10T10:08:11|2023-05-10T10:21:48|00:13:37|dcc-ultrasound-gpu-02|1|12|80G||/hpc/home/mk423/Anxiety/FullDataWork/Code/Training/MultiTask|
mk423|CANCELLED by 1192605|scavenger-gpu|2023-05-10T10:08:11|2023-05-10T10:21:48|00:13:37|dcc-ultrasound-gpu-03|1|12|80G||/hpc/home/mk423/Anxiety/FullDataWork/Code/Training/MultiTask|
cem125|COMPLETED|scavenger-gpu|2023-05-10T10:08:24|2023-05-10T10:23:12|00:14:48|dcc-youlab-gpu-32|1|10|100G||/hpc/group/rekerlab/cem125/OpenNMT-py|
cem125|COMPLETED|scavenger-gpu|2023-05-10T10:08:29|2023-05-10T10:22:25|00:13:56|dcc-youlab-gpu-31|1|10|100G||/hpc/group/rekerlab/cem125/OpenNMT-py|
cem125|FAILED|scavenger-gpu|2023-05-10T10:08:31|2023-05-10T10:08:57|00:00:26|dcc-youlab-gpu-26|1|10|100G||/hpc/group/rekerlab/cem125/OpenNMT-py|
cem125|FAILED|scavenger-gpu|2023-05-10T10:08:37|2023-05-10T10:08:58|00:00:21|dcc-youlab-gpu-25|1|10|100G||/hpc/group/rekerlab/cem125/OpenNMT-py|
cem125|COMPLETED|scavenger-gpu|2023-05-10T10:10:14|2023-05-10T10:21:50|00:11:36|dcc-youlab-gpu-33|1|10|100G||/hpc/group/rekerlab/cem125/OpenNMT-py|
cem125|COMPLETED|scavenger-gpu|2023-05-10T10:10:17|2023-05-10T10:17:29|00:07:12|dcc-youlab-gpu-26|1|10|100G||/hpc/group/rekerlab/cem125/OpenNMT-py|
cem125|COMPLETED|scavenger-gpu|2023-05-10T10:11:19|2023-05-10T10:21:21|00:10:02|dcc-youlab-gpu-25|1|10|100G||/hpc/group/rekerlab/cem125/OpenNMT-py|
cem125|COMPLETED|scavenger-gpu|2023-05-10T10:15:15|2023-05-10T10:23:30|00:08:15|dcc-youlab-gpu-01|1|44|200G||/hpc/group/rekerlab/cem125/OpenNMT-py|
cem125|COMPLETED|scavenger-gpu|2023-05-10T10:15:15|2023-05-10T10:27:33|00:12:18|dcc-tdunn-gpu-01|1|44|200G||/hpc/group/rekerlab/cem125/OpenNMT-py|
zcb2|CANCELLED by 1397940|scavenger-gpu|2023-05-10T10:18:34|2023-05-10T10:39:37|00:21:03|dcc-tdunn-gpu-02|1|19|182952M||/hpc/home/zcb2/predictive-electome-modeling/train|
jrr73|FAILED|scavenger-gpu|2023-05-10T10:20:17|2023-05-10T10:25:27|00:05:10|dcc-youlab-gpu-26|1|8|10000M||/hpc/group/tdunn/jravenel/videos/2023_04_28/ASTROe1_R3_0|
jrr73|FAILED|scavenger-gpu|2023-05-10T10:20:20|2023-05-10T10:28:26|00:08:06|dcc-allenlab-gpu-01|1|8|10000M||/hpc/group/tdunn/jravenel/videos/2023_04_28/ASTROe2_R4_0|
jrr73|FAILED|scavenger-gpu|2023-05-10T10:20:20|2023-05-10T10:26:17|00:05:57|dcc-allenlab-gpu-02|1|8|10000M||/hpc/group/tdunn/jravenel/videos/2023_04_28/ASTROe2_R4_0|
jrr73|FAILED|scavenger-gpu|2023-05-10T10:20:20|2023-05-10T10:32:11|00:11:51|dcc-dhvi-gpu-06|1|8|10000M||/hpc/group/tdunn/jravenel/videos/2023_04_28/ASTROe2_R4_0|
jrr73|FAILED|scavenger-gpu|2023-05-10T10:20:20|2023-05-10T10:34:20|00:14:00|dcc-dhvi-gpu-07|1|8|10000M||/hpc/group/tdunn/jravenel/videos/2023_04_28/ASTROe2_R4_0|
jrr73|FAILED|scavenger-gpu|2023-05-10T10:20:20|2023-05-10T10:37:12|00:16:52|dcc-dhvi-gpu-08|1|8|10000M||/hpc/group/tdunn/jravenel/videos/2023_04_28/ASTROe5_R3_0|
jrr73|FAILED|scavenger-gpu|2023-05-10T10:20:21|2023-05-10T10:36:24|00:16:03|dcc-pbenfeylab-gpu-02|1|8|10000M||/hpc/group/tdunn/jravenel/videos/2023_04_28/ASTROe5_R3_0|
jrr73|FAILED|scavenger-gpu|2023-05-10T10:20:21|2023-05-10T10:28:46|00:08:25|dcc-pbenfeylab-gpu-03|1|8|10000M||/hpc/group/tdunn/jravenel/videos/2023_04_28/ASTROe5_R3_0|
jrr73|FAILED|scavenger-gpu|2023-05-10T10:20:21|2023-05-10T10:33:24|00:13:03|dcc-pbenfeylab-gpu-04|1|8|10000M||/hpc/group/tdunn/jravenel/videos/2023_04_28/ASTROe5_R3_0|
jrr73|FAILED|scavenger-gpu|2023-05-10T10:20:21|2023-05-10T10:28:31|00:08:10|dcc-youlab-gpu-22|1|8|10000M||/hpc/group/tdunn/jravenel/videos/2023_04_28/ASTROe5_R3_0|
jrr73|FAILED|scavenger-gpu|2023-05-10T10:20:21|2023-05-10T10:24:29|00:04:08|dcc-youlab-gpu-23|1|8|10000M||/hpc/group/tdunn/jravenel/videos/2023_04_28/ASTROe5_R3_0|
jrr73|FAILED|scavenger-gpu|2023-05-10T10:20:21|2023-05-10T10:23:14|00:02:53|dcc-youlab-gpu-24|1|8|10000M||/hpc/group/tdunn/jravenel/videos/2023_04_28/ASTROe5_R3_0|
jrr73|FAILED|scavenger-gpu|2023-05-10T10:20:21|2023-05-10T10:21:16|00:00:55|dcc-vossenlab-gpu-01|1|8|10000M||/hpc/group/tdunn/jravenel/videos/2023_04_28/ASTROe5_R3_0|
jrr73|FAILED|scavenger-gpu|2023-05-10T10:20:21|2023-05-10T10:34:01|00:13:40|dcc-vossenlab-gpu-02|1|8|10000M||/hpc/group/tdunn/jravenel/videos/2023_04_28/ASTROe5_R3_0|
jrr73|FAILED|scavenger-gpu|2023-05-10T10:20:21|2023-05-10T10:25:49|00:05:28|dcc-vossenlab-gpu-03|1|8|10000M||/hpc/group/tdunn/jravenel/videos/2023_04_28/ASTROe5_R3_0|
jrr73|FAILED|scavenger-gpu|2023-05-10T10:20:21|2023-05-10T10:22:29|00:02:08|dcc-vossenlab-gpu-04|1|8|10000M||/hpc/group/tdunn/jravenel/videos/2023_04_28/ASTROe5_R3_0|
jrr73|COMPLETED|scavenger-gpu|2023-05-10T10:20:21|2023-05-10T10:27:10|00:06:49|dcc-ece-gpu-01|1|8|10000M||/hpc/group/tdunn/jravenel/videos/2023_04_28/ASTROe5_R3_0|
jrr73|COMPLETED|scavenger-gpu|2023-05-10T10:20:21|2023-05-10T10:27:10|00:06:49|dcc-ece-gpu-02|1|8|10000M||/hpc/group/tdunn/jravenel/videos/2023_04_28/ASTROe5_R3_0|
jrr73|COMPLETED|scavenger-gpu|2023-05-10T10:20:24|2023-05-10T10:26:42|00:06:18|dcc-ece-gpu-03|1|8|10000M||/hpc/group/tdunn/jravenel/videos/2023_04_28/ASTROe5_R3_0|
jrr73|COMPLETED|scavenger-gpu|2023-05-10T10:20:24|2023-05-10T10:26:40|00:06:16|dcc-ece-gpu-04|1|8|10000M||/hpc/group/tdunn/jravenel/videos/2023_04_28/ASTROe5_R3_0|
jrr73|COMPLETED|scavenger-gpu|2023-05-10T10:20:24|2023-05-10T10:26:43|00:06:19|dcc-carin-gpu-09|1|8|10000M||/hpc/group/tdunn/jravenel/videos/2023_04_28/ASTROe5_R3_0|
jrr73|COMPLETED|scavenger-gpu|2023-05-10T10:20:24|2023-05-10T10:26:58|00:06:34|dcc-carin-gpu-10|1|8|10000M||/hpc/group/tdunn/jravenel/videos/2023_04_28/ASTROe5_R3_0|
jrr73|COMPLETED|scavenger-gpu|2023-05-10T10:20:24|2023-05-10T10:26:42|00:06:18|dcc-carin-gpu-11|1|8|10000M||/hpc/group/tdunn/jravenel/videos/2023_04_28/ASTROe5_R3_0|
jrr73|COMPLETED|scavenger-gpu|2023-05-10T10:20:24|2023-05-10T10:26:06|00:05:42|dcc-gehmlab-gpu-01|1|8|10000M||/hpc/group/tdunn/jravenel/videos/2023_04_28/ASTROe5_R3_0|
jrr73|COMPLETED|scavenger-gpu|2023-05-10T10:20:25|2023-05-10T10:26:25|00:06:00|dcc-gehmlab-gpu-02|1|8|10000M||/hpc/group/tdunn/jravenel/videos/2023_04_28/ASTROe5_R3_0|
jrr73|COMPLETED|scavenger-gpu|2023-05-10T10:20:25|2023-05-10T10:26:27|00:06:02|dcc-gehmlab-gpu-03|1|8|10000M||/hpc/group/tdunn/jravenel/videos/2023_04_28/ASTROe5_R3_0|
jrr73|FAILED|scavenger-gpu|2023-05-10T10:20:25|2023-05-10T10:31:40|00:11:15|dcc-viplab-gpu-01|1|8|10000M||/hpc/group/tdunn/jravenel/videos/2023_04_28/ASTROe6_R4_0|
jrr73|FAILED|scavenger-gpu|2023-05-10T10:20:25|2023-05-10T10:24:24|00:03:59|dcc-viplab-gpu-01|1|8|10000M||/hpc/group/tdunn/jravenel/videos/2023_04_28/ASTROe6_R4_0|
jrr73|COMPLETED|scavenger-gpu|2023-05-10T10:20:25|2023-05-10T10:27:02|00:06:37|dcc-brownlab-gpu-01|1|8|10000M||/hpc/group/tdunn/jravenel/videos/2023_04_28/ASTROe6_R4_0|
jrr73|COMPLETED|scavenger-gpu|2023-05-10T10:20:25|2023-05-10T10:26:42|00:06:17|dcc-brownlab-gpu-02|1|8|10000M||/hpc/group/tdunn/jravenel/videos/2023_04_28/ASTROe6_R4_0|
jrr73|COMPLETED|scavenger-gpu|2023-05-10T10:20:25|2023-05-10T10:27:04|00:06:39|dcc-brownlab-gpu-03|1|8|10000M||/hpc/group/tdunn/jravenel/videos/2023_04_28/ASTROe6_R4_0|
jrr73|COMPLETED|scavenger-gpu|2023-05-10T10:20:25|2023-05-10T10:26:42|00:06:17|dcc-brownlab-gpu-04|1|8|10000M||/hpc/group/tdunn/jravenel/videos/2023_04_28/ASTROe6_R4_0|
jrr73|COMPLETED|scavenger-gpu|2023-05-10T10:20:25|2023-05-10T10:26:02|00:05:37|dcc-brunellab-gpu-01|1|8|10000M||/hpc/group/tdunn/jravenel/videos/2023_04_28/ASTROe6_R4_0|
jrr73|COMPLETED|scavenger-gpu|2023-05-10T10:20:25|2023-05-10T10:26:54|00:06:29|dcc-carin-gpu-01|1|8|10000M||/hpc/group/tdunn/jravenel/videos/2023_04_28/ASTROe6_R4_0|
jrr73|COMPLETED|scavenger-gpu|2023-05-10T10:20:25|2023-05-10T10:27:09|00:06:44|dcc-carin-gpu-02|1|8|10000M||/hpc/group/tdunn/jravenel/videos/2023_04_28/ASTROe6_R4_0|
jrr73|COMPLETED|scavenger-gpu|2023-05-10T10:20:25|2023-05-10T10:26:53|00:06:28|dcc-carin-gpu-03|1|8|10000M||/hpc/group/tdunn/jravenel/videos/2023_04_26/ASTROe5_R3_0|
jrr73|COMPLETED|scavenger-gpu|2023-05-10T10:20:27|2023-05-10T10:27:09|00:06:42|dcc-carin-gpu-04|1|8|10000M||/hpc/group/tdunn/jravenel/videos/2023_04_26/ASTROe5_R3_0|
jrr73|COMPLETED|scavenger-gpu|2023-05-10T10:20:27|2023-05-10T10:28:13|00:07:46|dcc-carin-gpu-05|1|8|10000M||/hpc/group/tdunn/jravenel/videos/2023_04_26/ASTROe5_R3_0|
jrr73|COMPLETED|scavenger-gpu|2023-05-10T10:20:27|2023-05-10T10:28:44|00:08:17|dcc-carin-gpu-06|1|8|10000M||/hpc/group/tdunn/jravenel/videos/2023_04_26/ASTROe5_R3_0|
jrr73|FAILED|scavenger-gpu|2023-05-10T10:20:27|2023-05-10T10:33:08|00:12:41|dcc-youlab-gpu-02|1|8|10000M||/hpc/group/tdunn/jravenel/videos/2023_04_26/ASTROe5_R3_0|
jrr73|FAILED|scavenger-gpu|2023-05-10T10:20:27|2023-05-10T10:31:32|00:11:05|dcc-youlab-gpu-03|1|8|10000M||/hpc/group/tdunn/jravenel/videos/2023_04_26/ASTROe5_R3_0|
jrr73|FAILED|scavenger-gpu|2023-05-10T10:20:28|2023-05-10T10:36:46|00:16:18|dcc-youlab-gpu-04|1|8|10000M||/hpc/group/tdunn/jravenel/videos/2023_04_26/ASTROe5_R3_0|
jrr73|FAILED|scavenger-gpu|2023-05-10T10:20:28|2023-05-10T10:37:17|00:16:49|dcc-youlab-gpu-05|1|8|10000M||/hpc/group/tdunn/jravenel/videos/2023_04_26/ASTROe5_R3_0|
jrr73|FAILED|scavenger-gpu|2023-05-10T10:20:28|2023-05-10T10:20:54|00:00:26|dcc-youlab-gpu-06|1|8|10000M||/hpc/group/tdunn/jravenel/videos/2023_04_26/ASTROe5_R3_0|
jrr73|FAILED|scavenger-gpu|2023-05-10T10:20:28|2023-05-10T10:25:45|00:05:17|dcc-youlab-gpu-07|1|8|10000M||/hpc/group/tdunn/jravenel/videos/2023_04_26/ASTROe5_R3_0|
jrr73|FAILED|scavenger-gpu|2023-05-10T10:20:28|2023-05-10T10:32:00|00:11:32|dcc-youlab-gpu-08|1|8|10000M||/hpc/group/tdunn/jravenel/videos/2023_04_26/ASTROe5_R3_0|
jrr73|FAILED|scavenger-gpu|2023-05-10T10:20:28|2023-05-10T10:36:39|00:16:11|dcc-youlab-gpu-09|1|8|10000M||/hpc/group/tdunn/jravenel/videos/2023_04_26/ASTROe5_R3_0|
jrr73|FAILED|scavenger-gpu|2023-05-10T10:20:29|2023-05-10T10:26:09|00:05:40|dcc-youlab-gpu-10|1|8|10000M||/hpc/group/tdunn/jravenel/videos/2023_04_26/ASTROe5_R3_0|
jrr73|FAILED|scavenger-gpu|2023-05-10T10:20:54|2023-05-10T10:27:05|00:06:11|dcc-youlab-gpu-06|1|8|10000M||/hpc/group/tdunn/jravenel/videos/2023_04_26/ASTROe5_R3_0|
jrr73|FAILED|scavenger-gpu|2023-05-10T10:21:16|2023-05-10T10:25:46|00:04:30|dcc-vossenlab-gpu-01|1|8|10000M||/hpc/group/tdunn/jravenel/videos/2023_04_27/ASTROe5_R3_0|
jrr73|FAILED|scavenger-gpu|2023-05-10T10:22:30|2023-05-10T10:26:34|00:04:04|dcc-vossenlab-gpu-04|1|8|10000M||/hpc/group/tdunn/jravenel/videos/2023_04_26/ASTROe1_R3_0|
jrr73|FAILED|scavenger-gpu|2023-05-10T10:23:16|2023-05-10T10:35:50|00:12:34|dcc-youlab-gpu-24|1|8|10000M||/hpc/group/tdunn/jravenel/videos/2023_04_26/ASTROe2_R4_0|
jrr73|FAILED|scavenger-gpu|2023-05-10T10:24:26|2023-05-10T10:26:21|00:01:55|dcc-youlab-gpu-25|1|8|10000M||/hpc/group/tdunn/jravenel/videos/2023_04_26/ASTROe2_R4_0|
jrr73|FAILED|scavenger-gpu|2023-05-10T10:24:31|2023-05-10T10:38:45|00:14:14|dcc-youlab-gpu-23|1|8|10000M||/hpc/group/tdunn/jravenel/videos/2023_04_27/ASTROe6_R4_0|
cem125|FAILED|scavenger-gpu|2023-05-10T10:20:35|2023-05-10T10:20:51|00:00:16|dcc-youlab-gpu-13|1|10|50G||/hpc/group/rekerlab/cem125/OpenNMT-py|
cem125|COMPLETED|scavenger-gpu|2023-05-10T10:22:19|2023-05-10T10:33:35|00:11:16|dcc-youlab-gpu-33|1|10|50G||/hpc/group/rekerlab/cem125/OpenNMT-py|
mk423|COMPLETED|scavenger-gpu|2023-05-10T10:22:25|2023-05-10T10:23:58|00:01:33|dcc-biostat-gpu-01|1|12|80G||/hpc/home/mk423/Anxiety/FullDataWork/Code/Training/MultiTask|
mk423|COMPLETED|scavenger-gpu|2023-05-10T10:22:25|2023-05-10T10:24:00|00:01:35|dcc-biostat-gpu-02|1|12|80G||/hpc/home/mk423/Anxiety/FullDataWork/Code/Training/MultiTask|
mk423|COMPLETED|scavenger-gpu|2023-05-10T10:22:25|2023-05-10T10:24:25|00:02:00|dcc-tdunn-gpu-02|1|12|80G||/hpc/home/mk423/Anxiety/FullDataWork/Code/Training/MultiTask|
mk423|COMPLETED|scavenger-gpu|2023-05-10T10:22:25|2023-05-10T10:24:23|00:01:58|dcc-tdunn-gpu-02|1|12|80G||/hpc/home/mk423/Anxiety/FullDataWork/Code/Training/MultiTask|
mk423|COMPLETED|scavenger-gpu|2023-05-10T10:25:31|2023-05-10T10:27:00|00:01:29|dcc-biostat-gpu-01|1|12|80G||/hpc/home/mk423/Anxiety/FullDataWork/Code/Training/MultiTask|
mk423|COMPLETED|scavenger-gpu|2023-05-10T10:25:31|2023-05-10T10:27:04|00:01:33|dcc-biostat-gpu-02|1|12|80G||/hpc/home/mk423/Anxiety/FullDataWork/Code/Training/MultiTask|
mk423|COMPLETED|scavenger-gpu|2023-05-10T10:25:31|2023-05-10T10:27:12|00:01:41|dcc-tdunn-gpu-02|1|12|80G||/hpc/home/mk423/Anxiety/FullDataWork/Code/Training/MultiTask|
mk423|COMPLETED|scavenger-gpu|2023-05-10T10:25:31|2023-05-10T10:27:14|00:01:43|dcc-tdunn-gpu-02|1|12|80G||/hpc/home/mk423/Anxiety/FullDataWork/Code/Training/MultiTask|
mk423|COMPLETED|scavenger-gpu|2023-05-10T10:29:24|2023-05-10T10:32:01|00:02:37|dcc-biostat-gpu-01|1|12|80G||/hpc/home/mk423/Anxiety/FullDataWork/Code/Training/MultiTask|
mk423|COMPLETED|scavenger-gpu|2023-05-10T10:29:24|2023-05-10T10:32:06|00:02:42|dcc-biostat-gpu-02|1|12|80G||/hpc/home/mk423/Anxiety/FullDataWork/Code/Training/MultiTask|
mk423|COMPLETED|scavenger-gpu|2023-05-10T10:29:24|2023-05-10T10:32:19|00:02:55|dcc-ultrasound-gpu-02|1|12|80G||/hpc/home/mk423/Anxiety/FullDataWork/Code/Training/MultiTask|
mk423|COMPLETED|scavenger-gpu|2023-05-10T10:29:24|2023-05-10T10:32:47|00:03:23|dcc-ultrasound-gpu-03|1|12|80G||/hpc/home/mk423/Anxiety/FullDataWork/Code/Training/MultiTask|
mk423|CANCELLED by 1192605|scavenger-gpu|2023-05-10T10:34:15|2023-05-10T10:44:42|00:10:27|dcc-biostat-gpu-01|1|12|80G||/hpc/home/mk423/Anxiety/FullDataWork/Code/Training/MultiTask|
mk423|CANCELLED by 1192605|scavenger-gpu|2023-05-10T10:34:15|2023-05-10T10:44:42|00:10:27|dcc-biostat-gpu-02|1|12|80G||/hpc/home/mk423/Anxiety/FullDataWork/Code/Training/MultiTask|
mk423|CANCELLED by 1192605|scavenger-gpu|2023-05-10T10:34:15|2023-05-10T10:44:42|00:10:27|dcc-ultrasound-gpu-02|1|12|80G||/hpc/home/mk423/Anxiety/FullDataWork/Code/Training/MultiTask|
mk423|CANCELLED by 1192605|scavenger-gpu|2023-05-10T10:34:15|2023-05-10T10:44:42|00:10:27|dcc-ultrasound-gpu-03|1|12|80G||/hpc/home/mk423/Anxiety/FullDataWork/Code/Training/MultiTask|
jrr73|FAILED|scavenger-gpu|2023-05-10T10:38:30|2023-05-10T10:42:23|00:03:53|dcc-youlab-gpu-22|1|8|10000M||/hpc/group/tdunn/jravenel/videos/2023_04_28/ASTROe1_R3_0|
jrr73|FAILED|scavenger-gpu|2023-05-10T10:38:40|2023-05-10T10:41:54|00:03:14|dcc-allenlab-gpu-01|1|8|10000M||/hpc/group/tdunn/jravenel/videos/2023_04_28/ASTROe6_R4_0|
jrr73|FAILED|scavenger-gpu|2023-05-10T10:38:40|2023-05-10T10:39:08|00:00:28|dcc-allenlab-gpu-02|1|8|10000M||/hpc/group/tdunn/jravenel/videos/2023_04_28/ASTROe6_R4_0|
jrr73|FAILED|scavenger-gpu|2023-05-10T10:38:43|2023-05-10T10:45:20|00:06:37|dcc-dhvi-gpu-06|1|8|10000M||/hpc/group/tdunn/jravenel/videos/2023_04_28/ASTROe5_R3_0|
jrr73|FAILED|scavenger-gpu|2023-05-10T10:38:43|2023-05-10T10:41:18|00:02:35|dcc-dhvi-gpu-07|1|8|10000M||/hpc/group/tdunn/jravenel/videos/2023_04_28/ASTROe5_R3_0|
jrr73|FAILED|scavenger-gpu|2023-05-10T10:38:43|2023-05-10T10:45:12|00:06:29|dcc-dhvi-gpu-08|1|8|10000M||/hpc/group/tdunn/jravenel/videos/2023_04_28/ASTROe5_R3_0|
jrr73|FAILED|scavenger-gpu|2023-05-10T10:38:43|2023-05-10T10:45:30|00:06:47|dcc-pbenfeylab-gpu-02|1|8|10000M||/hpc/group/tdunn/jravenel/videos/2023_04_28/ASTROe5_R3_0|
jrr73|FAILED|scavenger-gpu|2023-05-10T10:38:44|2023-05-10T10:47:09|00:08:25|dcc-pbenfeylab-gpu-03|1|8|10000M||/hpc/group/tdunn/jravenel/videos/2023_04_28/ASTROe5_R3_0|
jrr73|FAILED|scavenger-gpu|2023-05-10T10:38:44|2023-05-10T10:48:09|00:09:25|dcc-pbenfeylab-gpu-04|1|8|10000M||/hpc/group/tdunn/jravenel/videos/2023_04_28/ASTROe5_R3_0|
jrr73|FAILED|scavenger-gpu|2023-05-10T10:38:44|2023-05-10T10:40:50|00:02:06|dcc-youlab-gpu-24|1|8|10000M||/hpc/group/tdunn/jravenel/videos/2023_04_28/ASTROe5_R3_0|
jrr73|FAILED|scavenger-gpu|2023-05-10T10:38:44|2023-05-10T10:42:38|00:03:54|dcc-youlab-gpu-25|1|8|10000M||/hpc/group/tdunn/jravenel/videos/2023_04_28/ASTROe5_R3_0|
jrr73|FAILED|scavenger-gpu|2023-05-10T10:38:44|2023-05-10T10:55:27|00:16:43|dcc-youlab-gpu-26|1|8|10000M||/hpc/group/tdunn/jravenel/videos/2023_04_28/ASTROe5_R3_0|
jrr73|FAILED|scavenger-gpu|2023-05-10T10:38:44|2023-05-10T10:50:44|00:12:00|dcc-youlab-gpu-31|1|8|10000M||/hpc/group/tdunn/jravenel/videos/2023_04_28/ASTROe5_R3_0|
jrr73|FAILED|scavenger-gpu|2023-05-10T10:38:44|2023-05-10T10:54:13|00:15:29|dcc-youlab-gpu-32|1|8|10000M||/hpc/group/tdunn/jravenel/videos/2023_04_28/ASTROe5_R3_0|
jrr73|FAILED|scavenger-gpu|2023-05-10T10:38:44|2023-05-10T10:41:39|00:02:55|dcc-youlab-gpu-33|1|8|10000M||/hpc/group/tdunn/jravenel/videos/2023_04_28/ASTROe2_R4_0|
jrr73|FAILED|scavenger-gpu|2023-05-10T10:38:44|2023-05-10T10:39:06|00:00:22|dcc-vossenlab-gpu-03|1|8|10000M||/hpc/group/tdunn/jravenel/videos/2023_04_28/ASTROe2_R4_0|
jrr73|FAILED|scavenger-gpu|2023-05-10T10:38:44|2023-05-10T10:51:19|00:12:35|dcc-vossenlab-gpu-04|1|8|10000M||/hpc/group/tdunn/jravenel/videos/2023_04_28/ASTROe2_R4_0|
jrr73|FAILED|scavenger-gpu|2023-05-10T10:38:44|2023-05-10T10:48:07|00:09:23|dcc-vossenlab-gpu-01|1|8|10000M||/hpc/group/tdunn/jravenel/videos/2023_04_28/ASTROe2_R4_0|
jrr73|FAILED|scavenger-gpu|2023-05-10T10:38:44|2023-05-10T10:52:34|00:13:50|dcc-vossenlab-gpu-02|1|8|10000M||/hpc/group/tdunn/jravenel/videos/2023_04_27/ASTROe5_R3_0|
jrr73|FAILED|scavenger-gpu|2023-05-10T10:38:47|2023-05-10T10:45:29|00:06:42|dcc-youlab-gpu-23|1|8|10000M||/hpc/group/tdunn/jravenel/videos/2023_04_27/ASTROe6_R4_0|
jrr73|FAILED|scavenger-gpu|2023-05-10T10:38:47|2023-05-10T10:45:23|00:06:36|dcc-tdunn-gpu-01|1|8|10000M||/hpc/group/tdunn/jravenel/videos/2023_04_26/ASTROe1_R3_0|
jrr73|FAILED|scavenger-gpu|2023-05-10T10:38:47|2023-05-10T10:55:04|00:16:17|dcc-tdunn-gpu-01|1|8|10000M||/hpc/group/tdunn/jravenel/videos/2023_04_26/ASTROe5_R3_0|
jrr73|FAILED|scavenger-gpu|2023-05-10T10:38:47|2023-05-10T10:50:23|00:11:36|dcc-tdunn-gpu-01|1|8|10000M||/hpc/group/tdunn/jravenel/videos/2023_04_26/ASTROe5_R3_0|
jrr73|FAILED|scavenger-gpu|2023-05-10T10:38:47|2023-05-10T10:43:12|00:04:25|dcc-tdunn-gpu-01|1|8|10000M||/hpc/group/tdunn/jravenel/videos/2023_04_26/ASTROe5_R3_0|
jrr73|COMPLETED|scavenger-gpu|2023-05-10T10:38:47|2023-05-10T10:45:30|00:06:43|dcc-ece-gpu-01|1|8|10000M||/hpc/group/tdunn/jravenel/videos/2023_04_26/ASTROe5_R3_0|
jrr73|COMPLETED|scavenger-gpu|2023-05-10T10:38:48|2023-05-10T10:45:30|00:06:42|dcc-ece-gpu-02|1|8|10000M||/hpc/group/tdunn/jravenel/videos/2023_04_26/ASTROe5_R3_0|
jrr73|COMPLETED|scavenger-gpu|2023-05-10T10:38:48|2023-05-10T10:45:05|00:06:17|dcc-ece-gpu-03|1|8|10000M||/hpc/group/tdunn/jravenel/videos/2023_04_26/ASTROe5_R3_0|
jrr73|COMPLETED|scavenger-gpu|2023-05-10T10:38:48|2023-05-10T10:45:07|00:06:19|dcc-ece-gpu-04|1|8|10000M||/hpc/group/tdunn/jravenel/videos/2023_04_26/ASTROe5_R3_0|
jrr73|COMPLETED|scavenger-gpu|2023-05-10T10:38:48|2023-05-10T10:45:07|00:06:19|dcc-carin-gpu-09|1|8|10000M||/hpc/group/tdunn/jravenel/videos/2023_04_26/ASTROe5_R3_0|
jrr73|COMPLETED|scavenger-gpu|2023-05-10T10:38:48|2023-05-10T10:45:21|00:06:33|dcc-carin-gpu-10|1|8|10000M||/hpc/group/tdunn/jravenel/videos/2023_04_26/ASTROe5_R3_0|
jrr73|COMPLETED|scavenger-gpu|2023-05-10T10:38:48|2023-05-10T10:45:08|00:06:20|dcc-carin-gpu-11|1|8|10000M||/hpc/group/tdunn/jravenel/videos/2023_04_26/ASTROe5_R3_0|
jrr73|COMPLETED|scavenger-gpu|2023-05-10T10:38:48|2023-05-10T10:44:29|00:05:41|dcc-gehmlab-gpu-01|1|8|10000M||/hpc/group/tdunn/jravenel/videos/2023_04_26/ASTROe2_R4_0|
jrr73|COMPLETED|scavenger-gpu|2023-05-10T10:38:48|2023-05-10T10:44:42|00:05:54|dcc-gehmlab-gpu-02|1|8|10000M||/hpc/group/tdunn/jravenel/videos/2023_04_26/ASTROe2_R4_0|
jrr73|FAILED|scavenger-gpu|2023-05-10T10:57:22|2023-05-10T10:57:48|00:00:26|dcc-youlab-gpu-52|1|8|10000M||/hpc/group/tdunn/jravenel/videos/2023_04_28/ASTROe1_R3_0|
jrr73|FAILED|scavenger-gpu|2023-05-10T10:57:36|2023-05-10T11:14:54|00:17:18|dcc-allenlab-gpu-01|1|8|10000M||/hpc/group/tdunn/jravenel/videos/2023_04_28/ASTROe2_R4_0|
jrr73|FAILED|scavenger-gpu|2023-05-10T10:57:36|2023-05-10T11:14:47|00:17:11|dcc-allenlab-gpu-02|1|8|10000M||/hpc/group/tdunn/jravenel/videos/2023_04_28/ASTROe2_R4_0|
jrr73|FAILED|scavenger-gpu|2023-05-10T10:57:36|2023-05-10T11:01:57|00:04:21|dcc-dhvi-gpu-06|1|8|10000M||/hpc/group/tdunn/jravenel/videos/2023_04_28/ASTROe2_R4_0|
jrr73|FAILED|scavenger-gpu|2023-05-10T10:57:36|2023-05-10T11:04:58|00:07:22|dcc-dhvi-gpu-07|1|8|10000M||/hpc/group/tdunn/jravenel/videos/2023_04_28/ASTROe2_R4_0|
jrr73|FAILED|scavenger-gpu|2023-05-10T10:57:39|2023-05-10T11:04:56|00:07:17|dcc-dhvi-gpu-08|1|8|10000M||/hpc/group/tdunn/jravenel/videos/2023_04_27/ASTROe6_R4_0|
jrr73|FAILED|scavenger-gpu|2023-05-10T10:57:39|2023-05-10T11:13:33|00:15:54|dcc-pbenfeylab-gpu-02|1|8|10000M||/hpc/group/tdunn/jravenel/videos/2023_04_27/ASTROe5_R3_0|
jrr73|FAILED|scavenger-gpu|2023-05-10T10:57:39|2023-05-10T11:00:04|00:02:25|dcc-pbenfeylab-gpu-03|1|8|10000M||/hpc/group/tdunn/jravenel/videos/2023_04_28/ASTROe6_R4_0|
jrr73|FAILED|scavenger-gpu|2023-05-10T10:57:39|2023-05-10T11:00:59|00:03:20|dcc-pbenfeylab-gpu-04|1|8|10000M||/hpc/group/tdunn/jravenel/videos/2023_04_28/ASTROe6_R4_0|
jrr73|FAILED|scavenger-gpu|2023-05-10T10:57:39|2023-05-10T11:13:05|00:15:26|dcc-youlab-gpu-31|1|8|10000M||/hpc/group/tdunn/jravenel/videos/2023_04_28/ASTROe5_R3_0|
jrr73|FAILED|scavenger-gpu|2023-05-10T10:57:39|2023-05-10T10:58:38|00:00:59|dcc-youlab-gpu-32|1|8|10000M||/hpc/group/tdunn/jravenel/videos/2023_04_28/ASTROe5_R3_0|
jrr73|FAILED|scavenger-gpu|2023-05-10T10:57:39|2023-05-10T10:58:20|00:00:41|dcc-youlab-gpu-33|1|8|10000M||/hpc/group/tdunn/jravenel/videos/2023_04_28/ASTROe5_R3_0|
jrr73|COMPLETED|scavenger-gpu|2023-05-10T10:57:39|2023-05-10T11:03:06|00:05:27|dcc-ultrasound-gpu-02|1|8|10000M||/hpc/group/tdunn/jravenel/videos/2023_04_28/ASTROe5_R3_0|
jrr73|COMPLETED|scavenger-gpu|2023-05-10T10:57:39|2023-05-10T11:03:20|00:05:41|dcc-ultrasound-gpu-03|1|8|10000M||/hpc/group/tdunn/jravenel/videos/2023_04_28/ASTROe5_R3_0|
jrr73|FAILED|scavenger-gpu|2023-05-10T10:57:39|2023-05-10T11:02:13|00:04:34|dcc-vossenlab-gpu-01|1|8|10000M||/hpc/group/tdunn/jravenel/videos/2023_04_28/ASTROe5_R3_0|
jrr73|FAILED|scavenger-gpu|2023-05-10T10:57:39|2023-05-10T11:11:39|00:14:00|dcc-vossenlab-gpu-02|1|8|10000M||/hpc/group/tdunn/jravenel/videos/2023_04_28/ASTROe5_R3_0|
jrr73|FAILED|scavenger-gpu|2023-05-10T10:57:42|2023-05-10T11:07:42|00:10:00|dcc-vossenlab-gpu-03|1|8|10000M||/hpc/group/tdunn/jravenel/videos/2023_04_28/ASTROe5_R3_0|
jrr73|FAILED|scavenger-gpu|2023-05-10T10:57:42|2023-05-10T11:13:03|00:15:21|dcc-vossenlab-gpu-04|1|8|10000M||/hpc/group/tdunn/jravenel/videos/2023_04_28/ASTROe5_R3_0|
jrr73|FAILED|scavenger-gpu|2023-05-10T10:57:42|2023-05-10T11:00:48|00:03:06|dcc-biostat-gpu-01|1|8|10000M||/hpc/group/tdunn/jravenel/videos/2023_04_28/ASTROe5_R3_0|
jrr73|FAILED|scavenger-gpu|2023-05-10T10:57:42|2023-05-10T11:09:22|00:11:40|dcc-biostat-gpu-02|1|8|10000M||/hpc/group/tdunn/jravenel/videos/2023_04_28/ASTROe5_R3_0|
jrr73|FAILED|scavenger-gpu|2023-05-10T10:57:42|2023-05-10T11:14:38|00:16:56|dcc-tdunn-gpu-01|1|8|10000M||/hpc/group/tdunn/jravenel/videos/2023_04_26/ASTROe1_R3_0|
jrr73|FAILED|scavenger-gpu|2023-05-10T10:57:42|2023-05-10T11:18:01|00:20:19|dcc-tdunn-gpu-01|1|8|10000M||/hpc/group/tdunn/jravenel/videos/2023_04_26/ASTROe5_R3_0|
jrr73|FAILED|scavenger-gpu|2023-05-10T10:57:43|2023-05-10T11:10:23|00:12:40|dcc-tdunn-gpu-01|1|8|10000M||/hpc/group/tdunn/jravenel/videos/2023_04_26/ASTROe5_R3_0|
jrr73|FAILED|scavenger-gpu|2023-05-10T10:57:43|2023-05-10T11:09:47|00:12:04|dcc-tdunn-gpu-01|1|8|10000M||/hpc/group/tdunn/jravenel/videos/2023_04_26/ASTROe5_R3_0|
