ym208|TIMEOUT|scavenger-gpu|2023-05-21T15:00:44|2023-05-28T15:01:11|7-00:00:27|dcc-vossenlab-gpu-02|1|1|16G||/hpc/group/bartesaghilab|
cem125|COMPLETED|scavenger-gpu|2023-05-22T12:35:36|2023-05-26T07:55:34|3-19:19:58|dcc-mastatlab-gpu-01|1|44|50G||/hpc/group/rekerlab/cem125/OpenNMT-py|
kw297|TIMEOUT|scavenger-gpu|2023-05-22T14:46:05|2023-05-25T14:46:15|3-00:00:10|dcc-motesa-gpu-03|1|4|20G||/hpc/group/ychenlab/DA|
vk93|TIMEOUT|scavenger-gpu|2023-05-22T18:40:03|2023-05-29T18:40:17|7-00:00:14|dcc-dsplus-gpu-02|1|40|350109M||/hpc/home/vk93/ondemand/data/sys/dashboard/batch_connect/sys/bc_jupyter/output/a343442f-f646-4b0b-a53b-96bdb874d6c8|
yx240|COMPLETED|scavenger-gpu|2023-05-23T15:38:18|2023-05-25T19:26:28|2-03:48:10|dcc-carin-gpu-03|1|19|38G||/work/yx240/project-martini/new/simutools/run-pbs|
yx240|COMPLETED|scavenger-gpu|2023-05-23T15:38:22|2023-05-25T23:11:42|2-07:33:20|dcc-brownlab-gpu-03|1|19|38G||/work/yx240/project-martini/new/simutools/run-pbs|
yx240|COMPLETED|scavenger-gpu|2023-05-23T15:38:22|2023-05-25T17:37:04|2-01:58:42|dcc-brownlab-gpu-02|1|19|38G||/work/yx240/project-martini/new/simutools/run-pbs|
yx240|CANCELLED by 1495323|scavenger-gpu|2023-05-23T15:57:49|2023-05-30T11:42:56|6-19:45:07|dcc-dsplus-gpu-01|1|92|38G||/work/yx240/project-martini/new/simutools/run-pbs|
yx240|COMPLETED|scavenger-gpu|2023-05-23T17:20:55|2023-05-25T16:06:16|1-22:45:21|dcc-carlsonlab-gpu-08|1|21|38G||/work/yx240/project-martini/new/simutools/run-pbs|
bgb13|FAILED|scavenger-gpu|2023-05-24T09:21:10|2023-05-28T19:25:01|4-10:03:51|dcc-brownlab-gpu-01|1|16|10G||/hpc/group/dukenmr/bgb13/cyp51b_phosphorylated_S123/./.|
yl708|CANCELLED by 1382854|scavenger-gpu|2023-05-24T09:43:47|2023-05-25T10:49:22|1-01:05:35|dcc-pbenfeylab-gpu-03|1|10|2G||/hpc/group/donald/yl708/TopologyNet-2017/perturbations|
bgb13|TIMEOUT|scavenger-gpu|2023-05-24T09:47:50|2023-05-31T09:48:13|7-00:00:23|dcc-carin-gpu-01|1|16|10G||/hpc/group/dukenmr/bgb13/cyp51b_phosphorylated_S451/./.|
rd254|COMPLETED|scavenger-gpu|2023-05-24T10:11:20|2023-05-27T22:00:42|3-11:49:22|dcc-carlsonlab-gpu-06|1|6|12G||/work/rd254/ATP_ATP_unres|
rd254|COMPLETED|scavenger-gpu|2023-05-24T10:49:56|2023-05-29T23:29:59|5-12:40:03|dcc-carlsonlab-gpu-12|1|6|12G||/work/rd254/ATP_monomer|
pkk16|TIMEOUT|scavenger-gpu|2023-05-24T13:12:27|2023-05-25T13:12:32|1-00:00:05|dcc-tdunn-gpu-01|1|2|20G||/hpc/home/pkk16/ondemand/data/sys/dashboard/batch_connect/sys/bc_jupyter/output/8b1fe324-3dbb-4fc8-a349-25b887b3a58d|
pb183|CANCELLED by 1394232|scavenger-gpu|2023-05-24T17:05:56|2023-05-25T14:58:44|21:52:48|dcc-youlab-gpu-53|1|10|96G||/hpc/group/ldefratelab/Patrick/Cartilage_ML_3D|
pb183|CANCELLED by 1394232|scavenger-gpu|2023-05-24T21:59:36|2023-05-25T14:58:48|16:59:12|dcc-youlab-gpu-31|1|10|96G||/hpc/group/ldefratelab/Patrick/Cartilage_ML_3D|
lh342|TIMEOUT|scavenger-gpu|2023-05-24T15:04:49|2023-05-31T15:04:58|7-00:00:09|dcc-youlab-gpu-19|1|10|16G||/hpc/home/lh342/MMVAE|
zcb2|COMPLETED|scavenger-gpu|2023-05-24T15:29:20|2023-05-25T11:05:28|19:36:08|dcc-biostat-gpu-01|1|19|182952M||/hpc/home/zcb2/causal-inference-for-neurological-data/train|
zcb2|PREEMPTED|scavenger-gpu|2023-05-24T16:06:26|2023-05-25T18:59:19|1-02:52:53|dcc-fanglab-gpu-01|1|19|182952M||/hpc/home/zcb2/causal-inference-for-neurological-data/train|
pkk16|TIMEOUT|scavenger-gpu|2023-05-24T16:19:12|2023-05-25T16:19:12|1-00:00:00|dcc-fanglab-gpu-01|1|2|20G||/hpc/home/pkk16/ondemand/data/sys/dashboard/batch_connect/sys/bc_jupyter/output/c8754e17-0402-489d-987d-63b8f7088ed0|
yw564|PREEMPTED|scavenger-gpu|2023-05-24T17:01:55|2023-05-26T14:27:31|1-21:25:36|dcc-viplab-gpu-01|1|2|50G||/hpc/group/jilab|
yw564|TIMEOUT|scavenger-gpu|2023-05-24T17:04:47|2023-05-31T17:05:15|7-00:00:28|dcc-pbenfeylab-gpu-01|1|2|50G||/hpc/group/jilab|
yw564|COMPLETED|scavenger-gpu|2023-05-24T22:52:38|2023-05-25T15:18:56|16:26:18|dcc-youlab-gpu-02|1|10|100G||/hpc/group/jilab/yw564/GeneSegNet|
xz284|COMPLETED|scavenger-gpu|2023-05-25T00:53:32|2023-05-25T10:53:13|09:59:41|dcc-carin-gpu-07|1|8|64G||/hpc/group/motesa/Risk_Aware_SCUC_Model/Prelim/CT=0_RAT=1_New/RAS-EMS_updated/beta=0.8/extreme|
yx240|COMPLETED|scavenger-gpu|2023-05-25T03:31:05|2023-05-26T09:07:22|1-05:36:17|dcc-youlab-gpu-55|1|10|2G||/work/yx240/project-martini/new/simutools/run-pbs|
yx240|COMPLETED|scavenger-gpu|2023-05-25T03:39:13|2023-05-26T14:21:50|1-10:42:37|dcc-youlab-gpu-44|1|10|2G||/work/yx240/project-martini/new/simutools/scripts|
yk206|COMPLETED|scavenger-gpu|2023-05-25T04:36:22|2023-05-27T12:48:44|2-08:12:22|dcc-pbenfeylab-gpu-02|1|10|24G||/hpc/home/yk206/script/face_download|
yk206|OUT_OF_MEMORY|scavenger-gpu|2023-05-25T04:39:53|2023-05-27T11:13:21|2-06:33:28|dcc-pbenfeylab-gpu-04|1|10|24G||/hpc/home/yk206/script/face_download|
yk206|PREEMPTED|scavenger-gpu|2023-05-25T04:39:53|2023-05-25T13:59:49|09:19:56|dcc-vossenlab-gpu-01|1|10|24G||/hpc/home/yk206/script/face_download|
yk206|COMPLETED|scavenger-gpu|2023-05-25T04:39:53|2023-05-26T10:44:35|1-06:04:42|dcc-youlab-gpu-18|1|10|24G||/hpc/home/yk206/script/face_download|
yk206|COMPLETED|scavenger-gpu|2023-05-25T04:39:54|2023-05-26T08:33:26|1-03:53:32|dcc-youlab-gpu-40|1|10|24G||/hpc/home/yk206/script/face_download|
yk206|COMPLETED|scavenger-gpu|2023-05-25T04:39:54|2023-05-26T09:07:43|1-04:27:49|dcc-vossenlab-gpu-03|1|10|24G||/hpc/home/yk206/script/face_download|
yk206|OUT_OF_MEMORY|scavenger-gpu|2023-05-25T04:39:54|2023-05-26T23:41:58|1-19:02:04|dcc-vossenlab-gpu-04|1|10|24G||/hpc/home/yk206/script/face_download|
yk206|COMPLETED|scavenger-gpu|2023-05-25T04:39:54|2023-05-25T12:57:58|08:18:04|dcc-youlab-gpu-23|1|10|24G||/hpc/home/yk206/script/face_download|
yk206|COMPLETED|scavenger-gpu|2023-05-25T04:39:54|2023-05-26T02:18:48|21:38:54|dcc-youlab-gpu-24|1|10|24G||/hpc/home/yk206/script/face_download|
yk206|OUT_OF_MEMORY|scavenger-gpu|2023-05-25T04:39:54|2023-05-27T00:13:02|1-19:33:08|dcc-youlab-gpu-43|1|10|24G||/hpc/home/yk206/script/face_download|
yk206|COMPLETED|scavenger-gpu|2023-05-25T04:39:54|2023-05-25T22:01:59|17:22:05|dcc-biostat-gpu-02|1|22|24G||/hpc/home/yk206/script/face_download|
yk206|COMPLETED|scavenger-gpu|2023-05-25T04:39:55|2023-05-26T01:33:17|20:53:22|dcc-youlab-gpu-03|1|10|24G||/hpc/home/yk206/script/face_download|
yk206|COMPLETED|scavenger-gpu|2023-05-25T04:39:55|2023-05-26T08:49:04|1-04:09:09|dcc-youlab-gpu-04|1|10|24G||/hpc/home/yk206/script/face_download|
yk206|COMPLETED|scavenger-gpu|2023-05-25T04:39:55|2023-05-26T19:01:32|1-14:21:37|dcc-youlab-gpu-05|1|10|24G||/hpc/home/yk206/script/face_download|
yk206|COMPLETED|scavenger-gpu|2023-05-25T04:39:55|2023-05-25T13:32:44|08:52:49|dcc-youlab-gpu-32|1|10|24G||/hpc/home/yk206/script/face_download|
yk206|OUT_OF_MEMORY|scavenger-gpu|2023-05-25T04:39:55|2023-05-25T21:16:31|16:36:36|dcc-youlab-gpu-33|1|10|24G||/hpc/home/yk206/script/face_download|
yk206|OUT_OF_MEMORY|scavenger-gpu|2023-05-25T04:39:55|2023-05-27T00:28:37|1-19:48:42|dcc-youlab-gpu-34|1|10|24G||/hpc/home/yk206/script/face_download|
yk206|COMPLETED|scavenger-gpu|2023-05-25T04:39:55|2023-05-25T17:25:19|12:45:24|dcc-youlab-gpu-36|1|10|24G||/hpc/home/yk206/script/face_download|
yk206|COMPLETED|scavenger-gpu|2023-05-25T04:39:55|2023-05-25T18:00:28|13:20:33|dcc-youlab-gpu-37|1|10|24G||/hpc/home/yk206/script/face_download|
yk206|COMPLETED|scavenger-gpu|2023-05-25T04:39:55|2023-05-25T15:53:07|11:13:12|dcc-youlab-gpu-38|1|10|24G||/hpc/home/yk206/script/face_download|
yk206|OUT_OF_MEMORY|scavenger-gpu|2023-05-25T04:39:58|2023-05-27T07:59:48|2-03:19:50|dcc-allenlab-gpu-02|1|10|24G||/hpc/home/yk206/script/face_download|
yk206|OUT_OF_MEMORY|scavenger-gpu|2023-05-25T04:39:58|2023-05-26T11:48:25|1-07:08:27|dcc-allenlab-gpu-03|1|10|24G||/hpc/home/yk206/script/face_download|
yk206|COMPLETED|scavenger-gpu|2023-05-25T04:39:58|2023-05-27T19:16:22|2-14:36:24|dcc-allenlab-gpu-04|1|10|24G||/hpc/home/yk206/script/face_download|
yk206|OUT_OF_MEMORY|scavenger-gpu|2023-05-25T04:39:58|2023-05-26T04:12:39|23:32:41|dcc-youlab-gpu-27|1|10|24G||/hpc/home/yk206/script/face_download|
yk206|OUT_OF_MEMORY|scavenger-gpu|2023-05-25T04:39:58|2023-05-25T23:52:32|19:12:34|dcc-youlab-gpu-28|1|10|24G||/hpc/home/yk206/script/face_download|
yk206|OUT_OF_MEMORY|scavenger-gpu|2023-05-25T04:39:58|2023-05-26T00:39:16|19:59:18|dcc-youlab-gpu-29|1|10|24G||/hpc/home/yk206/script/face_download|
yk206|COMPLETED|scavenger-gpu|2023-05-25T04:39:58|2023-05-26T01:35:55|20:55:57|dcc-youlab-gpu-30|1|10|24G||/hpc/home/yk206/script/face_download|
yk206|PREEMPTED|scavenger-gpu|2023-05-25T04:39:58|2023-05-25T11:47:48|07:07:50|dcc-tdunn-gpu-02|1|44|24G||/hpc/home/yk206/script/face_download|
yk206|OUT_OF_MEMORY|scavenger-gpu|2023-05-25T04:39:58|2023-05-26T12:00:44|1-07:20:46|dcc-youlab-gpu-01|1|44|24G||/hpc/home/yk206/script/face_download|
zq43|PREEMPTED|scavenger-gpu|2023-05-25T13:23:19|2023-05-25T13:33:02|00:09:43|dcc-gehmlab-gpu-30|1|19|2G||/hpc/group/renlab/zhuobiao/MC_kV_for_zhuobiao|
yw564|CANCELLED by 1502970|scavenger-gpu|2023-05-25T06:36:35|2023-05-25T14:18:36|07:42:01|dcc-youlab-gpu-35|1|10|100G||/hpc/group/jilab/yw564/GeneSegNet|
minhe|FAILED|scavenger-gpu|2023-05-25T08:37:19|2023-05-25T10:12:23|01:35:04|dcc-youlab-gpu-42|1|10|86172M||/work/minhe/alphafold|
minhe|FAILED|scavenger-gpu|2023-05-25T08:37:19|2023-05-25T10:53:05|02:15:46|dcc-youlab-gpu-21|1|10|86172M||/work/minhe/alphafold|
minhe|FAILED|scavenger-gpu|2023-05-25T08:37:19|2023-05-25T11:00:43|02:23:24|dcc-youlab-gpu-15|1|10|86172M||/work/minhe/alphafold|
minhe|COMPLETED|scavenger-gpu|2023-05-25T08:37:19|2023-05-25T10:01:28|01:24:09|dcc-youlab-gpu-14|1|10|86172M||/work/minhe/alphafold|
minhe|FAILED|scavenger-gpu|2023-05-25T08:37:19|2023-05-25T10:44:26|02:07:07|dcc-youlab-gpu-13|1|10|86172M||/work/minhe/alphafold|
minhe|FAILED|scavenger-gpu|2023-05-25T08:37:22|2023-05-25T10:55:43|02:18:21|dcc-youlab-gpu-12|1|10|86172M||/work/minhe/alphafold|
minhe|FAILED|scavenger-gpu|2023-05-25T08:37:22|2023-05-25T10:52:16|02:14:54|dcc-youlab-gpu-11|1|10|86172M||/work/minhe/alphafold|
minhe|COMPLETED|scavenger-gpu|2023-05-25T08:37:22|2023-05-25T10:01:39|01:24:17|dcc-youlab-gpu-10|1|10|86172M||/work/minhe/alphafold|
minhe|FAILED|scavenger-gpu|2023-05-25T08:37:22|2023-05-25T10:04:53|01:27:31|dcc-youlab-gpu-09|1|10|86172M||/work/minhe/alphafold|
minhe|FAILED|scavenger-gpu|2023-05-25T08:37:22|2023-05-25T10:05:09|01:27:47|dcc-youlab-gpu-07|1|10|86172M||/work/minhe/alphafold|
minhe|FAILED|scavenger-gpu|2023-05-25T08:37:22|2023-05-25T10:30:29|01:53:07|dcc-ultrasound-gpu-04|1|19|86172M||/work/minhe/alphafold|
minhe|FAILED|scavenger-gpu|2023-05-25T08:37:22|2023-05-25T10:07:02|01:29:40|dcc-ultrasound-gpu-02|1|19|86172M||/work/minhe/alphafold|
minhe|FAILED|scavenger-gpu|2023-05-25T08:37:22|2023-05-25T10:36:52|01:59:30|dcc-ultrasound-gpu-01|1|19|86172M||/work/minhe/alphafold|
minhe|CANCELLED by 10212|scavenger-gpu|2023-05-25T09:11:34|2023-05-25T11:29:00|02:17:26|dcc-ece-gpu-04|1|13|86172M||/work/minhe/alphafold|
minhe|CANCELLED by 10212|scavenger-gpu|2023-05-25T09:11:34|2023-05-25T11:29:00|02:17:26|dcc-ece-gpu-03|1|13|86172M||/work/minhe/alphafold|
minhe|FAILED|scavenger-gpu|2023-05-25T09:11:38|2023-05-25T10:04:39|00:53:01|dcc-ece-gpu-02|1|13|86172M||/work/minhe/alphafold|
minhe|CANCELLED by 10212|scavenger-gpu|2023-05-25T09:11:40|2023-05-25T11:29:00|02:17:20|dcc-ece-gpu-01|1|13|86172M||/work/minhe/alphafold|
minhe|CANCELLED by 10212|scavenger-gpu|2023-05-25T09:11:44|2023-05-25T11:29:00|02:17:16|dcc-dsplus-gpu-10|1|19|86172M||/work/minhe/alphafold|
minhe|CANCELLED by 10212|scavenger-gpu|2023-05-25T09:11:47|2023-05-25T11:29:00|02:17:13|dcc-dsplus-gpu-09|1|19|86172M||/work/minhe/alphafold|
minhe|FAILED|scavenger-gpu|2023-05-25T09:11:50|2023-05-25T11:12:55|02:01:05|dcc-dsplus-gpu-08|1|19|86172M||/work/minhe/alphafold|
minhe|CANCELLED by 10212|scavenger-gpu|2023-05-25T09:11:52|2023-05-25T11:29:00|02:17:08|dcc-dsplus-gpu-07|1|19|86172M||/work/minhe/alphafold|
minhe|FAILED|scavenger-gpu|2023-05-25T09:29:40|2023-05-25T10:04:43|00:35:03|dcc-collinslab-gpu-04|1|19|86172M||/work/minhe/alphafold|
minhe|FAILED|scavenger-gpu|2023-05-25T09:41:54|2023-05-25T11:27:54|01:46:00|dcc-ultrasound-gpu-03|1|19|86172M||/work/minhe/alphafold|
minhe|CANCELLED by 10212|scavenger-gpu|2023-05-25T09:42:05|2023-05-25T11:29:00|01:46:55|dcc-collinslab-gpu-03|1|19|86172M||/work/minhe/alphafold|
minhe|FAILED|scavenger-gpu|2023-05-25T09:53:36|2023-05-25T10:04:41|00:11:05|dcc-youlab-gpu-41|1|10|86172M||/work/minhe/alphafold|
minhe|FAILED|scavenger-gpu|2023-05-25T09:57:19|2023-05-25T10:04:47|00:07:28|dcc-youlab-gpu-16|1|10|86172M||/work/minhe/alphafold|
minhe|FAILED|scavenger-gpu|2023-05-25T10:01:28|2023-05-25T10:04:44|00:03:16|dcc-youlab-gpu-14|1|10|86172M||/work/minhe/alphafold|
minhe|FAILED|scavenger-gpu|2023-05-25T10:01:41|2023-05-25T10:05:01|00:03:20|dcc-youlab-gpu-10|1|10|86172M||/work/minhe/alphafold|
minhe|FAILED|scavenger-gpu|2023-05-25T10:04:40|2023-05-25T10:05:11|00:00:31|dcc-ece-gpu-02|1|13|86172M||/work/minhe/alphafold|
minhe|FAILED|scavenger-gpu|2023-05-25T10:04:42|2023-05-25T10:05:22|00:00:40|dcc-youlab-gpu-41|1|10|86172M||/work/minhe/alphafold|
minhe|FAILED|scavenger-gpu|2023-05-25T10:04:44|2023-05-25T10:05:18|00:00:34|dcc-collinslab-gpu-04|1|19|86172M||/work/minhe/alphafold|
minhe|FAILED|scavenger-gpu|2023-05-25T10:04:46|2023-05-25T10:05:20|00:00:34|dcc-youlab-gpu-14|1|10|86172M||/work/minhe/alphafold|
minhe|FAILED|scavenger-gpu|2023-05-25T10:04:49|2023-05-25T10:05:20|00:00:31|dcc-youlab-gpu-16|1|10|86172M||/work/minhe/alphafold|
minhe|FAILED|scavenger-gpu|2023-05-25T10:04:49|2023-05-25T10:05:20|00:00:31|dcc-collinslab-gpu-02|1|19|86172M||/work/minhe/alphafold|
minhe|FAILED|scavenger-gpu|2023-05-25T10:04:49|2023-05-25T10:05:20|00:00:31|dcc-collinslab-gpu-01|1|19|86172M||/work/minhe/alphafold|
minhe|FAILED|scavenger-gpu|2023-05-25T10:04:49|2023-05-25T10:05:19|00:00:30|dcc-carlsonlab-gpu-16|1|21|86172M||/work/minhe/alphafold|
minhe|COMPLETED|scavenger-gpu|2023-05-25T10:04:49|2023-05-25T10:05:09|00:00:20|dcc-carlsonlab-gpu-15|1|21|86172M||/work/minhe/alphafold|
minhe|FAILED|scavenger-gpu|2023-05-25T10:04:51|2023-05-25T10:05:20|00:00:29|dcc-carlsonlab-gpu-14|1|21|86172M||/work/minhe/alphafold|
minhe|FAILED|scavenger-gpu|2023-05-25T10:04:55|2023-05-25T10:05:17|00:00:22|dcc-youlab-gpu-09|1|10|86172M||/work/minhe/alphafold|
minhe|FAILED|scavenger-gpu|2023-05-25T10:04:55|2023-05-25T10:05:22|00:00:27|dcc-carlsonlab-gpu-11|1|21|86172M||/work/minhe/alphafold|
minhe|FAILED|scavenger-gpu|2023-05-25T10:05:18|2023-05-25T11:27:17|01:21:59|dcc-youlab-gpu-10|1|10|86172M||/work/minhe/alphafold|
minhe|FAILED|scavenger-gpu|2023-05-25T10:05:21|2023-05-25T10:29:38|00:24:17|dcc-youlab-gpu-16|1|10|86172M||/work/minhe/alphafold|
minhe|FAILED|scavenger-gpu|2023-05-25T10:05:21|2023-05-25T11:23:10|01:17:49|dcc-youlab-gpu-14|1|10|86172M||/work/minhe/alphafold|
minhe|FAILED|scavenger-gpu|2023-05-25T10:05:21|2023-05-25T10:29:57|00:24:36|dcc-youlab-gpu-09|1|10|86172M||/work/minhe/alphafold|
minhe|FAILED|scavenger-gpu|2023-05-25T10:05:21|2023-05-25T11:27:08|01:21:47|dcc-youlab-gpu-07|1|10|86172M||/work/minhe/alphafold|
minhe|FAILED|scavenger-gpu|2023-05-25T10:05:21|2023-05-25T10:29:53|00:24:32|dcc-ece-gpu-02|1|13|86172M||/work/minhe/alphafold|
minhe|CANCELLED by 10212|scavenger-gpu|2023-05-25T10:05:23|2023-05-25T11:29:00|01:23:37|dcc-youlab-gpu-41|1|10|86172M||/work/minhe/alphafold|
minhe|COMPLETED|scavenger-gpu|2023-05-25T10:05:23|2023-05-25T10:23:36|00:18:13|dcc-collinslab-gpu-04|1|19|86172M||/work/minhe/alphafold|
minhe|FAILED|scavenger-gpu|2023-05-25T10:07:03|2023-05-25T10:29:30|00:22:27|dcc-ultrasound-gpu-02|1|19|86172M||/work/minhe/alphafold|
minhe|FAILED|scavenger-gpu|2023-05-25T10:12:25|2023-05-25T10:29:47|00:17:22|dcc-youlab-gpu-42|1|10|86172M||/work/minhe/alphafold|
minhe|FAILED|scavenger-gpu|2023-05-25T10:23:36|2023-05-25T10:29:39|00:06:03|dcc-collinslab-gpu-04|1|19|86172M||/work/minhe/alphafold|
minhe|CANCELLED by 10212|scavenger-gpu|2023-05-25T10:29:31|2023-05-25T11:29:00|00:59:29|dcc-ultrasound-gpu-02|1|19|86172M||/work/minhe/alphafold|
minhe|CANCELLED by 10212|scavenger-gpu|2023-05-25T10:29:30|2023-05-25T11:29:00|00:59:30|dcc-gehmlab-gpu-47|1|19|86172M||/work/minhe/alphafold|
minhe|CANCELLED by 10212|scavenger-gpu|2023-05-25T10:29:31|2023-05-25T11:29:00|00:59:29|dcc-carlsonlab-gpu-16|1|21|86172M||/work/minhe/alphafold|
minhe|COMPLETED|scavenger-gpu|2023-05-25T10:29:33|2023-05-25T10:30:07|00:00:34|dcc-carlsonlab-gpu-15|1|21|86172M||/work/minhe/alphafold|
minhe|CANCELLED by 10212|scavenger-gpu|2023-05-25T10:29:35|2023-05-25T11:29:00|00:59:25|dcc-carlsonlab-gpu-14|1|21|86172M||/work/minhe/alphafold|
minhe|CANCELLED by 10212|scavenger-gpu|2023-05-25T10:29:40|2023-05-25T11:29:00|00:59:20|dcc-youlab-gpu-16|1|10|86172M||/work/minhe/alphafold|
minhe|COMPLETED|scavenger-gpu|2023-05-25T10:29:40|2023-05-25T10:33:11|00:03:31|dcc-collinslab-gpu-04|1|19|86172M||/work/minhe/alphafold|
minhe|FAILED|scavenger-gpu|2023-05-25T10:29:40|2023-05-25T10:37:36|00:07:56|dcc-carlsonlab-gpu-11|1|21|86172M||/work/minhe/alphafold|
minhe|FAILED|scavenger-gpu|2023-05-25T10:29:40|2023-05-25T10:37:23|00:07:43|dcc-carlsonlab-gpu-10|1|21|86172M||/work/minhe/alphafold|
minhe|FAILED|scavenger-gpu|2023-05-25T10:29:43|2023-05-25T10:37:13|00:07:30|dcc-carlsonlab-gpu-09|1|21|86172M||/work/minhe/alphafold|
minhe|CANCELLED by 10212|scavenger-gpu|2023-05-25T10:29:45|2023-05-25T11:29:00|00:59:15|dcc-carlsonlab-gpu-07|1|21|86172M||/work/minhe/alphafold|
minhe|FAILED|scavenger-gpu|2023-05-25T10:29:45|2023-05-25T10:37:15|00:07:30|dcc-carlsonlab-gpu-05|1|21|86172M||/work/minhe/alphafold|
minhe|CANCELLED by 10212|scavenger-gpu|2023-05-25T10:29:48|2023-05-25T11:29:00|00:59:12|dcc-youlab-gpu-42|1|10|86172M||/work/minhe/alphafold|
minhe|CANCELLED by 10212|scavenger-gpu|2023-05-25T10:29:50|2023-05-25T11:29:00|00:59:10|dcc-carlsonlab-gpu-04|1|21|86172M||/work/minhe/alphafold|
minhe|CANCELLED by 10212|scavenger-gpu|2023-05-25T10:29:53|2023-05-25T11:29:00|00:59:07|dcc-carlsonlab-gpu-02|1|21|86172M||/work/minhe/alphafold|
minhe|FAILED|scavenger-gpu|2023-05-25T10:29:53|2023-05-25T10:37:32|00:07:39|dcc-carin-gpu-11|1|19|86172M||/work/minhe/alphafold|
minhe|FAILED|scavenger-gpu|2023-05-25T10:29:53|2023-05-25T10:37:22|00:07:29|dcc-carin-gpu-10|1|19|86172M||/work/minhe/alphafold|
minhe|CANCELLED by 10212|scavenger-gpu|2023-05-25T10:29:53|2023-05-25T11:29:00|00:59:07|dcc-carin-gpu-09|1|19|86172M||/work/minhe/alphafold|
minhe|FAILED|scavenger-gpu|2023-05-25T10:29:53|2023-05-25T10:37:23|00:07:30|dcc-carin-gpu-08|1|19|86172M||/work/minhe/alphafold|
minhe|CANCELLED by 10212|scavenger-gpu|2023-05-25T10:29:53|2023-05-25T11:29:00|00:59:07|dcc-carin-gpu-06|1|19|86172M||/work/minhe/alphafold|
minhe|CANCELLED by 10212|scavenger-gpu|2023-05-25T10:29:55|2023-05-25T11:29:00|00:59:05|dcc-ece-gpu-02|1|13|86172M||/work/minhe/alphafold|
minhe|FAILED|scavenger-gpu|2023-05-25T10:29:55|2023-05-25T10:37:19|00:07:24|dcc-carin-gpu-05|1|19|86172M||/work/minhe/alphafold|
minhe|CANCELLED by 10212|scavenger-gpu|2023-05-25T10:29:55|2023-05-25T11:29:00|00:59:05|dcc-carin-gpu-04|1|19|86172M||/work/minhe/alphafold|
minhe|FAILED|scavenger-gpu|2023-05-25T10:29:55|2023-05-25T10:37:25|00:07:30|dcc-carin-gpu-02|1|19|86172M||/work/minhe/alphafold|
minhe|FAILED|scavenger-gpu|2023-05-25T10:29:55|2023-05-25T10:37:28|00:07:33|dcc-brunellab-gpu-04|1|21|86172M||/work/minhe/alphafold|
minhe|CANCELLED by 10212|scavenger-gpu|2023-05-25T10:29:58|2023-05-25T11:29:00|00:59:02|dcc-youlab-gpu-09|1|10|86172M||/work/minhe/alphafold|
minhe|CANCELLED by 10212|scavenger-gpu|2023-05-25T10:30:00|2023-05-25T11:29:00|00:59:00|dcc-brunellab-gpu-03|1|21|86172M||/work/minhe/alphafold|
minhe|CANCELLED by 10212|scavenger-gpu|2023-05-25T10:30:06|2023-05-25T11:29:00|00:58:54|dcc-brunellab-gpu-02|1|21|86172M||/work/minhe/alphafold|
minhe|COMPLETED|scavenger-gpu|2023-05-25T10:30:08|2023-05-25T10:30:24|00:00:16|dcc-carlsonlab-gpu-15|1|21|86172M||/work/minhe/alphafold|
minhe|COMPLETED|scavenger-gpu|2023-05-25T10:30:24|2023-05-25T10:30:37|00:00:13|dcc-carlsonlab-gpu-15|1|21|86172M||/work/minhe/alphafold|
minhe|CANCELLED by 10212|scavenger-gpu|2023-05-25T10:30:30|2023-05-25T11:29:00|00:58:30|dcc-ultrasound-gpu-04|1|19|86172M||/work/minhe/alphafold|
minhe|COMPLETED|scavenger-gpu|2023-05-25T10:30:38|2023-05-25T10:30:51|00:00:13|dcc-carlsonlab-gpu-15|1|21|86172M||/work/minhe/alphafold|
minhe|COMPLETED|scavenger-gpu|2023-05-25T10:30:52|2023-05-25T10:31:04|00:00:12|dcc-carlsonlab-gpu-15|1|21|86172M||/work/minhe/alphafold|
minhe|COMPLETED|scavenger-gpu|2023-05-25T10:31:05|2023-05-25T10:31:18|00:00:13|dcc-carlsonlab-gpu-15|1|21|86172M||/work/minhe/alphafold|
minhe|COMPLETED|scavenger-gpu|2023-05-25T10:31:18|2023-05-25T10:31:31|00:00:13|dcc-carlsonlab-gpu-15|1|21|86172M||/work/minhe/alphafold|
minhe|FAILED|scavenger-gpu|2023-05-25T10:31:25|2023-05-25T10:37:34|00:06:09|dcc-brunellab-gpu-01|1|21|86172M||/work/minhe/alphafold|
minhe|COMPLETED|scavenger-gpu|2023-05-25T10:31:31|2023-05-25T10:31:44|00:00:13|dcc-carlsonlab-gpu-15|1|21|86172M||/work/minhe/alphafold|
minhe|COMPLETED|scavenger-gpu|2023-05-25T10:31:44|2023-05-25T10:31:57|00:00:13|dcc-carlsonlab-gpu-15|1|21|86172M||/work/minhe/alphafold|
minhe|COMPLETED|scavenger-gpu|2023-05-25T10:31:57|2023-05-25T10:32:10|00:00:13|dcc-carlsonlab-gpu-15|1|21|86172M||/work/minhe/alphafold|
minhe|COMPLETED|scavenger-gpu|2023-05-25T10:32:11|2023-05-25T10:32:23|00:00:12|dcc-carlsonlab-gpu-15|1|21|86172M||/work/minhe/alphafold|
minhe|COMPLETED|scavenger-gpu|2023-05-25T10:32:26|2023-05-25T10:32:38|00:00:12|dcc-carlsonlab-gpu-15|1|21|86172M||/work/minhe/alphafold|
minhe|COMPLETED|scavenger-gpu|2023-05-25T10:32:38|2023-05-25T10:32:51|00:00:13|dcc-carlsonlab-gpu-15|1|21|86172M||/work/minhe/alphafold|
minhe|COMPLETED|scavenger-gpu|2023-05-25T10:32:51|2023-05-25T10:33:03|00:00:12|dcc-carlsonlab-gpu-15|1|21|86172M||/work/minhe/alphafold|
minhe|COMPLETED|scavenger-gpu|2023-05-25T10:33:04|2023-05-25T10:33:17|00:00:13|dcc-carlsonlab-gpu-15|1|21|86172M||/work/minhe/alphafold|
minhe|FAILED|scavenger-gpu|2023-05-25T10:33:11|2023-05-25T10:37:18|00:04:07|dcc-collinslab-gpu-04|1|19|86172M||/work/minhe/alphafold|
minhe|COMPLETED|scavenger-gpu|2023-05-25T10:33:17|2023-05-25T10:33:30|00:00:13|dcc-carlsonlab-gpu-15|1|21|86172M||/work/minhe/alphafold|
minhe|COMPLETED|scavenger-gpu|2023-05-25T10:33:30|2023-05-25T10:33:43|00:00:13|dcc-carlsonlab-gpu-15|1|21|86172M||/work/minhe/alphafold|
minhe|COMPLETED|scavenger-gpu|2023-05-25T10:33:43|2023-05-25T10:33:55|00:00:12|dcc-carlsonlab-gpu-15|1|21|86172M||/work/minhe/alphafold|
minhe|FAILED|scavenger-gpu|2023-05-25T10:33:49|2023-05-25T10:37:23|00:03:34|dcc-allenlab-gpu-01|1|10|86172M||/work/minhe/alphafold|
minhe|COMPLETED|scavenger-gpu|2023-05-25T10:33:57|2023-05-25T10:34:10|00:00:13|dcc-carlsonlab-gpu-15|1|21|86172M||/work/minhe/alphafold|
minhe|COMPLETED|scavenger-gpu|2023-05-25T10:34:11|2023-05-25T10:34:24|00:00:13|dcc-carlsonlab-gpu-15|1|21|86172M||/work/minhe/alphafold|
minhe|COMPLETED|scavenger-gpu|2023-05-25T10:34:25|2023-05-25T10:34:38|00:00:13|dcc-carlsonlab-gpu-15|1|21|86172M||/work/minhe/alphafold|
minhe|COMPLETED|scavenger-gpu|2023-05-25T10:34:38|2023-05-25T10:34:50|00:00:12|dcc-carlsonlab-gpu-15|1|21|86172M||/work/minhe/alphafold|
minhe|COMPLETED|scavenger-gpu|2023-05-25T10:34:52|2023-05-25T10:35:08|00:00:16|dcc-carlsonlab-gpu-15|1|21|86172M||/work/minhe/alphafold|
minhe|COMPLETED|scavenger-gpu|2023-05-25T10:35:09|2023-05-25T10:35:25|00:00:16|dcc-carlsonlab-gpu-15|1|21|86172M||/work/minhe/alphafold|
minhe|COMPLETED|scavenger-gpu|2023-05-25T10:35:28|2023-05-25T10:35:40|00:00:12|dcc-carlsonlab-gpu-15|1|21|86172M||/work/minhe/alphafold|
minhe|COMPLETED|scavenger-gpu|2023-05-25T10:35:42|2023-05-25T10:35:55|00:00:13|dcc-carlsonlab-gpu-15|1|21|86172M||/work/minhe/alphafold|
minhe|COMPLETED|scavenger-gpu|2023-05-25T10:35:57|2023-05-25T10:36:10|00:00:13|dcc-carlsonlab-gpu-15|1|21|86172M||/work/minhe/alphafold|
minhe|COMPLETED|scavenger-gpu|2023-05-25T10:36:12|2023-05-25T10:36:24|00:00:12|dcc-carlsonlab-gpu-15|1|21|86172M||/work/minhe/alphafold|
minhe|COMPLETED|scavenger-gpu|2023-05-25T10:36:24|2023-05-25T10:36:37|00:00:13|dcc-carlsonlab-gpu-15|1|21|86172M||/work/minhe/alphafold|
minhe|COMPLETED|scavenger-gpu|2023-05-25T10:36:38|2023-05-25T10:36:50|00:00:12|dcc-carlsonlab-gpu-15|1|21|86172M||/work/minhe/alphafold|
minhe|COMPLETED|scavenger-gpu|2023-05-25T10:36:51|2023-05-25T10:37:03|00:00:12|dcc-carlsonlab-gpu-15|1|21|86172M||/work/minhe/alphafold|
minhe|FAILED|scavenger-gpu|2023-05-25T10:36:53|2023-05-25T10:37:16|00:00:23|dcc-ultrasound-gpu-01|1|19|86172M||/work/minhe/alphafold|
minhe|FAILED|scavenger-gpu|2023-05-25T10:37:03|2023-05-25T10:37:16|00:00:13|dcc-carlsonlab-gpu-15|1|21|86172M||/work/minhe/alphafold|
minhe|CANCELLED by 10212|scavenger-gpu|2023-05-25T10:37:13|2023-05-25T11:29:00|00:51:47|dcc-carlsonlab-gpu-09|1|21|86172M||/work/minhe/alphafold|
minhe|CANCELLED by 10212|scavenger-gpu|2023-05-25T10:37:16|2023-05-25T11:29:00|00:51:44|dcc-carlsonlab-gpu-05|1|21|86172M||/work/minhe/alphafold|
minhe|CANCELLED by 10212|scavenger-gpu|2023-05-25T10:37:18|2023-05-25T11:29:00|00:51:42|dcc-ultrasound-gpu-01|1|19|86172M||/work/minhe/alphafold|
minhe|COMPLETED|scavenger-gpu|2023-05-25T10:37:18|2023-05-25T10:37:31|00:00:13|dcc-carlsonlab-gpu-15|1|21|86172M||/work/minhe/alphafold|
minhe|COMPLETED|scavenger-gpu|2023-05-25T10:37:20|2023-05-25T11:07:40|00:30:20|dcc-collinslab-gpu-04|1|19|86172M||/work/minhe/alphafold|
zq43|PREEMPTED|scavenger-gpu|2023-05-25T13:23:19|2023-05-25T13:32:58|00:09:39|dcc-gehmlab-gpu-19|1|19|2G||/hpc/group/renlab/zhuobiao/MC_kV_for_zhuobiao|
zq43|PREEMPTED|scavenger-gpu|2023-05-25T13:23:19|2023-05-25T13:33:00|00:09:41|dcc-gehmlab-gpu-20|1|19|2G||/hpc/group/renlab/zhuobiao/MC_kV_for_zhuobiao|
zq43|PREEMPTED|scavenger-gpu|2023-05-25T13:23:19|2023-05-25T13:33:02|00:09:43|dcc-gehmlab-gpu-21|1|19|2G||/hpc/group/renlab/zhuobiao/MC_kV_for_zhuobiao|
zq43|PREEMPTED|scavenger-gpu|2023-05-25T13:23:19|2023-05-25T13:33:02|00:09:43|dcc-gehmlab-gpu-27|1|19|2G||/hpc/group/renlab/zhuobiao/MC_kV_for_zhuobiao|
zq43|PREEMPTED|scavenger-gpu|2023-05-25T13:23:19|2023-05-25T13:33:02|00:09:43|dcc-gehmlab-gpu-28|1|19|2G||/hpc/group/renlab/zhuobiao/MC_kV_for_zhuobiao|
zq43|PREEMPTED|scavenger-gpu|2023-05-25T13:23:19|2023-05-25T13:33:02|00:09:43|dcc-gehmlab-gpu-29|1|19|2G||/hpc/group/renlab/zhuobiao/MC_kV_for_zhuobiao|
zq43|CANCELLED by 1480135|scavenger-gpu|None|2023-05-26T03:14:58|00:00:00|None assigned|1|1|2G||/hpc/group/renlab/zhuobiao/MC_kV_for_zhuobiao|
minhe|COMPLETED|scavenger-gpu|2023-05-25T10:37:20|2023-05-25T10:37:48|00:00:28|dcc-carin-gpu-05|1|19|86172M||/work/minhe/alphafold|
minhe|CANCELLED by 10212|scavenger-gpu|2023-05-25T10:37:23|2023-05-25T11:29:00|00:51:37|dcc-carin-gpu-10|1|19|86172M||/work/minhe/alphafold|
minhe|CANCELLED by 10212|scavenger-gpu|2023-05-25T11:19:52|2023-05-25T11:29:00|00:09:08|dcc-pbenfeylab-gpu-03|1|10|86172M||/work/minhe/alphafold|
minhe|COMPLETED|scavenger-gpu|2023-05-25T11:20:23|2023-05-25T11:20:48|00:00:25|dcc-dsplus-gpu-08|1|19|86172M||/work/minhe/alphafold|
minhe|COMPLETED|scavenger-gpu|2023-05-25T11:20:49|2023-05-25T11:21:13|00:00:24|dcc-dsplus-gpu-08|1|19|86172M||/work/minhe/alphafold|
minhe|FAILED|scavenger-gpu|2023-05-25T11:21:13|2023-05-25T11:28:55|00:07:42|dcc-dsplus-gpu-08|1|19|86172M||/work/minhe/alphafold|
minhe|COMPLETED|scavenger-gpu|2023-05-25T11:22:49|2023-05-25T11:23:11|00:00:22|dcc-carlsonlab-gpu-15|1|21|86172M||/work/minhe/alphafold|
minhe|CANCELLED by 10212|scavenger-gpu|2023-05-25T11:23:12|2023-05-25T11:29:00|00:05:48|dcc-youlab-gpu-14|1|10|86172M||/work/minhe/alphafold|
njh27|COMPLETED|scavenger-gpu|2023-05-25T10:01:00|2023-05-25T10:01:35|00:00:35|dcc-youlab-gpu-08|1|1|32G||/hpc/home/njh27/pc-learning-dcc|
njh27|COMPLETED|scavenger-gpu|2023-05-25T10:01:00|2023-05-25T10:01:36|00:00:36|dcc-youlab-gpu-08|1|1|32G||/hpc/home/njh27/pc-learning-dcc|
njh27|COMPLETED|scavenger-gpu|2023-05-25T10:01:00|2023-05-25T10:01:36|00:00:36|dcc-youlab-gpu-08|1|1|32G||/hpc/home/njh27/pc-learning-dcc|
njh27|COMPLETED|scavenger-gpu|2023-05-25T10:01:00|2023-05-25T10:01:36|00:00:36|dcc-vossenlab-gpu-02|1|1|32G||/hpc/home/njh27/pc-learning-dcc|
njh27|COMPLETED|scavenger-gpu|2023-05-25T10:01:03|2023-05-25T10:01:38|00:00:35|dcc-vossenlab-gpu-02|1|1|32G||/hpc/home/njh27/pc-learning-dcc|
njh27|COMPLETED|scavenger-gpu|2023-05-25T10:01:03|2023-05-25T10:01:39|00:00:36|dcc-vossenlab-gpu-02|1|1|32G||/hpc/home/njh27/pc-learning-dcc|
njh27|COMPLETED|scavenger-gpu|2023-05-25T10:01:03|2023-05-25T10:01:51|00:00:48|dcc-viplab-gpu-01|1|1|32G||/hpc/home/njh27/pc-learning-dcc|
njh27|COMPLETED|scavenger-gpu|2023-05-25T10:01:03|2023-05-25T10:01:51|00:00:48|dcc-viplab-gpu-01|1|1|32G||/hpc/home/njh27/pc-learning-dcc|
njh27|COMPLETED|scavenger-gpu|2023-05-25T10:01:03|2023-05-25T10:01:59|00:00:56|dcc-tdunn-gpu-03|1|1|32G||/hpc/home/njh27/pc-learning-dcc|
njh27|COMPLETED|scavenger-gpu|2023-05-25T10:01:03|2023-05-25T10:01:57|00:00:54|dcc-tdunn-gpu-03|1|1|32G||/hpc/home/njh27/pc-learning-dcc|
njh27|COMPLETED|scavenger-gpu|2023-05-25T10:01:03|2023-05-25T10:01:56|00:00:53|dcc-tdunn-gpu-03|1|1|32G||/hpc/home/njh27/pc-learning-dcc|
njh27|COMPLETED|scavenger-gpu|2023-05-25T10:01:03|2023-05-25T10:01:56|00:00:53|dcc-tdunn-gpu-03|1|1|32G||/hpc/home/njh27/pc-learning-dcc|
njh27|COMPLETED|scavenger-gpu|2023-05-25T10:01:03|2023-05-25T10:02:00|00:00:57|dcc-tdunn-gpu-03|1|1|32G||/hpc/home/njh27/pc-learning-dcc|
njh27|COMPLETED|scavenger-gpu|2023-05-25T10:01:03|2023-05-25T10:01:54|00:00:51|dcc-tdunn-gpu-03|1|1|32G||/hpc/home/njh27/pc-learning-dcc|
njh27|COMPLETED|scavenger-gpu|2023-05-25T10:01:03|2023-05-25T10:01:51|00:00:48|dcc-tdunn-gpu-03|1|1|32G||/hpc/home/njh27/pc-learning-dcc|
njh27|COMPLETED|scavenger-gpu|2023-05-25T10:01:03|2023-05-25T10:01:51|00:00:48|dcc-tdunn-gpu-03|1|1|32G||/hpc/home/njh27/pc-learning-dcc|
njh27|COMPLETED|scavenger-gpu|2023-05-25T10:01:03|2023-05-25T10:01:51|00:00:48|dcc-tdunn-gpu-03|1|1|32G||/hpc/home/njh27/pc-learning-dcc|
njh27|COMPLETED|scavenger-gpu|2023-05-25T10:01:03|2023-05-25T10:01:51|00:00:48|dcc-tdunn-gpu-03|1|1|32G||/hpc/home/njh27/pc-learning-dcc|
njh27|COMPLETED|scavenger-gpu|2023-05-25T10:01:03|2023-05-25T10:01:44|00:00:41|dcc-tdunn-gpu-03|1|1|32G||/hpc/home/njh27/pc-learning-dcc|
njh27|COMPLETED|scavenger-gpu|2023-05-25T10:01:03|2023-05-25T10:01:45|00:00:42|dcc-tdunn-gpu-03|1|1|32G||/hpc/home/njh27/pc-learning-dcc|
njh27|COMPLETED|scavenger-gpu|2023-05-25T10:01:03|2023-05-25T10:01:48|00:00:45|dcc-tdunn-gpu-03|1|1|32G||/hpc/home/njh27/pc-learning-dcc|
njh27|COMPLETED|scavenger-gpu|2023-05-25T10:01:03|2023-05-25T10:01:40|00:00:37|dcc-tdunn-gpu-03|1|1|32G||/hpc/home/njh27/pc-learning-dcc|
njh27|COMPLETED|scavenger-gpu|2023-05-25T10:01:03|2023-05-25T10:01:40|00:00:37|dcc-tdunn-gpu-01|1|1|32G||/hpc/home/njh27/pc-learning-dcc|
njh27|COMPLETED|scavenger-gpu|2023-05-25T10:01:05|2023-05-25T10:01:41|00:00:36|dcc-tdunn-gpu-01|1|1|32G||/hpc/home/njh27/pc-learning-dcc|
njh27|COMPLETED|scavenger-gpu|2023-05-25T10:01:05|2023-05-25T10:02:01|00:00:56|dcc-tdunn-gpu-01|1|1|32G||/hpc/home/njh27/pc-learning-dcc|
njh27|COMPLETED|scavenger-gpu|2023-05-25T10:01:05|2023-05-25T10:02:01|00:00:56|dcc-tdunn-gpu-01|1|1|32G||/hpc/home/njh27/pc-learning-dcc|
njh27|COMPLETED|scavenger-gpu|2023-05-25T10:01:05|2023-05-25T10:02:01|00:00:56|dcc-tdunn-gpu-01|1|1|32G||/hpc/home/njh27/pc-learning-dcc|
njh27|COMPLETED|scavenger-gpu|2023-05-25T10:01:05|2023-05-25T10:02:01|00:00:56|dcc-tdunn-gpu-01|1|1|32G||/hpc/home/njh27/pc-learning-dcc|
njh27|COMPLETED|scavenger-gpu|2023-05-25T10:01:05|2023-05-25T10:02:01|00:00:56|dcc-tdunn-gpu-01|1|1|32G||/hpc/home/njh27/pc-learning-dcc|
njh27|COMPLETED|scavenger-gpu|2023-05-25T10:01:05|2023-05-25T10:02:01|00:00:56|dcc-tdunn-gpu-01|1|1|32G||/hpc/home/njh27/pc-learning-dcc|
yx240|COMPLETED|scavenger-gpu|2023-05-25T10:02:46|2023-05-25T14:13:05|04:10:19|dcc-youlab-gpu-08|1|10|2G||/work/yx240/project-martini/new/simutools/run-pbs|
yx240|COMPLETED|scavenger-gpu|2023-05-25T10:03:23|2023-05-26T19:57:56|1-09:54:33|dcc-rekerlab-gpu-01|1|8|2G||/work/yx240/project-martini/new/simutools/run-pbs|
yx240|COMPLETED|scavenger-gpu|2023-05-25T10:03:26|2023-05-26T12:30:30|1-02:27:04|dcc-motesa-gpu-04|1|6|2G||/work/yx240/project-martini/new/simutools/run-pbs|
yx240|COMPLETED|scavenger-gpu|2023-05-25T10:03:31|2023-05-26T10:22:31|1-00:19:00|dcc-chsi-gpu-08|1|6|2G||/work/yx240/project-martini/new/simutools/run-pbs|
yx240|COMPLETED|scavenger-gpu|2023-05-25T10:03:34|2023-05-26T18:33:20|1-08:29:46|dcc-chsi-gpu-07|1|6|2G||/work/yx240/project-martini/new/simutools/run-pbs|
njh27|COMPLETED|scavenger-gpu|2023-05-25T10:06:40|2023-05-25T10:07:17|00:00:37|dcc-vossenlab-gpu-02|1|1|32G||/hpc/home/njh27/pc-learning-dcc|
njh27|COMPLETED|scavenger-gpu|2023-05-25T10:06:40|2023-05-25T10:07:17|00:00:37|dcc-vossenlab-gpu-02|1|1|32G||/hpc/home/njh27/pc-learning-dcc|
njh27|COMPLETED|scavenger-gpu|2023-05-25T10:06:40|2023-05-25T10:07:16|00:00:36|dcc-vossenlab-gpu-02|1|1|32G||/hpc/home/njh27/pc-learning-dcc|
njh27|COMPLETED|scavenger-gpu|2023-05-25T10:06:40|2023-05-25T10:07:19|00:00:39|dcc-viplab-gpu-01|1|1|32G||/hpc/home/njh27/pc-learning-dcc|
njh27|COMPLETED|scavenger-gpu|2023-05-25T10:06:40|2023-05-25T10:07:20|00:00:40|dcc-viplab-gpu-01|1|1|32G||/hpc/home/njh27/pc-learning-dcc|
njh27|COMPLETED|scavenger-gpu|2023-05-25T10:06:40|2023-05-25T10:07:24|00:00:44|dcc-tdunn-gpu-03|1|1|32G||/hpc/home/njh27/pc-learning-dcc|
njh27|COMPLETED|scavenger-gpu|2023-05-25T10:06:40|2023-05-25T10:07:34|00:00:54|dcc-tdunn-gpu-03|1|1|32G||/hpc/home/njh27/pc-learning-dcc|
njh27|COMPLETED|scavenger-gpu|2023-05-25T10:06:40|2023-05-25T10:07:32|00:00:52|dcc-tdunn-gpu-03|1|1|32G||/hpc/home/njh27/pc-learning-dcc|
njh27|COMPLETED|scavenger-gpu|2023-05-25T10:06:40|2023-05-25T10:07:32|00:00:52|dcc-tdunn-gpu-03|1|1|32G||/hpc/home/njh27/pc-learning-dcc|
njh27|COMPLETED|scavenger-gpu|2023-05-25T10:06:43|2023-05-25T10:07:33|00:00:50|dcc-tdunn-gpu-03|1|1|32G||/hpc/home/njh27/pc-learning-dcc|
njh27|COMPLETED|scavenger-gpu|2023-05-25T10:06:43|2023-05-25T10:07:38|00:00:55|dcc-tdunn-gpu-03|1|1|32G||/hpc/home/njh27/pc-learning-dcc|
njh27|COMPLETED|scavenger-gpu|2023-05-25T10:06:43|2023-05-25T10:07:35|00:00:52|dcc-tdunn-gpu-03|1|1|32G||/hpc/home/njh27/pc-learning-dcc|
njh27|COMPLETED|scavenger-gpu|2023-05-25T10:06:43|2023-05-25T10:07:31|00:00:48|dcc-tdunn-gpu-03|1|1|32G||/hpc/home/njh27/pc-learning-dcc|
njh27|COMPLETED|scavenger-gpu|2023-05-25T10:06:43|2023-05-25T10:07:39|00:00:56|dcc-tdunn-gpu-03|1|1|32G||/hpc/home/njh27/pc-learning-dcc|
njh27|COMPLETED|scavenger-gpu|2023-05-25T10:06:43|2023-05-25T10:07:28|00:00:45|dcc-tdunn-gpu-03|1|1|32G||/hpc/home/njh27/pc-learning-dcc|
njh27|COMPLETED|scavenger-gpu|2023-05-25T10:06:43|2023-05-25T10:07:31|00:00:48|dcc-tdunn-gpu-03|1|1|32G||/hpc/home/njh27/pc-learning-dcc|
njh27|COMPLETED|scavenger-gpu|2023-05-25T10:06:43|2023-05-25T10:07:40|00:00:57|dcc-tdunn-gpu-03|1|1|32G||/hpc/home/njh27/pc-learning-dcc|
njh27|COMPLETED|scavenger-gpu|2023-05-25T10:06:43|2023-05-25T10:07:28|00:00:45|dcc-tdunn-gpu-03|1|1|32G||/hpc/home/njh27/pc-learning-dcc|
njh27|COMPLETED|scavenger-gpu|2023-05-25T10:06:43|2023-05-25T10:07:23|00:00:40|dcc-tdunn-gpu-03|1|1|32G||/hpc/home/njh27/pc-learning-dcc|
njh27|COMPLETED|scavenger-gpu|2023-05-25T10:06:43|2023-05-25T10:07:24|00:00:41|dcc-tdunn-gpu-01|1|1|32G||/hpc/home/njh27/pc-learning-dcc|
njh27|COMPLETED|scavenger-gpu|2023-05-25T10:06:43|2023-05-25T10:07:24|00:00:41|dcc-tdunn-gpu-01|1|1|32G||/hpc/home/njh27/pc-learning-dcc|
njh27|COMPLETED|scavenger-gpu|2023-05-25T10:06:43|2023-05-25T10:07:24|00:00:41|dcc-tdunn-gpu-01|1|1|32G||/hpc/home/njh27/pc-learning-dcc|
njh27|COMPLETED|scavenger-gpu|2023-05-25T10:06:43|2023-05-25T10:07:25|00:00:42|dcc-tdunn-gpu-01|1|1|32G||/hpc/home/njh27/pc-learning-dcc|
njh27|COMPLETED|scavenger-gpu|2023-05-25T10:06:43|2023-05-25T10:07:24|00:00:41|dcc-tdunn-gpu-01|1|1|32G||/hpc/home/njh27/pc-learning-dcc|
njh27|COMPLETED|scavenger-gpu|2023-05-25T10:06:43|2023-05-25T10:07:41|00:00:58|dcc-tdunn-gpu-01|1|1|32G||/hpc/home/njh27/pc-learning-dcc|
njh27|COMPLETED|scavenger-gpu|2023-05-25T10:06:43|2023-05-25T10:07:41|00:00:58|dcc-tdunn-gpu-01|1|1|32G||/hpc/home/njh27/pc-learning-dcc|
njh27|COMPLETED|scavenger-gpu|2023-05-25T10:06:43|2023-05-25T10:07:41|00:00:58|dcc-tdunn-gpu-01|1|1|32G||/hpc/home/njh27/pc-learning-dcc|
njh27|COMPLETED|scavenger-gpu|2023-05-25T10:06:43|2023-05-25T10:07:41|00:00:58|dcc-tdunn-gpu-01|1|1|32G||/hpc/home/njh27/pc-learning-dcc|
njh27|COMPLETED|scavenger-gpu|2023-05-25T10:06:43|2023-05-25T10:07:41|00:00:58|dcc-tdunn-gpu-01|1|1|32G||/hpc/home/njh27/pc-learning-dcc|
njh27|COMPLETED|scavenger-gpu|2023-05-25T10:06:43|2023-05-25T10:07:24|00:00:41|dcc-pbenfeylab-gpu-01|1|1|32G||/hpc/home/njh27/pc-learning-dcc|
njh27|COMPLETED|scavenger-gpu|2023-05-25T10:09:43|2023-05-25T10:10:20|00:00:37|dcc-vossenlab-gpu-02|1|1|32G||/hpc/home/njh27/pc-learning-dcc|
njh27|COMPLETED|scavenger-gpu|2023-05-25T10:09:43|2023-05-25T10:10:19|00:00:36|dcc-vossenlab-gpu-02|1|1|32G||/hpc/home/njh27/pc-learning-dcc|
njh27|COMPLETED|scavenger-gpu|2023-05-25T10:09:43|2023-05-25T10:10:20|00:00:37|dcc-vossenlab-gpu-02|1|1|32G||/hpc/home/njh27/pc-learning-dcc|
njh27|COMPLETED|scavenger-gpu|2023-05-25T10:09:43|2023-05-25T10:10:22|00:00:39|dcc-viplab-gpu-01|1|1|32G||/hpc/home/njh27/pc-learning-dcc|
njh27|COMPLETED|scavenger-gpu|2023-05-25T10:09:43|2023-05-25T10:10:21|00:00:38|dcc-viplab-gpu-01|1|1|32G||/hpc/home/njh27/pc-learning-dcc|
njh27|COMPLETED|scavenger-gpu|2023-05-25T10:09:43|2023-05-25T10:10:26|00:00:43|dcc-tdunn-gpu-03|1|1|32G||/hpc/home/njh27/pc-learning-dcc|
njh27|COMPLETED|scavenger-gpu|2023-05-25T10:09:43|2023-05-25T10:10:35|00:00:52|dcc-tdunn-gpu-03|1|1|32G||/hpc/home/njh27/pc-learning-dcc|
njh27|COMPLETED|scavenger-gpu|2023-05-25T10:09:43|2023-05-25T10:10:35|00:00:52|dcc-tdunn-gpu-03|1|1|32G||/hpc/home/njh27/pc-learning-dcc|
njh27|COMPLETED|scavenger-gpu|2023-05-25T10:09:43|2023-05-25T10:10:36|00:00:53|dcc-tdunn-gpu-03|1|1|32G||/hpc/home/njh27/pc-learning-dcc|
njh27|COMPLETED|scavenger-gpu|2023-05-25T10:09:46|2023-05-25T10:10:38|00:00:52|dcc-tdunn-gpu-03|1|1|32G||/hpc/home/njh27/pc-learning-dcc|
njh27|COMPLETED|scavenger-gpu|2023-05-25T10:09:46|2023-05-25T10:10:42|00:00:56|dcc-tdunn-gpu-03|1|1|32G||/hpc/home/njh27/pc-learning-dcc|
njh27|COMPLETED|scavenger-gpu|2023-05-25T10:09:46|2023-05-25T10:10:36|00:00:50|dcc-tdunn-gpu-03|1|1|32G||/hpc/home/njh27/pc-learning-dcc|
njh27|COMPLETED|scavenger-gpu|2023-05-25T10:09:46|2023-05-25T10:10:38|00:00:52|dcc-tdunn-gpu-03|1|1|32G||/hpc/home/njh27/pc-learning-dcc|
njh27|COMPLETED|scavenger-gpu|2023-05-25T10:09:46|2023-05-25T10:10:31|00:00:45|dcc-tdunn-gpu-03|1|1|32G||/hpc/home/njh27/pc-learning-dcc|
njh27|COMPLETED|scavenger-gpu|2023-05-25T10:09:46|2023-05-25T10:10:39|00:00:53|dcc-tdunn-gpu-03|1|1|32G||/hpc/home/njh27/pc-learning-dcc|
njh27|COMPLETED|scavenger-gpu|2023-05-25T10:09:46|2023-05-25T10:10:39|00:00:53|dcc-tdunn-gpu-03|1|1|32G||/hpc/home/njh27/pc-learning-dcc|
njh27|COMPLETED|scavenger-gpu|2023-05-25T10:09:46|2023-05-25T10:10:38|00:00:52|dcc-tdunn-gpu-03|1|1|32G||/hpc/home/njh27/pc-learning-dcc|
njh27|COMPLETED|scavenger-gpu|2023-05-25T10:09:46|2023-05-25T10:10:33|00:00:47|dcc-tdunn-gpu-03|1|1|32G||/hpc/home/njh27/pc-learning-dcc|
njh27|COMPLETED|scavenger-gpu|2023-05-25T10:09:46|2023-05-25T10:10:24|00:00:38|dcc-tdunn-gpu-03|1|1|32G||/hpc/home/njh27/pc-learning-dcc|
njh27|COMPLETED|scavenger-gpu|2023-05-25T10:09:46|2023-05-25T10:10:27|00:00:41|dcc-tdunn-gpu-01|1|1|32G||/hpc/home/njh27/pc-learning-dcc|
njh27|COMPLETED|scavenger-gpu|2023-05-25T10:09:46|2023-05-25T10:10:27|00:00:41|dcc-tdunn-gpu-01|1|1|32G||/hpc/home/njh27/pc-learning-dcc|
njh27|COMPLETED|scavenger-gpu|2023-05-25T10:09:46|2023-05-25T10:10:27|00:00:41|dcc-tdunn-gpu-01|1|1|32G||/hpc/home/njh27/pc-learning-dcc|
njh27|COMPLETED|scavenger-gpu|2023-05-25T10:09:46|2023-05-25T10:10:26|00:00:40|dcc-tdunn-gpu-01|1|1|32G||/hpc/home/njh27/pc-learning-dcc|
njh27|COMPLETED|scavenger-gpu|2023-05-25T10:09:46|2023-05-25T10:10:27|00:00:41|dcc-tdunn-gpu-01|1|1|32G||/hpc/home/njh27/pc-learning-dcc|
njh27|COMPLETED|scavenger-gpu|2023-05-25T10:09:46|2023-05-25T10:10:43|00:00:57|dcc-tdunn-gpu-01|1|1|32G||/hpc/home/njh27/pc-learning-dcc|
njh27|COMPLETED|scavenger-gpu|2023-05-25T10:09:46|2023-05-25T10:10:43|00:00:57|dcc-tdunn-gpu-01|1|1|32G||/hpc/home/njh27/pc-learning-dcc|
njh27|COMPLETED|scavenger-gpu|2023-05-25T10:09:46|2023-05-25T10:10:43|00:00:57|dcc-tdunn-gpu-01|1|1|32G||/hpc/home/njh27/pc-learning-dcc|
njh27|COMPLETED|scavenger-gpu|2023-05-25T10:09:46|2023-05-25T10:10:42|00:00:56|dcc-tdunn-gpu-01|1|1|32G||/hpc/home/njh27/pc-learning-dcc|
njh27|COMPLETED|scavenger-gpu|2023-05-25T10:09:46|2023-05-25T10:10:43|00:00:57|dcc-tdunn-gpu-01|1|1|32G||/hpc/home/njh27/pc-learning-dcc|
njh27|COMPLETED|scavenger-gpu|2023-05-25T10:09:46|2023-05-25T10:10:26|00:00:40|dcc-pbenfeylab-gpu-01|1|1|32G||/hpc/home/njh27/pc-learning-dcc|
njh27|COMPLETED|scavenger-gpu|2023-05-25T10:12:07|2023-05-25T10:12:44|00:00:37|dcc-vossenlab-gpu-02|1|1|32G||/hpc/home/njh27/pc-learning-dcc|
njh27|COMPLETED|scavenger-gpu|2023-05-25T10:12:07|2023-05-25T10:12:45|00:00:38|dcc-vossenlab-gpu-02|1|1|32G||/hpc/home/njh27/pc-learning-dcc|
njh27|COMPLETED|scavenger-gpu|2023-05-25T10:12:07|2023-05-25T10:12:44|00:00:37|dcc-vossenlab-gpu-02|1|1|32G||/hpc/home/njh27/pc-learning-dcc|
njh27|COMPLETED|scavenger-gpu|2023-05-25T10:12:07|2023-05-25T10:12:46|00:00:39|dcc-viplab-gpu-01|1|1|32G||/hpc/home/njh27/pc-learning-dcc|
njh27|COMPLETED|scavenger-gpu|2023-05-25T10:12:10|2023-05-25T10:12:46|00:00:36|dcc-viplab-gpu-01|1|1|32G||/hpc/home/njh27/pc-learning-dcc|
njh27|COMPLETED|scavenger-gpu|2023-05-25T10:12:10|2023-05-25T10:13:02|00:00:52|dcc-tdunn-gpu-03|1|1|32G||/hpc/home/njh27/pc-learning-dcc|
njh27|COMPLETED|scavenger-gpu|2023-05-25T10:12:10|2023-05-25T10:13:11|00:01:01|dcc-tdunn-gpu-03|1|1|32G||/hpc/home/njh27/pc-learning-dcc|
njh27|COMPLETED|scavenger-gpu|2023-05-25T10:12:10|2023-05-25T10:13:06|00:00:56|dcc-tdunn-gpu-03|1|1|32G||/hpc/home/njh27/pc-learning-dcc|
njh27|COMPLETED|scavenger-gpu|2023-05-25T10:12:10|2023-05-25T10:13:04|00:00:54|dcc-tdunn-gpu-03|1|1|32G||/hpc/home/njh27/pc-learning-dcc|
njh27|COMPLETED|scavenger-gpu|2023-05-25T10:12:10|2023-05-25T10:13:09|00:00:59|dcc-tdunn-gpu-03|1|1|32G||/hpc/home/njh27/pc-learning-dcc|
njh27|COMPLETED|scavenger-gpu|2023-05-25T10:12:10|2023-05-25T10:13:04|00:00:54|dcc-tdunn-gpu-03|1|1|32G||/hpc/home/njh27/pc-learning-dcc|
njh27|COMPLETED|scavenger-gpu|2023-05-25T10:12:10|2023-05-25T10:13:04|00:00:54|dcc-tdunn-gpu-03|1|1|32G||/hpc/home/njh27/pc-learning-dcc|
njh27|COMPLETED|scavenger-gpu|2023-05-25T10:12:10|2023-05-25T10:12:58|00:00:48|dcc-tdunn-gpu-03|1|1|32G||/hpc/home/njh27/pc-learning-dcc|
njh27|COMPLETED|scavenger-gpu|2023-05-25T10:12:10|2023-05-25T10:12:59|00:00:49|dcc-tdunn-gpu-03|1|1|32G||/hpc/home/njh27/pc-learning-dcc|
njh27|COMPLETED|scavenger-gpu|2023-05-25T10:12:10|2023-05-25T10:12:58|00:00:48|dcc-tdunn-gpu-03|1|1|32G||/hpc/home/njh27/pc-learning-dcc|
njh27|COMPLETED|scavenger-gpu|2023-05-25T10:12:10|2023-05-25T10:12:57|00:00:47|dcc-tdunn-gpu-03|1|1|32G||/hpc/home/njh27/pc-learning-dcc|
njh27|COMPLETED|scavenger-gpu|2023-05-25T10:12:10|2023-05-25T10:13:02|00:00:52|dcc-tdunn-gpu-03|1|1|32G||/hpc/home/njh27/pc-learning-dcc|
njh27|COMPLETED|scavenger-gpu|2023-05-25T10:12:10|2023-05-25T10:13:03|00:00:53|dcc-tdunn-gpu-03|1|1|32G||/hpc/home/njh27/pc-learning-dcc|
njh27|COMPLETED|scavenger-gpu|2023-05-25T10:12:10|2023-05-25T10:12:56|00:00:46|dcc-tdunn-gpu-03|1|1|32G||/hpc/home/njh27/pc-learning-dcc|
njh27|COMPLETED|scavenger-gpu|2023-05-25T10:12:10|2023-05-25T10:12:50|00:00:40|dcc-tdunn-gpu-01|1|1|32G||/hpc/home/njh27/pc-learning-dcc|
njh27|COMPLETED|scavenger-gpu|2023-05-25T10:12:10|2023-05-25T10:12:50|00:00:40|dcc-tdunn-gpu-01|1|1|32G||/hpc/home/njh27/pc-learning-dcc|
njh27|COMPLETED|scavenger-gpu|2023-05-25T10:12:10|2023-05-25T10:12:49|00:00:39|dcc-tdunn-gpu-01|1|1|32G||/hpc/home/njh27/pc-learning-dcc|
njh27|COMPLETED|scavenger-gpu|2023-05-25T10:12:10|2023-05-25T10:12:49|00:00:39|dcc-tdunn-gpu-01|1|1|32G||/hpc/home/njh27/pc-learning-dcc|
njh27|COMPLETED|scavenger-gpu|2023-05-25T10:12:12|2023-05-25T10:12:50|00:00:38|dcc-tdunn-gpu-01|1|1|32G||/hpc/home/njh27/pc-learning-dcc|
njh27|COMPLETED|scavenger-gpu|2023-05-25T10:12:12|2023-05-25T10:13:07|00:00:55|dcc-tdunn-gpu-01|1|1|32G||/hpc/home/njh27/pc-learning-dcc|
njh27|COMPLETED|scavenger-gpu|2023-05-25T10:12:12|2023-05-25T10:13:07|00:00:55|dcc-tdunn-gpu-01|1|1|32G||/hpc/home/njh27/pc-learning-dcc|
njh27|COMPLETED|scavenger-gpu|2023-05-25T10:12:12|2023-05-25T10:13:08|00:00:56|dcc-tdunn-gpu-01|1|1|32G||/hpc/home/njh27/pc-learning-dcc|
njh27|COMPLETED|scavenger-gpu|2023-05-25T10:12:12|2023-05-25T10:13:07|00:00:55|dcc-tdunn-gpu-01|1|1|32G||/hpc/home/njh27/pc-learning-dcc|
njh27|COMPLETED|scavenger-gpu|2023-05-25T10:12:12|2023-05-25T10:13:07|00:00:55|dcc-tdunn-gpu-01|1|1|32G||/hpc/home/njh27/pc-learning-dcc|
njh27|COMPLETED|scavenger-gpu|2023-05-25T10:12:12|2023-05-25T10:12:51|00:00:39|dcc-pbenfeylab-gpu-01|1|1|32G||/hpc/home/njh27/pc-learning-dcc|
njh27|COMPLETED|scavenger-gpu|2023-05-25T10:26:58|2023-05-25T10:35:05|00:08:07|dcc-vossenlab-gpu-02|1|1|32G||/hpc/home/njh27/pc-learning-dcc|
njh27|COMPLETED|scavenger-gpu|2023-05-25T10:26:58|2023-05-25T10:34:24|00:07:26|dcc-vossenlab-gpu-02|1|1|32G||/hpc/home/njh27/pc-learning-dcc|
njh27|COMPLETED|scavenger-gpu|2023-05-25T10:26:58|2023-05-25T10:35:22|00:08:24|dcc-vossenlab-gpu-02|1|1|32G||/hpc/home/njh27/pc-learning-dcc|
njh27|COMPLETED|scavenger-gpu|2023-05-25T10:26:58|2023-05-25T10:51:21|00:24:23|dcc-viplab-gpu-01|1|1|32G||/hpc/home/njh27/pc-learning-dcc|
njh27|COMPLETED|scavenger-gpu|2023-05-25T10:26:58|2023-05-25T10:49:48|00:22:50|dcc-viplab-gpu-01|1|1|32G||/hpc/home/njh27/pc-learning-dcc|
njh27|COMPLETED|scavenger-gpu|2023-05-25T10:26:58|2023-05-25T10:57:17|00:30:19|dcc-tdunn-gpu-03|1|1|32G||/hpc/home/njh27/pc-learning-dcc|
njh27|COMPLETED|scavenger-gpu|2023-05-25T10:26:58|2023-05-25T11:40:58|01:14:00|dcc-tdunn-gpu-03|1|1|32G||/hpc/home/njh27/pc-learning-dcc|
njh27|COMPLETED|scavenger-gpu|2023-05-25T10:26:58|2023-05-25T11:51:42|01:24:44|dcc-tdunn-gpu-03|1|1|32G||/hpc/home/njh27/pc-learning-dcc|
njh27|COMPLETED|scavenger-gpu|2023-05-25T10:26:58|2023-05-25T11:43:49|01:16:51|dcc-tdunn-gpu-03|1|1|32G||/hpc/home/njh27/pc-learning-dcc|
njh27|COMPLETED|scavenger-gpu|2023-05-25T10:26:59|2023-05-25T10:58:57|00:31:58|dcc-tdunn-gpu-03|1|1|32G||/hpc/home/njh27/pc-learning-dcc|
njh27|COMPLETED|scavenger-gpu|2023-05-25T10:27:02|2023-05-25T11:00:31|00:33:29|dcc-tdunn-gpu-03|1|1|32G||/hpc/home/njh27/pc-learning-dcc|
njh27|COMPLETED|scavenger-gpu|2023-05-25T10:27:02|2023-05-25T10:57:23|00:30:21|dcc-tdunn-gpu-03|1|1|32G||/hpc/home/njh27/pc-learning-dcc|
njh27|COMPLETED|scavenger-gpu|2023-05-25T10:27:02|2023-05-25T10:56:59|00:29:57|dcc-tdunn-gpu-03|1|1|32G||/hpc/home/njh27/pc-learning-dcc|
njh27|COMPLETED|scavenger-gpu|2023-05-25T10:27:02|2023-05-25T10:55:51|00:28:49|dcc-tdunn-gpu-03|1|1|32G||/hpc/home/njh27/pc-learning-dcc|
njh27|COMPLETED|scavenger-gpu|2023-05-25T10:27:02|2023-05-25T10:58:22|00:31:20|dcc-tdunn-gpu-03|1|1|32G||/hpc/home/njh27/pc-learning-dcc|
njh27|COMPLETED|scavenger-gpu|2023-05-25T10:27:02|2023-05-25T13:22:45|02:55:43|dcc-tdunn-gpu-03|1|1|32G||/hpc/home/njh27/pc-learning-dcc|
njh27|COMPLETED|scavenger-gpu|2023-05-25T10:27:02|2023-05-25T13:22:11|02:55:09|dcc-tdunn-gpu-03|1|1|32G||/hpc/home/njh27/pc-learning-dcc|
njh27|COMPLETED|scavenger-gpu|2023-05-25T10:27:02|2023-05-25T13:26:38|02:59:36|dcc-tdunn-gpu-03|1|1|32G||/hpc/home/njh27/pc-learning-dcc|
njh27|COMPLETED|scavenger-gpu|2023-05-25T10:27:02|2023-05-25T10:59:33|00:32:31|dcc-tdunn-gpu-03|1|1|32G||/hpc/home/njh27/pc-learning-dcc|
njh27|COMPLETED|scavenger-gpu|2023-05-25T10:27:02|2023-05-25T10:54:24|00:27:22|dcc-tdunn-gpu-01|1|1|32G||/hpc/home/njh27/pc-learning-dcc|
njh27|COMPLETED|scavenger-gpu|2023-05-25T10:27:02|2023-05-25T10:54:58|00:27:56|dcc-tdunn-gpu-01|1|1|32G||/hpc/home/njh27/pc-learning-dcc|
njh27|COMPLETED|scavenger-gpu|2023-05-25T10:27:02|2023-05-25T10:56:36|00:29:34|dcc-tdunn-gpu-01|1|1|32G||/hpc/home/njh27/pc-learning-dcc|
njh27|COMPLETED|scavenger-gpu|2023-05-25T10:27:02|2023-05-25T10:54:17|00:27:15|dcc-tdunn-gpu-01|1|1|32G||/hpc/home/njh27/pc-learning-dcc|
njh27|COMPLETED|scavenger-gpu|2023-05-25T10:27:02|2023-05-25T10:53:38|00:26:36|dcc-tdunn-gpu-01|1|1|32G||/hpc/home/njh27/pc-learning-dcc|
njh27|COMPLETED|scavenger-gpu|2023-05-25T10:27:02|2023-05-25T12:58:29|02:31:27|dcc-tdunn-gpu-01|1|1|32G||/hpc/home/njh27/pc-learning-dcc|
njh27|COMPLETED|scavenger-gpu|2023-05-25T10:27:02|2023-05-25T13:22:49|02:55:47|dcc-tdunn-gpu-01|1|1|32G||/hpc/home/njh27/pc-learning-dcc|
njh27|COMPLETED|scavenger-gpu|2023-05-25T10:27:02|2023-05-25T13:42:16|03:15:14|dcc-tdunn-gpu-01|1|1|32G||/hpc/home/njh27/pc-learning-dcc|
njh27|COMPLETED|scavenger-gpu|2023-05-25T10:27:02|2023-05-25T10:54:05|00:27:03|dcc-tdunn-gpu-01|1|1|32G||/hpc/home/njh27/pc-learning-dcc|
njh27|COMPLETED|scavenger-gpu|2023-05-25T10:27:02|2023-05-25T10:54:33|00:27:31|dcc-tdunn-gpu-01|1|1|32G||/hpc/home/njh27/pc-learning-dcc|
njh27|COMPLETED|scavenger-gpu|2023-05-25T10:27:02|2023-05-25T10:34:49|00:07:47|dcc-pbenfeylab-gpu-01|1|1|32G||/hpc/home/njh27/pc-learning-dcc|
njh27|COMPLETED|scavenger-gpu|2023-05-25T10:27:02|2023-05-25T10:34:29|00:07:27|dcc-pbenfeylab-gpu-01|1|1|32G||/hpc/home/njh27/pc-learning-dcc|
njh27|COMPLETED|scavenger-gpu|2023-05-25T10:27:02|2023-05-25T10:53:31|00:26:29|dcc-fanglab-gpu-01|1|1|32G||/hpc/home/njh27/pc-learning-dcc|
njh27|COMPLETED|scavenger-gpu|2023-05-25T10:27:02|2023-05-25T10:51:27|00:24:25|dcc-fanglab-gpu-01|1|1|32G||/hpc/home/njh27/pc-learning-dcc|
njh27|COMPLETED|scavenger-gpu|2023-05-25T10:27:02|2023-05-25T11:20:46|00:53:44|dcc-fanglab-gpu-01|1|1|32G||/hpc/home/njh27/pc-learning-dcc|
njh27|COMPLETED|scavenger-gpu|2023-05-25T10:27:02|2023-05-25T11:21:51|00:54:49|dcc-fanglab-gpu-01|1|1|32G||/hpc/home/njh27/pc-learning-dcc|
njh27|COMPLETED|scavenger-gpu|2023-05-25T10:27:02|2023-05-25T11:21:50|00:54:48|dcc-fanglab-gpu-01|1|1|32G||/hpc/home/njh27/pc-learning-dcc|
njh27|COMPLETED|scavenger-gpu|2023-05-25T10:27:02|2023-05-25T10:54:03|00:27:01|dcc-fanglab-gpu-01|1|1|32G||/hpc/home/njh27/pc-learning-dcc|
njh27|COMPLETED|scavenger-gpu|2023-05-25T10:27:05|2023-05-25T10:53:59|00:26:54|dcc-fanglab-gpu-01|1|1|32G||/hpc/home/njh27/pc-learning-dcc|
njh27|COMPLETED|scavenger-gpu|2023-05-25T10:27:05|2023-05-25T10:52:06|00:25:01|dcc-fanglab-gpu-01|1|1|32G||/hpc/home/njh27/pc-learning-dcc|
njh27|COMPLETED|scavenger-gpu|2023-05-25T10:27:05|2023-05-25T10:47:43|00:20:38|dcc-collinslab-gpu-02|1|1|32G||/hpc/home/njh27/pc-learning-dcc|
njh27|COMPLETED|scavenger-gpu|2023-05-25T10:27:05|2023-05-25T10:45:27|00:18:22|dcc-collinslab-gpu-02|1|1|32G||/hpc/home/njh27/pc-learning-dcc|
njh27|COMPLETED|scavenger-gpu|2023-05-25T10:27:05|2023-05-25T10:48:45|00:21:40|dcc-collinslab-gpu-02|1|1|32G||/hpc/home/njh27/pc-learning-dcc|
njh27|COMPLETED|scavenger-gpu|2023-05-25T10:27:05|2023-05-25T11:02:21|00:35:16|dcc-collinslab-gpu-01|1|1|32G||/hpc/home/njh27/pc-learning-dcc|
njh27|COMPLETED|scavenger-gpu|2023-05-25T10:27:05|2023-05-25T11:10:44|00:43:39|dcc-collinslab-gpu-01|1|1|32G||/hpc/home/njh27/pc-learning-dcc|
njh27|COMPLETED|scavenger-gpu|2023-05-25T10:27:05|2023-05-25T11:00:17|00:33:12|dcc-collinslab-gpu-01|1|1|32G||/hpc/home/njh27/pc-learning-dcc|
njh27|COMPLETED|scavenger-gpu|2023-05-25T10:34:25|2023-05-25T10:42:34|00:08:09|dcc-vossenlab-gpu-02|1|1|32G||/hpc/home/njh27/pc-learning-dcc|
njh27|COMPLETED|scavenger-gpu|2023-05-25T10:34:30|2023-05-25T10:41:59|00:07:29|dcc-pbenfeylab-gpu-01|1|1|32G||/hpc/home/njh27/pc-learning-dcc|
njh27|COMPLETED|scavenger-gpu|2023-05-25T10:34:49|2023-05-25T10:42:14|00:07:25|dcc-pbenfeylab-gpu-01|1|1|32G||/hpc/home/njh27/pc-learning-dcc|
njh27|COMPLETED|scavenger-gpu|2023-05-25T10:35:06|2023-05-25T10:43:18|00:08:12|dcc-vossenlab-gpu-02|1|1|32G||/hpc/home/njh27/pc-learning-dcc|
njh27|COMPLETED|scavenger-gpu|2023-05-25T10:35:23|2023-05-25T10:43:40|00:08:17|dcc-vossenlab-gpu-02|1|1|32G||/hpc/home/njh27/pc-learning-dcc|
njh27|COMPLETED|scavenger-gpu|2023-05-25T10:42:00|2023-05-25T10:50:40|00:08:40|dcc-pbenfeylab-gpu-01|1|1|32G||/hpc/home/njh27/pc-learning-dcc|
njh27|COMPLETED|scavenger-gpu|2023-05-25T10:42:14|2023-05-25T11:01:41|00:19:27|dcc-pbenfeylab-gpu-01|1|1|32G||/hpc/home/njh27/pc-learning-dcc|
njh27|COMPLETED|scavenger-gpu|2023-05-25T10:42:34|2023-05-25T11:01:55|00:19:21|dcc-vossenlab-gpu-02|1|1|32G||/hpc/home/njh27/pc-learning-dcc|
njh27|COMPLETED|scavenger-gpu|2023-05-25T10:43:19|2023-05-25T13:01:14|02:17:55|dcc-vossenlab-gpu-02|1|1|32G||/hpc/home/njh27/pc-learning-dcc|
njh27|COMPLETED|scavenger-gpu|2023-05-25T10:43:40|2023-05-25T10:51:33|00:07:53|dcc-vossenlab-gpu-02|1|1|32G||/hpc/home/njh27/pc-learning-dcc|
njh27|COMPLETED|scavenger-gpu|2023-05-25T10:45:28|2023-05-25T10:54:08|00:08:40|dcc-youlab-gpu-13|1|1|32G||/hpc/home/njh27/pc-learning-dcc|
njh27|COMPLETED|scavenger-gpu|2023-05-25T10:47:43|2023-05-25T10:54:50|00:07:07|dcc-youlab-gpu-13|1|1|32G||/hpc/home/njh27/pc-learning-dcc|
njh27|COMPLETED|scavenger-gpu|2023-05-25T10:48:47|2023-05-25T10:56:56|00:08:09|dcc-youlab-gpu-13|1|1|32G||/hpc/home/njh27/pc-learning-dcc|
njh27|COMPLETED|scavenger-gpu|2023-05-25T10:49:49|2023-05-25T11:14:47|00:24:58|dcc-viplab-gpu-01|1|1|32G||/hpc/home/njh27/pc-learning-dcc|
njh27|COMPLETED|scavenger-gpu|2023-05-25T10:50:40|2023-05-25T10:58:40|00:08:00|dcc-pbenfeylab-gpu-03|1|1|32G||/hpc/home/njh27/pc-learning-dcc|
njh27|COMPLETED|scavenger-gpu|2023-05-25T10:51:21|2023-05-25T11:54:29|01:03:08|dcc-viplab-gpu-01|1|1|32G||/hpc/home/njh27/pc-learning-dcc|
njh27|COMPLETED|scavenger-gpu|2023-05-25T10:51:27|2023-05-25T11:12:57|00:21:30|dcc-pbenfeylab-gpu-03|1|1|32G||/hpc/home/njh27/pc-learning-dcc|
njh27|COMPLETED|scavenger-gpu|2023-05-25T10:51:33|2023-05-25T11:11:08|00:19:35|dcc-vossenlab-gpu-02|1|1|32G||/hpc/home/njh27/pc-learning-dcc|
njh27|COMPLETED|scavenger-gpu|2023-05-25T10:52:06|2023-05-25T10:59:36|00:07:30|dcc-pbenfeylab-gpu-03|1|1|32G||/hpc/home/njh27/pc-learning-dcc|
njh27|COMPLETED|scavenger-gpu|2023-05-25T10:53:32|2023-05-25T11:00:37|00:07:05|dcc-youlab-gpu-21|1|1|32G||/hpc/home/njh27/pc-learning-dcc|
njh27|COMPLETED|scavenger-gpu|2023-05-25T10:53:39|2023-05-25T11:00:44|00:07:05|dcc-youlab-gpu-21|1|1|32G||/hpc/home/njh27/pc-learning-dcc|
njh27|COMPLETED|scavenger-gpu|2023-05-25T10:53:59|2023-05-25T11:01:12|00:07:13|dcc-youlab-gpu-21|1|1|32G||/hpc/home/njh27/pc-learning-dcc|
njh27|COMPLETED|scavenger-gpu|2023-05-25T10:54:04|2023-05-25T11:03:50|00:09:46|dcc-youlab-gpu-11|1|1|32G||/hpc/home/njh27/pc-learning-dcc|
njh27|COMPLETED|scavenger-gpu|2023-05-25T10:54:07|2023-05-25T11:03:55|00:09:48|dcc-youlab-gpu-11|1|1|32G||/hpc/home/njh27/pc-learning-dcc|
njh27|COMPLETED|scavenger-gpu|2023-05-25T10:54:09|2023-05-25T11:52:58|00:58:49|dcc-youlab-gpu-13|1|1|32G||/hpc/home/njh27/pc-learning-dcc|
njh27|COMPLETED|scavenger-gpu|2023-05-25T10:54:17|2023-05-25T12:13:38|01:19:21|dcc-youlab-gpu-11|1|1|32G||/hpc/home/njh27/pc-learning-dcc|
njh27|COMPLETED|scavenger-gpu|2023-05-25T10:54:24|2023-05-25T12:14:17|01:19:53|dcc-tdunn-gpu-01|1|1|32G||/hpc/home/njh27/pc-learning-dcc|
njh27|COMPLETED|scavenger-gpu|2023-05-25T10:54:33|2023-05-25T11:20:03|00:25:30|dcc-tdunn-gpu-01|1|1|32G||/hpc/home/njh27/pc-learning-dcc|
njh27|COMPLETED|scavenger-gpu|2023-05-25T10:54:50|2023-05-25T11:03:04|00:08:14|dcc-youlab-gpu-13|1|1|32G||/hpc/home/njh27/pc-learning-dcc|
njh27|COMPLETED|scavenger-gpu|2023-05-25T10:54:59|2023-05-25T11:20:50|00:25:51|dcc-tdunn-gpu-01|1|1|32G||/hpc/home/njh27/pc-learning-dcc|
njh27|COMPLETED|scavenger-gpu|2023-05-25T10:55:51|2023-05-25T11:04:02|00:08:11|dcc-youlab-gpu-12|1|1|32G||/hpc/home/njh27/pc-learning-dcc|
njh27|COMPLETED|scavenger-gpu|2023-05-25T10:56:36|2023-05-25T11:05:01|00:08:25|dcc-youlab-gpu-12|1|1|32G||/hpc/home/njh27/pc-learning-dcc|
njh27|COMPLETED|scavenger-gpu|2023-05-25T10:56:56|2023-05-25T11:04:32|00:07:36|dcc-youlab-gpu-13|1|1|32G||/hpc/home/njh27/pc-learning-dcc|
njh27|COMPLETED|scavenger-gpu|2023-05-25T10:56:59|2023-05-25T11:45:59|00:49:00|dcc-youlab-gpu-12|1|1|32G||/hpc/home/njh27/pc-learning-dcc|
njh27|COMPLETED|scavenger-gpu|2023-05-25T10:57:17|2023-05-25T12:24:34|01:27:17|dcc-tdunn-gpu-03|1|1|32G||/hpc/home/njh27/pc-learning-dcc|
njh27|COMPLETED|scavenger-gpu|2023-05-25T10:57:24|2023-05-25T12:22:41|01:25:17|dcc-tdunn-gpu-03|1|1|32G||/hpc/home/njh27/pc-learning-dcc|
njh27|COMPLETED|scavenger-gpu|2023-05-25T10:58:22|2023-05-25T11:27:09|00:28:47|dcc-tdunn-gpu-03|1|1|32G||/hpc/home/njh27/pc-learning-dcc|
njh27|COMPLETED|scavenger-gpu|2023-05-25T10:58:42|2023-05-25T11:29:40|00:30:58|dcc-tdunn-gpu-03|1|1|32G||/hpc/home/njh27/pc-learning-dcc|
njh27|COMPLETED|scavenger-gpu|2023-05-25T10:58:59|2023-05-25T11:26:38|00:27:39|dcc-tdunn-gpu-03|1|1|32G||/hpc/home/njh27/pc-learning-dcc|
njh27|COMPLETED|scavenger-gpu|2023-05-25T10:59:34|2023-05-25T11:32:43|00:33:09|dcc-tdunn-gpu-03|1|1|32G||/hpc/home/njh27/pc-learning-dcc|
njh27|COMPLETED|scavenger-gpu|2023-05-25T10:59:38|2023-05-25T11:36:40|00:37:02|dcc-tdunn-gpu-03|1|1|32G||/hpc/home/njh27/pc-learning-dcc|
njh27|COMPLETED|scavenger-gpu|2023-05-25T11:00:17|2023-05-25T11:27:05|00:26:48|dcc-tdunn-gpu-01|1|1|32G||/hpc/home/njh27/pc-learning-dcc|
njh27|COMPLETED|scavenger-gpu|2023-05-25T11:00:32|2023-05-25T12:14:24|01:13:52|dcc-tdunn-gpu-03|1|1|32G||/hpc/home/njh27/pc-learning-dcc|
njh27|COMPLETED|scavenger-gpu|2023-05-25T11:00:37|2023-05-25T11:23:31|00:22:54|dcc-youlab-gpu-21|1|1|32G||/hpc/home/njh27/pc-learning-dcc|
njh27|COMPLETED|scavenger-gpu|2023-05-25T11:00:46|2023-05-25T11:18:17|00:17:31|dcc-youlab-gpu-21|1|1|32G||/hpc/home/njh27/pc-learning-dcc|
njh27|COMPLETED|scavenger-gpu|2023-05-25T11:01:14|2023-05-25T11:09:10|00:07:56|dcc-youlab-gpu-21|1|1|32G||/hpc/home/njh27/pc-learning-dcc|
njh27|COMPLETED|scavenger-gpu|2023-05-25T11:01:41|2023-05-25T11:09:11|00:07:30|dcc-youlab-gpu-15|1|1|32G||/hpc/home/njh27/pc-learning-dcc|
njh27|COMPLETED|scavenger-gpu|2023-05-25T11:01:55|2023-05-25T11:09:22|00:07:27|dcc-youlab-gpu-15|1|1|32G||/hpc/home/njh27/pc-learning-dcc|
njh27|COMPLETED|scavenger-gpu|2023-05-25T11:02:21|2023-05-25T11:10:27|00:08:06|dcc-youlab-gpu-15|1|1|32G||/hpc/home/njh27/pc-learning-dcc|
njh27|COMPLETED|scavenger-gpu|2023-05-25T11:03:04|2023-05-25T11:11:37|00:08:33|dcc-youlab-gpu-13|1|1|32G||/hpc/home/njh27/pc-learning-dcc|
njh27|COMPLETED|scavenger-gpu|2023-05-25T11:03:50|2023-05-25T11:15:27|00:11:37|dcc-youlab-gpu-11|1|1|32G||/hpc/home/njh27/pc-learning-dcc|
njh27|COMPLETED|scavenger-gpu|2023-05-25T11:03:55|2023-05-25T11:30:55|00:27:00|dcc-youlab-gpu-11|1|1|32G||/hpc/home/njh27/pc-learning-dcc|
njh27|COMPLETED|scavenger-gpu|2023-05-25T11:04:04|2023-05-25T11:25:53|00:21:49|dcc-youlab-gpu-12|1|1|32G||/hpc/home/njh27/pc-learning-dcc|
njh27|COMPLETED|scavenger-gpu|2023-05-25T11:04:32|2023-05-25T11:25:37|00:21:05|dcc-youlab-gpu-13|1|1|32G||/hpc/home/njh27/pc-learning-dcc|
njh27|COMPLETED|scavenger-gpu|2023-05-25T11:05:03|2023-05-25T11:13:18|00:08:15|dcc-youlab-gpu-12|1|1|32G||/hpc/home/njh27/pc-learning-dcc|
njh27|COMPLETED|scavenger-gpu|2023-05-25T11:09:10|2023-05-25T11:17:08|00:07:58|dcc-youlab-gpu-21|1|1|32G||/hpc/home/njh27/pc-learning-dcc|
njh27|COMPLETED|scavenger-gpu|2023-05-25T11:09:12|2023-05-25T11:16:38|00:07:26|dcc-youlab-gpu-15|1|1|32G||/hpc/home/njh27/pc-learning-dcc|
njh27|COMPLETED|scavenger-gpu|2023-05-25T11:09:22|2023-05-25T11:17:41|00:08:19|dcc-youlab-gpu-15|1|1|32G||/hpc/home/njh27/pc-learning-dcc|
njh27|COMPLETED|scavenger-gpu|2023-05-25T11:10:28|2023-05-25T11:18:04|00:07:36|dcc-youlab-gpu-15|1|1|32G||/hpc/home/njh27/pc-learning-dcc|
njh27|COMPLETED|scavenger-gpu|2023-05-25T11:10:44|2023-05-25T11:18:24|00:07:40|dcc-vossenlab-gpu-02|1|1|32G||/hpc/home/njh27/pc-learning-dcc|
njh27|COMPLETED|scavenger-gpu|2023-05-25T11:11:08|2023-05-25T11:32:18|00:21:10|dcc-vossenlab-gpu-02|1|1|32G||/hpc/home/njh27/pc-learning-dcc|
njh27|COMPLETED|scavenger-gpu|2023-05-25T11:11:38|2023-05-25T11:32:53|00:21:15|dcc-youlab-gpu-13|1|1|32G||/hpc/home/njh27/pc-learning-dcc|
njh27|COMPLETED|scavenger-gpu|2023-05-25T11:12:58|2023-05-25T12:24:46|01:11:48|dcc-tdunn-gpu-01|1|1|32G||/hpc/home/njh27/pc-learning-dcc|
njh27|COMPLETED|scavenger-gpu|2023-05-25T11:13:20|2023-05-25T11:21:26|00:08:06|dcc-youlab-gpu-12|1|1|32G||/hpc/home/njh27/pc-learning-dcc|
njh27|COMPLETED|scavenger-gpu|2023-05-25T11:14:47|2023-05-25T11:38:07|00:23:20|dcc-viplab-gpu-01|1|1|32G||/hpc/home/njh27/pc-learning-dcc|
njh27|COMPLETED|scavenger-gpu|2023-05-25T11:15:28|2023-05-25T11:26:02|00:10:34|dcc-youlab-gpu-11|1|1|32G||/hpc/home/njh27/pc-learning-dcc|
njh27|COMPLETED|scavenger-gpu|2023-05-25T11:16:39|2023-05-25T11:23:33|00:06:54|dcc-youlab-gpu-15|1|1|32G||/hpc/home/njh27/pc-learning-dcc|
njh27|COMPLETED|scavenger-gpu|2023-05-25T11:17:08|2023-05-25T11:24:25|00:07:17|dcc-youlab-gpu-21|1|1|32G||/hpc/home/njh27/pc-learning-dcc|
njh27|COMPLETED|scavenger-gpu|2023-05-25T11:17:41|2023-05-25T11:24:48|00:07:07|dcc-youlab-gpu-15|1|1|32G||/hpc/home/njh27/pc-learning-dcc|
njh27|COMPLETED|scavenger-gpu|2023-05-25T11:18:04|2023-05-25T12:07:23|00:49:19|dcc-youlab-gpu-15|1|1|32G||/hpc/home/njh27/pc-learning-dcc|
njh27|COMPLETED|scavenger-gpu|2023-05-25T11:18:18|2023-05-25T12:07:21|00:49:03|dcc-youlab-gpu-21|1|1|32G||/hpc/home/njh27/pc-learning-dcc|
njh27|COMPLETED|scavenger-gpu|2023-05-25T11:18:24|2023-05-25T12:08:42|00:50:18|dcc-vossenlab-gpu-02|1|1|32G||/hpc/home/njh27/pc-learning-dcc|
njh27|COMPLETED|scavenger-gpu|2023-05-25T11:20:04|2023-05-25T13:18:39|01:58:35|dcc-tdunn-gpu-01|1|1|32G||/hpc/home/njh27/pc-learning-dcc|
njh27|COMPLETED|scavenger-gpu|2023-05-25T11:20:47|2023-05-25T11:47:25|00:26:38|dcc-tdunn-gpu-01|1|1|32G||/hpc/home/njh27/pc-learning-dcc|
njh27|COMPLETED|scavenger-gpu|2023-05-25T11:20:51|2023-05-25T11:49:02|00:28:11|dcc-tdunn-gpu-01|1|1|32G||/hpc/home/njh27/pc-learning-dcc|
njh27|COMPLETED|scavenger-gpu|2023-05-25T11:21:27|2023-05-25T11:29:57|00:08:30|dcc-youlab-gpu-12|1|1|32G||/hpc/home/njh27/pc-learning-dcc|
njh27|COMPLETED|scavenger-gpu|2023-05-25T11:21:51|2023-05-25T11:49:02|00:27:11|dcc-tdunn-gpu-01|1|1|32G||/hpc/home/njh27/pc-learning-dcc|
njh27|COMPLETED|scavenger-gpu|2023-05-25T11:21:53|2023-05-25T11:28:57|00:07:04|dcc-pbenfeylab-gpu-01|1|1|32G||/hpc/home/njh27/pc-learning-dcc|
njh27|COMPLETED|scavenger-gpu|2023-05-25T11:23:31|2023-05-25T12:14:07|00:50:36|dcc-youlab-gpu-21|1|1|32G||/hpc/home/njh27/pc-learning-dcc|
njh27|COMPLETED|scavenger-gpu|2023-05-25T11:23:34|2023-05-25T12:22:47|00:59:13|dcc-youlab-gpu-15|1|1|32G||/hpc/home/njh27/pc-learning-dcc|
njh27|COMPLETED|scavenger-gpu|2023-05-25T11:24:25|2023-05-25T12:16:44|00:52:19|dcc-youlab-gpu-21|1|1|32G||/hpc/home/njh27/pc-learning-dcc|
njh27|COMPLETED|scavenger-gpu|2023-05-25T11:24:48|2023-05-25T11:33:47|00:08:59|dcc-youlab-gpu-15|1|1|32G||/hpc/home/njh27/pc-learning-dcc|
njh27|COMPLETED|scavenger-gpu|2023-05-25T11:25:38|2023-05-25T11:33:11|00:07:33|dcc-youlab-gpu-13|1|1|32G||/hpc/home/njh27/pc-learning-dcc|
njh27|COMPLETED|scavenger-gpu|2023-05-25T11:25:53|2023-05-25T11:34:03|00:08:10|dcc-youlab-gpu-12|1|1|32G||/hpc/home/njh27/pc-learning-dcc|
njh27|COMPLETED|scavenger-gpu|2023-05-25T11:26:03|2023-05-25T11:37:07|00:11:04|dcc-youlab-gpu-11|1|1|32G||/hpc/home/njh27/pc-learning-dcc|
njh27|COMPLETED|scavenger-gpu|2023-05-25T11:26:38|2023-05-25T11:54:16|00:27:38|dcc-tdunn-gpu-03|1|1|32G||/hpc/home/njh27/pc-learning-dcc|
njh27|COMPLETED|scavenger-gpu|2023-05-25T11:27:05|2023-05-25T11:53:16|00:26:11|dcc-tdunn-gpu-01|1|1|32G||/hpc/home/njh27/pc-learning-dcc|
njh27|COMPLETED|scavenger-gpu|2023-05-25T11:27:10|2023-05-25T12:30:44|01:03:34|dcc-youlab-gpu-07|1|1|32G||/hpc/home/njh27/pc-learning-dcc|
njh27|COMPLETED|scavenger-gpu|2023-05-25T11:28:58|2023-05-25T12:21:38|00:52:40|dcc-youlab-gpu-10|1|1|32G||/hpc/home/njh27/pc-learning-dcc|
njh27|COMPLETED|scavenger-gpu|2023-05-25T11:29:41|2023-05-25T12:26:50|00:57:09|dcc-youlab-gpu-42|1|1|32G||/hpc/home/njh27/pc-learning-dcc|
njh27|COMPLETED|scavenger-gpu|2023-05-25T11:29:57|2023-05-25T11:38:57|00:09:00|dcc-youlab-gpu-42|1|1|32G||/hpc/home/njh27/pc-learning-dcc|
njh27|COMPLETED|scavenger-gpu|2023-05-25T11:30:55|2023-05-25T11:40:24|00:09:29|dcc-youlab-gpu-42|1|1|32G||/hpc/home/njh27/pc-learning-dcc|
njh27|COMPLETED|scavenger-gpu|2023-05-25T11:32:20|2023-05-25T11:41:07|00:08:47|dcc-youlab-gpu-12|1|1|32G||/hpc/home/njh27/pc-learning-dcc|
njh27|COMPLETED|scavenger-gpu|2023-05-25T11:32:45|2023-05-25T11:44:07|00:11:22|dcc-youlab-gpu-11|1|1|32G||/hpc/home/njh27/pc-learning-dcc|
njh27|COMPLETED|scavenger-gpu|2023-05-25T11:32:54|2023-05-25T11:40:50|00:07:56|dcc-youlab-gpu-13|1|1|32G||/hpc/home/njh27/pc-learning-dcc|
njh27|COMPLETED|scavenger-gpu|2023-05-25T11:33:12|2023-05-25T11:41:30|00:08:18|dcc-youlab-gpu-13|1|1|32G||/hpc/home/njh27/pc-learning-dcc|
njh27|COMPLETED|scavenger-gpu|2023-05-25T11:33:48|2023-05-25T11:54:04|00:20:16|dcc-youlab-gpu-15|1|1|32G||/hpc/home/njh27/pc-learning-dcc|
njh27|COMPLETED|scavenger-gpu|2023-05-25T11:34:05|2023-05-25T11:58:00|00:23:55|dcc-youlab-gpu-12|1|1|32G||/hpc/home/njh27/pc-learning-dcc|
njh27|COMPLETED|scavenger-gpu|2023-05-25T11:36:40|2023-05-25T12:00:35|00:23:55|dcc-youlab-gpu-10|1|1|32G||/hpc/home/njh27/pc-learning-dcc|
njh27|COMPLETED|scavenger-gpu|2023-05-25T11:37:08|2023-05-25T11:48:53|00:11:45|dcc-youlab-gpu-11|1|1|32G||/hpc/home/njh27/pc-learning-dcc|
njh27|COMPLETED|scavenger-gpu|2023-05-25T11:38:08|2023-05-25T11:47:29|00:09:21|dcc-youlab-gpu-10|1|1|32G||/hpc/home/njh27/pc-learning-dcc|
njh27|COMPLETED|scavenger-gpu|2023-05-25T11:38:59|2023-05-25T11:49:05|00:10:06|dcc-youlab-gpu-42|1|1|32G||/hpc/home/njh27/pc-learning-dcc|
njh27|COMPLETED|scavenger-gpu|2023-05-25T11:40:25|2023-05-25T11:50:08|00:09:43|dcc-youlab-gpu-42|1|1|32G||/hpc/home/njh27/pc-learning-dcc|
njh27|COMPLETED|scavenger-gpu|2023-05-25T11:40:51|2023-05-25T11:48:35|00:07:44|dcc-youlab-gpu-13|1|1|32G||/hpc/home/njh27/pc-learning-dcc|
njh27|COMPLETED|scavenger-gpu|2023-05-25T11:40:59|2023-05-25T11:52:27|00:11:28|dcc-youlab-gpu-07|1|1|32G||/hpc/home/njh27/pc-learning-dcc|
njh27|COMPLETED|scavenger-gpu|2023-05-25T11:41:08|2023-05-25T12:07:08|00:26:00|dcc-youlab-gpu-12|1|1|32G||/hpc/home/njh27/pc-learning-dcc|
njh27|COMPLETED|scavenger-gpu|2023-05-25T11:41:31|2023-05-25T12:03:21|00:21:50|dcc-youlab-gpu-13|1|1|32G||/hpc/home/njh27/pc-learning-dcc|
njh27|COMPLETED|scavenger-gpu|2023-05-25T11:43:50|2023-05-25T12:09:20|00:25:30|dcc-youlab-gpu-07|1|1|32G||/hpc/home/njh27/pc-learning-dcc|
njh27|COMPLETED|scavenger-gpu|2023-05-25T11:44:08|2023-05-25T11:57:45|00:13:37|dcc-youlab-gpu-11|1|1|32G||/hpc/home/njh27/pc-learning-dcc|
njh27|COMPLETED|scavenger-gpu|2023-05-25T11:46:00|2023-05-25T11:56:48|00:10:48|dcc-youlab-gpu-12|1|1|32G||/hpc/home/njh27/pc-learning-dcc|
njh27|COMPLETED|scavenger-gpu|2023-05-25T11:47:27|2023-05-25T11:55:21|00:07:54|dcc-vossenlab-gpu-02|1|1|32G||/hpc/home/njh27/pc-learning-dcc|
njh27|COMPLETED|scavenger-gpu|2023-05-25T11:47:29|2023-05-25T11:57:27|00:09:58|dcc-youlab-gpu-10|1|1|32G||/hpc/home/njh27/pc-learning-dcc|
njh27|COMPLETED|scavenger-gpu|2023-05-25T11:48:37|2023-05-25T11:57:31|00:08:54|dcc-youlab-gpu-13|1|1|32G||/hpc/home/njh27/pc-learning-dcc|
njh27|COMPLETED|scavenger-gpu|2023-05-25T11:48:55|2023-05-25T12:02:00|00:13:05|dcc-youlab-gpu-11|1|1|32G||/hpc/home/njh27/pc-learning-dcc|
njh27|COMPLETED|scavenger-gpu|2023-05-25T11:49:02|2023-05-25T12:57:26|01:08:24|dcc-viplab-gpu-01|1|1|32G||/hpc/home/njh27/pc-learning-dcc|
njh27|COMPLETED|scavenger-gpu|2023-05-25T11:49:04|2023-05-25T12:52:54|01:03:50|dcc-tdunn-gpu-03|1|1|32G||/hpc/home/njh27/pc-learning-dcc|
njh27|COMPLETED|scavenger-gpu|2023-05-25T11:49:07|2023-05-25T12:13:13|00:24:06|dcc-youlab-gpu-42|1|1|32G||/hpc/home/njh27/pc-learning-dcc|
njh27|COMPLETED|scavenger-gpu|2023-05-25T11:50:09|2023-05-25T11:58:16|00:08:07|dcc-youlab-gpu-42|1|1|32G||/hpc/home/njh27/pc-learning-dcc|
njh27|COMPLETED|scavenger-gpu|2023-05-25T11:51:43|2023-05-25T12:16:23|00:24:40|dcc-tdunn-gpu-03|1|1|32G||/hpc/home/njh27/pc-learning-dcc|
njh27|COMPLETED|scavenger-gpu|2023-05-25T11:52:28|2023-05-25T12:01:14|00:08:46|dcc-youlab-gpu-07|1|1|32G||/hpc/home/njh27/pc-learning-dcc|
njh27|COMPLETED|scavenger-gpu|2023-05-25T11:53:00|2023-05-25T11:59:38|00:06:38|dcc-youlab-gpu-13|1|1|32G||/hpc/home/njh27/pc-learning-dcc|
njh27|COMPLETED|scavenger-gpu|2023-05-25T11:53:19|2023-05-25T12:14:46|00:21:27|dcc-tdunn-gpu-03|1|1|32G||/hpc/home/njh27/pc-learning-dcc|
njh27|COMPLETED|scavenger-gpu|2023-05-25T11:54:05|2023-05-25T12:02:08|00:08:03|dcc-youlab-gpu-15|1|1|32G||/hpc/home/njh27/pc-learning-dcc|
njh27|COMPLETED|scavenger-gpu|2023-05-25T11:54:18|2023-05-25T13:04:46|01:10:28|dcc-tdunn-gpu-03|1|1|32G||/hpc/home/njh27/pc-learning-dcc|
njh27|COMPLETED|scavenger-gpu|2023-05-25T11:54:30|2023-05-25T12:56:10|01:01:40|dcc-viplab-gpu-01|1|1|32G||/hpc/home/njh27/pc-learning-dcc|
njh27|COMPLETED|scavenger-gpu|2023-05-25T11:55:23|2023-05-25T13:01:38|01:06:15|dcc-vossenlab-gpu-02|1|1|32G||/hpc/home/njh27/pc-learning-dcc|
njh27|COMPLETED|scavenger-gpu|2023-05-25T11:56:50|2023-05-25T12:05:11|00:08:21|dcc-youlab-gpu-12|1|1|32G||/hpc/home/njh27/pc-learning-dcc|
njh27|COMPLETED|scavenger-gpu|2023-05-25T11:57:28|2023-05-25T12:06:30|00:09:02|dcc-youlab-gpu-10|1|1|32G||/hpc/home/njh27/pc-learning-dcc|
njh27|COMPLETED|scavenger-gpu|2023-05-25T11:57:33|2023-05-25T12:04:17|00:06:44|dcc-youlab-gpu-13|1|1|32G||/hpc/home/njh27/pc-learning-dcc|
njh27|COMPLETED|scavenger-gpu|2023-05-25T11:57:47|2023-05-25T12:07:47|00:10:00|dcc-youlab-gpu-11|1|1|32G||/hpc/home/njh27/pc-learning-dcc|
njh27|COMPLETED|scavenger-gpu|2023-05-25T11:58:02|2023-05-25T12:04:56|00:06:54|dcc-youlab-gpu-12|1|1|32G||/hpc/home/njh27/pc-learning-dcc|
njh27|COMPLETED|scavenger-gpu|2023-05-25T11:58:18|2023-05-25T12:08:03|00:09:45|dcc-youlab-gpu-42|1|1|32G||/hpc/home/njh27/pc-learning-dcc|
njh27|COMPLETED|scavenger-gpu|2023-05-25T11:59:40|2023-05-25T13:02:34|01:02:54|dcc-youlab-gpu-13|1|1|32G||/hpc/home/njh27/pc-learning-dcc|
njh27|COMPLETED|scavenger-gpu|2023-05-25T12:00:36|2023-05-25T12:22:48|00:22:12|dcc-youlab-gpu-10|1|1|32G||/hpc/home/njh27/pc-learning-dcc|
njh27|COMPLETED|scavenger-gpu|2023-05-25T12:01:15|2023-05-25T13:13:17|01:12:02|dcc-youlab-gpu-07|1|1|32G||/hpc/home/njh27/pc-learning-dcc|
njh27|COMPLETED|scavenger-gpu|2023-05-25T12:02:00|2023-05-25T12:12:30|00:10:30|dcc-youlab-gpu-11|1|1|32G||/hpc/home/njh27/pc-learning-dcc|
njh27|COMPLETED|scavenger-gpu|2023-05-25T12:02:10|2023-05-25T12:09:17|00:07:07|dcc-youlab-gpu-15|1|1|32G||/hpc/home/njh27/pc-learning-dcc|
njh27|COMPLETED|scavenger-gpu|2023-05-25T12:03:21|2023-05-25T12:09:54|00:06:33|dcc-youlab-gpu-13|1|1|32G||/hpc/home/njh27/pc-learning-dcc|
njh27|COMPLETED|scavenger-gpu|2023-05-25T12:04:17|2023-05-25T12:10:23|00:06:06|dcc-youlab-gpu-13|1|1|32G||/hpc/home/njh27/pc-learning-dcc|
njh27|COMPLETED|scavenger-gpu|2023-05-25T12:04:57|2023-05-25T12:12:49|00:07:52|dcc-youlab-gpu-12|1|1|32G||/hpc/home/njh27/pc-learning-dcc|
njh27|COMPLETED|scavenger-gpu|2023-05-25T12:05:12|2023-05-25T12:12:54|00:07:42|dcc-youlab-gpu-12|1|1|32G||/hpc/home/njh27/pc-learning-dcc|
njh27|COMPLETED|scavenger-gpu|2023-05-25T12:06:31|2023-05-25T13:08:44|01:02:13|dcc-youlab-gpu-10|1|1|32G||/hpc/home/njh27/pc-learning-dcc|
njh27|COMPLETED|scavenger-gpu|2023-05-25T12:07:09|2023-05-25T12:28:52|00:21:43|dcc-youlab-gpu-12|1|1|32G||/hpc/home/njh27/pc-learning-dcc|
njh27|COMPLETED|scavenger-gpu|2023-05-25T12:07:21|2023-05-25T13:03:46|00:56:25|dcc-youlab-gpu-21|1|1|32G||/hpc/home/njh27/pc-learning-dcc|
njh27|COMPLETED|scavenger-gpu|2023-05-25T12:07:24|2023-05-25T12:14:16|00:06:52|dcc-youlab-gpu-15|1|1|32G||/hpc/home/njh27/pc-learning-dcc|
njh27|COMPLETED|scavenger-gpu|2023-05-25T12:07:47|2023-05-25T12:18:36|00:10:49|dcc-youlab-gpu-11|1|1|32G||/hpc/home/njh27/pc-learning-dcc|
njh27|COMPLETED|scavenger-gpu|2023-05-25T12:08:05|2023-05-25T12:17:17|00:09:12|dcc-youlab-gpu-42|1|1|32G||/hpc/home/njh27/pc-learning-dcc|
njh27|COMPLETED|scavenger-gpu|2023-05-25T12:08:44|2023-05-25T12:16:17|00:07:33|dcc-vossenlab-gpu-02|1|1|32G||/hpc/home/njh27/pc-learning-dcc|
njh27|COMPLETED|scavenger-gpu|2023-05-25T12:09:17|2023-05-25T12:16:30|00:07:13|dcc-youlab-gpu-15|1|1|32G||/hpc/home/njh27/pc-learning-dcc|
njh27|COMPLETED|scavenger-gpu|2023-05-25T12:09:22|2023-05-25T12:18:21|00:08:59|dcc-youlab-gpu-07|1|1|32G||/hpc/home/njh27/pc-learning-dcc|
njh27|COMPLETED|scavenger-gpu|2023-05-25T12:09:56|2023-05-25T13:01:07|00:51:11|dcc-youlab-gpu-13|1|1|32G||/hpc/home/njh27/pc-learning-dcc|
njh27|COMPLETED|scavenger-gpu|2023-05-25T12:10:24|2023-05-25T12:30:02|00:19:38|dcc-youlab-gpu-13|1|1|32G||/hpc/home/njh27/pc-learning-dcc|
njh27|COMPLETED|scavenger-gpu|2023-05-25T12:12:30|2023-05-25T13:50:44|01:38:14|dcc-youlab-gpu-11|1|1|32G||/hpc/home/njh27/pc-learning-dcc|
njh27|COMPLETED|scavenger-gpu|2023-05-25T12:12:49|2023-05-25T12:21:11|00:08:22|dcc-youlab-gpu-12|1|1|32G||/hpc/home/njh27/pc-learning-dcc|
njh27|COMPLETED|scavenger-gpu|2023-05-25T12:12:55|2023-05-25T12:20:49|00:07:54|dcc-youlab-gpu-12|1|1|32G||/hpc/home/njh27/pc-learning-dcc|
njh27|COMPLETED|scavenger-gpu|2023-05-25T12:13:14|2023-05-25T12:22:03|00:08:49|dcc-youlab-gpu-42|1|1|32G||/hpc/home/njh27/pc-learning-dcc|
njh27|COMPLETED|scavenger-gpu|2023-05-25T12:13:40|2023-05-25T12:24:36|00:10:56|dcc-youlab-gpu-11|1|1|32G||/hpc/home/njh27/pc-learning-dcc|
njh27|COMPLETED|scavenger-gpu|2023-05-25T12:14:09|2023-05-25T12:21:00|00:06:51|dcc-youlab-gpu-21|1|1|32G||/hpc/home/njh27/pc-learning-dcc|
njh27|COMPLETED|scavenger-gpu|2023-05-25T12:14:16|2023-05-25T12:21:32|00:07:16|dcc-youlab-gpu-15|1|1|32G||/hpc/home/njh27/pc-learning-dcc|
njh27|COMPLETED|scavenger-gpu|2023-05-25T12:14:19|2023-05-25T13:21:25|01:07:06|dcc-tdunn-gpu-03|1|1|32G||/hpc/home/njh27/pc-learning-dcc|
njh27|COMPLETED|scavenger-gpu|2023-05-25T12:14:25|2023-05-25T13:15:38|01:01:13|dcc-tdunn-gpu-03|1|1|32G||/hpc/home/njh27/pc-learning-dcc|
njh27|COMPLETED|scavenger-gpu|2023-05-25T12:14:48|2023-05-25T13:24:46|01:09:58|dcc-tdunn-gpu-03|1|1|32G||/hpc/home/njh27/pc-learning-dcc|
njh27|COMPLETED|scavenger-gpu|2023-05-25T12:16:17|2023-05-25T12:41:07|00:24:50|dcc-tdunn-gpu-03|1|1|32G||/hpc/home/njh27/pc-learning-dcc|
njh27|COMPLETED|scavenger-gpu|2023-05-25T12:16:24|2023-05-25T12:23:27|00:07:03|dcc-vossenlab-gpu-02|1|1|32G||/hpc/home/njh27/pc-learning-dcc|
njh27|COMPLETED|scavenger-gpu|2023-05-25T12:16:31|2023-05-25T12:22:53|00:06:22|dcc-youlab-gpu-15|1|1|32G||/hpc/home/njh27/pc-learning-dcc|
njh27|COMPLETED|scavenger-gpu|2023-05-25T12:16:45|2023-05-25T12:24:11|00:07:26|dcc-youlab-gpu-21|1|1|32G||/hpc/home/njh27/pc-learning-dcc|
njh27|COMPLETED|scavenger-gpu|2023-05-25T12:17:19|2023-05-25T12:26:23|00:09:04|dcc-youlab-gpu-42|1|1|32G||/hpc/home/njh27/pc-learning-dcc|
njh27|COMPLETED|scavenger-gpu|2023-05-25T12:18:23|2023-05-25T12:28:05|00:09:42|dcc-youlab-gpu-07|1|1|32G||/hpc/home/njh27/pc-learning-dcc|
njh27|COMPLETED|scavenger-gpu|2023-05-25T12:18:37|2023-05-25T12:48:35|00:29:58|dcc-youlab-gpu-11|1|1|32G||/hpc/home/njh27/pc-learning-dcc|
njh27|COMPLETED|scavenger-gpu|2023-05-25T12:20:51|2023-05-25T12:43:49|00:22:58|dcc-youlab-gpu-12|1|1|32G||/hpc/home/njh27/pc-learning-dcc|
njh27|COMPLETED|scavenger-gpu|2023-05-25T12:21:01|2023-05-25T12:39:55|00:18:54|dcc-youlab-gpu-21|1|1|32G||/hpc/home/njh27/pc-learning-dcc|
njh27|COMPLETED|scavenger-gpu|2023-05-25T12:21:12|2023-05-25T12:29:24|00:08:12|dcc-youlab-gpu-12|1|1|32G||/hpc/home/njh27/pc-learning-dcc|
njh27|COMPLETED|scavenger-gpu|2023-05-25T12:21:33|2023-05-25T12:28:05|00:06:32|dcc-youlab-gpu-15|1|1|32G||/hpc/home/njh27/pc-learning-dcc|
njh27|COMPLETED|scavenger-gpu|2023-05-25T12:21:39|2023-05-25T12:29:57|00:08:18|dcc-youlab-gpu-10|1|1|32G||/hpc/home/njh27/pc-learning-dcc|
njh27|COMPLETED|scavenger-gpu|2023-05-25T12:22:05|2023-05-25T12:32:04|00:09:59|dcc-youlab-gpu-42|1|1|32G||/hpc/home/njh27/pc-learning-dcc|
njh27|COMPLETED|scavenger-gpu|2023-05-25T12:22:43|2023-05-25T12:48:54|00:26:11|dcc-tdunn-gpu-03|1|1|32G||/hpc/home/njh27/pc-learning-dcc|
njh27|COMPLETED|scavenger-gpu|2023-05-25T12:22:48|2023-05-25T12:31:02|00:08:14|dcc-youlab-gpu-15|1|1|32G||/hpc/home/njh27/pc-learning-dcc|
njh27|COMPLETED|scavenger-gpu|2023-05-25T12:22:50|2023-05-25T13:22:21|00:59:31|dcc-youlab-gpu-10|1|1|32G||/hpc/home/njh27/pc-learning-dcc|
njh27|COMPLETED|scavenger-gpu|2023-05-25T12:22:55|2023-05-25T12:44:26|00:21:31|dcc-youlab-gpu-15|1|1|32G||/hpc/home/njh27/pc-learning-dcc|
njh27|COMPLETED|scavenger-gpu|2023-05-25T12:23:29|2023-05-25T13:19:21|00:55:52|dcc-vossenlab-gpu-02|1|1|32G||/hpc/home/njh27/pc-learning-dcc|
njh27|COMPLETED|scavenger-gpu|2023-05-25T12:24:12|2023-05-25T12:31:37|00:07:25|dcc-youlab-gpu-21|1|1|32G||/hpc/home/njh27/pc-learning-dcc|
njh27|COMPLETED|scavenger-gpu|2023-05-25T12:24:35|2023-05-25T12:50:32|00:25:57|dcc-tdunn-gpu-03|1|1|32G||/hpc/home/njh27/pc-learning-dcc|
njh27|COMPLETED|scavenger-gpu|2023-05-25T12:24:37|2023-05-25T12:34:56|00:10:19|dcc-youlab-gpu-11|1|1|32G||/hpc/home/njh27/pc-learning-dcc|
njh27|COMPLETED|scavenger-gpu|2023-05-25T12:24:48|2023-05-25T12:48:51|00:24:03|dcc-tdunn-gpu-03|1|1|32G||/hpc/home/njh27/pc-learning-dcc|
njh27|COMPLETED|scavenger-gpu|2023-05-25T12:26:24|2023-05-25T12:35:01|00:08:37|dcc-youlab-gpu-42|1|1|32G||/hpc/home/njh27/pc-learning-dcc|
njh27|COMPLETED|scavenger-gpu|2023-05-25T12:26:51|2023-05-25T12:35:59|00:09:08|dcc-youlab-gpu-42|1|1|32G||/hpc/home/njh27/pc-learning-dcc|
njh27|COMPLETED|scavenger-gpu|2023-05-25T12:28:07|2023-05-25T13:20:01|00:51:54|dcc-youlab-gpu-15|1|1|32G||/hpc/home/njh27/pc-learning-dcc|
njh27|COMPLETED|scavenger-gpu|2023-05-25T12:28:07|2023-05-25T13:00:26|00:32:19|dcc-youlab-gpu-07|1|1|32G||/hpc/home/njh27/pc-learning-dcc|
njh27|COMPLETED|scavenger-gpu|2023-05-25T12:28:54|2023-05-25T13:24:39|00:55:45|dcc-youlab-gpu-12|1|1|32G||/hpc/home/njh27/pc-learning-dcc|
njh27|COMPLETED|scavenger-gpu|2023-05-25T12:29:26|2023-05-25T12:37:29|00:08:03|dcc-youlab-gpu-12|1|1|32G||/hpc/home/njh27/pc-learning-dcc|
njh27|COMPLETED|scavenger-gpu|2023-05-25T12:29:58|2023-05-25T12:39:22|00:09:24|dcc-youlab-gpu-10|1|1|32G||/hpc/home/njh27/pc-learning-dcc|
njh27|COMPLETED|scavenger-gpu|2023-05-25T12:30:04|2023-05-25T12:36:46|00:06:42|dcc-youlab-gpu-13|1|1|32G||/hpc/home/njh27/pc-learning-dcc|
njh27|COMPLETED|scavenger-gpu|2023-05-25T12:30:45|2023-05-25T12:39:18|00:08:33|dcc-youlab-gpu-07|1|1|32G||/hpc/home/njh27/pc-learning-dcc|
njh27|COMPLETED|scavenger-gpu|2023-05-25T12:31:04|2023-05-25T12:38:00|00:06:56|dcc-youlab-gpu-15|1|1|32G||/hpc/home/njh27/pc-learning-dcc|
njh27|COMPLETED|scavenger-gpu|2023-05-25T12:31:40|2023-05-25T12:38:59|00:07:19|dcc-youlab-gpu-21|1|1|32G||/hpc/home/njh27/pc-learning-dcc|
njh27|COMPLETED|scavenger-gpu|2023-05-25T12:32:07|2023-05-25T13:37:04|01:04:57|dcc-youlab-gpu-42|1|1|32G||/hpc/home/njh27/pc-learning-dcc|
njh27|COMPLETED|scavenger-gpu|2023-05-25T12:34:58|2023-05-25T13:16:03|00:41:05|dcc-youlab-gpu-11|1|1|32G||/hpc/home/njh27/pc-learning-dcc|
njh27|COMPLETED|scavenger-gpu|2023-05-25T12:35:03|2023-05-25T12:59:10|00:24:07|dcc-youlab-gpu-42|1|1|32G||/hpc/home/njh27/pc-learning-dcc|
njh27|COMPLETED|scavenger-gpu|2023-05-25T12:36:00|2023-05-25T12:44:59|00:08:59|dcc-youlab-gpu-42|1|1|32G||/hpc/home/njh27/pc-learning-dcc|
njh27|COMPLETED|scavenger-gpu|2023-05-25T12:36:46|2023-05-25T12:43:58|00:07:12|dcc-youlab-gpu-13|1|1|32G||/hpc/home/njh27/pc-learning-dcc|
njh27|COMPLETED|scavenger-gpu|2023-05-25T12:37:31|2023-05-25T12:46:40|00:09:09|dcc-youlab-gpu-12|1|1|32G||/hpc/home/njh27/pc-learning-dcc|
njh27|COMPLETED|scavenger-gpu|2023-05-25T12:38:01|2023-05-25T12:45:09|00:07:08|dcc-youlab-gpu-15|1|1|32G||/hpc/home/njh27/pc-learning-dcc|
njh27|COMPLETED|scavenger-gpu|2023-05-25T12:39:01|2023-05-25T12:46:21|00:07:20|dcc-youlab-gpu-21|1|1|32G||/hpc/home/njh27/pc-learning-dcc|
njh27|COMPLETED|scavenger-gpu|2023-05-25T12:39:19|2023-05-25T12:48:27|00:09:08|dcc-youlab-gpu-07|1|1|32G||/hpc/home/njh27/pc-learning-dcc|
njh27|COMPLETED|scavenger-gpu|2023-05-25T12:39:24|2023-05-25T13:28:58|00:49:34|dcc-youlab-gpu-10|1|1|32G||/hpc/home/njh27/pc-learning-dcc|
njh27|COMPLETED|scavenger-gpu|2023-05-25T12:39:56|2023-05-25T13:05:37|00:25:41|dcc-youlab-gpu-21|1|1|32G||/hpc/home/njh27/pc-learning-dcc|
njh27|COMPLETED|scavenger-gpu|2023-05-25T12:41:08|2023-05-25T13:45:53|01:04:45|dcc-youlab-gpu-09|1|1|32G||/hpc/home/njh27/pc-learning-dcc|
njh27|COMPLETED|scavenger-gpu|2023-05-25T12:43:51|2023-05-25T12:52:09|00:08:18|dcc-youlab-gpu-12|1|1|32G||/hpc/home/njh27/pc-learning-dcc|
njh27|COMPLETED|scavenger-gpu|2023-05-25T12:43:59|2023-05-25T12:50:42|00:06:43|dcc-youlab-gpu-13|1|1|32G||/hpc/home/njh27/pc-learning-dcc|
njh27|COMPLETED|scavenger-gpu|2023-05-25T12:44:27|2023-05-25T12:54:29|00:10:02|dcc-youlab-gpu-09|1|1|32G||/hpc/home/njh27/pc-learning-dcc|
njh27|COMPLETED|scavenger-gpu|2023-05-25T12:45:01|2023-05-25T12:53:44|00:08:43|dcc-youlab-gpu-42|1|1|32G||/hpc/home/njh27/pc-learning-dcc|
njh27|COMPLETED|scavenger-gpu|2023-05-25T12:45:10|2023-05-25T12:55:08|00:09:58|dcc-youlab-gpu-09|1|1|32G||/hpc/home/njh27/pc-learning-dcc|
njh27|COMPLETED|scavenger-gpu|2023-05-25T12:46:21|2023-05-25T12:53:16|00:06:55|dcc-youlab-gpu-15|1|1|32G||/hpc/home/njh27/pc-learning-dcc|
njh27|COMPLETED|scavenger-gpu|2023-05-25T12:46:41|2023-05-25T13:26:44|00:40:03|dcc-youlab-gpu-21|1|1|32G||/hpc/home/njh27/pc-learning-dcc|
njh27|COMPLETED|scavenger-gpu|2023-05-25T12:48:27|2023-05-25T13:20:22|00:31:55|dcc-youlab-gpu-07|1|1|32G||/hpc/home/njh27/pc-learning-dcc|
njh27|COMPLETED|scavenger-gpu|2023-05-25T12:48:35|2023-05-25T13:58:04|01:09:29|dcc-youlab-gpu-11|1|1|32G||/hpc/home/njh27/pc-learning-dcc|
njh27|COMPLETED|scavenger-gpu|2023-05-25T12:48:51|2023-05-25T13:03:05|00:14:14|dcc-ultrasound-gpu-04|1|1|32G||/hpc/home/njh27/pc-learning-dcc|
njh27|COMPLETED|scavenger-gpu|2023-05-25T12:48:55|2023-05-25T13:09:29|00:20:34|dcc-tdunn-gpu-03|1|1|32G||/hpc/home/njh27/pc-learning-dcc|
njh27|COMPLETED|scavenger-gpu|2023-05-25T12:50:33|2023-05-25T13:13:33|00:23:00|dcc-tdunn-gpu-03|1|1|32G||/hpc/home/njh27/pc-learning-dcc|
njh27|COMPLETED|scavenger-gpu|2023-05-25T12:50:44|2023-05-25T13:03:57|00:13:13|dcc-youlab-gpu-14|1|1|32G||/hpc/home/njh27/pc-learning-dcc|
njh27|COMPLETED|scavenger-gpu|2023-05-25T12:52:11|2023-05-25T13:04:05|00:11:54|dcc-youlab-gpu-14|1|1|32G||/hpc/home/njh27/pc-learning-dcc|
njh27|COMPLETED|scavenger-gpu|2023-05-25T12:52:54|2023-05-25T13:04:40|00:11:46|dcc-youlab-gpu-14|1|1|32G||/hpc/home/njh27/pc-learning-dcc|
njh27|COMPLETED|scavenger-gpu|2023-05-25T12:53:17|2023-05-25T13:39:45|00:46:28|dcc-youlab-gpu-15|1|1|32G||/hpc/home/njh27/pc-learning-dcc|
njh27|COMPLETED|scavenger-gpu|2023-05-25T12:53:44|2023-05-25T13:22:16|00:28:32|dcc-youlab-gpu-42|1|1|32G||/hpc/home/njh27/pc-learning-dcc|
njh27|COMPLETED|scavenger-gpu|2023-05-25T12:54:31|2023-05-25T13:17:22|00:22:51|dcc-youlab-gpu-13|1|1|32G||/hpc/home/njh27/pc-learning-dcc|
