yw564|TIMEOUT|scavenger-gpu|2023-05-04T17:26:37|2023-05-11T17:27:01|7-00:00:24|dcc-mastatlab-gpu-01|1|2|50G||/hpc/group/jilab/imaging/huimin/Inference_rebuttal|
yk206|TIMEOUT|scavenger-gpu|2023-05-07T13:08:05|2023-05-14T13:08:33|7-00:00:28|dcc-motesa-gpu-04|1|6|12G||/hpc/home/yk206/script|
yk206|TIMEOUT|scavenger-gpu|2023-05-07T13:08:05|2023-05-14T13:08:33|7-00:00:28|dcc-motesa-gpu-01|1|6|12G||/hpc/home/yk206/script|
dl370|PREEMPTED|scavenger-gpu|2023-05-08T16:22:29|2023-05-10T21:17:59|2-04:55:30|dcc-youlab-gpu-53|1|10|2G||/work/dl370|
jrl78|COMPLETED|scavenger-gpu|2023-05-09T12:36:31|2023-05-10T17:20:40|1-04:44:09|dcc-youlab-gpu-37|1|10|2G||/work/jrl78/Nanoparticles/JawBreakers/Big Library/run2|
jrl78|COMPLETED|scavenger-gpu|2023-05-10T00:14:54|2023-05-10T18:39:34|18:24:40|dcc-youlab-gpu-49|1|10|2G||/work/jrl78/Nanoparticles/JawBreakers/Big Library/run2|
jrl78|COMPLETED|scavenger-gpu|2023-05-10T03:21:12|2023-05-10T19:36:30|16:15:18|dcc-youlab-gpu-55|1|10|2G||/work/jrl78/Nanoparticles/JawBreakers/Big Library/run2|
jrl78|PREEMPTED|scavenger-gpu|2023-05-10T03:43:28|2023-05-10T21:18:01|17:34:33|dcc-youlab-gpu-51|1|10|2G||/work/jrl78/Nanoparticles/JawBreakers/Big Library/run2|
jrl78|PREEMPTED|scavenger-gpu|2023-05-10T03:56:47|2023-05-10T21:18:03|17:21:16|dcc-youlab-gpu-46|1|10|2G||/work/jrl78/Nanoparticles/JawBreakers/Big Library/run2|
jrl78|COMPLETED|scavenger-gpu|2023-05-10T04:10:37|2023-05-10T19:07:13|14:56:36|dcc-youlab-gpu-42|1|10|2G||/work/jrl78/Nanoparticles/JawBreakers/Big Library/run2|
jrl78|COMPLETED|scavenger-gpu|2023-05-10T04:12:33|2023-05-10T20:14:45|16:02:12|dcc-youlab-gpu-57|1|10|2G||/work/jrl78/Nanoparticles/JawBreakers/Big Library/run2|
jrl78|PREEMPTED|scavenger-gpu|2023-05-10T04:41:07|2023-05-10T21:18:05|16:36:58|dcc-youlab-gpu-50|1|10|2G||/work/jrl78/Nanoparticles/JawBreakers/Big Library/run2|
jrl78|PREEMPTED|scavenger-gpu|2023-05-10T05:05:50|2023-05-10T21:18:08|16:12:18|dcc-youlab-gpu-41|1|10|2G||/work/jrl78/Nanoparticles/JawBreakers/Big Library/run2|
jrl78|PREEMPTED|scavenger-gpu|2023-05-10T05:16:06|2023-05-10T21:18:10|16:02:04|dcc-youlab-gpu-27|1|10|2G||/work/jrl78/Nanoparticles/JawBreakers/Big Library/run2|
jrl78|PREEMPTED|scavenger-gpu|2023-05-10T07:48:02|2023-05-10T21:18:12|13:30:10|dcc-youlab-gpu-54|1|10|2G||/work/jrl78/Nanoparticles/JawBreakers/Big Library/run2|
jrl78|PREEMPTED|scavenger-gpu|2023-05-10T08:35:33|2023-05-10T21:18:14|12:42:41|dcc-youlab-gpu-40|1|10|2G||/work/jrl78/Nanoparticles/JawBreakers/Big Library/run2|
jrl78|COMPLETED|scavenger-gpu|2023-05-10T08:49:15|2023-05-11T03:18:51|18:29:36|dcc-youlab-gpu-14|1|10|2G||/work/jrl78/Nanoparticles/JawBreakers/Big Library/run2|
cem125|COMPLETED|scavenger-gpu|2023-05-09T15:09:34|2023-05-11T02:10:25|1-11:00:51|dcc-youlab-gpu-36|1|10|50G||/hpc/group/rekerlab/cem125/OpenNMT-py|
cem125|COMPLETED|scavenger-gpu|2023-05-09T15:09:34|2023-05-11T02:03:22|1-10:53:48|dcc-youlab-gpu-34|1|10|50G||/hpc/group/rekerlab/cem125/OpenNMT-py|
cem125|COMPLETED|scavenger-gpu|2023-05-09T15:09:34|2023-05-11T07:49:38|1-16:40:04|dcc-youlab-gpu-16|1|10|50G||/hpc/group/rekerlab/cem125/OpenNMT-py|
cem125|COMPLETED|scavenger-gpu|2023-05-09T15:09:34|2023-05-11T08:08:01|1-16:58:27|dcc-youlab-gpu-15|1|10|50G||/hpc/group/rekerlab/cem125/OpenNMT-py|
cem125|COMPLETED|scavenger-gpu|2023-05-09T16:13:17|2023-05-10T22:32:26|1-06:19:09|dcc-carin-gpu-08|1|19|50G||/hpc/group/rekerlab/cem125/OpenNMT-py|
cem125|COMPLETED|scavenger-gpu|2023-05-09T16:13:17|2023-05-10T23:44:27|1-07:31:10|dcc-carin-gpu-07|1|19|50G||/hpc/group/rekerlab/cem125/OpenNMT-py|
cem125|COMPLETED|scavenger-gpu|2023-05-09T16:21:03|2023-05-11T02:21:24|1-10:00:21|dcc-dhvi-gpu-04|1|10|50G||/hpc/group/rekerlab/cem125/OpenNMT-py|
cem125|COMPLETED|scavenger-gpu|2023-05-09T16:14:23|2023-05-11T00:56:11|1-08:41:48|dcc-gehmlab-gpu-49|1|19|50G||/hpc/group/rekerlab/cem125/OpenNMT-py|
jbf18|TIMEOUT|scavenger-gpu|2023-05-10T08:46:41|2023-05-10T20:46:50|12:00:09|dcc-mastatlab-gpu-01|1|32|96G||/hpc/home/jbf18/ondemand/data/sys/dashboard/batch_connect/sys/bc_jupyter_singularity/output/025e531c-a53b-4ff5-8741-413cb414c8d0|
kw297|CANCELLED by 1215097|scavenger-gpu|2023-05-10T08:56:06|2023-05-10T23:58:59|15:02:53|dcc-motesa-gpu-03|1|4|20G||/hpc/group/ychenlab/DA|
kw297|COMPLETED|scavenger-gpu|2023-05-10T09:51:55|2023-05-10T18:52:00|09:00:05|dcc-motesa-gpu-02|1|2|10G||/hpc/group/ychenlab/DA|
kw297|COMPLETED|scavenger-gpu|2023-05-10T09:51:55|2023-05-10T18:23:04|08:31:09|dcc-rekerlab-gpu-01|1|2|10G||/hpc/group/ychenlab/DA|
kw297|COMPLETED|scavenger-gpu|2023-05-10T09:51:55|2023-05-10T17:03:31|07:11:36|dcc-dhvi-gpu-03|1|2|10G||/hpc/group/ychenlab/DA|
kw297|COMPLETED|scavenger-gpu|2023-05-10T09:51:55|2023-05-10T17:23:04|07:31:09|dcc-youlab-gpu-20|1|2|10G||/hpc/group/ychenlab/DA|
kw297|COMPLETED|scavenger-gpu|2023-05-10T09:51:55|2023-05-10T21:44:48|11:52:53|dcc-youlab-gpu-35|1|2|10G||/hpc/group/ychenlab/DA|
kw297|COMPLETED|scavenger-gpu|2023-05-10T09:51:55|2023-05-10T18:51:21|08:59:26|dcc-youlab-gpu-48|1|2|10G||/hpc/group/ychenlab/DA|
kw297|COMPLETED|scavenger-gpu|2023-05-10T09:51:55|2023-05-10T20:57:06|11:05:11|dcc-brunellab-gpu-04|1|2|10G||/hpc/group/ychenlab/DA|
kw297|COMPLETED|scavenger-gpu|2023-05-10T09:51:55|2023-05-10T23:42:28|13:50:33|dcc-youlab-gpu-17|1|2|10G||/hpc/group/ychenlab/DA|
kw297|COMPLETED|scavenger-gpu|2023-05-10T10:01:31|2023-05-10T19:31:40|09:30:09|dcc-youlab-gpu-18|1|2|10G||/hpc/group/ychenlab/DA|
bgb13|FAILED|scavenger-gpu|2023-05-10T11:45:13|2023-05-10T18:09:17|06:24:04|dcc-ultrasound-gpu-03|1|16|10G||/hpc/group/dukenmr/bgb13/cyp51b_phosphorylated_S123/./.|
pkk16|TIMEOUT|scavenger-gpu|2023-05-10T14:23:10|2023-05-11T14:23:18|1-00:00:08|dcc-youlab-gpu-01|1|2|100G||/hpc/home/pkk16/ondemand/data/sys/dashboard/batch_connect/sys/bc_jupyter/output/8b17d1a1-46b2-40f9-bfc5-2bcd251f6c6e|
kw297|COMPLETED|scavenger-gpu|2023-05-10T14:24:30|2023-05-10T23:18:40|08:54:10|dcc-dhvi-gpu-02|1|2|10G||/hpc/group/ychenlab/DA|
kw297|COMPLETED|scavenger-gpu|2023-05-10T14:24:30|2023-05-10T21:16:29|06:51:59|dcc-youlab-gpu-38|1|2|10G||/hpc/group/ychenlab/DA|
kw297|COMPLETED|scavenger-gpu|2023-05-10T14:24:30|2023-05-10T21:21:18|06:56:48|dcc-youlab-gpu-52|1|2|10G||/hpc/group/ychenlab/DA|
kw297|COMPLETED|scavenger-gpu|2023-05-10T14:24:30|2023-05-11T04:20:09|13:55:39|dcc-mainsahlab-gpu-01|1|2|10G||/hpc/group/ychenlab/DA|
kw297|COMPLETED|scavenger-gpu|2023-05-10T14:24:30|2023-05-11T04:14:32|13:50:02|dcc-mainsahlab-gpu-02|1|2|10G||/hpc/group/ychenlab/DA|
kw297|COMPLETED|scavenger-gpu|2023-05-10T14:24:30|2023-05-11T05:23:23|14:58:53|dcc-mainsahlab-gpu-03|1|2|10G||/hpc/group/ychenlab/DA|
kw297|COMPLETED|scavenger-gpu|2023-05-10T14:24:31|2023-05-11T06:02:21|15:37:50|dcc-mainsahlab-gpu-04|1|2|10G||/hpc/group/ychenlab/DA|
kw297|COMPLETED|scavenger-gpu|2023-05-10T14:24:31|2023-05-10T23:10:19|08:45:48|dcc-allenlab-gpu-01|1|2|10G||/hpc/group/ychenlab/DA|
kw297|COMPLETED|scavenger-gpu|2023-05-10T14:24:31|2023-05-10T23:39:24|09:14:53|dcc-allenlab-gpu-02|1|2|10G||/hpc/group/ychenlab/DA|
kw297|COMPLETED|scavenger-gpu|2023-05-10T14:24:31|2023-05-11T00:47:13|10:22:42|dcc-allenlab-gpu-03|1|2|10G||/hpc/group/ychenlab/DA|
kw297|COMPLETED|scavenger-gpu|2023-05-10T14:24:31|2023-05-10T21:01:01|06:36:30|dcc-dhvi-gpu-06|1|2|10G||/hpc/group/ychenlab/DA|
kw297|COMPLETED|scavenger-gpu|2023-05-10T14:24:31|2023-05-10T21:10:43|06:46:12|dcc-dhvi-gpu-07|1|2|10G||/hpc/group/ychenlab/DA|
kw297|COMPLETED|scavenger-gpu|2023-05-10T14:24:31|2023-05-10T21:13:49|06:49:18|dcc-dhvi-gpu-08|1|2|10G||/hpc/group/ychenlab/DA|
kw297|COMPLETED|scavenger-gpu|2023-05-10T14:24:31|2023-05-10T22:35:59|08:11:28|dcc-youlab-gpu-31|1|2|10G||/hpc/group/ychenlab/DA|
kw297|COMPLETED|scavenger-gpu|2023-05-10T14:24:33|2023-05-10T21:36:15|07:11:42|dcc-youlab-gpu-32|1|2|10G||/hpc/group/ychenlab/DA|
kw297|COMPLETED|scavenger-gpu|2023-05-10T14:24:33|2023-05-10T22:51:43|08:27:10|dcc-youlab-gpu-33|1|2|10G||/hpc/group/ychenlab/DA|
kw297|COMPLETED|scavenger-gpu|2023-05-10T14:24:33|2023-05-10T22:26:50|08:02:17|dcc-pbenfeylab-gpu-01|1|2|10G||/hpc/group/ychenlab/DA|
kw297|COMPLETED|scavenger-gpu|2023-05-10T14:24:33|2023-05-10T23:06:32|08:41:59|dcc-pbenfeylab-gpu-02|1|2|10G||/hpc/group/ychenlab/DA|
kw297|COMPLETED|scavenger-gpu|2023-05-10T14:24:33|2023-05-10T23:43:58|09:19:25|dcc-pbenfeylab-gpu-03|1|2|10G||/hpc/group/ychenlab/DA|
kw297|COMPLETED|scavenger-gpu|2023-05-10T14:24:33|2023-05-11T00:26:12|10:01:39|dcc-pbenfeylab-gpu-04|1|2|10G||/hpc/group/ychenlab/DA|
kw297|COMPLETED|scavenger-gpu|2023-05-10T14:24:33|2023-05-10T21:06:40|06:42:07|dcc-vossenlab-gpu-01|1|2|10G||/hpc/group/ychenlab/DA|
kw297|COMPLETED|scavenger-gpu|2023-05-10T14:24:33|2023-05-10T21:16:19|06:51:46|dcc-vossenlab-gpu-02|1|2|10G||/hpc/group/ychenlab/DA|
kw297|COMPLETED|scavenger-gpu|2023-05-10T14:24:33|2023-05-10T21:15:54|06:51:21|dcc-vossenlab-gpu-03|1|2|10G||/hpc/group/ychenlab/DA|
kw297|COMPLETED|scavenger-gpu|2023-05-10T14:24:33|2023-05-10T21:26:53|07:02:20|dcc-vossenlab-gpu-04|1|2|10G||/hpc/group/ychenlab/DA|
kw297|COMPLETED|scavenger-gpu|2023-05-10T14:24:33|2023-05-10T21:40:34|07:16:01|dcc-biostat-gpu-01|1|2|10G||/hpc/group/ychenlab/DA|
kw297|COMPLETED|scavenger-gpu|2023-05-10T14:24:33|2023-05-10T21:55:18|07:30:45|dcc-biostat-gpu-02|1|2|10G||/hpc/group/ychenlab/DA|
kw297|COMPLETED|scavenger-gpu|2023-05-10T14:24:34|2023-05-10T23:42:15|09:17:41|dcc-ece-gpu-01|1|2|10G||/hpc/group/ychenlab/DA|
kw297|COMPLETED|scavenger-gpu|2023-05-10T14:24:34|2023-05-11T00:26:49|10:02:15|dcc-ece-gpu-02|1|2|10G||/hpc/group/ychenlab/DA|
kw297|COMPLETED|scavenger-gpu|2023-05-10T14:24:34|2023-05-11T01:54:02|11:29:28|dcc-ece-gpu-03|1|2|10G||/hpc/group/ychenlab/DA|
kw297|COMPLETED|scavenger-gpu|2023-05-10T14:24:34|2023-05-11T02:37:38|12:13:04|dcc-ece-gpu-04|1|2|10G||/hpc/group/ychenlab/DA|
kl371|TIMEOUT|scavenger-gpu|2023-05-10T15:09:29|2023-05-11T03:09:31|12:00:02|dcc-allenlab-gpu-04|1|8|64G||/hpc/home/kl371/ondemand/data/sys/dashboard/batch_connect/sys/bc_jupyter/output/4b5ea693-1402-4da8-9410-08cc4a5d2698|
srs108|FAILED|scavenger-gpu|2023-05-10T15:17:31|2023-05-11T01:10:05|09:52:34|dcc-youlab-gpu-26|1|1|118430M||/hpc/home/srs108|
yw564|FAILED|scavenger-gpu|2023-05-10T15:47:37|2023-05-11T04:20:12|12:32:35|dcc-mastatlab-gpu-01|1|2|50G||/hpc/group/jilab|
yk206|COMPLETED|scavenger-gpu|2023-05-10T16:31:03|2023-05-10T17:50:44|01:19:41|dcc-dhvi-gpu-05|1|10|24G||/hpc/home/yk206/script/face_download|
yk206|OUT_OF_MEMORY|scavenger-gpu|2023-05-10T16:31:03|2023-05-10T18:41:32|02:10:29|dcc-youlab-gpu-39|1|10|24G||/hpc/home/yk206/script/face_download|
yk206|OUT_OF_MEMORY|scavenger-gpu|2023-05-10T16:31:03|2023-05-10T20:06:09|03:35:06|dcc-youlab-gpu-22|1|10|24G||/hpc/home/yk206/script/face_download|
yk206|OUT_OF_MEMORY|scavenger-gpu|2023-05-10T16:31:03|2023-05-10T18:55:41|02:24:38|dcc-youlab-gpu-23|1|10|24G||/hpc/home/yk206/script/face_download|
yk206|OUT_OF_MEMORY|scavenger-gpu|2023-05-10T16:31:03|2023-05-10T18:16:53|01:45:50|dcc-youlab-gpu-24|1|10|24G||/hpc/home/yk206/script/face_download|
yk206|COMPLETED|scavenger-gpu|2023-05-10T16:31:03|2023-05-10T19:01:19|02:30:16|dcc-youlab-gpu-25|1|10|24G||/hpc/home/yk206/script/face_download|
yk206|OUT_OF_MEMORY|scavenger-gpu|2023-05-10T16:31:03|2023-05-10T18:36:20|02:05:17|dcc-tdunn-gpu-01|1|44|24G||/hpc/home/yk206/script/face_download|
yk206|COMPLETED|scavenger-gpu|2023-05-10T16:31:03|2023-05-10T17:23:49|00:52:46|dcc-youlab-gpu-02|1|10|24G||/hpc/home/yk206/script/face_download|
yk206|COMPLETED|scavenger-gpu|2023-05-10T16:31:04|2023-05-10T17:11:19|00:40:15|dcc-youlab-gpu-03|1|10|24G||/hpc/home/yk206/script/face_download|
yk206|COMPLETED|scavenger-gpu|2023-05-10T16:31:04|2023-05-10T17:58:45|01:27:41|dcc-youlab-gpu-04|1|10|24G||/hpc/home/yk206/script/face_download|
yk206|OUT_OF_MEMORY|scavenger-gpu|2023-05-10T16:31:04|2023-05-10T20:54:09|04:23:05|dcc-youlab-gpu-05|1|10|24G||/hpc/home/yk206/script/face_download|
yk206|OUT_OF_MEMORY|scavenger-gpu|2023-05-10T16:31:04|2023-05-10T19:42:02|03:10:58|dcc-youlab-gpu-06|1|10|24G||/hpc/home/yk206/script/face_download|
yk206|COMPLETED|scavenger-gpu|2023-05-10T16:31:04|2023-05-10T18:06:36|01:35:32|dcc-youlab-gpu-07|1|10|24G||/hpc/home/yk206/script/face_download|
yk206|COMPLETED|scavenger-gpu|2023-05-10T16:31:04|2023-05-10T18:48:17|02:17:13|dcc-youlab-gpu-08|1|10|24G||/hpc/home/yk206/script/face_download|
yk206|OUT_OF_MEMORY|scavenger-gpu|2023-05-10T16:31:04|2023-05-10T17:44:37|01:13:33|dcc-youlab-gpu-09|1|10|24G||/hpc/home/yk206/script/face_download|
yk206|COMPLETED|scavenger-gpu|2023-05-10T16:31:06|2023-05-10T18:24:14|01:53:08|dcc-youlab-gpu-10|1|10|24G||/hpc/home/yk206/script/face_download|
yk206|OUT_OF_MEMORY|scavenger-gpu|2023-05-10T16:31:06|2023-05-10T18:05:08|01:34:02|dcc-youlab-gpu-11|1|10|24G||/hpc/home/yk206/script/face_download|
yk206|COMPLETED|scavenger-gpu|2023-05-10T16:31:06|2023-05-10T20:31:25|04:00:19|dcc-youlab-gpu-12|1|10|24G||/hpc/home/yk206/script/face_download|
yk206|OUT_OF_MEMORY|scavenger-gpu|2023-05-10T16:31:06|2023-05-10T17:02:05|00:30:59|dcc-youlab-gpu-13|1|10|24G||/hpc/home/yk206/script/face_download|
yk206|OUT_OF_MEMORY|scavenger-gpu|2023-05-10T16:35:58|2023-05-11T08:08:22|15:32:24|dcc-youlab-gpu-56|1|10|24G||/hpc/home/yk206/script/face_download|
yk206|OUT_OF_MEMORY|scavenger-gpu|2023-05-10T16:53:52|2023-05-10T18:41:11|01:47:19|dcc-youlab-gpu-43|1|10|24G||/hpc/home/yk206/script/face_download|
yk206|COMPLETED|scavenger-gpu|2023-05-10T16:58:03|2023-05-10T17:55:13|00:57:10|dcc-dhvi-gpu-01|1|10|24G||/hpc/home/yk206/script/face_download|
yk206|COMPLETED|scavenger-gpu|2023-05-10T17:02:07|2023-05-10T17:52:18|00:50:11|dcc-youlab-gpu-13|1|10|24G||/hpc/home/yk206/script/face_download|
yk206|OUT_OF_MEMORY|scavenger-gpu|2023-05-10T17:03:33|2023-05-10T19:18:01|02:14:28|dcc-dhvi-gpu-03|1|10|24G||/hpc/home/yk206/script/face_download|
yk206|COMPLETED|scavenger-gpu|2023-05-10T17:11:19|2023-05-10T21:07:14|03:55:55|dcc-youlab-gpu-03|1|10|24G||/hpc/home/yk206/script/face_download|
yk206|OUT_OF_MEMORY|scavenger-gpu|2023-05-10T17:20:40|2023-05-11T01:43:21|08:22:41|dcc-youlab-gpu-37|1|10|24G||/hpc/home/yk206/script/face_download|
yk206|COMPLETED|scavenger-gpu|2023-05-10T17:23:04|2023-05-10T20:24:24|03:01:20|dcc-youlab-gpu-20|1|10|24G||/hpc/home/yk206/script/face_download|
yk206|COMPLETED|scavenger-gpu|2023-05-10T17:23:50|2023-05-10T19:18:38|01:54:48|dcc-youlab-gpu-02|1|10|24G||/hpc/home/yk206/script/face_download|
yk206|PREEMPTED|scavenger-gpu|2023-05-10T17:43:54|2023-05-10T18:40:58|00:57:04|dcc-tdunn-gpu-02|1|44|24G||/hpc/home/yk206/script/face_download|
yk206|COMPLETED|scavenger-gpu|2023-05-10T17:44:39|2023-05-10T18:22:01|00:37:22|dcc-youlab-gpu-09|1|10|24G||/hpc/home/yk206/script/face_download|
jrr73|COMPLETED|scavenger-gpu|2023-05-10T17:24:20|2023-05-10T17:28:45|00:04:25|dcc-dsplus-gpu-04|1|8|10000M||/hpc/group/tdunn/jravenel/videos/2023_04_28/ASTROe1_R3_0|
jrr73|COMPLETED|scavenger-gpu|2023-05-10T17:24:38|2023-05-10T17:30:04|00:05:26|dcc-ultrasound-gpu-02|1|8|10000M||/hpc/group/tdunn/jravenel/videos/2023_04_28/ASTROe5_R3_0|
jrr73|COMPLETED|scavenger-gpu|2023-05-10T17:24:38|2023-05-10T17:30:54|00:06:16|dcc-carin-gpu-09|1|8|10000M||/hpc/group/tdunn/jravenel/videos/2023_04_28/ASTROe5_R3_0|
jrr73|COMPLETED|scavenger-gpu|2023-05-10T17:24:38|2023-05-10T17:30:55|00:06:17|dcc-carin-gpu-10|1|8|10000M||/hpc/group/tdunn/jravenel/videos/2023_04_28/ASTROe5_R3_0|
jrr73|COMPLETED|scavenger-gpu|2023-05-10T17:24:38|2023-05-10T17:30:55|00:06:17|dcc-carin-gpu-11|1|8|10000M||/hpc/group/tdunn/jravenel/videos/2023_04_28/ASTROe5_R3_0|
jrr73|COMPLETED|scavenger-gpu|2023-05-10T17:24:38|2023-05-10T17:30:14|00:05:36|dcc-gehmlab-gpu-01|1|8|10000M||/hpc/group/tdunn/jravenel/videos/2023_04_28/ASTROe5_R3_0|
jrr73|COMPLETED|scavenger-gpu|2023-05-10T17:24:38|2023-05-10T17:30:19|00:05:41|dcc-gehmlab-gpu-02|1|8|10000M||/hpc/group/tdunn/jravenel/videos/2023_04_28/ASTROe5_R3_0|
jrr73|COMPLETED|scavenger-gpu|2023-05-10T17:28:58|2023-05-10T17:35:19|00:06:21|dcc-dsplus-gpu-04|1|8|10000M||/hpc/group/tdunn/jravenel/videos/2023_04_28/ASTROe1_R3_0|
jrr73|COMPLETED|scavenger-gpu|2023-05-10T17:28:58|2023-05-10T17:34:45|00:05:47|dcc-gehmlab-gpu-03|1|8|10000M||/hpc/group/tdunn/jravenel/videos/2023_04_28/ASTROe1_R3_0|
jrr73|FAILED|scavenger-gpu|2023-05-10T17:28:58|2023-05-10T17:32:15|00:03:17|dcc-viplab-gpu-01|1|8|10000M||/hpc/group/tdunn/jravenel/videos/2023_04_28/ASTROe1_R3_0|
jrr73|FAILED|scavenger-gpu|2023-05-10T17:28:58|2023-05-10T17:30:06|00:01:08|dcc-viplab-gpu-01|1|8|10000M||/hpc/group/tdunn/jravenel/videos/2023_04_28/ASTROe1_R3_0|
jrr73|COMPLETED|scavenger-gpu|2023-05-10T17:28:59|2023-05-10T17:35:25|00:06:26|dcc-dsplus-gpu-06|1|8|10000M||/hpc/group/tdunn/jravenel/videos/2023_04_28/ASTROe1_R3_0|
jrr73|COMPLETED|scavenger-gpu|2023-05-10T17:28:59|2023-05-10T17:35:15|00:06:16|dcc-dsplus-gpu-07|1|8|10000M||/hpc/group/tdunn/jravenel/videos/2023_04_28/ASTROe1_R3_0|
jrr73|COMPLETED|scavenger-gpu|2023-05-10T17:28:59|2023-05-10T17:35:17|00:06:18|dcc-dsplus-gpu-08|1|8|10000M||/hpc/group/tdunn/jravenel/videos/2023_04_28/ASTROe1_R3_0|
jrr73|COMPLETED|scavenger-gpu|2023-05-10T17:28:59|2023-05-10T17:35:25|00:06:26|dcc-dsplus-gpu-09|1|8|10000M||/hpc/group/tdunn/jravenel/videos/2023_04_28/ASTROe1_R3_0|
jrr73|COMPLETED|scavenger-gpu|2023-05-10T17:28:59|2023-05-10T17:35:14|00:06:15|dcc-dsplus-gpu-10|1|8|10000M||/hpc/group/tdunn/jravenel/videos/2023_04_28/ASTROe1_R3_0|
jrr73|COMPLETED|scavenger-gpu|2023-05-10T17:28:59|2023-05-10T17:37:28|00:08:29|dcc-brownlab-gpu-01|1|8|10000M||/hpc/group/tdunn/jravenel/videos/2023_04_28/ASTROe1_R3_0|
jrr73|COMPLETED|scavenger-gpu|2023-05-10T17:28:59|2023-05-10T17:35:17|00:06:18|dcc-brownlab-gpu-02|1|8|10000M||/hpc/group/tdunn/jravenel/videos/2023_04_28/ASTROe1_R3_0|
jrr73|COMPLETED|scavenger-gpu|2023-05-10T17:28:59|2023-05-10T17:35:18|00:06:19|dcc-brownlab-gpu-03|1|8|10000M||/hpc/group/tdunn/jravenel/videos/2023_04_28/ASTROe1_R3_0|
jrr73|COMPLETED|scavenger-gpu|2023-05-10T17:28:59|2023-05-10T17:35:14|00:06:15|dcc-brownlab-gpu-04|1|8|10000M||/hpc/group/tdunn/jravenel/videos/2023_04_28/ASTROe1_R3_0|
jrr73|COMPLETED|scavenger-gpu|2023-05-10T17:28:59|2023-05-10T17:34:34|00:05:35|dcc-brunellab-gpu-01|1|8|10000M||/hpc/group/tdunn/jravenel/videos/2023_04_28/ASTROe1_R3_0|
jrr73|COMPLETED|scavenger-gpu|2023-05-10T17:28:59|2023-05-10T17:35:22|00:06:23|dcc-carin-gpu-01|1|8|10000M||/hpc/group/tdunn/jravenel/videos/2023_04_28/ASTROe1_R3_0|
jrr73|COMPLETED|scavenger-gpu|2023-05-10T17:28:59|2023-05-10T17:35:23|00:06:24|dcc-carin-gpu-02|1|8|10000M||/hpc/group/tdunn/jravenel/videos/2023_04_28/ASTROe1_R3_0|
jrr73|COMPLETED|scavenger-gpu|2023-05-10T17:28:59|2023-05-10T17:35:19|00:06:20|dcc-carin-gpu-03|1|8|10000M||/hpc/group/tdunn/jravenel/videos/2023_04_28/ASTROe1_R3_0|
jrr73|COMPLETED|scavenger-gpu|2023-05-10T17:28:59|2023-05-10T17:35:22|00:06:23|dcc-carin-gpu-04|1|8|10000M||/hpc/group/tdunn/jravenel/videos/2023_04_28/ASTROe1_R3_0|
jrr73|COMPLETED|scavenger-gpu|2023-05-10T17:29:02|2023-05-10T17:36:40|00:07:38|dcc-carin-gpu-05|1|8|10000M||/hpc/group/tdunn/jravenel/videos/2023_04_28/ASTROe1_R3_0|
jrr73|COMPLETED|scavenger-gpu|2023-05-10T17:29:02|2023-05-10T17:36:48|00:07:46|dcc-carin-gpu-06|1|8|10000M||/hpc/group/tdunn/jravenel/videos/2023_04_28/ASTROe1_R3_0|
jrr73|COMPLETED|scavenger-gpu|2023-05-10T17:29:02|2023-05-10T17:36:07|00:07:05|dcc-collinslab-gpu-01|1|8|10000M||/hpc/group/tdunn/jravenel/videos/2023_04_28/ASTROe1_R3_0|
jrr73|COMPLETED|scavenger-gpu|2023-05-10T17:29:02|2023-05-10T17:35:57|00:06:55|dcc-collinslab-gpu-02|1|8|10000M||/hpc/group/tdunn/jravenel/videos/2023_04_28/ASTROe1_R3_0|
jrr73|COMPLETED|scavenger-gpu|2023-05-10T17:29:02|2023-05-10T17:36:04|00:07:02|dcc-collinslab-gpu-03|1|8|10000M||/hpc/group/tdunn/jravenel/videos/2023_04_28/ASTROe1_R3_0|
jrr73|COMPLETED|scavenger-gpu|2023-05-10T17:29:02|2023-05-10T17:38:32|00:09:30|dcc-collinslab-gpu-04|1|8|10000M||/hpc/group/tdunn/jravenel/videos/2023_04_28/ASTROe1_R3_0|
jrr73|COMPLETED|scavenger-gpu|2023-05-10T17:29:02|2023-05-10T17:34:49|00:05:47|dcc-dsplus-gpu-01|1|8|10000M||/hpc/group/tdunn/jravenel/videos/2023_04_28/ASTROe1_R3_0|
jrr73|FAILED|scavenger-gpu|2023-05-10T17:29:02|2023-05-10T17:30:01|00:00:59|dcc-dsplus-gpu-01|1|8|10000M||/hpc/group/tdunn/jravenel/videos/2023_04_28/ASTROe1_R3_0|
jrr73|FAILED|scavenger-gpu|2023-05-10T17:29:02|2023-05-10T17:30:02|00:01:00|dcc-dsplus-gpu-01|1|8|10000M||/hpc/group/tdunn/jravenel/videos/2023_04_28/ASTROe1_R3_0|
jrr73|FAILED|scavenger-gpu|2023-05-10T17:29:02|2023-05-10T17:30:02|00:01:00|dcc-dsplus-gpu-01|1|8|10000M||/hpc/group/tdunn/jravenel/videos/2023_04_28/ASTROe1_R3_0|
jrr73|FAILED|scavenger-gpu|2023-05-10T17:29:02|2023-05-10T17:30:01|00:00:59|dcc-dsplus-gpu-02|1|8|10000M||/hpc/group/tdunn/jravenel/videos/2023_04_28/ASTROe1_R3_0|
jrr73|FAILED|scavenger-gpu|2023-05-10T17:29:02|2023-05-10T17:30:01|00:00:59|dcc-dsplus-gpu-02|1|8|10000M||/hpc/group/tdunn/jravenel/videos/2023_04_28/ASTROe1_R3_0|
jrr73|FAILED|scavenger-gpu|2023-05-10T17:29:02|2023-05-10T17:30:01|00:00:59|dcc-dsplus-gpu-02|1|8|10000M||/hpc/group/tdunn/jravenel/videos/2023_04_28/ASTROe1_R3_0|
jrr73|COMPLETED|scavenger-gpu|2023-05-10T17:29:02|2023-05-10T17:35:05|00:06:03|dcc-dsplus-gpu-02|1|8|10000M||/hpc/group/tdunn/jravenel/videos/2023_04_28/ASTROe1_R3_0|
jrr73|COMPLETED|scavenger-gpu|2023-05-10T17:29:03|2023-05-10T17:34:52|00:05:49|dcc-gehmlab-gpu-50|1|8|10000M||/hpc/group/tdunn/jravenel/videos/2023_04_28/ASTROe1_R3_0|
jrr73|COMPLETED|scavenger-gpu|2023-05-10T17:29:03|2023-05-10T17:34:46|00:05:43|dcc-gehmlab-gpu-51|1|8|10000M||/hpc/group/tdunn/jravenel/videos/2023_04_28/ASTROe1_R3_0|
jrr73|COMPLETED|scavenger-gpu|2023-05-10T17:29:03|2023-05-10T17:35:18|00:06:15|dcc-gehmlab-gpu-52|1|8|10000M||/hpc/group/tdunn/jravenel/videos/2023_04_28/ASTROe1_R3_0|
jrr73|COMPLETED|scavenger-gpu|2023-05-10T17:29:03|2023-05-10T17:34:43|00:05:40|dcc-gehmlab-gpu-53|1|8|10000M||/hpc/group/tdunn/jravenel/videos/2023_04_28/ASTROe1_R3_0|
jrr73|COMPLETED|scavenger-gpu|2023-05-10T17:29:03|2023-05-10T17:35:00|00:05:57|dcc-gehmlab-gpu-54|1|8|10000M||/hpc/group/tdunn/jravenel/videos/2023_04_28/ASTROe1_R3_0|
jrr73|COMPLETED|scavenger-gpu|2023-05-10T17:29:03|2023-05-10T17:34:54|00:05:51|dcc-gehmlab-gpu-55|1|8|10000M||/hpc/group/tdunn/jravenel/videos/2023_04_28/ASTROe1_R3_0|
jrr73|COMPLETED|scavenger-gpu|2023-05-10T17:29:03|2023-05-10T17:34:41|00:05:38|dcc-gehmlab-gpu-56|1|8|10000M||/hpc/group/tdunn/jravenel/videos/2023_04_28/ASTROe1_R3_0|
jrr73|COMPLETED|scavenger-gpu|2023-05-10T17:29:03|2023-05-10T17:34:49|00:05:46|dcc-gehmlab-gpu-57|1|8|10000M||/hpc/group/tdunn/jravenel/videos/2023_04_28/ASTROe1_R3_0|
jrr73|COMPLETED|scavenger-gpu|2023-05-10T17:29:03|2023-05-10T17:34:44|00:05:41|dcc-gehmlab-gpu-58|1|8|10000M||/hpc/group/tdunn/jravenel/videos/2023_04_28/ASTROe1_R3_0|
jrr73|COMPLETED|scavenger-gpu|2023-05-10T17:29:03|2023-05-10T17:34:49|00:05:46|dcc-gehmlab-gpu-59|1|8|10000M||/hpc/group/tdunn/jravenel/videos/2023_04_28/ASTROe1_R3_0|
jrr73|FAILED|scavenger-gpu|2023-05-10T17:29:03|2023-05-10T17:29:52|00:00:49|dcc-gehmlab-gpu-60|1|8|10000M||/hpc/group/tdunn/jravenel/videos/2023_04_28/ASTROe1_R3_0|
jrr73|FAILED|scavenger-gpu|2023-05-10T17:29:53|2023-05-10T17:30:44|00:00:51|dcc-gehmlab-gpu-60|1|8|10000M||/hpc/group/tdunn/jravenel/videos/2023_04_28/ASTROe1_R3_0|
jrr73|COMPLETED|scavenger-gpu|2023-05-10T17:30:01|2023-05-10T17:35:33|00:05:32|dcc-gehmlab-gpu-05|1|8|10000M||/hpc/group/tdunn/jravenel/videos/2023_04_28/ASTROe1_R3_0|
jrr73|FAILED|scavenger-gpu|2023-05-10T17:30:03|2023-05-10T17:30:56|00:00:53|dcc-dsplus-gpu-01|1|8|10000M||/hpc/group/tdunn/jravenel/videos/2023_04_28/ASTROe1_R3_0|
jrr73|FAILED|scavenger-gpu|2023-05-10T17:30:03|2023-05-10T17:30:57|00:00:54|dcc-dsplus-gpu-01|1|8|10000M||/hpc/group/tdunn/jravenel/videos/2023_04_28/ASTROe1_R3_0|
jrr73|FAILED|scavenger-gpu|2023-05-10T17:30:03|2023-05-10T17:30:56|00:00:53|dcc-dsplus-gpu-01|1|8|10000M||/hpc/group/tdunn/jravenel/videos/2023_04_28/ASTROe1_R3_0|
jrr73|FAILED|scavenger-gpu|2023-05-10T17:30:03|2023-05-10T17:31:03|00:01:00|dcc-dsplus-gpu-02|1|8|10000M||/hpc/group/tdunn/jravenel/videos/2023_04_28/ASTROe1_R3_0|
jrr73|FAILED|scavenger-gpu|2023-05-10T17:30:03|2023-05-10T17:31:02|00:00:59|dcc-dsplus-gpu-02|1|8|10000M||/hpc/group/tdunn/jravenel/videos/2023_04_28/ASTROe1_R3_0|
jrr73|COMPLETED|scavenger-gpu|2023-05-10T17:30:06|2023-05-10T17:35:20|00:05:14|dcc-ultrasound-gpu-02|1|8|10000M||/hpc/group/tdunn/jravenel/videos/2023_04_28/ASTROe1_R3_0|
jrr73|FAILED|scavenger-gpu|2023-05-10T17:30:08|2023-05-10T17:30:59|00:00:51|dcc-dsplus-gpu-02|1|8|10000M||/hpc/group/tdunn/jravenel/videos/2023_04_28/ASTROe1_R3_0|
jrr73|COMPLETED|scavenger-gpu|2023-05-10T17:30:14|2023-05-10T17:35:45|00:05:31|dcc-gehmlab-gpu-01|1|8|10000M||/hpc/group/tdunn/jravenel/videos/2023_04_28/ASTROe1_R3_0|
jrr73|COMPLETED|scavenger-gpu|2023-05-10T17:30:19|2023-05-10T17:35:56|00:05:37|dcc-gehmlab-gpu-02|1|8|10000M||/hpc/group/tdunn/jravenel/videos/2023_04_28/ASTROe1_R3_0|
jrr73|FAILED|scavenger-gpu|2023-05-10T17:30:45|2023-05-10T17:31:41|00:00:56|dcc-gehmlab-gpu-60|1|8|10000M||/hpc/group/tdunn/jravenel/videos/2023_04_28/ASTROe1_R3_0|
jrr73|COMPLETED|scavenger-gpu|2023-05-10T17:30:55|2023-05-10T17:37:11|00:06:16|dcc-carin-gpu-10|1|8|10000M||/hpc/group/tdunn/jravenel/videos/2023_04_28/ASTROe1_R3_0|
jrr73|FAILED|scavenger-gpu|2023-05-10T17:30:55|2023-05-10T17:40:38|00:09:43|dcc-viplab-gpu-01|1|8|10000M||/hpc/group/tdunn/jravenel/videos/2023_04_28/ASTROe1_R3_0|
jrr73|COMPLETED|scavenger-gpu|2023-05-10T17:30:55|2023-05-10T17:36:32|00:05:37|dcc-gehmlab-gpu-06|1|8|10000M||/hpc/group/tdunn/jravenel/videos/2023_04_28/ASTROe1_R3_0|
jrr73|COMPLETED|scavenger-gpu|2023-05-10T17:30:58|2023-05-10T17:37:08|00:06:10|dcc-carin-gpu-09|1|8|10000M||/hpc/group/tdunn/jravenel/videos/2023_04_28/ASTROe1_R3_0|
jrr73|COMPLETED|scavenger-gpu|2023-05-10T17:30:58|2023-05-10T17:37:08|00:06:10|dcc-carin-gpu-11|1|8|10000M||/hpc/group/tdunn/jravenel/videos/2023_04_28/ASTROe1_R3_0|
jrr73|COMPLETED|scavenger-gpu|2023-05-10T17:30:58|2023-05-10T17:36:39|00:05:41|dcc-gehmlab-gpu-07|1|8|10000M||/hpc/group/tdunn/jravenel/videos/2023_04_28/ASTROe1_R3_0|
jrr73|FAILED|scavenger-gpu|2023-05-10T17:31:00|2023-05-10T17:31:57|00:00:57|dcc-dsplus-gpu-02|1|8|10000M||/hpc/group/tdunn/jravenel/videos/2023_04_28/ASTROe1_R3_0|
jrr73|FAILED|scavenger-gpu|2023-05-10T17:31:04|2023-05-10T17:31:56|00:00:52|dcc-dsplus-gpu-02|1|8|10000M||/hpc/group/tdunn/jravenel/videos/2023_04_28/ASTROe1_R3_0|
jrr73|FAILED|scavenger-gpu|2023-05-10T17:31:04|2023-05-10T17:31:56|00:00:52|dcc-dsplus-gpu-02|1|8|10000M||/hpc/group/tdunn/jravenel/videos/2023_04_28/ASTROe1_R3_0|
jrr73|FAILED|scavenger-gpu|2023-05-10T17:31:41|2023-05-10T17:32:36|00:00:55|dcc-gehmlab-gpu-60|1|8|10000M||/hpc/group/tdunn/jravenel/videos/2023_04_28/ASTROe1_R3_0|
jrr73|FAILED|scavenger-gpu|2023-05-10T17:31:56|2023-05-10T17:33:26|00:01:30|dcc-dsplus-gpu-02|1|8|10000M||/hpc/group/tdunn/jravenel/videos/2023_04_28/ASTROe1_R3_0|
jrr73|FAILED|scavenger-gpu|2023-05-10T17:31:57|2023-05-10T17:32:55|00:00:58|dcc-dsplus-gpu-02|1|8|10000M||/hpc/group/tdunn/jravenel/videos/2023_04_28/ASTROe1_R3_0|
jrr73|FAILED|scavenger-gpu|2023-05-10T17:31:59|2023-05-10T17:32:50|00:00:51|dcc-dsplus-gpu-02|1|8|10000M||/hpc/group/tdunn/jravenel/videos/2023_04_28/ASTROe1_R3_0|
jrr73|FAILED|scavenger-gpu|2023-05-10T17:32:15|2023-05-10T17:33:12|00:00:57|dcc-viplab-gpu-01|1|8|10000M||/hpc/group/tdunn/jravenel/videos/2023_04_28/ASTROe1_R3_0|
jrr73|FAILED|scavenger-gpu|2023-05-10T17:32:36|2023-05-10T17:33:22|00:00:46|dcc-gehmlab-gpu-60|1|8|10000M||/hpc/group/tdunn/jravenel/videos/2023_04_28/ASTROe1_R3_0|
jrr73|FAILED|scavenger-gpu|2023-05-10T17:32:50|2023-05-10T17:33:49|00:00:59|dcc-dsplus-gpu-02|1|8|10000M||/hpc/group/tdunn/jravenel/videos/2023_04_28/ASTROe1_R3_0|
jrr73|FAILED|scavenger-gpu|2023-05-10T17:32:56|2023-05-10T17:33:21|00:00:25|dcc-dsplus-gpu-02|1|8|10000M||/hpc/group/tdunn/jravenel/videos/2023_04_28/ASTROe1_R3_0|
jrr73|FAILED|scavenger-gpu|2023-05-10T17:33:14|2023-05-10T17:53:20|00:20:06|dcc-viplab-gpu-01|1|8|10000M||/hpc/group/tdunn/jravenel/videos/2023_04_28/ASTROe1_R3_0|
jrr73|FAILED|scavenger-gpu|2023-05-10T17:33:23|2023-05-10T17:34:08|00:00:45|dcc-gehmlab-gpu-60|1|8|10000M||/hpc/group/tdunn/jravenel/videos/2023_04_28/ASTROe1_R3_0|
jrr73|FAILED|scavenger-gpu|2023-05-10T17:33:23|2023-05-10T17:34:22|00:00:59|dcc-dsplus-gpu-02|1|8|10000M||/hpc/group/tdunn/jravenel/videos/2023_04_28/ASTROe1_R3_0|
jrr73|FAILED|scavenger-gpu|2023-05-10T17:33:26|2023-05-10T17:33:48|00:00:22|dcc-dsplus-gpu-02|1|8|10000M||/hpc/group/tdunn/jravenel/videos/2023_04_28/ASTROe1_R3_0|
jrr73|COMPLETED|scavenger-gpu|2023-05-10T17:33:49|2023-05-10T17:39:42|00:05:53|dcc-dsplus-gpu-02|1|8|10000M||/hpc/group/tdunn/jravenel/videos/2023_04_28/ASTROe1_R3_0|
jrr73|FAILED|scavenger-gpu|2023-05-10T17:33:49|2023-05-10T17:34:48|00:00:59|dcc-dsplus-gpu-02|1|8|10000M||/hpc/group/tdunn/jravenel/videos/2023_04_28/ASTROe1_R3_0|
jrr73|FAILED|scavenger-gpu|2023-05-10T17:34:08|2023-05-10T17:35:03|00:00:55|dcc-gehmlab-gpu-60|1|8|10000M||/hpc/group/tdunn/jravenel/videos/2023_04_28/ASTROe1_R3_0|
jrr73|FAILED|scavenger-gpu|2023-05-10T17:34:22|2023-05-10T17:34:47|00:00:25|dcc-dsplus-gpu-02|1|8|10000M||/hpc/group/tdunn/jravenel/videos/2023_04_28/ASTROe1_R3_0|
jrr73|COMPLETED|scavenger-gpu|2023-05-10T17:34:34|2023-05-10T17:40:07|00:05:33|dcc-brunellab-gpu-01|1|8|10000M||/hpc/group/tdunn/jravenel/videos/2023_04_28/ASTROe1_R3_0|
jrr73|COMPLETED|scavenger-gpu|2023-05-10T17:34:42|2023-05-10T17:40:19|00:05:37|dcc-gehmlab-gpu-56|1|8|10000M||/hpc/group/tdunn/jravenel/videos/2023_04_28/ASTROe1_R3_0|
jrr73|COMPLETED|scavenger-gpu|2023-05-10T17:34:44|2023-05-10T17:40:29|00:05:45|dcc-gehmlab-gpu-53|1|8|10000M||/hpc/group/tdunn/jravenel/videos/2023_04_28/ASTROe1_R3_0|
jrr73|COMPLETED|scavenger-gpu|2023-05-10T17:34:46|2023-05-10T17:40:20|00:05:34|dcc-gehmlab-gpu-03|1|8|10000M||/hpc/group/tdunn/jravenel/videos/2023_04_28/ASTROe1_R3_0|
jrr73|COMPLETED|scavenger-gpu|2023-05-10T17:34:46|2023-05-10T17:40:20|00:05:34|dcc-gehmlab-gpu-58|1|8|10000M||/hpc/group/tdunn/jravenel/videos/2023_04_28/ASTROe1_R3_0|
jrr73|COMPLETED|scavenger-gpu|2023-05-10T17:34:48|2023-05-10T17:40:30|00:05:42|dcc-gehmlab-gpu-51|1|8|10000M||/hpc/group/tdunn/jravenel/videos/2023_04_28/ASTROe1_R3_0|
jrr73|FAILED|scavenger-gpu|2023-05-10T17:34:48|2023-05-10T17:35:56|00:01:08|dcc-dsplus-gpu-02|1|8|10000M||/hpc/group/tdunn/jravenel/videos/2023_04_28/ASTROe1_R3_0|
jrr73|FAILED|scavenger-gpu|2023-05-10T17:34:48|2023-05-10T17:35:56|00:01:08|dcc-dsplus-gpu-02|1|8|10000M||/hpc/group/tdunn/jravenel/videos/2023_04_28/ASTROe1_R3_0|
jrr73|COMPLETED|scavenger-gpu|2023-05-10T17:34:51|2023-05-10T17:40:32|00:05:41|dcc-gehmlab-gpu-57|1|8|10000M||/hpc/group/tdunn/jravenel/videos/2023_04_28/ASTROe1_R3_0|
jrr73|COMPLETED|scavenger-gpu|2023-05-10T17:34:51|2023-05-10T17:40:31|00:05:40|dcc-gehmlab-gpu-59|1|8|10000M||/hpc/group/tdunn/jravenel/videos/2023_04_28/ASTROe1_R3_0|
jrr73|COMPLETED|scavenger-gpu|2023-05-10T17:34:51|2023-05-10T17:40:29|00:05:38|dcc-dsplus-gpu-01|1|8|10000M||/hpc/group/tdunn/jravenel/videos/2023_04_28/ASTROe1_R3_0|
jrr73|COMPLETED|scavenger-gpu|2023-05-10T17:34:54|2023-05-10T17:40:38|00:05:44|dcc-gehmlab-gpu-50|1|8|10000M||/hpc/group/tdunn/jravenel/videos/2023_04_28/ASTROe1_R3_0|
jrr73|COMPLETED|scavenger-gpu|2023-05-10T17:34:56|2023-05-10T17:40:35|00:05:39|dcc-gehmlab-gpu-55|1|8|10000M||/hpc/group/tdunn/jravenel/videos/2023_04_28/ASTROe1_R3_0|
jrr73|COMPLETED|scavenger-gpu|2023-05-10T17:35:00|2023-05-10T17:40:42|00:05:42|dcc-gehmlab-gpu-54|1|8|10000M||/hpc/group/tdunn/jravenel/videos/2023_04_28/ASTROe1_R3_0|
jrr73|FAILED|scavenger-gpu|2023-05-10T17:35:03|2023-05-10T17:35:47|00:00:44|dcc-gehmlab-gpu-60|1|8|10000M||/hpc/group/tdunn/jravenel/videos/2023_04_28/ASTROe1_R3_0|
jrr73|FAILED|scavenger-gpu|2023-05-10T17:35:05|2023-05-10T17:36:32|00:01:27|dcc-dsplus-gpu-02|1|8|10000M||/hpc/group/tdunn/jravenel/videos/2023_04_28/ASTROe1_R3_0|
jrr73|COMPLETED|scavenger-gpu|2023-05-10T17:35:14|2023-05-10T17:41:30|00:06:16|dcc-brownlab-gpu-04|1|8|10000M||/hpc/group/tdunn/jravenel/videos/2023_04_28/ASTROe1_R3_0|
jrr73|FAILED|scavenger-gpu|2023-05-10T17:35:14|2023-05-10T17:36:32|00:01:18|dcc-dsplus-gpu-01|1|8|10000M||/hpc/group/tdunn/jravenel/videos/2023_04_28/ASTROe1_R3_0|
jrr73|COMPLETED|scavenger-gpu|2023-05-10T17:35:16|2023-05-10T17:41:28|00:06:12|dcc-dsplus-gpu-07|1|8|10000M||/hpc/group/tdunn/jravenel/videos/2023_04_28/ASTROe1_R3_0|
jrr73|COMPLETED|scavenger-gpu|2023-05-10T17:35:19|2023-05-10T17:41:32|00:06:13|dcc-dsplus-gpu-08|1|8|10000M||/hpc/group/tdunn/jravenel/videos/2023_04_28/ASTROe1_R3_0|
jrr73|COMPLETED|scavenger-gpu|2023-05-10T17:35:19|2023-05-10T17:41:33|00:06:14|dcc-dsplus-gpu-10|1|8|10000M||/hpc/group/tdunn/jravenel/videos/2023_04_28/ASTROe1_R3_0|
jrr73|COMPLETED|scavenger-gpu|2023-05-10T17:35:19|2023-05-10T17:41:37|00:06:18|dcc-gehmlab-gpu-52|1|8|10000M||/hpc/group/tdunn/jravenel/videos/2023_04_28/ASTROe1_R3_0|
jrr73|COMPLETED|scavenger-gpu|2023-05-10T17:35:19|2023-05-10T17:41:29|00:06:10|dcc-brownlab-gpu-02|1|8|10000M||/hpc/group/tdunn/jravenel/videos/2023_04_28/ASTROe1_R3_0|
jrr73|COMPLETED|scavenger-gpu|2023-05-10T17:35:21|2023-05-10T17:41:37|00:06:16|dcc-brownlab-gpu-03|1|8|10000M||/hpc/group/tdunn/jravenel/videos/2023_04_28/ASTROe1_R3_0|
jrr73|COMPLETED|scavenger-gpu|2023-05-10T17:35:21|2023-05-10T17:41:35|00:06:14|dcc-carin-gpu-03|1|8|10000M||/hpc/group/tdunn/jravenel/videos/2023_04_28/ASTROe1_R3_0|
jrr73|COMPLETED|scavenger-gpu|2023-05-10T17:35:21|2023-05-10T17:41:44|00:06:23|dcc-dsplus-gpu-04|1|8|10000M||/hpc/group/tdunn/jravenel/videos/2023_04_28/ASTROe1_R3_0|
jrr73|COMPLETED|scavenger-gpu|2023-05-10T17:35:23|2023-05-10T17:41:37|00:06:14|dcc-carin-gpu-04|1|8|10000M||/hpc/group/tdunn/jravenel/videos/2023_04_28/ASTROe1_R3_0|
jrr73|COMPLETED|scavenger-gpu|2023-05-10T17:35:23|2023-05-10T17:40:38|00:05:15|dcc-ultrasound-gpu-02|1|8|10000M||/hpc/group/tdunn/jravenel/videos/2023_04_28/ASTROe1_R3_0|
jrr73|COMPLETED|scavenger-gpu|2023-05-10T17:35:23|2023-05-10T17:41:39|00:06:16|dcc-carin-gpu-01|1|8|10000M||/hpc/group/tdunn/jravenel/videos/2023_04_28/ASTROe1_R3_0|
jrr73|COMPLETED|scavenger-gpu|2023-05-10T17:35:26|2023-05-10T17:41:42|00:06:16|dcc-carin-gpu-02|1|8|10000M||/hpc/group/tdunn/jravenel/videos/2023_04_28/ASTROe1_R3_0|
jrr73|COMPLETED|scavenger-gpu|2023-05-10T17:35:26|2023-05-10T17:41:38|00:06:12|dcc-dsplus-gpu-06|1|8|10000M||/hpc/group/tdunn/jravenel/videos/2023_04_28/ASTROe1_R3_0|
jrr73|COMPLETED|scavenger-gpu|2023-05-10T17:35:35|2023-05-10T17:41:55|00:06:20|dcc-dsplus-gpu-09|1|8|10000M||/hpc/group/tdunn/jravenel/videos/2023_04_28/ASTROe1_R3_0|
jrr73|COMPLETED|scavenger-gpu|2023-05-10T17:35:45|2023-05-10T17:41:16|00:05:31|dcc-gehmlab-gpu-01|1|8|10000M||/hpc/group/tdunn/jravenel/videos/2023_04_28/ASTROe1_R3_0|
jrr73|COMPLETED|scavenger-gpu|2023-05-10T17:35:49|2023-05-10T17:41:26|00:05:37|dcc-gehmlab-gpu-05|1|8|10000M||/hpc/group/tdunn/jravenel/videos/2023_04_28/ASTROe1_R3_0|
jrr73|COMPLETED|scavenger-gpu|2023-05-10T17:35:56|2023-05-10T17:41:34|00:05:38|dcc-gehmlab-gpu-02|1|8|10000M||/hpc/group/tdunn/jravenel/videos/2023_04_28/ASTROe1_R3_0|
jrr73|COMPLETED|scavenger-gpu|2023-05-10T17:35:58|2023-05-10T17:42:51|00:06:53|dcc-collinslab-gpu-02|1|8|10000M||/hpc/group/tdunn/jravenel/videos/2023_04_28/ASTROe1_R3_0|
jrr73|FAILED|scavenger-gpu|2023-05-10T17:35:58|2023-05-10T17:36:44|00:00:46|dcc-gehmlab-gpu-60|1|8|10000M||/hpc/group/tdunn/jravenel/videos/2023_04_28/ASTROe1_R3_0|
jrr73|FAILED|scavenger-gpu|2023-05-10T17:35:58|2023-05-10T17:37:16|00:01:18|dcc-dsplus-gpu-01|1|8|10000M||/hpc/group/tdunn/jravenel/videos/2023_04_28/ASTROe1_R3_0|
jrr73|COMPLETED|scavenger-gpu|2023-05-10T17:36:05|2023-05-10T17:43:14|00:07:09|dcc-collinslab-gpu-03|1|8|10000M||/hpc/group/tdunn/jravenel/videos/2023_04_28/ASTROe1_R3_0|
jrr73|COMPLETED|scavenger-gpu|2023-05-10T17:36:07|2023-05-10T17:43:12|00:07:05|dcc-collinslab-gpu-01|1|8|10000M||/hpc/group/tdunn/jravenel/videos/2023_04_28/ASTROe1_R3_0|
jrr73|COMPLETED|scavenger-gpu|2023-05-10T17:36:32|2023-05-10T17:42:03|00:05:31|dcc-gehmlab-gpu-06|1|8|10000M||/hpc/group/tdunn/jravenel/videos/2023_04_28/ASTROe1_R3_0|
jrr73|COMPLETED|scavenger-gpu|2023-05-10T17:36:32|2023-05-10T17:42:14|00:05:42|dcc-gehmlab-gpu-08|1|8|10000M||/hpc/group/tdunn/jravenel/videos/2023_04_28/ASTROe1_R3_0|
jrr73|COMPLETED|scavenger-gpu|2023-05-10T17:36:32|2023-05-10T17:42:10|00:05:38|dcc-gehmlab-gpu-09|1|8|10000M||/hpc/group/tdunn/jravenel/videos/2023_04_28/ASTROe1_R3_0|
jrr73|COMPLETED|scavenger-gpu|2023-05-10T17:36:41|2023-05-10T17:44:18|00:07:37|dcc-carin-gpu-05|1|8|10000M||/hpc/group/tdunn/jravenel/videos/2023_04_28/ASTROe1_R3_0|
jrr73|COMPLETED|scavenger-gpu|2023-05-10T17:36:41|2023-05-10T17:42:20|00:05:39|dcc-gehmlab-gpu-07|1|8|10000M||/hpc/group/tdunn/jravenel/videos/2023_04_28/ASTROe1_R3_0|
jrr73|FAILED|scavenger-gpu|2023-05-10T17:36:45|2023-05-10T17:37:30|00:00:45|dcc-gehmlab-gpu-60|1|8|10000M||/hpc/group/tdunn/jravenel/videos/2023_04_28/ASTROe1_R3_0|
jrr73|COMPLETED|scavenger-gpu|2023-05-10T17:36:49|2023-05-10T17:44:25|00:07:36|dcc-carin-gpu-06|1|8|10000M||/hpc/group/tdunn/jravenel/videos/2023_04_28/ASTROe1_R3_0|
jrr73|COMPLETED|scavenger-gpu|2023-05-10T17:37:10|2023-05-10T17:43:21|00:06:11|dcc-carin-gpu-09|1|8|10000M||/hpc/group/tdunn/jravenel/videos/2023_04_28/ASTROe1_R3_0|
jrr73|COMPLETED|scavenger-gpu|2023-05-10T17:37:10|2023-05-10T17:43:22|00:06:12|dcc-carin-gpu-11|1|8|10000M||/hpc/group/tdunn/jravenel/videos/2023_04_28/ASTROe1_R3_0|
jrr73|COMPLETED|scavenger-gpu|2023-05-10T17:37:12|2023-05-10T17:41:20|00:04:08|dcc-carin-gpu-10|1|8|10000M||/hpc/group/tdunn/jravenel/videos/2023_04_28/ASTROe1_R3_0|
kl371|FAILED|scavenger-gpu|2023-05-10T17:42:42|2023-05-10T17:42:45|00:00:03|dcc-mastatlab-gpu-01|1|2|64G||/work/kl371/IMAVAE/experiments/TST_data|
kl371|FAILED|scavenger-gpu|2023-05-10T17:42:42|2023-05-10T17:42:45|00:00:03|dcc-carin-gpu-10|1|2|64G||/work/kl371/IMAVAE/experiments/TST_data|
kl371|FAILED|scavenger-gpu|2023-05-10T17:42:43|2023-05-10T17:42:45|00:00:02|dcc-collinslab-gpu-04|1|2|64G||/work/kl371/IMAVAE/experiments/TST_data|
kl371|FAILED|scavenger-gpu|2023-05-10T17:44:52|2023-05-10T17:44:56|00:00:04|dcc-mastatlab-gpu-01|1|2|64G||/work/kl371/IMAVAE/experiments/TST_data|
kl371|FAILED|scavenger-gpu|2023-05-10T17:44:52|2023-05-10T17:44:56|00:00:04|dcc-dsplus-gpu-04|1|2|64G||/work/kl371/IMAVAE/experiments/TST_data|
kl371|FAILED|scavenger-gpu|2023-05-10T17:44:52|2023-05-10T17:44:56|00:00:04|dcc-ultrasound-gpu-02|1|2|64G||/work/kl371/IMAVAE/experiments/TST_data|
kl371|FAILED|scavenger-gpu|2023-05-10T17:58:25|2023-05-10T17:58:27|00:00:02|dcc-mastatlab-gpu-01|1|2|64G||/work/kl371/IMAVAE/experiments/TST_data|
kl371|FAILED|scavenger-gpu|2023-05-10T17:58:25|2023-05-10T17:58:26|00:00:01|dcc-dhvi-gpu-01|1|2|64G||/work/kl371/IMAVAE/experiments/TST_data|
kl371|FAILED|scavenger-gpu|2023-05-10T17:58:26|2023-05-10T17:58:27|00:00:01|dcc-dhvi-gpu-05|1|2|64G||/work/kl371/IMAVAE/experiments/TST_data|
