yw564|TIMEOUT|scavenger-gpu|2023-05-04T17:26:37|2023-05-11T17:27:01|7-00:00:24|dcc-mastatlab-gpu-01|1|2|50G||/hpc/group/jilab/imaging/huimin/Inference_rebuttal|
yk206|TIMEOUT|scavenger-gpu|2023-05-07T13:08:05|2023-05-14T13:08:33|7-00:00:28|dcc-motesa-gpu-04|1|6|12G||/hpc/home/yk206/script|
yk206|TIMEOUT|scavenger-gpu|2023-05-07T13:08:05|2023-05-14T13:08:33|7-00:00:28|dcc-motesa-gpu-01|1|6|12G||/hpc/home/yk206/script|
pkk16|TIMEOUT|scavenger-gpu|2023-05-08T09:15:58|2023-05-09T09:16:03|1-00:00:05|dcc-mastatlab-gpu-01|1|2|20G||/hpc/home/pkk16/ondemand/data/sys/dashboard/batch_connect/sys/bc_jupyter/output/482e4a3b-fba4-4c62-b4fe-3114b198129a|
pkk16|TIMEOUT|scavenger-gpu|2023-05-08T10:02:55|2023-05-09T10:03:10|1-00:00:15|dcc-youlab-gpu-01|1|2|100G||/hpc/home/pkk16/ondemand/data/sys/dashboard/batch_connect/sys/bc_jupyter/output/c4be4274-2f28-4f62-a096-87fb868c3a5a|
cem125|CANCELLED by 1491193|scavenger-gpu|2023-05-08T10:20:40|2023-05-09T09:50:23|23:29:43|dcc-youlab-gpu-57|1|10|50G||/hpc/group/rekerlab/cem125/OpenNMT-py|
cem125|CANCELLED by 1491193|scavenger-gpu|2023-05-08T10:20:45|2023-05-09T09:50:16|23:29:31|dcc-youlab-gpu-56|1|10|50G||/hpc/group/rekerlab/cem125/OpenNMT-py|
cem125|CANCELLED by 1491193|scavenger-gpu|2023-05-08T10:20:50|2023-05-09T09:50:11|23:29:21|dcc-youlab-gpu-55|1|10|50G||/hpc/group/rekerlab/cem125/OpenNMT-py|
kw297|CANCELLED by 1215097|scavenger-gpu|2023-05-08T11:15:47|2023-05-10T08:56:01|1-21:40:14|dcc-motesa-gpu-03|1|4|20G||/hpc/group/ychenlab/DA|
pkk16|TIMEOUT|scavenger-gpu|2023-05-08T15:11:38|2023-05-09T15:11:41|1-00:00:03|dcc-youlab-gpu-01|1|2|100G||/hpc/home/pkk16/ondemand/data/sys/dashboard/batch_connect/sys/bc_jupyter/output/80d27b2e-20cc-4899-8cc2-54f0bab97b8f|
yl407|TIMEOUT|scavenger-gpu|2023-05-08T15:31:08|2023-05-09T11:31:15|20:00:07|dcc-ultrasound-gpu-04|1|2|120G||/hpc/home/yl407/ondemand/data/sys/dashboard/batch_connect/sys/bc_jupyter/output/de09e608-b12c-4a93-8749-25c77b6a5208|
tm103|FAILED|scavenger-gpu|2023-05-08T15:42:19|2023-05-09T01:30:19|09:48:00|dcc-dsplus-gpu-10|1|1|2G||/hpc/home/tm103|
dl370|PREEMPTED|scavenger-gpu|2023-05-08T16:22:29|2023-05-10T21:17:59|2-04:55:30|dcc-youlab-gpu-53|1|10|2G||/work/dl370|
jrl78|COMPLETED|scavenger-gpu|2023-05-08T18:33:49|2023-05-08T19:06:20|00:32:31|dcc-youlab-gpu-54|1|10|20G||/work/jrl78/Nanoparticles/JawBreakers/Big Library/run2|
jrl78|COMPLETED|scavenger-gpu|2023-05-08T18:35:55|2023-05-08T19:28:53|00:52:58|dcc-youlab-gpu-50|1|10|20G||/work/jrl78/Nanoparticles/JawBreakers/Big Library/run2|
jrl78|COMPLETED|scavenger-gpu|2023-05-08T18:50:46|2023-05-08T19:05:20|00:14:34|dcc-youlab-gpu-52|1|10|20G||/work/jrl78/Nanoparticles/JawBreakers/Big Library/run2|
jrl78|COMPLETED|scavenger-gpu|2023-05-08T18:57:06|2023-05-08T19:30:19|00:33:13|dcc-youlab-gpu-51|1|10|20G||/work/jrl78/Nanoparticles/JawBreakers/Big Library/run2|
jrl78|COMPLETED|scavenger-gpu|2023-05-08T19:05:21|2023-05-08T19:37:48|00:32:27|dcc-youlab-gpu-49|1|10|20G||/work/jrl78/Nanoparticles/JawBreakers/Big Library/run2|
jrl78|COMPLETED|scavenger-gpu|2023-05-08T19:06:21|2023-05-08T19:30:40|00:24:19|dcc-youlab-gpu-54|1|10|20G||/work/jrl78/Nanoparticles/JawBreakers/Big Library/run2|
jrl78|COMPLETED|scavenger-gpu|2023-05-08T19:28:54|2023-05-08T19:39:51|00:10:57|dcc-youlab-gpu-52|1|10|20G||/work/jrl78/Nanoparticles/JawBreakers/Big Library/run2|
jrl78|COMPLETED|scavenger-gpu|2023-05-08T19:30:21|2023-05-08T20:33:11|01:02:50|dcc-youlab-gpu-51|1|10|20G||/work/jrl78/Nanoparticles/JawBreakers/Big Library/run2|
jrl78|COMPLETED|scavenger-gpu|2023-05-08T19:30:40|2023-05-08T19:47:08|00:16:28|dcc-youlab-gpu-54|1|10|20G||/work/jrl78/Nanoparticles/JawBreakers/Big Library/run2|
jrl78|COMPLETED|scavenger-gpu|2023-05-08T19:37:49|2023-05-08T19:50:31|00:12:42|dcc-youlab-gpu-50|1|10|20G||/work/jrl78/Nanoparticles/JawBreakers/Big Library/run2|
jrl78|COMPLETED|scavenger-gpu|2023-05-08T19:39:51|2023-05-08T19:53:20|00:13:29|dcc-youlab-gpu-52|1|10|20G||/work/jrl78/Nanoparticles/JawBreakers/Big Library/run2|
jrl78|COMPLETED|scavenger-gpu|2023-05-08T19:47:09|2023-05-08T20:38:08|00:50:59|dcc-youlab-gpu-54|1|10|20G||/work/jrl78/Nanoparticles/JawBreakers/Big Library/run2|
jrl78|COMPLETED|scavenger-gpu|2023-05-08T19:50:31|2023-05-08T20:14:03|00:23:32|dcc-youlab-gpu-50|1|10|20G||/work/jrl78/Nanoparticles/JawBreakers/Big Library/run2|
jrl78|COMPLETED|scavenger-gpu|2023-05-08T19:53:21|2023-05-08T20:00:18|00:06:57|dcc-youlab-gpu-52|1|10|20G||/work/jrl78/Nanoparticles/JawBreakers/Big Library/run2|
jrl78|COMPLETED|scavenger-gpu|2023-05-08T20:00:18|2023-05-08T20:51:43|00:51:25|dcc-youlab-gpu-52|1|10|20G||/work/jrl78/Nanoparticles/JawBreakers/Big Library/run2|
jrl78|COMPLETED|scavenger-gpu|2023-05-08T20:14:04|2023-05-08T20:20:57|00:06:53|dcc-youlab-gpu-50|1|10|20G||/work/jrl78/Nanoparticles/JawBreakers/Big Library/run2|
jrl78|COMPLETED|scavenger-gpu|2023-05-08T20:20:57|2023-05-08T20:30:01|00:09:04|dcc-youlab-gpu-50|1|10|20G||/work/jrl78/Nanoparticles/JawBreakers/Big Library/run2|
jrl78|COMPLETED|scavenger-gpu|2023-05-08T20:30:02|2023-05-08T20:34:25|00:04:23|dcc-youlab-gpu-50|1|10|20G||/work/jrl78/Nanoparticles/JawBreakers/Big Library/run2|
jrl78|COMPLETED|scavenger-gpu|2023-05-08T20:33:12|2023-05-08T20:59:18|00:26:06|dcc-youlab-gpu-51|1|10|20G||/work/jrl78/Nanoparticles/JawBreakers/Big Library/run2|
jrl78|COMPLETED|scavenger-gpu|2023-05-08T20:34:27|2023-05-08T20:40:57|00:06:30|dcc-youlab-gpu-50|1|10|20G||/work/jrl78/Nanoparticles/JawBreakers/Big Library/run2|
jrl78|COMPLETED|scavenger-gpu|2023-05-08T20:38:11|2023-05-08T20:44:40|00:06:29|dcc-youlab-gpu-54|1|10|20G||/work/jrl78/Nanoparticles/JawBreakers/Big Library/run2|
jrl78|COMPLETED|scavenger-gpu|2023-05-08T20:40:57|2023-05-08T21:25:55|00:44:58|dcc-youlab-gpu-50|1|10|20G||/work/jrl78/Nanoparticles/JawBreakers/Big Library/run2|
jrl78|COMPLETED|scavenger-gpu|2023-05-08T20:44:42|2023-05-08T20:54:59|00:10:17|dcc-youlab-gpu-54|1|10|20G||/work/jrl78/Nanoparticles/JawBreakers/Big Library/run2|
jrl78|COMPLETED|scavenger-gpu|2023-05-08T20:51:46|2023-05-08T20:57:22|00:05:36|dcc-youlab-gpu-52|1|10|20G||/work/jrl78/Nanoparticles/JawBreakers/Big Library/run2|
jrl78|COMPLETED|scavenger-gpu|2023-05-08T20:55:00|2023-05-08T21:03:16|00:08:16|dcc-youlab-gpu-54|1|10|20G||/work/jrl78/Nanoparticles/JawBreakers/Big Library/run2|
jrl78|COMPLETED|scavenger-gpu|2023-05-08T20:57:23|2023-05-08T21:03:04|00:05:41|dcc-youlab-gpu-52|1|10|20G||/work/jrl78/Nanoparticles/JawBreakers/Big Library/run2|
jrl78|COMPLETED|scavenger-gpu|2023-05-08T20:59:20|2023-05-08T21:03:24|00:04:04|dcc-youlab-gpu-51|1|10|20G||/work/jrl78/Nanoparticles/JawBreakers/Big Library/run2|
jrl78|COMPLETED|scavenger-gpu|2023-05-08T21:03:05|2023-05-08T21:42:08|00:39:03|dcc-youlab-gpu-52|1|10|20G||/work/jrl78/Nanoparticles/JawBreakers/Big Library/run2|
jrl78|FAILED|scavenger-gpu|2023-05-08T21:03:17|2023-05-08T22:40:09|01:36:52|dcc-youlab-gpu-54|1|10|20G||/work/jrl78/Nanoparticles/JawBreakers/Big Library/run2|
jrl78|COMPLETED|scavenger-gpu|2023-05-08T21:03:25|2023-05-08T21:39:05|00:35:40|dcc-youlab-gpu-51|1|10|20G||/work/jrl78/Nanoparticles/JawBreakers/Big Library/run2|
jrl78|COMPLETED|scavenger-gpu|2023-05-08T21:25:57|2023-05-08T21:52:44|00:26:47|dcc-youlab-gpu-50|1|10|20G||/work/jrl78/Nanoparticles/JawBreakers/Big Library/run2|
jrl78|FAILED|scavenger-gpu|2023-05-08T21:39:06|2023-05-08T22:27:18|00:48:12|dcc-youlab-gpu-51|1|10|20G||/work/jrl78/Nanoparticles/JawBreakers/Big Library/run2|
jrl78|FAILED|scavenger-gpu|2023-05-08T21:42:10|2023-05-08T22:48:34|01:06:24|dcc-youlab-gpu-52|1|10|20G||/work/jrl78/Nanoparticles/JawBreakers/Big Library/run2|
jrl78|FAILED|scavenger-gpu|2023-05-08T21:52:46|2023-05-08T22:13:13|00:20:27|dcc-youlab-gpu-50|1|10|20G||/work/jrl78/Nanoparticles/JawBreakers/Big Library/run2|
zcb2|PREEMPTED|scavenger-gpu|2023-05-08T17:56:19|2023-05-08T20:11:00|02:14:41|dcc-fanglab-gpu-01|1|19|182952M||/hpc/home/zcb2/predictive-electome-modeling/train|
mk423|COMPLETED|scavenger-gpu|2023-05-08T18:36:03|2023-05-08T19:38:51|01:02:48|dcc-carlsonlab-gpu-02|1|12|80G||/hpc/home/mk423/Anxiety/FullDataWork/Code/Training/SingleTask|
mk423|COMPLETED|scavenger-gpu|2023-05-08T18:36:03|2023-05-08T19:44:33|01:08:30|dcc-mastatlab-gpu-01|1|12|80G||/hpc/home/mk423/Anxiety/FullDataWork/Code/Training/SingleTask|
mk423|COMPLETED|scavenger-gpu|2023-05-08T18:36:03|2023-05-08T19:26:55|00:50:52|dcc-biostat-gpu-01|1|12|80G||/hpc/home/mk423/Anxiety/FullDataWork/Code/Training/SingleTask|
mk423|COMPLETED|scavenger-gpu|2023-05-08T18:36:03|2023-05-08T19:35:13|00:59:10|dcc-biostat-gpu-02|1|12|80G||/hpc/home/mk423/Anxiety/FullDataWork/Code/Training/SingleTask|
mk423|COMPLETED|scavenger-gpu|2023-05-08T18:36:03|2023-05-08T19:35:38|00:59:35|dcc-carlsonlab-gpu-08|1|12|80G||/hpc/home/mk423/Anxiety/FullDataWork/Code/Training/SingleTask|
mk423|COMPLETED|scavenger-gpu|2023-05-08T18:36:03|2023-05-08T19:40:38|01:04:35|dcc-carlsonlab-gpu-09|1|12|80G||/hpc/home/mk423/Anxiety/FullDataWork/Code/Training/SingleTask|
mk423|COMPLETED|scavenger-gpu|2023-05-08T18:36:03|2023-05-08T19:43:15|01:07:12|dcc-ultrasound-gpu-02|1|12|80G||/hpc/home/mk423/Anxiety/FullDataWork/Code/Training/SingleTask|
mk423|CANCELLED by 1192605|scavenger-gpu|2023-05-08T18:36:03|2023-05-09T15:53:23|21:17:20|dcc-ultrasound-gpu-03|1|12|80G||/hpc/home/mk423/Anxiety/FullDataWork/Code/Training/SingleTask|
mk423|PREEMPTED|scavenger-gpu|2023-05-08T18:36:03|2023-05-09T00:52:41|06:16:38|dcc-carlsonlab-gpu-04|1|12|80G||/hpc/home/mk423/Anxiety/FullDataWork/Code/Training/SingleTask|
mk423|COMPLETED|scavenger-gpu|2023-05-08T18:36:03|2023-05-08T19:45:52|01:09:49|dcc-carlsonlab-gpu-05|1|12|80G||/hpc/home/mk423/Anxiety/FullDataWork/Code/Training/SingleTask|
mk423|COMPLETED|scavenger-gpu|2023-05-08T18:36:03|2023-05-08T19:42:58|01:06:55|dcc-carlsonlab-gpu-06|1|12|80G||/hpc/home/mk423/Anxiety/FullDataWork/Code/Training/SingleTask|
mk423|CANCELLED by 1192605|scavenger-gpu|2023-05-08T18:36:03|2023-05-09T15:53:23|21:17:20|dcc-collinslab-gpu-01|1|12|80G||/hpc/home/mk423/Anxiety/FullDataWork/Code/Training/SingleTask|
mk423|COMPLETED|scavenger-gpu|2023-05-08T18:36:03|2023-05-08T19:45:22|01:09:19|dcc-collinslab-gpu-02|1|12|80G||/hpc/home/mk423/Anxiety/FullDataWork/Code/Training/SingleTask|
mk423|COMPLETED|scavenger-gpu|2023-05-08T18:36:03|2023-05-08T19:53:30|01:17:27|dcc-collinslab-gpu-03|1|12|80G||/hpc/home/mk423/Anxiety/FullDataWork/Code/Training/SingleTask|
mk423|COMPLETED|scavenger-gpu|2023-05-08T18:36:03|2023-05-08T19:49:40|01:13:37|dcc-collinslab-gpu-04|1|12|80G||/hpc/home/mk423/Anxiety/FullDataWork/Code/Training/SingleTask|
mk423|COMPLETED|scavenger-gpu|2023-05-08T18:36:03|2023-05-08T19:37:10|01:01:07|dcc-ece-gpu-01|1|12|80G||/hpc/home/mk423/Anxiety/FullDataWork/Code/Training/SingleTask|
mk423|CANCELLED by 1192605|scavenger-gpu|2023-05-08T19:26:58|2023-05-09T15:53:23|20:26:25|dcc-biostat-gpu-01|1|12|80G||/hpc/home/mk423/Anxiety/FullDataWork/Code/Training/SingleTask|
mk423|COMPLETED|scavenger-gpu|2023-05-08T19:35:15|2023-05-08T20:35:09|00:59:54|dcc-biostat-gpu-02|1|12|80G||/hpc/home/mk423/Anxiety/FullDataWork/Code/Training/SingleTask|
mk423|COMPLETED|scavenger-gpu|2023-05-08T19:35:40|2023-05-08T20:44:36|01:08:56|dcc-carlsonlab-gpu-08|1|12|80G||/hpc/home/mk423/Anxiety/FullDataWork/Code/Training/SingleTask|
mk423|PREEMPTED|scavenger-gpu|2023-05-08T19:37:12|2023-05-08T20:11:00|00:33:48|dcc-fanglab-gpu-01|1|12|80G||/hpc/home/mk423/Anxiety/FullDataWork/Code/Training/SingleTask|
sa400|COMPLETED|scavenger-gpu|2023-05-08T19:14:44|2023-05-08T19:19:22|00:04:38|dcc-rekerlab-gpu-01|1|6|30G||/hpc/group/dfe/sa400/research/temp/reinforce_factors/code/reinforce_estimation|
sa400|COMPLETED|scavenger-gpu|2023-05-08T19:14:44|2023-05-08T19:19:34|00:04:50|dcc-youlab-gpu-48|1|6|30G||/hpc/group/dfe/sa400/research/temp/reinforce_factors/code/reinforce_estimation|
sa400|COMPLETED|scavenger-gpu|2023-05-08T19:14:45|2023-05-08T19:19:18|00:04:33|dcc-youlab-gpu-52|1|6|30G||/hpc/group/dfe/sa400/research/temp/reinforce_factors/code/reinforce_estimation|
sa400|COMPLETED|scavenger-gpu|2023-05-08T19:14:45|2023-05-08T19:19:06|00:04:21|dcc-youlab-gpu-26|1|6|30G||/hpc/group/dfe/sa400/research/temp/reinforce_factors/code/reinforce_estimation|
sa400|COMPLETED|scavenger-gpu|2023-05-08T19:14:45|2023-05-08T19:19:14|00:04:29|dcc-youlab-gpu-27|1|6|30G||/hpc/group/dfe/sa400/research/temp/reinforce_factors/code/reinforce_estimation|
sa400|COMPLETED|scavenger-gpu|2023-05-08T19:14:45|2023-05-08T19:18:53|00:04:08|dcc-pbenfeylab-gpu-01|1|6|30G||/hpc/group/dfe/sa400/research/temp/reinforce_factors/code/reinforce_estimation|
sa400|COMPLETED|scavenger-gpu|2023-05-08T19:14:45|2023-05-08T19:19:10|00:04:25|dcc-pbenfeylab-gpu-02|1|6|30G||/hpc/group/dfe/sa400/research/temp/reinforce_factors/code/reinforce_estimation|
sa400|COMPLETED|scavenger-gpu|2023-05-08T19:14:45|2023-05-08T19:18:38|00:03:53|dcc-pbenfeylab-gpu-03|1|6|30G||/hpc/group/dfe/sa400/research/temp/reinforce_factors/code/reinforce_estimation|
sa400|COMPLETED|scavenger-gpu|2023-05-08T19:14:45|2023-05-08T19:18:58|00:04:13|dcc-allenlab-gpu-01|1|6|30G||/hpc/group/dfe/sa400/research/temp/reinforce_factors/code/reinforce_estimation|
sa400|COMPLETED|scavenger-gpu|2023-05-08T19:14:45|2023-05-08T19:19:07|00:04:22|dcc-allenlab-gpu-02|1|6|30G||/hpc/group/dfe/sa400/research/temp/reinforce_factors/code/reinforce_estimation|
sa400|COMPLETED|scavenger-gpu|2023-05-08T19:14:45|2023-05-08T19:18:56|00:04:11|dcc-allenlab-gpu-03|1|6|30G||/hpc/group/dfe/sa400/research/temp/reinforce_factors/code/reinforce_estimation|
sa400|COMPLETED|scavenger-gpu|2023-05-08T19:14:45|2023-05-08T19:18:49|00:04:04|dcc-allenlab-gpu-04|1|6|30G||/hpc/group/dfe/sa400/research/temp/reinforce_factors/code/reinforce_estimation|
sa400|COMPLETED|scavenger-gpu|2023-05-08T19:14:45|2023-05-08T19:23:02|00:08:17|dcc-mainsahlab-gpu-01|1|6|30G||/hpc/group/dfe/sa400/research/temp/reinforce_factors/code/reinforce_estimation|
sa400|COMPLETED|scavenger-gpu|2023-05-08T19:14:45|2023-05-08T19:23:18|00:08:33|dcc-mainsahlab-gpu-02|1|6|30G||/hpc/group/dfe/sa400/research/temp/reinforce_factors/code/reinforce_estimation|
sa400|COMPLETED|scavenger-gpu|2023-05-08T19:14:45|2023-05-08T19:23:02|00:08:17|dcc-mainsahlab-gpu-03|1|6|30G||/hpc/group/dfe/sa400/research/temp/reinforce_factors/code/reinforce_estimation|
sa400|COMPLETED|scavenger-gpu|2023-05-08T19:14:45|2023-05-08T19:23:12|00:08:27|dcc-mainsahlab-gpu-04|1|6|30G||/hpc/group/dfe/sa400/research/temp/reinforce_factors/code/reinforce_estimation|
sa400|COMPLETED|scavenger-gpu|2023-05-08T19:14:45|2023-05-08T19:18:56|00:04:11|dcc-vossenlab-gpu-01|1|6|30G||/hpc/group/dfe/sa400/research/temp/reinforce_factors/code/reinforce_estimation|
sa400|COMPLETED|scavenger-gpu|2023-05-08T19:14:45|2023-05-08T19:17:56|00:03:11|dcc-vossenlab-gpu-02|1|6|30G||/hpc/group/dfe/sa400/research/temp/reinforce_factors/code/reinforce_estimation|
sa400|COMPLETED|scavenger-gpu|2023-05-08T19:14:45|2023-05-08T19:19:08|00:04:23|dcc-vossenlab-gpu-03|1|6|30G||/hpc/group/dfe/sa400/research/temp/reinforce_factors/code/reinforce_estimation|
sa400|COMPLETED|scavenger-gpu|2023-05-08T19:14:45|2023-05-08T19:19:14|00:04:29|dcc-vossenlab-gpu-04|1|6|30G||/hpc/group/dfe/sa400/research/temp/reinforce_factors/code/reinforce_estimation|
sa400|COMPLETED|scavenger-gpu|2023-05-08T19:14:45|2023-05-08T19:19:32|00:04:47|dcc-ece-gpu-02|1|6|30G||/hpc/group/dfe/sa400/research/temp/reinforce_factors/code/reinforce_estimation|
sa400|COMPLETED|scavenger-gpu|2023-05-08T19:14:45|2023-05-08T19:20:09|00:05:24|dcc-ece-gpu-03|1|6|30G||/hpc/group/dfe/sa400/research/temp/reinforce_factors/code/reinforce_estimation|
sa400|COMPLETED|scavenger-gpu|2023-05-08T19:14:45|2023-05-08T19:19:46|00:05:01|dcc-ece-gpu-04|1|6|30G||/hpc/group/dfe/sa400/research/temp/reinforce_factors/code/reinforce_estimation|
sa400|COMPLETED|scavenger-gpu|2023-05-08T19:14:48|2023-05-08T19:19:34|00:04:46|dcc-chsi-gpu-01|1|6|30G||/hpc/group/dfe/sa400/research/temp/reinforce_factors/code/reinforce_estimation|
sa400|COMPLETED|scavenger-gpu|2023-05-08T19:14:48|2023-05-08T19:19:28|00:04:40|dcc-chsi-gpu-02|1|6|30G||/hpc/group/dfe/sa400/research/temp/reinforce_factors/code/reinforce_estimation|
sa400|COMPLETED|scavenger-gpu|2023-05-08T19:14:48|2023-05-08T19:19:33|00:04:45|dcc-chsi-gpu-03|1|6|30G||/hpc/group/dfe/sa400/research/temp/reinforce_factors/code/reinforce_estimation|
sa400|COMPLETED|scavenger-gpu|2023-05-08T19:14:48|2023-05-08T19:19:39|00:04:51|dcc-chsi-gpu-04|1|6|30G||/hpc/group/dfe/sa400/research/temp/reinforce_factors/code/reinforce_estimation|
sa400|COMPLETED|scavenger-gpu|2023-05-08T19:14:48|2023-05-08T19:19:30|00:04:42|dcc-chsi-gpu-05|1|6|30G||/hpc/group/dfe/sa400/research/temp/reinforce_factors/code/reinforce_estimation|
sa400|COMPLETED|scavenger-gpu|2023-05-08T19:14:48|2023-05-08T19:19:34|00:04:46|dcc-chsi-gpu-06|1|6|30G||/hpc/group/dfe/sa400/research/temp/reinforce_factors/code/reinforce_estimation|
sa400|COMPLETED|scavenger-gpu|2023-05-08T19:14:48|2023-05-08T19:19:40|00:04:52|dcc-chsi-gpu-07|1|6|30G||/hpc/group/dfe/sa400/research/temp/reinforce_factors/code/reinforce_estimation|
sa400|COMPLETED|scavenger-gpu|2023-05-08T19:14:48|2023-05-08T19:19:45|00:04:57|dcc-chsi-gpu-08|1|6|30G||/hpc/group/dfe/sa400/research/temp/reinforce_factors/code/reinforce_estimation|
sa400|COMPLETED|scavenger-gpu|2023-05-08T19:14:48|2023-05-08T19:18:58|00:04:10|dcc-dhvi-gpu-01|1|6|30G||/hpc/group/dfe/sa400/research/temp/reinforce_factors/code/reinforce_estimation|
sa400|COMPLETED|scavenger-gpu|2023-05-08T19:14:48|2023-05-08T19:18:12|00:03:24|dcc-dhvi-gpu-02|1|6|30G||/hpc/group/dfe/sa400/research/temp/reinforce_factors/code/reinforce_estimation|
sa400|COMPLETED|scavenger-gpu|2023-05-08T19:14:48|2023-05-08T19:18:58|00:04:10|dcc-dhvi-gpu-03|1|6|30G||/hpc/group/dfe/sa400/research/temp/reinforce_factors/code/reinforce_estimation|
sa400|COMPLETED|scavenger-gpu|2023-05-08T19:14:48|2023-05-08T19:19:07|00:04:19|dcc-dhvi-gpu-04|1|6|30G||/hpc/group/dfe/sa400/research/temp/reinforce_factors/code/reinforce_estimation|
sa400|COMPLETED|scavenger-gpu|2023-05-08T19:14:48|2023-05-08T19:18:48|00:04:00|dcc-dhvi-gpu-05|1|6|30G||/hpc/group/dfe/sa400/research/temp/reinforce_factors/code/reinforce_estimation|
sa400|COMPLETED|scavenger-gpu|2023-05-08T19:14:49|2023-05-08T19:18:51|00:04:02|dcc-dhvi-gpu-06|1|6|30G||/hpc/group/dfe/sa400/research/temp/reinforce_factors/code/reinforce_estimation|
sa400|COMPLETED|scavenger-gpu|2023-05-08T19:14:49|2023-05-08T19:18:43|00:03:54|dcc-dhvi-gpu-07|1|6|30G||/hpc/group/dfe/sa400/research/temp/reinforce_factors/code/reinforce_estimation|
sa400|COMPLETED|scavenger-gpu|2023-05-08T19:14:49|2023-05-08T19:18:36|00:03:47|dcc-dhvi-gpu-08|1|6|30G||/hpc/group/dfe/sa400/research/temp/reinforce_factors/code/reinforce_estimation|
sa400|COMPLETED|scavenger-gpu|2023-05-08T19:14:49|2023-05-08T19:19:48|00:04:59|dcc-fanglab-gpu-01|1|6|30G||/hpc/group/dfe/sa400/research/temp/reinforce_factors/code/reinforce_estimation|
sa400|COMPLETED|scavenger-gpu|2023-05-08T19:14:49|2023-05-08T19:19:49|00:05:00|dcc-fanglab-gpu-01|1|6|30G||/hpc/group/dfe/sa400/research/temp/reinforce_factors/code/reinforce_estimation|
sa400|COMPLETED|scavenger-gpu|2023-05-08T19:14:49|2023-05-08T19:19:47|00:04:58|dcc-fanglab-gpu-01|1|6|30G||/hpc/group/dfe/sa400/research/temp/reinforce_factors/code/reinforce_estimation|
sa400|COMPLETED|scavenger-gpu|2023-05-08T19:14:49|2023-05-08T19:19:12|00:04:23|dcc-youlab-gpu-31|1|6|30G||/hpc/group/dfe/sa400/research/temp/reinforce_factors/code/reinforce_estimation|
sa400|COMPLETED|scavenger-gpu|2023-05-08T19:14:49|2023-05-08T19:19:27|00:04:38|dcc-youlab-gpu-32|1|6|30G||/hpc/group/dfe/sa400/research/temp/reinforce_factors/code/reinforce_estimation|
sa400|COMPLETED|scavenger-gpu|2023-05-08T19:14:49|2023-05-08T19:19:04|00:04:15|dcc-youlab-gpu-33|1|6|30G||/hpc/group/dfe/sa400/research/temp/reinforce_factors/code/reinforce_estimation|
sa400|COMPLETED|scavenger-gpu|2023-05-08T19:14:49|2023-05-08T19:19:13|00:04:24|dcc-youlab-gpu-34|1|6|30G||/hpc/group/dfe/sa400/research/temp/reinforce_factors/code/reinforce_estimation|
sa400|COMPLETED|scavenger-gpu|2023-05-08T19:14:49|2023-05-08T19:19:15|00:04:26|dcc-youlab-gpu-35|1|6|30G||/hpc/group/dfe/sa400/research/temp/reinforce_factors/code/reinforce_estimation|
sa400|COMPLETED|scavenger-gpu|2023-05-08T19:14:49|2023-05-08T19:19:21|00:04:32|dcc-youlab-gpu-36|1|6|30G||/hpc/group/dfe/sa400/research/temp/reinforce_factors/code/reinforce_estimation|
sa400|COMPLETED|scavenger-gpu|2023-05-08T19:17:57|2023-05-08T19:21:28|00:03:31|dcc-vossenlab-gpu-02|1|6|30G||/hpc/group/dfe/sa400/research/temp/reinforce_factors/code/reinforce_estimation|
sa400|COMPLETED|scavenger-gpu|2023-05-08T19:18:12|2023-05-08T19:21:21|00:03:09|dcc-dhvi-gpu-02|1|6|30G||/hpc/group/dfe/sa400/research/temp/reinforce_factors/code/reinforce_estimation|
sa400|COMPLETED|scavenger-gpu|2023-05-08T19:18:36|2023-05-08T19:21:49|00:03:13|dcc-dhvi-gpu-08|1|6|30G||/hpc/group/dfe/sa400/research/temp/reinforce_factors/code/reinforce_estimation|
sa400|COMPLETED|scavenger-gpu|2023-05-08T19:18:39|2023-05-08T19:21:58|00:03:19|dcc-pbenfeylab-gpu-03|1|6|30G||/hpc/group/dfe/sa400/research/temp/reinforce_factors/code/reinforce_estimation|
sa400|COMPLETED|scavenger-gpu|2023-05-08T19:18:44|2023-05-08T19:22:01|00:03:17|dcc-dhvi-gpu-07|1|6|30G||/hpc/group/dfe/sa400/research/temp/reinforce_factors/code/reinforce_estimation|
sa400|COMPLETED|scavenger-gpu|2023-05-08T19:18:50|2023-05-08T19:22:11|00:03:21|dcc-allenlab-gpu-04|1|6|30G||/hpc/group/dfe/sa400/research/temp/reinforce_factors/code/reinforce_estimation|
sa400|COMPLETED|scavenger-gpu|2023-05-08T19:18:50|2023-05-08T19:21:58|00:03:08|dcc-dhvi-gpu-05|1|6|30G||/hpc/group/dfe/sa400/research/temp/reinforce_factors/code/reinforce_estimation|
sa400|COMPLETED|scavenger-gpu|2023-05-08T19:18:53|2023-05-08T19:22:03|00:03:10|dcc-dhvi-gpu-06|1|6|30G||/hpc/group/dfe/sa400/research/temp/reinforce_factors/code/reinforce_estimation|
sa400|COMPLETED|scavenger-gpu|2023-05-08T19:18:56|2023-05-08T19:22:19|00:03:23|dcc-pbenfeylab-gpu-01|1|6|30G||/hpc/group/dfe/sa400/research/temp/reinforce_factors/code/reinforce_estimation|
sa400|COMPLETED|scavenger-gpu|2023-05-08T19:18:56|2023-05-08T19:22:07|00:03:11|dcc-vossenlab-gpu-01|1|6|30G||/hpc/group/dfe/sa400/research/temp/reinforce_factors/code/reinforce_estimation|
sa400|COMPLETED|scavenger-gpu|2023-05-08T19:18:58|2023-05-08T19:22:30|00:03:32|dcc-allenlab-gpu-03|1|6|30G||/hpc/group/dfe/sa400/research/temp/reinforce_factors/code/reinforce_estimation|
sa400|COMPLETED|scavenger-gpu|2023-05-08T19:19:01|2023-05-08T19:22:34|00:03:33|dcc-allenlab-gpu-01|1|6|30G||/hpc/group/dfe/sa400/research/temp/reinforce_factors/code/reinforce_estimation|
sa400|COMPLETED|scavenger-gpu|2023-05-08T19:19:01|2023-05-08T19:22:28|00:03:27|dcc-dhvi-gpu-01|1|6|30G||/hpc/group/dfe/sa400/research/temp/reinforce_factors/code/reinforce_estimation|
sa400|COMPLETED|scavenger-gpu|2023-05-08T19:19:01|2023-05-08T19:22:31|00:03:30|dcc-dhvi-gpu-03|1|6|30G||/hpc/group/dfe/sa400/research/temp/reinforce_factors/code/reinforce_estimation|
sa400|COMPLETED|scavenger-gpu|2023-05-08T19:19:06|2023-05-08T19:22:51|00:03:45|dcc-youlab-gpu-33|1|6|30G||/hpc/group/dfe/sa400/research/temp/reinforce_factors/code/reinforce_estimation|
sa400|COMPLETED|scavenger-gpu|2023-05-08T19:19:08|2023-05-08T19:22:58|00:03:50|dcc-allenlab-gpu-02|1|6|30G||/hpc/group/dfe/sa400/research/temp/reinforce_factors/code/reinforce_estimation|
sa400|COMPLETED|scavenger-gpu|2023-05-08T19:19:08|2023-05-08T19:22:54|00:03:46|dcc-dhvi-gpu-04|1|6|30G||/hpc/group/dfe/sa400/research/temp/reinforce_factors/code/reinforce_estimation|
sa400|COMPLETED|scavenger-gpu|2023-05-08T19:19:08|2023-05-08T19:23:04|00:03:56|dcc-youlab-gpu-26|1|6|30G||/hpc/group/dfe/sa400/research/temp/reinforce_factors/code/reinforce_estimation|
sa400|COMPLETED|scavenger-gpu|2023-05-08T19:19:11|2023-05-08T19:22:51|00:03:40|dcc-pbenfeylab-gpu-02|1|6|30G||/hpc/group/dfe/sa400/research/temp/reinforce_factors/code/reinforce_estimation|
sa400|COMPLETED|scavenger-gpu|2023-05-08T19:19:11|2023-05-08T19:22:37|00:03:26|dcc-vossenlab-gpu-03|1|6|30G||/hpc/group/dfe/sa400/research/temp/reinforce_factors/code/reinforce_estimation|
sa400|COMPLETED|scavenger-gpu|2023-05-08T19:19:13|2023-05-08T19:23:11|00:03:58|dcc-youlab-gpu-31|1|6|30G||/hpc/group/dfe/sa400/research/temp/reinforce_factors/code/reinforce_estimation|
sa400|COMPLETED|scavenger-gpu|2023-05-08T19:19:16|2023-05-08T19:23:06|00:03:50|dcc-vossenlab-gpu-04|1|6|30G||/hpc/group/dfe/sa400/research/temp/reinforce_factors/code/reinforce_estimation|
sa400|COMPLETED|scavenger-gpu|2023-05-08T19:19:16|2023-05-08T19:23:03|00:03:47|dcc-youlab-gpu-27|1|6|30G||/hpc/group/dfe/sa400/research/temp/reinforce_factors/code/reinforce_estimation|
sa400|COMPLETED|scavenger-gpu|2023-05-08T19:19:16|2023-05-08T19:22:48|00:03:32|dcc-youlab-gpu-34|1|6|30G||/hpc/group/dfe/sa400/research/temp/reinforce_factors/code/reinforce_estimation|
sa400|COMPLETED|scavenger-gpu|2023-05-08T19:19:16|2023-05-08T19:22:40|00:03:24|dcc-youlab-gpu-35|1|6|30G||/hpc/group/dfe/sa400/research/temp/reinforce_factors/code/reinforce_estimation|
sa400|COMPLETED|scavenger-gpu|2023-05-08T19:19:19|2023-05-08T19:22:41|00:03:22|dcc-youlab-gpu-52|1|6|30G||/hpc/group/dfe/sa400/research/temp/reinforce_factors/code/reinforce_estimation|
sa400|COMPLETED|scavenger-gpu|2023-05-08T19:19:21|2023-05-08T19:22:35|00:03:14|dcc-youlab-gpu-36|1|6|30G||/hpc/group/dfe/sa400/research/temp/reinforce_factors/code/reinforce_estimation|
sa400|COMPLETED|scavenger-gpu|2023-05-08T19:19:24|2023-05-08T19:23:36|00:04:12|dcc-rekerlab-gpu-01|1|6|30G||/hpc/group/dfe/sa400/research/temp/reinforce_factors/code/reinforce_estimation|
sa400|COMPLETED|scavenger-gpu|2023-05-08T19:19:28|2023-05-08T19:23:33|00:04:05|dcc-youlab-gpu-32|1|6|30G||/hpc/group/dfe/sa400/research/temp/reinforce_factors/code/reinforce_estimation|
sa400|COMPLETED|scavenger-gpu|2023-05-08T19:19:30|2023-05-08T19:23:35|00:04:05|dcc-chsi-gpu-02|1|6|30G||/hpc/group/dfe/sa400/research/temp/reinforce_factors/code/reinforce_estimation|
sa400|COMPLETED|scavenger-gpu|2023-05-08T19:19:33|2023-05-08T19:23:40|00:04:07|dcc-chsi-gpu-05|1|6|30G||/hpc/group/dfe/sa400/research/temp/reinforce_factors/code/reinforce_estimation|
sa400|COMPLETED|scavenger-gpu|2023-05-08T19:19:33|2023-05-08T19:23:49|00:04:16|dcc-ece-gpu-02|1|6|30G||/hpc/group/dfe/sa400/research/temp/reinforce_factors/code/reinforce_estimation|
sa400|COMPLETED|scavenger-gpu|2023-05-08T19:19:35|2023-05-08T19:24:00|00:04:25|dcc-chsi-gpu-01|1|6|30G||/hpc/group/dfe/sa400/research/temp/reinforce_factors/code/reinforce_estimation|
sa400|COMPLETED|scavenger-gpu|2023-05-08T19:19:35|2023-05-08T19:23:48|00:04:13|dcc-chsi-gpu-03|1|6|30G||/hpc/group/dfe/sa400/research/temp/reinforce_factors/code/reinforce_estimation|
sa400|COMPLETED|scavenger-gpu|2023-05-08T19:19:35|2023-05-08T19:23:44|00:04:09|dcc-chsi-gpu-06|1|6|30G||/hpc/group/dfe/sa400/research/temp/reinforce_factors/code/reinforce_estimation|
sa400|COMPLETED|scavenger-gpu|2023-05-08T19:19:35|2023-05-08T19:23:59|00:04:24|dcc-youlab-gpu-48|1|6|30G||/hpc/group/dfe/sa400/research/temp/reinforce_factors/code/reinforce_estimation|
sa400|COMPLETED|scavenger-gpu|2023-05-08T19:19:40|2023-05-08T19:24:01|00:04:21|dcc-chsi-gpu-04|1|6|30G||/hpc/group/dfe/sa400/research/temp/reinforce_factors/code/reinforce_estimation|
sa400|COMPLETED|scavenger-gpu|2023-05-08T19:19:42|2023-05-08T19:24:17|00:04:35|dcc-chsi-gpu-07|1|6|30G||/hpc/group/dfe/sa400/research/temp/reinforce_factors/code/reinforce_estimation|
sa400|COMPLETED|scavenger-gpu|2023-05-08T19:19:45|2023-05-08T19:24:11|00:04:26|dcc-chsi-gpu-08|1|6|30G||/hpc/group/dfe/sa400/research/temp/reinforce_factors/code/reinforce_estimation|
sa400|COMPLETED|scavenger-gpu|2023-05-08T19:19:48|2023-05-08T19:23:51|00:04:03|dcc-ece-gpu-04|1|6|30G||/hpc/group/dfe/sa400/research/temp/reinforce_factors/code/reinforce_estimation|
sa400|COMPLETED|scavenger-gpu|2023-05-08T19:19:48|2023-05-08T19:23:29|00:03:41|dcc-youlab-gpu-37|1|6|30G||/hpc/group/dfe/sa400/research/temp/reinforce_factors/code/reinforce_estimation|
sa400|COMPLETED|scavenger-gpu|2023-05-08T19:19:50|2023-05-08T19:24:01|00:04:11|dcc-youlab-gpu-38|1|6|30G||/hpc/group/dfe/sa400/research/temp/reinforce_factors/code/reinforce_estimation|
sa400|COMPLETED|scavenger-gpu|2023-05-08T19:19:50|2023-05-08T19:23:31|00:03:41|dcc-youlab-gpu-39|1|6|30G||/hpc/group/dfe/sa400/research/temp/reinforce_factors/code/reinforce_estimation|
sa400|COMPLETED|scavenger-gpu|2023-05-08T19:20:10|2023-05-08T19:24:16|00:04:06|dcc-ece-gpu-03|1|6|30G||/hpc/group/dfe/sa400/research/temp/reinforce_factors/code/reinforce_estimation|
sa400|COMPLETED|scavenger-gpu|2023-05-08T19:21:23|2023-05-08T19:24:33|00:03:10|dcc-dhvi-gpu-02|1|6|30G||/hpc/group/dfe/sa400/research/temp/reinforce_factors/code/reinforce_estimation|
sa400|COMPLETED|scavenger-gpu|2023-05-08T19:21:29|2023-05-08T19:24:34|00:03:05|dcc-vossenlab-gpu-02|1|6|30G||/hpc/group/dfe/sa400/research/temp/reinforce_factors/code/reinforce_estimation|
sa400|COMPLETED|scavenger-gpu|2023-05-08T19:21:52|2023-05-08T19:24:48|00:02:56|dcc-dhvi-gpu-08|1|6|30G||/hpc/group/dfe/sa400/research/temp/reinforce_factors/code/reinforce_estimation|
sa400|COMPLETED|scavenger-gpu|2023-05-08T19:21:59|2023-05-08T19:25:03|00:03:04|dcc-dhvi-gpu-05|1|6|30G||/hpc/group/dfe/sa400/research/temp/reinforce_factors/code/reinforce_estimation|
sa400|COMPLETED|scavenger-gpu|2023-05-08T19:21:59|2023-05-08T19:25:04|00:03:05|dcc-pbenfeylab-gpu-03|1|6|30G||/hpc/group/dfe/sa400/research/temp/reinforce_factors/code/reinforce_estimation|
sa400|COMPLETED|scavenger-gpu|2023-05-08T19:22:02|2023-05-08T19:25:06|00:03:04|dcc-dhvi-gpu-07|1|6|30G||/hpc/group/dfe/sa400/research/temp/reinforce_factors/code/reinforce_estimation|
sa400|COMPLETED|scavenger-gpu|2023-05-08T19:22:04|2023-05-08T19:25:02|00:02:58|dcc-dhvi-gpu-06|1|6|30G||/hpc/group/dfe/sa400/research/temp/reinforce_factors/code/reinforce_estimation|
sa400|COMPLETED|scavenger-gpu|2023-05-08T19:22:07|2023-05-08T19:25:28|00:03:21|dcc-vossenlab-gpu-01|1|6|30G||/hpc/group/dfe/sa400/research/temp/reinforce_factors/code/reinforce_estimation|
sa400|COMPLETED|scavenger-gpu|2023-05-08T19:22:12|2023-05-08T19:25:23|00:03:11|dcc-allenlab-gpu-04|1|6|30G||/hpc/group/dfe/sa400/research/temp/reinforce_factors/code/reinforce_estimation|
sa400|COMPLETED|scavenger-gpu|2023-05-08T19:22:20|2023-05-08T19:25:26|00:03:06|dcc-pbenfeylab-gpu-01|1|6|30G||/hpc/group/dfe/sa400/research/temp/reinforce_factors/code/reinforce_estimation|
sa400|COMPLETED|scavenger-gpu|2023-05-08T19:22:29|2023-05-08T19:25:48|00:03:19|dcc-dhvi-gpu-01|1|6|30G||/hpc/group/dfe/sa400/research/temp/reinforce_factors/code/reinforce_estimation|
sa400|COMPLETED|scavenger-gpu|2023-05-08T19:22:30|2023-05-08T19:25:50|00:03:20|dcc-allenlab-gpu-03|1|6|30G||/hpc/group/dfe/sa400/research/temp/reinforce_factors/code/reinforce_estimation|
sa400|COMPLETED|scavenger-gpu|2023-05-08T19:22:34|2023-05-08T19:25:44|00:03:10|dcc-dhvi-gpu-03|1|6|30G||/hpc/group/dfe/sa400/research/temp/reinforce_factors/code/reinforce_estimation|
sa400|COMPLETED|scavenger-gpu|2023-05-08T19:22:36|2023-05-08T19:25:59|00:03:23|dcc-allenlab-gpu-01|1|6|30G||/hpc/group/dfe/sa400/research/temp/reinforce_factors/code/reinforce_estimation|
sa400|COMPLETED|scavenger-gpu|2023-05-08T19:22:36|2023-05-08T19:25:31|00:02:55|dcc-youlab-gpu-36|1|6|30G||/hpc/group/dfe/sa400/research/temp/reinforce_factors/code/reinforce_estimation|
sa400|COMPLETED|scavenger-gpu|2023-05-08T19:22:39|2023-05-08T19:25:59|00:03:20|dcc-vossenlab-gpu-03|1|6|30G||/hpc/group/dfe/sa400/research/temp/reinforce_factors/code/reinforce_estimation|
sa400|COMPLETED|scavenger-gpu|2023-05-08T19:22:41|2023-05-08T19:26:01|00:03:20|dcc-youlab-gpu-35|1|6|30G||/hpc/group/dfe/sa400/research/temp/reinforce_factors/code/reinforce_estimation|
sa400|COMPLETED|scavenger-gpu|2023-05-08T19:22:41|2023-05-08T19:25:55|00:03:14|dcc-youlab-gpu-52|1|6|30G||/hpc/group/dfe/sa400/research/temp/reinforce_factors/code/reinforce_estimation|
sa400|COMPLETED|scavenger-gpu|2023-05-08T19:22:48|2023-05-08T19:25:53|00:03:05|dcc-youlab-gpu-34|1|6|30G||/hpc/group/dfe/sa400/research/temp/reinforce_factors/code/reinforce_estimation|
sa400|COMPLETED|scavenger-gpu|2023-05-08T19:22:51|2023-05-08T19:26:26|00:03:35|dcc-youlab-gpu-33|1|6|30G||/hpc/group/dfe/sa400/research/temp/reinforce_factors/code/reinforce_estimation|
sa400|COMPLETED|scavenger-gpu|2023-05-08T19:22:54|2023-05-08T19:26:10|00:03:16|dcc-pbenfeylab-gpu-02|1|6|30G||/hpc/group/dfe/sa400/research/temp/reinforce_factors/code/reinforce_estimation|
sa400|COMPLETED|scavenger-gpu|2023-05-08T19:22:56|2023-05-08T19:26:25|00:03:29|dcc-dhvi-gpu-04|1|6|30G||/hpc/group/dfe/sa400/research/temp/reinforce_factors/code/reinforce_estimation|
sa400|COMPLETED|scavenger-gpu|2023-05-08T19:22:59|2023-05-08T19:26:32|00:03:33|dcc-allenlab-gpu-02|1|6|30G||/hpc/group/dfe/sa400/research/temp/reinforce_factors/code/reinforce_estimation|
sa400|COMPLETED|scavenger-gpu|2023-05-08T19:23:03|2023-05-08T19:30:52|00:07:49|dcc-mainsahlab-gpu-01|1|6|30G||/hpc/group/dfe/sa400/research/temp/reinforce_factors/code/reinforce_estimation|
sa400|COMPLETED|scavenger-gpu|2023-05-08T19:23:03|2023-05-08T19:26:26|00:03:23|dcc-youlab-gpu-40|1|6|30G||/hpc/group/dfe/sa400/research/temp/reinforce_factors/code/reinforce_estimation|
sa400|COMPLETED|scavenger-gpu|2023-05-08T19:23:05|2023-05-08T19:30:42|00:07:37|dcc-mainsahlab-gpu-03|1|6|30G||/hpc/group/dfe/sa400/research/temp/reinforce_factors/code/reinforce_estimation|
sa400|COMPLETED|scavenger-gpu|2023-05-08T19:23:05|2023-05-08T19:26:42|00:03:37|dcc-youlab-gpu-26|1|6|30G||/hpc/group/dfe/sa400/research/temp/reinforce_factors/code/reinforce_estimation|
sa400|COMPLETED|scavenger-gpu|2023-05-08T19:23:08|2023-05-08T19:26:38|00:03:30|dcc-vossenlab-gpu-04|1|6|30G||/hpc/group/dfe/sa400/research/temp/reinforce_factors/code/reinforce_estimation|
sa400|COMPLETED|scavenger-gpu|2023-05-08T19:23:13|2023-05-08T19:30:56|00:07:43|dcc-mainsahlab-gpu-04|1|6|30G||/hpc/group/dfe/sa400/research/temp/reinforce_factors/code/reinforce_estimation|
sa400|COMPLETED|scavenger-gpu|2023-05-08T19:23:13|2023-05-08T19:26:50|00:03:37|dcc-youlab-gpu-27|1|6|30G||/hpc/group/dfe/sa400/research/temp/reinforce_factors/code/reinforce_estimation|
sa400|COMPLETED|scavenger-gpu|2023-05-08T19:23:20|2023-05-08T19:31:16|00:07:56|dcc-mainsahlab-gpu-02|1|6|30G||/hpc/group/dfe/sa400/research/temp/reinforce_factors/code/reinforce_estimation|
sa400|COMPLETED|scavenger-gpu|2023-05-08T19:23:30|2023-05-08T19:27:09|00:03:39|dcc-youlab-gpu-31|1|6|30G||/hpc/group/dfe/sa400/research/temp/reinforce_factors/code/reinforce_estimation|
sa400|COMPLETED|scavenger-gpu|2023-05-08T19:23:32|2023-05-08T19:26:41|00:03:09|dcc-youlab-gpu-37|1|6|30G||/hpc/group/dfe/sa400/research/temp/reinforce_factors/code/reinforce_estimation|
sa400|COMPLETED|scavenger-gpu|2023-05-08T19:23:33|2023-05-08T19:27:14|00:03:41|dcc-youlab-gpu-32|1|6|30G||/hpc/group/dfe/sa400/research/temp/reinforce_factors/code/reinforce_estimation|
sa400|COMPLETED|scavenger-gpu|2023-05-08T19:23:36|2023-05-08T19:26:38|00:03:02|dcc-youlab-gpu-39|1|6|30G||/hpc/group/dfe/sa400/research/temp/reinforce_factors/code/reinforce_estimation|
sa400|COMPLETED|scavenger-gpu|2023-05-08T19:23:38|2023-05-08T19:27:37|00:03:59|dcc-chsi-gpu-02|1|6|30G||/hpc/group/dfe/sa400/research/temp/reinforce_factors/code/reinforce_estimation|
sa400|COMPLETED|scavenger-gpu|2023-05-08T19:23:41|2023-05-08T19:27:26|00:03:45|dcc-chsi-gpu-05|1|6|30G||/hpc/group/dfe/sa400/research/temp/reinforce_factors/code/reinforce_estimation|
sa400|COMPLETED|scavenger-gpu|2023-05-08T19:23:44|2023-05-08T19:27:34|00:03:50|dcc-chsi-gpu-06|1|6|30G||/hpc/group/dfe/sa400/research/temp/reinforce_factors/code/reinforce_estimation|
sa400|COMPLETED|scavenger-gpu|2023-05-08T19:23:49|2023-05-08T19:27:50|00:04:01|dcc-chsi-gpu-03|1|6|30G||/hpc/group/dfe/sa400/research/temp/reinforce_factors/code/reinforce_estimation|
sa400|COMPLETED|scavenger-gpu|2023-05-08T19:23:51|2023-05-08T19:27:45|00:03:54|dcc-rekerlab-gpu-01|1|6|30G||/hpc/group/dfe/sa400/research/temp/reinforce_factors/code/reinforce_estimation|
sa400|COMPLETED|scavenger-gpu|2023-05-08T19:23:54|2023-05-08T19:27:51|00:03:57|dcc-ece-gpu-02|1|6|30G||/hpc/group/dfe/sa400/research/temp/reinforce_factors/code/reinforce_estimation|
sa400|COMPLETED|scavenger-gpu|2023-05-08T19:24:01|2023-05-08T19:27:57|00:03:56|dcc-chsi-gpu-01|1|6|30G||/hpc/group/dfe/sa400/research/temp/reinforce_factors/code/reinforce_estimation|
sa400|COMPLETED|scavenger-gpu|2023-05-08T19:24:01|2023-05-08T19:27:58|00:03:57|dcc-chsi-gpu-04|1|6|30G||/hpc/group/dfe/sa400/research/temp/reinforce_factors/code/reinforce_estimation|
sa400|COMPLETED|scavenger-gpu|2023-05-08T19:24:01|2023-05-08T19:27:16|00:03:15|dcc-youlab-gpu-38|1|6|30G||/hpc/group/dfe/sa400/research/temp/reinforce_factors/code/reinforce_estimation|
sa400|COMPLETED|scavenger-gpu|2023-05-08T19:24:01|2023-05-08T19:27:53|00:03:52|dcc-youlab-gpu-48|1|6|30G||/hpc/group/dfe/sa400/research/temp/reinforce_factors/code/reinforce_estimation|
sa400|COMPLETED|scavenger-gpu|2023-05-08T19:24:13|2023-05-08T19:28:19|00:04:06|dcc-chsi-gpu-08|1|6|30G||/hpc/group/dfe/sa400/research/temp/reinforce_factors/code/reinforce_estimation|
sa400|COMPLETED|scavenger-gpu|2023-05-08T19:24:18|2023-05-08T19:28:25|00:04:07|dcc-chsi-gpu-07|1|6|30G||/hpc/group/dfe/sa400/research/temp/reinforce_factors/code/reinforce_estimation|
sa400|COMPLETED|scavenger-gpu|2023-05-08T19:24:18|2023-05-08T19:27:53|00:03:35|dcc-youlab-gpu-41|1|6|30G||/hpc/group/dfe/sa400/research/temp/reinforce_factors/code/reinforce_estimation|
sa400|COMPLETED|scavenger-gpu|2023-05-08T19:24:33|2023-05-08T19:27:19|00:02:46|dcc-dhvi-gpu-02|1|6|30G||/hpc/group/dfe/sa400/research/temp/reinforce_factors/code/reinforce_estimation|
sa400|COMPLETED|scavenger-gpu|2023-05-08T19:24:36|2023-05-08T19:27:17|00:02:41|dcc-vossenlab-gpu-02|1|6|30G||/hpc/group/dfe/sa400/research/temp/reinforce_factors/code/reinforce_estimation|
sa400|COMPLETED|scavenger-gpu|2023-05-08T19:24:51|2023-05-08T19:27:37|00:02:46|dcc-dhvi-gpu-08|1|6|30G||/hpc/group/dfe/sa400/research/temp/reinforce_factors/code/reinforce_estimation|
sa400|COMPLETED|scavenger-gpu|2023-05-08T19:25:03|2023-05-08T19:27:56|00:02:53|dcc-dhvi-gpu-06|1|6|30G||/hpc/group/dfe/sa400/research/temp/reinforce_factors/code/reinforce_estimation|
sa400|COMPLETED|scavenger-gpu|2023-05-08T19:25:03|2023-05-08T19:27:57|00:02:54|dcc-dhvi-gpu-05|1|6|30G||/hpc/group/dfe/sa400/research/temp/reinforce_factors/code/reinforce_estimation|
sa400|COMPLETED|scavenger-gpu|2023-05-08T19:25:05|2023-05-08T19:28:00|00:02:55|dcc-pbenfeylab-gpu-03|1|6|30G||/hpc/group/dfe/sa400/research/temp/reinforce_factors/code/reinforce_estimation|
sa400|COMPLETED|scavenger-gpu|2023-05-08T19:25:08|2023-05-08T19:28:00|00:02:52|dcc-dhvi-gpu-07|1|6|30G||/hpc/group/dfe/sa400/research/temp/reinforce_factors/code/reinforce_estimation|
sa400|COMPLETED|scavenger-gpu|2023-05-08T19:25:25|2023-05-08T19:28:24|00:02:59|dcc-allenlab-gpu-04|1|6|30G||/hpc/group/dfe/sa400/research/temp/reinforce_factors/code/reinforce_estimation|
sa400|COMPLETED|scavenger-gpu|2023-05-08T19:25:28|2023-05-08T19:28:19|00:02:51|dcc-pbenfeylab-gpu-01|1|6|30G||/hpc/group/dfe/sa400/research/temp/reinforce_factors/code/reinforce_estimation|
sa400|COMPLETED|scavenger-gpu|2023-05-08T19:25:30|2023-05-08T19:28:27|00:02:57|dcc-vossenlab-gpu-01|1|6|30G||/hpc/group/dfe/sa400/research/temp/reinforce_factors/code/reinforce_estimation|
sa400|COMPLETED|scavenger-gpu|2023-05-08T19:25:33|2023-05-08T19:28:17|00:02:44|dcc-youlab-gpu-36|1|6|30G||/hpc/group/dfe/sa400/research/temp/reinforce_factors/code/reinforce_estimation|
sa400|COMPLETED|scavenger-gpu|2023-05-08T19:25:45|2023-05-08T19:28:48|00:03:03|dcc-dhvi-gpu-03|1|6|30G||/hpc/group/dfe/sa400/research/temp/reinforce_factors/code/reinforce_estimation|
sa400|COMPLETED|scavenger-gpu|2023-05-08T19:25:51|2023-05-08T19:28:59|00:03:08|dcc-dhvi-gpu-01|1|6|30G||/hpc/group/dfe/sa400/research/temp/reinforce_factors/code/reinforce_estimation|
sa400|COMPLETED|scavenger-gpu|2023-05-08T19:25:51|2023-05-08T19:29:14|00:03:23|dcc-youlab-gpu-42|1|6|30G||/hpc/group/dfe/sa400/research/temp/reinforce_factors/code/reinforce_estimation|
sa400|COMPLETED|scavenger-gpu|2023-05-08T19:25:56|2023-05-08T19:29:01|00:03:05|dcc-allenlab-gpu-03|1|6|30G||/hpc/group/dfe/sa400/research/temp/reinforce_factors/code/reinforce_estimation|
sa400|COMPLETED|scavenger-gpu|2023-05-08T19:25:56|2023-05-08T19:28:58|00:03:02|dcc-youlab-gpu-34|1|6|30G||/hpc/group/dfe/sa400/research/temp/reinforce_factors/code/reinforce_estimation|
sa400|COMPLETED|scavenger-gpu|2023-05-08T19:26:01|2023-05-08T19:29:03|00:03:02|dcc-allenlab-gpu-01|1|6|30G||/hpc/group/dfe/sa400/research/temp/reinforce_factors/code/reinforce_estimation|
sa400|COMPLETED|scavenger-gpu|2023-05-08T19:26:01|2023-05-08T19:29:02|00:03:01|dcc-vossenlab-gpu-03|1|6|30G||/hpc/group/dfe/sa400/research/temp/reinforce_factors/code/reinforce_estimation|
sa400|COMPLETED|scavenger-gpu|2023-05-08T19:26:03|2023-05-08T19:29:03|00:03:00|dcc-youlab-gpu-35|1|6|30G||/hpc/group/dfe/sa400/research/temp/reinforce_factors/code/reinforce_estimation|
sa400|COMPLETED|scavenger-gpu|2023-05-08T19:26:11|2023-05-08T19:29:19|00:03:08|dcc-pbenfeylab-gpu-02|1|6|30G||/hpc/group/dfe/sa400/research/temp/reinforce_factors/code/reinforce_estimation|
sa400|COMPLETED|scavenger-gpu|2023-05-08T19:26:26|2023-05-08T19:29:36|00:03:10|dcc-dhvi-gpu-04|1|6|30G||/hpc/group/dfe/sa400/research/temp/reinforce_factors/code/reinforce_estimation|
sa400|COMPLETED|scavenger-gpu|2023-05-08T19:26:28|2023-05-08T19:29:31|00:03:03|dcc-youlab-gpu-33|1|6|30G||/hpc/group/dfe/sa400/research/temp/reinforce_factors/code/reinforce_estimation|
sa400|COMPLETED|scavenger-gpu|2023-05-08T19:26:28|2023-05-08T19:29:39|00:03:11|dcc-youlab-gpu-40|1|6|30G||/hpc/group/dfe/sa400/research/temp/reinforce_factors/code/reinforce_estimation|
sa400|COMPLETED|scavenger-gpu|2023-05-08T19:26:33|2023-05-08T19:29:48|00:03:15|dcc-allenlab-gpu-02|1|6|30G||/hpc/group/dfe/sa400/research/temp/reinforce_factors/code/reinforce_estimation|
sa400|COMPLETED|scavenger-gpu|2023-05-08T19:26:38|2023-05-08T19:30:02|00:03:24|dcc-vossenlab-gpu-04|1|6|30G||/hpc/group/dfe/sa400/research/temp/reinforce_factors/code/reinforce_estimation|
sa400|COMPLETED|scavenger-gpu|2023-05-08T19:26:41|2023-05-08T19:29:52|00:03:11|dcc-youlab-gpu-39|1|6|30G||/hpc/group/dfe/sa400/research/temp/reinforce_factors/code/reinforce_estimation|
sa400|COMPLETED|scavenger-gpu|2023-05-08T19:26:43|2023-05-08T19:30:14|00:03:31|dcc-youlab-gpu-26|1|6|30G||/hpc/group/dfe/sa400/research/temp/reinforce_factors/code/reinforce_estimation|
sa400|COMPLETED|scavenger-gpu|2023-05-08T19:26:43|2023-05-08T19:29:41|00:02:58|dcc-youlab-gpu-37|1|6|30G||/hpc/group/dfe/sa400/research/temp/reinforce_factors/code/reinforce_estimation|
sa400|COMPLETED|scavenger-gpu|2023-05-08T19:26:50|2023-05-08T19:30:16|00:03:26|dcc-youlab-gpu-27|1|6|30G||/hpc/group/dfe/sa400/research/temp/reinforce_factors/code/reinforce_estimation|
sa400|COMPLETED|scavenger-gpu|2023-05-08T19:27:11|2023-05-08T19:30:30|00:03:19|dcc-youlab-gpu-31|1|6|30G||/hpc/group/dfe/sa400/research/temp/reinforce_factors/code/reinforce_estimation|
sa400|COMPLETED|scavenger-gpu|2023-05-08T19:27:16|2023-05-08T19:30:33|00:03:17|dcc-youlab-gpu-32|1|6|30G||/hpc/group/dfe/sa400/research/temp/reinforce_factors/code/reinforce_estimation|
sa400|COMPLETED|scavenger-gpu|2023-05-08T19:27:19|2023-05-08T19:30:11|00:02:52|dcc-vossenlab-gpu-02|1|6|30G||/hpc/group/dfe/sa400/research/temp/reinforce_factors/code/reinforce_estimation|
sa400|COMPLETED|scavenger-gpu|2023-05-08T19:27:19|2023-05-08T19:30:16|00:02:57|dcc-youlab-gpu-38|1|6|30G||/hpc/group/dfe/sa400/research/temp/reinforce_factors/code/reinforce_estimation|
sa400|COMPLETED|scavenger-gpu|2023-05-08T19:27:21|2023-05-08T19:30:05|00:02:44|dcc-dhvi-gpu-02|1|6|30G||/hpc/group/dfe/sa400/research/temp/reinforce_factors/code/reinforce_estimation|
sa400|COMPLETED|scavenger-gpu|2023-05-08T19:27:26|2023-05-08T19:30:51|00:03:25|dcc-chsi-gpu-05|1|6|30G||/hpc/group/dfe/sa400/research/temp/reinforce_factors/code/reinforce_estimation|
sa400|COMPLETED|scavenger-gpu|2023-05-08T19:27:36|2023-05-08T19:31:15|00:03:39|dcc-chsi-gpu-06|1|6|30G||/hpc/group/dfe/sa400/research/temp/reinforce_factors/code/reinforce_estimation|
sa400|COMPLETED|scavenger-gpu|2023-05-08T19:27:39|2023-05-08T19:31:26|00:03:47|dcc-chsi-gpu-02|1|6|30G||/hpc/group/dfe/sa400/research/temp/reinforce_factors/code/reinforce_estimation|
sa400|COMPLETED|scavenger-gpu|2023-05-08T19:27:39|2023-05-08T19:30:29|00:02:50|dcc-dhvi-gpu-08|1|6|30G||/hpc/group/dfe/sa400/research/temp/reinforce_factors/code/reinforce_estimation|
sa400|COMPLETED|scavenger-gpu|2023-05-08T19:27:45|2023-05-08T19:31:29|00:03:44|dcc-rekerlab-gpu-01|1|6|30G||/hpc/group/dfe/sa400/research/temp/reinforce_factors/code/reinforce_estimation|
sa400|COMPLETED|scavenger-gpu|2023-05-08T19:27:52|2023-05-08T19:31:48|00:03:56|dcc-chsi-gpu-03|1|6|30G||/hpc/group/dfe/sa400/research/temp/reinforce_factors/code/reinforce_estimation|
sa400|COMPLETED|scavenger-gpu|2023-05-08T19:27:52|2023-05-08T19:31:12|00:03:20|dcc-youlab-gpu-43|1|6|30G||/hpc/group/dfe/sa400/research/temp/reinforce_factors/code/reinforce_estimation|
sa400|COMPLETED|scavenger-gpu|2023-05-08T19:27:55|2023-05-08T19:31:04|00:03:09|dcc-youlab-gpu-41|1|6|30G||/hpc/group/dfe/sa400/research/temp/reinforce_factors/code/reinforce_estimation|
sa400|COMPLETED|scavenger-gpu|2023-05-08T19:27:55|2023-05-08T19:31:38|00:03:43|dcc-youlab-gpu-48|1|6|30G||/hpc/group/dfe/sa400/research/temp/reinforce_factors/code/reinforce_estimation|
sa400|COMPLETED|scavenger-gpu|2023-05-08T19:27:57|2023-05-08T19:30:52|00:02:55|dcc-dhvi-gpu-06|1|6|30G||/hpc/group/dfe/sa400/research/temp/reinforce_factors/code/reinforce_estimation|
sa400|COMPLETED|scavenger-gpu|2023-05-08T19:28:00|2023-05-08T19:31:47|00:03:47|dcc-chsi-gpu-01|1|6|30G||/hpc/group/dfe/sa400/research/temp/reinforce_factors/code/reinforce_estimation|
sa400|COMPLETED|scavenger-gpu|2023-05-08T19:28:00|2023-05-08T19:31:50|00:03:50|dcc-chsi-gpu-04|1|6|30G||/hpc/group/dfe/sa400/research/temp/reinforce_factors/code/reinforce_estimation|
sa400|COMPLETED|scavenger-gpu|2023-05-08T19:28:00|2023-05-08T19:30:44|00:02:44|dcc-dhvi-gpu-05|1|6|30G||/hpc/group/dfe/sa400/research/temp/reinforce_factors/code/reinforce_estimation|
sa400|COMPLETED|scavenger-gpu|2023-05-08T19:28:03|2023-05-08T19:31:01|00:02:58|dcc-dhvi-gpu-07|1|6|30G||/hpc/group/dfe/sa400/research/temp/reinforce_factors/code/reinforce_estimation|
sa400|COMPLETED|scavenger-gpu|2023-05-08T19:28:03|2023-05-08T19:31:01|00:02:58|dcc-pbenfeylab-gpu-03|1|6|30G||/hpc/group/dfe/sa400/research/temp/reinforce_factors/code/reinforce_estimation|
sa400|COMPLETED|scavenger-gpu|2023-05-08T19:28:19|2023-05-08T19:32:18|00:03:59|dcc-chsi-gpu-08|1|6|30G||/hpc/group/dfe/sa400/research/temp/reinforce_factors/code/reinforce_estimation|
sa400|COMPLETED|scavenger-gpu|2023-05-08T19:28:19|2023-05-08T19:31:02|00:02:43|dcc-youlab-gpu-36|1|6|30G||/hpc/group/dfe/sa400/research/temp/reinforce_factors/code/reinforce_estimation|
sa400|COMPLETED|scavenger-gpu|2023-05-08T19:28:22|2023-05-08T19:31:21|00:02:59|dcc-pbenfeylab-gpu-01|1|6|30G||/hpc/group/dfe/sa400/research/temp/reinforce_factors/code/reinforce_estimation|
sa400|COMPLETED|scavenger-gpu|2023-05-08T19:28:25|2023-05-08T19:31:32|00:03:07|dcc-allenlab-gpu-04|1|6|30G||/hpc/group/dfe/sa400/research/temp/reinforce_factors/code/reinforce_estimation|
sa400|COMPLETED|scavenger-gpu|2023-05-08T19:28:27|2023-05-08T19:32:27|00:04:00|dcc-chsi-gpu-07|1|6|30G||/hpc/group/dfe/sa400/research/temp/reinforce_factors/code/reinforce_estimation|
sa400|COMPLETED|scavenger-gpu|2023-05-08T19:28:30|2023-05-08T19:31:30|00:03:00|dcc-vossenlab-gpu-01|1|6|30G||/hpc/group/dfe/sa400/research/temp/reinforce_factors/code/reinforce_estimation|
sa400|COMPLETED|scavenger-gpu|2023-05-08T19:28:49|2023-05-08T19:31:53|00:03:04|dcc-dhvi-gpu-03|1|6|30G||/hpc/group/dfe/sa400/research/temp/reinforce_factors/code/reinforce_estimation|
sa400|COMPLETED|scavenger-gpu|2023-05-08T19:28:59|2023-05-08T19:32:11|00:03:12|dcc-youlab-gpu-34|1|6|30G||/hpc/group/dfe/sa400/research/temp/reinforce_factors/code/reinforce_estimation|
sa400|COMPLETED|scavenger-gpu|2023-05-08T19:29:01|2023-05-08T19:32:16|00:03:15|dcc-dhvi-gpu-01|1|6|30G||/hpc/group/dfe/sa400/research/temp/reinforce_factors/code/reinforce_estimation|
sa400|COMPLETED|scavenger-gpu|2023-05-08T19:29:04|2023-05-08T19:32:07|00:03:03|dcc-allenlab-gpu-01|1|6|30G||/hpc/group/dfe/sa400/research/temp/reinforce_factors/code/reinforce_estimation|
sa400|COMPLETED|scavenger-gpu|2023-05-08T19:29:04|2023-05-08T19:32:26|00:03:22|dcc-allenlab-gpu-03|1|6|30G||/hpc/group/dfe/sa400/research/temp/reinforce_factors/code/reinforce_estimation|
sa400|COMPLETED|scavenger-gpu|2023-05-08T19:29:04|2023-05-08T19:32:09|00:03:05|dcc-vossenlab-gpu-03|1|6|30G||/hpc/group/dfe/sa400/research/temp/reinforce_factors/code/reinforce_estimation|
sa400|COMPLETED|scavenger-gpu|2023-05-08T19:29:04|2023-05-08T19:32:11|00:03:07|dcc-youlab-gpu-35|1|6|30G||/hpc/group/dfe/sa400/research/temp/reinforce_factors/code/reinforce_estimation|
sa400|COMPLETED|scavenger-gpu|2023-05-08T19:29:16|2023-05-08T19:32:10|00:02:54|dcc-youlab-gpu-42|1|6|30G||/hpc/group/dfe/sa400/research/temp/reinforce_factors/code/reinforce_estimation|
sa400|COMPLETED|scavenger-gpu|2023-05-08T19:29:21|2023-05-08T19:32:30|00:03:09|dcc-pbenfeylab-gpu-02|1|6|30G||/hpc/group/dfe/sa400/research/temp/reinforce_factors/code/reinforce_estimation|
sa400|COMPLETED|scavenger-gpu|2023-05-08T19:29:33|2023-05-08T19:32:40|00:03:07|dcc-youlab-gpu-33|1|6|30G||/hpc/group/dfe/sa400/research/temp/reinforce_factors/code/reinforce_estimation|
sa400|COMPLETED|scavenger-gpu|2023-05-08T19:29:38|2023-05-08T19:32:54|00:03:16|dcc-dhvi-gpu-04|1|6|30G||/hpc/group/dfe/sa400/research/temp/reinforce_factors/code/reinforce_estimation|
sa400|COMPLETED|scavenger-gpu|2023-05-08T19:29:41|2023-05-08T19:32:49|00:03:08|dcc-youlab-gpu-40|1|6|30G||/hpc/group/dfe/sa400/research/temp/reinforce_factors/code/reinforce_estimation|
sa400|COMPLETED|scavenger-gpu|2023-05-08T19:29:43|2023-05-08T19:32:38|00:02:55|dcc-youlab-gpu-37|1|6|30G||/hpc/group/dfe/sa400/research/temp/reinforce_factors/code/reinforce_estimation|
sa400|COMPLETED|scavenger-gpu|2023-05-08T19:29:48|2023-05-08T19:32:53|00:03:05|dcc-allenlab-gpu-02|1|6|30G||/hpc/group/dfe/sa400/research/temp/reinforce_factors/code/reinforce_estimation|
sa400|COMPLETED|scavenger-gpu|2023-05-08T19:29:52|2023-05-08T19:33:04|00:03:12|dcc-youlab-gpu-39|1|6|30G||/hpc/group/dfe/sa400/research/temp/reinforce_factors/code/reinforce_estimation|
sa400|COMPLETED|scavenger-gpu|2023-05-08T19:30:05|2023-05-08T19:33:34|00:03:29|dcc-vossenlab-gpu-04|1|6|30G||/hpc/group/dfe/sa400/research/temp/reinforce_factors/code/reinforce_estimation|
sa400|COMPLETED|scavenger-gpu|2023-05-08T19:30:07|2023-05-08T19:33:03|00:02:56|dcc-dhvi-gpu-02|1|6|30G||/hpc/group/dfe/sa400/research/temp/reinforce_factors/code/reinforce_estimation|
sa400|COMPLETED|scavenger-gpu|2023-05-08T19:30:14|2023-05-08T19:33:04|00:02:50|dcc-vossenlab-gpu-02|1|6|30G||/hpc/group/dfe/sa400/research/temp/reinforce_factors/code/reinforce_estimation|
sa400|COMPLETED|scavenger-gpu|2023-05-08T19:30:16|2023-05-08T19:33:45|00:03:29|dcc-youlab-gpu-26|1|6|30G||/hpc/group/dfe/sa400/research/temp/reinforce_factors/code/reinforce_estimation|
sa400|COMPLETED|scavenger-gpu|2023-05-08T19:30:19|2023-05-08T19:33:44|00:03:25|dcc-youlab-gpu-27|1|6|30G||/hpc/group/dfe/sa400/research/temp/reinforce_factors/code/reinforce_estimation|
sa400|COMPLETED|scavenger-gpu|2023-05-08T19:30:19|2023-05-08T19:33:15|00:02:56|dcc-youlab-gpu-38|1|6|30G||/hpc/group/dfe/sa400/research/temp/reinforce_factors/code/reinforce_estimation|
sa400|COMPLETED|scavenger-gpu|2023-05-08T19:30:29|2023-05-08T19:33:22|00:02:53|dcc-dhvi-gpu-08|1|6|30G||/hpc/group/dfe/sa400/research/temp/reinforce_factors/code/reinforce_estimation|
sa400|COMPLETED|scavenger-gpu|2023-05-08T19:30:32|2023-05-08T19:33:52|00:03:20|dcc-youlab-gpu-31|1|6|30G||/hpc/group/dfe/sa400/research/temp/reinforce_factors/code/reinforce_estimation|
sa400|COMPLETED|scavenger-gpu|2023-05-08T19:30:34|2023-05-08T19:33:54|00:03:20|dcc-youlab-gpu-32|1|6|30G||/hpc/group/dfe/sa400/research/temp/reinforce_factors/code/reinforce_estimation|
sa400|COMPLETED|scavenger-gpu|2023-05-08T19:30:43|2023-05-08T19:38:06|00:07:23|dcc-mainsahlab-gpu-03|1|6|30G||/hpc/group/dfe/sa400/research/temp/reinforce_factors/code/reinforce_estimation|
sa400|COMPLETED|scavenger-gpu|2023-05-08T19:30:46|2023-05-08T19:33:37|00:02:51|dcc-dhvi-gpu-05|1|6|30G||/hpc/group/dfe/sa400/research/temp/reinforce_factors/code/reinforce_estimation|
sa400|COMPLETED|scavenger-gpu|2023-05-08T19:30:53|2023-05-08T19:34:28|00:03:35|dcc-chsi-gpu-05|1|6|30G||/hpc/group/dfe/sa400/research/temp/reinforce_factors/code/reinforce_estimation|
sa400|COMPLETED|scavenger-gpu|2023-05-08T19:30:53|2023-05-08T19:33:44|00:02:51|dcc-dhvi-gpu-06|1|6|30G||/hpc/group/dfe/sa400/research/temp/reinforce_factors/code/reinforce_estimation|
sa400|COMPLETED|scavenger-gpu|2023-05-08T19:30:53|2023-05-08T19:38:14|00:07:21|dcc-mainsahlab-gpu-01|1|6|30G||/hpc/group/dfe/sa400/research/temp/reinforce_factors/code/reinforce_estimation|
sa400|COMPLETED|scavenger-gpu|2023-05-08T19:30:57|2023-05-08T19:38:28|00:07:31|dcc-mainsahlab-gpu-04|1|6|30G||/hpc/group/dfe/sa400/research/temp/reinforce_factors/code/reinforce_estimation|
sa400|COMPLETED|scavenger-gpu|2023-05-08T19:31:01|2023-05-08T19:34:01|00:03:00|dcc-dhvi-gpu-07|1|6|30G||/hpc/group/dfe/sa400/research/temp/reinforce_factors/code/reinforce_estimation|
sa400|COMPLETED|scavenger-gpu|2023-05-08T19:31:04|2023-05-08T19:34:06|00:03:02|dcc-pbenfeylab-gpu-03|1|6|30G||/hpc/group/dfe/sa400/research/temp/reinforce_factors/code/reinforce_estimation|
sa400|COMPLETED|scavenger-gpu|2023-05-08T19:31:04|2023-05-08T19:33:53|00:02:49|dcc-youlab-gpu-36|1|6|30G||/hpc/group/dfe/sa400/research/temp/reinforce_factors/code/reinforce_estimation|
sa400|COMPLETED|scavenger-gpu|2023-05-08T19:31:06|2023-05-08T19:34:09|00:03:03|dcc-youlab-gpu-41|1|6|30G||/hpc/group/dfe/sa400/research/temp/reinforce_factors/code/reinforce_estimation|
sa400|COMPLETED|scavenger-gpu|2023-05-08T19:31:12|2023-05-08T19:34:11|00:02:59|dcc-youlab-gpu-43|1|6|30G||/hpc/group/dfe/sa400/research/temp/reinforce_factors/code/reinforce_estimation|
sa400|COMPLETED|scavenger-gpu|2023-05-08T19:31:17|2023-05-08T19:34:54|00:03:37|dcc-chsi-gpu-06|1|6|30G||/hpc/group/dfe/sa400/research/temp/reinforce_factors/code/reinforce_estimation|
sa400|COMPLETED|scavenger-gpu|2023-05-08T19:31:17|2023-05-08T19:38:54|00:07:37|dcc-mainsahlab-gpu-02|1|6|30G||/hpc/group/dfe/sa400/research/temp/reinforce_factors/code/reinforce_estimation|
sa400|COMPLETED|scavenger-gpu|2023-05-08T19:31:21|2023-05-08T19:34:25|00:03:04|dcc-pbenfeylab-gpu-01|1|6|30G||/hpc/group/dfe/sa400/research/temp/reinforce_factors/code/reinforce_estimation|
sa400|COMPLETED|scavenger-gpu|2023-05-08T19:31:26|2023-05-08T19:35:10|00:03:44|dcc-chsi-gpu-02|1|6|30G||/hpc/group/dfe/sa400/research/temp/reinforce_factors/code/reinforce_estimation|
sa400|COMPLETED|scavenger-gpu|2023-05-08T19:31:29|2023-05-08T19:35:09|00:03:40|dcc-rekerlab-gpu-01|1|6|30G||/hpc/group/dfe/sa400/research/temp/reinforce_factors/code/reinforce_estimation|
sa400|COMPLETED|scavenger-gpu|2023-05-08T19:31:32|2023-05-08T19:34:32|00:03:00|dcc-vossenlab-gpu-01|1|6|30G||/hpc/group/dfe/sa400/research/temp/reinforce_factors/code/reinforce_estimation|
sa400|COMPLETED|scavenger-gpu|2023-05-08T19:31:35|2023-05-08T19:34:49|00:03:14|dcc-allenlab-gpu-04|1|6|30G||/hpc/group/dfe/sa400/research/temp/reinforce_factors/code/reinforce_estimation|
sa400|COMPLETED|scavenger-gpu|2023-05-08T19:31:40|2023-05-08T19:35:22|00:03:42|dcc-youlab-gpu-48|1|6|30G||/hpc/group/dfe/sa400/research/temp/reinforce_factors/code/reinforce_estimation|
sa400|COMPLETED|scavenger-gpu|2023-05-08T19:31:50|2023-05-08T19:35:35|00:03:45|dcc-chsi-gpu-01|1|6|30G||/hpc/group/dfe/sa400/research/temp/reinforce_factors/code/reinforce_estimation|
sa400|COMPLETED|scavenger-gpu|2023-05-08T19:31:50|2023-05-08T19:35:31|00:03:41|dcc-chsi-gpu-03|1|6|30G||/hpc/group/dfe/sa400/research/temp/reinforce_factors/code/reinforce_estimation|
sa400|COMPLETED|scavenger-gpu|2023-05-08T19:31:52|2023-05-08T19:35:34|00:03:42|dcc-chsi-gpu-04|1|6|30G||/hpc/group/dfe/sa400/research/temp/reinforce_factors/code/reinforce_estimation|
sa400|COMPLETED|scavenger-gpu|2023-05-08T19:31:55|2023-05-08T19:35:01|00:03:06|dcc-dhvi-gpu-03|1|6|30G||/hpc/group/dfe/sa400/research/temp/reinforce_factors/code/reinforce_estimation|
sa400|COMPLETED|scavenger-gpu|2023-05-08T19:32:07|2023-05-08T19:35:01|00:02:54|dcc-allenlab-gpu-01|1|6|30G||/hpc/group/dfe/sa400/research/temp/reinforce_factors/code/reinforce_estimation|
sa400|COMPLETED|scavenger-gpu|2023-05-08T19:32:10|2023-05-08T19:35:22|00:03:12|dcc-vossenlab-gpu-03|1|6|30G||/hpc/group/dfe/sa400/research/temp/reinforce_factors/code/reinforce_estimation|
sa400|COMPLETED|scavenger-gpu|2023-05-08T19:32:11|2023-05-08T19:35:05|00:02:54|dcc-youlab-gpu-42|1|6|30G||/hpc/group/dfe/sa400/research/temp/reinforce_factors/code/reinforce_estimation|
sa400|COMPLETED|scavenger-gpu|2023-05-08T19:32:11|2023-05-08T19:35:16|00:03:05|dcc-youlab-gpu-50|1|6|30G||/hpc/group/dfe/sa400/research/temp/reinforce_factors/code/reinforce_estimation|
sa400|COMPLETED|scavenger-gpu|2023-05-08T19:32:12|2023-05-08T19:35:19|00:03:07|dcc-youlab-gpu-34|1|6|30G||/hpc/group/dfe/sa400/research/temp/reinforce_factors/code/reinforce_estimation|
sa400|COMPLETED|scavenger-gpu|2023-05-08T19:32:17|2023-05-08T19:35:21|00:03:04|dcc-dhvi-gpu-01|1|6|30G||/hpc/group/dfe/sa400/research/temp/reinforce_factors/code/reinforce_estimation|
sa400|COMPLETED|scavenger-gpu|2023-05-08T19:32:20|2023-05-08T19:36:08|00:03:48|dcc-chsi-gpu-08|1|6|30G||/hpc/group/dfe/sa400/research/temp/reinforce_factors/code/reinforce_estimation|
sa400|COMPLETED|scavenger-gpu|2023-05-08T19:32:27|2023-05-08T19:35:51|00:03:24|dcc-allenlab-gpu-03|1|6|30G||/hpc/group/dfe/sa400/research/temp/reinforce_factors/code/reinforce_estimation|
sa400|COMPLETED|scavenger-gpu|2023-05-08T19:32:29|2023-05-08T19:36:19|00:03:50|dcc-chsi-gpu-07|1|6|30G||/hpc/group/dfe/sa400/research/temp/reinforce_factors/code/reinforce_estimation|
sa400|COMPLETED|scavenger-gpu|2023-05-08T19:32:32|2023-05-08T19:35:26|00:02:54|dcc-pbenfeylab-gpu-02|1|6|30G||/hpc/group/dfe/sa400/research/temp/reinforce_factors/code/reinforce_estimation|
sa400|COMPLETED|scavenger-gpu|2023-05-08T19:32:39|2023-05-08T19:35:36|00:02:57|dcc-youlab-gpu-35|1|6|30G||/hpc/group/dfe/sa400/research/temp/reinforce_factors/code/reinforce_estimation|
sa400|COMPLETED|scavenger-gpu|2023-05-08T19:32:42|2023-05-08T19:35:53|00:03:11|dcc-youlab-gpu-33|1|6|30G||/hpc/group/dfe/sa400/research/temp/reinforce_factors/code/reinforce_estimation|
sa400|COMPLETED|scavenger-gpu|2023-05-08T19:32:49|2023-05-08T19:35:49|00:03:00|dcc-youlab-gpu-37|1|6|30G||/hpc/group/dfe/sa400/research/temp/reinforce_factors/code/reinforce_estimation|
sa400|COMPLETED|scavenger-gpu|2023-05-08T19:32:53|2023-05-08T19:35:55|00:03:02|dcc-allenlab-gpu-02|1|6|30G||/hpc/group/dfe/sa400/research/temp/reinforce_factors/code/reinforce_estimation|
sa400|COMPLETED|scavenger-gpu|2023-05-08T19:32:56|2023-05-08T19:36:10|00:03:14|dcc-dhvi-gpu-04|1|6|30G||/hpc/group/dfe/sa400/research/temp/reinforce_factors/code/reinforce_estimation|
sa400|COMPLETED|scavenger-gpu|2023-05-08T19:33:05|2023-05-08T19:36:01|00:02:56|dcc-dhvi-gpu-02|1|6|30G||/hpc/group/dfe/sa400/research/temp/reinforce_factors/code/reinforce_estimation|
sa400|COMPLETED|scavenger-gpu|2023-05-08T19:33:05|2023-05-08T19:35:54|00:02:49|dcc-vossenlab-gpu-02|1|6|30G||/hpc/group/dfe/sa400/research/temp/reinforce_factors/code/reinforce_estimation|
sa400|COMPLETED|scavenger-gpu|2023-05-08T19:33:05|2023-05-08T19:35:57|00:02:52|dcc-youlab-gpu-39|1|6|30G||/hpc/group/dfe/sa400/research/temp/reinforce_factors/code/reinforce_estimation|
sa400|COMPLETED|scavenger-gpu|2023-05-08T19:33:17|2023-05-08T19:36:15|00:02:58|dcc-youlab-gpu-38|1|6|30G||/hpc/group/dfe/sa400/research/temp/reinforce_factors/code/reinforce_estimation|
sa400|COMPLETED|scavenger-gpu|2023-05-08T19:33:22|2023-05-08T19:36:08|00:02:46|dcc-dhvi-gpu-08|1|6|30G||/hpc/group/dfe/sa400/research/temp/reinforce_factors/code/reinforce_estimation|
sa400|COMPLETED|scavenger-gpu|2023-05-08T19:33:34|2023-05-08T19:36:42|00:03:08|dcc-vossenlab-gpu-04|1|6|30G||/hpc/group/dfe/sa400/research/temp/reinforce_factors/code/reinforce_estimation|
sa400|COMPLETED|scavenger-gpu|2023-05-08T19:33:37|2023-05-08T19:36:26|00:02:49|dcc-dhvi-gpu-05|1|6|30G||/hpc/group/dfe/sa400/research/temp/reinforce_factors/code/reinforce_estimation|
sa400|COMPLETED|scavenger-gpu|2023-05-08T19:33:44|2023-05-08T19:36:38|00:02:54|dcc-dhvi-gpu-06|1|6|30G||/hpc/group/dfe/sa400/research/temp/reinforce_factors/code/reinforce_estimation|
sa400|COMPLETED|scavenger-gpu|2023-05-08T19:33:47|2023-05-08T19:36:39|00:02:52|dcc-youlab-gpu-40|1|6|30G||/hpc/group/dfe/sa400/research/temp/reinforce_factors/code/reinforce_estimation|
sa400|COMPLETED|scavenger-gpu|2023-05-08T19:33:47|2023-05-08T19:37:11|00:03:24|dcc-youlab-gpu-26|1|6|30G||/hpc/group/dfe/sa400/research/temp/reinforce_factors/code/reinforce_estimation|
sa400|COMPLETED|scavenger-gpu|2023-05-08T19:33:52|2023-05-08T19:37:11|00:03:19|dcc-youlab-gpu-27|1|6|30G||/hpc/group/dfe/sa400/research/temp/reinforce_factors/code/reinforce_estimation|
sa400|COMPLETED|scavenger-gpu|2023-05-08T19:33:55|2023-05-08T19:36:34|00:02:39|dcc-youlab-gpu-36|1|6|30G||/hpc/group/dfe/sa400/research/temp/reinforce_factors/code/reinforce_estimation|
sa400|COMPLETED|scavenger-gpu|2023-05-08T19:33:55|2023-05-08T19:37:14|00:03:19|dcc-youlab-gpu-31|1|6|30G||/hpc/group/dfe/sa400/research/temp/reinforce_factors/code/reinforce_estimation|
sa400|COMPLETED|scavenger-gpu|2023-05-08T19:34:02|2023-05-08T19:36:50|00:02:48|dcc-dhvi-gpu-07|1|6|30G||/hpc/group/dfe/sa400/research/temp/reinforce_factors/code/reinforce_estimation|
sa400|COMPLETED|scavenger-gpu|2023-05-08T19:34:07|2023-05-08T19:36:53|00:02:46|dcc-pbenfeylab-gpu-03|1|6|30G||/hpc/group/dfe/sa400/research/temp/reinforce_factors/code/reinforce_estimation|
sa400|COMPLETED|scavenger-gpu|2023-05-08T19:34:09|2023-05-08T19:37:28|00:03:19|dcc-youlab-gpu-32|1|6|30G||/hpc/group/dfe/sa400/research/temp/reinforce_factors/code/reinforce_estimation|
sa400|COMPLETED|scavenger-gpu|2023-05-08T19:34:12|2023-05-08T19:37:02|00:02:50|dcc-youlab-gpu-41|1|6|30G||/hpc/group/dfe/sa400/research/temp/reinforce_factors/code/reinforce_estimation|
sa400|COMPLETED|scavenger-gpu|2023-05-08T19:34:27|2023-05-08T19:37:11|00:02:44|dcc-pbenfeylab-gpu-01|1|6|30G||/hpc/group/dfe/sa400/research/temp/reinforce_factors/code/reinforce_estimation|
sa400|COMPLETED|scavenger-gpu|2023-05-08T19:34:29|2023-05-08T19:37:50|00:03:21|dcc-chsi-gpu-05|1|6|30G||/hpc/group/dfe/sa400/research/temp/reinforce_factors/code/reinforce_estimation|
sa400|COMPLETED|scavenger-gpu|2023-05-08T19:34:32|2023-05-08T19:37:30|00:02:58|dcc-vossenlab-gpu-01|1|6|30G||/hpc/group/dfe/sa400/research/temp/reinforce_factors/code/reinforce_estimation|
sa400|COMPLETED|scavenger-gpu|2023-05-08T19:34:49|2023-05-08T19:37:54|00:03:05|dcc-allenlab-gpu-04|1|6|30G||/hpc/group/dfe/sa400/research/temp/reinforce_factors/code/reinforce_estimation|
sa400|COMPLETED|scavenger-gpu|2023-05-08T19:34:55|2023-05-08T19:34:59|00:00:04|dcc-chsi-gpu-06|1|6|30G||/hpc/group/dfe/sa400/research/temp/reinforce_factors/code/reinforce_estimation|
sa400|COMPLETED|scavenger-gpu|2023-05-08T19:35:00|2023-05-08T19:35:04|00:00:04|dcc-chsi-gpu-06|1|6|30G||/hpc/group/dfe/sa400/research/temp/reinforce_factors/code/reinforce_estimation|
sa400|COMPLETED|scavenger-gpu|2023-05-08T19:35:02|2023-05-08T19:35:08|00:00:06|dcc-allenlab-gpu-01|1|6|30G||/hpc/group/dfe/sa400/research/temp/reinforce_factors/code/reinforce_estimation|
sa400|COMPLETED|scavenger-gpu|2023-05-08T19:35:03|2023-05-08T19:35:08|00:00:05|dcc-dhvi-gpu-03|1|6|30G||/hpc/group/dfe/sa400/research/temp/reinforce_factors/code/reinforce_estimation|
sa400|COMPLETED|scavenger-gpu|2023-05-08T19:35:05|2023-05-08T19:35:09|00:00:04|dcc-chsi-gpu-06|1|6|30G||/hpc/group/dfe/sa400/research/temp/reinforce_factors/code/reinforce_estimation|
sa400|COMPLETED|scavenger-gpu|2023-05-08T19:35:07|2023-05-08T19:35:12|00:00:05|dcc-youlab-gpu-42|1|6|30G||/hpc/group/dfe/sa400/research/temp/reinforce_factors/code/reinforce_estimation|
sa400|COMPLETED|scavenger-gpu|2023-05-08T19:35:10|2023-05-08T19:35:14|00:00:04|dcc-allenlab-gpu-01|1|6|30G||/hpc/group/dfe/sa400/research/temp/reinforce_factors/code/reinforce_estimation|
sa400|COMPLETED|scavenger-gpu|2023-05-08T19:35:10|2023-05-08T19:35:14|00:00:04|dcc-chsi-gpu-06|1|6|30G||/hpc/group/dfe/sa400/research/temp/reinforce_factors/code/reinforce_estimation|
sa400|COMPLETED|scavenger-gpu|2023-05-08T19:35:10|2023-05-08T19:35:14|00:00:04|dcc-dhvi-gpu-03|1|6|30G||/hpc/group/dfe/sa400/research/temp/reinforce_factors/code/reinforce_estimation|
sa400|COMPLETED|scavenger-gpu|2023-05-08T19:35:10|2023-05-08T19:35:15|00:00:05|dcc-rekerlab-gpu-01|1|6|30G||/hpc/group/dfe/sa400/research/temp/reinforce_factors/code/reinforce_estimation|
sa400|COMPLETED|scavenger-gpu|2023-05-08T19:35:13|2023-05-08T19:35:18|00:00:05|dcc-chsi-gpu-02|1|6|30G||/hpc/group/dfe/sa400/research/temp/reinforce_factors/code/reinforce_estimation|
sa400|COMPLETED|scavenger-gpu|2023-05-08T19:35:13|2023-05-08T19:35:17|00:00:04|dcc-youlab-gpu-42|1|6|30G||/hpc/group/dfe/sa400/research/temp/reinforce_factors/code/reinforce_estimation|
sa400|COMPLETED|scavenger-gpu|2023-05-08T19:35:15|2023-05-08T19:35:19|00:00:04|dcc-allenlab-gpu-01|1|6|30G||/hpc/group/dfe/sa400/research/temp/reinforce_factors/code/reinforce_estimation|
sa400|COMPLETED|scavenger-gpu|2023-05-08T19:35:15|2023-05-08T19:35:19|00:00:04|dcc-chsi-gpu-06|1|6|30G||/hpc/group/dfe/sa400/research/temp/reinforce_factors/code/reinforce_estimation|
sa400|COMPLETED|scavenger-gpu|2023-05-08T19:35:15|2023-05-08T19:35:19|00:00:04|dcc-dhvi-gpu-03|1|6|30G||/hpc/group/dfe/sa400/research/temp/reinforce_factors/code/reinforce_estimation|
sa400|COMPLETED|scavenger-gpu|2023-05-08T19:35:16|2023-05-08T19:35:20|00:00:04|dcc-youlab-gpu-43|1|6|30G||/hpc/group/dfe/sa400/research/temp/reinforce_factors/code/reinforce_estimation|
sa400|COMPLETED|scavenger-gpu|2023-05-08T19:35:18|2023-05-08T19:35:22|00:00:04|dcc-chsi-gpu-02|1|6|30G||/hpc/group/dfe/sa400/research/temp/reinforce_factors/code/reinforce_estimation|
sa400|COMPLETED|scavenger-gpu|2023-05-08T19:35:18|2023-05-08T19:35:22|00:00:04|dcc-rekerlab-gpu-01|1|6|30G||/hpc/group/dfe/sa400/research/temp/reinforce_factors/code/reinforce_estimation|
sa400|COMPLETED|scavenger-gpu|2023-05-08T19:35:18|2023-05-08T19:35:22|00:00:04|dcc-youlab-gpu-42|1|6|30G||/hpc/group/dfe/sa400/research/temp/reinforce_factors/code/reinforce_estimation|
sa400|COMPLETED|scavenger-gpu|2023-05-08T19:35:21|2023-05-08T19:35:25|00:00:04|dcc-allenlab-gpu-01|1|6|30G||/hpc/group/dfe/sa400/research/temp/reinforce_factors/code/reinforce_estimation|
sa400|COMPLETED|scavenger-gpu|2023-05-08T19:35:21|2023-05-08T19:35:25|00:00:04|dcc-chsi-gpu-06|1|6|30G||/hpc/group/dfe/sa400/research/temp/reinforce_factors/code/reinforce_estimation|
sa400|COMPLETED|scavenger-gpu|2023-05-08T19:35:21|2023-05-08T19:35:25|00:00:04|dcc-dhvi-gpu-03|1|6|30G||/hpc/group/dfe/sa400/research/temp/reinforce_factors/code/reinforce_estimation|
sa400|COMPLETED|scavenger-gpu|2023-05-08T19:35:21|2023-05-08T19:35:26|00:00:05|dcc-youlab-gpu-34|1|6|30G||/hpc/group/dfe/sa400/research/temp/reinforce_factors/code/reinforce_estimation|
aam131|PREEMPTED|scavenger-gpu|2023-05-08T19:30:16|2023-05-08T20:11:00|00:40:44|dcc-fanglab-gpu-01|1|40|80G||/hpc/home/aam131/ondemand/data/sys/dashboard/batch_connect/sys/bc_rstudio_singularity/output/b3d382ae-5f17-44fd-8b48-b898b6b7b88e|
aam131|TIMEOUT|scavenger-gpu|2023-05-08T19:29:36|2023-05-09T00:29:36|05:00:00|dcc-youlab-gpu-01|1|40|80G||/hpc/home/aam131/ondemand/data/sys/dashboard/batch_connect/sys/bc_rstudio_singularity/output/c8eca985-c9d6-4a91-98d2-9a1317159185|
