yw564|FAILED|scavenger-gpu|2023-05-13T11:32:34|2023-05-18T03:15:49|4-15:43:15|dcc-mastatlab-gpu-01|1|2|50G||/hpc/group/jilab|
kl371|TIMEOUT|scavenger-gpu|2023-05-13T17:39:32|2023-05-16T17:39:58|3-00:00:26|dcc-youlab-gpu-23|1|8|64G||/hpc/home/kl371/ondemand/data/sys/dashboard/batch_connect/sys/bc_jupyter/output/7d7e470b-5711-4523-9bcf-90a7a1462c7b|
lh342|PREEMPTED|scavenger-gpu|2023-05-15T13:49:29|2023-05-16T19:17:58|1-05:28:29|dcc-youlab-gpu-06|1|10|24G||/hpc/home/lh342/MMVAE|
lh342|PREEMPTED|scavenger-gpu|2023-05-15T13:52:14|2023-05-16T19:18:09|1-05:25:55|dcc-youlab-gpu-17|1|10|24G||/hpc/home/lh342/MMVAE|
kw297|PREEMPTED|scavenger-gpu|2023-05-15T14:19:51|2023-05-17T13:49:35|1-23:29:44|dcc-allenlab-gpu-01|1|4|20G||/hpc/group/ychenlab/DA|
yw564|FAILED|scavenger-gpu|2023-05-15T14:43:02|2023-05-18T03:15:50|2-12:32:48|dcc-mastatlab-gpu-01|1|2|50G||/hpc/group/jilab|
yw564|FAILED|scavenger-gpu|2023-05-15T15:37:58|2023-05-18T03:15:50|2-11:37:52|dcc-tdunn-gpu-02|1|2|50G||/hpc/group/jilab|
vk93|TIMEOUT|scavenger-gpu|2023-05-15T16:11:33|2023-05-22T16:11:51|7-00:00:18|dcc-dsplus-gpu-02|1|40|350109M||/hpc/home/vk93/ondemand/data/sys/dashboard/batch_connect/sys/bc_jupyter/output/23d4d6a9-4d03-429b-b1e0-2247cea267b4|
yl407|TIMEOUT|scavenger-gpu|2023-05-15T16:43:38|2023-05-17T16:43:59|2-00:00:21|dcc-youlab-gpu-01|1|2|150G||/hpc/home/yl407/ondemand/data/sys/dashboard/batch_connect/sys/bc_jupyter/output/b10f5cef-69cb-443a-9296-6b6825e991d1|
yl407|CANCELLED by 1099244|scavenger-gpu|2023-05-15T17:28:36|2023-05-17T17:07:18|1-23:38:42|dcc-tdunn-gpu-01|1|2|160G||/hpc/home/yl407/ondemand/data/sys/dashboard/batch_connect/sys/bc_jupyter/output/bba069dd-0809-412a-9c2c-72df0a8129eb|
lh342|PREEMPTED|scavenger-gpu|2023-05-15T18:24:33|2023-05-16T19:18:11|1-00:53:38|dcc-youlab-gpu-29|1|10|24G||/hpc/home/lh342/MMVAE|
lh342|FAILED|scavenger-gpu|2023-05-15T18:33:35|2023-05-16T19:21:08|1-00:47:33|dcc-youlab-gpu-35|1|10|24G||/hpc/home/lh342/MMVAE|
lh342|FAILED|scavenger-gpu|2023-05-15T18:38:34|2023-05-16T19:51:38|1-01:13:04|dcc-youlab-gpu-38|1|10|24G||/hpc/home/lh342/MMVAE|
lh342|FAILED|scavenger-gpu|2023-05-15T18:40:15|2023-05-16T20:05:51|1-01:25:36|dcc-youlab-gpu-53|1|10|24G||/hpc/home/lh342/MMVAE|
lh342|PREEMPTED|scavenger-gpu|2023-05-15T18:42:31|2023-05-16T21:10:28|1-02:27:57|dcc-youlab-gpu-56|1|10|24G||/hpc/home/lh342/MMVAE|
cem125|PREEMPTED|scavenger-gpu|2023-05-16T09:59:10|2023-05-16T21:10:33|11:11:23|dcc-youlab-gpu-39|1|10|50G||/hpc/group/rekerlab/cem125/OpenNMT-py|
cem125|PREEMPTED|scavenger-gpu|2023-05-16T10:00:11|2023-05-16T21:10:38|11:10:27|dcc-youlab-gpu-26|1|10|50G||/hpc/group/rekerlab/cem125/OpenNMT-py|
cem125|PREEMPTED|scavenger-gpu|2023-05-16T10:02:13|2023-05-16T21:10:41|11:08:28|dcc-youlab-gpu-25|1|10|50G||/hpc/group/rekerlab/cem125/OpenNMT-py|
cem125|PREEMPTED|scavenger-gpu|2023-05-16T10:02:43|2023-05-16T21:10:43|11:08:00|dcc-youlab-gpu-24|1|10|50G||/hpc/group/rekerlab/cem125/OpenNMT-py|
cem125|PREEMPTED|scavenger-gpu|2023-05-16T10:03:14|2023-05-16T21:10:45|11:07:31|dcc-youlab-gpu-27|1|10|50G||/hpc/group/rekerlab/cem125/OpenNMT-py|
cem125|PREEMPTED|scavenger-gpu|2023-05-16T10:03:44|2023-05-16T21:10:48|11:07:04|dcc-youlab-gpu-22|1|10|50G||/hpc/group/rekerlab/cem125/OpenNMT-py|
yx240|COMPLETED|scavenger-gpu|2023-05-16T10:14:22|2023-05-16T11:21:22|01:07:00|dcc-youlab-gpu-57|1|10|2G||/work/yx240/project-martini/new/simutools/scripts|
cem125|FAILED|scavenger-gpu|2023-05-16T10:31:37|2023-05-16T13:27:00|02:55:23|dcc-youlab-gpu-55|1|10|50G||/hpc/group/rekerlab/cem125/OpenNMT-py|
cem125|FAILED|scavenger-gpu|2023-05-16T10:31:37|2023-05-16T14:05:28|03:33:51|dcc-youlab-gpu-54|1|10|50G||/hpc/group/rekerlab/cem125/OpenNMT-py|
cem125|FAILED|scavenger-gpu|2023-05-16T10:31:37|2023-05-16T15:13:50|04:42:13|dcc-youlab-gpu-40|1|10|50G||/hpc/group/rekerlab/cem125/OpenNMT-py|
cem125|FAILED|scavenger-gpu|2023-05-16T10:31:37|2023-05-16T14:20:00|03:48:23|dcc-youlab-gpu-36|1|10|50G||/hpc/group/rekerlab/cem125/OpenNMT-py|
cem125|FAILED|scavenger-gpu|2023-05-16T10:32:07|2023-05-16T13:37:17|03:05:10|dcc-youlab-gpu-34|1|10|50G||/hpc/group/rekerlab/cem125/OpenNMT-py|
cem125|FAILED|scavenger-gpu|2023-05-16T10:32:07|2023-05-16T15:50:48|05:18:41|dcc-youlab-gpu-33|1|10|50G||/hpc/group/rekerlab/cem125/OpenNMT-py|
cem125|FAILED|scavenger-gpu|2023-05-16T10:32:07|2023-05-16T15:33:39|05:01:32|dcc-youlab-gpu-32|1|10|50G||/hpc/group/rekerlab/cem125/OpenNMT-py|
cem125|FAILED|scavenger-gpu|2023-05-16T10:32:07|2023-05-16T16:49:40|06:17:33|dcc-youlab-gpu-31|1|10|50G||/hpc/group/rekerlab/cem125/OpenNMT-py|
cem125|FAILED|scavenger-gpu|2023-05-16T10:32:07|2023-05-16T15:00:18|04:28:11|dcc-youlab-gpu-28|1|10|50G||/hpc/group/rekerlab/cem125/OpenNMT-py|
cem125|FAILED|scavenger-gpu|2023-05-16T10:32:38|2023-05-16T14:19:30|03:46:52|dcc-youlab-gpu-20|1|10|50G||/hpc/group/rekerlab/cem125/OpenNMT-py|
cem125|FAILED|scavenger-gpu|2023-05-16T10:32:38|2023-05-16T14:34:07|04:01:29|dcc-youlab-gpu-18|1|10|50G||/hpc/group/rekerlab/cem125/OpenNMT-py|
cem125|FAILED|scavenger-gpu|2023-05-16T10:32:38|2023-05-16T14:24:36|03:51:58|dcc-youlab-gpu-16|1|10|50G||/hpc/group/rekerlab/cem125/OpenNMT-py|
yx240|COMPLETED|scavenger-gpu|2023-05-16T10:40:13|2023-05-16T12:05:59|01:25:46|dcc-youlab-gpu-12|1|10|2G||/work/yx240/project-martini/new/simutools/scripts|
lh342|CANCELLED by 1397954|scavenger-gpu|2023-05-16T10:45:19|2023-05-16T16:10:50|05:25:31|dcc-motesa-gpu-02|1|6|16G||/hpc/home/lh342/MMVAE|
pkk16|TIMEOUT|scavenger-gpu|2023-05-16T10:52:32|2023-05-17T10:52:52|1-00:00:20|dcc-mastatlab-gpu-01|1|2|20G||/hpc/home/pkk16/ondemand/data/sys/dashboard/batch_connect/sys/bc_jupyter/output/43a37364-bacd-4992-bb0a-9816c17c3509|
zcb2|FAILED|scavenger-gpu|2023-05-16T10:59:53|2023-05-16T11:00:42|00:00:49|dcc-vossenlab-gpu-04|1|1|2G||/hpc/home/zcb2/causal-inference-for-neurological-data/baselines/neural-gc/experiments|
zcb2|FAILED|scavenger-gpu|2023-05-16T11:02:53|2023-05-16T11:02:55|00:00:02|dcc-vossenlab-gpu-04|1|1|2G||/hpc/home/zcb2/causal-inference-for-neurological-data/baselines/neural-gc/experiments|
zcb2|FAILED|scavenger-gpu|2023-05-16T11:03:28|2023-05-16T11:03:30|00:00:02|dcc-vossenlab-gpu-04|1|1|2G||/hpc/home/zcb2/causal-inference-for-neurological-data/baselines/neural-gc/experiments|
zcb2|FAILED|scavenger-gpu|2023-05-16T11:04:22|2023-05-16T11:04:30|00:00:08|dcc-vossenlab-gpu-04|1|1|2G||/hpc/home/zcb2/causal-inference-for-neurological-data/baselines/neural-gc/experiments|
yl708|COMPLETED|scavenger-gpu|2023-05-16T11:10:05|2023-05-16T11:10:18|00:00:13|dcc-youlab-gpu-37|1|10|2G||/hpc/group/donald/yl708|
zcb2|FAILED|scavenger-gpu|2023-05-16T11:21:20|2023-05-16T11:21:28|00:00:08|dcc-vossenlab-gpu-04|1|1|2G||/hpc/home/zcb2/causal-inference-for-neurological-data/baselines/neural-gc/experiments|
zcb2|FAILED|scavenger-gpu|2023-05-16T11:21:42|2023-05-16T11:21:48|00:00:06|dcc-vossenlab-gpu-04|1|1|2G||/hpc/home/zcb2/causal-inference-for-neurological-data/baselines/neural-gc/experiments|
lh342|FAILED|scavenger-gpu|2023-05-16T11:23:13|2023-05-16T11:26:18|00:03:05|dcc-youlab-gpu-30|1|10|24G||/hpc/home/lh342/MMVAE|
zcb2|FAILED|scavenger-gpu|2023-05-16T11:24:27|2023-05-16T11:24:33|00:00:06|dcc-vossenlab-gpu-04|1|1|2G||/hpc/home/zcb2/causal-inference-for-neurological-data/baselines/neural-gc/experiments|
zcb2|FAILED|scavenger-gpu|2023-05-16T11:25:01|2023-05-16T11:25:07|00:00:06|dcc-vossenlab-gpu-04|1|1|2G||/hpc/home/zcb2/causal-inference-for-neurological-data/baselines/neural-gc/experiments|
zcb2|FAILED|scavenger-gpu|2023-05-16T11:25:49|2023-05-16T11:25:56|00:00:07|dcc-vossenlab-gpu-04|1|1|2G||/hpc/home/zcb2/causal-inference-for-neurological-data/baselines/neural-gc/experiments|
zcb2|OUT_OF_MEMORY|scavenger-gpu|2023-05-16T11:26:51|2023-05-16T11:27:54|00:01:03|dcc-vossenlab-gpu-04|1|1|2G||/hpc/home/zcb2/causal-inference-for-neurological-data/baselines/neural-gc/experiments|
zcb2|OUT_OF_MEMORY|scavenger-gpu|2023-05-16T11:29:33|2023-05-16T11:29:46|00:00:13|dcc-vossenlab-gpu-04|1|1|2G||/hpc/home/zcb2/causal-inference-for-neurological-data/baselines/neural-gc/experiments|
zcb2|OUT_OF_MEMORY|scavenger-gpu|2023-05-16T11:30:53|2023-05-16T11:31:10|00:00:17|dcc-viplab-gpu-01|1|1|2G||/hpc/home/zcb2/causal-inference-for-neurological-data/baselines/neural-gc/experiments|
lh342|FAILED|scavenger-gpu|2023-05-16T11:32:16|2023-05-16T21:07:38|09:35:22|dcc-youlab-gpu-30|1|10|24G||/hpc/home/lh342/MMVAE|
zcb2|FAILED|scavenger-gpu|2023-05-16T11:32:48|2023-05-16T11:32:59|00:00:11|dcc-ultrasound-gpu-03|1|1|2G||/hpc/home/zcb2/causal-inference-for-neurological-data/baselines/neural-gc/experiments|
zcb2|OUT_OF_MEMORY|scavenger-gpu|2023-05-16T11:35:28|2023-05-16T11:35:56|00:00:28|dcc-ultrasound-gpu-03|1|1|2G||/hpc/home/zcb2/causal-inference-for-neurological-data/baselines/neural-gc/experiments|
zcb2|OUT_OF_MEMORY|scavenger-gpu|2023-05-16T11:37:19|2023-05-16T11:37:31|00:00:12|dcc-tdunn-gpu-02|1|1|2G||/hpc/home/zcb2/causal-inference-for-neurological-data/baselines/neural-gc/experiments|
zcb2|OUT_OF_MEMORY|scavenger-gpu|2023-05-16T11:38:14|2023-05-16T11:38:25|00:00:11|dcc-vossenlab-gpu-04|1|1|2G||/hpc/home/zcb2/causal-inference-for-neurological-data/baselines/neural-gc/experiments|
zcb2|OUT_OF_MEMORY|scavenger-gpu|2023-05-16T11:48:32|2023-05-16T11:48:43|00:00:11|dcc-vossenlab-gpu-04|1|1|2G||/hpc/home/zcb2/causal-inference-for-neurological-data/baselines/neural-gc/experiments|
mjv22|COMPLETED|scavenger-gpu|2023-05-16T11:49:42|2023-05-16T16:39:58|04:50:16|dcc-ultrasound-gpu-03|1|19|160G||/hpc/home/mjv22/q_sim|
as1296|TIMEOUT|scavenger-gpu|2023-05-16T11:52:29|2023-05-16T19:52:52|08:00:23|dcc-youlab-gpu-37|1|10|60000M||/hpc/group/tdunn/tdunn_megatrain/pdb_29Jun21_megatrain/videos/2021_03_31/PDb1_R1_1|
zcb2|OUT_OF_MEMORY|scavenger-gpu|2023-05-16T11:59:40|2023-05-16T12:00:39|00:00:59|dcc-vossenlab-gpu-04|1|1|2G||/hpc/home/zcb2/causal-inference-for-neurological-data/baselines/neural-gc/experiments|
