yk206|TIMEOUT|scavenger-gpu|2023-05-07T13:08:05|2023-05-14T13:08:33|7-00:00:28|dcc-motesa-gpu-04|1|6|12G||/hpc/home/yk206/script|
yk206|TIMEOUT|scavenger-gpu|2023-05-07T13:08:05|2023-05-14T13:08:33|7-00:00:28|dcc-motesa-gpu-01|1|6|12G||/hpc/home/yk206/script|
kl371|TIMEOUT|scavenger-gpu|2023-05-11T08:46:08|2023-05-14T08:46:37|3-00:00:29|dcc-mastatlab-gpu-01|1|8|64G||/hpc/home/kl371/ondemand/data/sys/dashboard/batch_connect/sys/bc_jupyter/output/2e3a3297-9e34-42a2-9e28-1bf9489d2508|
vk93|PREEMPTED|scavenger-gpu|2023-05-12T02:23:43|2023-05-15T16:09:27|3-13:45:44|dcc-tdunn-gpu-01|1|40|350109M||/hpc/home/vk93/ondemand/data/sys/dashboard/batch_connect/sys/bc_jupyter/output/23d4d6a9-4d03-429b-b1e0-2247cea267b4|
lh342|CANCELLED by 1397954|scavenger-gpu|2023-05-12T12:21:56|2023-05-15T13:48:49|3-01:26:53|dcc-youlab-gpu-26|1|10|24G||/hpc/home/lh342/MMVAE|
kw297|TIMEOUT|scavenger-gpu|2023-05-12T12:24:36|2023-05-15T12:24:48|3-00:00:12|dcc-motesa-gpu-03|1|4|20G||/hpc/group/ychenlab/DA|
cem125|COMPLETED|scavenger-gpu|2023-05-12T17:37:03|2023-05-15T00:46:42|2-07:09:39|dcc-youlab-gpu-56|1|10|50G||/hpc/group/rekerlab/cem125/OpenNMT-py|
cem125|COMPLETED|scavenger-gpu|2023-05-12T17:37:03|2023-05-14T18:04:08|2-00:27:05|dcc-youlab-gpu-55|1|10|50G||/hpc/group/rekerlab/cem125/OpenNMT-py|
cem125|COMPLETED|scavenger-gpu|2023-05-12T17:37:09|2023-05-15T04:45:47|2-11:08:38|dcc-youlab-gpu-54|1|10|50G||/hpc/group/rekerlab/cem125/OpenNMT-py|
cem125|COMPLETED|scavenger-gpu|2023-05-12T17:37:16|2023-05-14T03:35:21|1-09:58:05|dcc-youlab-gpu-53|1|10|50G||/hpc/group/rekerlab/cem125/OpenNMT-py|
yx240|COMPLETED|scavenger-gpu|2023-05-12T22:20:10|2023-05-15T07:22:33|2-09:02:23|dcc-youlab-gpu-32|1|10|2G||/work/yx240/project-martini/simutools/scripts|
yx240|COMPLETED|scavenger-gpu|2023-05-12T22:20:10|2023-05-14T10:14:23|1-11:54:13|dcc-youlab-gpu-29|1|10|2G||/work/yx240/project-martini/simutools/scripts|
yx240|COMPLETED|scavenger-gpu|2023-05-12T22:30:44|2023-05-14T09:28:51|1-10:58:07|dcc-youlab-gpu-35|1|10|2G||/work/yx240/project-martini/simutools/scripts|
yx240|COMPLETED|scavenger-gpu|2023-05-13T10:27:47|2023-05-14T08:57:21|22:29:34|dcc-youlab-gpu-28|1|10|2G||/work/yx240/project-martini/simutools/scripts|
yx240|COMPLETED|scavenger-gpu|2023-05-13T10:27:47|2023-05-14T10:02:10|23:34:23|dcc-youlab-gpu-27|1|10|2G||/work/yx240/project-martini/simutools/scripts|
yx240|COMPLETED|scavenger-gpu|2023-05-13T10:27:47|2023-05-14T19:33:49|1-09:06:02|dcc-youlab-gpu-25|1|10|2G||/work/yx240/project-martini/simutools/scripts|
yx240|COMPLETED|scavenger-gpu|2023-05-13T10:27:49|2023-05-14T07:48:05|21:20:16|dcc-youlab-gpu-24|1|10|2G||/work/yx240/project-martini/simutools/scripts|
yx240|COMPLETED|scavenger-gpu|2023-05-13T10:27:49|2023-05-14T10:19:20|23:51:31|dcc-youlab-gpu-20|1|10|2G||/work/yx240/project-martini/simutools/scripts|
yx240|COMPLETED|scavenger-gpu|2023-05-13T10:27:49|2023-05-15T23:30:50|2-13:03:01|dcc-youlab-gpu-18|1|10|2G||/work/yx240/project-martini/simutools/scripts|
yx240|COMPLETED|scavenger-gpu|2023-05-13T10:27:49|2023-05-14T13:32:52|1-03:05:03|dcc-youlab-gpu-17|1|10|2G||/work/yx240/project-martini/simutools/scripts|
yx240|COMPLETED|scavenger-gpu|2023-05-13T10:27:49|2023-05-14T16:53:08|1-06:25:19|dcc-youlab-gpu-16|1|10|2G||/work/yx240/project-martini/simutools/scripts|
yx240|COMPLETED|scavenger-gpu|2023-05-13T10:27:49|2023-05-15T03:38:27|1-17:10:38|dcc-youlab-gpu-15|1|10|2G||/work/yx240/project-martini/simutools/scripts|
yx240|COMPLETED|scavenger-gpu|2023-05-13T10:31:43|2023-05-15T00:23:57|1-13:52:14|dcc-youlab-gpu-57|1|10|2G||/work/yx240/project-martini/simutools/scripts|
jrl78|COMPLETED|scavenger-gpu|2023-05-13T10:44:37|2023-05-14T02:41:41|15:57:04|dcc-youlab-gpu-22|1|10|5G||/work/jrl78/Nanoparticles/JawBreakers/Big Library/run2|
jrl78|COMPLETED|scavenger-gpu|2023-05-13T10:44:43|2023-05-14T03:09:04|16:24:21|dcc-youlab-gpu-14|1|10|5G||/work/jrl78/Nanoparticles/JawBreakers/Big Library/run2|
jrl78|COMPLETED|scavenger-gpu|2023-05-13T10:44:51|2023-05-14T06:45:49|20:00:58|dcc-youlab-gpu-13|1|10|5G||/work/jrl78/Nanoparticles/JawBreakers/Big Library/run2|
jrl78|COMPLETED|scavenger-gpu|2023-05-13T10:44:55|2023-05-14T03:10:15|16:25:20|dcc-youlab-gpu-12|1|10|5G||/work/jrl78/Nanoparticles/JawBreakers/Big Library/run2|
jrl78|COMPLETED|scavenger-gpu|2023-05-13T10:44:59|2023-05-14T02:31:12|15:46:13|dcc-youlab-gpu-11|1|10|5G||/work/jrl78/Nanoparticles/JawBreakers/Big Library/run2|
jrl78|COMPLETED|scavenger-gpu|2023-05-13T10:45:18|2023-05-14T11:00:08|1-00:14:50|dcc-youlab-gpu-10|1|10|5G||/work/jrl78/Nanoparticles/JawBreakers/Big Library/run2|
jrl78|COMPLETED|scavenger-gpu|2023-05-13T10:48:13|2023-05-14T09:00:20|22:12:07|dcc-youlab-gpu-09|1|10|5G||/work/jrl78/Nanoparticles/JawBreakers/Big Library/run2|
jrl78|COMPLETED|scavenger-gpu|2023-05-13T10:48:18|2023-05-14T10:22:17|23:33:59|dcc-youlab-gpu-08|1|10|5G||/work/jrl78/Nanoparticles/JawBreakers/Big Library/run2|
jrl78|COMPLETED|scavenger-gpu|2023-05-13T10:48:21|2023-05-14T12:07:14|1-01:18:53|dcc-youlab-gpu-07|1|10|5G||/work/jrl78/Nanoparticles/JawBreakers/Big Library/run2|
yx240|COMPLETED|scavenger-gpu|2023-05-13T11:22:51|2023-05-15T04:03:37|1-16:40:46|dcc-youlab-gpu-06|1|10|2G||/work/yx240/project-martini/simutools/scripts|
yw564|FAILED|scavenger-gpu|2023-05-13T11:32:34|2023-05-18T03:15:49|4-15:43:15|dcc-mastatlab-gpu-01|1|2|50G||/hpc/group/jilab|
mk423|CANCELLED by 1192605|scavenger-gpu|2023-05-13T11:54:57|2023-05-16T10:46:28|2-22:51:31|dcc-biostat-gpu-01|1|12|80G||/hpc/home/mk423/Anxiety/FullDataWork/Code/Training/MultiTask|
mk423|CANCELLED by 1192605|scavenger-gpu|2023-05-13T11:54:57|2023-05-16T10:46:28|2-22:51:31|dcc-mastatlab-gpu-01|1|12|80G||/hpc/home/mk423/Anxiety/FullDataWork/Code/Training/MultiTask|
mk423|CANCELLED by 1192605|scavenger-gpu|2023-05-13T11:54:57|2023-05-16T10:46:28|2-22:51:31|dcc-ultrasound-gpu-03|1|12|80G||/hpc/home/mk423/Anxiety/FullDataWork/Code/Training/MultiTask|
mk423|CANCELLED by 1192605|scavenger-gpu|2023-05-13T11:54:58|2023-05-16T10:46:28|2-22:51:30|dcc-tdunn-gpu-02|1|12|80G||/hpc/home/mk423/Anxiety/FullDataWork/Code/Training/MultiTask|
mk423|CANCELLED by 1192605|scavenger-gpu|2023-05-13T11:54:58|2023-05-16T10:46:28|2-22:51:30|dcc-youlab-gpu-01|1|12|80G||/hpc/home/mk423/Anxiety/FullDataWork/Code/Training/MultiTask|
mk423|CANCELLED by 1192605|scavenger-gpu|2023-05-13T11:54:58|2023-05-16T10:46:28|2-22:51:30|dcc-youlab-gpu-01|1|12|80G||/hpc/home/mk423/Anxiety/FullDataWork/Code/Training/MultiTask|
mk423|CANCELLED by 1192605|scavenger-gpu|2023-05-13T11:54:58|2023-05-16T10:46:28|2-22:51:30|dcc-collinslab-gpu-01|1|12|80G||/hpc/home/mk423/Anxiety/FullDataWork/Code/Training/MultiTask|
mk423|CANCELLED by 1192605|scavenger-gpu|2023-05-13T11:54:58|2023-05-16T10:46:28|2-22:51:30|dcc-collinslab-gpu-02|1|12|80G||/hpc/home/mk423/Anxiety/FullDataWork/Code/Training/MultiTask|
mk423|CANCELLED by 1192605|scavenger-gpu|2023-05-13T14:49:28|2023-05-16T10:46:28|2-19:57:00|dcc-biostat-gpu-02|1|12|80G||/hpc/home/mk423/Anxiety/FullDataWork/Code/Training/MultiTask|
mk423|CANCELLED by 1192605|scavenger-gpu|2023-05-13T14:54:31|2023-05-16T10:46:28|2-19:51:57|dcc-brunellab-gpu-04|1|12|80G||/hpc/home/mk423/Anxiety/FullDataWork/Code/Training/MultiTask|
mk423|CANCELLED by 1192605|scavenger-gpu|2023-05-13T16:33:18|2023-05-16T10:46:28|2-18:13:10|dcc-youlab-gpu-01|1|12|80G||/hpc/home/mk423/Anxiety/FullDataWork/Code/Training/MultiTask|
mk423|CANCELLED by 1192605|scavenger-gpu|2023-05-13T18:17:21|2023-05-16T10:46:28|2-16:29:07|dcc-ultrasound-gpu-02|1|12|80G||/hpc/home/mk423/Anxiety/FullDataWork/Code/Training/MultiTask|
mk423|CANCELLED by 1192605|scavenger-gpu|2023-05-13T19:29:08|2023-05-16T10:46:28|2-15:17:20|dcc-carlsonlab-gpu-13|1|12|80G||/hpc/home/mk423/Anxiety/FullDataWork/Code/Training/MultiTask|
mk423|CANCELLED by 1192605|scavenger-gpu|2023-05-13T21:10:45|2023-05-16T10:46:28|2-13:35:43|dcc-mastatlab-gpu-01|1|12|80G||/hpc/home/mk423/Anxiety/FullDataWork/Code/Training/MultiTask|
mk423|CANCELLED by 1192605|scavenger-gpu|2023-05-13T21:25:36|2023-05-16T10:46:28|2-13:20:52|dcc-tdunn-gpu-02|1|12|80G||/hpc/home/mk423/Anxiety/FullDataWork/Code/Training/MultiTask|
mk423|PREEMPTED|scavenger-gpu|2023-05-13T22:03:18|2023-05-15T09:55:28|1-11:52:10|dcc-brownlab-gpu-01|1|12|80G||/hpc/home/mk423/Anxiety/FullDataWork/Code/Training/MultiTask|
mk423|CANCELLED by 1192605|scavenger-gpu|2023-05-14T00:09:06|2023-05-16T10:46:28|2-10:37:22|dcc-carlsonlab-gpu-12|1|12|80G||/hpc/home/mk423/Anxiety/FullDataWork/Code/Training/MultiTask|
mk423|PREEMPTED|scavenger-gpu|2023-05-14T01:52:11|2023-05-15T09:55:28|1-08:03:17|dcc-brownlab-gpu-02|1|12|80G||/hpc/home/mk423/Anxiety/FullDataWork/Code/Training/MultiTask|
mk423|CANCELLED by 1192605|scavenger-gpu|2023-05-15T09:55:37|2023-05-16T10:46:28|1-00:50:51|dcc-brunellab-gpu-01|1|12|80G||/hpc/home/mk423/Anxiety/FullDataWork/Code/Training/MultiTask|
mk423|CANCELLED by 1192605|scavenger-gpu|2023-05-15T09:55:38|2023-05-16T10:46:28|1-00:50:50|dcc-carlsonlab-gpu-01|1|12|80G||/hpc/home/mk423/Anxiety/FullDataWork/Code/Training/MultiTask|
mk423|CANCELLED by 1192605|scavenger-gpu|None|2023-05-16T10:46:28|00:00:00|None assigned|1|12|80G||/hpc/home/mk423/Anxiety/FullDataWork/Code/Training/MultiTask|
zj63|PREEMPTED|scavenger-gpu|2023-05-13T13:35:17|2023-05-15T16:34:23|2-02:59:06|dcc-tdunn-gpu-02|1|2|64G||/work/zj63/Mediation_analysis/IMAVAE/experiments/TST_data|
kl371|TIMEOUT|scavenger-gpu|2023-05-13T17:39:32|2023-05-16T17:39:58|3-00:00:26|dcc-youlab-gpu-23|1|8|64G||/hpc/home/kl371/ondemand/data/sys/dashboard/batch_connect/sys/bc_jupyter/output/7d7e470b-5711-4523-9bcf-90a7a1462c7b|
mk423|CANCELLED by 1192605|scavenger-gpu|None|2023-05-16T10:46:28|00:00:00|None assigned|1|12|80G||/hpc/home/mk423/Anxiety/FullDataWork/Code/Training/MultiTask|
zq43|COMPLETED|scavenger-gpu|2023-05-13T19:53:25|2023-05-14T02:06:16|06:12:51|dcc-gehmlab-gpu-31|1|19|2G||/hpc/group/renlab/zhuobiao/MC_kV_for_zhuobiao|
zq43|COMPLETED|scavenger-gpu|2023-05-13T19:53:29|2023-05-14T02:21:08|06:27:39|dcc-gehmlab-gpu-32|1|19|2G||/hpc/group/renlab/zhuobiao/MC_kV_for_zhuobiao|
zq43|COMPLETED|scavenger-gpu|2023-05-13T19:53:33|2023-05-14T03:09:09|07:15:36|dcc-gehmlab-gpu-33|1|19|2G||/hpc/group/renlab/zhuobiao/MC_kV_for_zhuobiao|
kw297|COMPLETED|scavenger-gpu|2023-05-13T20:24:38|2023-05-14T05:55:56|09:31:18|dcc-motesa-gpu-02|1|2|10G||/hpc/group/ychenlab/DA|
kw297|COMPLETED|scavenger-gpu|2023-05-13T20:24:38|2023-05-14T03:49:36|07:24:58|dcc-youlab-gpu-31|1|2|10G||/hpc/group/ychenlab/DA|
kw297|COMPLETED|scavenger-gpu|2023-05-13T20:24:38|2023-05-14T09:51:28|13:26:50|dcc-tdunn-gpu-02|1|2|10G||/hpc/group/ychenlab/DA|
kw297|COMPLETED|scavenger-gpu|2023-05-13T20:24:38|2023-05-14T03:55:01|07:30:23|dcc-youlab-gpu-33|1|2|10G||/hpc/group/ychenlab/DA|
kw297|COMPLETED|scavenger-gpu|2023-05-13T20:24:38|2023-05-14T04:09:41|07:45:03|dcc-youlab-gpu-34|1|2|10G||/hpc/group/ychenlab/DA|
kw297|COMPLETED|scavenger-gpu|2023-05-13T20:24:38|2023-05-14T12:01:25|15:36:47|dcc-mainsahlab-gpu-01|1|2|10G||/hpc/group/ychenlab/DA|
kw297|COMPLETED|scavenger-gpu|2023-05-13T20:24:38|2023-05-14T12:42:04|16:17:26|dcc-mainsahlab-gpu-02|1|2|10G||/hpc/group/ychenlab/DA|
kw297|COMPLETED|scavenger-gpu|2023-05-13T20:24:41|2023-05-14T15:12:06|18:47:25|dcc-mainsahlab-gpu-03|1|2|10G||/hpc/group/ychenlab/DA|
kw297|COMPLETED|scavenger-gpu|2023-05-13T20:24:41|2023-05-14T15:49:46|19:25:05|dcc-mainsahlab-gpu-04|1|2|10G||/hpc/group/ychenlab/DA|
kw297|COMPLETED|scavenger-gpu|2023-05-13T20:24:41|2023-05-14T06:39:40|10:14:59|dcc-youlab-gpu-38|1|2|10G||/hpc/group/ychenlab/DA|
kw297|COMPLETED|scavenger-gpu|2023-05-13T20:24:41|2023-05-14T04:11:00|07:46:19|dcc-youlab-gpu-39|1|2|10G||/hpc/group/ychenlab/DA|
kw297|COMPLETED|scavenger-gpu|2023-05-13T20:24:41|2023-05-14T04:06:55|07:42:14|dcc-youlab-gpu-40|1|2|10G||/hpc/group/ychenlab/DA|
kw297|COMPLETED|scavenger-gpu|2023-05-13T20:24:41|2023-05-14T03:54:09|07:29:28|dcc-allenlab-gpu-01|1|2|10G||/hpc/group/ychenlab/DA|
kw297|COMPLETED|scavenger-gpu|2023-05-13T20:24:41|2023-05-14T04:02:22|07:37:41|dcc-allenlab-gpu-02|1|2|10G||/hpc/group/ychenlab/DA|
kw297|COMPLETED|scavenger-gpu|2023-05-13T20:24:41|2023-05-14T04:13:40|07:48:59|dcc-allenlab-gpu-03|1|2|10G||/hpc/group/ychenlab/DA|
kw297|COMPLETED|scavenger-gpu|2023-05-13T20:24:41|2023-05-14T04:26:10|08:01:29|dcc-allenlab-gpu-04|1|2|10G||/hpc/group/ychenlab/DA|
kw297|COMPLETED|scavenger-gpu|2023-05-13T20:24:41|2023-05-14T05:05:40|08:40:59|dcc-pbenfeylab-gpu-01|1|2|10G||/hpc/group/ychenlab/DA|
kw297|COMPLETED|scavenger-gpu|2023-05-13T20:24:41|2023-05-14T05:47:00|09:22:19|dcc-pbenfeylab-gpu-02|1|2|10G||/hpc/group/ychenlab/DA|
kw297|COMPLETED|scavenger-gpu|2023-05-13T20:24:41|2023-05-14T06:31:11|10:06:30|dcc-pbenfeylab-gpu-03|1|2|10G||/hpc/group/ychenlab/DA|
kw297|COMPLETED|scavenger-gpu|2023-05-13T20:24:41|2023-05-14T07:01:20|10:36:39|dcc-pbenfeylab-gpu-04|1|2|10G||/hpc/group/ychenlab/DA|
kw297|COMPLETED|scavenger-gpu|2023-05-13T20:24:41|2023-05-14T03:39:32|07:14:51|dcc-vossenlab-gpu-01|1|2|10G||/hpc/group/ychenlab/DA|
kw297|COMPLETED|scavenger-gpu|2023-05-13T20:24:41|2023-05-14T03:52:02|07:27:21|dcc-vossenlab-gpu-02|1|2|10G||/hpc/group/ychenlab/DA|
kw297|COMPLETED|scavenger-gpu|2023-05-13T20:24:41|2023-05-14T03:50:42|07:26:01|dcc-vossenlab-gpu-03|1|2|10G||/hpc/group/ychenlab/DA|
kw297|COMPLETED|scavenger-gpu|2023-05-13T20:24:41|2023-05-14T04:00:40|07:35:59|dcc-vossenlab-gpu-04|1|2|10G||/hpc/group/ychenlab/DA|
kw297|COMPLETED|scavenger-gpu|2023-05-13T20:24:41|2023-05-14T06:14:35|09:49:54|dcc-chsi-gpu-01|1|2|10G||/hpc/group/ychenlab/DA|
kw297|COMPLETED|scavenger-gpu|2023-05-13T20:24:41|2023-05-14T06:22:49|09:58:08|dcc-chsi-gpu-02|1|2|10G||/hpc/group/ychenlab/DA|
kw297|COMPLETED|scavenger-gpu|2023-05-13T20:24:41|2023-05-14T07:17:37|10:52:56|dcc-chsi-gpu-03|1|2|10G||/hpc/group/ychenlab/DA|
kw297|COMPLETED|scavenger-gpu|2023-05-13T20:24:41|2023-05-14T08:09:59|11:45:18|dcc-chsi-gpu-04|1|2|10G||/hpc/group/ychenlab/DA|
kw297|COMPLETED|scavenger-gpu|2023-05-13T20:24:41|2023-05-14T08:55:32|12:30:51|dcc-chsi-gpu-05|1|2|10G||/hpc/group/ychenlab/DA|
kw297|COMPLETED|scavenger-gpu|2023-05-13T20:24:41|2023-05-14T09:41:27|13:16:46|dcc-chsi-gpu-06|1|2|10G||/hpc/group/ychenlab/DA|
kw297|COMPLETED|scavenger-gpu|2023-05-13T20:24:43|2023-05-14T05:47:23|09:22:40|dcc-chsi-gpu-07|1|2|10G||/hpc/group/ychenlab/DA|
kw297|COMPLETED|scavenger-gpu|2023-05-13T20:24:43|2023-05-14T05:38:25|09:13:42|dcc-chsi-gpu-08|1|2|10G||/hpc/group/ychenlab/DA|
kw297|COMPLETED|scavenger-gpu|2023-05-13T20:24:43|2023-05-14T05:07:46|08:43:03|dcc-ece-gpu-01|1|2|10G||/hpc/group/ychenlab/DA|
kw297|COMPLETED|scavenger-gpu|2023-05-13T20:24:43|2023-05-14T05:20:23|08:55:40|dcc-ece-gpu-02|1|2|10G||/hpc/group/ychenlab/DA|
kw297|COMPLETED|scavenger-gpu|2023-05-13T20:24:43|2023-05-14T05:42:54|09:18:11|dcc-ece-gpu-03|1|2|10G||/hpc/group/ychenlab/DA|
kw297|COMPLETED|scavenger-gpu|2023-05-13T20:24:43|2023-05-14T05:53:31|09:28:48|dcc-ece-gpu-04|1|2|10G||/hpc/group/ychenlab/DA|
kw297|COMPLETED|scavenger-gpu|2023-05-13T20:24:43|2023-05-14T08:35:52|12:11:09|dcc-youlab-gpu-01|1|2|10G||/hpc/group/ychenlab/DA|
kw297|COMPLETED|scavenger-gpu|2023-05-13T20:24:43|2023-05-14T05:59:51|09:35:08|dcc-youlab-gpu-02|1|2|10G||/hpc/group/ychenlab/DA|
kw297|COMPLETED|scavenger-gpu|2023-05-13T20:24:43|2023-05-14T06:23:34|09:58:51|dcc-youlab-gpu-03|1|2|10G||/hpc/group/ychenlab/DA|
kw297|COMPLETED|scavenger-gpu|2023-05-13T20:24:43|2023-05-14T06:58:46|10:34:03|dcc-youlab-gpu-04|1|2|10G||/hpc/group/ychenlab/DA|
hk276|TIMEOUT|scavenger-gpu|2023-05-13T21:23:22|2023-05-14T05:23:31|08:00:09|dcc-youlab-gpu-05|1|10|60000M||/hpc/group/tdunn|
mk423|CANCELLED by 1192605|scavenger-gpu|None|2023-05-16T10:46:28|00:00:00|None assigned|1|12|80G||/hpc/home/mk423/Anxiety/FullDataWork/Code/Training/MultiTask|
xz284|FAILED|scavenger-gpu|2023-05-14T02:15:31|2023-05-14T02:47:11|00:31:40|dcc-rekerlab-gpu-01|1|8|64G||/hpc/group/motesa/Risk_Aware_SCUC_Model/Prelim/CT=0_RAT=1_New/RAS-EMS/beta=0.8/extreme_test|
