vk93|TIMEOUT|scavenger-gpu|2023-05-15T16:11:33|2023-05-22T16:11:51|7-00:00:18|dcc-dsplus-gpu-02|1|40|350109M||/hpc/home/vk93/ondemand/data/sys/dashboard/batch_connect/sys/bc_jupyter/output/23d4d6a9-4d03-429b-b1e0-2247cea267b4|
lh342|TIMEOUT|scavenger-gpu|2023-05-16T16:11:07|2023-05-23T16:11:07|7-00:00:00|dcc-motesa-gpu-02|1|6|16G||/hpc/home/lh342/MMVAE|
bgb13|FAILED|scavenger-gpu|2023-05-17T14:02:45|2023-05-23T06:01:01|5-15:58:16|dcc-ultrasound-gpu-04|1|16|10G||/hpc/group/dukenmr/bgb13/cyp51b_phosphorylated_S123/./.|
yw564|PREEMPTED|scavenger-gpu|2023-05-18T17:41:10|2023-05-21T23:54:52|3-06:13:42|dcc-viplab-gpu-01|1|2|50G||/hpc/group/jilab/yw564/GeneSegNet|
kw297|CANCELLED by 1215097|scavenger-gpu|2023-05-19T17:26:16|2023-05-22T14:46:00|2-21:19:44|dcc-allenlab-gpu-01|1|4|20G||/hpc/group/ychenlab/DA|
cem125|COMPLETED|scavenger-gpu|2023-05-20T11:22:20|2023-05-22T18:52:24|2-07:30:04|dcc-youlab-gpu-37|1|10|50G||/hpc/group/rekerlab/cem125/OpenNMT-py|
cem125|COMPLETED|scavenger-gpu|2023-05-20T11:22:20|2023-05-22T18:30:48|2-07:08:28|dcc-youlab-gpu-36|1|10|50G||/hpc/group/rekerlab/cem125/OpenNMT-py|
cem125|COMPLETED|scavenger-gpu|2023-05-20T11:22:20|2023-05-23T00:07:23|2-12:45:03|dcc-youlab-gpu-35|1|10|50G||/hpc/group/rekerlab/cem125/OpenNMT-py|
yx240|COMPLETED|scavenger-gpu|2023-05-20T11:30:55|2023-05-23T16:20:20|3-04:49:25|dcc-youlab-gpu-41|1|10|2G||/work/yx240/project-martini/new/simutools/scripts|
yx240|COMPLETED|scavenger-gpu|2023-05-20T11:30:56|2023-05-22T08:21:37|1-20:50:41|dcc-youlab-gpu-18|1|10|2G||/work/yx240/project-martini/new/simutools/scripts|
jrl78|COMPLETED|scavenger-gpu|2023-05-21T04:39:05|2023-05-21T22:06:20|17:27:15|dcc-youlab-gpu-02|1|10|4G||/work/jrl78/Nanoparticles/JawBreakers/Different Partial Charges/EEM Full Library|
jrl78|COMPLETED|scavenger-gpu|2023-05-21T09:18:50|2023-05-21T23:30:30|14:11:40|dcc-youlab-gpu-23|1|10|4G||/work/jrl78/Nanoparticles/JawBreakers/Different Partial Charges/EEM Full Library|
jrl78|COMPLETED|scavenger-gpu|2023-05-21T09:21:08|2023-05-22T03:00:59|17:39:51|dcc-youlab-gpu-21|1|10|4G||/work/jrl78/Nanoparticles/JawBreakers/Different Partial Charges/EEM Full Library|
jrl78|COMPLETED|scavenger-gpu|2023-05-21T09:39:22|2023-05-22T02:54:35|17:15:13|dcc-youlab-gpu-27|1|10|4G||/work/jrl78/Nanoparticles/JawBreakers/Different Partial Charges/EEM Full Library|
jrl78|COMPLETED|scavenger-gpu|2023-05-21T10:59:53|2023-05-22T03:45:41|16:45:48|dcc-youlab-gpu-40|1|10|4G||/work/jrl78/Nanoparticles/JawBreakers/Different Partial Charges/EEM Full Library|
jrl78|COMPLETED|scavenger-gpu|2023-05-21T10:59:53|2023-05-22T04:35:34|17:35:41|dcc-youlab-gpu-19|1|10|4G||/work/jrl78/Nanoparticles/JawBreakers/Different Partial Charges/EEM Full Library|
jrl78|COMPLETED|scavenger-gpu|2023-05-21T10:59:53|2023-05-22T02:43:20|15:43:27|dcc-youlab-gpu-11|1|10|4G||/work/jrl78/Nanoparticles/JawBreakers/Different Partial Charges/EEM Full Library|
jrl78|COMPLETED|scavenger-gpu|2023-05-21T11:33:32|2023-05-22T09:46:22|22:12:50|dcc-vossenlab-gpu-04|1|10|4G||/work/jrl78/Nanoparticles/JawBreakers/Different Partial Charges/EEM Full Library|
jrl78|FAILED|scavenger-gpu|2023-05-21T11:33:32|2023-05-22T03:55:44|16:22:12|dcc-vossenlab-gpu-03|1|10|4G||/work/jrl78/Nanoparticles/JawBreakers/Different Partial Charges/EEM Full Library|
jrl78|COMPLETED|scavenger-gpu|2023-05-21T11:35:44|2023-05-22T02:15:16|14:39:32|dcc-youlab-gpu-04|1|10|4G||/work/jrl78/Nanoparticles/JawBreakers/Different Partial Charges/EEM Full Library|
jrl78|COMPLETED|scavenger-gpu|2023-05-21T12:31:44|2023-05-22T07:08:09|18:36:25|dcc-youlab-gpu-32|1|10|4G||/work/jrl78/Nanoparticles/JawBreakers/Different Partial Charges/EEM Full Library|
jrl78|COMPLETED|scavenger-gpu|2023-05-21T13:11:59|2023-05-22T06:20:06|17:08:07|dcc-youlab-gpu-15|1|10|4G||/work/jrl78/Nanoparticles/JawBreakers/Different Partial Charges/EEM Full Library|
jrl78|COMPLETED|scavenger-gpu|2023-05-21T13:35:15|2023-05-22T05:59:08|16:23:53|dcc-youlab-gpu-33|1|10|4G||/work/jrl78/Nanoparticles/JawBreakers/Different Partial Charges/EEM Full Library|
jrl78|COMPLETED|scavenger-gpu|2023-05-21T14:19:52|2023-05-22T06:10:03|15:50:11|dcc-youlab-gpu-24|1|10|4G||/work/jrl78/Nanoparticles/JawBreakers/Different Partial Charges/EEM Full Library|
jrl78|COMPLETED|scavenger-gpu|2023-05-21T16:26:03|2023-05-22T08:30:21|16:04:18|dcc-youlab-gpu-31|1|10|4G||/work/jrl78/Nanoparticles/JawBreakers/Different Partial Charges/EEM Full Library|
jrl78|COMPLETED|scavenger-gpu|2023-05-21T16:58:10|2023-05-22T11:03:00|18:04:50|dcc-youlab-gpu-53|1|10|4G||/work/jrl78/Nanoparticles/JawBreakers/Different Partial Charges/EEM Full Library|
jrl78|COMPLETED|scavenger-gpu|2023-05-21T17:08:37|2023-05-22T07:08:12|13:59:35|dcc-youlab-gpu-38|1|10|4G||/work/jrl78/Nanoparticles/JawBreakers/Different Partial Charges/EEM Full Library|
jrl78|COMPLETED|scavenger-gpu|2023-05-21T19:30:09|2023-05-22T09:09:11|13:39:02|dcc-youlab-gpu-44|1|10|4G||/work/jrl78/Nanoparticles/JawBreakers/Different Partial Charges/EEM Full Library|
jrl78|COMPLETED|scavenger-gpu|2023-05-21T20:07:04|2023-05-22T12:03:26|15:56:22|dcc-youlab-gpu-29|1|10|4G||/work/jrl78/Nanoparticles/JawBreakers/Different Partial Charges/EEM Full Library|
jrl78|COMPLETED|scavenger-gpu|2023-05-21T21:15:28|2023-05-22T14:47:29|17:32:01|dcc-youlab-gpu-42|1|10|4G||/work/jrl78/Nanoparticles/JawBreakers/Different Partial Charges/EEM Full Library|
jrl78|COMPLETED|scavenger-gpu|2023-05-21T22:06:34|2023-05-22T19:35:01|21:28:27|dcc-youlab-gpu-02|1|10|4G||/work/jrl78/Nanoparticles/JawBreakers/Different Partial Charges/EEM Full Library|
jrl78|COMPLETED|scavenger-gpu|2023-05-21T23:31:02|2023-05-22T10:52:54|11:21:52|dcc-youlab-gpu-23|1|10|4G||/work/jrl78/Nanoparticles/JawBreakers/Different Partial Charges/EEM Full Library|
jrl78|COMPLETED|scavenger-gpu|2023-05-22T02:15:33|2023-05-22T19:24:57|17:09:24|dcc-youlab-gpu-04|1|10|4G||/work/jrl78/Nanoparticles/JawBreakers/Different Partial Charges/EEM Full Library|
jrl78|COMPLETED|scavenger-gpu|2023-05-22T02:43:28|2023-05-22T16:15:29|13:32:01|dcc-youlab-gpu-11|1|10|4G||/work/jrl78/Nanoparticles/JawBreakers/Different Partial Charges/EEM Full Library|
jrl78|COMPLETED|scavenger-gpu|2023-05-22T02:55:00|2023-05-22T18:46:21|15:51:21|dcc-youlab-gpu-27|1|10|4G||/work/jrl78/Nanoparticles/JawBreakers/Different Partial Charges/EEM Full Library|
jrl78|COMPLETED|scavenger-gpu|2023-05-22T03:01:34|2023-05-23T00:25:03|21:23:29|dcc-youlab-gpu-21|1|10|4G||/work/jrl78/Nanoparticles/JawBreakers/Different Partial Charges/EEM Full Library|
jrl78|COMPLETED|scavenger-gpu|2023-05-22T03:45:58|2023-05-22T18:44:26|14:58:28|dcc-youlab-gpu-40|1|10|4G||/work/jrl78/Nanoparticles/JawBreakers/Different Partial Charges/EEM Full Library|
jrl78|COMPLETED|scavenger-gpu|2023-05-22T03:56:14|2023-05-22T17:50:35|13:54:21|dcc-vossenlab-gpu-03|1|10|4G||/work/jrl78/Nanoparticles/JawBreakers/Different Partial Charges/EEM Full Library|
jrl78|COMPLETED|scavenger-gpu|2023-05-22T04:35:42|2023-05-23T00:50:40|20:14:58|dcc-youlab-gpu-19|1|10|4G||/work/jrl78/Nanoparticles/JawBreakers/Different Partial Charges/EEM Full Library|
jrl78|COMPLETED|scavenger-gpu|2023-05-22T05:59:20|2023-05-22T22:21:37|16:22:17|dcc-youlab-gpu-33|1|10|4G||/work/jrl78/Nanoparticles/JawBreakers/Different Partial Charges/EEM Full Library|
jrl78|COMPLETED|scavenger-gpu|2023-05-22T06:20:17|2023-05-22T21:44:53|15:24:36|dcc-youlab-gpu-28|1|10|4G||/work/jrl78/Nanoparticles/JawBreakers/Different Partial Charges/EEM Full Library|
jrl78|COMPLETED|scavenger-gpu|2023-05-22T07:08:20|2023-05-23T02:19:54|19:11:34|dcc-youlab-gpu-38|1|10|4G||/work/jrl78/Nanoparticles/JawBreakers/Different Partial Charges/EEM Full Library|
jrl78|COMPLETED|scavenger-gpu|2023-05-22T07:08:20|2023-05-22T22:42:51|15:34:31|dcc-youlab-gpu-32|1|10|4G||/work/jrl78/Nanoparticles/JawBreakers/Different Partial Charges/EEM Full Library|
jrl78|COMPLETED|scavenger-gpu|2023-05-22T08:30:25|2023-05-23T02:26:07|17:55:42|dcc-youlab-gpu-43|1|10|4G||/work/jrl78/Nanoparticles/JawBreakers/Different Partial Charges/EEM Full Library|
jrl78|COMPLETED|scavenger-gpu|2023-05-22T09:09:11|2023-05-23T02:25:29|17:16:18|dcc-motesa-gpu-04|1|6|4G||/work/jrl78/Nanoparticles/JawBreakers/Different Partial Charges/EEM Full Library|
jrl78|COMPLETED|scavenger-gpu|2023-05-22T09:46:36|2023-05-23T00:13:46|14:27:10|dcc-vossenlab-gpu-04|1|10|4G||/work/jrl78/Nanoparticles/JawBreakers/Different Partial Charges/EEM Full Library|
jrl78|COMPLETED|scavenger-gpu|2023-05-22T10:52:57|2023-05-23T04:44:24|17:51:27|dcc-youlab-gpu-23|1|10|4G||/work/jrl78/Nanoparticles/JawBreakers/Different Partial Charges/EEM Full Library|
jrl78|COMPLETED|scavenger-gpu|2023-05-22T11:03:03|2023-05-23T05:09:23|18:06:20|dcc-youlab-gpu-53|1|10|4G||/work/jrl78/Nanoparticles/JawBreakers/Different Partial Charges/EEM Full Library|
jrl78|COMPLETED|scavenger-gpu|2023-05-22T06:10:05|2023-05-22T20:40:04|14:29:59|dcc-youlab-gpu-30|1|10|4G||/work/jrl78/Nanoparticles/JawBreakers/Different Partial Charges/EEM Full Library|
jrl78|COMPLETED|scavenger-gpu|2023-05-22T12:03:57|2023-05-23T02:46:37|14:42:40|dcc-youlab-gpu-55|1|10|4G||/work/jrl78/Nanoparticles/JawBreakers/Different Partial Charges/EEM Full Library|
jrl78|COMPLETED|scavenger-gpu|2023-05-22T14:47:29|2023-05-23T05:23:01|14:35:32|dcc-motesa-gpu-01|1|6|4G||/work/jrl78/Nanoparticles/JawBreakers/Different Partial Charges/EEM Full Library|
jrl78|COMPLETED|scavenger-gpu|2023-05-22T14:47:29|2023-05-23T08:52:33|18:05:04|dcc-mainsahlab-gpu-04|1|6|4G||/work/jrl78/Nanoparticles/JawBreakers/Different Partial Charges/EEM Full Library|
jrl78|COMPLETED|scavenger-gpu|2023-05-22T16:15:30|2023-05-23T06:10:35|13:55:05|dcc-youlab-gpu-11|1|10|4G||/work/jrl78/Nanoparticles/JawBreakers/Different Partial Charges/EEM Full Library|
jrl78|COMPLETED|scavenger-gpu|2023-05-22T17:50:37|2023-05-23T08:43:01|14:52:24|dcc-youlab-gpu-15|1|10|4G||/work/jrl78/Nanoparticles/JawBreakers/Different Partial Charges/EEM Full Library|
jrl78|COMPLETED|scavenger-gpu|2023-05-22T18:44:31|2023-05-23T08:19:30|13:34:59|dcc-mainsahlab-gpu-03|1|6|4G||/work/jrl78/Nanoparticles/JawBreakers/Different Partial Charges/EEM Full Library|
jrl78|COMPLETED|scavenger-gpu|2023-05-22T18:44:31|2023-05-23T12:43:19|17:58:48|dcc-mainsahlab-gpu-02|1|6|4G||/work/jrl78/Nanoparticles/JawBreakers/Different Partial Charges/EEM Full Library|
jrl78|COMPLETED|scavenger-gpu|2023-05-22T18:46:26|2023-05-23T13:23:19|18:36:53|dcc-youlab-gpu-27|1|10|4G||/work/jrl78/Nanoparticles/JawBreakers/Different Partial Charges/EEM Full Library|
jrl78|COMPLETED|scavenger-gpu|2023-05-22T19:24:57|2023-05-23T12:53:52|17:28:55|dcc-youlab-gpu-18|1|10|4G||/work/jrl78/Nanoparticles/JawBreakers/Different Partial Charges/EEM Full Library|
jrl78|COMPLETED|scavenger-gpu|2023-05-22T19:35:01|2023-05-23T07:14:19|11:39:18|dcc-youlab-gpu-36|1|10|4G||/work/jrl78/Nanoparticles/JawBreakers/Different Partial Charges/EEM Full Library|
jrl78|COMPLETED|scavenger-gpu|2023-05-22T20:40:05|2023-05-23T12:13:52|15:33:47|dcc-youlab-gpu-30|1|10|4G||/work/jrl78/Nanoparticles/JawBreakers/Different Partial Charges/EEM Full Library|
jrl78|FAILED|scavenger-gpu|2023-05-22T21:44:53|2023-05-22T21:57:55|00:13:02|dcc-youlab-gpu-28|1|10|4G||/work/jrl78/Nanoparticles/JawBreakers/Different Partial Charges/EEM Full Library|
jrl78|COMPLETED|scavenger-gpu|2023-05-22T21:57:55|2023-05-23T11:23:50|13:25:55|dcc-youlab-gpu-28|1|10|4G||/work/jrl78/Nanoparticles/JawBreakers/Different Partial Charges/EEM Full Library|
jrl78|COMPLETED|scavenger-gpu|2023-05-22T22:21:39|2023-05-23T12:32:35|14:10:56|dcc-youlab-gpu-33|1|10|4G||/work/jrl78/Nanoparticles/JawBreakers/Different Partial Charges/EEM Full Library|
jrl78|COMPLETED|scavenger-gpu|2023-05-22T22:42:51|2023-05-23T12:33:45|13:50:54|dcc-youlab-gpu-32|1|10|4G||/work/jrl78/Nanoparticles/JawBreakers/Different Partial Charges/EEM Full Library|
jrl78|COMPLETED|scavenger-gpu|2023-05-23T00:13:47|2023-05-23T17:24:55|17:11:08|dcc-youlab-gpu-42|1|10|4G||/work/jrl78/Nanoparticles/JawBreakers/Different Partial Charges/EEM Full Library|
jrl78|COMPLETED|scavenger-gpu|2023-05-23T00:25:03|2023-05-23T16:49:45|16:24:42|dcc-youlab-gpu-40|1|10|4G||/work/jrl78/Nanoparticles/JawBreakers/Different Partial Charges/EEM Full Library|
jrl78|COMPLETED|scavenger-gpu|2023-05-23T00:50:40|2023-05-23T15:54:08|15:03:28|dcc-youlab-gpu-37|1|10|4G||/work/jrl78/Nanoparticles/JawBreakers/Different Partial Charges/EEM Full Library|
jrl78|COMPLETED|scavenger-gpu|2023-05-23T02:19:56|2023-05-23T21:31:51|19:11:55|dcc-youlab-gpu-38|1|10|4G||/work/jrl78/Nanoparticles/JawBreakers/Different Partial Charges/EEM Full Library|
jrl78|COMPLETED|scavenger-gpu|2023-05-23T02:26:07|2023-05-23T20:09:08|17:43:01|dcc-youlab-gpu-43|1|10|4G||/work/jrl78/Nanoparticles/JawBreakers/Different Partial Charges/EEM Full Library|
jrl78|COMPLETED|scavenger-gpu|2023-05-23T02:46:37|2023-05-23T20:22:54|17:36:17|dcc-youlab-gpu-55|1|10|4G||/work/jrl78/Nanoparticles/JawBreakers/Different Partial Charges/EEM Full Library|
jrl78|COMPLETED|scavenger-gpu|2023-05-23T04:44:24|2023-05-23T23:01:25|18:17:01|dcc-youlab-gpu-31|1|10|4G||/work/jrl78/Nanoparticles/JawBreakers/Different Partial Charges/EEM Full Library|
jrl78|COMPLETED|scavenger-gpu|2023-05-23T05:09:23|2023-05-23T22:14:43|17:05:20|dcc-youlab-gpu-53|1|10|4G||/work/jrl78/Nanoparticles/JawBreakers/Different Partial Charges/EEM Full Library|
jrl78|FAILED|scavenger-gpu|2023-05-23T05:23:02|2023-05-24T01:53:21|20:30:19|dcc-youlab-gpu-29|1|10|4G||/work/jrl78/Nanoparticles/JawBreakers/Different Partial Charges/EEM Full Library|
jrl78|COMPLETED|scavenger-gpu|2023-05-23T06:10:36|2023-05-24T00:10:17|17:59:41|dcc-youlab-gpu-24|1|10|4G||/work/jrl78/Nanoparticles/JawBreakers/Different Partial Charges/EEM Full Library|
jrl78|COMPLETED|scavenger-gpu|2023-05-23T07:14:19|2023-05-23T23:06:22|15:52:03|dcc-youlab-gpu-36|1|10|4G||/work/jrl78/Nanoparticles/JawBreakers/Different Partial Charges/EEM Full Library|
jrl78|COMPLETED|scavenger-gpu|2023-05-23T08:43:01|2023-05-24T06:11:08|21:28:07|dcc-youlab-gpu-23|1|10|4G||/work/jrl78/Nanoparticles/JawBreakers/Different Partial Charges/EEM Full Library|
jrl78|COMPLETED|scavenger-gpu|2023-05-23T08:52:33|2023-05-23T23:01:35|14:09:02|dcc-youlab-gpu-21|1|10|4G||/work/jrl78/Nanoparticles/JawBreakers/Different Partial Charges/EEM Full Library|
jrl78|COMPLETED|scavenger-gpu|2023-05-23T09:58:41|2023-05-23T23:55:26|13:56:45|dcc-motesa-gpu-01|1|6|4G||/work/jrl78/Nanoparticles/JawBreakers/Different Partial Charges/EEM Full Library|
jrl78|PREEMPTED|scavenger-gpu|2023-05-23T09:58:41|2023-05-23T15:37:33|05:38:52|dcc-mainsahlab-gpu-04|1|6|4G||/work/jrl78/Nanoparticles/JawBreakers/Different Partial Charges/EEM Full Library|
jrl78|PREEMPTED|scavenger-gpu|2023-05-23T09:58:41|2023-05-23T15:50:48|05:52:07|dcc-mainsahlab-gpu-03|1|6|4G||/work/jrl78/Nanoparticles/JawBreakers/Different Partial Charges/EEM Full Library|
jrl78|PREEMPTED|scavenger-gpu|2023-05-23T09:58:41|2023-05-23T15:59:03|06:00:22|dcc-mainsahlab-gpu-01|1|6|4G||/work/jrl78/Nanoparticles/JawBreakers/Different Partial Charges/EEM Full Library|
jrl78|PREEMPTED|scavenger-gpu|2023-05-23T09:58:41|2023-05-23T15:35:32|05:36:51|dcc-gehmlab-gpu-20|1|19|4G||/work/jrl78/Nanoparticles/JawBreakers/Different Partial Charges/EEM Full Library|
jrl78|PREEMPTED|scavenger-gpu|2023-05-23T09:58:41|2023-05-23T15:35:35|05:36:54|dcc-gehmlab-gpu-19|1|19|4G||/work/jrl78/Nanoparticles/JawBreakers/Different Partial Charges/EEM Full Library|
jrl78|PREEMPTED|scavenger-gpu|2023-05-23T09:58:41|2023-05-23T15:35:39|05:36:58|dcc-gehmlab-gpu-18|1|19|4G||/work/jrl78/Nanoparticles/JawBreakers/Different Partial Charges/EEM Full Library|
jrl78|PREEMPTED|scavenger-gpu|2023-05-23T09:58:41|2023-05-23T15:35:42|05:37:01|dcc-gehmlab-gpu-17|1|19|4G||/work/jrl78/Nanoparticles/JawBreakers/Different Partial Charges/EEM Full Library|
jrl78|COMPLETED|scavenger-gpu|2023-05-23T09:58:57|2023-05-24T04:45:43|18:46:46|dcc-motesa-gpu-04|1|6|4G||/work/jrl78/Nanoparticles/JawBreakers/Different Partial Charges/EEM Full Library|
jrl78|PREEMPTED|scavenger-gpu|2023-05-23T09:58:57|2023-05-23T15:35:46|05:36:49|dcc-gehmlab-gpu-16|1|19|4G||/work/jrl78/Nanoparticles/JawBreakers/Different Partial Charges/EEM Full Library|
jrl78|PREEMPTED|scavenger-gpu|2023-05-23T09:58:57|2023-05-23T15:35:50|05:36:53|dcc-gehmlab-gpu-15|1|19|4G||/work/jrl78/Nanoparticles/JawBreakers/Different Partial Charges/EEM Full Library|
jrl78|PREEMPTED|scavenger-gpu|2023-05-23T09:58:57|2023-05-23T15:35:54|05:36:57|dcc-gehmlab-gpu-14|1|19|4G||/work/jrl78/Nanoparticles/JawBreakers/Different Partial Charges/EEM Full Library|
jrl78|PREEMPTED|scavenger-gpu|2023-05-23T09:58:57|2023-05-23T15:35:57|05:37:00|dcc-gehmlab-gpu-13|1|19|4G||/work/jrl78/Nanoparticles/JawBreakers/Different Partial Charges/EEM Full Library|
jrl78|PREEMPTED|scavenger-gpu|2023-05-23T09:58:57|2023-05-23T15:36:07|05:37:10|dcc-gehmlab-gpu-12|1|19|4G||/work/jrl78/Nanoparticles/JawBreakers/Different Partial Charges/EEM Full Library|
jrl78|COMPLETED|scavenger-gpu|2023-05-23T11:23:51|2023-05-24T04:02:41|16:38:50|dcc-youlab-gpu-44|1|10|4G||/work/jrl78/Nanoparticles/JawBreakers/Different Partial Charges/EEM Full Library|
jrl78|COMPLETED|scavenger-gpu|2023-05-23T12:13:53|2023-05-24T03:50:50|15:36:57|dcc-youlab-gpu-30|1|10|4G||/work/jrl78/Nanoparticles/JawBreakers/Different Partial Charges/EEM Full Library|
jrl78|FAILED|scavenger-gpu|2023-05-23T12:32:36|2023-05-23T23:31:44|10:59:08|dcc-youlab-gpu-33|1|10|4G||/work/jrl78/Nanoparticles/JawBreakers/Different Partial Charges/EEM Full Library|
jrl78|COMPLETED|scavenger-gpu|2023-05-23T12:33:46|2023-05-24T04:42:18|16:08:32|dcc-youlab-gpu-32|1|10|4G||/work/jrl78/Nanoparticles/JawBreakers/Different Partial Charges/EEM Full Library|
jrl78|COMPLETED|scavenger-gpu|2023-05-23T12:53:52|2023-05-24T06:44:00|17:50:08|dcc-youlab-gpu-18|1|10|4G||/work/jrl78/Nanoparticles/JawBreakers/Different Partial Charges/EEM Full Library|
jrl78|COMPLETED|scavenger-gpu|2023-05-23T13:23:20|2023-05-24T03:41:04|14:17:44|dcc-youlab-gpu-27|1|10|4G||/work/jrl78/Nanoparticles/JawBreakers/Different Partial Charges/EEM Full Library|
jrl78|PREEMPTED|scavenger-gpu|2023-05-23T13:28:11|2023-05-23T22:41:26|09:13:15|dcc-mainsahlab-gpu-02|1|6|4G||/work/jrl78/Nanoparticles/JawBreakers/Different Partial Charges/EEM Full Library|
jrl78|FAILED|scavenger-gpu|2023-05-23T15:35:32|2023-05-23T23:03:23|07:27:51|dcc-collinslab-gpu-04|1|19|4G||/work/jrl78/Nanoparticles/JawBreakers/Different Partial Charges/EEM Full Library|
jrl78|COMPLETED|scavenger-gpu|2023-05-23T15:35:36|2023-05-24T22:58:16|1-07:22:40|dcc-collinslab-gpu-03|1|19|4G||/work/jrl78/Nanoparticles/JawBreakers/Different Partial Charges/EEM Full Library|
jrl78|COMPLETED|scavenger-gpu|2023-05-23T15:35:39|2023-05-24T23:45:53|1-08:10:14|dcc-collinslab-gpu-02|1|19|4G||/work/jrl78/Nanoparticles/JawBreakers/Different Partial Charges/EEM Full Library|
jrl78|COMPLETED|scavenger-gpu|2023-05-23T15:35:43|2023-05-24T23:45:32|1-08:09:49|dcc-collinslab-gpu-01|1|19|4G||/work/jrl78/Nanoparticles/JawBreakers/Different Partial Charges/EEM Full Library|
jrl78|FAILED|scavenger-gpu|2023-05-23T15:35:51|2023-05-23T17:14:00|01:38:09|dcc-chsi-gpu-08|1|6|4G||/work/jrl78/Nanoparticles/JawBreakers/Different Partial Charges/EEM Full Library|
jrl78|COMPLETED|scavenger-gpu|2023-05-23T15:35:51|2023-05-24T13:14:43|21:38:52|dcc-chsi-gpu-07|1|6|4G||/work/jrl78/Nanoparticles/JawBreakers/Different Partial Charges/EEM Full Library|
jrl78|COMPLETED|scavenger-gpu|2023-05-23T15:35:51|2023-05-24T07:40:55|16:05:04|dcc-chsi-gpu-06|1|6|4G||/work/jrl78/Nanoparticles/JawBreakers/Different Partial Charges/EEM Full Library|
jrl78|COMPLETED|scavenger-gpu|2023-05-23T15:35:51|2023-05-24T13:10:56|21:35:05|dcc-chsi-gpu-05|1|6|4G||/work/jrl78/Nanoparticles/JawBreakers/Different Partial Charges/EEM Full Library|
jrl78|COMPLETED|scavenger-gpu|2023-05-23T15:35:51|2023-05-24T13:28:36|21:52:45|dcc-chsi-gpu-04|1|6|4G||/work/jrl78/Nanoparticles/JawBreakers/Different Partial Charges/EEM Full Library|
jrl78|FAILED|scavenger-gpu|2023-05-23T15:35:51|2023-05-23T20:10:28|04:34:37|dcc-chsi-gpu-03|1|6|4G||/work/jrl78/Nanoparticles/JawBreakers/Different Partial Charges/EEM Full Library|
jrl78|COMPLETED|scavenger-gpu|2023-05-23T15:35:54|2023-05-24T10:55:48|19:19:54|dcc-chsi-gpu-02|1|6|4G||/work/jrl78/Nanoparticles/JawBreakers/Different Partial Charges/EEM Full Library|
jrl78|COMPLETED|scavenger-gpu|2023-05-23T15:35:54|2023-05-24T18:14:25|1-02:38:31|dcc-chsi-gpu-01|1|6|4G||/work/jrl78/Nanoparticles/JawBreakers/Different Partial Charges/EEM Full Library|
jrl78|PREEMPTED|scavenger-gpu|2023-05-23T15:35:57|2023-05-23T18:16:51|02:40:54|dcc-carlsonlab-gpu-13|1|21|4G||/work/jrl78/Nanoparticles/JawBreakers/Different Partial Charges/EEM Full Library|
jrl78|FAILED|scavenger-gpu|2023-05-23T15:36:07|2023-05-24T00:52:12|09:16:05|dcc-carlsonlab-gpu-12|1|21|4G||/work/jrl78/Nanoparticles/JawBreakers/Different Partial Charges/EEM Full Library|
jrl78|COMPLETED|scavenger-gpu|2023-05-23T15:56:54|2023-05-24T06:42:30|14:45:36|dcc-mainsahlab-gpu-03|1|6|4G||/work/jrl78/Nanoparticles/JawBreakers/Different Partial Charges/EEM Full Library|
jrl78|FAILED|scavenger-gpu|2023-05-23T15:48:26|2023-05-24T03:48:32|12:00:06|dcc-youlab-gpu-08|1|10|4G||/work/jrl78/Nanoparticles/JawBreakers/Different Partial Charges/EEM Full Library|
jrl78|COMPLETED|scavenger-gpu|2023-05-23T16:04:50|2023-05-24T09:58:33|17:53:43|dcc-youlab-gpu-35|1|10|4G||/work/jrl78/Nanoparticles/JawBreakers/Different Partial Charges/EEM Full Library|
jrl78|COMPLETED|scavenger-gpu|2023-05-23T16:00:41|2023-05-24T05:34:19|13:33:38|dcc-vossenlab-gpu-01|1|10|4G||/work/jrl78/Nanoparticles/JawBreakers/Different Partial Charges/EEM Full Library|
jrl78|COMPLETED|scavenger-gpu|2023-05-23T17:05:45|2023-05-24T07:26:19|14:20:34|dcc-mainsahlab-gpu-01|1|6|4G||/work/jrl78/Nanoparticles/JawBreakers/Different Partial Charges/EEM Full Library|
jrl78|COMPLETED|scavenger-gpu|2023-05-23T17:14:01|2023-05-24T09:32:19|16:18:18|dcc-chsi-gpu-08|1|6|4G||/work/jrl78/Nanoparticles/JawBreakers/Different Partial Charges/EEM Full Library|
jrl78|COMPLETED|scavenger-gpu|2023-05-23T17:24:57|2023-05-24T08:02:27|14:37:30|dcc-youlab-gpu-42|1|10|4G||/work/jrl78/Nanoparticles/JawBreakers/Different Partial Charges/EEM Full Library|
jrl78|FAILED|scavenger-gpu|2023-05-23T18:16:56|2023-05-25T02:59:30|1-08:42:34|dcc-carin-gpu-08|1|19|4G||/work/jrl78/Nanoparticles/JawBreakers/Different Partial Charges/EEM Full Library|
jrl78|COMPLETED|scavenger-gpu|2023-05-23T20:09:10|2023-05-24T14:52:44|18:43:34|dcc-youlab-gpu-43|1|10|4G||/work/jrl78/Nanoparticles/JawBreakers/Different Partial Charges/EEM Full Library|
jrl78|COMPLETED|scavenger-gpu|2023-05-23T20:10:29|2023-05-24T21:09:49|1-00:59:20|dcc-chsi-gpu-03|1|6|4G||/work/jrl78/Nanoparticles/JawBreakers/Different Partial Charges/EEM Full Library|
jrl78|COMPLETED|scavenger-gpu|2023-05-23T20:22:54|2023-05-24T14:22:09|17:59:15|dcc-youlab-gpu-55|1|10|4G||/work/jrl78/Nanoparticles/JawBreakers/Different Partial Charges/EEM Full Library|
jrl78|COMPLETED|scavenger-gpu|2023-05-23T21:33:37|2023-05-24T11:58:11|14:24:34|dcc-pbenfeylab-gpu-01|1|10|4G||/work/jrl78/Nanoparticles/JawBreakers/Different Partial Charges/EEM Full Library|
jrl78|COMPLETED|scavenger-gpu|2023-05-23T22:14:44|2023-05-24T13:15:11|15:00:27|dcc-youlab-gpu-53|1|10|4G||/work/jrl78/Nanoparticles/JawBreakers/Different Partial Charges/EEM Full Library|
jrl78|COMPLETED|scavenger-gpu|2023-05-23T22:47:45|2023-05-24T14:44:29|15:56:44|dcc-youlab-gpu-16|1|10|4G||/work/jrl78/Nanoparticles/JawBreakers/Different Partial Charges/EEM Full Library|
jrl78|FAILED|scavenger-gpu|2023-05-23T23:01:28|2023-05-24T08:22:12|09:20:44|dcc-youlab-gpu-31|1|10|4G||/work/jrl78/Nanoparticles/JawBreakers/Different Partial Charges/EEM Full Library|
jrl78|COMPLETED|scavenger-gpu|2023-05-23T23:01:38|2023-05-24T14:23:58|15:22:20|dcc-youlab-gpu-21|1|10|4G||/work/jrl78/Nanoparticles/JawBreakers/Different Partial Charges/EEM Full Library|
jrl78|COMPLETED|scavenger-gpu|2023-05-23T23:03:24|2023-05-24T17:50:03|18:46:39|dcc-gehmlab-gpu-55|1|19|4G||/work/jrl78/Nanoparticles/JawBreakers/Different Partial Charges/EEM Full Library|
jrl78|FAILED|scavenger-gpu|2023-05-23T23:06:22|2023-05-24T15:28:57|16:22:35|dcc-youlab-gpu-36|1|10|4G||/work/jrl78/Nanoparticles/JawBreakers/Different Partial Charges/EEM Full Library|
jrl78|COMPLETED|scavenger-gpu|2023-05-23T23:31:46|2023-05-24T18:44:20|19:12:34|dcc-youlab-gpu-33|1|10|4G||/work/jrl78/Nanoparticles/JawBreakers/Different Partial Charges/EEM Full Library|
jrl78|COMPLETED|scavenger-gpu|2023-05-23T23:55:27|2023-05-24T21:48:51|21:53:24|dcc-motesa-gpu-01|1|6|4G||/work/jrl78/Nanoparticles/JawBreakers/Different Partial Charges/EEM Full Library|
jrl78|COMPLETED|scavenger-gpu|2023-05-24T00:10:17|2023-05-24T20:35:58|20:25:41|dcc-youlab-gpu-24|1|10|4G||/work/jrl78/Nanoparticles/JawBreakers/Different Partial Charges/EEM Full Library|
jrl78|FAILED|scavenger-gpu|2023-05-24T00:52:13|2023-05-24T07:07:21|06:15:08|dcc-youlab-gpu-34|1|10|4G||/work/jrl78/Nanoparticles/JawBreakers/Different Partial Charges/EEM Full Library|
jrl78|COMPLETED|scavenger-gpu|2023-05-24T00:52:13|2023-05-24T18:27:43|17:35:30|dcc-mainsahlab-gpu-02|1|6|4G||/work/jrl78/Nanoparticles/JawBreakers/Different Partial Charges/EEM Full Library|
jrl78|COMPLETED|scavenger-gpu|2023-05-24T01:53:23|2023-05-24T17:42:05|15:48:42|dcc-youlab-gpu-29|1|10|4G||/work/jrl78/Nanoparticles/JawBreakers/Different Partial Charges/EEM Full Library|
jrl78|COMPLETED|scavenger-gpu|2023-05-24T03:41:05|2023-05-24T22:21:36|18:40:31|dcc-youlab-gpu-27|1|10|4G||/work/jrl78/Nanoparticles/JawBreakers/Different Partial Charges/EEM Full Library|
jrl78|COMPLETED|scavenger-gpu|2023-05-24T03:48:33|2023-05-24T19:47:26|15:58:53|dcc-youlab-gpu-08|1|10|4G||/work/jrl78/Nanoparticles/JawBreakers/Different Partial Charges/EEM Full Library|
jrl78|COMPLETED|scavenger-gpu|2023-05-24T03:50:50|2023-05-24T18:05:43|14:14:53|dcc-youlab-gpu-30|1|10|4G||/work/jrl78/Nanoparticles/JawBreakers/Different Partial Charges/EEM Full Library|
jrl78|COMPLETED|scavenger-gpu|2023-05-24T04:02:41|2023-05-24T21:03:58|17:01:17|dcc-youlab-gpu-44|1|10|4G||/work/jrl78/Nanoparticles/JawBreakers/Different Partial Charges/EEM Full Library|
yx240|COMPLETED|scavenger-gpu|2023-05-20T19:34:20|2023-05-22T08:11:30|1-12:37:10|dcc-youlab-gpu-43|1|10|2G||/work/yx240/project-martini/new/simutools/scripts|
yx240|COMPLETED|scavenger-gpu|2023-05-20T19:40:21|2023-05-22T13:57:24|1-18:17:03|dcc-pbenfeylab-gpu-02|1|10|2G||/work/yx240/project-martini/new/simutools/scripts|
cem125|COMPLETED|scavenger-gpu|2023-05-20T22:59:11|2023-05-22T13:11:12|1-14:12:01|dcc-gehmlab-gpu-60|1|19|50G||/hpc/group/rekerlab/cem125/OpenNMT-py|
yx240|COMPLETED|scavenger-gpu|2023-05-20T23:17:58|2023-05-22T10:31:58|1-11:14:00|dcc-youlab-gpu-55|1|10|2G||/work/yx240/project-martini/new/simutools/run-pbs|
yx240|COMPLETED|scavenger-gpu|2023-05-20T23:17:58|2023-05-22T05:32:36|1-06:14:38|dcc-youlab-gpu-30|1|10|2G||/work/yx240/project-martini/new/simutools/run-pbs|
yx240|COMPLETED|scavenger-gpu|2023-05-20T23:17:58|2023-05-22T21:09:26|1-21:51:28|dcc-youlab-gpu-16|1|10|2G||/work/yx240/project-martini/new/simutools/run-pbs|
yx240|COMPLETED|scavenger-gpu|2023-05-20T23:17:58|2023-05-22T18:21:38|1-19:03:40|dcc-youlab-gpu-14|1|10|2G||/work/yx240/project-martini/new/simutools/run-pbs|
yx240|COMPLETED|scavenger-gpu|2023-05-20T23:17:58|2023-05-23T02:03:34|2-02:45:36|dcc-youlab-gpu-13|1|10|2G||/work/yx240/project-martini/new/simutools/run-pbs|
yx240|COMPLETED|scavenger-gpu|2023-05-20T23:17:59|2023-05-22T21:57:01|1-22:39:02|dcc-youlab-gpu-12|1|10|2G||/work/yx240/project-martini/new/simutools/run-pbs|
yx240|COMPLETED|scavenger-gpu|2023-05-20T23:17:59|2023-05-22T15:37:10|1-16:19:11|dcc-youlab-gpu-10|1|10|2G||/work/yx240/project-martini/new/simutools/run-pbs|
yx240|COMPLETED|scavenger-gpu|2023-05-20T23:17:59|2023-05-22T01:10:51|1-01:52:52|dcc-youlab-gpu-09|1|10|2G||/work/yx240/project-martini/new/simutools/run-pbs|
yx240|COMPLETED|scavenger-gpu|2023-05-20T23:18:00|2023-05-22T19:36:06|1-20:18:06|dcc-youlab-gpu-08|1|10|2G||/work/yx240/project-martini/new/simutools/run-pbs|
yx240|COMPLETED|scavenger-gpu|2023-05-20T23:18:00|2023-05-22T14:23:14|1-15:05:14|dcc-youlab-gpu-07|1|10|2G||/work/yx240/project-martini/new/simutools/run-pbs|
yx240|COMPLETED|scavenger-gpu|2023-05-20T23:18:00|2023-05-24T04:40:15|3-05:22:15|dcc-youlab-gpu-05|1|10|2G||/work/yx240/project-martini/new/simutools/run-pbs|
yx240|COMPLETED|scavenger-gpu|2023-05-20T23:18:00|2023-05-23T23:19:03|3-00:01:03|dcc-youlab-gpu-03|1|10|2G||/work/yx240/project-martini/new/simutools/run-pbs|
yx240|COMPLETED|scavenger-gpu|2023-05-20T23:23:05|2023-05-22T17:59:56|1-18:36:51|dcc-pbenfeylab-gpu-04|1|10|2G||/work/yx240/project-martini/new/simutools/run-pbs|
yx240|COMPLETED|scavenger-gpu|2023-05-20T23:23:05|2023-05-23T04:34:57|2-05:11:52|dcc-pbenfeylab-gpu-03|1|10|2G||/work/yx240/project-martini/new/simutools/run-pbs|
yx240|COMPLETED|scavenger-gpu|2023-05-20T23:23:05|2023-05-22T22:46:09|1-23:23:04|dcc-pbenfeylab-gpu-01|1|10|2G||/work/yx240/project-martini/new/simutools/run-pbs|
yx240|PREEMPTED|scavenger-gpu|2023-05-20T23:23:05|2023-05-23T15:36:10|2-16:13:05|dcc-gehmlab-gpu-58|1|19|2G||/work/yx240/project-martini/new/simutools/run-pbs|
yx240|PREEMPTED|scavenger-gpu|2023-05-20T23:23:05|2023-05-23T15:36:12|2-16:13:07|dcc-gehmlab-gpu-57|1|19|2G||/work/yx240/project-martini/new/simutools/run-pbs|
yx240|COMPLETED|scavenger-gpu|2023-05-20T23:23:05|2023-05-23T11:47:27|2-12:24:22|dcc-gehmlab-gpu-55|1|19|2G||/work/yx240/project-martini/new/simutools/run-pbs|
yx240|PREEMPTED|scavenger-gpu|2023-05-20T23:23:06|2023-05-23T15:36:12|2-16:13:06|dcc-gehmlab-gpu-54|1|19|2G||/work/yx240/project-martini/new/simutools/run-pbs|
yx240|PREEMPTED|scavenger-gpu|2023-05-20T23:23:06|2023-05-23T15:36:12|2-16:13:06|dcc-gehmlab-gpu-53|1|19|2G||/work/yx240/project-martini/new/simutools/run-pbs|
yx240|PREEMPTED|scavenger-gpu|2023-05-20T23:23:06|2023-05-23T15:36:12|2-16:13:06|dcc-gehmlab-gpu-52|1|19|2G||/work/yx240/project-martini/new/simutools/run-pbs|
yx240|COMPLETED|scavenger-gpu|2023-05-20T23:23:06|2023-05-23T10:55:57|2-11:32:51|dcc-gehmlab-gpu-51|1|19|2G||/work/yx240/project-martini/new/simutools/run-pbs|
yx240|PREEMPTED|scavenger-gpu|2023-05-20T23:23:06|2023-05-23T15:36:12|2-16:13:06|dcc-gehmlab-gpu-50|1|19|2G||/work/yx240/project-martini/new/simutools/run-pbs|
yx240|PREEMPTED|scavenger-gpu|2023-05-20T23:23:06|2023-05-23T15:36:12|2-16:13:06|dcc-gehmlab-gpu-49|1|19|2G||/work/yx240/project-martini/new/simutools/run-pbs|
yx240|PREEMPTED|scavenger-gpu|2023-05-20T23:23:06|2023-05-23T15:36:12|2-16:13:06|dcc-gehmlab-gpu-48|1|19|2G||/work/yx240/project-martini/new/simutools/run-pbs|
yx240|COMPLETED|scavenger-gpu|2023-05-20T23:23:06|2023-05-24T08:18:19|3-08:55:13|dcc-gehmlab-gpu-47|1|19|2G||/work/yx240/project-martini/new/simutools/run-pbs|
yx240|PREEMPTED|scavenger-gpu|2023-05-20T23:23:06|2023-05-23T15:36:12|2-16:13:06|dcc-gehmlab-gpu-46|1|19|2G||/work/yx240/project-martini/new/simutools/run-pbs|
yx240|COMPLETED|scavenger-gpu|2023-05-20T23:23:08|2023-05-23T08:11:52|2-08:48:44|dcc-gehmlab-gpu-45|1|19|2G||/work/yx240/project-martini/new/simutools/run-pbs|
yx240|PREEMPTED|scavenger-gpu|2023-05-20T23:23:08|2023-05-23T15:36:12|2-16:13:04|dcc-gehmlab-gpu-44|1|19|2G||/work/yx240/project-martini/new/simutools/run-pbs|
yx240|PREEMPTED|scavenger-gpu|2023-05-20T23:23:08|2023-05-23T15:36:12|2-16:13:04|dcc-gehmlab-gpu-43|1|19|2G||/work/yx240/project-martini/new/simutools/run-pbs|
yx240|PREEMPTED|scavenger-gpu|2023-05-20T23:23:08|2023-05-23T15:36:12|2-16:13:04|dcc-gehmlab-gpu-42|1|19|2G||/work/yx240/project-martini/new/simutools/run-pbs|
yx240|COMPLETED|scavenger-gpu|2023-05-20T23:23:08|2023-05-23T10:47:21|2-11:24:13|dcc-gehmlab-gpu-41|1|19|2G||/work/yx240/project-martini/new/simutools/run-pbs|
yx240|PREEMPTED|scavenger-gpu|2023-05-20T23:23:08|2023-05-23T15:36:17|2-16:13:09|dcc-gehmlab-gpu-40|1|19|2G||/work/yx240/project-martini/new/simutools/run-pbs|
yx240|PREEMPTED|scavenger-gpu|2023-05-20T23:23:08|2023-05-23T15:36:21|2-16:13:13|dcc-gehmlab-gpu-39|1|19|2G||/work/yx240/project-martini/new/simutools/run-pbs|
yx240|COMPLETED|scavenger-gpu|2023-05-20T23:23:08|2023-05-23T03:33:36|2-04:10:28|dcc-gehmlab-gpu-38|1|19|2G||/work/yx240/project-martini/new/simutools/run-pbs|
yx240|COMPLETED|scavenger-gpu|2023-05-20T23:23:08|2023-05-22T15:45:17|1-16:22:09|dcc-gehmlab-gpu-37|1|19|2G||/work/yx240/project-martini/new/simutools/run-pbs|
yx240|PREEMPTED|scavenger-gpu|2023-05-20T23:23:08|2023-05-23T15:36:24|2-16:13:16|dcc-gehmlab-gpu-36|1|19|2G||/work/yx240/project-martini/new/simutools/run-pbs|
yx240|COMPLETED|scavenger-gpu|2023-05-20T23:23:08|2023-05-23T07:10:58|2-07:47:50|dcc-gehmlab-gpu-35|1|19|2G||/work/yx240/project-martini/new/simutools/run-pbs|
yx240|PREEMPTED|scavenger-gpu|2023-05-20T23:23:08|2023-05-23T15:36:27|2-16:13:19|dcc-gehmlab-gpu-34|1|19|2G||/work/yx240/project-martini/new/simutools/run-pbs|
yx240|PREEMPTED|scavenger-gpu|2023-05-20T23:23:08|2023-05-23T15:36:31|2-16:13:23|dcc-gehmlab-gpu-33|1|19|2G||/work/yx240/project-martini/new/simutools/run-pbs|
yx240|CANCELLED by 1495323|scavenger-gpu|2023-05-21T11:32:59|2023-05-25T03:30:52|3-15:57:53|dcc-youlab-gpu-01|1|44|2G||/work/yx240/project-martini/new/simutools/run-pbs|
yx240|COMPLETED|scavenger-gpu|2023-05-21T11:35:44|2023-05-23T09:49:09|1-22:13:25|dcc-rekerlab-gpu-01|1|8|2G||/work/yx240/project-martini/new/simutools/run-pbs|
lh342|FAILED|scavenger-gpu|2023-05-21T14:45:40|2023-05-22T10:24:17|19:38:37|dcc-vossenlab-gpu-01|1|10|24G||/hpc/home/lh342/MMVAE|
ym208|TIMEOUT|scavenger-gpu|2023-05-21T15:00:44|2023-05-28T15:01:11|7-00:00:27|dcc-vossenlab-gpu-02|1|1|16G||/hpc/group/bartesaghilab|
minhe|COMPLETED|scavenger-gpu|2023-05-21T21:47:28|2023-05-21T22:13:04|00:25:36|dcc-youlab-gpu-34|1|10|86172M||/work/minhe/alphafold|
minhe|FAILED|scavenger-gpu|2023-05-21T21:47:28|2023-05-21T22:18:59|00:31:31|dcc-youlab-gpu-28|1|10|86172M||/work/minhe/alphafold|
minhe|COMPLETED|scavenger-gpu|2023-05-21T21:47:28|2023-05-21T22:16:42|00:29:14|dcc-ultrasound-gpu-03|1|19|86172M||/work/minhe/alphafold|
minhe|FAILED|scavenger-gpu|2023-05-21T21:47:28|2023-05-21T22:19:15|00:31:47|dcc-ultrasound-gpu-02|1|19|86172M||/work/minhe/alphafold|
minhe|FAILED|scavenger-gpu|2023-05-21T21:47:28|2023-05-21T22:18:54|00:31:26|dcc-ultrasound-gpu-01|1|19|86172M||/work/minhe/alphafold|
minhe|COMPLETED|scavenger-gpu|2023-05-21T21:47:28|2023-05-21T22:06:53|00:19:25|dcc-tdunn-gpu-02|1|44|86172M||/work/minhe/alphafold|
minhe|COMPLETED|scavenger-gpu|2023-05-21T21:46:56|2023-05-21T22:00:18|00:13:22|dcc-gehmlab-gpu-25|1|19|86172M||/work/minhe/alphafold|
minhe|FAILED|scavenger-gpu|2023-05-21T21:47:28|2023-05-21T22:18:59|00:31:31|dcc-mastatlab-gpu-01|1|44|86172M||/work/minhe/alphafold|
minhe|FAILED|scavenger-gpu|2023-05-21T21:47:28|2023-05-21T22:21:42|00:34:14|dcc-gehmlab-gpu-59|1|19|86172M||/work/minhe/alphafold|
minhe|FAILED|scavenger-gpu|2023-05-21T21:47:28|2023-05-21T22:18:54|00:31:26|dcc-gehmlab-gpu-56|1|19|86172M||/work/minhe/alphafold|
minhe|FAILED|scavenger-gpu|2023-05-21T21:47:31|2023-05-21T22:18:59|00:31:28|dcc-gehmlab-gpu-32|1|19|86172M||/work/minhe/alphafold|
minhe|FAILED|scavenger-gpu|2023-05-21T21:47:31|2023-05-21T22:19:02|00:31:31|dcc-gehmlab-gpu-31|1|19|86172M||/work/minhe/alphafold|
minhe|FAILED|scavenger-gpu|2023-05-21T21:47:31|2023-05-21T22:19:07|00:31:36|dcc-gehmlab-gpu-30|1|19|86172M||/work/minhe/alphafold|
minhe|FAILED|scavenger-gpu|2023-05-21T21:47:31|2023-05-21T22:18:54|00:31:23|dcc-gehmlab-gpu-29|1|19|86172M||/work/minhe/alphafold|
minhe|FAILED|scavenger-gpu|2023-05-21T21:46:56|2023-05-21T22:19:07|00:32:11|dcc-gehmlab-gpu-07|1|19|86172M||/work/minhe/alphafold|
minhe|FAILED|scavenger-gpu|2023-05-21T21:46:56|2023-05-21T22:19:02|00:32:06|dcc-gehmlab-gpu-06|1|19|86172M||/work/minhe/alphafold|
minhe|FAILED|scavenger-gpu|2023-05-21T21:46:56|2023-05-21T22:19:10|00:32:14|dcc-gehmlab-gpu-05|1|19|86172M||/work/minhe/alphafold|
minhe|FAILED|scavenger-gpu|2023-05-21T21:46:56|2023-05-21T22:19:07|00:32:11|dcc-gehmlab-gpu-03|1|19|86172M||/work/minhe/alphafold|
minhe|COMPLETED|scavenger-gpu|2023-05-21T21:47:31|2023-05-21T22:06:04|00:18:33|dcc-gehmlab-gpu-28|1|19|86172M||/work/minhe/alphafold|
minhe|FAILED|scavenger-gpu|2023-05-21T21:47:31|2023-05-21T22:19:02|00:31:31|dcc-gehmlab-gpu-26|1|19|86172M||/work/minhe/alphafold|
minhe|FAILED|scavenger-gpu|2023-05-21T21:47:31|2023-05-21T22:18:54|00:31:23|dcc-gehmlab-gpu-24|1|19|86172M||/work/minhe/alphafold|
minhe|COMPLETED|scavenger-gpu|2023-05-21T21:47:31|2023-05-21T22:09:17|00:21:46|dcc-gehmlab-gpu-23|1|19|86172M||/work/minhe/alphafold|
minhe|COMPLETED|scavenger-gpu|2023-05-21T21:47:31|2023-05-21T22:03:24|00:15:53|dcc-gehmlab-gpu-22|1|19|86172M||/work/minhe/alphafold|
minhe|FAILED|scavenger-gpu|2023-05-21T21:47:31|2023-05-21T22:18:58|00:31:27|dcc-gehmlab-gpu-21|1|19|86172M||/work/minhe/alphafold|
minhe|FAILED|scavenger-gpu|2023-05-21T21:48:05|2023-05-21T22:19:26|00:31:21|dcc-gehmlab-gpu-20|1|19|86172M||/work/minhe/alphafold|
minhe|FAILED|scavenger-gpu|2023-05-21T21:48:05|2023-05-21T22:19:02|00:30:57|dcc-gehmlab-gpu-19|1|19|86172M||/work/minhe/alphafold|
minhe|COMPLETED|scavenger-gpu|2023-05-21T21:48:05|2023-05-21T22:17:59|00:29:54|dcc-gehmlab-gpu-18|1|19|86172M||/work/minhe/alphafold|
minhe|FAILED|scavenger-gpu|2023-05-21T21:48:05|2023-05-21T22:19:11|00:31:06|dcc-gehmlab-gpu-17|1|19|86172M||/work/minhe/alphafold|
minhe|FAILED|scavenger-gpu|2023-05-21T21:48:05|2023-05-21T22:19:10|00:31:05|dcc-gehmlab-gpu-16|1|19|86172M||/work/minhe/alphafold|
minhe|FAILED|scavenger-gpu|2023-05-21T21:48:05|2023-05-21T22:19:02|00:30:57|dcc-gehmlab-gpu-15|1|19|86172M||/work/minhe/alphafold|
minhe|COMPLETED|scavenger-gpu|2023-05-21T21:48:05|2023-05-21T22:03:44|00:15:39|dcc-gehmlab-gpu-14|1|19|86172M||/work/minhe/alphafold|
minhe|COMPLETED|scavenger-gpu|2023-05-21T21:48:05|2023-05-21T22:15:08|00:27:03|dcc-gehmlab-gpu-13|1|19|86172M||/work/minhe/alphafold|
minhe|FAILED|scavenger-gpu|2023-05-21T21:54:40|2023-05-21T22:18:58|00:24:18|dcc-gehmlab-gpu-12|1|19|86172M||/work/minhe/alphafold|
minhe|FAILED|scavenger-gpu|2023-05-21T21:57:21|2023-05-21T22:22:26|00:25:05|dcc-gehmlab-gpu-27|1|19|86172M||/work/minhe/alphafold|
minhe|FAILED|scavenger-gpu|2023-05-21T22:00:37|2023-05-21T22:19:22|00:18:45|dcc-gehmlab-gpu-25|1|19|86172M||/work/minhe/alphafold|
minhe|FAILED|scavenger-gpu|2023-05-21T22:03:50|2023-05-21T22:18:58|00:15:08|dcc-gehmlab-gpu-22|1|19|86172M||/work/minhe/alphafold|
minhe|FAILED|scavenger-gpu|2023-05-21T22:03:50|2023-05-21T22:18:50|00:15:00|dcc-gehmlab-gpu-14|1|19|86172M||/work/minhe/alphafold|
minhe|FAILED|scavenger-gpu|2023-05-21T22:06:34|2023-05-21T22:18:58|00:12:24|dcc-gehmlab-gpu-28|1|19|86172M||/work/minhe/alphafold|
minhe|FAILED|scavenger-gpu|2023-05-21T22:07:06|2023-05-21T22:19:07|00:12:01|dcc-tdunn-gpu-02|1|44|86172M||/work/minhe/alphafold|
minhe|FAILED|scavenger-gpu|2023-05-21T22:09:18|2023-05-21T22:19:02|00:09:44|dcc-gehmlab-gpu-11|1|19|86172M||/work/minhe/alphafold|
minhe|FAILED|scavenger-gpu|2023-05-21T22:13:08|2023-05-21T22:19:22|00:06:14|dcc-youlab-gpu-34|1|10|86172M||/work/minhe/alphafold|
minhe|FAILED|scavenger-gpu|2023-05-21T22:15:17|2023-05-21T22:19:02|00:03:45|dcc-gehmlab-gpu-23|1|19|86172M||/work/minhe/alphafold|
minhe|FAILED|scavenger-gpu|2023-05-21T22:16:56|2023-05-21T22:19:38|00:02:42|dcc-ultrasound-gpu-03|1|19|86172M||/work/minhe/alphafold|
minhe|FAILED|scavenger-gpu|2023-05-21T22:18:00|2023-05-21T22:18:58|00:00:58|dcc-gehmlab-gpu-13|1|19|86172M||/work/minhe/alphafold|
minhe|COMPLETED|scavenger-gpu|2023-05-21T22:19:06|2023-05-21T23:07:14|00:48:08|dcc-youlab-gpu-28|1|10|86172M||/work/minhe/alphafold|
minhe|COMPLETED|scavenger-gpu|2023-05-21T22:19:06|2023-05-21T22:29:57|00:10:51|dcc-ultrasound-gpu-01|1|19|86172M||/work/minhe/alphafold|
minhe|COMPLETED|scavenger-gpu|2023-05-21T22:19:06|2023-05-21T22:50:49|00:31:43|dcc-mastatlab-gpu-01|1|44|86172M||/work/minhe/alphafold|
minhe|COMPLETED|scavenger-gpu|2023-05-21T22:19:06|2023-05-21T22:28:33|00:09:27|dcc-gehmlab-gpu-56|1|19|86172M||/work/minhe/alphafold|
minhe|COMPLETED|scavenger-gpu|2023-05-21T22:19:06|2023-05-21T22:49:30|00:30:24|dcc-gehmlab-gpu-32|1|19|86172M||/work/minhe/alphafold|
minhe|COMPLETED|scavenger-gpu|2023-05-21T22:19:06|2023-05-21T22:43:45|00:24:39|dcc-gehmlab-gpu-31|1|19|86172M||/work/minhe/alphafold|
minhe|CANCELLED by 10212|scavenger-gpu|2023-05-21T22:19:06|2023-05-21T23:15:38|00:56:32|dcc-gehmlab-gpu-29|1|19|86172M||/work/minhe/alphafold|
minhe|COMPLETED|scavenger-gpu|2023-05-21T22:19:06|2023-05-21T22:40:30|00:21:24|dcc-gehmlab-gpu-28|1|19|86172M||/work/minhe/alphafold|
minhe|COMPLETED|scavenger-gpu|2023-05-21T22:19:07|2023-05-21T22:42:03|00:22:56|dcc-gehmlab-gpu-26|1|19|86172M||/work/minhe/alphafold|
minhe|COMPLETED|scavenger-gpu|2023-05-21T22:19:07|2023-05-21T22:35:02|00:15:55|dcc-gehmlab-gpu-24|1|19|86172M||/work/minhe/alphafold|
minhe|COMPLETED|scavenger-gpu|2023-05-21T22:19:07|2023-05-21T22:51:22|00:32:15|dcc-gehmlab-gpu-23|1|19|86172M||/work/minhe/alphafold|
minhe|COMPLETED|scavenger-gpu|2023-05-21T22:19:07|2023-05-21T22:58:24|00:39:17|dcc-gehmlab-gpu-22|1|19|86172M||/work/minhe/alphafold|
minhe|CANCELLED by 10212|scavenger-gpu|2023-05-21T22:19:07|2023-05-21T23:15:46|00:56:39|dcc-gehmlab-gpu-21|1|19|86172M||/work/minhe/alphafold|
minhe|COMPLETED|scavenger-gpu|2023-05-21T22:19:07|2023-05-21T22:50:00|00:30:53|dcc-gehmlab-gpu-19|1|19|86172M||/work/minhe/alphafold|
minhe|COMPLETED|scavenger-gpu|2023-05-21T22:19:07|2023-05-21T22:51:19|00:32:12|dcc-gehmlab-gpu-18|1|19|86172M||/work/minhe/alphafold|
minhe|COMPLETED|scavenger-gpu|2023-05-21T22:19:07|2023-05-21T22:51:18|00:32:11|dcc-gehmlab-gpu-15|1|19|86172M||/work/minhe/alphafold|
minhe|COMPLETED|scavenger-gpu|2023-05-21T22:19:07|2023-05-21T22:39:01|00:19:54|dcc-gehmlab-gpu-14|1|19|86172M||/work/minhe/alphafold|
minhe|COMPLETED|scavenger-gpu|2023-05-21T22:19:07|2023-05-21T22:55:35|00:36:28|dcc-gehmlab-gpu-13|1|19|86172M||/work/minhe/alphafold|
minhe|COMPLETED|scavenger-gpu|2023-05-21T22:19:07|2023-05-21T22:51:27|00:32:20|dcc-gehmlab-gpu-12|1|19|86172M||/work/minhe/alphafold|
minhe|COMPLETED|scavenger-gpu|2023-05-21T22:19:07|2023-05-21T22:51:38|00:32:31|dcc-gehmlab-gpu-11|1|19|86172M||/work/minhe/alphafold|
minhe|COMPLETED|scavenger-gpu|2023-05-21T22:19:40|2023-05-21T22:56:07|00:36:27|dcc-youlab-gpu-34|1|10|86172M||/work/minhe/alphafold|
minhe|COMPLETED|scavenger-gpu|2023-05-22T00:53:12|2023-05-22T01:40:53|00:47:41|dcc-ultrasound-gpu-01|1|19|86172M||/work/minhe/alphafold|
minhe|CANCELLED by 10212|scavenger-gpu|2023-05-21T22:19:40|2023-05-21T23:16:11|00:56:31|dcc-ultrasound-gpu-02|1|19|86172M||/work/minhe/alphafold|
minhe|COMPLETED|scavenger-gpu|2023-05-21T22:19:40|2023-05-21T23:01:06|00:41:26|dcc-tdunn-gpu-02|1|44|86172M||/work/minhe/alphafold|
minhe|CANCELLED by 10212|scavenger-gpu|2023-05-21T22:19:40|2023-05-21T23:16:06|00:56:26|dcc-gehmlab-gpu-30|1|19|86172M||/work/minhe/alphafold|
minhe|COMPLETED|scavenger-gpu|2023-05-21T22:19:40|2023-05-21T23:03:24|00:43:44|dcc-gehmlab-gpu-25|1|19|86172M||/work/minhe/alphafold|
minhe|CANCELLED by 10212|scavenger-gpu|2023-05-21T22:19:40|2023-05-21T23:15:54|00:56:14|dcc-gehmlab-gpu-20|1|19|86172M||/work/minhe/alphafold|
minhe|COMPLETED|scavenger-gpu|2023-05-21T22:19:40|2023-05-21T22:52:13|00:32:33|dcc-gehmlab-gpu-17|1|19|86172M||/work/minhe/alphafold|
minhe|COMPLETED|scavenger-gpu|2023-05-21T22:19:40|2023-05-21T22:51:23|00:31:43|dcc-gehmlab-gpu-16|1|19|86172M||/work/minhe/alphafold|
minhe|CANCELLED by 10212|scavenger-gpu|2023-05-21T22:19:40|2023-05-21T23:15:50|00:56:10|dcc-gehmlab-gpu-10|1|19|86172M||/work/minhe/alphafold|
minhe|COMPLETED|scavenger-gpu|2023-05-21T22:19:42|2023-05-21T22:34:06|00:14:24|dcc-gehmlab-gpu-09|1|19|86172M||/work/minhe/alphafold|
minhe|COMPLETED|scavenger-gpu|2023-05-21T22:19:42|2023-05-21T22:51:30|00:31:48|dcc-gehmlab-gpu-08|1|19|86172M||/work/minhe/alphafold|
minhe|CANCELLED by 10212|scavenger-gpu|2023-05-21T22:19:42|2023-05-21T23:16:22|00:56:40|dcc-gehmlab-gpu-07|1|19|86172M||/work/minhe/alphafold|
minhe|COMPLETED|scavenger-gpu|2023-05-22T00:53:45|2023-05-22T01:51:25|00:57:40|dcc-tdunn-gpu-02|1|44|86172M||/work/minhe/alphafold|
minhe|COMPLETED|scavenger-gpu|2023-05-22T00:54:19|2023-05-22T02:25:11|01:30:52|dcc-mastatlab-gpu-01|1|44|86172M||/work/minhe/alphafold|
minhe|COMPLETED|scavenger-gpu|2023-05-22T00:54:19|2023-05-22T02:42:15|01:47:56|dcc-gehmlab-gpu-30|1|19|86172M||/work/minhe/alphafold|
minhe|COMPLETED|scavenger-gpu|2023-05-22T00:54:53|2023-05-22T01:52:01|00:57:08|dcc-gehmlab-gpu-29|1|19|86172M||/work/minhe/alphafold|
minhe|COMPLETED|scavenger-gpu|2023-05-22T00:54:53|2023-05-22T02:12:07|01:17:14|dcc-gehmlab-gpu-28|1|19|86172M||/work/minhe/alphafold|
minhe|COMPLETED|scavenger-gpu|2023-05-22T00:55:27|2023-05-22T01:21:09|00:25:42|dcc-gehmlab-gpu-27|1|19|86172M||/work/minhe/alphafold|
minhe|COMPLETED|scavenger-gpu|2023-05-22T00:55:27|2023-05-22T01:04:40|00:09:13|dcc-gehmlab-gpu-26|1|19|86172M||/work/minhe/alphafold|
minhe|COMPLETED|scavenger-gpu|2023-05-22T00:55:27|2023-05-22T01:19:49|00:24:22|dcc-gehmlab-gpu-25|1|19|86172M||/work/minhe/alphafold|
minhe|COMPLETED|scavenger-gpu|2023-05-22T00:55:59|2023-05-22T01:45:24|00:49:25|dcc-gehmlab-gpu-24|1|19|86172M||/work/minhe/alphafold|
minhe|COMPLETED|scavenger-gpu|2023-05-22T00:55:59|2023-05-22T02:09:20|01:13:21|dcc-gehmlab-gpu-23|1|19|86172M||/work/minhe/alphafold|
minhe|COMPLETED|scavenger-gpu|2023-05-22T00:55:59|2023-05-22T01:03:29|00:07:30|dcc-gehmlab-gpu-22|1|19|86172M||/work/minhe/alphafold|
minhe|COMPLETED|scavenger-gpu|2023-05-22T00:56:31|2023-05-22T01:35:45|00:39:14|dcc-gehmlab-gpu-21|1|19|86172M||/work/minhe/alphafold|
minhe|COMPLETED|scavenger-gpu|2023-05-22T00:56:31|2023-05-22T01:51:49|00:55:18|dcc-gehmlab-gpu-20|1|19|86172M||/work/minhe/alphafold|
minhe|COMPLETED|scavenger-gpu|2023-05-22T00:56:31|2023-05-22T01:22:36|00:26:05|dcc-gehmlab-gpu-19|1|19|86172M||/work/minhe/alphafold|
minhe|COMPLETED|scavenger-gpu|2023-05-22T00:57:04|2023-05-22T01:46:32|00:49:28|dcc-gehmlab-gpu-18|1|19|86172M||/work/minhe/alphafold|
minhe|COMPLETED|scavenger-gpu|2023-05-22T00:57:04|2023-05-22T01:12:00|00:14:56|dcc-gehmlab-gpu-17|1|19|86172M||/work/minhe/alphafold|
minhe|COMPLETED|scavenger-gpu|2023-05-22T00:57:04|2023-05-22T01:51:38|00:54:34|dcc-gehmlab-gpu-16|1|19|86172M||/work/minhe/alphafold|
minhe|COMPLETED|scavenger-gpu|2023-05-22T00:57:37|2023-05-22T01:51:58|00:54:21|dcc-gehmlab-gpu-15|1|19|86172M||/work/minhe/alphafold|
minhe|COMPLETED|scavenger-gpu|2023-05-22T00:57:37|2023-05-22T01:36:09|00:38:32|dcc-gehmlab-gpu-14|1|19|86172M||/work/minhe/alphafold|
minhe|COMPLETED|scavenger-gpu|2023-05-22T00:57:37|2023-05-22T02:45:25|01:47:48|dcc-gehmlab-gpu-13|1|19|86172M||/work/minhe/alphafold|
minhe|COMPLETED|scavenger-gpu|2023-05-22T00:57:37|2023-05-22T02:07:50|01:10:13|dcc-gehmlab-gpu-12|1|19|86172M||/work/minhe/alphafold|
minhe|COMPLETED|scavenger-gpu|2023-05-22T00:58:09|2023-05-22T01:16:05|00:17:56|dcc-gehmlab-gpu-11|1|19|86172M||/work/minhe/alphafold|
minhe|COMPLETED|scavenger-gpu|2023-05-22T00:58:09|2023-05-22T01:24:42|00:26:33|dcc-gehmlab-gpu-10|1|19|86172M||/work/minhe/alphafold|
minhe|COMPLETED|scavenger-gpu|2023-05-22T00:58:09|2023-05-22T01:39:06|00:40:57|dcc-gehmlab-gpu-07|1|19|86172M||/work/minhe/alphafold|
minhe|COMPLETED|scavenger-gpu|2023-05-22T00:58:10|2023-05-22T01:27:06|00:28:56|dcc-gehmlab-gpu-06|1|19|86172M||/work/minhe/alphafold|
minhe|COMPLETED|scavenger-gpu|2023-05-22T00:58:42|2023-05-22T01:18:53|00:20:11|dcc-gehmlab-gpu-05|1|19|86172M||/work/minhe/alphafold|
minhe|COMPLETED|scavenger-gpu|2023-05-22T00:58:42|2023-05-22T00:58:57|00:00:15|dcc-gehmlab-gpu-04|1|19|86172M||/work/minhe/alphafold|
minhe|COMPLETED|scavenger-gpu|2023-05-22T00:58:42|2023-05-22T02:52:05|01:53:23|dcc-gehmlab-gpu-03|1|19|86172M||/work/minhe/alphafold|
minhe|COMPLETED|scavenger-gpu|2023-05-22T00:59:14|2023-05-22T00:59:28|00:00:14|dcc-gehmlab-gpu-04|1|19|86172M||/work/minhe/alphafold|
minhe|COMPLETED|scavenger-gpu|2023-05-22T00:59:46|2023-05-22T01:00:04|00:00:18|dcc-gehmlab-gpu-04|1|19|86172M||/work/minhe/alphafold|
minhe|COMPLETED|scavenger-gpu|2023-05-22T01:00:18|2023-05-22T01:00:34|00:00:16|dcc-gehmlab-gpu-04|1|19|86172M||/work/minhe/alphafold|
minhe|COMPLETED|scavenger-gpu|2023-05-22T01:00:51|2023-05-22T01:01:05|00:00:14|dcc-gehmlab-gpu-04|1|19|86172M||/work/minhe/alphafold|
minhe|COMPLETED|scavenger-gpu|2023-05-22T01:01:23|2023-05-22T01:01:38|00:00:15|dcc-gehmlab-gpu-04|1|19|86172M||/work/minhe/alphafold|
minhe|COMPLETED|scavenger-gpu|2023-05-22T01:01:55|2023-05-22T01:02:09|00:00:14|dcc-gehmlab-gpu-04|1|19|86172M||/work/minhe/alphafold|
minhe|COMPLETED|scavenger-gpu|2023-05-22T01:02:29|2023-05-22T01:02:45|00:00:16|dcc-gehmlab-gpu-04|1|19|86172M||/work/minhe/alphafold|
minhe|COMPLETED|scavenger-gpu|2023-05-22T01:03:03|2023-05-22T01:03:18|00:00:15|dcc-gehmlab-gpu-04|1|19|86172M||/work/minhe/alphafold|
minhe|COMPLETED|scavenger-gpu|2023-05-22T01:03:35|2023-05-22T01:30:34|00:26:59|dcc-gehmlab-gpu-22|1|19|86172M||/work/minhe/alphafold|
minhe|COMPLETED|scavenger-gpu|2023-05-22T01:03:35|2023-05-22T01:03:51|00:00:16|dcc-gehmlab-gpu-04|1|19|86172M||/work/minhe/alphafold|
minhe|COMPLETED|scavenger-gpu|2023-05-22T01:04:09|2023-05-22T01:04:24|00:00:15|dcc-gehmlab-gpu-04|1|19|86172M||/work/minhe/alphafold|
minhe|COMPLETED|scavenger-gpu|2023-05-22T01:04:41|2023-05-22T01:04:55|00:00:14|dcc-gehmlab-gpu-04|1|19|86172M||/work/minhe/alphafold|
minhe|COMPLETED|scavenger-gpu|2023-05-22T01:04:41|2023-05-22T01:28:34|00:23:53|dcc-gehmlab-gpu-02|1|19|86172M||/work/minhe/alphafold|
minhe|COMPLETED|scavenger-gpu|2023-05-22T01:05:13|2023-05-22T01:51:54|00:46:41|dcc-gehmlab-gpu-26|1|19|86172M||/work/minhe/alphafold|
minhe|COMPLETED|scavenger-gpu|2023-05-22T01:11:17|2023-05-22T01:50:57|00:39:40|dcc-youlab-gpu-09|1|10|86172M||/work/minhe/alphafold|
minhe|COMPLETED|scavenger-gpu|2023-05-22T01:12:21|2023-05-22T01:51:57|00:39:36|dcc-gehmlab-gpu-17|1|19|86172M||/work/minhe/alphafold|
minhe|COMPLETED|scavenger-gpu|2023-05-22T01:16:13|2023-05-22T01:50:52|00:34:39|dcc-gehmlab-gpu-11|1|19|86172M||/work/minhe/alphafold|
minhe|COMPLETED|scavenger-gpu|2023-05-22T01:18:59|2023-05-22T02:21:07|01:02:08|dcc-gehmlab-gpu-05|1|19|86172M||/work/minhe/alphafold|
minhe|COMPLETED|scavenger-gpu|2023-05-22T01:20:03|2023-05-22T01:51:49|00:31:46|dcc-gehmlab-gpu-25|1|19|86172M||/work/minhe/alphafold|
minhe|COMPLETED|scavenger-gpu|2023-05-22T01:21:10|2023-05-22T01:21:37|00:00:27|dcc-gehmlab-gpu-04|1|19|86172M||/work/minhe/alphafold|
minhe|COMPLETED|scavenger-gpu|2023-05-22T01:21:43|2023-05-22T01:55:50|00:34:07|dcc-gehmlab-gpu-27|1|19|86172M||/work/minhe/alphafold|
minhe|COMPLETED|scavenger-gpu|2023-05-22T01:22:47|2023-05-22T02:19:43|00:56:56|dcc-gehmlab-gpu-19|1|19|86172M||/work/minhe/alphafold|
minhe|COMPLETED|scavenger-gpu|2023-05-22T01:24:55|2023-05-22T01:51:50|00:26:55|dcc-gehmlab-gpu-10|1|19|86172M||/work/minhe/alphafold|
minhe|COMPLETED|scavenger-gpu|2023-05-22T01:27:38|2023-05-22T01:57:11|00:29:33|dcc-gehmlab-gpu-06|1|19|86172M||/work/minhe/alphafold|
minhe|COMPLETED|scavenger-gpu|2023-05-22T01:28:43|2023-05-22T01:28:58|00:00:15|dcc-gehmlab-gpu-04|1|19|86172M||/work/minhe/alphafold|
minhe|COMPLETED|scavenger-gpu|2023-05-22T01:29:15|2023-05-22T01:29:32|00:00:17|dcc-gehmlab-gpu-04|1|19|86172M||/work/minhe/alphafold|
minhe|COMPLETED|scavenger-gpu|2023-05-22T01:29:48|2023-05-22T01:30:06|00:00:18|dcc-gehmlab-gpu-04|1|19|86172M||/work/minhe/alphafold|
minhe|COMPLETED|scavenger-gpu|2023-05-22T01:30:22|2023-05-22T01:30:38|00:00:16|dcc-gehmlab-gpu-04|1|19|86172M||/work/minhe/alphafold|
minhe|COMPLETED|scavenger-gpu|2023-05-22T01:30:54|2023-05-22T01:51:53|00:20:59|dcc-gehmlab-gpu-22|1|19|86172M||/work/minhe/alphafold|
minhe|COMPLETED|scavenger-gpu|2023-05-22T01:30:54|2023-05-22T01:31:07|00:00:13|dcc-gehmlab-gpu-04|1|19|86172M||/work/minhe/alphafold|
minhe|COMPLETED|scavenger-gpu|2023-05-22T01:31:27|2023-05-22T01:31:43|00:00:16|dcc-gehmlab-gpu-04|1|19|86172M||/work/minhe/alphafold|
minhe|COMPLETED|scavenger-gpu|2023-05-22T01:32:00|2023-05-22T01:32:15|00:00:15|dcc-gehmlab-gpu-04|1|19|86172M||/work/minhe/alphafold|
minhe|COMPLETED|scavenger-gpu|2023-05-22T01:32:33|2023-05-22T01:32:47|00:00:14|dcc-gehmlab-gpu-04|1|19|86172M||/work/minhe/alphafold|
minhe|COMPLETED|scavenger-gpu|2023-05-22T01:33:06|2023-05-22T01:33:22|00:00:16|dcc-gehmlab-gpu-04|1|19|86172M||/work/minhe/alphafold|
minhe|COMPLETED|scavenger-gpu|2023-05-22T01:33:39|2023-05-22T01:33:54|00:00:15|dcc-gehmlab-gpu-04|1|19|86172M||/work/minhe/alphafold|
minhe|COMPLETED|scavenger-gpu|2023-05-22T01:34:12|2023-05-22T01:34:26|00:00:14|dcc-gehmlab-gpu-04|1|19|86172M||/work/minhe/alphafold|
minhe|COMPLETED|scavenger-gpu|2023-05-22T01:34:44|2023-05-22T01:34:58|00:00:14|dcc-gehmlab-gpu-04|1|19|86172M||/work/minhe/alphafold|
minhe|COMPLETED|scavenger-gpu|2023-05-22T01:35:16|2023-05-22T01:35:29|00:00:13|dcc-gehmlab-gpu-04|1|19|86172M||/work/minhe/alphafold|
minhe|COMPLETED|scavenger-gpu|2023-05-22T01:35:49|2023-05-22T01:43:34|00:07:45|dcc-gehmlab-gpu-21|1|19|86172M||/work/minhe/alphafold|
minhe|COMPLETED|scavenger-gpu|2023-05-22T01:35:49|2023-05-22T01:36:05|00:00:16|dcc-gehmlab-gpu-04|1|19|86172M||/work/minhe/alphafold|
minhe|COMPLETED|scavenger-gpu|2023-05-22T01:36:22|2023-05-22T01:54:35|00:18:13|dcc-gehmlab-gpu-14|1|19|86172M||/work/minhe/alphafold|
minhe|COMPLETED|scavenger-gpu|2023-05-22T01:36:23|2023-05-22T01:36:38|00:00:15|dcc-gehmlab-gpu-04|1|19|86172M||/work/minhe/alphafold|
minhe|COMPLETED|scavenger-gpu|2023-05-22T01:36:55|2023-05-22T01:37:10|00:00:15|dcc-gehmlab-gpu-04|1|19|86172M||/work/minhe/alphafold|
minhe|COMPLETED|scavenger-gpu|2023-05-22T01:37:27|2023-05-22T01:37:42|00:00:15|dcc-gehmlab-gpu-04|1|19|86172M||/work/minhe/alphafold|
minhe|COMPLETED|scavenger-gpu|2023-05-22T01:37:59|2023-05-22T01:38:15|00:00:16|dcc-gehmlab-gpu-04|1|19|86172M||/work/minhe/alphafold|
minhe|COMPLETED|scavenger-gpu|2023-05-22T01:38:31|2023-05-22T01:38:45|00:00:14|dcc-gehmlab-gpu-04|1|19|86172M||/work/minhe/alphafold|
minhe|COMPLETED|scavenger-gpu|2023-05-22T01:39:03|2023-05-22T01:39:18|00:00:15|dcc-gehmlab-gpu-04|1|19|86172M||/work/minhe/alphafold|
minhe|COMPLETED|scavenger-gpu|2023-05-22T01:39:36|2023-05-22T02:24:12|00:44:36|dcc-gehmlab-gpu-07|1|19|86172M||/work/minhe/alphafold|
minhe|COMPLETED|scavenger-gpu|2023-05-22T01:39:36|2023-05-22T01:39:50|00:00:14|dcc-gehmlab-gpu-04|1|19|86172M||/work/minhe/alphafold|
minhe|COMPLETED|scavenger-gpu|2023-05-22T01:40:08|2023-05-22T01:40:23|00:00:15|dcc-gehmlab-gpu-04|1|19|86172M||/work/minhe/alphafold|
minhe|COMPLETED|scavenger-gpu|2023-05-22T01:40:40|2023-05-22T01:40:53|00:00:13|dcc-gehmlab-gpu-04|1|19|86172M||/work/minhe/alphafold|
minhe|COMPLETED|scavenger-gpu|2023-05-22T01:41:15|2023-05-22T02:51:42|01:10:27|dcc-ultrasound-gpu-01|1|19|86172M||/work/minhe/alphafold|
minhe|COMPLETED|scavenger-gpu|2023-05-22T01:41:15|2023-05-22T01:41:28|00:00:13|dcc-gehmlab-gpu-04|1|19|86172M||/work/minhe/alphafold|
minhe|COMPLETED|scavenger-gpu|2023-05-22T01:41:48|2023-05-22T01:42:03|00:00:15|dcc-gehmlab-gpu-04|1|19|86172M||/work/minhe/alphafold|
minhe|COMPLETED|scavenger-gpu|2023-05-22T01:42:20|2023-05-22T01:42:34|00:00:14|dcc-gehmlab-gpu-04|1|19|86172M||/work/minhe/alphafold|
minhe|COMPLETED|scavenger-gpu|2023-05-22T01:42:54|2023-05-22T01:43:09|00:00:15|dcc-gehmlab-gpu-04|1|19|86172M||/work/minhe/alphafold|
minhe|COMPLETED|scavenger-gpu|2023-05-22T01:43:27|2023-05-22T01:43:42|00:00:15|dcc-gehmlab-gpu-04|1|19|86172M||/work/minhe/alphafold|
minhe|COMPLETED|scavenger-gpu|2023-05-22T01:44:01|2023-05-22T01:52:55|00:08:54|dcc-gehmlab-gpu-21|1|19|86172M||/work/minhe/alphafold|
minhe|COMPLETED|scavenger-gpu|2023-05-22T01:44:01|2023-05-22T01:44:16|00:00:15|dcc-gehmlab-gpu-04|1|19|86172M||/work/minhe/alphafold|
minhe|COMPLETED|scavenger-gpu|2023-05-22T01:44:34|2023-05-22T01:44:48|00:00:14|dcc-gehmlab-gpu-04|1|19|86172M||/work/minhe/alphafold|
minhe|COMPLETED|scavenger-gpu|2023-05-22T01:45:06|2023-05-22T01:45:21|00:00:15|dcc-gehmlab-gpu-04|1|19|86172M||/work/minhe/alphafold|
minhe|COMPLETED|scavenger-gpu|2023-05-22T01:45:39|2023-05-22T02:32:34|00:46:55|dcc-gehmlab-gpu-24|1|19|86172M||/work/minhe/alphafold|
minhe|COMPLETED|scavenger-gpu|2023-05-22T01:45:39|2023-05-22T01:45:53|00:00:14|dcc-gehmlab-gpu-04|1|19|86172M||/work/minhe/alphafold|
minhe|COMPLETED|scavenger-gpu|2023-05-22T01:46:12|2023-05-22T01:46:25|00:00:13|dcc-gehmlab-gpu-04|1|19|86172M||/work/minhe/alphafold|
minhe|COMPLETED|scavenger-gpu|2023-05-22T01:46:45|2023-05-22T02:02:55|00:16:10|dcc-gehmlab-gpu-18|1|19|86172M||/work/minhe/alphafold|
minhe|COMPLETED|scavenger-gpu|2023-05-22T01:46:45|2023-05-22T01:46:59|00:00:14|dcc-gehmlab-gpu-04|1|19|86172M||/work/minhe/alphafold|
minhe|COMPLETED|scavenger-gpu|2023-05-22T01:47:18|2023-05-22T01:47:31|00:00:13|dcc-gehmlab-gpu-04|1|19|86172M||/work/minhe/alphafold|
minhe|COMPLETED|scavenger-gpu|2023-05-22T01:47:50|2023-05-22T01:48:05|00:00:15|dcc-gehmlab-gpu-04|1|19|86172M||/work/minhe/alphafold|
minhe|COMPLETED|scavenger-gpu|2023-05-22T01:48:22|2023-05-22T01:48:37|00:00:15|dcc-gehmlab-gpu-04|1|19|86172M||/work/minhe/alphafold|
minhe|COMPLETED|scavenger-gpu|2023-05-22T01:48:54|2023-05-22T01:49:08|00:00:14|dcc-gehmlab-gpu-04|1|19|86172M||/work/minhe/alphafold|
minhe|COMPLETED|scavenger-gpu|2023-05-22T01:49:26|2023-05-22T01:49:41|00:00:15|dcc-gehmlab-gpu-04|1|19|86172M||/work/minhe/alphafold|
minhe|COMPLETED|scavenger-gpu|2023-05-22T01:49:58|2023-05-22T01:50:17|00:00:19|dcc-gehmlab-gpu-04|1|19|86172M||/work/minhe/alphafold|
minhe|COMPLETED|scavenger-gpu|2023-05-22T01:50:32|2023-05-22T01:50:45|00:00:13|dcc-gehmlab-gpu-04|1|19|86172M||/work/minhe/alphafold|
minhe|COMPLETED|scavenger-gpu|2023-05-22T01:51:05|2023-05-22T02:50:13|00:59:08|dcc-youlab-gpu-09|1|10|86172M||/work/minhe/alphafold|
minhe|COMPLETED|scavenger-gpu|2023-05-22T01:51:05|2023-05-22T02:51:49|01:00:44|dcc-gehmlab-gpu-11|1|19|86172M||/work/minhe/alphafold|
minhe|COMPLETED|scavenger-gpu|2023-05-22T01:51:05|2023-05-22T01:51:21|00:00:16|dcc-gehmlab-gpu-04|1|19|86172M||/work/minhe/alphafold|
minhe|COMPLETED|scavenger-gpu|2023-05-22T01:51:38|2023-05-22T02:05:06|00:13:28|dcc-tdunn-gpu-02|1|44|86172M||/work/minhe/alphafold|
minhe|COMPLETED|scavenger-gpu|2023-05-22T01:51:38|2023-05-22T01:51:53|00:00:15|dcc-gehmlab-gpu-04|1|19|86172M||/work/minhe/alphafold|
minhe|COMPLETED|scavenger-gpu|2023-05-22T01:51:38|2023-05-22T02:22:43|00:31:05|dcc-gehmlab-gpu-02|1|19|86172M||/work/minhe/alphafold|
minhe|COMPLETED|scavenger-gpu|2023-05-22T01:52:11|2023-05-22T03:24:44|01:32:33|dcc-gehmlab-gpu-29|1|19|86172M||/work/minhe/alphafold|
minhe|COMPLETED|scavenger-gpu|2023-05-22T01:52:11|2023-05-22T02:00:18|00:08:07|dcc-gehmlab-gpu-26|1|19|86172M||/work/minhe/alphafold|
minhe|COMPLETED|scavenger-gpu|2023-05-22T01:52:11|2023-05-22T03:04:25|01:12:14|dcc-gehmlab-gpu-25|1|19|86172M||/work/minhe/alphafold|
minhe|COMPLETED|scavenger-gpu|2023-05-22T01:52:12|2023-05-22T02:33:02|00:40:50|dcc-gehmlab-gpu-22|1|19|86172M||/work/minhe/alphafold|
minhe|COMPLETED|scavenger-gpu|2023-05-22T01:52:12|2023-05-22T02:38:58|00:46:46|dcc-gehmlab-gpu-20|1|19|86172M||/work/minhe/alphafold|
minhe|COMPLETED|scavenger-gpu|2023-05-22T01:52:12|2023-05-22T02:06:18|00:14:06|dcc-gehmlab-gpu-17|1|19|86172M||/work/minhe/alphafold|
minhe|COMPLETED|scavenger-gpu|2023-05-22T01:52:12|2023-05-22T02:51:33|00:59:21|dcc-gehmlab-gpu-16|1|19|86172M||/work/minhe/alphafold|
minhe|COMPLETED|scavenger-gpu|2023-05-22T01:52:12|2023-05-22T02:52:49|01:00:37|dcc-gehmlab-gpu-15|1|19|86172M||/work/minhe/alphafold|
minhe|COMPLETED|scavenger-gpu|2023-05-22T01:52:12|2023-05-22T02:51:33|00:59:21|dcc-gehmlab-gpu-10|1|19|86172M||/work/minhe/alphafold|
minhe|COMPLETED|scavenger-gpu|2023-05-22T01:53:17|2023-05-22T03:48:53|01:55:36|dcc-gehmlab-gpu-21|1|19|86172M||/work/minhe/alphafold|
minhe|COMPLETED|scavenger-gpu|2023-05-22T01:54:54|2023-05-22T02:15:16|00:20:22|dcc-gehmlab-gpu-14|1|19|86172M||/work/minhe/alphafold|
minhe|COMPLETED|scavenger-gpu|2023-05-22T01:55:59|2023-05-22T02:18:32|00:22:33|dcc-gehmlab-gpu-27|1|19|86172M||/work/minhe/alphafold|
minhe|COMPLETED|scavenger-gpu|2023-05-22T01:57:38|2023-05-22T02:28:41|00:31:03|dcc-gehmlab-gpu-06|1|19|86172M||/work/minhe/alphafold|
minhe|COMPLETED|scavenger-gpu|2023-05-22T02:00:22|2023-05-22T03:03:04|01:02:42|dcc-gehmlab-gpu-26|1|19|86172M||/work/minhe/alphafold|
minhe|COMPLETED|scavenger-gpu|2023-05-22T02:03:04|2023-05-22T02:51:42|00:48:38|dcc-gehmlab-gpu-18|1|19|86172M||/work/minhe/alphafold|
minhe|COMPLETED|scavenger-gpu|2023-05-22T02:05:15|2023-05-22T02:13:01|00:07:46|dcc-tdunn-gpu-02|1|44|86172M||/work/minhe/alphafold|
minhe|COMPLETED|scavenger-gpu|2023-05-22T02:06:21|2023-05-22T02:06:47|00:00:26|dcc-gehmlab-gpu-04|1|19|86172M||/work/minhe/alphafold|
minhe|COMPLETED|scavenger-gpu|2023-05-22T02:06:53|2023-05-22T03:10:58|01:04:05|dcc-gehmlab-gpu-17|1|19|86172M||/work/minhe/alphafold|
minhe|COMPLETED|scavenger-gpu|2023-05-22T02:07:58|2023-05-22T03:39:09|01:31:11|dcc-gehmlab-gpu-12|1|19|86172M||/work/minhe/alphafold|
minhe|COMPLETED|scavenger-gpu|2023-05-22T02:09:34|2023-05-22T03:06:19|00:56:45|dcc-gehmlab-gpu-23|1|19|86172M||/work/minhe/alphafold|
minhe|COMPLETED|scavenger-gpu|2023-05-22T02:11:12|2023-05-22T02:11:25|00:00:13|dcc-gehmlab-gpu-04|1|19|86172M||/work/minhe/alphafold|
minhe|COMPLETED|scavenger-gpu|2023-05-22T02:11:45|2023-05-22T02:11:58|00:00:13|dcc-gehmlab-gpu-04|1|19|86172M||/work/minhe/alphafold|
minhe|COMPLETED|scavenger-gpu|2023-05-22T02:12:17|2023-05-22T02:51:25|00:39:08|dcc-gehmlab-gpu-28|1|19|86172M||/work/minhe/alphafold|
minhe|COMPLETED|scavenger-gpu|2023-05-22T02:12:17|2023-05-22T02:12:30|00:00:13|dcc-gehmlab-gpu-04|1|19|86172M||/work/minhe/alphafold|
minhe|COMPLETED|scavenger-gpu|2023-05-22T02:12:49|2023-05-22T02:13:02|00:00:13|dcc-gehmlab-gpu-04|1|19|86172M||/work/minhe/alphafold|
minhe|COMPLETED|scavenger-gpu|2023-05-22T02:13:22|2023-05-22T02:50:49|00:37:27|dcc-tdunn-gpu-02|1|44|86172M||/work/minhe/alphafold|
minhe|COMPLETED|scavenger-gpu|2023-05-22T02:13:22|2023-05-22T02:13:35|00:00:13|dcc-gehmlab-gpu-04|1|19|86172M||/work/minhe/alphafold|
minhe|COMPLETED|scavenger-gpu|2023-05-22T02:13:56|2023-05-22T02:14:09|00:00:13|dcc-gehmlab-gpu-04|1|19|86172M||/work/minhe/alphafold|
minhe|COMPLETED|scavenger-gpu|2023-05-22T02:14:29|2023-05-22T02:14:43|00:00:14|dcc-gehmlab-gpu-04|1|19|86172M||/work/minhe/alphafold|
minhe|COMPLETED|scavenger-gpu|2023-05-22T02:15:01|2023-05-22T02:15:18|00:00:17|dcc-gehmlab-gpu-04|1|19|86172M||/work/minhe/alphafold|
minhe|COMPLETED|scavenger-gpu|2023-05-22T02:15:33|2023-05-22T02:27:22|00:11:49|dcc-gehmlab-gpu-14|1|19|86172M||/work/minhe/alphafold|
minhe|COMPLETED|scavenger-gpu|2023-05-22T02:15:33|2023-05-22T02:15:48|00:00:15|dcc-gehmlab-gpu-04|1|19|86172M||/work/minhe/alphafold|
minhe|COMPLETED|scavenger-gpu|2023-05-22T02:16:05|2023-05-22T02:16:18|00:00:13|dcc-gehmlab-gpu-04|1|19|86172M||/work/minhe/alphafold|
minhe|COMPLETED|scavenger-gpu|2023-05-22T02:16:37|2023-05-22T02:16:50|00:00:13|dcc-gehmlab-gpu-04|1|19|86172M||/work/minhe/alphafold|
minhe|COMPLETED|scavenger-gpu|2023-05-22T02:17:09|2023-05-22T02:17:22|00:00:13|dcc-gehmlab-gpu-04|1|19|86172M||/work/minhe/alphafold|
minhe|COMPLETED|scavenger-gpu|2023-05-22T02:17:42|2023-05-22T02:17:55|00:00:13|dcc-gehmlab-gpu-04|1|19|86172M||/work/minhe/alphafold|
minhe|COMPLETED|scavenger-gpu|2023-05-22T02:18:16|2023-05-22T02:18:28|00:00:12|dcc-gehmlab-gpu-04|1|19|86172M||/work/minhe/alphafold|
minhe|COMPLETED|scavenger-gpu|2023-05-22T02:18:49|2023-05-22T03:34:39|01:15:50|dcc-gehmlab-gpu-27|1|19|86172M||/work/minhe/alphafold|
minhe|COMPLETED|scavenger-gpu|2023-05-22T02:18:49|2023-05-22T02:19:03|00:00:14|dcc-gehmlab-gpu-04|1|19|86172M||/work/minhe/alphafold|
minhe|COMPLETED|scavenger-gpu|2023-05-22T02:19:22|2023-05-22T02:19:35|00:00:13|dcc-gehmlab-gpu-04|1|19|86172M||/work/minhe/alphafold|
minhe|COMPLETED|scavenger-gpu|2023-05-22T02:19:55|2023-05-22T02:48:57|00:29:02|dcc-gehmlab-gpu-19|1|19|86172M||/work/minhe/alphafold|
minhe|COMPLETED|scavenger-gpu|2023-05-22T02:19:55|2023-05-22T02:20:12|00:00:17|dcc-gehmlab-gpu-04|1|19|86172M||/work/minhe/alphafold|
minhe|COMPLETED|scavenger-gpu|2023-05-22T02:20:29|2023-05-22T02:20:43|00:00:14|dcc-gehmlab-gpu-04|1|19|86172M||/work/minhe/alphafold|
minhe|COMPLETED|scavenger-gpu|2023-05-22T02:21:37|2023-05-22T02:51:05|00:29:28|dcc-gehmlab-gpu-05|1|19|86172M||/work/minhe/alphafold|
minhe|COMPLETED|scavenger-gpu|2023-05-22T02:21:37|2023-05-22T02:21:52|00:00:15|dcc-gehmlab-gpu-04|1|19|86172M||/work/minhe/alphafold|
minhe|COMPLETED|scavenger-gpu|2023-05-22T02:22:09|2023-05-22T02:22:23|00:00:14|dcc-gehmlab-gpu-04|1|19|86172M||/work/minhe/alphafold|
minhe|COMPLETED|scavenger-gpu|2023-05-22T02:22:41|2023-05-22T02:22:55|00:00:14|dcc-gehmlab-gpu-04|1|19|86172M||/work/minhe/alphafold|
minhe|COMPLETED|scavenger-gpu|2023-05-22T02:23:13|2023-05-22T02:23:27|00:00:14|dcc-gehmlab-gpu-04|1|19|86172M||/work/minhe/alphafold|
minhe|COMPLETED|scavenger-gpu|2023-05-22T02:23:13|2023-05-22T02:50:11|00:26:58|dcc-gehmlab-gpu-02|1|19|86172M||/work/minhe/alphafold|
minhe|COMPLETED|scavenger-gpu|2023-05-22T02:23:47|2023-05-22T02:24:00|00:00:13|dcc-gehmlab-gpu-04|1|19|86172M||/work/minhe/alphafold|
minhe|COMPLETED|scavenger-gpu|2023-05-22T02:24:19|2023-05-22T02:37:39|00:13:20|dcc-gehmlab-gpu-07|1|19|86172M||/work/minhe/alphafold|
minhe|COMPLETED|scavenger-gpu|2023-05-22T02:24:19|2023-05-22T02:24:33|00:00:14|dcc-gehmlab-gpu-04|1|19|86172M||/work/minhe/alphafold|
minhe|COMPLETED|scavenger-gpu|2023-05-22T02:24:51|2023-05-22T02:25:08|00:00:17|dcc-gehmlab-gpu-04|1|19|86172M||/work/minhe/alphafold|
minhe|COMPLETED|scavenger-gpu|2023-05-22T02:25:23|2023-05-22T02:34:00|00:08:37|dcc-mastatlab-gpu-01|1|44|86172M||/work/minhe/alphafold|
minhe|COMPLETED|scavenger-gpu|2023-05-22T02:25:23|2023-05-22T02:25:36|00:00:13|dcc-gehmlab-gpu-04|1|19|86172M||/work/minhe/alphafold|
minhe|COMPLETED|scavenger-gpu|2023-05-22T02:25:57|2023-05-22T02:26:11|00:00:14|dcc-gehmlab-gpu-04|1|19|86172M||/work/minhe/alphafold|
minhe|COMPLETED|scavenger-gpu|2023-05-22T02:26:29|2023-05-22T02:26:42|00:00:13|dcc-gehmlab-gpu-04|1|19|86172M||/work/minhe/alphafold|
minhe|COMPLETED|scavenger-gpu|2023-05-22T02:27:02|2023-05-22T02:27:15|00:00:13|dcc-gehmlab-gpu-04|1|19|86172M||/work/minhe/alphafold|
minhe|COMPLETED|scavenger-gpu|2023-05-22T02:27:35|2023-05-22T02:33:43|00:06:08|dcc-gehmlab-gpu-14|1|19|86172M||/work/minhe/alphafold|
minhe|COMPLETED|scavenger-gpu|2023-05-22T02:27:36|2023-05-22T02:27:48|00:00:12|dcc-gehmlab-gpu-04|1|19|86172M||/work/minhe/alphafold|
minhe|COMPLETED|scavenger-gpu|2023-05-22T02:28:09|2023-05-22T02:28:23|00:00:14|dcc-gehmlab-gpu-04|1|19|86172M||/work/minhe/alphafold|
minhe|COMPLETED|scavenger-gpu|2023-05-22T02:28:41|2023-05-22T02:28:53|00:00:12|dcc-gehmlab-gpu-04|1|19|86172M||/work/minhe/alphafold|
minhe|COMPLETED|scavenger-gpu|2023-05-22T02:28:41|2023-05-22T02:50:25|00:21:44|dcc-gehmlab-gpu-01|1|19|86172M||/work/minhe/alphafold|
minhe|COMPLETED|scavenger-gpu|2023-05-22T02:29:14|2023-05-22T02:50:41|00:21:27|dcc-gehmlab-gpu-06|1|19|86172M||/work/minhe/alphafold|
minhe|COMPLETED|scavenger-gpu|2023-05-22T02:31:56|2023-05-22T02:32:11|00:00:15|dcc-gehmlab-gpu-04|1|19|86172M||/work/minhe/alphafold|
minhe|COMPLETED|scavenger-gpu|2023-05-22T02:32:28|2023-05-22T02:32:42|00:00:14|dcc-gehmlab-gpu-04|1|19|86172M||/work/minhe/alphafold|
minhe|COMPLETED|scavenger-gpu|2023-05-22T02:33:02|2023-05-22T02:58:31|00:25:29|dcc-gehmlab-gpu-24|1|19|86172M||/work/minhe/alphafold|
minhe|COMPLETED|scavenger-gpu|2023-05-22T02:33:34|2023-05-22T03:09:10|00:35:36|dcc-gehmlab-gpu-22|1|19|86172M||/work/minhe/alphafold|
minhe|COMPLETED|scavenger-gpu|2023-05-22T02:33:02|2023-05-22T02:33:15|00:00:13|dcc-gehmlab-gpu-04|1|19|86172M||/work/minhe/alphafold|
minhe|COMPLETED|scavenger-gpu|2023-05-22T02:33:34|2023-05-22T02:33:47|00:00:13|dcc-gehmlab-gpu-04|1|19|86172M||/work/minhe/alphafold|
minhe|COMPLETED|scavenger-gpu|2023-05-22T02:34:08|2023-05-22T02:52:34|00:18:26|dcc-mastatlab-gpu-01|1|44|86172M||/work/minhe/alphafold|
minhe|COMPLETED|scavenger-gpu|2023-05-22T02:34:08|2023-05-22T02:51:33|00:17:25|dcc-gehmlab-gpu-14|1|19|86172M||/work/minhe/alphafold|
minhe|COMPLETED|scavenger-gpu|2023-05-22T02:34:08|2023-05-22T02:34:21|00:00:13|dcc-gehmlab-gpu-04|1|19|86172M||/work/minhe/alphafold|
minhe|COMPLETED|scavenger-gpu|2023-05-22T02:34:41|2023-05-22T02:34:53|00:00:12|dcc-gehmlab-gpu-04|1|19|86172M||/work/minhe/alphafold|
minhe|COMPLETED|scavenger-gpu|2023-05-22T02:35:14|2023-05-22T02:35:27|00:00:13|dcc-gehmlab-gpu-04|1|19|86172M||/work/minhe/alphafold|
minhe|COMPLETED|scavenger-gpu|2023-05-22T02:35:46|2023-05-22T02:35:58|00:00:12|dcc-gehmlab-gpu-04|1|19|86172M||/work/minhe/alphafold|
minhe|COMPLETED|scavenger-gpu|2023-05-22T02:36:20|2023-05-22T02:36:32|00:00:12|dcc-gehmlab-gpu-04|1|19|86172M||/work/minhe/alphafold|
minhe|COMPLETED|scavenger-gpu|2023-05-22T02:36:52|2023-05-22T02:37:07|00:00:15|dcc-gehmlab-gpu-04|1|19|86172M||/work/minhe/alphafold|
minhe|COMPLETED|scavenger-gpu|2023-05-22T02:37:26|2023-05-22T02:37:39|00:00:13|dcc-gehmlab-gpu-04|1|19|86172M||/work/minhe/alphafold|
minhe|COMPLETED|scavenger-gpu|2023-05-22T02:37:59|2023-05-22T02:54:09|00:16:10|dcc-gehmlab-gpu-07|1|19|86172M||/work/minhe/alphafold|
minhe|COMPLETED|scavenger-gpu|2023-05-22T02:37:59|2023-05-22T02:38:14|00:00:15|dcc-gehmlab-gpu-04|1|19|86172M||/work/minhe/alphafold|
minhe|COMPLETED|scavenger-gpu|2023-05-22T02:38:31|2023-05-22T02:38:46|00:00:15|dcc-gehmlab-gpu-04|1|19|86172M||/work/minhe/alphafold|
minhe|COMPLETED|scavenger-gpu|2023-05-22T02:39:04|2023-05-22T02:51:26|00:12:22|dcc-gehmlab-gpu-20|1|19|86172M||/work/minhe/alphafold|
minhe|COMPLETED|scavenger-gpu|2023-05-22T02:39:04|2023-05-22T02:39:18|00:00:14|dcc-gehmlab-gpu-04|1|19|86172M||/work/minhe/alphafold|
minhe|COMPLETED|scavenger-gpu|2023-05-22T02:39:36|2023-05-22T02:39:48|00:00:12|dcc-gehmlab-gpu-04|1|19|86172M||/work/minhe/alphafold|
minhe|COMPLETED|scavenger-gpu|2023-05-22T02:40:09|2023-05-22T02:40:21|00:00:12|dcc-gehmlab-gpu-04|1|19|86172M||/work/minhe/alphafold|
minhe|COMPLETED|scavenger-gpu|2023-05-22T02:40:42|2023-05-22T02:40:55|00:00:13|dcc-gehmlab-gpu-04|1|19|86172M||/work/minhe/alphafold|
minhe|COMPLETED|scavenger-gpu|2023-05-22T02:41:15|2023-05-22T02:41:27|00:00:12|dcc-gehmlab-gpu-04|1|19|86172M||/work/minhe/alphafold|
minhe|COMPLETED|scavenger-gpu|2023-05-22T02:41:49|2023-05-22T02:42:02|00:00:13|dcc-gehmlab-gpu-04|1|19|86172M||/work/minhe/alphafold|
minhe|COMPLETED|scavenger-gpu|2023-05-22T02:42:22|2023-05-22T03:43:14|01:00:52|dcc-gehmlab-gpu-30|1|19|86172M||/work/minhe/alphafold|
minhe|COMPLETED|scavenger-gpu|2023-05-22T02:42:22|2023-05-22T02:42:34|00:00:12|dcc-gehmlab-gpu-04|1|19|86172M||/work/minhe/alphafold|
minhe|COMPLETED|scavenger-gpu|2023-05-22T02:42:55|2023-05-22T02:43:08|00:00:13|dcc-gehmlab-gpu-04|1|19|86172M||/work/minhe/alphafold|
minhe|COMPLETED|scavenger-gpu|2023-05-22T02:43:28|2023-05-22T02:43:41|00:00:13|dcc-gehmlab-gpu-04|1|19|86172M||/work/minhe/alphafold|
minhe|COMPLETED|scavenger-gpu|2023-05-22T02:44:02|2023-05-22T02:44:15|00:00:13|dcc-gehmlab-gpu-04|1|19|86172M||/work/minhe/alphafold|
minhe|COMPLETED|scavenger-gpu|2023-05-22T02:44:34|2023-05-22T02:44:47|00:00:13|dcc-gehmlab-gpu-04|1|19|86172M||/work/minhe/alphafold|
minhe|COMPLETED|scavenger-gpu|2023-05-22T02:45:07|2023-05-22T02:45:21|00:00:14|dcc-gehmlab-gpu-04|1|19|86172M||/work/minhe/alphafold|
minhe|COMPLETED|scavenger-gpu|2023-05-22T02:45:39|2023-05-22T02:52:01|00:06:22|dcc-gehmlab-gpu-13|1|19|86172M||/work/minhe/alphafold|
minhe|COMPLETED|scavenger-gpu|2023-05-22T02:45:39|2023-05-22T02:45:51|00:00:12|dcc-gehmlab-gpu-04|1|19|86172M||/work/minhe/alphafold|
minhe|COMPLETED|scavenger-gpu|2023-05-22T02:46:11|2023-05-22T02:46:23|00:00:12|dcc-gehmlab-gpu-04|1|19|86172M||/work/minhe/alphafold|
minhe|COMPLETED|scavenger-gpu|2023-05-22T02:46:44|2023-05-22T02:46:56|00:00:12|dcc-gehmlab-gpu-04|1|19|86172M||/work/minhe/alphafold|
minhe|COMPLETED|scavenger-gpu|2023-05-22T02:47:18|2023-05-22T02:47:30|00:00:12|dcc-gehmlab-gpu-04|1|19|86172M||/work/minhe/alphafold|
minhe|COMPLETED|scavenger-gpu|2023-05-22T02:47:51|2023-05-22T02:48:04|00:00:13|dcc-gehmlab-gpu-04|1|19|86172M||/work/minhe/alphafold|
minhe|COMPLETED|scavenger-gpu|2023-05-22T02:48:23|2023-05-22T02:48:36|00:00:13|dcc-gehmlab-gpu-04|1|19|86172M||/work/minhe/alphafold|
minhe|COMPLETED|scavenger-gpu|2023-05-22T02:48:57|2023-05-22T02:49:09|00:00:12|dcc-gehmlab-gpu-04|1|19|86172M||/work/minhe/alphafold|
minhe|COMPLETED|scavenger-gpu|2023-05-22T02:49:30|2023-05-22T03:51:33|01:02:03|dcc-gehmlab-gpu-19|1|19|86172M||/work/minhe/alphafold|
minhe|COMPLETED|scavenger-gpu|2023-05-22T02:49:30|2023-05-22T02:49:43|00:00:13|dcc-gehmlab-gpu-04|1|19|86172M||/work/minhe/alphafold|
minhe|COMPLETED|scavenger-gpu|2023-05-22T02:50:03|2023-05-22T02:50:18|00:00:15|dcc-gehmlab-gpu-04|1|19|86172M||/work/minhe/alphafold|
minhe|COMPLETED|scavenger-gpu|2023-05-22T02:50:37|2023-05-22T03:13:33|00:22:56|dcc-youlab-gpu-09|1|10|86172M||/work/minhe/alphafold|
minhe|COMPLETED|scavenger-gpu|2023-05-22T02:50:37|2023-05-22T02:50:51|00:00:14|dcc-gehmlab-gpu-04|1|19|86172M||/work/minhe/alphafold|
minhe|COMPLETED|scavenger-gpu|2023-05-22T02:50:37|2023-05-22T03:32:32|00:41:55|dcc-gehmlab-gpu-02|1|19|86172M||/work/minhe/alphafold|
minhe|COMPLETED|scavenger-gpu|2023-05-22T02:50:37|2023-05-22T03:36:03|00:45:26|dcc-gehmlab-gpu-01|1|19|86172M||/work/minhe/alphafold|
minhe|COMPLETED|scavenger-gpu|2023-05-22T02:51:10|2023-05-22T03:17:12|00:26:02|dcc-tdunn-gpu-02|1|44|86172M||/work/minhe/alphafold|
minhe|COMPLETED|scavenger-gpu|2023-05-22T02:51:10|2023-05-22T03:19:26|00:28:16|dcc-gehmlab-gpu-06|1|19|86172M||/work/minhe/alphafold|
minhe|COMPLETED|scavenger-gpu|2023-05-22T02:51:11|2023-05-22T03:12:23|00:21:12|dcc-gehmlab-gpu-05|1|19|86172M||/work/minhe/alphafold|
