yw564|TIMEOUT|scavenger-gpu|2023-05-04T17:26:37|2023-05-11T17:27:01|7-00:00:24|dcc-mastatlab-gpu-01|1|2|50G||/hpc/group/jilab/imaging/huimin/Inference_rebuttal|
yk206|TIMEOUT|scavenger-gpu|2023-05-07T13:08:05|2023-05-14T13:08:33|7-00:00:28|dcc-motesa-gpu-04|1|6|12G||/hpc/home/yk206/script|
yk206|TIMEOUT|scavenger-gpu|2023-05-07T13:08:05|2023-05-14T13:08:33|7-00:00:28|dcc-motesa-gpu-01|1|6|12G||/hpc/home/yk206/script|
cem125|COMPLETED|scavenger-gpu|2023-05-09T15:09:34|2023-05-11T07:49:38|1-16:40:04|dcc-youlab-gpu-16|1|10|50G||/hpc/group/rekerlab/cem125/OpenNMT-py|
cem125|COMPLETED|scavenger-gpu|2023-05-09T15:09:34|2023-05-11T08:08:01|1-16:58:27|dcc-youlab-gpu-15|1|10|50G||/hpc/group/rekerlab/cem125/OpenNMT-py|
pkk16|TIMEOUT|scavenger-gpu|2023-05-10T14:23:10|2023-05-11T14:23:18|1-00:00:08|dcc-youlab-gpu-01|1|2|100G||/hpc/home/pkk16/ondemand/data/sys/dashboard/batch_connect/sys/bc_jupyter/output/8b17d1a1-46b2-40f9-bfc5-2bcd251f6c6e|
kw297|COMPLETED|scavenger-gpu|2023-05-10T14:24:30|2023-05-11T05:23:23|14:58:53|dcc-mainsahlab-gpu-03|1|2|10G||/hpc/group/ychenlab/DA|
kw297|COMPLETED|scavenger-gpu|2023-05-10T14:24:31|2023-05-11T06:02:21|15:37:50|dcc-mainsahlab-gpu-04|1|2|10G||/hpc/group/ychenlab/DA|
yk206|OUT_OF_MEMORY|scavenger-gpu|2023-05-10T16:35:58|2023-05-11T08:08:22|15:32:24|dcc-youlab-gpu-56|1|10|24G||/hpc/home/yk206/script/face_download|
dl370|PREEMPTED|scavenger-gpu|2023-05-10T21:20:08|2023-05-11T11:01:41|13:41:33|dcc-vossenlab-gpu-03|1|10|2G||/work/dl370|
jrl78|COMPLETED|scavenger-gpu|2023-05-10T21:20:08|2023-05-11T16:23:03|19:02:55|dcc-vossenlab-gpu-02|1|10|2G||/work/jrl78/Nanoparticles/JawBreakers/Big Library/run2|
jrl78|COMPLETED|scavenger-gpu|2023-05-10T21:20:12|2023-05-11T15:56:49|18:36:37|dcc-vossenlab-gpu-01|1|10|2G||/work/jrl78/Nanoparticles/JawBreakers/Big Library/run2|
jrl78|COMPLETED|scavenger-gpu|2023-05-10T21:20:12|2023-05-11T15:47:41|18:27:29|dcc-ultrasound-gpu-03|1|19|2G||/work/jrl78/Nanoparticles/JawBreakers/Big Library/run2|
jrl78|COMPLETED|scavenger-gpu|2023-05-10T21:20:12|2023-05-11T13:32:02|16:11:50|dcc-ultrasound-gpu-02|1|19|2G||/work/jrl78/Nanoparticles/JawBreakers/Big Library/run2|
jrl78|PREEMPTED|scavenger-gpu|2023-05-10T21:20:12|2023-05-11T11:46:17|14:26:05|dcc-tdunn-gpu-02|1|44|2G||/work/jrl78/Nanoparticles/JawBreakers/Big Library/run2|
jrl78|COMPLETED|scavenger-gpu|2023-05-10T21:20:22|2023-05-11T18:19:05|20:58:43|dcc-tdunn-gpu-01|1|44|2G||/work/jrl78/Nanoparticles/JawBreakers/Big Library/run2|
jrl78|COMPLETED|scavenger-gpu|2023-05-10T21:20:22|2023-05-11T15:40:18|18:19:56|dcc-rekerlab-gpu-01|1|8|2G||/work/jrl78/Nanoparticles/JawBreakers/Big Library/run2|
lh342|FAILED|scavenger-gpu|2023-05-10T22:28:49|2023-05-11T05:23:03|06:54:14|dcc-dhvi-gpu-01|1|10|16G||/hpc/home/lh342/MMVAE|
kw297|CANCELLED by 1215097|scavenger-gpu|2023-05-10T23:59:14|2023-05-12T12:23:59|1-12:24:45|dcc-motesa-gpu-03|1|4|20G||/hpc/group/ychenlab/DA|
lh342|FAILED|scavenger-gpu|2023-05-11T00:10:18|2023-05-11T10:37:43|10:27:25|dcc-vossenlab-gpu-04|1|10|24G||/hpc/home/lh342/MMVAE|
lh342|FAILED|scavenger-gpu|2023-05-11T00:19:28|2023-05-11T10:56:47|10:37:19|dcc-youlab-gpu-20|1|10|24G||/hpc/home/lh342/MMVAE|
lh342|FAILED|scavenger-gpu|2023-05-11T00:30:04|2023-05-11T10:36:56|10:06:52|dcc-youlab-gpu-27|1|10|24G||/hpc/home/lh342/MMVAE|
lh342|FAILED|scavenger-gpu|2023-05-11T00:35:00|2023-05-11T13:03:37|12:28:37|dcc-youlab-gpu-35|1|10|24G||/hpc/home/lh342/MMVAE|
lh342|FAILED|scavenger-gpu|2023-05-11T00:36:17|2023-05-11T13:18:02|12:41:45|dcc-youlab-gpu-46|1|10|24G||/hpc/home/lh342/MMVAE|
lh342|FAILED|scavenger-gpu|2023-05-11T00:37:22|2023-05-11T13:16:29|12:39:07|dcc-youlab-gpu-57|1|10|24G||/hpc/home/lh342/MMVAE|
yl407|CANCELLED by 1099244|scavenger-gpu|2023-05-11T00:39:14|2023-05-11T15:13:14|14:34:00|dcc-dsplus-gpu-04|1|2|50G||/hpc/home/yl407/ondemand/data/sys/dashboard/batch_connect/sys/bc_jupyter/output/232b10cd-cec3-48cf-a475-aaa40535c6fe|
lh342|FAILED|scavenger-gpu|2023-05-11T00:43:54|2023-05-11T12:04:56|11:21:02|dcc-allenlab-gpu-02|1|10|24G||/hpc/home/lh342/MMVAE|
lh342|FAILED|scavenger-gpu|2023-05-11T00:44:44|2023-05-11T16:22:02|15:37:18|dcc-dhvi-gpu-02|1|10|24G||/hpc/home/lh342/MMVAE|
lh342|PREEMPTED|scavenger-gpu|2023-05-11T01:17:27|2023-05-11T13:16:50|11:59:23|dcc-allenlab-gpu-01|1|10|24G||/hpc/home/lh342/MMVAE|
