vk93|PREEMPTED|scavenger-gpu|2023-05-12T02:23:43|2023-05-15T16:09:27|3-13:45:44|dcc-tdunn-gpu-01|1|40|350109M||/hpc/home/vk93/ondemand/data/sys/dashboard/batch_connect/sys/bc_jupyter/output/23d4d6a9-4d03-429b-b1e0-2247cea267b4|
yx240|COMPLETED|scavenger-gpu|2023-05-13T10:27:49|2023-05-15T23:30:50|2-13:03:01|dcc-youlab-gpu-18|1|10|2G||/work/yx240/project-martini/simutools/scripts|
yw564|FAILED|scavenger-gpu|2023-05-13T11:32:34|2023-05-18T03:15:49|4-15:43:15|dcc-mastatlab-gpu-01|1|2|50G||/hpc/group/jilab|
mk423|CANCELLED by 1192605|scavenger-gpu|2023-05-13T11:54:57|2023-05-16T10:46:28|2-22:51:31|dcc-biostat-gpu-01|1|12|80G||/hpc/home/mk423/Anxiety/FullDataWork/Code/Training/MultiTask|
mk423|CANCELLED by 1192605|scavenger-gpu|2023-05-13T11:54:57|2023-05-16T10:46:28|2-22:51:31|dcc-mastatlab-gpu-01|1|12|80G||/hpc/home/mk423/Anxiety/FullDataWork/Code/Training/MultiTask|
mk423|CANCELLED by 1192605|scavenger-gpu|2023-05-13T11:54:57|2023-05-16T10:46:28|2-22:51:31|dcc-ultrasound-gpu-03|1|12|80G||/hpc/home/mk423/Anxiety/FullDataWork/Code/Training/MultiTask|
mk423|CANCELLED by 1192605|scavenger-gpu|2023-05-13T11:54:58|2023-05-16T10:46:28|2-22:51:30|dcc-tdunn-gpu-02|1|12|80G||/hpc/home/mk423/Anxiety/FullDataWork/Code/Training/MultiTask|
mk423|CANCELLED by 1192605|scavenger-gpu|2023-05-13T11:54:58|2023-05-16T10:46:28|2-22:51:30|dcc-youlab-gpu-01|1|12|80G||/hpc/home/mk423/Anxiety/FullDataWork/Code/Training/MultiTask|
mk423|CANCELLED by 1192605|scavenger-gpu|2023-05-13T11:54:58|2023-05-16T10:46:28|2-22:51:30|dcc-youlab-gpu-01|1|12|80G||/hpc/home/mk423/Anxiety/FullDataWork/Code/Training/MultiTask|
mk423|CANCELLED by 1192605|scavenger-gpu|2023-05-13T11:54:58|2023-05-16T10:46:28|2-22:51:30|dcc-collinslab-gpu-01|1|12|80G||/hpc/home/mk423/Anxiety/FullDataWork/Code/Training/MultiTask|
mk423|CANCELLED by 1192605|scavenger-gpu|2023-05-13T11:54:58|2023-05-16T10:46:28|2-22:51:30|dcc-collinslab-gpu-02|1|12|80G||/hpc/home/mk423/Anxiety/FullDataWork/Code/Training/MultiTask|
mk423|CANCELLED by 1192605|scavenger-gpu|2023-05-13T14:49:28|2023-05-16T10:46:28|2-19:57:00|dcc-biostat-gpu-02|1|12|80G||/hpc/home/mk423/Anxiety/FullDataWork/Code/Training/MultiTask|
mk423|CANCELLED by 1192605|scavenger-gpu|2023-05-13T14:54:31|2023-05-16T10:46:28|2-19:51:57|dcc-brunellab-gpu-04|1|12|80G||/hpc/home/mk423/Anxiety/FullDataWork/Code/Training/MultiTask|
mk423|CANCELLED by 1192605|scavenger-gpu|2023-05-13T16:33:18|2023-05-16T10:46:28|2-18:13:10|dcc-youlab-gpu-01|1|12|80G||/hpc/home/mk423/Anxiety/FullDataWork/Code/Training/MultiTask|
mk423|CANCELLED by 1192605|scavenger-gpu|2023-05-13T18:17:21|2023-05-16T10:46:28|2-16:29:07|dcc-ultrasound-gpu-02|1|12|80G||/hpc/home/mk423/Anxiety/FullDataWork/Code/Training/MultiTask|
mk423|CANCELLED by 1192605|scavenger-gpu|2023-05-13T19:29:08|2023-05-16T10:46:28|2-15:17:20|dcc-carlsonlab-gpu-13|1|12|80G||/hpc/home/mk423/Anxiety/FullDataWork/Code/Training/MultiTask|
mk423|CANCELLED by 1192605|scavenger-gpu|2023-05-13T21:10:45|2023-05-16T10:46:28|2-13:35:43|dcc-mastatlab-gpu-01|1|12|80G||/hpc/home/mk423/Anxiety/FullDataWork/Code/Training/MultiTask|
mk423|CANCELLED by 1192605|scavenger-gpu|2023-05-13T21:25:36|2023-05-16T10:46:28|2-13:20:52|dcc-tdunn-gpu-02|1|12|80G||/hpc/home/mk423/Anxiety/FullDataWork/Code/Training/MultiTask|
mk423|CANCELLED by 1192605|scavenger-gpu|2023-05-14T00:09:06|2023-05-16T10:46:28|2-10:37:22|dcc-carlsonlab-gpu-12|1|12|80G||/hpc/home/mk423/Anxiety/FullDataWork/Code/Training/MultiTask|
mk423|CANCELLED by 1192605|scavenger-gpu|2023-05-15T09:55:37|2023-05-16T10:46:28|1-00:50:51|dcc-brunellab-gpu-01|1|12|80G||/hpc/home/mk423/Anxiety/FullDataWork/Code/Training/MultiTask|
mk423|CANCELLED by 1192605|scavenger-gpu|2023-05-15T09:55:38|2023-05-16T10:46:28|1-00:50:50|dcc-carlsonlab-gpu-01|1|12|80G||/hpc/home/mk423/Anxiety/FullDataWork/Code/Training/MultiTask|
mk423|CANCELLED by 1192605|scavenger-gpu|None|2023-05-16T10:46:28|00:00:00|None assigned|1|12|80G||/hpc/home/mk423/Anxiety/FullDataWork/Code/Training/MultiTask|
zj63|PREEMPTED|scavenger-gpu|2023-05-13T13:35:17|2023-05-15T16:34:23|2-02:59:06|dcc-tdunn-gpu-02|1|2|64G||/work/zj63/Mediation_analysis/IMAVAE/experiments/TST_data|
kl371|TIMEOUT|scavenger-gpu|2023-05-13T17:39:32|2023-05-16T17:39:58|3-00:00:26|dcc-youlab-gpu-23|1|8|64G||/hpc/home/kl371/ondemand/data/sys/dashboard/batch_connect/sys/bc_jupyter/output/7d7e470b-5711-4523-9bcf-90a7a1462c7b|
mk423|CANCELLED by 1192605|scavenger-gpu|None|2023-05-16T10:46:28|00:00:00|None assigned|1|12|80G||/hpc/home/mk423/Anxiety/FullDataWork/Code/Training/MultiTask|
mk423|CANCELLED by 1192605|scavenger-gpu|None|2023-05-16T10:46:28|00:00:00|None assigned|1|12|80G||/hpc/home/mk423/Anxiety/FullDataWork/Code/Training/MultiTask|
kw297|COMPLETED|scavenger-gpu|2023-05-14T15:15:23|2023-05-15T14:41:01|23:25:38|dcc-mainsahlab-gpu-03|1|2|10G||/hpc/group/ychenlab/DA|
jrl78|COMPLETED|scavenger-gpu|2023-05-14T15:51:29|2023-05-15T14:17:16|22:25:47|dcc-youlab-gpu-40|1|10|2G||/work/jrl78/Nanoparticles/JawBreakers/Water Box Size|
jrl78|COMPLETED|scavenger-gpu|2023-05-14T15:51:31|2023-05-15T14:24:17|22:32:46|dcc-youlab-gpu-39|1|10|2G||/work/jrl78/Nanoparticles/JawBreakers/Water Box Size|
jrl78|COMPLETED|scavenger-gpu|2023-05-14T15:51:31|2023-05-15T14:58:34|23:07:03|dcc-youlab-gpu-38|1|10|2G||/work/jrl78/Nanoparticles/JawBreakers/Water Box Size|
jrl78|COMPLETED|scavenger-gpu|2023-05-14T15:52:01|2023-05-15T17:48:42|1-01:56:41|dcc-youlab-gpu-08|1|10|2G||/work/jrl78/Nanoparticles/JawBreakers/Water Box Size|
jrl78|COMPLETED|scavenger-gpu|2023-05-14T15:52:03|2023-05-15T17:48:50|1-01:56:47|dcc-youlab-gpu-07|1|10|2G||/work/jrl78/Nanoparticles/JawBreakers/Water Box Size|
jrl78|COMPLETED|scavenger-gpu|2023-05-14T15:52:05|2023-05-15T17:53:11|1-02:01:06|dcc-youlab-gpu-05|1|10|2G||/work/jrl78/Nanoparticles/JawBreakers/Water Box Size|
jrl78|COMPLETED|scavenger-gpu|2023-05-15T03:26:23|2023-05-15T23:39:34|20:13:11|dcc-youlab-gpu-57|1|10|2G||/work/jrl78/Nanoparticles/JawBreakers/Water Box Size|
jrl78|COMPLETED|scavenger-gpu|2023-05-15T03:28:45|2023-05-15T18:35:39|15:06:54|dcc-youlab-gpu-56|1|10|2G||/work/jrl78/Nanoparticles/JawBreakers/Water Box Size|
jrl78|COMPLETED|scavenger-gpu|2023-05-15T03:42:28|2023-05-15T18:49:50|15:07:22|dcc-youlab-gpu-55|1|10|2G||/work/jrl78/Nanoparticles/JawBreakers/Water Box Size|
jrl78|COMPLETED|scavenger-gpu|2023-05-15T03:45:27|2023-05-15T18:54:07|15:08:40|dcc-youlab-gpu-37|1|10|2G||/work/jrl78/Nanoparticles/JawBreakers/Water Box Size|
jrl78|COMPLETED|scavenger-gpu|2023-05-15T03:50:49|2023-05-15T16:35:47|12:44:58|dcc-youlab-gpu-35|1|10|2G||/work/jrl78/Nanoparticles/JawBreakers/Water Box Size|
jrl78|COMPLETED|scavenger-gpu|2023-05-15T03:51:23|2023-05-15T16:40:51|12:49:28|dcc-youlab-gpu-36|1|10|2G||/work/jrl78/Nanoparticles/JawBreakers/Water Box Size|
jrl78|COMPLETED|scavenger-gpu|2023-05-15T05:31:06|2023-05-15T18:33:33|13:02:27|dcc-youlab-gpu-53|1|10|2G||/work/jrl78/Nanoparticles/JawBreakers/Water Box Size|
jrl78|COMPLETED|scavenger-gpu|2023-05-15T05:42:41|2023-05-16T04:44:28|23:01:47|dcc-youlab-gpu-34|1|10|2G||/work/jrl78/Nanoparticles/JawBreakers/Water Box Size|
jrl78|COMPLETED|scavenger-gpu|2023-05-15T05:50:36|2023-05-16T04:19:18|22:28:42|dcc-youlab-gpu-33|1|10|2G||/work/jrl78/Nanoparticles/JawBreakers/Water Box Size|
jrl78|COMPLETED|scavenger-gpu|2023-05-15T07:19:28|2023-05-16T05:52:30|22:33:02|dcc-youlab-gpu-31|1|10|2G||/work/jrl78/Nanoparticles/JawBreakers/Water Box Size|
jrl78|COMPLETED|scavenger-gpu|2023-05-15T07:28:51|2023-05-15T20:58:26|13:29:35|dcc-youlab-gpu-32|1|10|2G||/work/jrl78/Nanoparticles/JawBreakers/Water Box Size|
jrl78|COMPLETED|scavenger-gpu|2023-05-15T07:29:54|2023-05-15T21:20:07|13:50:13|dcc-youlab-gpu-30|1|10|2G||/work/jrl78/Nanoparticles/JawBreakers/Water Box Size|
jrl78|COMPLETED|scavenger-gpu|2023-05-15T12:03:47|2023-05-16T01:47:58|13:44:11|dcc-youlab-gpu-22|1|10|2G||/work/jrl78/Nanoparticles/JawBreakers/Water Box Size|
jrl78|COMPLETED|scavenger-gpu|2023-05-15T12:08:31|2023-05-15T23:29:32|11:21:01|dcc-youlab-gpu-20|1|10|2G||/work/jrl78/Nanoparticles/JawBreakers/Water Box Size|
jrl78|COMPLETED|scavenger-gpu|2023-05-15T14:24:34|2023-05-16T01:43:47|11:19:13|dcc-youlab-gpu-39|1|10|2G||/work/jrl78/Nanoparticles/JawBreakers/Water Box Size|
jrl78|COMPLETED|scavenger-gpu|2023-05-15T14:17:16|2023-05-16T01:48:57|11:31:41|dcc-youlab-gpu-24|1|10|2G||/work/jrl78/Nanoparticles/JawBreakers/Water Box Size|
yl407|TIMEOUT|scavenger-gpu|2023-05-14T20:44:32|2023-05-15T20:44:32|1-00:00:00|dcc-youlab-gpu-16|1|2|80G||/hpc/home/yl407/ondemand/data/sys/dashboard/batch_connect/sys/bc_jupyter/output/8cd3795a-be88-4e07-aeb1-f70957920934|
hk276|FAILED|scavenger-gpu|2023-05-15T01:46:05|2023-05-15T17:38:50|15:52:45|dcc-viplab-gpu-01|1|12|100000M||/hpc/group/tdunn/hk276/tangosave/src|
mk423|CANCELLED by 1192605|scavenger-gpu|None|2023-05-16T10:46:28|00:00:00|None assigned|1|12|80G||/hpc/home/mk423/Anxiety/FullDataWork/Code/Training/MultiTask|
mk423|CANCELLED by 1192605|scavenger-gpu|None|2023-05-16T10:46:28|00:00:00|None assigned|1|12|80G||/hpc/home/mk423/Anxiety/FullDataWork/Code/Training/MultiTask|
yx240|COMPLETED|scavenger-gpu|2023-05-15T10:15:17|2023-05-16T03:18:43|17:03:26|dcc-youlab-gpu-54|1|10|2G||/work/yx240/project-martini/new/simutools/scripts|
yx240|COMPLETED|scavenger-gpu|2023-05-15T10:15:17|2023-05-16T03:23:30|17:08:13|dcc-youlab-gpu-28|1|10|2G||/work/yx240/project-martini/new/simutools/scripts|
yx240|COMPLETED|scavenger-gpu|2023-05-15T10:15:17|2023-05-15T21:46:46|11:31:29|dcc-youlab-gpu-27|1|10|2G||/work/yx240/project-martini/new/simutools/scripts|
yx240|COMPLETED|scavenger-gpu|2023-05-15T10:15:17|2023-05-15T21:59:10|11:43:53|dcc-youlab-gpu-25|1|10|2G||/work/yx240/project-martini/new/simutools/scripts|
pkk16|TIMEOUT|scavenger-gpu|2023-05-15T10:51:37|2023-05-16T10:51:53|1-00:00:16|dcc-dsplus-gpu-01|1|2|20G||/hpc/home/pkk16/ondemand/data/sys/dashboard/batch_connect/sys/bc_jupyter/output/2b06841c-a256-4217-80d7-182abcb2b464|
ym208|CANCELLED by 1517022|scavenger-gpu|2023-05-15T10:56:55|2023-05-15T14:16:15|03:19:20|dcc-youlab-gpu-24|1|1|2G||/hpc/group/bartesaghilab/ym208/miniconda3/envs|
byz6|FAILED|scavenger-gpu|2023-05-15T11:46:57|2023-05-15T18:11:15|06:24:18|dcc-youlab-gpu-29|1|10|60G||/hpc/group/rekerlab/byz6|
lh342|FAILED|scavenger-gpu|2023-05-15T13:15:10|2023-05-16T03:24:08|14:08:58|dcc-motesa-gpu-02|1|6|16G||/hpc/home/lh342/MMVAE|
zq43|COMPLETED|scavenger-gpu|2023-05-15T13:34:59|2023-05-15T19:34:20|05:59:21|dcc-gehmlab-gpu-16|1|19|2G||/hpc/group/renlab/zhuobiao/MC_kV_for_zhuobiao|
zq43|COMPLETED|scavenger-gpu|2023-05-15T13:34:59|2023-05-15T19:20:35|05:45:36|dcc-gehmlab-gpu-19|1|19|2G||/hpc/group/renlab/zhuobiao/MC_kV_for_zhuobiao|
zq43|COMPLETED|scavenger-gpu|2023-05-15T13:34:59|2023-05-15T19:16:28|05:41:29|dcc-gehmlab-gpu-20|1|19|2G||/hpc/group/renlab/zhuobiao/MC_kV_for_zhuobiao|
zq43|COMPLETED|scavenger-gpu|2023-05-15T13:35:30|2023-05-15T19:27:17|05:51:47|dcc-gehmlab-gpu-21|1|19|2G||/hpc/group/renlab/zhuobiao/MC_kV_for_zhuobiao|
zq43|COMPLETED|scavenger-gpu|2023-05-15T13:35:30|2023-05-15T19:50:54|06:15:24|dcc-gehmlab-gpu-27|1|19|2G||/hpc/group/renlab/zhuobiao/MC_kV_for_zhuobiao|
zq43|COMPLETED|scavenger-gpu|2023-05-15T13:35:30|2023-05-15T19:54:41|06:19:11|dcc-gehmlab-gpu-28|1|19|2G||/hpc/group/renlab/zhuobiao/MC_kV_for_zhuobiao|
zq43|COMPLETED|scavenger-gpu|2023-05-15T13:35:30|2023-05-15T19:39:33|06:04:03|dcc-gehmlab-gpu-29|1|19|2G||/hpc/group/renlab/zhuobiao/MC_kV_for_zhuobiao|
zq43|COMPLETED|scavenger-gpu|2023-05-15T13:35:30|2023-05-15T19:37:00|06:01:30|dcc-gehmlab-gpu-30|1|19|2G||/hpc/group/renlab/zhuobiao/MC_kV_for_zhuobiao|
zq43|COMPLETED|scavenger-gpu|2023-05-15T13:36:04|2023-05-15T19:43:19|06:07:15|dcc-gehmlab-gpu-31|1|19|2G||/hpc/group/renlab/zhuobiao/MC_kV_for_zhuobiao|
mccahill|CANCELLED by 1005039|scavenger-gpu|2023-05-15T13:41:16|2023-05-15T15:33:49|01:52:33|dcc-motesa-gpu-01|1|4|16G||/hpc/home/mccahill/ondemand/data/sys/dashboard/batch_connect/sys/bc_desktop/dcc/output/85faaca7-1cf3-434a-91f0-61c09a03a74d|
lh342|PREEMPTED|scavenger-gpu|2023-05-15T13:49:29|2023-05-16T19:17:58|1-05:28:29|dcc-youlab-gpu-06|1|10|24G||/hpc/home/lh342/MMVAE|
lh342|PREEMPTED|scavenger-gpu|2023-05-15T13:52:14|2023-05-16T19:18:09|1-05:25:55|dcc-youlab-gpu-17|1|10|24G||/hpc/home/lh342/MMVAE|
aam131|PREEMPTED|scavenger-gpu|2023-05-15T14:16:45|2023-05-15T15:21:31|01:04:46|dcc-tdunn-gpu-03|1|40|80G||/hpc/home/aam131/ondemand/data/sys/dashboard/batch_connect/sys/bc_rstudio_singularity/output/df7d32bf-0c0b-40cc-b75f-102df2dd26d7|
jrr73|COMPLETED|scavenger-gpu|2023-05-15T14:15:11|2023-05-15T14:21:11|00:06:00|dcc-rekerlab-gpu-01|1|8|10000M||/hpc/group/tdunn/jravenel/videos/2023_04_28/ASTROe1_R3_0|
jrr73|FAILED|scavenger-gpu|2023-05-15T14:15:11|2023-05-15T14:26:19|00:11:08|dcc-youlab-gpu-26|1|8|10000M||/hpc/group/tdunn/jravenel/videos/2023_04_28/ASTROe1_R3_0|
jrr73|FAILED|scavenger-gpu|2023-05-15T14:15:11|2023-05-15T14:18:32|00:03:21|dcc-allenlab-gpu-01|1|8|10000M||/hpc/group/tdunn/jravenel/videos/2023_04_28/ASTROe1_R3_0|
jrr73|FAILED|scavenger-gpu|2023-05-15T14:15:11|2023-05-15T14:16:41|00:01:30|dcc-allenlab-gpu-02|1|8|10000M||/hpc/group/tdunn/jravenel/videos/2023_04_28/ASTROe1_R3_0|
lh342|CANCELLED by 1397954|scavenger-gpu|2023-05-15T14:17:16|2023-05-15T15:09:51|00:52:35|dcc-allenlab-gpu-02|1|10|24G||/hpc/home/lh342/MMVAE|
ym208|FAILED|scavenger-gpu|2023-05-15T14:17:47|2023-05-15T14:49:49|00:32:02|dcc-youlab-gpu-40|1|1|2G||/hpc/group/bartesaghilab|
kw297|PREEMPTED|scavenger-gpu|2023-05-15T14:19:51|2023-05-17T13:49:35|1-23:29:44|dcc-allenlab-gpu-01|1|4|20G||/hpc/group/ychenlab/DA|
lh342|CANCELLED by 1397954|scavenger-gpu|2023-05-15T14:19:51|2023-05-15T15:09:51|00:50:00|dcc-allenlab-gpu-03|1|10|24G||/hpc/home/lh342/MMVAE|
dl370|COMPLETED|scavenger-gpu|2023-05-15T14:24:03|2023-05-16T06:30:54|16:06:51|dcc-youlab-gpu-15|1|10|2G||/work/dl370|
lh342|CANCELLED by 1397954|scavenger-gpu|2023-05-15T14:26:07|2023-05-15T15:09:51|00:43:44|dcc-vossenlab-gpu-02|1|10|24G||/hpc/home/lh342/MMVAE|
lh342|CANCELLED by 1397954|scavenger-gpu|2023-05-15T14:29:44|2023-05-15T15:09:51|00:40:07|dcc-youlab-gpu-26|1|10|24G||/hpc/home/lh342/MMVAE|
yw564|FAILED|scavenger-gpu|2023-05-15T14:43:02|2023-05-18T03:15:50|2-12:32:48|dcc-mastatlab-gpu-01|1|2|50G||/hpc/group/jilab|
