vk93|TIMEOUT|scavenger-gpu|2023-05-15T16:11:33|2023-05-22T16:11:51|7-00:00:18|dcc-dsplus-gpu-02|1|40|350109M||/hpc/home/vk93/ondemand/data/sys/dashboard/batch_connect/sys/bc_jupyter/output/23d4d6a9-4d03-429b-b1e0-2247cea267b4|
lh342|TIMEOUT|scavenger-gpu|2023-05-16T16:11:07|2023-05-23T16:11:07|7-00:00:00|dcc-motesa-gpu-02|1|6|16G||/hpc/home/lh342/MMVAE|
bgb13|FAILED|scavenger-gpu|2023-05-17T14:02:45|2023-05-23T06:01:01|5-15:58:16|dcc-ultrasound-gpu-04|1|16|10G||/hpc/group/dukenmr/bgb13/cyp51b_phosphorylated_S123/./.|
yx240|COMPLETED|scavenger-gpu|2023-05-17T23:09:49|2023-05-20T04:07:10|2-04:57:21|dcc-gehmlab-gpu-08|1|19|2G||/work/yx240/project-martini/new/simutools/scripts|
yx240|CANCELLED by 1495323|scavenger-gpu|2023-05-17T23:17:30|2023-05-20T11:27:54|2-12:10:24|dcc-dsplus-gpu-01|1|92|2G||/work/yx240/project-martini/new/simutools/scripts|
yx240|COMPLETED|scavenger-gpu|2023-05-17T23:17:30|2023-05-20T11:03:02|2-11:45:32|dcc-chsi-gpu-05|1|6|2G||/work/yx240/project-martini/new/simutools/scripts|
yx240|COMPLETED|scavenger-gpu|2023-05-17T23:17:30|2023-05-20T09:32:33|2-10:15:03|dcc-carlsonlab-gpu-12|1|21|2G||/work/yx240/project-martini/new/simutools/scripts|
yx240|CANCELLED by 1495323|scavenger-gpu|2023-05-17T23:17:30|2023-05-20T11:27:54|2-12:10:24|dcc-carlsonlab-gpu-09|1|21|2G||/work/yx240/project-martini/new/simutools/scripts|
yx240|COMPLETED|scavenger-gpu|2023-05-17T23:17:30|2023-05-20T06:45:00|2-07:27:30|dcc-carlsonlab-gpu-08|1|21|2G||/work/yx240/project-martini/new/simutools/scripts|
yx240|PREEMPTED|scavenger-gpu|2023-05-18T07:32:06|2023-05-20T11:19:00|2-03:46:54|dcc-gehmlab-gpu-48|1|19|2G||/work/yx240/project-martini/new/simutools/scripts|
yx240|PREEMPTED|scavenger-gpu|2023-05-18T07:34:08|2023-05-20T11:19:04|2-03:44:56|dcc-gehmlab-gpu-57|1|19|2G||/work/yx240/project-martini/new/simutools/scripts|
yx240|PREEMPTED|scavenger-gpu|2023-05-18T07:35:09|2023-05-20T11:19:08|2-03:43:59|dcc-gehmlab-gpu-46|1|19|2G||/work/yx240/project-martini/new/simutools/scripts|
bmajoros|COMPLETED|scavenger-gpu|2023-05-19T22:59:55|2023-05-20T02:09:51|03:09:56|dcc-youlab-gpu-38|1|10|20000M||/datacommons/igvf-pm/ENCODE/mutator-slurms|
bmajoros|COMPLETED|scavenger-gpu|2023-05-19T23:39:57|2023-05-20T02:49:54|03:09:57|dcc-youlab-gpu-04|1|10|20000M||/datacommons/igvf-pm/ENCODE/mutator-slurms|
bmajoros|COMPLETED|scavenger-gpu|2023-05-19T23:47:38|2023-05-20T02:58:20|03:10:42|dcc-youlab-gpu-34|1|10|20000M||/datacommons/igvf-pm/ENCODE/mutator-slurms|
bmajoros|COMPLETED|scavenger-gpu|2023-05-19T23:52:47|2023-05-20T02:51:10|02:58:23|dcc-youlab-gpu-19|1|10|20000M||/datacommons/igvf-pm/ENCODE/mutator-slurms|
bmajoros|COMPLETED|scavenger-gpu|2023-05-19T23:55:55|2023-05-20T02:50:24|02:54:29|dcc-youlab-gpu-32|1|10|20000M||/datacommons/igvf-pm/ENCODE/mutator-slurms|
bmajoros|COMPLETED|scavenger-gpu|2023-05-20T00:00:52|2023-05-20T03:04:32|03:03:40|dcc-youlab-gpu-28|1|10|20000M||/datacommons/igvf-pm/ENCODE/mutator-slurms|
bmajoros|COMPLETED|scavenger-gpu|2023-05-20T00:00:52|2023-05-20T03:00:33|02:59:41|dcc-youlab-gpu-21|1|10|20000M||/datacommons/igvf-pm/ENCODE/mutator-slurms|
bmajoros|COMPLETED|scavenger-gpu|2023-05-20T00:01:39|2023-05-20T03:06:20|03:04:41|dcc-youlab-gpu-12|1|10|20000M||/datacommons/igvf-pm/ENCODE/mutator-slurms|
bmajoros|COMPLETED|scavenger-gpu|2023-05-20T00:03:07|2023-05-20T02:59:42|02:56:35|dcc-youlab-gpu-07|1|10|20000M||/datacommons/igvf-pm/ENCODE/mutator-slurms|
bmajoros|COMPLETED|scavenger-gpu|2023-05-20T00:18:05|2023-05-20T03:30:40|03:12:35|dcc-pbenfeylab-gpu-03|1|10|20000M||/datacommons/igvf-pm/ENCODE/mutator-slurms|
bmajoros|COMPLETED|scavenger-gpu|2023-05-20T00:23:57|2023-05-20T03:30:42|03:06:45|dcc-youlab-gpu-30|1|10|20000M||/datacommons/igvf-pm/ENCODE/mutator-slurms|
bmajoros|COMPLETED|scavenger-gpu|2023-05-20T00:37:04|2023-05-20T03:40:10|03:03:06|dcc-youlab-gpu-23|1|10|20000M||/datacommons/igvf-pm/ENCODE/mutator-slurms|
bmajoros|COMPLETED|scavenger-gpu|2023-05-20T00:41:52|2023-05-20T03:43:37|03:01:45|dcc-youlab-gpu-16|1|10|20000M||/datacommons/igvf-pm/ENCODE/mutator-slurms|
bmajoros|COMPLETED|scavenger-gpu|2023-05-20T00:46:43|2023-05-20T03:48:42|03:01:59|dcc-vossenlab-gpu-01|1|10|20000M||/datacommons/igvf-pm/ENCODE/mutator-slurms|
bmajoros|COMPLETED|scavenger-gpu|2023-05-20T00:55:42|2023-05-20T03:53:03|02:57:21|dcc-youlab-gpu-11|1|10|20000M||/datacommons/igvf-pm/ENCODE/mutator-slurms|
bmajoros|COMPLETED|scavenger-gpu|2023-05-20T00:56:36|2023-05-20T03:53:48|02:57:12|dcc-youlab-gpu-43|1|10|20000M||/datacommons/igvf-pm/ENCODE/mutator-slurms|
bmajoros|COMPLETED|scavenger-gpu|2023-05-20T00:56:36|2023-05-20T04:05:34|03:08:58|dcc-youlab-gpu-10|1|10|20000M||/datacommons/igvf-pm/ENCODE/mutator-slurms|
bmajoros|COMPLETED|scavenger-gpu|2023-05-20T00:57:30|2023-05-20T04:06:17|03:08:47|dcc-youlab-gpu-44|1|10|20000M||/datacommons/igvf-pm/ENCODE/mutator-slurms|
bmajoros|COMPLETED|scavenger-gpu|2023-05-20T00:57:30|2023-05-20T04:00:53|03:03:23|dcc-youlab-gpu-13|1|10|20000M||/datacommons/igvf-pm/ENCODE/mutator-slurms|
bmajoros|COMPLETED|scavenger-gpu|2023-05-20T00:59:24|2023-05-20T04:09:29|03:10:05|dcc-youlab-gpu-15|1|10|20000M||/datacommons/igvf-pm/ENCODE/mutator-slurms|
bmajoros|COMPLETED|scavenger-gpu|2023-05-20T01:02:04|2023-05-20T02:09:51|01:07:47|dcc-gehmlab-gpu-28|1|19|20000M||/datacommons/igvf-pm/ENCODE/mutator-slurms|
bmajoros|COMPLETED|scavenger-gpu|2023-05-20T01:03:51|2023-05-20T04:04:56|03:01:05|dcc-youlab-gpu-03|1|10|20000M||/datacommons/igvf-pm/ENCODE/mutator-slurms|
bmajoros|COMPLETED|scavenger-gpu|2023-05-20T01:04:44|2023-05-20T03:59:46|02:55:02|dcc-youlab-gpu-36|1|10|20000M||/datacommons/igvf-pm/ENCODE/mutator-slurms|
bmajoros|COMPLETED|scavenger-gpu|2023-05-20T01:07:31|2023-05-20T04:05:30|02:57:59|dcc-youlab-gpu-42|1|10|20000M||/datacommons/igvf-pm/ENCODE/mutator-slurms|
bmajoros|COMPLETED|scavenger-gpu|2023-05-20T01:15:50|2023-05-20T04:24:15|03:08:25|dcc-youlab-gpu-18|1|10|20000M||/datacommons/igvf-pm/ENCODE/mutator-slurms|
bmajoros|COMPLETED|scavenger-gpu|2023-05-20T01:16:40|2023-05-20T04:15:47|02:59:07|dcc-youlab-gpu-40|1|10|20000M||/datacommons/igvf-pm/ENCODE/mutator-slurms|
bmajoros|COMPLETED|scavenger-gpu|2023-05-20T01:18:23|2023-05-20T04:13:54|02:55:31|dcc-youlab-gpu-55|1|10|20000M||/datacommons/igvf-pm/ENCODE/mutator-slurms|
bmajoros|COMPLETED|scavenger-gpu|2023-05-20T01:20:11|2023-05-20T04:24:08|03:03:57|dcc-youlab-gpu-27|1|10|20000M||/datacommons/igvf-pm/ENCODE/mutator-slurms|
bmajoros|COMPLETED|scavenger-gpu|2023-05-20T01:21:06|2023-05-20T04:23:25|03:02:19|dcc-youlab-gpu-29|1|10|20000M||/datacommons/igvf-pm/ENCODE/mutator-slurms|
bmajoros|COMPLETED|scavenger-gpu|2023-05-20T01:22:04|2023-05-20T04:29:05|03:07:01|dcc-youlab-gpu-41|1|10|20000M||/datacommons/igvf-pm/ENCODE/mutator-slurms|
bmajoros|COMPLETED|scavenger-gpu|2023-05-20T01:22:04|2023-05-20T04:38:24|03:16:20|dcc-pbenfeylab-gpu-02|1|10|20000M||/datacommons/igvf-pm/ENCODE/mutator-slurms|
bmajoros|COMPLETED|scavenger-gpu|2023-05-20T01:22:57|2023-05-20T04:22:54|02:59:57|dcc-youlab-gpu-14|1|10|20000M||/datacommons/igvf-pm/ENCODE/mutator-slurms|
bmajoros|COMPLETED|scavenger-gpu|2023-05-20T01:32:52|2023-05-20T04:37:30|03:04:38|dcc-youlab-gpu-53|1|10|20000M||/datacommons/igvf-pm/ENCODE/mutator-slurms|
bmajoros|COMPLETED|scavenger-gpu|2023-05-20T01:37:20|2023-05-20T04:47:40|03:10:20|dcc-vossenlab-gpu-04|1|10|20000M||/datacommons/igvf-pm/ENCODE/mutator-slurms|
bmajoros|COMPLETED|scavenger-gpu|2023-05-20T01:43:22|2023-05-20T04:42:30|02:59:08|dcc-youlab-gpu-09|1|10|20000M||/datacommons/igvf-pm/ENCODE/mutator-slurms|
bmajoros|COMPLETED|scavenger-gpu|2023-05-20T01:45:07|2023-05-20T04:45:27|03:00:20|dcc-youlab-gpu-24|1|10|20000M||/datacommons/igvf-pm/ENCODE/mutator-slurms|
bmajoros|COMPLETED|scavenger-gpu|2023-05-20T01:50:20|2023-05-20T04:54:59|03:04:39|dcc-youlab-gpu-08|1|10|20000M||/datacommons/igvf-pm/ENCODE/mutator-slurms|
bmajoros|COMPLETED|scavenger-gpu|2023-05-20T01:53:01|2023-05-20T04:53:09|03:00:08|dcc-youlab-gpu-37|1|10|20000M||/datacommons/igvf-pm/ENCODE/mutator-slurms|
bmajoros|COMPLETED|scavenger-gpu|2023-05-20T01:58:46|2023-05-20T05:05:24|03:06:38|dcc-youlab-gpu-02|1|10|20000M||/datacommons/igvf-pm/ENCODE/mutator-slurms|
bmajoros|COMPLETED|scavenger-gpu|2023-05-20T02:09:59|2023-05-20T06:47:57|04:37:58|dcc-ece-gpu-01|1|13|20000M||/datacommons/igvf-pm/ENCODE/mutator-slurms|
bmajoros|COMPLETED|scavenger-gpu|2023-05-20T02:10:46|2023-05-20T05:16:26|03:05:40|dcc-youlab-gpu-38|1|10|20000M||/datacommons/igvf-pm/ENCODE/mutator-slurms|
bmajoros|COMPLETED|scavenger-gpu|2023-05-20T02:50:34|2023-05-20T05:53:31|03:02:57|dcc-youlab-gpu-04|1|10|20000M||/datacommons/igvf-pm/ENCODE/mutator-slurms|
bmajoros|COMPLETED|scavenger-gpu|2023-05-20T02:51:20|2023-05-20T05:55:32|03:04:12|dcc-youlab-gpu-32|1|10|20000M||/datacommons/igvf-pm/ENCODE/mutator-slurms|
bmajoros|COMPLETED|scavenger-gpu|2023-05-20T02:52:11|2023-05-20T05:58:52|03:06:41|dcc-youlab-gpu-19|1|10|20000M||/datacommons/igvf-pm/ENCODE/mutator-slurms|
bmajoros|COMPLETED|scavenger-gpu|2023-05-20T02:59:09|2023-05-20T06:13:55|03:14:46|dcc-youlab-gpu-34|1|10|20000M||/datacommons/igvf-pm/ENCODE/mutator-slurms|
bmajoros|COMPLETED|scavenger-gpu|2023-05-20T03:00:43|2023-05-20T05:58:10|02:57:27|dcc-youlab-gpu-07|1|10|20000M||/datacommons/igvf-pm/ENCODE/mutator-slurms|
ym208|CANCELLED by 1517022|scavenger-gpu|2023-05-18T14:38:33|2023-05-21T14:55:32|3-00:16:59|dcc-vossenlab-gpu-02|1|1|2G||/hpc/group/bartesaghilab|
cem125|PREEMPTED|scavenger-gpu|2023-05-18T14:49:21|2023-05-20T22:56:46|2-08:07:25|dcc-tdunn-gpu-01|1|44|50G||/hpc/group/rekerlab/cem125/OpenNMT-py|
cem125|COMPLETED|scavenger-gpu|2023-05-18T14:49:21|2023-05-20T05:32:34|1-14:43:13|dcc-pbenfeylab-gpu-04|1|10|50G||/hpc/group/rekerlab/cem125/OpenNMT-py|
cem125|COMPLETED|scavenger-gpu|2023-05-18T14:49:22|2023-05-20T05:13:02|1-14:23:40|dcc-pbenfeylab-gpu-01|1|10|50G||/hpc/group/rekerlab/cem125/OpenNMT-py|
yx240|PREEMPTED|scavenger-gpu|2023-05-18T15:21:11|2023-05-20T11:18:56|1-19:57:45|dcc-gehmlab-gpu-35|1|19|2G||/work/yx240/project-martini/new/simutools/scripts|
jrl78|COMPLETED|scavenger-gpu|2023-05-19T07:59:55|2023-05-20T11:01:20|1-03:01:25|dcc-gehmlab-gpu-54|1|19|4G||/work/jrl78/Nanoparticles/JawBreakers/Different Partial Charges/EEM Full Library|
jrl78|COMPLETED|scavenger-gpu|2023-05-19T09:56:31|2023-05-20T12:10:15|1-02:13:44|dcc-ece-gpu-03|1|13|4G||/work/jrl78/Nanoparticles/JawBreakers/Different Partial Charges/EEM Full Library|
jrl78|COMPLETED|scavenger-gpu|2023-05-19T10:41:14|2023-05-20T06:40:58|19:59:44|dcc-gehmlab-gpu-52|1|19|4G||/work/jrl78/Nanoparticles/JawBreakers/Different Partial Charges/EEM Full Library|
jrl78|COMPLETED|scavenger-gpu|2023-05-19T10:52:45|2023-05-20T04:27:49|17:35:04|dcc-gehmlab-gpu-53|1|19|4G||/work/jrl78/Nanoparticles/JawBreakers/Different Partial Charges/EEM Full Library|
jrl78|COMPLETED|scavenger-gpu|2023-05-19T11:01:55|2023-05-20T10:49:02|23:47:07|dcc-gehmlab-gpu-50|1|19|4G||/work/jrl78/Nanoparticles/JawBreakers/Different Partial Charges/EEM Full Library|
jrl78|COMPLETED|scavenger-gpu|2023-05-19T11:08:37|2023-05-20T09:11:58|22:03:21|dcc-gehmlab-gpu-37|1|19|4G||/work/jrl78/Nanoparticles/JawBreakers/Different Partial Charges/EEM Full Library|
jrl78|COMPLETED|scavenger-gpu|2023-05-19T11:51:47|2023-05-20T09:54:19|22:02:32|dcc-gehmlab-gpu-45|1|19|4G||/work/jrl78/Nanoparticles/JawBreakers/Different Partial Charges/EEM Full Library|
jrl78|COMPLETED|scavenger-gpu|2023-05-19T11:55:33|2023-05-20T09:14:53|21:19:20|dcc-motesa-gpu-03|1|6|4G||/work/jrl78/Nanoparticles/JawBreakers/Different Partial Charges/EEM Full Library|
jrl78|FAILED|scavenger-gpu|2023-05-19T17:54:33|2023-05-20T18:40:39|1-00:46:06|dcc-motesa-gpu-04|1|6|4G||/work/jrl78/Nanoparticles/JawBreakers/Different Partial Charges/EEM Full Library|
jrl78|PREEMPTED|scavenger-gpu|2023-05-19T14:40:47|2023-05-20T11:19:12|20:38:25|dcc-gehmlab-gpu-30|1|19|4G||/work/jrl78/Nanoparticles/JawBreakers/Different Partial Charges/EEM Full Library|
jrl78|COMPLETED|scavenger-gpu|2023-05-19T21:28:25|2023-05-20T16:41:19|19:12:54|dcc-mainsahlab-gpu-03|1|6|4G||/work/jrl78/Nanoparticles/JawBreakers/Different Partial Charges/EEM Full Library|
jrl78|COMPLETED|scavenger-gpu|2023-05-19T21:37:08|2023-05-20T16:50:13|19:13:05|dcc-mainsahlab-gpu-02|1|6|4G||/work/jrl78/Nanoparticles/JawBreakers/Different Partial Charges/EEM Full Library|
jrl78|COMPLETED|scavenger-gpu|2023-05-19T22:48:54|2023-05-20T17:47:30|18:58:36|dcc-youlab-gpu-33|1|10|4G||/work/jrl78/Nanoparticles/JawBreakers/Different Partial Charges/EEM Full Library|
jrl78|COMPLETED|scavenger-gpu|2023-05-19T22:56:32|2023-05-20T14:50:19|15:53:47|dcc-mainsahlab-gpu-01|1|6|4G||/work/jrl78/Nanoparticles/JawBreakers/Different Partial Charges/EEM Full Library|
jrl78|COMPLETED|scavenger-gpu|2023-05-20T00:20:16|2023-05-20T15:54:29|15:34:13|dcc-motesa-gpu-01|1|6|4G||/work/jrl78/Nanoparticles/JawBreakers/Different Partial Charges/EEM Full Library|
jrl78|COMPLETED|scavenger-gpu|2023-05-20T00:46:43|2023-05-20T16:33:06|15:46:23|dcc-mainsahlab-gpu-04|1|6|4G||/work/jrl78/Nanoparticles/JawBreakers/Different Partial Charges/EEM Full Library|
jrl78|PREEMPTED|scavenger-gpu|2023-05-20T04:28:06|2023-05-20T11:19:16|06:51:10|dcc-gehmlab-gpu-53|1|19|4G||/work/jrl78/Nanoparticles/JawBreakers/Different Partial Charges/EEM Full Library|
jrl78|FAILED|scavenger-gpu|2023-05-20T06:41:47|2023-05-20T19:07:13|12:25:26|dcc-youlab-gpu-32|1|10|4G||/work/jrl78/Nanoparticles/JawBreakers/Different Partial Charges/EEM Full Library|
jrl78|FAILED|scavenger-gpu|2023-05-20T06:41:47|2023-05-20T19:13:14|12:31:27|dcc-youlab-gpu-24|1|10|4G||/work/jrl78/Nanoparticles/JawBreakers/Different Partial Charges/EEM Full Library|
yw564|PREEMPTED|scavenger-gpu|2023-05-18T17:41:10|2023-05-21T23:54:52|3-06:13:42|dcc-viplab-gpu-01|1|2|50G||/hpc/group/jilab/yw564/GeneSegNet|
yx240|CANCELLED by 1495323|scavenger-gpu|2023-05-18T18:48:59|2023-05-20T11:27:55|1-16:38:56|dcc-carin-gpu-07|1|19|2G||/work/yx240/project-martini/new/simutools/scripts|
yx240|CANCELLED by 1495323|scavenger-gpu|2023-05-18T18:50:16|2023-05-20T11:27:55|1-16:37:39|dcc-carin-gpu-06|1|19|2G||/work/yx240/project-martini/new/simutools/scripts|
yx240|CANCELLED by 1495323|scavenger-gpu|2023-05-18T18:50:22|2023-05-20T11:27:55|1-16:37:33|dcc-carin-gpu-04|1|19|2G||/work/yx240/project-martini/new/simutools/scripts|
yx240|CANCELLED by 1495323|scavenger-gpu|2023-05-18T20:04:51|2023-05-20T11:27:55|1-15:23:04|dcc-carin-gpu-03|1|19|2G||/work/yx240/project-martini/new/simutools/scripts|
yx240|CANCELLED by 1495323|scavenger-gpu|2023-05-18T20:05:20|2023-05-20T11:27:55|1-15:22:35|dcc-carin-gpu-02|1|19|2G||/work/yx240/project-martini/new/simutools/scripts|
cem125|COMPLETED|scavenger-gpu|2023-05-18T21:42:41|2023-05-20T03:54:58|1-06:12:17|dcc-gehmlab-gpu-42|1|19|50G||/hpc/group/rekerlab/cem125/OpenNMT-py|
cem125|COMPLETED|scavenger-gpu|2023-05-18T21:43:12|2023-05-20T07:11:00|1-09:27:48|dcc-gehmlab-gpu-49|1|19|50G||/hpc/group/rekerlab/cem125/OpenNMT-py|
cem125|COMPLETED|scavenger-gpu|2023-05-18T21:43:12|2023-05-20T06:29:56|1-08:46:44|dcc-gehmlab-gpu-22|1|19|50G||/hpc/group/rekerlab/cem125/OpenNMT-py|
cem125|COMPLETED|scavenger-gpu|2023-05-18T21:43:12|2023-05-20T13:50:15|1-16:07:03|dcc-carlsonlab-gpu-02|1|21|50G||/hpc/group/rekerlab/cem125/OpenNMT-py|
cem125|COMPLETED|scavenger-gpu|2023-05-18T21:43:14|2023-05-20T03:24:20|1-05:41:06|dcc-gehmlab-gpu-05|1|19|50G||/hpc/group/rekerlab/cem125/OpenNMT-py|
cem125|COMPLETED|scavenger-gpu|2023-05-18T21:43:17|2023-05-20T08:22:17|1-10:39:00|dcc-youlab-gpu-05|1|10|50G||/hpc/group/rekerlab/cem125/OpenNMT-py|
cem125|COMPLETED|scavenger-gpu|2023-05-18T21:43:19|2023-05-20T08:52:43|1-11:09:24|dcc-youlab-gpu-35|1|10|50G||/hpc/group/rekerlab/cem125/OpenNMT-py|
cem125|COMPLETED|scavenger-gpu|2023-05-18T21:43:19|2023-05-20T07:46:42|1-10:03:23|dcc-youlab-gpu-31|1|10|50G||/hpc/group/rekerlab/cem125/OpenNMT-py|
hk276|COMPLETED|scavenger-gpu|2023-05-19T02:27:58|2023-05-20T04:52:10|1-02:24:12|dcc-carin-gpu-01|1|12|50000M||/hpc/group/tdunn/hk276/tangosave/src|
hk276|COMPLETED|scavenger-gpu|2023-05-19T02:28:47|2023-05-20T03:50:25|1-01:21:38|dcc-gehmlab-gpu-18|1|12|50000M||/hpc/group/tdunn/hk276/tangosave/src|
pkk16|TIMEOUT|scavenger-gpu|2023-05-19T06:36:38|2023-05-20T06:36:49|1-00:00:11|dcc-tdunn-gpu-02|1|2|20G||/hpc/home/pkk16/ondemand/data/sys/dashboard/batch_connect/sys/bc_jupyter/output/fe8e2bfc-3e0d-4e40-ae6f-3a9fd020fd43|
cem125|PREEMPTED|scavenger-gpu|2023-05-19T07:50:15|2023-05-20T11:19:20|1-03:29:05|dcc-gehmlab-gpu-59|1|19|50G||/hpc/group/rekerlab/cem125/OpenNMT-py|
cem125|PREEMPTED|scavenger-gpu|2023-05-19T07:50:15|2023-05-20T11:19:24|1-03:29:09|dcc-gehmlab-gpu-58|1|19|50G||/hpc/group/rekerlab/cem125/OpenNMT-py|
cem125|PREEMPTED|scavenger-gpu|2023-05-19T07:50:15|2023-05-20T11:19:33|1-03:29:18|dcc-gehmlab-gpu-56|1|19|50G||/hpc/group/rekerlab/cem125/OpenNMT-py|
cem125|PREEMPTED|scavenger-gpu|2023-05-19T07:50:15|2023-05-20T11:19:42|1-03:29:27|dcc-gehmlab-gpu-55|1|19|50G||/hpc/group/rekerlab/cem125/OpenNMT-py|
yx240|COMPLETED|scavenger-gpu|2023-05-19T09:55:48|2023-05-20T02:00:51|16:05:03|dcc-gehmlab-gpu-47|1|19|2G||/work/yx240/project-martini/new/simutools/scripts|
yx240|CANCELLED by 1495323|scavenger-gpu|2023-05-19T09:55:48|2023-05-20T11:27:55|1-01:32:07|dcc-gehmlab-gpu-04|1|19|2G||/work/yx240/project-martini/new/simutools/scripts|
bmajoros|COMPLETED|scavenger-gpu|2023-05-20T03:01:27|2023-05-20T06:03:47|03:02:20|dcc-youlab-gpu-21|1|10|20000M||/datacommons/igvf-pm/ENCODE/mutator-slurms|
bmajoros|COMPLETED|scavenger-gpu|2023-05-20T03:05:30|2023-05-20T06:09:16|03:03:46|dcc-youlab-gpu-28|1|10|20000M||/datacommons/igvf-pm/ENCODE/mutator-slurms|
jrl78|FAILED|scavenger-gpu|2023-05-20T09:12:36|2023-05-21T02:52:55|17:40:19|dcc-youlab-gpu-53|1|10|4G||/work/jrl78/Nanoparticles/JawBreakers/Different Partial Charges/EEM Full Library|
bmajoros|COMPLETED|scavenger-gpu|2023-05-20T03:07:05|2023-05-20T06:13:57|03:06:52|dcc-youlab-gpu-12|1|10|20000M||/datacommons/igvf-pm/ENCODE/mutator-slurms|
pkk16|TIMEOUT|scavenger-gpu|2023-05-19T13:05:10|2023-05-20T13:05:27|1-00:00:17|dcc-mastatlab-gpu-01|1|2|20G||/hpc/home/pkk16/ondemand/data/sys/dashboard/batch_connect/sys/bc_jupyter/output/c661fc1b-eb74-4f04-8eec-bbad1c724408|
cem125|PREEMPTED|scavenger-gpu|2023-05-19T14:57:07|2023-05-20T11:18:49|20:21:42|dcc-gehmlab-gpu-38|1|19|50G||/hpc/group/rekerlab/cem125/OpenNMT-py|
yw564|COMPLETED|scavenger-gpu|2023-05-19T16:21:23|2023-05-21T02:03:34|1-09:42:11|dcc-vossenlab-gpu-03|1|10|100G||/hpc/group/jilab/yw564/GeneSegNet|
kw297|CANCELLED by 1215097|scavenger-gpu|2023-05-19T17:26:16|2023-05-22T14:46:00|2-21:19:44|dcc-allenlab-gpu-01|1|4|20G||/hpc/group/ychenlab/DA|
as1296|TIMEOUT|scavenger-gpu|2023-05-19T19:23:38|2023-05-20T03:24:07|08:00:29|dcc-carin-gpu-05|1|10|60000M||/hpc/group/tdunn/asabath|
lh342|FAILED|scavenger-gpu|2023-05-19T20:12:09|2023-05-20T19:48:59|23:36:50|dcc-allenlab-gpu-02|1|10|24G||/hpc/home/lh342/MMVAE|
lh342|FAILED|scavenger-gpu|2023-05-19T20:18:45|2023-05-20T12:37:43|16:18:58|dcc-allenlab-gpu-03|1|10|24G||/hpc/home/lh342/MMVAE|
minhe|COMPLETED|scavenger-gpu|2023-05-20T00:01:39|2023-05-20T02:06:16|02:04:37|dcc-gehmlab-gpu-12|1|19|86172M||/work/minhe/alphafold|
minhe|COMPLETED|scavenger-gpu|2023-05-20T00:05:17|2023-05-20T02:50:08|02:44:51|dcc-gehmlab-gpu-51|1|19|86172M||/work/minhe/alphafold|
minhe|COMPLETED|scavenger-gpu|2023-05-20T00:06:47|2023-05-20T04:25:59|04:19:12|dcc-gehmlab-gpu-31|1|19|86172M||/work/minhe/alphafold|
minhe|COMPLETED|scavenger-gpu|2023-05-20T00:18:49|2023-05-20T02:04:30|01:45:41|dcc-gehmlab-gpu-24|1|19|86172M||/work/minhe/alphafold|
minhe|COMPLETED|scavenger-gpu|2023-05-20T00:19:32|2023-05-20T02:19:28|01:59:56|dcc-gehmlab-gpu-17|1|19|86172M||/work/minhe/alphafold|
minhe|COMPLETED|scavenger-gpu|2023-05-20T00:43:50|2023-05-20T02:42:27|01:58:37|dcc-gehmlab-gpu-25|1|19|86172M||/work/minhe/alphafold|
minhe|COMPLETED|scavenger-gpu|2023-05-20T00:52:14|2023-05-20T02:04:39|01:12:25|dcc-gehmlab-gpu-27|1|19|86172M||/work/minhe/alphafold|
minhe|COMPLETED|scavenger-gpu|2023-05-20T01:11:07|2023-05-20T02:17:20|01:06:13|dcc-gehmlab-gpu-20|1|19|86172M||/work/minhe/alphafold|
minhe|COMPLETED|scavenger-gpu|2023-05-20T01:12:12|2023-05-20T04:20:48|03:08:36|dcc-gehmlab-gpu-43|1|19|86172M||/work/minhe/alphafold|
minhe|COMPLETED|scavenger-gpu|2023-05-20T01:16:40|2023-05-20T02:42:37|01:25:57|dcc-ultrasound-gpu-03|1|19|86172M||/work/minhe/alphafold|
minhe|COMPLETED|scavenger-gpu|2023-05-20T01:24:52|2023-05-20T02:24:54|01:00:02|dcc-gehmlab-gpu-21|1|19|86172M||/work/minhe/alphafold|
minhe|COMPLETED|scavenger-gpu|2023-05-20T01:28:10|2023-05-20T05:59:55|04:31:45|dcc-gehmlab-gpu-13|1|19|86172M||/work/minhe/alphafold|
minhe|COMPLETED|scavenger-gpu|2023-05-20T01:28:10|2023-05-20T03:46:59|02:18:49|dcc-gehmlab-gpu-11|1|19|86172M||/work/minhe/alphafold|
minhe|COMPLETED|scavenger-gpu|2023-05-20T01:28:10|2023-05-20T02:29:11|01:01:01|dcc-gehmlab-gpu-07|1|19|86172M||/work/minhe/alphafold|
minhe|COMPLETED|scavenger-gpu|2023-05-20T01:28:10|2023-05-20T02:51:41|01:23:31|dcc-gehmlab-gpu-06|1|19|86172M||/work/minhe/alphafold|
minhe|COMPLETED|scavenger-gpu|2023-05-20T01:28:10|2023-05-20T04:01:19|02:33:09|dcc-gehmlab-gpu-03|1|19|86172M||/work/minhe/alphafold|
minhe|COMPLETED|scavenger-gpu|2023-05-20T01:30:01|2023-05-20T03:25:32|01:55:31|dcc-rekerlab-gpu-01|1|8|86172M||/work/minhe/alphafold|
minhe|COMPLETED|scavenger-gpu|2023-05-20T01:30:58|2023-05-20T02:43:11|01:12:13|dcc-gehmlab-gpu-02|1|19|86172M||/work/minhe/alphafold|
minhe|COMPLETED|scavenger-gpu|2023-05-20T01:31:57|2023-05-20T02:37:29|01:05:32|dcc-gehmlab-gpu-36|1|19|86172M||/work/minhe/alphafold|
minhe|COMPLETED|scavenger-gpu|2023-05-20T01:37:20|2023-05-20T02:52:21|01:15:01|dcc-gehmlab-gpu-34|1|19|86172M||/work/minhe/alphafold|
minhe|COMPLETED|scavenger-gpu|2023-05-20T01:39:02|2023-05-20T02:34:24|00:55:22|dcc-gehmlab-gpu-60|1|19|86172M||/work/minhe/alphafold|
minhe|COMPLETED|scavenger-gpu|2023-05-20T01:40:45|2023-05-20T02:26:00|00:45:15|dcc-gehmlab-gpu-33|1|19|86172M||/work/minhe/alphafold|
minhe|COMPLETED|scavenger-gpu|2023-05-20T01:41:34|2023-05-20T02:33:51|00:52:17|dcc-gehmlab-gpu-15|1|19|86172M||/work/minhe/alphafold|
minhe|COMPLETED|scavenger-gpu|2023-05-20T01:42:27|2023-05-20T02:17:10|00:34:43|dcc-youlab-gpu-01|1|44|86172M||/work/minhe/alphafold|
minhe|COMPLETED|scavenger-gpu|2023-05-20T01:42:27|2023-05-20T02:09:07|00:26:40|dcc-ece-gpu-01|1|13|86172M||/work/minhe/alphafold|
minhe|COMPLETED|scavenger-gpu|2023-05-20T01:43:24|2023-05-20T02:09:47|00:26:23|dcc-gehmlab-gpu-41|1|19|86172M||/work/minhe/alphafold|
minhe|COMPLETED|scavenger-gpu|2023-05-20T01:43:24|2023-05-20T02:39:36|00:56:12|dcc-gehmlab-gpu-26|1|19|86172M||/work/minhe/alphafold|
minhe|COMPLETED|scavenger-gpu|2023-05-20T01:43:24|2023-05-20T02:22:43|00:39:19|dcc-gehmlab-gpu-19|1|19|86172M||/work/minhe/alphafold|
minhe|COMPLETED|scavenger-gpu|2023-05-20T01:43:24|2023-05-20T02:44:59|01:01:35|dcc-gehmlab-gpu-10|1|19|86172M||/work/minhe/alphafold|
minhe|COMPLETED|scavenger-gpu|2023-05-20T01:43:24|2023-05-20T02:19:12|00:35:48|dcc-gehmlab-gpu-01|1|19|86172M||/work/minhe/alphafold|
minhe|COMPLETED|scavenger-gpu|2023-05-20T01:43:24|2023-05-20T02:44:10|01:00:46|dcc-dsplus-gpu-08|1|19|86172M||/work/minhe/alphafold|
minhe|COMPLETED|scavenger-gpu|2023-05-20T01:43:24|2023-05-20T02:16:45|00:33:21|dcc-dsplus-gpu-07|1|19|86172M||/work/minhe/alphafold|
minhe|COMPLETED|scavenger-gpu|2023-05-20T01:46:02|2023-05-20T02:42:37|00:56:35|dcc-gehmlab-gpu-32|1|19|86172M||/work/minhe/alphafold|
minhe|COMPLETED|scavenger-gpu|2023-05-20T01:46:02|2023-05-20T03:03:41|01:17:39|dcc-gehmlab-gpu-09|1|19|86172M||/work/minhe/alphafold|
minhe|COMPLETED|scavenger-gpu|2023-05-20T01:46:02|2023-05-20T03:09:11|01:23:09|dcc-ece-gpu-04|1|13|86172M||/work/minhe/alphafold|
minhe|COMPLETED|scavenger-gpu|2023-05-20T01:46:48|2023-05-20T02:00:44|00:13:56|dcc-gehmlab-gpu-44|1|19|86172M||/work/minhe/alphafold|
minhe|COMPLETED|scavenger-gpu|2023-05-20T01:50:21|2023-05-20T02:14:23|00:24:02|dcc-gehmlab-gpu-39|1|19|86172M||/work/minhe/alphafold|
minhe|COMPLETED|scavenger-gpu|2023-05-20T01:52:08|2023-05-20T02:43:04|00:50:56|dcc-gehmlab-gpu-29|1|19|86172M||/work/minhe/alphafold|
minhe|COMPLETED|scavenger-gpu|2023-05-20T01:52:08|2023-05-20T04:27:04|02:34:56|dcc-gehmlab-gpu-16|1|19|86172M||/work/minhe/alphafold|
minhe|COMPLETED|scavenger-gpu|2023-05-20T01:52:08|2023-05-20T03:42:28|01:50:20|dcc-gehmlab-gpu-14|1|19|86172M||/work/minhe/alphafold|
minhe|COMPLETED|scavenger-gpu|2023-05-20T01:53:56|2023-05-20T02:40:10|00:46:14|dcc-gehmlab-gpu-40|1|19|86172M||/work/minhe/alphafold|
minhe|COMPLETED|scavenger-gpu|2023-05-20T01:57:11|2023-05-20T02:32:37|00:35:26|dcc-gehmlab-gpu-23|1|19|86172M||/work/minhe/alphafold|
minhe|COMPLETED|scavenger-gpu|2023-05-20T01:58:46|2023-05-20T02:52:57|00:54:11|dcc-ece-gpu-02|1|13|86172M||/work/minhe/alphafold|
minhe|COMPLETED|scavenger-gpu|2023-05-20T02:01:12|2023-05-20T02:42:59|00:41:47|dcc-gehmlab-gpu-47|1|19|86172M||/work/minhe/alphafold|
minhe|COMPLETED|scavenger-gpu|2023-05-20T01:59:34|2023-05-20T04:46:18|02:46:44|dcc-dsplus-gpu-09|1|19|86172M||/work/minhe/alphafold|
minhe|COMPLETED|scavenger-gpu|2023-05-20T02:05:13|2023-05-20T02:58:48|00:53:35|dcc-gehmlab-gpu-44|1|19|86172M||/work/minhe/alphafold|
minhe|COMPLETED|scavenger-gpu|2023-05-20T02:05:13|2023-05-20T03:42:32|01:37:19|dcc-gehmlab-gpu-27|1|19|86172M||/work/minhe/alphafold|
minhe|COMPLETED|scavenger-gpu|2023-05-20T02:06:48|2023-05-20T03:50:08|01:43:20|dcc-gehmlab-gpu-24|1|19|86172M||/work/minhe/alphafold|
minhe|COMPLETED|scavenger-gpu|2023-05-20T02:09:10|2023-05-20T03:22:30|01:13:20|dcc-gehmlab-gpu-12|1|19|86172M||/work/minhe/alphafold|
minhe|COMPLETED|scavenger-gpu|2023-05-20T02:09:59|2023-05-20T02:43:43|00:33:44|dcc-dsplus-gpu-10|1|19|86172M||/work/minhe/alphafold|
minhe|COMPLETED|scavenger-gpu|2023-05-20T02:15:00|2023-05-20T02:26:54|00:11:54|dcc-gehmlab-gpu-41|1|19|86172M||/work/minhe/alphafold|
minhe|COMPLETED|scavenger-gpu|2023-05-20T02:16:48|2023-05-20T02:53:08|00:36:20|dcc-gehmlab-gpu-39|1|19|86172M||/work/minhe/alphafold|
minhe|COMPLETED|scavenger-gpu|2023-05-20T02:17:45|2023-05-20T02:32:07|00:14:22|dcc-youlab-gpu-01|1|44|86172M||/work/minhe/alphafold|
minhe|COMPLETED|scavenger-gpu|2023-05-20T02:17:45|2023-05-20T02:48:45|00:31:00|dcc-gehmlab-gpu-28|1|19|86172M||/work/minhe/alphafold|
minhe|COMPLETED|scavenger-gpu|2023-05-20T02:19:25|2023-05-20T03:30:32|01:11:07|dcc-gehmlab-gpu-20|1|19|86172M||/work/minhe/alphafold|
minhe|COMPLETED|scavenger-gpu|2023-05-20T02:20:14|2023-05-20T02:42:43|00:22:29|dcc-gehmlab-gpu-17|1|19|86172M||/work/minhe/alphafold|
minhe|COMPLETED|scavenger-gpu|2023-05-20T02:22:55|2023-05-20T02:43:07|00:20:12|dcc-gehmlab-gpu-01|1|19|86172M||/work/minhe/alphafold|
minhe|COMPLETED|scavenger-gpu|2023-05-20T02:25:27|2023-05-20T02:42:53|00:17:26|dcc-gehmlab-gpu-21|1|19|86172M||/work/minhe/alphafold|
minhe|COMPLETED|scavenger-gpu|2023-05-20T02:26:17|2023-05-20T02:45:55|00:19:38|dcc-gehmlab-gpu-19|1|19|86172M||/work/minhe/alphafold|
minhe|COMPLETED|scavenger-gpu|2023-05-20T02:27:06|2023-05-20T02:47:07|00:20:01|dcc-gehmlab-gpu-33|1|19|86172M||/work/minhe/alphafold|
minhe|COMPLETED|scavenger-gpu|2023-05-20T02:29:33|2023-05-20T02:40:21|00:10:48|dcc-gehmlab-gpu-41|1|19|86172M||/work/minhe/alphafold|
minhe|COMPLETED|scavenger-gpu|2023-05-20T02:32:57|2023-05-20T02:41:25|00:08:28|dcc-youlab-gpu-01|1|44|86172M||/work/minhe/alphafold|
minhe|COMPLETED|scavenger-gpu|2023-05-20T02:32:57|2023-05-20T02:44:17|00:11:20|dcc-gehmlab-gpu-23|1|19|86172M||/work/minhe/alphafold|
minhe|COMPLETED|scavenger-gpu|2023-05-20T02:34:44|2023-05-20T04:51:43|02:16:59|dcc-gehmlab-gpu-15|1|19|86172M||/work/minhe/alphafold|
minhe|COMPLETED|scavenger-gpu|2023-05-20T02:34:44|2023-05-20T03:05:46|00:31:02|dcc-gehmlab-gpu-07|1|19|86172M||/work/minhe/alphafold|
minhe|COMPLETED|scavenger-gpu|2023-05-20T02:38:05|2023-05-20T04:37:46|01:59:41|dcc-gehmlab-gpu-60|1|19|86172M||/work/minhe/alphafold|
minhe|COMPLETED|scavenger-gpu|2023-05-20T02:39:47|2023-05-20T03:14:19|00:34:32|dcc-gehmlab-gpu-36|1|19|86172M||/work/minhe/alphafold|
minhe|COMPLETED|scavenger-gpu|2023-05-20T02:40:37|2023-05-20T05:16:37|02:36:00|dcc-gehmlab-gpu-40|1|19|86172M||/work/minhe/alphafold|
minhe|COMPLETED|scavenger-gpu|2023-05-20T02:40:37|2023-05-20T03:51:54|01:11:17|dcc-gehmlab-gpu-26|1|19|86172M||/work/minhe/alphafold|
minhe|COMPLETED|scavenger-gpu|2023-05-20T02:42:11|2023-05-20T03:41:52|00:59:41|dcc-youlab-gpu-01|1|44|86172M||/work/minhe/alphafold|
minhe|COMPLETED|scavenger-gpu|2023-05-20T02:43:03|2023-05-20T02:48:55|00:05:52|dcc-ultrasound-gpu-03|1|19|86172M||/work/minhe/alphafold|
minhe|COMPLETED|scavenger-gpu|2023-05-20T02:43:03|2023-05-20T03:27:12|00:44:09|dcc-gehmlab-gpu-41|1|19|86172M||/work/minhe/alphafold|
minhe|COMPLETED|scavenger-gpu|2023-05-20T02:43:03|2023-05-20T02:51:52|00:08:49|dcc-gehmlab-gpu-32|1|19|86172M||/work/minhe/alphafold|
minhe|COMPLETED|scavenger-gpu|2023-05-20T02:43:03|2023-05-20T02:51:51|00:08:48|dcc-gehmlab-gpu-25|1|19|86172M||/work/minhe/alphafold|
minhe|COMPLETED|scavenger-gpu|2023-05-20T02:43:03|2023-05-20T03:40:33|00:57:30|dcc-dsplus-gpu-07|1|19|86172M||/work/minhe/alphafold|
minhe|COMPLETED|scavenger-gpu|2023-05-20T02:43:03|2023-05-20T02:59:09|00:16:06|dcc-collinslab-gpu-04|1|19|86172M||/work/minhe/alphafold|
minhe|COMPLETED|scavenger-gpu|2023-05-20T02:43:55|2023-05-20T03:19:49|00:35:54|dcc-gehmlab-gpu-47|1|19|86172M||/work/minhe/alphafold|
minhe|COMPLETED|scavenger-gpu|2023-05-20T02:43:55|2023-05-20T03:18:01|00:34:06|dcc-gehmlab-gpu-29|1|19|86172M||/work/minhe/alphafold|
minhe|COMPLETED|scavenger-gpu|2023-05-20T02:43:55|2023-05-20T02:51:51|00:07:56|dcc-gehmlab-gpu-21|1|19|86172M||/work/minhe/alphafold|
minhe|COMPLETED|scavenger-gpu|2023-05-20T02:43:55|2023-05-20T03:00:18|00:16:23|dcc-gehmlab-gpu-17|1|19|86172M||/work/minhe/alphafold|
minhe|COMPLETED|scavenger-gpu|2023-05-20T02:44:45|2023-05-20T03:30:07|00:45:22|dcc-gehmlab-gpu-23|1|19|86172M||/work/minhe/alphafold|
minhe|COMPLETED|scavenger-gpu|2023-05-20T02:44:45|2023-05-20T03:36:09|00:51:24|dcc-gehmlab-gpu-02|1|19|86172M||/work/minhe/alphafold|
minhe|COMPLETED|scavenger-gpu|2023-05-20T02:45:30|2023-05-20T03:01:50|00:16:20|dcc-gehmlab-gpu-10|1|19|86172M||/work/minhe/alphafold|
minhe|COMPLETED|scavenger-gpu|2023-05-20T02:46:22|2023-05-20T02:58:59|00:12:37|dcc-gehmlab-gpu-19|1|19|86172M||/work/minhe/alphafold|
minhe|COMPLETED|scavenger-gpu|2023-05-20T02:47:13|2023-05-20T02:53:45|00:06:32|dcc-gehmlab-gpu-01|1|19|86172M||/work/minhe/alphafold|
minhe|COMPLETED|scavenger-gpu|2023-05-20T02:48:52|2023-05-20T03:12:08|00:23:16|dcc-gehmlab-gpu-33|1|19|86172M||/work/minhe/alphafold|
minhe|COMPLETED|scavenger-gpu|2023-05-20T02:49:44|2023-05-20T03:09:19|00:19:35|dcc-ultrasound-gpu-03|1|19|86172M||/work/minhe/alphafold|
minhe|COMPLETED|scavenger-gpu|2023-05-20T02:50:34|2023-05-20T04:44:26|01:53:52|dcc-gehmlab-gpu-51|1|19|86172M||/work/minhe/alphafold|
minhe|COMPLETED|scavenger-gpu|2023-05-20T02:52:11|2023-05-20T04:08:27|01:16:16|dcc-gehmlab-gpu-28|1|19|86172M||/work/minhe/alphafold|
minhe|COMPLETED|scavenger-gpu|2023-05-20T02:52:12|2023-05-20T03:16:32|00:24:20|dcc-gehmlab-gpu-25|1|19|86172M||/work/minhe/alphafold|
minhe|COMPLETED|scavenger-gpu|2023-05-20T02:52:12|2023-05-20T04:30:03|01:37:51|dcc-gehmlab-gpu-21|1|19|86172M||/work/minhe/alphafold|
minhe|COMPLETED|scavenger-gpu|2023-05-20T02:52:12|2023-05-20T04:13:46|01:21:34|dcc-gehmlab-gpu-06|1|19|86172M||/work/minhe/alphafold|
minhe|COMPLETED|scavenger-gpu|2023-05-20T02:52:59|2023-05-20T03:04:54|00:11:55|dcc-gehmlab-gpu-34|1|19|86172M||/work/minhe/alphafold|
minhe|COMPLETED|scavenger-gpu|2023-05-20T02:52:59|2023-05-20T04:01:29|01:08:30|dcc-gehmlab-gpu-32|1|19|86172M||/work/minhe/alphafold|
minhe|COMPLETED|scavenger-gpu|2023-05-20T02:53:49|2023-05-20T03:52:59|00:59:10|dcc-gehmlab-gpu-39|1|19|86172M||/work/minhe/alphafold|
minhe|COMPLETED|scavenger-gpu|2023-05-20T02:53:49|2023-05-20T03:43:58|00:50:09|dcc-ece-gpu-02|1|13|86172M||/work/minhe/alphafold|
minhe|COMPLETED|scavenger-gpu|2023-05-20T02:59:09|2023-05-20T03:17:24|00:18:15|dcc-gehmlab-gpu-44|1|19|86172M||/work/minhe/alphafold|
minhe|COMPLETED|scavenger-gpu|2023-05-20T02:59:09|2023-05-20T03:51:49|00:52:40|dcc-gehmlab-gpu-01|1|19|86172M||/work/minhe/alphafold|
minhe|COMPLETED|scavenger-gpu|2023-05-20T02:59:09|2023-05-20T03:46:31|00:47:22|dcc-dsplus-gpu-10|1|19|86172M||/work/minhe/alphafold|
minhe|COMPLETED|scavenger-gpu|2023-05-20T03:00:43|2023-05-20T03:12:46|00:12:03|dcc-gehmlab-gpu-19|1|19|86172M||/work/minhe/alphafold|
minhe|COMPLETED|scavenger-gpu|2023-05-20T03:02:14|2023-05-20T04:44:24|01:42:10|dcc-gehmlab-gpu-17|1|19|86172M||/work/minhe/alphafold|
minhe|COMPLETED|scavenger-gpu|2023-05-20T03:03:54|2023-05-20T03:42:21|00:38:27|dcc-gehmlab-gpu-10|1|19|86172M||/work/minhe/alphafold|
minhe|COMPLETED|scavenger-gpu|2023-05-20T03:05:33|2023-05-20T03:51:57|00:46:24|dcc-gehmlab-gpu-34|1|19|86172M||/work/minhe/alphafold|
minhe|COMPLETED|scavenger-gpu|2023-05-20T03:06:19|2023-05-20T04:23:52|01:17:33|dcc-gehmlab-gpu-09|1|19|86172M||/work/minhe/alphafold|
minhe|COMPLETED|scavenger-gpu|2023-05-20T03:09:26|2023-05-20T03:42:33|00:33:07|dcc-gehmlab-gpu-07|1|19|86172M||/work/minhe/alphafold|
minhe|COMPLETED|scavenger-gpu|2023-05-20T03:09:26|2023-05-20T03:53:02|00:43:36|dcc-dsplus-gpu-08|1|19|86172M||/work/minhe/alphafold|
minhe|COMPLETED|scavenger-gpu|2023-05-20T03:12:42|2023-05-20T03:20:59|00:08:17|dcc-ultrasound-gpu-03|1|19|86172M||/work/minhe/alphafold|
minhe|COMPLETED|scavenger-gpu|2023-05-20T03:13:28|2023-05-20T03:35:08|00:21:40|dcc-gehmlab-gpu-33|1|19|86172M||/work/minhe/alphafold|
minhe|COMPLETED|scavenger-gpu|2023-05-20T03:15:05|2023-05-20T03:23:54|00:08:49|dcc-gehmlab-gpu-36|1|19|86172M||/work/minhe/alphafold|
minhe|COMPLETED|scavenger-gpu|2023-05-20T03:16:39|2023-05-20T04:54:19|01:37:40|dcc-gehmlab-gpu-19|1|19|86172M||/work/minhe/alphafold|
minhe|COMPLETED|scavenger-gpu|2023-05-20T03:18:08|2023-05-20T04:57:45|01:39:37|dcc-gehmlab-gpu-44|1|19|86172M||/work/minhe/alphafold|
minhe|COMPLETED|scavenger-gpu|2023-05-20T03:18:08|2023-05-20T03:51:42|00:33:34|dcc-gehmlab-gpu-25|1|19|86172M||/work/minhe/alphafold|
minhe|COMPLETED|scavenger-gpu|2023-05-20T03:20:31|2023-05-20T04:06:02|00:45:31|dcc-gehmlab-gpu-47|1|19|86172M||/work/minhe/alphafold|
minhe|COMPLETED|scavenger-gpu|2023-05-20T03:21:15|2023-05-20T03:42:59|00:21:44|dcc-ultrasound-gpu-03|1|19|86172M||/work/minhe/alphafold|
minhe|COMPLETED|scavenger-gpu|2023-05-20T03:22:52|2023-05-20T03:28:49|00:05:57|dcc-gehmlab-gpu-29|1|19|86172M||/work/minhe/alphafold|
minhe|COMPLETED|scavenger-gpu|2023-05-20T03:24:33|2023-05-20T03:25:45|00:01:12|dcc-gehmlab-gpu-36|1|19|86172M||/work/minhe/alphafold|
minhe|COMPLETED|scavenger-gpu|2023-05-20T03:26:04|2023-05-20T03:31:46|00:05:42|dcc-rekerlab-gpu-01|1|8|86172M||/work/minhe/alphafold|
minhe|COMPLETED|scavenger-gpu|2023-05-20T03:26:04|2023-05-20T03:31:54|00:05:50|dcc-gehmlab-gpu-36|1|19|86172M||/work/minhe/alphafold|
minhe|COMPLETED|scavenger-gpu|2023-05-20T03:27:32|2023-05-20T03:33:49|00:06:17|dcc-gehmlab-gpu-41|1|19|86172M||/work/minhe/alphafold|
minhe|COMPLETED|scavenger-gpu|2023-05-20T03:29:04|2023-05-20T03:48:39|00:19:35|dcc-gehmlab-gpu-12|1|19|86172M||/work/minhe/alphafold|
minhe|COMPLETED|scavenger-gpu|2023-05-20T03:30:39|2023-05-20T03:36:16|00:05:37|dcc-gehmlab-gpu-29|1|19|86172M||/work/minhe/alphafold|
minhe|COMPLETED|scavenger-gpu|2023-05-20T03:30:39|2023-05-20T05:43:49|02:13:10|dcc-gehmlab-gpu-23|1|19|86172M||/work/minhe/alphafold|
minhe|COMPLETED|scavenger-gpu|2023-05-20T03:31:22|2023-05-20T03:41:28|00:10:06|dcc-youlab-gpu-30|1|10|86172M||/work/minhe/alphafold|
minhe|COMPLETED|scavenger-gpu|2023-05-20T03:32:09|2023-05-20T03:41:13|00:09:04|dcc-rekerlab-gpu-01|1|8|86172M||/work/minhe/alphafold|
minhe|COMPLETED|scavenger-gpu|2023-05-20T03:32:09|2023-05-20T03:42:24|00:10:15|dcc-pbenfeylab-gpu-03|1|10|86172M||/work/minhe/alphafold|
minhe|COMPLETED|scavenger-gpu|2023-05-20T03:34:31|2023-05-20T04:52:14|01:17:43|dcc-gehmlab-gpu-41|1|19|86172M||/work/minhe/alphafold|
minhe|COMPLETED|scavenger-gpu|2023-05-20T03:35:17|2023-05-20T03:41:25|00:06:08|dcc-gehmlab-gpu-36|1|19|86172M||/work/minhe/alphafold|
minhe|COMPLETED|scavenger-gpu|2023-05-20T03:36:48|2023-05-20T04:52:02|01:15:14|dcc-gehmlab-gpu-33|1|19|86172M||/work/minhe/alphafold|
minhe|COMPLETED|scavenger-gpu|2023-05-20T03:36:48|2023-05-20T03:42:46|00:05:58|dcc-gehmlab-gpu-29|1|19|86172M||/work/minhe/alphafold|
minhe|COMPLETED|scavenger-gpu|2023-05-20T03:40:47|2023-05-20T03:46:03|00:05:16|dcc-youlab-gpu-23|1|10|86172M||/work/minhe/alphafold|
minhe|COMPLETED|scavenger-gpu|2023-05-20T03:40:47|2023-05-20T05:40:58|02:00:11|dcc-gehmlab-gpu-05|1|19|86172M||/work/minhe/alphafold|
minhe|COMPLETED|scavenger-gpu|2023-05-20T03:41:33|2023-05-20T03:47:29|00:05:56|dcc-gehmlab-gpu-02|1|19|86172M||/work/minhe/alphafold|
minhe|COMPLETED|scavenger-gpu|2023-05-20T03:41:33|2023-05-20T04:10:13|00:28:40|dcc-ece-gpu-04|1|13|86172M||/work/minhe/alphafold|
minhe|COMPLETED|scavenger-gpu|2023-05-20T03:42:24|2023-05-20T04:48:48|01:06:24|dcc-youlab-gpu-30|1|10|86172M||/work/minhe/alphafold|
minhe|COMPLETED|scavenger-gpu|2023-05-20T03:42:25|2023-05-20T03:56:08|00:13:43|dcc-youlab-gpu-01|1|44|86172M||/work/minhe/alphafold|
minhe|COMPLETED|scavenger-gpu|2023-05-20T03:42:25|2023-05-20T04:47:02|01:04:37|dcc-rekerlab-gpu-01|1|8|86172M||/work/minhe/alphafold|
minhe|COMPLETED|scavenger-gpu|2023-05-20T03:43:11|2023-05-20T05:40:41|01:57:30|dcc-pbenfeylab-gpu-03|1|10|86172M||/work/minhe/alphafold|
minhe|COMPLETED|scavenger-gpu|2023-05-20T03:43:12|2023-05-20T04:42:50|00:59:38|dcc-gehmlab-gpu-36|1|19|86172M||/work/minhe/alphafold|
minhe|COMPLETED|scavenger-gpu|2023-05-20T03:43:12|2023-05-20T03:59:01|00:15:49|dcc-gehmlab-gpu-29|1|19|86172M||/work/minhe/alphafold|
minhe|COMPLETED|scavenger-gpu|2023-05-20T03:43:12|2023-05-20T04:28:35|00:45:23|dcc-gehmlab-gpu-27|1|19|86172M||/work/minhe/alphafold|
minhe|COMPLETED|scavenger-gpu|2023-05-20T03:43:12|2023-05-20T04:43:07|00:59:55|dcc-gehmlab-gpu-14|1|19|86172M||/work/minhe/alphafold|
minhe|COMPLETED|scavenger-gpu|2023-05-20T03:43:12|2023-05-20T05:21:17|01:38:05|dcc-gehmlab-gpu-10|1|19|86172M||/work/minhe/alphafold|
minhe|COMPLETED|scavenger-gpu|2023-05-20T03:44:43|2023-05-20T04:09:15|00:24:32|dcc-youlab-gpu-16|1|10|86172M||/work/minhe/alphafold|
minhe|COMPLETED|scavenger-gpu|2023-05-20T03:46:19|2023-05-20T04:23:11|00:36:52|dcc-ultrasound-gpu-03|1|19|86172M||/work/minhe/alphafold|
minhe|COMPLETED|scavenger-gpu|2023-05-20T03:47:05|2023-05-20T05:06:52|01:19:47|dcc-youlab-gpu-23|1|10|86172M||/work/minhe/alphafold|
minhe|COMPLETED|scavenger-gpu|2023-05-20T03:47:05|2023-05-20T03:55:40|00:08:35|dcc-gehmlab-gpu-07|1|19|86172M||/work/minhe/alphafold|
minhe|COMPLETED|scavenger-gpu|2023-05-20T03:47:52|2023-05-20T05:45:29|01:57:37|dcc-gehmlab-gpu-11|1|19|86172M||/work/minhe/alphafold|
minhe|COMPLETED|scavenger-gpu|2023-05-20T03:49:23|2023-05-20T04:33:16|00:43:53|dcc-vossenlab-gpu-01|1|10|86172M||/work/minhe/alphafold|
minhe|COMPLETED|scavenger-gpu|2023-05-20T03:49:24|2023-05-20T05:03:22|01:13:58|dcc-gehmlab-gpu-12|1|19|86172M||/work/minhe/alphafold|
minhe|COMPLETED|scavenger-gpu|2023-05-20T03:50:15|2023-05-20T07:45:53|03:55:38|dcc-gehmlab-gpu-02|1|19|86172M||/work/minhe/alphafold|
minhe|COMPLETED|scavenger-gpu|2023-05-20T03:37:41|2023-05-20T04:39:48|01:02:07|dcc-gehmlab-gpu-20|1|19|86172M||/work/minhe/alphafold|
minhe|COMPLETED|scavenger-gpu|2023-05-20T03:52:01|2023-05-20T04:19:24|00:27:23|dcc-gehmlab-gpu-24|1|19|86172M||/work/minhe/alphafold|
minhe|COMPLETED|scavenger-gpu|2023-05-20T03:52:01|2023-05-20T04:04:49|00:12:48|dcc-gehmlab-gpu-18|1|19|86172M||/work/minhe/alphafold|
minhe|COMPLETED|scavenger-gpu|2023-05-20T03:52:01|2023-05-20T05:00:00|01:07:59|dcc-ece-gpu-02|1|13|86172M||/work/minhe/alphafold|
minhe|COMPLETED|scavenger-gpu|2023-05-20T03:52:01|2023-05-20T04:41:50|00:49:49|dcc-dsplus-gpu-10|1|19|86172M||/work/minhe/alphafold|
minhe|COMPLETED|scavenger-gpu|2023-05-20T03:53:37|2023-05-20T04:50:37|00:57:00|dcc-youlab-gpu-11|1|10|86172M||/work/minhe/alphafold|
minhe|COMPLETED|scavenger-gpu|2023-05-20T03:53:41|2023-05-20T04:14:48|00:21:07|dcc-gehmlab-gpu-39|1|19|86172M||/work/minhe/alphafold|
minhe|COMPLETED|scavenger-gpu|2023-05-20T03:54:32|2023-05-20T07:29:49|03:35:17|dcc-youlab-gpu-43|1|10|86172M||/work/minhe/alphafold|
minhe|COMPLETED|scavenger-gpu|2023-05-20T03:56:09|2023-05-20T04:16:34|00:20:25|dcc-gehmlab-gpu-42|1|19|86172M||/work/minhe/alphafold|
minhe|COMPLETED|scavenger-gpu|2023-05-20T03:56:09|2023-05-20T04:31:33|00:35:24|dcc-gehmlab-gpu-34|1|19|86172M||/work/minhe/alphafold|
minhe|COMPLETED|scavenger-gpu|2023-05-20T03:56:11|2023-05-20T04:43:07|00:46:56|dcc-gehmlab-gpu-26|1|19|86172M||/work/minhe/alphafold|
minhe|COMPLETED|scavenger-gpu|2023-05-20T04:00:01|2023-05-20T04:42:36|00:42:35|dcc-youlab-gpu-36|1|10|86172M||/work/minhe/alphafold|
minhe|COMPLETED|scavenger-gpu|2023-05-20T04:01:32|2023-05-20T04:44:14|00:42:42|dcc-youlab-gpu-13|1|10|86172M||/work/minhe/alphafold|
minhe|COMPLETED|scavenger-gpu|2023-05-20T04:01:32|2023-05-20T05:41:13|01:39:41|dcc-youlab-gpu-01|1|44|86172M||/work/minhe/alphafold|
minhe|COMPLETED|scavenger-gpu|2023-05-20T04:06:21|2023-05-20T04:41:15|00:34:54|dcc-youlab-gpu-42|1|10|86172M||/work/minhe/alphafold|
minhe|COMPLETED|scavenger-gpu|2023-05-20T04:05:31|2023-05-20T07:39:29|03:33:58|dcc-youlab-gpu-03|1|10|86172M||/work/minhe/alphafold|
minhe|COMPLETED|scavenger-gpu|2023-05-20T04:06:21|2023-05-20T05:41:24|01:35:03|dcc-youlab-gpu-10|1|10|86172M||/work/minhe/alphafold|
minhe|COMPLETED|scavenger-gpu|2023-05-20T04:07:06|2023-05-20T04:33:56|00:26:50|dcc-youlab-gpu-44|1|10|86172M||/work/minhe/alphafold|
minhe|COMPLETED|scavenger-gpu|2023-05-20T04:08:42|2023-05-20T04:51:54|00:43:12|dcc-gehmlab-gpu-47|1|19|86172M||/work/minhe/alphafold|
minhe|COMPLETED|scavenger-gpu|2023-05-20T04:10:20|2023-05-20T04:37:54|00:27:34|dcc-youlab-gpu-16|1|10|86172M||/work/minhe/alphafold|
minhe|COMPLETED|scavenger-gpu|2023-05-20T04:10:20|2023-05-20T05:14:31|01:04:11|dcc-youlab-gpu-15|1|10|86172M||/work/minhe/alphafold|
minhe|COMPLETED|scavenger-gpu|2023-05-20T04:14:23|2023-05-20T06:35:40|02:21:17|dcc-youlab-gpu-55|1|10|86172M||/work/minhe/alphafold|
minhe|COMPLETED|scavenger-gpu|2023-05-20T04:15:08|2023-05-20T07:53:02|03:37:54|dcc-gehmlab-gpu-39|1|19|86172M||/work/minhe/alphafold|
minhe|CANCELLED by 10212|scavenger-gpu|2023-05-20T04:16:42|2023-05-20T16:19:31|12:02:49|dcc-youlab-gpu-40|1|10|86172M||/work/minhe/alphafold|
minhe|COMPLETED|scavenger-gpu|2023-05-20T04:16:42|2023-05-20T04:48:48|00:32:06|dcc-gehmlab-gpu-32|1|19|86172M||/work/minhe/alphafold|
minhe|COMPLETED|scavenger-gpu|2023-05-20T04:19:45|2023-05-20T04:36:12|00:16:27|dcc-gehmlab-gpu-42|1|19|86172M||/work/minhe/alphafold|
minhe|COMPLETED|scavenger-gpu|2023-05-20T04:21:15|2023-05-20T05:46:59|01:25:44|dcc-gehmlab-gpu-43|1|19|86172M||/work/minhe/alphafold|
minhe|COMPLETED|scavenger-gpu|2023-05-20T04:23:31|2023-05-20T04:29:22|00:05:51|dcc-youlab-gpu-14|1|10|86172M||/work/minhe/alphafold|
minhe|COMPLETED|scavenger-gpu|2023-05-20T04:24:22|2023-05-20T05:12:24|00:48:02|dcc-youlab-gpu-29|1|10|86172M||/work/minhe/alphafold|
minhe|COMPLETED|scavenger-gpu|2023-05-20T04:24:22|2023-05-20T04:44:01|00:19:39|dcc-ultrasound-gpu-03|1|19|86172M||/work/minhe/alphafold|
minhe|COMPLETED|scavenger-gpu|2023-05-20T04:26:37|2023-05-20T04:50:30|00:23:53|dcc-youlab-gpu-27|1|10|86172M||/work/minhe/alphafold|
minhe|COMPLETED|scavenger-gpu|2023-05-20T04:26:37|2023-05-20T06:29:07|02:02:30|dcc-youlab-gpu-18|1|10|86172M||/work/minhe/alphafold|
minhe|COMPLETED|scavenger-gpu|2023-05-20T04:27:22|2023-05-20T06:09:21|01:41:59|dcc-gehmlab-gpu-31|1|19|86172M||/work/minhe/alphafold|
minhe|COMPLETED|scavenger-gpu|2023-05-20T04:28:50|2023-05-20T04:51:43|00:22:53|dcc-gehmlab-gpu-29|1|19|86172M||/work/minhe/alphafold|
minhe|COMPLETED|scavenger-gpu|2023-05-20T04:29:34|2023-05-20T05:28:53|00:59:19|dcc-youlab-gpu-41|1|10|86172M||/work/minhe/alphafold|
minhe|COMPLETED|scavenger-gpu|2023-05-20T04:30:23|2023-05-20T04:50:33|00:20:10|dcc-youlab-gpu-14|1|10|86172M||/work/minhe/alphafold|
minhe|COMPLETED|scavenger-gpu|2023-05-20T04:31:57|2023-05-20T05:53:42|01:21:45|dcc-gehmlab-gpu-34|1|19|86172M||/work/minhe/alphafold|
minhe|COMPLETED|scavenger-gpu|2023-05-20T04:33:32|2023-05-20T06:38:09|02:04:37|dcc-vossenlab-gpu-01|1|10|86172M||/work/minhe/alphafold|
minhe|COMPLETED|scavenger-gpu|2023-05-20T04:34:18|2023-05-20T06:50:26|02:16:08|dcc-youlab-gpu-44|1|10|86172M||/work/minhe/alphafold|
minhe|COMPLETED|scavenger-gpu|2023-05-20T04:36:40|2023-05-20T05:39:49|01:03:09|dcc-gehmlab-gpu-42|1|19|86172M||/work/minhe/alphafold|
minhe|COMPLETED|scavenger-gpu|2023-05-20T04:38:14|2023-05-20T07:24:13|02:45:59|dcc-youlab-gpu-53|1|10|86172M||/work/minhe/alphafold|
minhe|COMPLETED|scavenger-gpu|2023-05-20T04:38:14|2023-05-20T05:50:37|01:12:23|dcc-youlab-gpu-16|1|10|86172M||/work/minhe/alphafold|
minhe|COMPLETED|scavenger-gpu|2023-05-20T04:38:14|2023-05-20T05:32:24|00:54:10|dcc-gehmlab-gpu-60|1|19|86172M||/work/minhe/alphafold|
minhe|COMPLETED|scavenger-gpu|2023-05-20T04:40:32|2023-05-20T07:38:53|02:58:21|dcc-pbenfeylab-gpu-02|1|10|86172M||/work/minhe/alphafold|
minhe|COMPLETED|scavenger-gpu|2023-05-20T04:41:22|2023-05-20T06:08:09|01:26:47|dcc-gehmlab-gpu-28|1|19|86172M||/work/minhe/alphafold|
minhe|COMPLETED|scavenger-gpu|2023-05-20T04:42:15|2023-05-20T04:59:05|00:16:50|dcc-youlab-gpu-42|1|10|86172M||/work/minhe/alphafold|
minhe|COMPLETED|scavenger-gpu|2023-05-20T04:43:06|2023-05-20T04:54:43|00:11:37|dcc-youlab-gpu-36|1|10|86172M||/work/minhe/alphafold|
minhe|COMPLETED|scavenger-gpu|2023-05-20T04:43:07|2023-05-20T04:51:40|00:08:33|dcc-youlab-gpu-09|1|10|86172M||/work/minhe/alphafold|
minhe|COMPLETED|scavenger-gpu|2023-05-20T04:43:07|2023-05-20T05:06:20|00:23:13|dcc-gehmlab-gpu-27|1|19|86172M||/work/minhe/alphafold|
minhe|COMPLETED|scavenger-gpu|2023-05-20T04:43:07|2023-05-20T05:28:22|00:45:15|dcc-gehmlab-gpu-25|1|19|86172M||/work/minhe/alphafold|
minhe|COMPLETED|scavenger-gpu|2023-05-20T04:43:07|2023-05-20T05:40:44|00:57:37|dcc-gehmlab-gpu-24|1|19|86172M||/work/minhe/alphafold|
minhe|COMPLETED|scavenger-gpu|2023-05-20T04:44:46|2023-05-20T06:50:38|02:05:52|dcc-youlab-gpu-13|1|10|86172M||/work/minhe/alphafold|
minhe|COMPLETED|scavenger-gpu|2023-05-20T04:44:46|2023-05-20T06:51:38|02:06:52|dcc-ultrasound-gpu-03|1|19|86172M||/work/minhe/alphafold|
minhe|COMPLETED|scavenger-gpu|2023-05-20T04:44:46|2023-05-20T05:34:48|00:50:02|dcc-gehmlab-gpu-51|1|19|86172M||/work/minhe/alphafold|
minhe|COMPLETED|scavenger-gpu|2023-05-20T04:44:46|2023-05-20T06:54:41|02:09:55|dcc-gehmlab-gpu-36|1|19|86172M||/work/minhe/alphafold|
minhe|COMPLETED|scavenger-gpu|2023-05-20T04:46:23|2023-05-20T05:07:10|00:20:47|dcc-youlab-gpu-24|1|10|86172M||/work/minhe/alphafold|
minhe|COMPLETED|scavenger-gpu|2023-05-20T04:47:59|2023-05-20T05:32:48|00:44:49|dcc-vossenlab-gpu-04|1|10|86172M||/work/minhe/alphafold|
minhe|COMPLETED|scavenger-gpu|2023-05-20T04:47:59|2023-05-20T05:54:15|01:06:16|dcc-rekerlab-gpu-01|1|8|86172M||/work/minhe/alphafold|
minhe|COMPLETED|scavenger-gpu|2023-05-20T04:49:31|2023-05-20T05:08:06|00:18:35|dcc-youlab-gpu-30|1|10|86172M||/work/minhe/alphafold|
minhe|COMPLETED|scavenger-gpu|2023-05-20T04:49:31|2023-05-20T05:48:33|00:59:02|dcc-gehmlab-gpu-32|1|19|86172M||/work/minhe/alphafold|
minhe|COMPLETED|scavenger-gpu|2023-05-20T04:51:04|2023-05-20T05:50:35|00:59:31|dcc-youlab-gpu-27|1|10|86172M||/work/minhe/alphafold|
minhe|COMPLETED|scavenger-gpu|2023-05-20T04:51:05|2023-05-20T05:22:48|00:31:43|dcc-youlab-gpu-14|1|10|86172M||/work/minhe/alphafold|
minhe|COMPLETED|scavenger-gpu|2023-05-20T04:51:05|2023-05-20T05:21:33|00:30:28|dcc-youlab-gpu-11|1|10|86172M||/work/minhe/alphafold|
minhe|COMPLETED|scavenger-gpu|2023-05-20T04:52:02|2023-05-20T05:42:08|00:50:06|dcc-gehmlab-gpu-26|1|19|86172M||/work/minhe/alphafold|
minhe|COMPLETED|scavenger-gpu|2023-05-20T04:52:02|2023-05-20T06:00:51|01:08:49|dcc-gehmlab-gpu-21|1|19|86172M||/work/minhe/alphafold|
minhe|COMPLETED|scavenger-gpu|2023-05-20T04:52:02|2023-05-20T05:19:49|00:27:47|dcc-gehmlab-gpu-20|1|19|86172M||/work/minhe/alphafold|
minhe|COMPLETED|scavenger-gpu|2023-05-20T04:52:50|2023-05-20T07:31:10|02:38:20|dcc-youlab-gpu-09|1|10|86172M||/work/minhe/alphafold|
minhe|COMPLETED|scavenger-gpu|2023-05-20T04:52:50|2023-05-20T05:36:32|00:43:42|dcc-gehmlab-gpu-47|1|19|86172M||/work/minhe/alphafold|
minhe|COMPLETED|scavenger-gpu|2023-05-20T04:54:36|2023-05-20T05:49:50|00:55:14|dcc-youlab-gpu-37|1|10|86172M||/work/minhe/alphafold|
minhe|COMPLETED|scavenger-gpu|2023-05-20T04:55:26|2023-05-20T07:11:38|02:16:12|dcc-youlab-gpu-36|1|10|86172M||/work/minhe/alphafold|
minhe|COMPLETED|scavenger-gpu|2023-05-20T04:57:52|2023-05-20T07:22:48|02:24:56|dcc-youlab-gpu-08|1|10|86172M||/work/minhe/alphafold|
minhe|COMPLETED|scavenger-gpu|2023-05-20T04:59:27|2023-05-20T05:54:03|00:54:36|dcc-youlab-gpu-42|1|10|86172M||/work/minhe/alphafold|
minhe|COMPLETED|scavenger-gpu|2023-05-20T05:00:17|2023-05-20T06:28:48|01:28:31|dcc-gehmlab-gpu-44|1|19|86172M||/work/minhe/alphafold|
minhe|COMPLETED|scavenger-gpu|2023-05-20T05:03:33|2023-05-20T05:44:11|00:40:38|dcc-gehmlab-gpu-41|1|19|86172M||/work/minhe/alphafold|
minhe|COMPLETED|scavenger-gpu|2023-05-20T05:05:11|2023-05-20T07:06:25|02:01:14|dcc-gehmlab-gpu-33|1|19|86172M||/work/minhe/alphafold|
minhe|COMPLETED|scavenger-gpu|2023-05-20T05:05:57|2023-05-20T05:24:19|00:18:22|dcc-youlab-gpu-02|1|10|86172M||/work/minhe/alphafold|
minhe|COMPLETED|scavenger-gpu|2023-05-20T05:06:48|2023-05-20T06:34:59|01:28:11|dcc-gehmlab-gpu-29|1|19|86172M||/work/minhe/alphafold|
minhe|COMPLETED|scavenger-gpu|2023-05-20T05:07:33|2023-05-20T05:50:26|00:42:53|dcc-youlab-gpu-24|1|10|86172M||/work/minhe/alphafold|
minhe|COMPLETED|scavenger-gpu|2023-05-20T05:07:33|2023-05-20T05:39:45|00:32:12|dcc-youlab-gpu-23|1|10|86172M||/work/minhe/alphafold|
minhe|COMPLETED|scavenger-gpu|2023-05-20T05:08:27|2023-05-20T07:40:58|02:32:31|dcc-youlab-gpu-30|1|10|86172M||/work/minhe/alphafold|
minhe|COMPLETED|scavenger-gpu|2023-05-20T05:13:22|2023-05-20T05:31:45|00:18:23|dcc-youlab-gpu-29|1|10|86172M||/work/minhe/alphafold|
minhe|COMPLETED|scavenger-gpu|2023-05-20T05:14:53|2023-05-20T05:38:59|00:24:06|dcc-youlab-gpu-15|1|10|86172M||/work/minhe/alphafold|
minhe|COMPLETED|scavenger-gpu|2023-05-20T05:16:39|2023-05-20T05:50:19|00:33:40|dcc-pbenfeylab-gpu-01|1|10|86172M||/work/minhe/alphafold|
minhe|COMPLETED|scavenger-gpu|2023-05-20T05:17:25|2023-05-20T05:41:21|00:23:56|dcc-youlab-gpu-38|1|10|86172M||/work/minhe/alphafold|
minhe|COMPLETED|scavenger-gpu|2023-05-20T05:19:52|2023-05-20T06:39:53|01:20:01|dcc-gehmlab-gpu-40|1|19|86172M||/work/minhe/alphafold|
minhe|COMPLETED|scavenger-gpu|2023-05-20T05:21:28|2023-05-20T06:04:55|00:43:27|dcc-gehmlab-gpu-27|1|19|86172M||/work/minhe/alphafold|
minhe|COMPLETED|scavenger-gpu|2023-05-20T05:22:17|2023-05-20T06:30:18|01:08:01|dcc-youlab-gpu-11|1|10|86172M||/work/minhe/alphafold|
minhe|COMPLETED|scavenger-gpu|2023-05-20T05:23:05|2023-05-20T07:41:01|02:17:56|dcc-youlab-gpu-14|1|10|86172M||/work/minhe/alphafold|
minhe|COMPLETED|scavenger-gpu|2023-05-20T05:24:45|2023-05-20T05:51:44|00:26:59|dcc-youlab-gpu-02|1|10|86172M||/work/minhe/alphafold|
minhe|COMPLETED|scavenger-gpu|2023-05-20T05:28:50|2023-05-20T05:43:21|00:14:31|dcc-gehmlab-gpu-25|1|19|86172M||/work/minhe/alphafold|
minhe|COMPLETED|scavenger-gpu|2023-05-20T05:29:34|2023-05-20T05:52:51|00:23:17|dcc-youlab-gpu-41|1|10|86172M||/work/minhe/alphafold|
minhe|COMPLETED|scavenger-gpu|2023-05-20T05:32:44|2023-05-20T06:48:48|01:16:04|dcc-youlab-gpu-29|1|10|86172M||/work/minhe/alphafold|
minhe|COMPLETED|scavenger-gpu|2023-05-20T04:52:05|2023-05-20T05:04:55|00:12:50|dcc-gehmlab-gpu-18|1|19|86172M||/work/minhe/alphafold|
minhe|COMPLETED|scavenger-gpu|2023-05-20T05:32:45|2023-05-20T05:47:06|00:14:21|dcc-gehmlab-gpu-60|1|19|86172M||/work/minhe/alphafold|
minhe|COMPLETED|scavenger-gpu|2023-05-20T05:33:29|2023-05-20T06:31:30|00:58:01|dcc-vossenlab-gpu-04|1|10|86172M||/work/minhe/alphafold|
minhe|COMPLETED|scavenger-gpu|2023-05-20T05:35:06|2023-05-20T07:18:00|01:42:54|dcc-pbenfeylab-gpu-04|1|10|86172M||/work/minhe/alphafold|
minhe|COMPLETED|scavenger-gpu|2023-05-20T05:36:41|2023-05-20T06:15:50|00:39:09|dcc-gehmlab-gpu-51|1|19|86172M||/work/minhe/alphafold|
minhe|COMPLETED|scavenger-gpu|2023-05-20T05:39:41|2023-05-20T06:25:37|00:45:56|dcc-youlab-gpu-15|1|10|86172M||/work/minhe/alphafold|
minhe|COMPLETED|scavenger-gpu|2023-05-20T05:40:32|2023-05-20T06:11:20|00:30:48|dcc-youlab-gpu-23|1|10|86172M||/work/minhe/alphafold|
minhe|COMPLETED|scavenger-gpu|2023-05-20T05:40:32|2023-05-20T07:14:31|01:33:59|dcc-gehmlab-gpu-47|1|19|86172M||/work/minhe/alphafold|
minhe|COMPLETED|scavenger-gpu|2023-05-20T05:41:20|2023-05-20T06:41:13|00:59:53|dcc-pbenfeylab-gpu-03|1|10|86172M||/work/minhe/alphafold|
minhe|COMPLETED|scavenger-gpu|2023-05-20T05:41:20|2023-05-20T05:57:16|00:15:56|dcc-gehmlab-gpu-42|1|19|86172M||/work/minhe/alphafold|
minhe|COMPLETED|scavenger-gpu|2023-05-20T05:41:20|2023-05-20T07:04:31|01:23:11|dcc-gehmlab-gpu-24|1|19|86172M||/work/minhe/alphafold|
minhe|COMPLETED|scavenger-gpu|2023-05-20T05:41:20|2023-05-20T06:51:43|01:10:23|dcc-gehmlab-gpu-20|1|19|86172M||/work/minhe/alphafold|
minhe|COMPLETED|scavenger-gpu|2023-05-20T05:41:20|2023-05-20T06:10:59|00:29:39|dcc-gehmlab-gpu-19|1|19|86172M||/work/minhe/alphafold|
minhe|COMPLETED|scavenger-gpu|2023-05-20T05:42:01|2023-05-20T07:41:14|01:59:13|dcc-youlab-gpu-38|1|10|86172M||/work/minhe/alphafold|
minhe|COMPLETED|scavenger-gpu|2023-05-20T05:42:01|2023-05-20T06:54:26|01:12:25|dcc-youlab-gpu-10|1|10|86172M||/work/minhe/alphafold|
minhe|COMPLETED|scavenger-gpu|2023-05-20T05:43:32|2023-05-20T06:50:36|01:07:04|dcc-youlab-gpu-01|1|44|86172M||/work/minhe/alphafold|
minhe|COMPLETED|scavenger-gpu|2023-05-20T05:44:19|2023-05-20T06:24:15|00:39:56|dcc-gehmlab-gpu-26|1|19|86172M||/work/minhe/alphafold|
minhe|COMPLETED|scavenger-gpu|2023-05-20T05:44:19|2023-05-20T07:11:08|01:26:49|dcc-gehmlab-gpu-25|1|19|86172M||/work/minhe/alphafold|
minhe|COMPLETED|scavenger-gpu|2023-05-20T05:45:51|2023-05-20T06:20:26|00:34:35|dcc-gehmlab-gpu-41|1|19|86172M||/work/minhe/alphafold|
minhe|COMPLETED|scavenger-gpu|2023-05-20T05:47:23|2023-05-20T06:41:05|00:53:42|dcc-gehmlab-gpu-60|1|19|86172M||/work/minhe/alphafold|
minhe|COMPLETED|scavenger-gpu|2023-05-20T05:47:23|2023-05-20T06:02:16|00:14:53|dcc-gehmlab-gpu-43|1|19|86172M||/work/minhe/alphafold|
minhe|COMPLETED|scavenger-gpu|2023-05-20T05:48:51|2023-05-20T07:45:03|01:56:12|dcc-gehmlab-gpu-32|1|19|86172M||/work/minhe/alphafold|
minhe|COMPLETED|scavenger-gpu|2023-05-20T05:50:23|2023-05-20T07:50:27|02:00:04|dcc-youlab-gpu-37|1|10|86172M||/work/minhe/alphafold|
minhe|COMPLETED|scavenger-gpu|2023-05-20T05:50:23|2023-05-20T06:04:48|00:14:25|dcc-gehmlab-gpu-23|1|19|86172M||/work/minhe/alphafold|
minhe|COMPLETED|scavenger-gpu|2023-05-20T05:51:07|2023-05-20T07:37:37|01:46:30|dcc-youlab-gpu-27|1|10|86172M||/work/minhe/alphafold|
minhe|COMPLETED|scavenger-gpu|2023-05-20T05:51:07|2023-05-20T06:17:13|00:26:06|dcc-youlab-gpu-24|1|10|86172M||/work/minhe/alphafold|
minhe|COMPLETED|scavenger-gpu|2023-05-20T05:51:07|2023-05-20T06:18:35|00:27:28|dcc-youlab-gpu-16|1|10|86172M||/work/minhe/alphafold|
minhe|COMPLETED|scavenger-gpu|2023-05-20T05:51:57|2023-05-20T06:51:33|00:59:36|dcc-pbenfeylab-gpu-01|1|10|86172M||/work/minhe/alphafold|
minhe|COMPLETED|scavenger-gpu|2023-05-20T05:53:26|2023-05-20T06:16:36|00:23:10|dcc-youlab-gpu-41|1|10|86172M||/work/minhe/alphafold|
minhe|COMPLETED|scavenger-gpu|2023-05-20T05:54:11|2023-05-20T06:51:29|00:57:18|dcc-youlab-gpu-04|1|10|86172M||/work/minhe/alphafold|
minhe|COMPLETED|scavenger-gpu|2023-05-20T05:54:11|2023-05-20T05:58:37|00:04:26|dcc-youlab-gpu-02|1|10|86172M||/work/minhe/alphafold|
minhe|COMPLETED|scavenger-gpu|2023-05-20T05:54:57|2023-05-20T06:59:00|01:04:03|dcc-youlab-gpu-42|1|10|86172M||/work/minhe/alphafold|
minhe|COMPLETED|scavenger-gpu|2023-05-20T05:54:57|2023-05-20T06:06:30|00:11:33|dcc-rekerlab-gpu-01|1|8|86172M||/work/minhe/alphafold|
minhe|COMPLETED|scavenger-gpu|2023-05-20T05:57:16|2023-05-20T06:41:12|00:43:56|dcc-youlab-gpu-32|1|10|86172M||/work/minhe/alphafold|
minhe|COMPLETED|scavenger-gpu|2023-05-20T05:58:46|2023-05-20T06:41:32|00:42:46|dcc-youlab-gpu-07|1|10|86172M||/work/minhe/alphafold|
minhe|COMPLETED|scavenger-gpu|2023-05-20T06:00:21|2023-05-20T06:42:13|00:41:52|dcc-youlab-gpu-19|1|10|86172M||/work/minhe/alphafold|
minhe|COMPLETED|scavenger-gpu|2023-05-20T06:00:22|2023-05-20T07:35:01|01:34:39|dcc-youlab-gpu-02|1|10|86172M||/work/minhe/alphafold|
minhe|COMPLETED|scavenger-gpu|2023-05-20T06:01:09|2023-05-20T06:13:55|00:12:46|dcc-gehmlab-gpu-42|1|19|86172M||/work/minhe/alphafold|
minhe|COMPLETED|scavenger-gpu|2023-05-20T06:02:46|2023-05-20T06:21:43|00:18:57|dcc-gehmlab-gpu-43|1|19|86172M||/work/minhe/alphafold|
minhe|COMPLETED|scavenger-gpu|2023-05-20T06:05:07|2023-05-20T07:21:14|01:16:07|dcc-youlab-gpu-21|1|10|86172M||/work/minhe/alphafold|
minhe|COMPLETED|scavenger-gpu|2023-05-20T06:05:07|2023-05-20T07:41:17|01:36:10|dcc-gehmlab-gpu-34|1|19|86172M||/work/minhe/alphafold|
minhe|COMPLETED|scavenger-gpu|2023-05-20T06:06:40|2023-05-20T07:51:46|01:45:06|dcc-gehmlab-gpu-27|1|19|86172M||/work/minhe/alphafold|
minhe|COMPLETED|scavenger-gpu|2023-05-20T06:08:10|2023-05-20T06:48:32|00:40:22|dcc-rekerlab-gpu-01|1|8|86172M||/work/minhe/alphafold|
minhe|COMPLETED|scavenger-gpu|2023-05-20T06:09:37|2023-05-20T07:42:32|01:32:55|dcc-youlab-gpu-28|1|10|86172M||/work/minhe/alphafold|
minhe|COMPLETED|scavenger-gpu|2023-05-20T06:09:38|2023-05-20T06:42:27|00:32:49|dcc-gehmlab-gpu-31|1|19|86172M||/work/minhe/alphafold|
minhe|COMPLETED|scavenger-gpu|2023-05-20T06:11:06|2023-05-20T07:42:32|01:31:26|dcc-gehmlab-gpu-28|1|19|86172M||/work/minhe/alphafold|
minhe|COMPLETED|scavenger-gpu|2023-05-20T06:11:56|2023-05-20T07:15:15|01:03:19|dcc-youlab-gpu-23|1|10|86172M||/work/minhe/alphafold|
minhe|COMPLETED|scavenger-gpu|2023-05-20T06:14:16|2023-05-20T07:08:30|00:54:14|dcc-youlab-gpu-34|1|10|86172M||/work/minhe/alphafold|
minhe|COMPLETED|scavenger-gpu|2023-05-20T06:14:16|2023-05-20T06:42:51|00:28:35|dcc-youlab-gpu-12|1|10|86172M||/work/minhe/alphafold|
minhe|COMPLETED|scavenger-gpu|2023-05-20T06:15:52|2023-05-20T06:38:23|00:22:31|dcc-gehmlab-gpu-42|1|19|86172M||/work/minhe/alphafold|
minhe|COMPLETED|scavenger-gpu|2023-05-20T06:17:25|2023-05-20T07:07:24|00:49:59|dcc-youlab-gpu-41|1|10|86172M||/work/minhe/alphafold|
minhe|COMPLETED|scavenger-gpu|2023-05-20T06:18:11|2023-05-20T06:41:08|00:22:57|dcc-youlab-gpu-24|1|10|86172M||/work/minhe/alphafold|
minhe|COMPLETED|scavenger-gpu|2023-05-20T06:18:58|2023-05-20T06:36:20|00:17:22|dcc-youlab-gpu-16|1|10|86172M||/work/minhe/alphafold|
minhe|COMPLETED|scavenger-gpu|2023-05-20T06:20:36|2023-05-20T06:52:46|00:32:10|dcc-gehmlab-gpu-51|1|19|86172M||/work/minhe/alphafold|
minhe|COMPLETED|scavenger-gpu|2023-05-20T06:22:05|2023-05-20T07:20:37|00:58:32|dcc-ece-gpu-04|1|13|86172M||/work/minhe/alphafold|
minhe|COMPLETED|scavenger-gpu|2023-05-20T06:24:18|2023-05-20T06:47:22|00:23:04|dcc-gehmlab-gpu-43|1|19|86172M||/work/minhe/alphafold|
minhe|COMPLETED|scavenger-gpu|2023-05-20T06:25:52|2023-05-20T07:05:59|00:40:07|dcc-gehmlab-gpu-41|1|19|86172M||/work/minhe/alphafold|
minhe|COMPLETED|scavenger-gpu|2023-05-20T06:29:33|2023-05-20T06:58:16|00:28:43|dcc-youlab-gpu-18|1|10|86172M||/work/minhe/alphafold|
minhe|COMPLETED|scavenger-gpu|2023-05-20T06:29:33|2023-05-20T06:41:04|00:11:31|dcc-youlab-gpu-15|1|10|86172M||/work/minhe/alphafold|
minhe|COMPLETED|scavenger-gpu|2023-05-20T06:30:22|2023-05-20T07:34:58|01:04:36|dcc-gehmlab-gpu-44|1|19|86172M||/work/minhe/alphafold|
minhe|COMPLETED|scavenger-gpu|2023-05-20T06:31:57|2023-05-20T06:41:27|00:09:30|dcc-youlab-gpu-11|1|10|86172M||/work/minhe/alphafold|
zms14|COMPLETED|scavenger-gpu|2023-05-19T22:37:38|2023-05-20T10:38:26|12:00:48|dcc-ultrasound-gpu-02|1|19|2G||/hpc/home/zms14/repos/RNN_phoneme_decoding_micro/phoneme_encoder_decoder/scripts/dcc_shell_scripts|
minhe|COMPLETED|scavenger-gpu|2023-05-20T06:35:49|2023-05-20T06:36:32|00:00:43|dcc-biostat-gpu-02|1|22|182952M||/work/minhe/alphafold|
minhe|COMPLETED|scavenger-gpu|2023-05-20T06:35:49|2023-05-20T06:56:01|00:20:12|dcc-vossenlab-gpu-04|1|10|86172M||/work/minhe/alphafold|
minhe|COMPLETED|scavenger-gpu|2023-05-20T06:36:37|2023-05-20T06:50:32|00:13:55|dcc-youlab-gpu-55|1|10|86172M||/work/minhe/alphafold|
