jrl78|COMPLETED|scavenger-gpu|2023-05-23T08:43:01|2023-05-24T06:11:08|21:28:07|dcc-youlab-gpu-23|1|10|4G||/work/jrl78/Nanoparticles/JawBreakers/Different Partial Charges/EEM Full Library|
jrl78|COMPLETED|scavenger-gpu|2023-05-23T12:53:52|2023-05-24T06:44:00|17:50:08|dcc-youlab-gpu-18|1|10|4G||/work/jrl78/Nanoparticles/JawBreakers/Different Partial Charges/EEM Full Library|
jrl78|COMPLETED|scavenger-gpu|2023-05-23T15:35:36|2023-05-24T22:58:16|1-07:22:40|dcc-collinslab-gpu-03|1|19|4G||/work/jrl78/Nanoparticles/JawBreakers/Different Partial Charges/EEM Full Library|
jrl78|COMPLETED|scavenger-gpu|2023-05-23T15:35:39|2023-05-24T23:45:53|1-08:10:14|dcc-collinslab-gpu-02|1|19|4G||/work/jrl78/Nanoparticles/JawBreakers/Different Partial Charges/EEM Full Library|
jrl78|COMPLETED|scavenger-gpu|2023-05-23T15:35:43|2023-05-24T23:45:32|1-08:09:49|dcc-collinslab-gpu-01|1|19|4G||/work/jrl78/Nanoparticles/JawBreakers/Different Partial Charges/EEM Full Library|
jrl78|COMPLETED|scavenger-gpu|2023-05-23T15:35:51|2023-05-24T13:14:43|21:38:52|dcc-chsi-gpu-07|1|6|4G||/work/jrl78/Nanoparticles/JawBreakers/Different Partial Charges/EEM Full Library|
jrl78|COMPLETED|scavenger-gpu|2023-05-23T15:35:51|2023-05-24T07:40:55|16:05:04|dcc-chsi-gpu-06|1|6|4G||/work/jrl78/Nanoparticles/JawBreakers/Different Partial Charges/EEM Full Library|
jrl78|COMPLETED|scavenger-gpu|2023-05-23T15:35:51|2023-05-24T13:10:56|21:35:05|dcc-chsi-gpu-05|1|6|4G||/work/jrl78/Nanoparticles/JawBreakers/Different Partial Charges/EEM Full Library|
jrl78|COMPLETED|scavenger-gpu|2023-05-23T15:35:51|2023-05-24T13:28:36|21:52:45|dcc-chsi-gpu-04|1|6|4G||/work/jrl78/Nanoparticles/JawBreakers/Different Partial Charges/EEM Full Library|
jrl78|COMPLETED|scavenger-gpu|2023-05-23T15:35:54|2023-05-24T10:55:48|19:19:54|dcc-chsi-gpu-02|1|6|4G||/work/jrl78/Nanoparticles/JawBreakers/Different Partial Charges/EEM Full Library|
jrl78|COMPLETED|scavenger-gpu|2023-05-23T15:35:54|2023-05-24T18:14:25|1-02:38:31|dcc-chsi-gpu-01|1|6|4G||/work/jrl78/Nanoparticles/JawBreakers/Different Partial Charges/EEM Full Library|
jrl78|COMPLETED|scavenger-gpu|2023-05-23T15:56:54|2023-05-24T06:42:30|14:45:36|dcc-mainsahlab-gpu-03|1|6|4G||/work/jrl78/Nanoparticles/JawBreakers/Different Partial Charges/EEM Full Library|
jrl78|COMPLETED|scavenger-gpu|2023-05-23T16:04:50|2023-05-24T09:58:33|17:53:43|dcc-youlab-gpu-35|1|10|4G||/work/jrl78/Nanoparticles/JawBreakers/Different Partial Charges/EEM Full Library|
jrl78|COMPLETED|scavenger-gpu|2023-05-23T17:05:45|2023-05-24T07:26:19|14:20:34|dcc-mainsahlab-gpu-01|1|6|4G||/work/jrl78/Nanoparticles/JawBreakers/Different Partial Charges/EEM Full Library|
jrl78|COMPLETED|scavenger-gpu|2023-05-23T17:14:01|2023-05-24T09:32:19|16:18:18|dcc-chsi-gpu-08|1|6|4G||/work/jrl78/Nanoparticles/JawBreakers/Different Partial Charges/EEM Full Library|
jrl78|COMPLETED|scavenger-gpu|2023-05-23T17:24:57|2023-05-24T08:02:27|14:37:30|dcc-youlab-gpu-42|1|10|4G||/work/jrl78/Nanoparticles/JawBreakers/Different Partial Charges/EEM Full Library|
jrl78|FAILED|scavenger-gpu|2023-05-23T18:16:56|2023-05-25T02:59:30|1-08:42:34|dcc-carin-gpu-08|1|19|4G||/work/jrl78/Nanoparticles/JawBreakers/Different Partial Charges/EEM Full Library|
jrl78|COMPLETED|scavenger-gpu|2023-05-23T20:09:10|2023-05-24T14:52:44|18:43:34|dcc-youlab-gpu-43|1|10|4G||/work/jrl78/Nanoparticles/JawBreakers/Different Partial Charges/EEM Full Library|
jrl78|COMPLETED|scavenger-gpu|2023-05-23T20:10:29|2023-05-24T21:09:49|1-00:59:20|dcc-chsi-gpu-03|1|6|4G||/work/jrl78/Nanoparticles/JawBreakers/Different Partial Charges/EEM Full Library|
jrl78|COMPLETED|scavenger-gpu|2023-05-23T20:22:54|2023-05-24T14:22:09|17:59:15|dcc-youlab-gpu-55|1|10|4G||/work/jrl78/Nanoparticles/JawBreakers/Different Partial Charges/EEM Full Library|
jrl78|COMPLETED|scavenger-gpu|2023-05-23T21:33:37|2023-05-24T11:58:11|14:24:34|dcc-pbenfeylab-gpu-01|1|10|4G||/work/jrl78/Nanoparticles/JawBreakers/Different Partial Charges/EEM Full Library|
jrl78|COMPLETED|scavenger-gpu|2023-05-23T22:14:44|2023-05-24T13:15:11|15:00:27|dcc-youlab-gpu-53|1|10|4G||/work/jrl78/Nanoparticles/JawBreakers/Different Partial Charges/EEM Full Library|
jrl78|COMPLETED|scavenger-gpu|2023-05-23T22:47:45|2023-05-24T14:44:29|15:56:44|dcc-youlab-gpu-16|1|10|4G||/work/jrl78/Nanoparticles/JawBreakers/Different Partial Charges/EEM Full Library|
jrl78|FAILED|scavenger-gpu|2023-05-23T23:01:28|2023-05-24T08:22:12|09:20:44|dcc-youlab-gpu-31|1|10|4G||/work/jrl78/Nanoparticles/JawBreakers/Different Partial Charges/EEM Full Library|
jrl78|COMPLETED|scavenger-gpu|2023-05-23T23:01:38|2023-05-24T14:23:58|15:22:20|dcc-youlab-gpu-21|1|10|4G||/work/jrl78/Nanoparticles/JawBreakers/Different Partial Charges/EEM Full Library|
jrl78|COMPLETED|scavenger-gpu|2023-05-23T23:03:24|2023-05-24T17:50:03|18:46:39|dcc-gehmlab-gpu-55|1|19|4G||/work/jrl78/Nanoparticles/JawBreakers/Different Partial Charges/EEM Full Library|
jrl78|FAILED|scavenger-gpu|2023-05-23T23:06:22|2023-05-24T15:28:57|16:22:35|dcc-youlab-gpu-36|1|10|4G||/work/jrl78/Nanoparticles/JawBreakers/Different Partial Charges/EEM Full Library|
jrl78|COMPLETED|scavenger-gpu|2023-05-23T23:31:46|2023-05-24T18:44:20|19:12:34|dcc-youlab-gpu-33|1|10|4G||/work/jrl78/Nanoparticles/JawBreakers/Different Partial Charges/EEM Full Library|
jrl78|COMPLETED|scavenger-gpu|2023-05-23T23:55:27|2023-05-24T21:48:51|21:53:24|dcc-motesa-gpu-01|1|6|4G||/work/jrl78/Nanoparticles/JawBreakers/Different Partial Charges/EEM Full Library|
jrl78|COMPLETED|scavenger-gpu|2023-05-24T00:10:17|2023-05-24T20:35:58|20:25:41|dcc-youlab-gpu-24|1|10|4G||/work/jrl78/Nanoparticles/JawBreakers/Different Partial Charges/EEM Full Library|
jrl78|FAILED|scavenger-gpu|2023-05-24T00:52:13|2023-05-24T07:07:21|06:15:08|dcc-youlab-gpu-34|1|10|4G||/work/jrl78/Nanoparticles/JawBreakers/Different Partial Charges/EEM Full Library|
jrl78|COMPLETED|scavenger-gpu|2023-05-24T00:52:13|2023-05-24T18:27:43|17:35:30|dcc-mainsahlab-gpu-02|1|6|4G||/work/jrl78/Nanoparticles/JawBreakers/Different Partial Charges/EEM Full Library|
jrl78|COMPLETED|scavenger-gpu|2023-05-24T01:53:23|2023-05-24T17:42:05|15:48:42|dcc-youlab-gpu-29|1|10|4G||/work/jrl78/Nanoparticles/JawBreakers/Different Partial Charges/EEM Full Library|
jrl78|COMPLETED|scavenger-gpu|2023-05-24T03:41:05|2023-05-24T22:21:36|18:40:31|dcc-youlab-gpu-27|1|10|4G||/work/jrl78/Nanoparticles/JawBreakers/Different Partial Charges/EEM Full Library|
jrl78|COMPLETED|scavenger-gpu|2023-05-24T03:48:33|2023-05-24T19:47:26|15:58:53|dcc-youlab-gpu-08|1|10|4G||/work/jrl78/Nanoparticles/JawBreakers/Different Partial Charges/EEM Full Library|
jrl78|COMPLETED|scavenger-gpu|2023-05-24T03:50:50|2023-05-24T18:05:43|14:14:53|dcc-youlab-gpu-30|1|10|4G||/work/jrl78/Nanoparticles/JawBreakers/Different Partial Charges/EEM Full Library|
jrl78|COMPLETED|scavenger-gpu|2023-05-24T04:02:41|2023-05-24T21:03:58|17:01:17|dcc-youlab-gpu-44|1|10|4G||/work/jrl78/Nanoparticles/JawBreakers/Different Partial Charges/EEM Full Library|
yx240|COMPLETED|scavenger-gpu|2023-05-20T23:23:06|2023-05-24T08:18:19|3-08:55:13|dcc-gehmlab-gpu-47|1|19|2G||/work/yx240/project-martini/new/simutools/run-pbs|
yx240|CANCELLED by 1495323|scavenger-gpu|2023-05-21T11:32:59|2023-05-25T03:30:52|3-15:57:53|dcc-youlab-gpu-01|1|44|2G||/work/yx240/project-martini/new/simutools/run-pbs|
ym208|TIMEOUT|scavenger-gpu|2023-05-21T15:00:44|2023-05-28T15:01:11|7-00:00:27|dcc-vossenlab-gpu-02|1|1|16G||/hpc/group/bartesaghilab|
yx240|CANCELLED by 1495323|scavenger-gpu|2023-05-22T10:31:22|2023-05-25T03:25:10|2-16:53:48|dcc-gehmlab-gpu-04|1|19|2G||/work/yx240/project-martini/new/simutools/scripts|
cem125|COMPLETED|scavenger-gpu|2023-05-22T12:35:36|2023-05-26T07:55:34|3-19:19:58|dcc-mastatlab-gpu-01|1|44|50G||/hpc/group/rekerlab/cem125/OpenNMT-py|
kw297|TIMEOUT|scavenger-gpu|2023-05-22T14:46:05|2023-05-25T14:46:15|3-00:00:10|dcc-motesa-gpu-03|1|4|20G||/hpc/group/ychenlab/DA|
vk93|TIMEOUT|scavenger-gpu|2023-05-22T18:40:03|2023-05-29T18:40:17|7-00:00:14|dcc-dsplus-gpu-02|1|40|350109M||/hpc/home/vk93/ondemand/data/sys/dashboard/batch_connect/sys/bc_jupyter/output/a343442f-f646-4b0b-a53b-96bdb874d6c8|
kw297|COMPLETED|scavenger-gpu|2023-05-23T14:21:24|2023-05-24T06:05:11|15:43:47|dcc-youlab-gpu-02|1|2|8G||/hpc/group/ychenlab/DA|
kw297|COMPLETED|scavenger-gpu|2023-05-23T14:21:28|2023-05-24T06:28:24|16:06:56|dcc-youlab-gpu-04|1|2|8G||/hpc/group/ychenlab/DA|
kw297|COMPLETED|scavenger-gpu|2023-05-23T14:21:28|2023-05-24T06:06:49|15:45:21|dcc-pbenfeylab-gpu-04|1|2|8G||/hpc/group/ychenlab/DA|
kw297|COMPLETED|scavenger-gpu|2023-05-23T14:21:28|2023-05-24T06:09:26|15:47:58|dcc-biostat-gpu-02|1|2|8G||/hpc/group/ychenlab/DA|
kw297|COMPLETED|scavenger-gpu|2023-05-23T14:21:29|2023-05-24T08:51:05|18:29:36|dcc-ultrasound-gpu-01|1|2|8G||/hpc/group/ychenlab/DA|
minhe|COMPLETED|scavenger-gpu|2023-05-24T03:00:37|2023-05-24T06:09:29|03:08:52|dcc-youlab-gpu-12|1|10|86172M||/work/minhe/alphafold|
minhe|COMPLETED|scavenger-gpu|2023-05-24T03:16:57|2023-05-24T07:42:44|04:25:47|dcc-pbenfeylab-gpu-02|1|10|86172M||/work/minhe/alphafold|
minhe|COMPLETED|scavenger-gpu|2023-05-24T03:33:20|2023-05-24T06:22:59|02:49:39|dcc-gehmlab-gpu-59|1|19|86172M||/work/minhe/alphafold|
minhe|COMPLETED|scavenger-gpu|2023-05-24T03:54:49|2023-05-24T08:20:40|04:25:51|dcc-youlab-gpu-13|1|10|86172M||/work/minhe/alphafold|
minhe|COMPLETED|scavenger-gpu|2023-05-24T04:05:22|2023-05-24T07:37:44|03:32:22|dcc-youlab-gpu-40|1|10|86172M||/work/minhe/alphafold|
minhe|COMPLETED|scavenger-gpu|2023-05-24T04:29:02|2023-05-24T06:21:51|01:52:49|dcc-ultrasound-gpu-02|1|19|86172M||/work/minhe/alphafold|
minhe|COMPLETED|scavenger-gpu|2023-05-24T04:30:41|2023-05-24T08:18:45|03:48:04|dcc-youlab-gpu-11|1|10|86172M||/work/minhe/alphafold|
minhe|COMPLETED|scavenger-gpu|2023-05-24T04:48:20|2023-05-24T06:45:00|01:56:40|dcc-ultrasound-gpu-04|1|19|86172M||/work/minhe/alphafold|
minhe|COMPLETED|scavenger-gpu|2023-05-24T04:50:50|2023-05-24T06:00:38|01:09:48|dcc-youlab-gpu-05|1|10|86172M||/work/minhe/alphafold|
minhe|COMPLETED|scavenger-gpu|2023-05-24T04:58:59|2023-05-24T08:23:22|03:24:23|dcc-youlab-gpu-37|1|10|86172M||/work/minhe/alphafold|
minhe|COMPLETED|scavenger-gpu|2023-05-24T05:01:22|2023-05-24T06:32:40|01:31:18|dcc-tdunn-gpu-02|1|44|86172M||/work/minhe/alphafold|
minhe|COMPLETED|scavenger-gpu|2023-05-24T05:08:55|2023-05-24T06:04:51|00:55:56|dcc-youlab-gpu-10|1|10|86172M||/work/minhe/alphafold|
minhe|COMPLETED|scavenger-gpu|2023-05-24T05:15:19|2023-05-24T06:39:07|01:23:48|dcc-ultrasound-gpu-03|1|19|86172M||/work/minhe/alphafold|
minhe|COMPLETED|scavenger-gpu|2023-05-24T05:20:09|2023-05-24T06:41:16|01:21:07|dcc-youlab-gpu-28|1|10|86172M||/work/minhe/alphafold|
minhe|COMPLETED|scavenger-gpu|2023-05-24T05:21:06|2023-05-24T06:08:03|00:46:57|dcc-gehmlab-gpu-60|1|19|86172M||/work/minhe/alphafold|
minhe|COMPLETED|scavenger-gpu|2023-05-24T05:21:34|2023-05-24T06:21:00|00:59:26|dcc-vossenlab-gpu-04|1|10|86172M||/work/minhe/alphafold|
minhe|COMPLETED|scavenger-gpu|2023-05-24T05:21:41|2023-05-24T06:22:02|01:00:21|dcc-gehmlab-gpu-58|1|19|86172M||/work/minhe/alphafold|
minhe|COMPLETED|scavenger-gpu|2023-05-24T05:22:48|2023-05-24T06:21:40|00:58:52|dcc-gehmlab-gpu-56|1|19|86172M||/work/minhe/alphafold|
minhe|COMPLETED|scavenger-gpu|2023-05-24T05:22:58|2023-05-24T07:49:48|02:26:50|dcc-gehmlab-gpu-57|1|19|86172M||/work/minhe/alphafold|
minhe|FAILED|scavenger-gpu|2023-05-24T05:25:53|2023-05-24T08:28:33|03:02:40|dcc-youlab-gpu-19|1|10|86172M||/work/minhe/alphafold|
minhe|COMPLETED|scavenger-gpu|2023-05-24T05:29:20|2023-05-24T06:36:34|01:07:14|dcc-youlab-gpu-41|1|10|86172M||/work/minhe/alphafold|
minhe|COMPLETED|scavenger-gpu|2023-05-24T05:32:03|2023-05-24T06:24:28|00:52:25|dcc-youlab-gpu-03|1|10|86172M||/work/minhe/alphafold|
minhe|COMPLETED|scavenger-gpu|2023-05-24T05:32:55|2023-05-24T06:02:18|00:29:23|dcc-pbenfeylab-gpu-03|1|10|86172M||/work/minhe/alphafold|
minhe|COMPLETED|scavenger-gpu|2023-05-24T05:36:15|2023-05-24T06:20:22|00:44:07|dcc-rekerlab-gpu-01|1|8|86172M||/work/minhe/alphafold|
minhe|COMPLETED|scavenger-gpu|2023-05-24T05:42:49|2023-05-24T06:03:35|00:20:46|dcc-youlab-gpu-07|1|10|86172M||/work/minhe/alphafold|
minhe|COMPLETED|scavenger-gpu|2023-05-24T05:44:02|2023-05-24T07:20:36|01:36:34|dcc-youlab-gpu-09|1|10|86172M||/work/minhe/alphafold|
minhe|COMPLETED|scavenger-gpu|2023-05-24T05:48:27|2023-05-24T06:31:57|00:43:30|dcc-gehmlab-gpu-53|1|19|86172M||/work/minhe/alphafold|
minhe|COMPLETED|scavenger-gpu|2023-05-24T05:50:08|2023-05-24T07:20:40|01:30:32|dcc-youlab-gpu-14|1|10|86172M||/work/minhe/alphafold|
minhe|COMPLETED|scavenger-gpu|2023-05-24T05:53:14|2023-05-24T07:16:55|01:23:41|dcc-vossenlab-gpu-03|1|10|86172M||/work/minhe/alphafold|
minhe|COMPLETED|scavenger-gpu|2023-05-24T05:57:23|2023-05-24T07:25:58|01:28:35|dcc-gehmlab-gpu-54|1|19|86172M||/work/minhe/alphafold|
minhe|COMPLETED|scavenger-gpu|2023-05-24T06:00:39|2023-05-24T06:22:30|00:21:51|dcc-youlab-gpu-05|1|10|86172M||/work/minhe/alphafold|
minhe|COMPLETED|scavenger-gpu|2023-05-24T06:02:18|2023-05-24T07:47:05|01:44:47|dcc-pbenfeylab-gpu-03|1|10|86172M||/work/minhe/alphafold|
minhe|COMPLETED|scavenger-gpu|2023-05-24T06:03:35|2023-05-24T08:09:21|02:05:46|dcc-youlab-gpu-07|1|10|86172M||/work/minhe/alphafold|
minhe|FAILED|scavenger-gpu|2023-05-24T06:04:51|2023-05-24T08:28:34|02:23:43|dcc-youlab-gpu-10|1|10|86172M||/work/minhe/alphafold|
minhe|COMPLETED|scavenger-gpu|2023-05-24T06:05:11|2023-05-24T06:11:20|00:06:09|dcc-youlab-gpu-02|1|10|86172M||/work/minhe/alphafold|
minhe|COMPLETED|scavenger-gpu|2023-05-24T06:08:05|2023-05-24T06:50:13|00:42:08|dcc-pbenfeylab-gpu-04|1|10|86172M||/work/minhe/alphafold|
minhe|FAILED|scavenger-gpu|2023-05-24T06:09:29|2023-05-24T08:28:36|02:19:07|dcc-youlab-gpu-12|1|10|86172M||/work/minhe/alphafold|
minhe|COMPLETED|scavenger-gpu|2023-05-24T06:11:20|2023-05-24T06:21:43|00:10:23|dcc-youlab-gpu-02|1|10|86172M||/work/minhe/alphafold|
minhe|COMPLETED|scavenger-gpu|2023-05-24T06:20:22|2023-05-24T07:12:48|00:52:26|dcc-rekerlab-gpu-01|1|8|86172M||/work/minhe/alphafold|
minhe|COMPLETED|scavenger-gpu|2023-05-24T06:21:00|2023-05-24T07:23:07|01:02:07|dcc-vossenlab-gpu-04|1|10|86172M||/work/minhe/alphafold|
minhe|FAILED|scavenger-gpu|2023-05-24T06:21:25|2023-05-24T08:28:45|02:07:20|dcc-gehmlab-gpu-60|1|19|86172M||/work/minhe/alphafold|
minhe|COMPLETED|scavenger-gpu|2023-05-24T06:21:25|2023-05-24T08:22:06|02:00:41|dcc-gehmlab-gpu-52|1|19|86172M||/work/minhe/alphafold|
minhe|COMPLETED|scavenger-gpu|2023-05-24T06:21:25|2023-05-24T07:45:31|01:24:06|dcc-gehmlab-gpu-51|1|19|86172M||/work/minhe/alphafold|
minhe|COMPLETED|scavenger-gpu|2023-05-24T06:21:41|2023-05-24T07:33:43|01:12:02|dcc-gehmlab-gpu-56|1|19|86172M||/work/minhe/alphafold|
minhe|COMPLETED|scavenger-gpu|2023-05-24T06:21:43|2023-05-24T07:20:19|00:58:36|dcc-youlab-gpu-02|1|10|86172M||/work/minhe/alphafold|
minhe|COMPLETED|scavenger-gpu|2023-05-24T06:21:52|2023-05-24T08:00:05|01:38:13|dcc-ultrasound-gpu-02|1|19|86172M||/work/minhe/alphafold|
minhe|COMPLETED|scavenger-gpu|2023-05-24T06:21:52|2023-05-24T07:21:35|00:59:43|dcc-gehmlab-gpu-50|1|19|86172M||/work/minhe/alphafold|
minhe|COMPLETED|scavenger-gpu|2023-05-24T06:21:52|2023-05-24T06:50:04|00:28:12|dcc-gehmlab-gpu-46|1|19|86172M||/work/minhe/alphafold|
minhe|COMPLETED|scavenger-gpu|2023-05-24T06:22:03|2023-05-24T06:48:16|00:26:13|dcc-gehmlab-gpu-58|1|19|86172M||/work/minhe/alphafold|
minhe|COMPLETED|scavenger-gpu|2023-05-24T06:22:30|2023-05-24T07:39:34|01:17:04|dcc-youlab-gpu-05|1|10|86172M||/work/minhe/alphafold|
minhe|COMPLETED|scavenger-gpu|2023-05-24T06:23:00|2023-05-24T06:36:11|00:13:11|dcc-gehmlab-gpu-59|1|19|86172M||/work/minhe/alphafold|
minhe|COMPLETED|scavenger-gpu|2023-05-24T06:23:20|2023-05-24T07:06:43|00:43:23|dcc-gehmlab-gpu-44|1|19|86172M||/work/minhe/alphafold|
minhe|COMPLETED|scavenger-gpu|2023-05-24T06:23:20|2023-05-24T07:23:01|00:59:41|dcc-gehmlab-gpu-43|1|19|86172M||/work/minhe/alphafold|
minhe|FAILED|scavenger-gpu|2023-05-24T06:24:28|2023-05-24T08:28:26|02:03:58|dcc-gehmlab-gpu-42|1|19|86172M||/work/minhe/alphafold|
minhe|COMPLETED|scavenger-gpu|2023-05-24T06:24:29|2023-05-24T07:00:14|00:35:45|dcc-youlab-gpu-03|1|10|86172M||/work/minhe/alphafold|
minhe|COMPLETED|scavenger-gpu|2023-05-24T06:27:15|2023-05-24T08:11:09|01:43:54|dcc-gehmlab-gpu-41|1|19|86172M||/work/minhe/alphafold|
minhe|COMPLETED|scavenger-gpu|2023-05-24T06:28:46|2023-05-24T06:42:32|00:13:46|dcc-youlab-gpu-04|1|10|86172M||/work/minhe/alphafold|
minhe|COMPLETED|scavenger-gpu|2023-05-24T06:28:54|2023-05-24T07:21:46|00:52:52|dcc-gehmlab-gpu-40|1|19|86172M||/work/minhe/alphafold|
minhe|COMPLETED|scavenger-gpu|2023-05-24T06:31:57|2023-05-24T07:21:25|00:49:28|dcc-gehmlab-gpu-53|1|19|86172M||/work/minhe/alphafold|
minhe|COMPLETED|scavenger-gpu|2023-05-24T06:32:41|2023-05-24T07:02:43|00:30:02|dcc-tdunn-gpu-02|1|44|86172M||/work/minhe/alphafold|
minhe|COMPLETED|scavenger-gpu|2023-05-24T06:34:29|2023-05-24T07:27:21|00:52:52|dcc-gehmlab-gpu-39|1|19|86172M||/work/minhe/alphafold|
minhe|COMPLETED|scavenger-gpu|2023-05-24T06:36:12|2023-05-24T07:10:51|00:34:39|dcc-gehmlab-gpu-59|1|19|86172M||/work/minhe/alphafold|
minhe|FAILED|scavenger-gpu|2023-05-24T06:36:34|2023-05-24T08:28:22|01:51:48|dcc-youlab-gpu-41|1|10|86172M||/work/minhe/alphafold|
minhe|FAILED|scavenger-gpu|2023-05-24T06:39:08|2023-05-24T08:28:41|01:49:33|dcc-ultrasound-gpu-03|1|19|86172M||/work/minhe/alphafold|
minhe|COMPLETED|scavenger-gpu|2023-05-24T06:41:16|2023-05-24T06:56:16|00:15:00|dcc-youlab-gpu-28|1|10|86172M||/work/minhe/alphafold|
minhe|COMPLETED|scavenger-gpu|2023-05-24T06:42:32|2023-05-24T08:20:28|01:37:56|dcc-youlab-gpu-04|1|10|86172M||/work/minhe/alphafold|
minhe|COMPLETED|scavenger-gpu|2023-05-24T06:45:01|2023-05-24T07:22:47|00:37:46|dcc-ultrasound-gpu-04|1|19|86172M||/work/minhe/alphafold|
minhe|COMPLETED|scavenger-gpu|2023-05-24T06:48:17|2023-05-24T07:21:41|00:33:24|dcc-gehmlab-gpu-58|1|19|86172M||/work/minhe/alphafold|
minhe|COMPLETED|scavenger-gpu|2023-05-24T06:50:04|2023-05-24T07:28:59|00:38:55|dcc-gehmlab-gpu-46|1|19|86172M||/work/minhe/alphafold|
minhe|COMPLETED|scavenger-gpu|2023-05-24T06:50:13|2023-05-24T07:20:21|00:30:08|dcc-pbenfeylab-gpu-04|1|10|86172M||/work/minhe/alphafold|
minhe|COMPLETED|scavenger-gpu|2023-05-24T06:52:45|2023-05-24T07:21:38|00:28:53|dcc-gehmlab-gpu-38|1|19|86172M||/work/minhe/alphafold|
minhe|COMPLETED|scavenger-gpu|2023-05-24T06:55:42|2023-05-24T07:20:33|00:24:51|dcc-gehmlab-gpu-37|1|19|86172M||/work/minhe/alphafold|
minhe|COMPLETED|scavenger-gpu|2023-05-24T06:56:16|2023-05-24T07:18:35|00:22:19|dcc-youlab-gpu-28|1|10|86172M||/work/minhe/alphafold|
minhe|COMPLETED|scavenger-gpu|2023-05-24T07:00:15|2023-05-24T08:01:47|01:01:32|dcc-youlab-gpu-03|1|10|86172M||/work/minhe/alphafold|
minhe|COMPLETED|scavenger-gpu|2023-05-24T07:02:43|2023-05-24T07:13:08|00:10:25|dcc-tdunn-gpu-02|1|44|86172M||/work/minhe/alphafold|
minhe|COMPLETED|scavenger-gpu|2023-05-24T07:04:33|2023-05-24T07:21:47|00:17:14|dcc-gehmlab-gpu-36|1|19|86172M||/work/minhe/alphafold|
minhe|COMPLETED|scavenger-gpu|2023-05-24T07:06:43|2023-05-24T07:21:45|00:15:02|dcc-gehmlab-gpu-44|1|19|86172M||/work/minhe/alphafold|
minhe|COMPLETED|scavenger-gpu|2023-05-24T07:09:27|2023-05-24T08:21:54|01:12:27|dcc-gehmlab-gpu-35|1|19|86172M||/work/minhe/alphafold|
minhe|COMPLETED|scavenger-gpu|2023-05-24T07:10:51|2023-05-24T07:33:19|00:22:28|dcc-gehmlab-gpu-59|1|19|86172M||/work/minhe/alphafold|
minhe|FAILED|scavenger-gpu|2023-05-24T07:12:48|2023-05-24T08:33:24|01:20:36|dcc-rekerlab-gpu-01|1|8|86172M||/work/minhe/alphafold|
minhe|COMPLETED|scavenger-gpu|2023-05-24T07:13:08|2023-05-24T07:21:40|00:08:32|dcc-tdunn-gpu-02|1|44|86172M||/work/minhe/alphafold|
minhe|COMPLETED|scavenger-gpu|2023-05-24T07:15:23|2023-05-24T07:42:31|00:27:08|dcc-gehmlab-gpu-34|1|19|86172M||/work/minhe/alphafold|
minhe|FAILED|scavenger-gpu|2023-05-24T07:15:23|2023-05-24T08:28:21|01:12:58|dcc-gehmlab-gpu-33|1|19|86172M||/work/minhe/alphafold|
minhe|FAILED|scavenger-gpu|2023-05-24T07:15:23|2023-05-24T08:28:42|01:13:19|dcc-gehmlab-gpu-32|1|19|86172M||/work/minhe/alphafold|
minhe|COMPLETED|scavenger-gpu|2023-05-24T07:16:56|2023-05-24T07:55:55|00:38:59|dcc-vossenlab-gpu-03|1|10|86172M||/work/minhe/alphafold|
minhe|FAILED|scavenger-gpu|2023-05-24T07:18:35|2023-05-24T08:28:34|01:09:59|dcc-youlab-gpu-28|1|10|86172M||/work/minhe/alphafold|
minhe|COMPLETED|scavenger-gpu|2023-05-24T07:20:09|2023-05-24T08:21:58|01:01:49|dcc-gehmlab-gpu-31|1|19|86172M||/work/minhe/alphafold|
minhe|COMPLETED|scavenger-gpu|2023-05-24T07:20:19|2023-05-24T07:57:22|00:37:03|dcc-youlab-gpu-02|1|10|86172M||/work/minhe/alphafold|
minhe|COMPLETED|scavenger-gpu|2023-05-24T07:20:22|2023-05-24T08:03:22|00:43:00|dcc-pbenfeylab-gpu-04|1|10|86172M||/work/minhe/alphafold|
minhe|FAILED|scavenger-gpu|2023-05-24T07:20:34|2023-05-24T08:28:22|01:07:48|dcc-gehmlab-gpu-37|1|19|86172M||/work/minhe/alphafold|
minhe|COMPLETED|scavenger-gpu|2023-05-24T07:20:36|2023-05-24T07:32:29|00:11:53|dcc-youlab-gpu-09|1|10|86172M||/work/minhe/alphafold|
minhe|COMPLETED|scavenger-gpu|2023-05-24T07:20:41|2023-05-24T08:04:48|00:44:07|dcc-youlab-gpu-14|1|10|86172M||/work/minhe/alphafold|
minhe|COMPLETED|scavenger-gpu|2023-05-24T07:21:00|2023-05-24T07:30:47|00:09:47|dcc-gehmlab-gpu-30|1|19|86172M||/work/minhe/alphafold|
minhe|COMPLETED|scavenger-gpu|2023-05-24T07:21:25|2023-05-24T08:21:36|01:00:11|dcc-gehmlab-gpu-53|1|19|86172M||/work/minhe/alphafold|
minhe|COMPLETED|scavenger-gpu|2023-05-24T07:21:35|2023-05-24T08:21:43|01:00:08|dcc-gehmlab-gpu-50|1|19|86172M||/work/minhe/alphafold|
minhe|COMPLETED|scavenger-gpu|2023-05-24T07:21:38|2023-05-24T08:21:35|00:59:57|dcc-gehmlab-gpu-38|1|19|86172M||/work/minhe/alphafold|
minhe|COMPLETED|scavenger-gpu|2023-05-24T07:21:40|2023-05-24T07:31:46|00:10:06|dcc-tdunn-gpu-02|1|44|86172M||/work/minhe/alphafold|
minhe|FAILED|scavenger-gpu|2023-05-24T07:21:43|2023-05-24T08:28:09|01:06:26|dcc-gehmlab-gpu-58|1|19|86172M||/work/minhe/alphafold|
minhe|FAILED|scavenger-gpu|2023-05-24T07:21:45|2023-05-24T08:28:46|01:07:01|dcc-gehmlab-gpu-44|1|19|86172M||/work/minhe/alphafold|
minhe|COMPLETED|scavenger-gpu|2023-05-24T07:21:47|2023-05-24T08:28:00|01:06:13|dcc-gehmlab-gpu-40|1|19|86172M||/work/minhe/alphafold|
minhe|COMPLETED|scavenger-gpu|2023-05-24T07:21:47|2023-05-24T07:54:39|00:32:52|dcc-gehmlab-gpu-36|1|19|86172M||/work/minhe/alphafold|
minhe|COMPLETED|scavenger-gpu|2023-05-24T07:21:57|2023-05-24T07:47:59|00:26:02|dcc-gehmlab-gpu-29|1|19|86172M||/work/minhe/alphafold|
minhe|COMPLETED|scavenger-gpu|2023-05-24T07:22:48|2023-05-24T08:02:00|00:39:12|dcc-ultrasound-gpu-04|1|19|86172M||/work/minhe/alphafold|
minhe|COMPLETED|scavenger-gpu|2023-05-24T07:23:01|2023-05-24T07:53:22|00:30:21|dcc-gehmlab-gpu-28|1|19|86172M||/work/minhe/alphafold|
minhe|FAILED|scavenger-gpu|2023-05-24T07:23:07|2023-05-24T08:28:40|01:05:33|dcc-vossenlab-gpu-04|1|10|86172M||/work/minhe/alphafold|
minhe|COMPLETED|scavenger-gpu|2023-05-24T07:25:59|2023-05-24T07:51:44|00:25:45|dcc-gehmlab-gpu-54|1|19|86172M||/work/minhe/alphafold|
minhe|FAILED|scavenger-gpu|2023-05-24T07:27:21|2023-05-24T08:28:19|01:00:58|dcc-gehmlab-gpu-43|1|19|86172M||/work/minhe/alphafold|
minhe|COMPLETED|scavenger-gpu|2023-05-24T07:29:00|2023-05-24T07:36:59|00:07:59|dcc-gehmlab-gpu-46|1|19|86172M||/work/minhe/alphafold|
minhe|FAILED|scavenger-gpu|2023-05-24T07:30:47|2023-05-24T08:28:31|00:57:44|dcc-gehmlab-gpu-39|1|19|86172M||/work/minhe/alphafold|
minhe|FAILED|scavenger-gpu|2023-05-24T07:31:47|2023-05-24T08:29:25|00:57:38|dcc-tdunn-gpu-02|1|44|86172M||/work/minhe/alphafold|
minhe|FAILED|scavenger-gpu|2023-05-24T07:32:29|2023-05-24T08:28:15|00:55:46|dcc-youlab-gpu-09|1|10|86172M||/work/minhe/alphafold|
minhe|COMPLETED|scavenger-gpu|2023-05-24T07:33:19|2023-05-24T08:21:55|00:48:36|dcc-gehmlab-gpu-59|1|19|86172M||/work/minhe/alphafold|
jrl78|COMPLETED|scavenger-gpu|2023-05-24T04:42:18|2023-05-24T21:30:01|16:47:43|dcc-youlab-gpu-32|1|10|4G||/work/jrl78/Nanoparticles/JawBreakers/Different Partial Charges/EEM Full Library|
jrl78|COMPLETED|scavenger-gpu|2023-05-24T04:45:43|2023-05-24T22:39:14|17:53:31|dcc-motesa-gpu-04|1|6|4G||/work/jrl78/Nanoparticles/JawBreakers/Different Partial Charges/EEM Full Library|
jrl78|COMPLETED|scavenger-gpu|2023-05-24T05:34:20|2023-05-25T03:08:04|21:33:44|dcc-vossenlab-gpu-01|1|10|4G||/work/jrl78/Nanoparticles/JawBreakers/Different Partial Charges/EEM Full Library|
jrl78|COMPLETED|scavenger-gpu|2023-05-24T06:11:09|2023-05-24T23:15:04|17:03:55|dcc-youlab-gpu-23|1|10|4G||/work/jrl78/Nanoparticles/JawBreakers/Different Partial Charges/EEM Full Library|
jrl78|PREEMPTED|scavenger-gpu|2023-05-24T06:42:30|2023-05-24T17:10:27|10:27:57|dcc-mainsahlab-gpu-03|1|6|4G||/work/jrl78/Nanoparticles/JawBreakers/Different Partial Charges/EEM Full Library|
jrl78|FAILED|scavenger-gpu|2023-05-24T06:44:01|2023-05-24T14:32:30|07:48:29|dcc-youlab-gpu-18|1|10|4G||/work/jrl78/Nanoparticles/JawBreakers/Different Partial Charges/EEM Full Library|
jrl78|COMPLETED|scavenger-gpu|2023-05-24T07:07:22|2023-05-25T03:56:29|20:49:07|dcc-youlab-gpu-34|1|10|4G||/work/jrl78/Nanoparticles/JawBreakers/Different Partial Charges/EEM Full Library|
jrl78|PREEMPTED|scavenger-gpu|2023-05-24T07:26:20|2023-05-24T21:33:02|14:06:42|dcc-mainsahlab-gpu-01|1|6|4G||/work/jrl78/Nanoparticles/JawBreakers/Different Partial Charges/EEM Full Library|
jrl78|COMPLETED|scavenger-gpu|2023-05-24T07:42:44|2023-05-25T02:17:40|18:34:56|dcc-pbenfeylab-gpu-02|1|10|4G||/work/jrl78/Nanoparticles/JawBreakers/Different Partial Charges/EEM Full Library|
yx240|COMPLETED|scavenger-gpu|2023-05-23T15:38:15|2023-05-25T03:31:12|1-11:52:57|dcc-carin-gpu-06|1|19|38G||/work/yx240/project-martini/new/simutools/run-pbs|
yx240|COMPLETED|scavenger-gpu|2023-05-23T15:38:18|2023-05-24T09:36:32|17:58:14|dcc-carin-gpu-04|1|19|38G||/work/yx240/project-martini/new/simutools/run-pbs|
yx240|COMPLETED|scavenger-gpu|2023-05-23T15:38:18|2023-05-25T19:26:28|2-03:48:10|dcc-carin-gpu-03|1|19|38G||/work/yx240/project-martini/new/simutools/run-pbs|
yx240|COMPLETED|scavenger-gpu|2023-05-23T15:38:18|2023-05-25T09:17:46|1-17:39:28|dcc-carin-gpu-02|1|19|38G||/work/yx240/project-martini/new/simutools/run-pbs|
yx240|COMPLETED|scavenger-gpu|2023-05-23T15:38:22|2023-05-24T13:53:26|22:15:04|dcc-brunellab-gpu-01|1|21|38G||/work/yx240/project-martini/new/simutools/run-pbs|
yx240|COMPLETED|scavenger-gpu|2023-05-23T15:38:22|2023-05-25T23:11:42|2-07:33:20|dcc-brownlab-gpu-03|1|19|38G||/work/yx240/project-martini/new/simutools/run-pbs|
yx240|COMPLETED|scavenger-gpu|2023-05-23T15:38:22|2023-05-25T17:37:04|2-01:58:42|dcc-brownlab-gpu-02|1|19|38G||/work/yx240/project-martini/new/simutools/run-pbs|
yx240|CANCELLED by 1495323|scavenger-gpu|2023-05-23T15:57:49|2023-05-30T11:42:56|6-19:45:07|dcc-dsplus-gpu-01|1|92|38G||/work/yx240/project-martini/new/simutools/run-pbs|
yx240|COMPLETED|scavenger-gpu|2023-05-23T17:20:55|2023-05-25T16:06:16|1-22:45:21|dcc-carlsonlab-gpu-08|1|21|38G||/work/yx240/project-martini/new/simutools/run-pbs|
yx240|COMPLETED|scavenger-gpu|2023-05-23T17:21:26|2023-05-24T20:48:55|1-03:27:29|dcc-youlab-gpu-15|1|10|38G||/work/yx240/project-martini/new/simutools/run-pbs|
yx240|COMPLETED|scavenger-gpu|2023-05-23T16:10:35|2023-05-24T17:50:18|1-01:39:43|dcc-carlsonlab-gpu-04|1|21|2G||/work/yx240/project-martini/new/simutools/scripts|
yx240|COMPLETED|scavenger-gpu|2023-05-23T17:41:00|2023-05-24T12:55:06|19:14:06|dcc-carlsonlab-gpu-03|1|21|2G||/work/yx240/project-martini/new/simutools/scripts|
yx240|COMPLETED|scavenger-gpu|2023-05-23T19:21:51|2023-05-24T19:52:38|1-00:30:47|dcc-brunellab-gpu-02|1|21|2G||/work/yx240/project-martini/new/simutools/scripts|
kw297|COMPLETED|scavenger-gpu|2023-05-23T15:40:35|2023-05-24T10:35:11|18:54:36|dcc-carlsonlab-gpu-14|1|2|8G||/hpc/group/ychenlab/DA|
kw297|COMPLETED|scavenger-gpu|2023-05-23T15:42:25|2023-05-24T09:18:36|17:36:11|dcc-dsplus-gpu-08|1|2|8G||/hpc/group/ychenlab/DA|
kw297|COMPLETED|scavenger-gpu|2023-05-23T15:44:15|2023-05-24T11:50:27|20:06:12|dcc-fanglab-gpu-01|1|2|8G||/hpc/group/ychenlab/DA|
kw297|COMPLETED|scavenger-gpu|2023-05-23T15:44:15|2023-05-24T10:10:54|18:26:39|dcc-fanglab-gpu-01|1|2|8G||/hpc/group/ychenlab/DA|
kw297|COMPLETED|scavenger-gpu|2023-05-23T15:44:15|2023-05-24T11:57:53|20:13:38|dcc-fanglab-gpu-01|1|2|8G||/hpc/group/ychenlab/DA|
kw297|COMPLETED|scavenger-gpu|2023-05-23T15:44:16|2023-05-24T12:06:20|20:22:04|dcc-fanglab-gpu-01|1|2|8G||/hpc/group/ychenlab/DA|
kw297|COMPLETED|scavenger-gpu|2023-05-23T15:48:26|2023-05-24T10:22:14|18:33:48|dcc-mainsahlab-gpu-04|1|2|8G||/hpc/group/ychenlab/DA|
kw297|COMPLETED|scavenger-gpu|2023-05-23T15:49:36|2023-05-24T09:22:00|17:32:24|dcc-ece-gpu-04|1|2|8G||/hpc/group/ychenlab/DA|
kw297|COMPLETED|scavenger-gpu|2023-05-23T15:48:26|2023-05-24T09:55:51|18:07:25|dcc-carlsonlab-gpu-06|1|2|8G||/hpc/group/ychenlab/DA|
minhe|FAILED|scavenger-gpu|2023-05-24T07:33:44|2023-05-24T08:28:35|00:54:51|dcc-gehmlab-gpu-56|1|19|86172M||/work/minhe/alphafold|
jrl78|COMPLETED|scavenger-gpu|2023-05-24T08:02:28|2023-05-24T22:56:35|14:54:07|dcc-youlab-gpu-42|1|10|4G||/work/jrl78/Nanoparticles/JawBreakers/Different Partial Charges/EEM Full Library|
minhe|COMPLETED|scavenger-gpu|2023-05-24T07:36:59|2023-05-24T08:21:58|00:44:59|dcc-gehmlab-gpu-46|1|19|86172M||/work/minhe/alphafold|
minhe|COMPLETED|scavenger-gpu|2023-05-24T07:37:44|2023-05-24T08:17:13|00:39:29|dcc-youlab-gpu-40|1|10|86172M||/work/minhe/alphafold|
minhe|COMPLETED|scavenger-gpu|2023-05-24T07:39:34|2023-05-24T08:20:36|00:41:02|dcc-youlab-gpu-05|1|10|86172M||/work/minhe/alphafold|
minhe|FAILED|scavenger-gpu|2023-05-24T07:42:31|2023-05-24T08:29:11|00:46:40|dcc-gehmlab-gpu-34|1|19|86172M||/work/minhe/alphafold|
minhe|COMPLETED|scavenger-gpu|2023-05-24T07:45:32|2023-05-24T08:23:02|00:37:30|dcc-gehmlab-gpu-51|1|19|86172M||/work/minhe/alphafold|
minhe|COMPLETED|scavenger-gpu|2023-05-24T07:47:05|2023-05-24T08:09:27|00:22:22|dcc-pbenfeylab-gpu-03|1|10|86172M||/work/minhe/alphafold|
minhe|COMPLETED|scavenger-gpu|2023-05-24T07:47:59|2023-05-24T08:21:48|00:33:49|dcc-gehmlab-gpu-30|1|19|86172M||/work/minhe/alphafold|
minhe|FAILED|scavenger-gpu|2023-05-24T07:49:48|2023-05-24T08:28:16|00:38:28|dcc-gehmlab-gpu-57|1|19|86172M||/work/minhe/alphafold|
minhe|COMPLETED|scavenger-gpu|2023-05-24T07:51:44|2023-05-24T08:21:59|00:30:15|dcc-gehmlab-gpu-54|1|19|86172M||/work/minhe/alphafold|
minhe|COMPLETED|scavenger-gpu|2023-05-24T07:53:22|2023-05-24T07:59:32|00:06:10|dcc-gehmlab-gpu-29|1|19|86172M||/work/minhe/alphafold|
minhe|FAILED|scavenger-gpu|2023-05-24T07:54:39|2023-05-24T08:28:37|00:33:58|dcc-gehmlab-gpu-36|1|19|86172M||/work/minhe/alphafold|
minhe|FAILED|scavenger-gpu|2023-05-24T07:55:56|2023-05-24T08:28:20|00:32:24|dcc-vossenlab-gpu-03|1|10|86172M||/work/minhe/alphafold|
minhe|COMPLETED|scavenger-gpu|2023-05-24T07:57:22|2023-05-24T08:06:27|00:09:05|dcc-youlab-gpu-02|1|10|86172M||/work/minhe/alphafold|
minhe|FAILED|scavenger-gpu|2023-05-24T07:59:32|2023-05-24T08:28:16|00:28:44|dcc-gehmlab-gpu-29|1|19|86172M||/work/minhe/alphafold|
minhe|COMPLETED|scavenger-gpu|2023-05-24T08:00:05|2023-05-24T08:25:37|00:25:32|dcc-ultrasound-gpu-02|1|19|86172M||/work/minhe/alphafold|
minhe|COMPLETED|scavenger-gpu|2023-05-24T08:01:47|2023-05-24T08:20:12|00:18:25|dcc-youlab-gpu-03|1|10|86172M||/work/minhe/alphafold|
jrl78|COMPLETED|scavenger-gpu|2023-05-24T08:22:12|2023-05-25T00:50:15|16:28:03|dcc-youlab-gpu-40|1|10|4G||/work/jrl78/Nanoparticles/JawBreakers/Different Partial Charges/EEM Full Library|
jrl78|COMPLETED|scavenger-gpu|2023-05-24T09:58:33|2023-05-25T05:13:11|19:14:38|dcc-youlab-gpu-35|1|10|4G||/work/jrl78/Nanoparticles/JawBreakers/Different Partial Charges/EEM Full Library|
kw297|COMPLETED|scavenger-gpu|2023-05-23T16:22:54|2023-05-24T10:32:31|18:09:37|dcc-motesa-gpu-02|1|2|8G||/hpc/group/ychenlab/DA|
kw297|COMPLETED|scavenger-gpu|2023-05-23T16:24:47|2023-05-24T10:18:14|17:53:27|dcc-carin-gpu-09|1|2|8G||/hpc/group/ychenlab/DA|
minhe|FAILED|scavenger-gpu|2023-05-24T08:02:00|2023-05-24T08:28:15|00:26:15|dcc-ultrasound-gpu-04|1|19|86172M||/work/minhe/alphafold|
jrl78|COMPLETED|scavenger-gpu|2023-05-24T10:44:35|2023-05-25T02:55:03|16:10:28|dcc-motesa-gpu-02|1|6|4G||/work/jrl78/Nanoparticles/JawBreakers/Different Partial Charges/EEM Full Library|
minhe|FAILED|scavenger-gpu|2023-05-24T08:03:22|2023-05-24T08:29:24|00:26:02|dcc-pbenfeylab-gpu-04|1|10|86172M||/work/minhe/alphafold|
minhe|FAILED|scavenger-gpu|2023-05-24T08:04:48|2023-05-24T08:28:28|00:23:40|dcc-youlab-gpu-14|1|10|86172M||/work/minhe/alphafold|
yw564|FAILED|scavenger-gpu|2023-05-23T21:31:51|2023-05-24T17:02:16|19:30:25|dcc-youlab-gpu-38|1|2|50G||/hpc/group/jilab|
pkk16|OUT_OF_MEMORY|scavenger-gpu|2023-05-23T22:31:20|2023-05-24T13:11:42|14:40:22|dcc-tdunn-gpu-01|1|2|2G||/hpc/home/pkk16/ondemand/data/sys/dashboard/batch_connect/sys/bc_jupyter/output/6646ff67-8ad1-46d3-9ba0-f60d71feddbe|
jrl78|COMPLETED|scavenger-gpu|2023-05-24T11:20:43|2023-05-25T09:43:00|22:22:17|dcc-rekerlab-gpu-01|1|8|4G||/work/jrl78/Nanoparticles/JawBreakers/Different Partial Charges/EEM Full Library|
xz284|COMPLETED|scavenger-gpu|2023-05-24T00:14:57|2023-05-24T14:08:41|13:53:44|dcc-brownlab-gpu-04|1|8|64G||/hpc/group/motesa/Risk_Aware_SCUC_Model/Prelim/CT=0_RAT=1_New/RAS-EMS_updated/beta=0.8/extreme|
xz284|COMPLETED|scavenger-gpu|2023-05-24T00:15:04|2023-05-24T16:44:52|16:29:48|dcc-brunellab-gpu-03|1|8|64G||/hpc/group/motesa/Risk_Aware_SCUC_Model/Prelim/CT=0_RAT=1_New/RAS-EMS_updated/beta=0.8/extreme|
xz284|COMPLETED|scavenger-gpu|2023-05-24T00:15:08|2023-05-24T12:56:20|12:41:12|dcc-carin-gpu-05|1|8|64G||/hpc/group/motesa/Risk_Aware_SCUC_Model/Prelim/CT=0_RAT=1_New/RAS-EMS_updated/beta=0.8/extreme|
xz284|COMPLETED|scavenger-gpu|2023-05-24T00:15:12|2023-05-24T15:17:06|15:01:54|dcc-carin-gpu-07|1|8|64G||/hpc/group/motesa/Risk_Aware_SCUC_Model/Prelim/CT=0_RAT=1_New/RAS-EMS_updated/beta=0.8/extreme|
xz284|COMPLETED|scavenger-gpu|2023-05-24T00:15:18|2023-05-24T15:06:42|14:51:24|dcc-carlsonlab-gpu-02|1|8|64G||/hpc/group/motesa/Risk_Aware_SCUC_Model/Prelim/CT=0_RAT=1_New/RAS-EMS_updated/beta=0.8/extreme|
xz284|COMPLETED|scavenger-gpu|2023-05-24T00:15:22|2023-05-24T14:26:31|14:11:09|dcc-carlsonlab-gpu-05|1|8|64G||/hpc/group/motesa/Risk_Aware_SCUC_Model/Prelim/CT=0_RAT=1_New/RAS-EMS_updated/beta=0.8/extreme|
xz284|COMPLETED|scavenger-gpu|2023-05-24T00:15:35|2023-05-24T14:46:52|14:31:17|dcc-carlsonlab-gpu-07|1|8|64G||/hpc/group/motesa/Risk_Aware_SCUC_Model/Prelim/CT=0_RAT=1_New/RAS-EMS_updated/beta=0.8/extreme|
xz284|COMPLETED|scavenger-gpu|2023-05-24T00:15:41|2023-05-24T14:00:04|13:44:23|dcc-collinslab-gpu-04|1|8|64G||/hpc/group/motesa/Risk_Aware_SCUC_Model/Prelim/CT=0_RAT=1_New/RAS-EMS_updated/beta=0.8/extreme|
xz284|COMPLETED|scavenger-gpu|2023-05-24T00:15:51|2023-05-24T13:42:11|13:26:20|dcc-dsplus-gpu-05|1|8|64G||/hpc/group/motesa/Risk_Aware_SCUC_Model/Prelim/CT=0_RAT=1_New/RAS-EMS_updated/beta=0.8/extreme|
xz284|COMPLETED|scavenger-gpu|2023-05-24T00:15:58|2023-05-24T16:47:55|16:31:57|dcc-dsplus-gpu-07|1|8|64G||/hpc/group/motesa/Risk_Aware_SCUC_Model/Prelim/CT=0_RAT=1_New/RAS-EMS_updated/beta=0.8/extreme|
xz284|COMPLETED|scavenger-gpu|2023-05-24T00:16:03|2023-05-24T09:31:56|09:15:53|dcc-gehmlab-gpu-45|1|8|64G||/hpc/group/motesa/Risk_Aware_SCUC_Model/Prelim/CT=0_RAT=1_New/RAS-EMS_updated/beta=0.8/extreme|
xz284|COMPLETED|scavenger-gpu|2023-05-24T00:16:46|2023-05-24T10:19:42|10:02:56|dcc-biostat-gpu-01|1|8|64G||/hpc/group/motesa/Risk_Aware_SCUC_Model/Prelim/CT=0_RAT=1_New/RAS-EMS_updated/beta=0.8/historical|
xz284|COMPLETED|scavenger-gpu|2023-05-24T00:16:51|2023-05-24T12:41:28|12:24:37|dcc-carin-gpu-10|1|8|64G||/hpc/group/motesa/Risk_Aware_SCUC_Model/Prelim/CT=0_RAT=1_New/RAS-EMS_updated/beta=0.8/historical|
xz284|COMPLETED|scavenger-gpu|2023-05-24T00:16:57|2023-05-24T13:40:05|13:23:08|dcc-carin-gpu-11|1|8|64G||/hpc/group/motesa/Risk_Aware_SCUC_Model/Prelim/CT=0_RAT=1_New/RAS-EMS_updated/beta=0.8/historical|
xz284|COMPLETED|scavenger-gpu|2023-05-24T00:17:03|2023-05-24T13:04:17|12:47:14|dcc-carlsonlab-gpu-15|1|8|64G||/hpc/group/motesa/Risk_Aware_SCUC_Model/Prelim/CT=0_RAT=1_New/RAS-EMS_updated/beta=0.8/historical|
xz284|COMPLETED|scavenger-gpu|2023-05-24T00:17:09|2023-05-24T16:49:56|16:32:47|dcc-carlsonlab-gpu-16|1|8|64G||/hpc/group/motesa/Risk_Aware_SCUC_Model/Prelim/CT=0_RAT=1_New/RAS-EMS_updated/beta=0.8/historical|
xz284|COMPLETED|scavenger-gpu|2023-05-24T00:17:17|2023-05-24T11:53:44|11:36:27|dcc-gehmlab-gpu-48|1|8|64G||/hpc/group/motesa/Risk_Aware_SCUC_Model/Prelim/CT=0_RAT=1_New/RAS-EMS_updated/beta=0.8/historical|
xz284|COMPLETED|scavenger-gpu|2023-05-24T00:17:23|2023-05-24T13:19:50|13:02:27|dcc-gehmlab-gpu-49|1|8|64G||/hpc/group/motesa/Risk_Aware_SCUC_Model/Prelim/CT=0_RAT=1_New/RAS-EMS_updated/beta=0.8/historical|
xz284|COMPLETED|scavenger-gpu|2023-05-24T00:17:27|2023-05-24T14:52:16|14:34:49|dcc-carlsonlab-gpu-09|1|8|64G||/hpc/group/motesa/Risk_Aware_SCUC_Model/Prelim/CT=0_RAT=1_New/RAS-EMS_updated/beta=0.8/historical|
xz284|COMPLETED|scavenger-gpu|2023-05-24T00:17:33|2023-05-24T16:15:26|15:57:53|dcc-carlsonlab-gpu-10|1|8|64G||/hpc/group/motesa/Risk_Aware_SCUC_Model/Prelim/CT=0_RAT=1_New/RAS-EMS_updated/beta=0.8/historical|
xz284|COMPLETED|scavenger-gpu|2023-05-24T00:17:38|2023-05-24T14:48:09|14:30:31|dcc-carlsonlab-gpu-11|1|8|64G||/hpc/group/motesa/Risk_Aware_SCUC_Model/Prelim/CT=0_RAT=1_New/RAS-EMS_updated/beta=0.8/historical|
xz284|COMPLETED|scavenger-gpu|2023-05-24T03:37:12|2023-05-24T13:08:18|09:31:06|dcc-allenlab-gpu-04|1|8|64G||/hpc/group/motesa/Risk_Aware_SCUC_Model/Prelim/CT=0_RAT=1_New/RAS-EMS_updated/beta=0.8/historical|
xz284|COMPLETED|scavenger-gpu|2023-05-24T09:31:59|2023-05-24T21:09:21|11:37:22|dcc-brunellab-gpu-04|1|8|64G||/hpc/group/motesa/Risk_Aware_SCUC_Model/Prelim/CT=0_RAT=1_New/RAS-EMS_updated/beta=0.8/historical|
