vk93|TIMEOUT|scavenger-gpu|2023-05-15T16:11:33|2023-05-22T16:11:51|7-00:00:18|dcc-dsplus-gpu-02|1|40|350109M||/hpc/home/vk93/ondemand/data/sys/dashboard/batch_connect/sys/bc_jupyter/output/23d4d6a9-4d03-429b-b1e0-2247cea267b4|
lh342|TIMEOUT|scavenger-gpu|2023-05-16T16:11:07|2023-05-23T16:11:07|7-00:00:00|dcc-motesa-gpu-02|1|6|16G||/hpc/home/lh342/MMVAE|
bgb13|FAILED|scavenger-gpu|2023-05-17T14:02:45|2023-05-23T06:01:01|5-15:58:16|dcc-ultrasound-gpu-04|1|16|10G||/hpc/group/dukenmr/bgb13/cyp51b_phosphorylated_S123/./.|
yx240|COMPLETED|scavenger-gpu|2023-05-17T23:09:49|2023-05-19T06:02:21|1-06:52:32|dcc-gehmlab-gpu-14|1|19|2G||/work/yx240/project-martini/new/simutools/scripts|
yx240|COMPLETED|scavenger-gpu|2023-05-17T23:09:49|2023-05-20T04:07:10|2-04:57:21|dcc-gehmlab-gpu-08|1|19|2G||/work/yx240/project-martini/new/simutools/scripts|
yx240|COMPLETED|scavenger-gpu|2023-05-17T23:17:29|2023-05-20T01:04:04|2-01:46:35|dcc-gehmlab-gpu-40|1|19|2G||/work/yx240/project-martini/new/simutools/scripts|
yx240|CANCELLED by 1495323|scavenger-gpu|2023-05-17T23:17:30|2023-05-20T11:27:54|2-12:10:24|dcc-dsplus-gpu-01|1|92|2G||/work/yx240/project-martini/new/simutools/scripts|
yx240|COMPLETED|scavenger-gpu|2023-05-17T23:17:30|2023-05-19T19:21:19|1-20:03:49|dcc-chsi-gpu-06|1|6|2G||/work/yx240/project-martini/new/simutools/scripts|
yx240|COMPLETED|scavenger-gpu|2023-05-17T23:17:30|2023-05-20T11:03:02|2-11:45:32|dcc-chsi-gpu-05|1|6|2G||/work/yx240/project-martini/new/simutools/scripts|
yx240|COMPLETED|scavenger-gpu|2023-05-17T23:17:30|2023-05-20T09:32:33|2-10:15:03|dcc-carlsonlab-gpu-12|1|21|2G||/work/yx240/project-martini/new/simutools/scripts|
yx240|CANCELLED by 1495323|scavenger-gpu|2023-05-17T23:17:30|2023-05-20T11:27:54|2-12:10:24|dcc-carlsonlab-gpu-09|1|21|2G||/work/yx240/project-martini/new/simutools/scripts|
yx240|COMPLETED|scavenger-gpu|2023-05-17T23:17:30|2023-05-20T06:45:00|2-07:27:30|dcc-carlsonlab-gpu-08|1|21|2G||/work/yx240/project-martini/new/simutools/scripts|
yx240|PREEMPTED|scavenger-gpu|2023-05-18T07:32:06|2023-05-20T11:19:00|2-03:46:54|dcc-gehmlab-gpu-48|1|19|2G||/work/yx240/project-martini/new/simutools/scripts|
yx240|PREEMPTED|scavenger-gpu|2023-05-18T07:34:08|2023-05-20T11:19:04|2-03:44:56|dcc-gehmlab-gpu-57|1|19|2G||/work/yx240/project-martini/new/simutools/scripts|
yx240|PREEMPTED|scavenger-gpu|2023-05-18T07:35:09|2023-05-20T11:19:08|2-03:43:59|dcc-gehmlab-gpu-46|1|19|2G||/work/yx240/project-martini/new/simutools/scripts|
bmajoros|COMPLETED|scavenger-gpu|2023-05-19T02:46:30|2023-05-19T05:47:36|03:01:06|dcc-youlab-gpu-12|1|10|20000M||/datacommons/igvf-pm/ENCODE/mutator-slurms|
bmajoros|COMPLETED|scavenger-gpu|2023-05-19T02:54:45|2023-05-19T05:54:09|02:59:24|dcc-youlab-gpu-28|1|10|20000M||/datacommons/igvf-pm/ENCODE/mutator-slurms|
bmajoros|COMPLETED|scavenger-gpu|2023-05-19T03:01:08|2023-05-19T05:59:12|02:58:04|dcc-youlab-gpu-19|1|10|20000M||/datacommons/igvf-pm/ENCODE/mutator-slurms|
bmajoros|COMPLETED|scavenger-gpu|2023-05-19T03:06:13|2023-05-19T06:06:03|02:59:50|dcc-youlab-gpu-21|1|10|20000M||/datacommons/igvf-pm/ENCODE/mutator-slurms|
bmajoros|COMPLETED|scavenger-gpu|2023-05-19T03:09:14|2023-05-19T05:46:43|02:37:29|dcc-ultrasound-gpu-03|1|19|20000M||/datacommons/igvf-pm/ENCODE/mutator-slurms|
bmajoros|COMPLETED|scavenger-gpu|2023-05-19T03:10:47|2023-05-19T06:06:40|02:55:53|dcc-youlab-gpu-30|1|10|20000M||/datacommons/igvf-pm/ENCODE/mutator-slurms|
bmajoros|COMPLETED|scavenger-gpu|2023-05-19T03:13:22|2023-05-19T06:21:22|03:08:00|dcc-youlab-gpu-23|1|10|20000M||/datacommons/igvf-pm/ENCODE/mutator-slurms|
bmajoros|COMPLETED|scavenger-gpu|2023-05-19T03:16:07|2023-05-19T06:22:39|03:06:32|dcc-youlab-gpu-16|1|10|20000M||/datacommons/igvf-pm/ENCODE/mutator-slurms|
bmajoros|COMPLETED|scavenger-gpu|2023-05-19T03:16:30|2023-05-19T06:18:45|03:02:15|dcc-youlab-gpu-11|1|10|20000M||/datacommons/igvf-pm/ENCODE/mutator-slurms|
bmajoros|COMPLETED|scavenger-gpu|2023-05-19T03:18:21|2023-05-19T06:20:05|03:01:44|dcc-youlab-gpu-18|1|10|20000M||/datacommons/igvf-pm/ENCODE/mutator-slurms|
bmajoros|COMPLETED|scavenger-gpu|2023-05-19T03:19:44|2023-05-19T06:19:40|02:59:56|dcc-youlab-gpu-15|1|10|20000M||/datacommons/igvf-pm/ENCODE/mutator-slurms|
bmajoros|COMPLETED|scavenger-gpu|2023-05-19T03:23:27|2023-05-19T06:30:58|03:07:31|dcc-youlab-gpu-10|1|10|20000M||/datacommons/igvf-pm/ENCODE/mutator-slurms|
bmajoros|COMPLETED|scavenger-gpu|2023-05-19T03:25:25|2023-05-19T06:27:09|03:01:44|dcc-youlab-gpu-13|1|10|20000M||/datacommons/igvf-pm/ENCODE/mutator-slurms|
bmajoros|COMPLETED|scavenger-gpu|2023-05-19T03:25:59|2023-05-19T06:36:59|03:11:00|dcc-youlab-gpu-14|1|10|20000M||/datacommons/igvf-pm/ENCODE/mutator-slurms|
bmajoros|COMPLETED|scavenger-gpu|2023-05-19T03:28:14|2023-05-19T06:38:26|03:10:12|dcc-youlab-gpu-02|1|10|20000M||/datacommons/igvf-pm/ENCODE/mutator-slurms|
bmajoros|COMPLETED|scavenger-gpu|2023-05-19T03:29:33|2023-05-19T06:33:02|03:03:29|dcc-vossenlab-gpu-03|1|10|20000M||/datacommons/igvf-pm/ENCODE/mutator-slurms|
bmajoros|COMPLETED|scavenger-gpu|2023-05-19T03:34:43|2023-05-19T06:46:50|03:12:07|dcc-pbenfeylab-gpu-03|1|10|20000M||/datacommons/igvf-pm/ENCODE/mutator-slurms|
bmajoros|COMPLETED|scavenger-gpu|2023-05-19T03:35:10|2023-05-19T06:36:02|03:00:52|dcc-mainsahlab-gpu-03|1|6|20000M||/datacommons/igvf-pm/ENCODE/mutator-slurms|
bmajoros|COMPLETED|scavenger-gpu|2023-05-19T03:35:24|2023-05-19T06:48:30|03:13:06|dcc-vossenlab-gpu-04|1|10|20000M||/datacommons/igvf-pm/ENCODE/mutator-slurms|
bmajoros|COMPLETED|scavenger-gpu|2023-05-19T03:35:27|2023-05-19T06:46:51|03:11:24|dcc-youlab-gpu-09|1|10|20000M||/datacommons/igvf-pm/ENCODE/mutator-slurms|
bmajoros|COMPLETED|scavenger-gpu|2023-05-19T03:38:59|2023-05-19T06:36:14|02:57:15|dcc-vossenlab-gpu-01|1|10|20000M||/datacommons/igvf-pm/ENCODE/mutator-slurms|
bmajoros|COMPLETED|scavenger-gpu|2023-05-19T03:39:16|2023-05-19T06:41:58|03:02:42|dcc-mainsahlab-gpu-02|1|6|20000M||/datacommons/igvf-pm/ENCODE/mutator-slurms|
bmajoros|COMPLETED|scavenger-gpu|2023-05-19T03:39:36|2023-05-19T06:55:30|03:15:54|dcc-mastatlab-gpu-01|1|44|20000M||/datacommons/igvf-pm/ENCODE/mutator-slurms|
bmajoros|COMPLETED|scavenger-gpu|2023-05-19T03:46:52|2023-05-19T06:46:31|02:59:39|dcc-youlab-gpu-03|1|10|20000M||/datacommons/igvf-pm/ENCODE/mutator-slurms|
bmajoros|COMPLETED|scavenger-gpu|2023-05-19T03:47:40|2023-05-19T06:56:14|03:08:34|dcc-youlab-gpu-53|1|10|20000M||/datacommons/igvf-pm/ENCODE/mutator-slurms|
bmajoros|COMPLETED|scavenger-gpu|2023-05-19T03:54:53|2023-05-19T06:57:50|03:02:57|dcc-youlab-gpu-55|1|10|20000M||/datacommons/igvf-pm/ENCODE/mutator-slurms|
bmajoros|COMPLETED|scavenger-gpu|2023-05-19T04:00:48|2023-05-19T07:12:23|03:11:35|dcc-youlab-gpu-38|1|10|20000M||/datacommons/igvf-pm/ENCODE/mutator-slurms|
bmajoros|COMPLETED|scavenger-gpu|2023-05-19T04:01:16|2023-05-19T07:04:18|03:03:02|dcc-youlab-gpu-08|1|10|20000M||/datacommons/igvf-pm/ENCODE/mutator-slurms|
bmajoros|COMPLETED|scavenger-gpu|2023-05-19T04:15:09|2023-05-19T07:16:14|03:01:05|dcc-youlab-gpu-01|1|44|20000M||/datacommons/igvf-pm/ENCODE/mutator-slurms|
bmajoros|COMPLETED|scavenger-gpu|2023-05-19T04:25:03|2023-05-19T07:36:09|03:11:06|dcc-youlab-gpu-34|1|10|20000M||/datacommons/igvf-pm/ENCODE/mutator-slurms|
bmajoros|COMPLETED|scavenger-gpu|2023-05-19T04:31:57|2023-05-19T07:37:44|03:05:47|dcc-youlab-gpu-37|1|10|20000M||/datacommons/igvf-pm/ENCODE/mutator-slurms|
bmajoros|COMPLETED|scavenger-gpu|2023-05-19T04:56:13|2023-05-19T08:02:51|03:06:38|dcc-youlab-gpu-04|1|10|20000M||/datacommons/igvf-pm/ENCODE/mutator-slurms|
bmajoros|COMPLETED|scavenger-gpu|2023-05-19T04:58:58|2023-05-19T06:01:57|01:02:59|dcc-rekerlab-gpu-01|1|8|20000M||/datacommons/igvf-pm/ENCODE/mutator-slurms|
bmajoros|COMPLETED|scavenger-gpu|2023-05-19T05:46:43|2023-05-19T08:40:42|02:53:59|dcc-youlab-gpu-32|1|10|20000M||/datacommons/igvf-pm/ENCODE/mutator-slurms|
bmajoros|COMPLETED|scavenger-gpu|2023-05-19T05:47:36|2023-05-19T08:56:06|03:08:30|dcc-youlab-gpu-12|1|10|20000M||/datacommons/igvf-pm/ENCODE/mutator-slurms|
bmajoros|COMPLETED|scavenger-gpu|2023-05-19T05:54:09|2023-05-19T08:56:18|03:02:09|dcc-youlab-gpu-28|1|10|20000M||/datacommons/igvf-pm/ENCODE/mutator-slurms|
bmajoros|COMPLETED|scavenger-gpu|2023-05-19T05:59:12|2023-05-19T09:02:38|03:03:26|dcc-youlab-gpu-19|1|10|20000M||/datacommons/igvf-pm/ENCODE/mutator-slurms|
bmajoros|COMPLETED|scavenger-gpu|2023-05-19T06:01:58|2023-05-19T08:38:45|02:36:47|dcc-ultrasound-gpu-03|1|19|20000M||/datacommons/igvf-pm/ENCODE/mutator-slurms|
bmajoros|COMPLETED|scavenger-gpu|2023-05-19T06:06:03|2023-05-19T09:01:16|02:55:13|dcc-youlab-gpu-21|1|10|20000M||/datacommons/igvf-pm/ENCODE/mutator-slurms|
bmajoros|COMPLETED|scavenger-gpu|2023-05-19T06:06:41|2023-05-19T09:14:12|03:07:31|dcc-youlab-gpu-30|1|10|20000M||/datacommons/igvf-pm/ENCODE/mutator-slurms|
bmajoros|COMPLETED|scavenger-gpu|2023-05-19T06:18:55|2023-05-19T09:18:00|02:59:05|dcc-youlab-gpu-11|1|10|20000M||/datacommons/igvf-pm/ENCODE/mutator-slurms|
bmajoros|COMPLETED|scavenger-gpu|2023-05-19T06:19:56|2023-05-19T09:23:39|03:03:43|dcc-youlab-gpu-15|1|10|20000M||/datacommons/igvf-pm/ENCODE/mutator-slurms|
bmajoros|COMPLETED|scavenger-gpu|2023-05-19T06:20:27|2023-05-19T09:26:56|03:06:29|dcc-youlab-gpu-18|1|10|20000M||/datacommons/igvf-pm/ENCODE/mutator-slurms|
bmajoros|COMPLETED|scavenger-gpu|2023-05-19T06:21:28|2023-05-19T09:23:00|03:01:32|dcc-youlab-gpu-23|1|10|20000M||/datacommons/igvf-pm/ENCODE/mutator-slurms|
bmajoros|COMPLETED|scavenger-gpu|2023-05-19T06:23:00|2023-05-19T09:21:19|02:58:19|dcc-youlab-gpu-16|1|10|20000M||/datacommons/igvf-pm/ENCODE/mutator-slurms|
bmajoros|COMPLETED|scavenger-gpu|2023-05-19T06:27:39|2023-05-19T09:35:51|03:08:12|dcc-youlab-gpu-13|1|10|20000M||/datacommons/igvf-pm/ENCODE/mutator-slurms|
bmajoros|COMPLETED|scavenger-gpu|2023-05-19T06:31:18|2023-05-19T09:34:52|03:03:34|dcc-youlab-gpu-10|1|10|20000M||/datacommons/igvf-pm/ENCODE/mutator-slurms|
bmajoros|COMPLETED|scavenger-gpu|2023-05-19T06:33:26|2023-05-19T09:35:43|03:02:17|dcc-vossenlab-gpu-03|1|10|20000M||/datacommons/igvf-pm/ENCODE/mutator-slurms|
bmajoros|COMPLETED|scavenger-gpu|2023-05-19T06:36:38|2023-05-19T09:34:55|02:58:17|dcc-vossenlab-gpu-01|1|10|20000M||/datacommons/igvf-pm/ENCODE/mutator-slurms|
bmajoros|COMPLETED|scavenger-gpu|2023-05-19T06:37:10|2023-05-19T09:45:58|03:08:48|dcc-youlab-gpu-14|1|10|20000M||/datacommons/igvf-pm/ENCODE/mutator-slurms|
bmajoros|COMPLETED|scavenger-gpu|2023-05-19T06:38:46|2023-05-19T09:43:47|03:05:01|dcc-youlab-gpu-02|1|10|20000M||/datacommons/igvf-pm/ENCODE/mutator-slurms|
bmajoros|COMPLETED|scavenger-gpu|2023-05-19T06:42:31|2023-05-19T07:52:31|01:10:00|dcc-rekerlab-gpu-01|1|8|20000M||/datacommons/igvf-pm/ENCODE/mutator-slurms|
bmajoros|COMPLETED|scavenger-gpu|2023-05-19T06:46:46|2023-05-19T09:50:23|03:03:37|dcc-youlab-gpu-03|1|10|20000M||/datacommons/igvf-pm/ENCODE/mutator-slurms|
bmajoros|COMPLETED|scavenger-gpu|2023-05-19T06:47:18|2023-05-19T09:55:05|03:07:47|dcc-youlab-gpu-09|1|10|20000M||/datacommons/igvf-pm/ENCODE/mutator-slurms|
bmajoros|COMPLETED|scavenger-gpu|2023-05-19T06:47:18|2023-05-19T09:55:26|03:08:08|dcc-pbenfeylab-gpu-03|1|10|20000M||/datacommons/igvf-pm/ENCODE/mutator-slurms|
bmajoros|COMPLETED|scavenger-gpu|2023-05-19T06:48:54|2023-05-19T09:59:56|03:11:02|dcc-vossenlab-gpu-04|1|10|20000M||/datacommons/igvf-pm/ENCODE/mutator-slurms|
bmajoros|COMPLETED|scavenger-gpu|2023-05-19T06:55:51|2023-05-19T09:56:56|03:01:05|dcc-mastatlab-gpu-01|1|44|20000M||/datacommons/igvf-pm/ENCODE/mutator-slurms|
bmajoros|COMPLETED|scavenger-gpu|2023-05-19T06:56:22|2023-05-19T09:58:32|03:02:10|dcc-youlab-gpu-53|1|10|20000M||/datacommons/igvf-pm/ENCODE/mutator-slurms|
bmajoros|COMPLETED|scavenger-gpu|2023-05-19T06:57:58|2023-05-19T10:03:08|03:05:10|dcc-youlab-gpu-55|1|10|20000M||/datacommons/igvf-pm/ENCODE/mutator-slurms|
bmajoros|COMPLETED|scavenger-gpu|2023-05-19T07:04:23|2023-05-19T10:05:23|03:01:00|dcc-youlab-gpu-08|1|10|20000M||/datacommons/igvf-pm/ENCODE/mutator-slurms|
bmajoros|COMPLETED|scavenger-gpu|2023-05-19T07:12:55|2023-05-19T10:16:40|03:03:45|dcc-youlab-gpu-38|1|10|20000M||/datacommons/igvf-pm/ENCODE/mutator-slurms|
bmajoros|COMPLETED|scavenger-gpu|2023-05-19T07:16:39|2023-05-19T10:22:25|03:05:46|dcc-youlab-gpu-01|1|44|20000M||/datacommons/igvf-pm/ENCODE/mutator-slurms|
bmajoros|COMPLETED|scavenger-gpu|2023-05-19T07:36:14|2023-05-19T10:50:24|03:14:10|dcc-youlab-gpu-34|1|10|20000M||/datacommons/igvf-pm/ENCODE/mutator-slurms|
bmajoros|COMPLETED|scavenger-gpu|2023-05-19T07:37:53|2023-05-19T10:41:14|03:03:21|dcc-youlab-gpu-37|1|10|20000M||/datacommons/igvf-pm/ENCODE/mutator-slurms|
bmajoros|COMPLETED|scavenger-gpu|2023-05-19T07:52:43|2023-05-19T08:57:02|01:04:19|dcc-rekerlab-gpu-01|1|8|20000M||/datacommons/igvf-pm/ENCODE/mutator-slurms|
bmajoros|COMPLETED|scavenger-gpu|2023-05-19T08:03:31|2023-05-19T11:18:40|03:15:09|dcc-youlab-gpu-04|1|10|20000M||/datacommons/igvf-pm/ENCODE/mutator-slurms|
bmajoros|COMPLETED|scavenger-gpu|2023-05-19T08:39:09|2023-05-19T11:20:42|02:41:33|dcc-ultrasound-gpu-03|1|19|20000M||/datacommons/igvf-pm/ENCODE/mutator-slurms|
bmajoros|COMPLETED|scavenger-gpu|2023-05-19T08:40:59|2023-05-19T11:42:19|03:01:20|dcc-youlab-gpu-32|1|10|20000M||/datacommons/igvf-pm/ENCODE/mutator-slurms|
bmajoros|COMPLETED|scavenger-gpu|2023-05-19T08:56:38|2023-05-19T11:59:29|03:02:51|dcc-youlab-gpu-28|1|10|20000M||/datacommons/igvf-pm/ENCODE/mutator-slurms|
bmajoros|COMPLETED|scavenger-gpu|2023-05-19T08:56:38|2023-05-19T12:00:18|03:03:40|dcc-youlab-gpu-12|1|10|20000M||/datacommons/igvf-pm/ENCODE/mutator-slurms|
bmajoros|COMPLETED|scavenger-gpu|2023-05-19T08:57:15|2023-05-19T10:06:20|01:09:05|dcc-rekerlab-gpu-01|1|8|20000M||/datacommons/igvf-pm/ENCODE/mutator-slurms|
bmajoros|COMPLETED|scavenger-gpu|2023-05-19T09:01:44|2023-05-19T12:04:15|03:02:31|dcc-youlab-gpu-21|1|10|20000M||/datacommons/igvf-pm/ENCODE/mutator-slurms|
bmajoros|COMPLETED|scavenger-gpu|2023-05-19T09:03:00|2023-05-19T11:59:29|02:56:29|dcc-youlab-gpu-19|1|10|20000M||/datacommons/igvf-pm/ENCODE/mutator-slurms|
bmajoros|COMPLETED|scavenger-gpu|2023-05-19T09:15:00|2023-05-19T12:16:19|03:01:19|dcc-youlab-gpu-30|1|10|20000M||/datacommons/igvf-pm/ENCODE/mutator-slurms|
bmajoros|COMPLETED|scavenger-gpu|2023-05-19T09:18:19|2023-05-19T12:22:02|03:03:43|dcc-youlab-gpu-11|1|10|20000M||/datacommons/igvf-pm/ENCODE/mutator-slurms|
bmajoros|COMPLETED|scavenger-gpu|2023-05-19T09:21:44|2023-05-19T12:26:05|03:04:21|dcc-youlab-gpu-16|1|10|20000M||/datacommons/igvf-pm/ENCODE/mutator-slurms|
bmajoros|COMPLETED|scavenger-gpu|2023-05-19T09:23:44|2023-05-19T12:27:49|03:04:05|dcc-youlab-gpu-23|1|10|20000M||/datacommons/igvf-pm/ENCODE/mutator-slurms|
bmajoros|COMPLETED|scavenger-gpu|2023-05-19T09:24:23|2023-05-19T12:29:07|03:04:44|dcc-youlab-gpu-15|1|10|20000M||/datacommons/igvf-pm/ENCODE/mutator-slurms|
bmajoros|COMPLETED|scavenger-gpu|2023-05-19T09:27:32|2023-05-19T12:41:55|03:14:23|dcc-youlab-gpu-18|1|10|20000M||/datacommons/igvf-pm/ENCODE/mutator-slurms|
bmajoros|COMPLETED|scavenger-gpu|2023-05-19T09:35:36|2023-05-19T12:38:14|03:02:38|dcc-youlab-gpu-10|1|10|20000M||/datacommons/igvf-pm/ENCODE/mutator-slurms|
bmajoros|PREEMPTED|scavenger-gpu|2023-05-19T09:35:36|2023-05-19T09:55:27|00:19:51|dcc-vossenlab-gpu-01|1|10|20000M||/datacommons/igvf-pm/ENCODE/mutator-slurms|
bmajoros|COMPLETED|scavenger-gpu|2023-05-19T09:36:23|2023-05-19T12:38:39|03:02:16|dcc-youlab-gpu-13|1|10|20000M||/datacommons/igvf-pm/ENCODE/mutator-slurms|
bmajoros|PREEMPTED|scavenger-gpu|2023-05-19T09:36:23|2023-05-19T10:25:34|00:49:11|dcc-vossenlab-gpu-03|1|10|20000M||/datacommons/igvf-pm/ENCODE/mutator-slurms|
bmajoros|COMPLETED|scavenger-gpu|2023-05-19T09:44:37|2023-05-19T12:52:42|03:08:05|dcc-youlab-gpu-02|1|10|20000M||/datacommons/igvf-pm/ENCODE/mutator-slurms|
bmajoros|COMPLETED|scavenger-gpu|2023-05-19T09:46:51|2023-05-19T12:58:11|03:11:20|dcc-youlab-gpu-14|1|10|20000M||/datacommons/igvf-pm/ENCODE/mutator-slurms|
bmajoros|COMPLETED|scavenger-gpu|2023-05-19T09:51:16|2023-05-19T12:46:11|02:54:55|dcc-youlab-gpu-03|1|10|20000M||/datacommons/igvf-pm/ENCODE/mutator-slurms|
bmajoros|COMPLETED|scavenger-gpu|2023-05-19T09:55:47|2023-05-19T13:06:52|03:11:05|dcc-youlab-gpu-09|1|10|20000M||/datacommons/igvf-pm/ENCODE/mutator-slurms|
bmajoros|COMPLETED|scavenger-gpu|2023-05-19T09:55:47|2023-05-19T13:16:20|03:20:33|dcc-pbenfeylab-gpu-03|1|10|20000M||/datacommons/igvf-pm/ENCODE/mutator-slurms|
bmajoros|COMPLETED|scavenger-gpu|2023-05-19T09:56:31|2023-05-19T14:37:50|04:41:19|dcc-ece-gpu-04|1|13|20000M||/datacommons/igvf-pm/ENCODE/mutator-slurms|
bmajoros|COMPLETED|scavenger-gpu|2023-05-19T09:57:15|2023-05-19T13:04:49|03:07:34|dcc-mastatlab-gpu-01|1|44|20000M||/datacommons/igvf-pm/ENCODE/mutator-slurms|
bmajoros|COMPLETED|scavenger-gpu|2023-05-19T09:59:29|2023-05-19T13:07:02|03:07:33|dcc-youlab-gpu-53|1|10|20000M||/datacommons/igvf-pm/ENCODE/mutator-slurms|
bmajoros|COMPLETED|scavenger-gpu|2023-05-19T10:00:16|2023-05-19T13:08:05|03:07:49|dcc-vossenlab-gpu-04|1|10|20000M||/datacommons/igvf-pm/ENCODE/mutator-slurms|
bmajoros|COMPLETED|scavenger-gpu|2023-05-19T10:04:00|2023-05-19T13:04:30|03:00:30|dcc-youlab-gpu-55|1|10|20000M||/datacommons/igvf-pm/ENCODE/mutator-slurms|
bmajoros|PREEMPTED|scavenger-gpu|2023-05-19T10:05:29|2023-05-19T11:44:16|01:38:47|dcc-vossenlab-gpu-01|1|10|20000M||/datacommons/igvf-pm/ENCODE/mutator-slurms|
bmajoros|COMPLETED|scavenger-gpu|2023-05-19T10:07:03|2023-05-19T13:11:09|03:04:06|dcc-youlab-gpu-08|1|10|20000M||/datacommons/igvf-pm/ENCODE/mutator-slurms|
bmajoros|COMPLETED|scavenger-gpu|2023-05-19T10:16:48|2023-05-19T11:24:53|01:08:05|dcc-rekerlab-gpu-01|1|8|20000M||/datacommons/igvf-pm/ENCODE/mutator-slurms|
bmajoros|COMPLETED|scavenger-gpu|2023-05-19T10:22:56|2023-05-19T13:30:22|03:07:26|dcc-youlab-gpu-38|1|10|20000M||/datacommons/igvf-pm/ENCODE/mutator-slurms|
bmajoros|COMPLETED|scavenger-gpu|2023-05-19T10:26:04|2023-05-19T13:30:54|03:04:50|dcc-youlab-gpu-01|1|44|20000M||/datacommons/igvf-pm/ENCODE/mutator-slurms|
bmajoros|COMPLETED|scavenger-gpu|2023-05-19T10:42:02|2023-05-19T13:49:11|03:07:09|dcc-youlab-gpu-37|1|10|20000M||/datacommons/igvf-pm/ENCODE/mutator-slurms|
bmajoros|COMPLETED|scavenger-gpu|2023-05-19T10:51:05|2023-05-19T14:06:32|03:15:27|dcc-youlab-gpu-34|1|10|20000M||/datacommons/igvf-pm/ENCODE/mutator-slurms|
bmajoros|COMPLETED|scavenger-gpu|2023-05-19T11:18:42|2023-05-19T14:22:44|03:04:02|dcc-vossenlab-gpu-03|1|10|20000M||/datacommons/igvf-pm/ENCODE/mutator-slurms|
bmajoros|COMPLETED|scavenger-gpu|2023-05-19T11:21:13|2023-05-19T14:23:05|03:01:52|dcc-youlab-gpu-04|1|10|20000M||/datacommons/igvf-pm/ENCODE/mutator-slurms|
bmajoros|COMPLETED|scavenger-gpu|2023-05-19T11:25:38|2023-05-19T14:10:46|02:45:08|dcc-ultrasound-gpu-03|1|19|20000M||/datacommons/igvf-pm/ENCODE/mutator-slurms|
bmajoros|COMPLETED|scavenger-gpu|2023-05-19T11:43:37|2023-05-19T14:46:30|03:02:53|dcc-youlab-gpu-32|1|10|20000M||/datacommons/igvf-pm/ENCODE/mutator-slurms|
bmajoros|COMPLETED|scavenger-gpu|2023-05-19T11:48:44|2023-05-19T15:08:48|03:20:04|dcc-pbenfeylab-gpu-02|1|10|20000M||/datacommons/igvf-pm/ENCODE/mutator-slurms|
bmajoros|COMPLETED|scavenger-gpu|2023-05-19T12:00:15|2023-05-19T15:06:14|03:05:59|dcc-youlab-gpu-28|1|10|20000M||/datacommons/igvf-pm/ENCODE/mutator-slurms|
bmajoros|COMPLETED|scavenger-gpu|2023-05-19T12:00:15|2023-05-19T14:58:25|02:58:10|dcc-youlab-gpu-19|1|10|20000M||/datacommons/igvf-pm/ENCODE/mutator-slurms|
bmajoros|COMPLETED|scavenger-gpu|2023-05-19T12:01:08|2023-05-19T15:00:54|02:59:46|dcc-youlab-gpu-12|1|10|20000M||/datacommons/igvf-pm/ENCODE/mutator-slurms|
bmajoros|COMPLETED|scavenger-gpu|2023-05-19T12:04:43|2023-05-19T15:02:22|02:57:39|dcc-youlab-gpu-21|1|10|20000M||/datacommons/igvf-pm/ENCODE/mutator-slurms|
bmajoros|COMPLETED|scavenger-gpu|2023-05-19T12:16:41|2023-05-19T15:14:31|02:57:50|dcc-youlab-gpu-30|1|10|20000M||/datacommons/igvf-pm/ENCODE/mutator-slurms|
bmajoros|COMPLETED|scavenger-gpu|2023-05-19T12:22:05|2023-05-19T15:28:58|03:06:53|dcc-vossenlab-gpu-01|1|10|20000M||/datacommons/igvf-pm/ENCODE/mutator-slurms|
bmajoros|COMPLETED|scavenger-gpu|2023-05-19T12:26:40|2023-05-19T15:32:03|03:05:23|dcc-youlab-gpu-16|1|10|20000M||/datacommons/igvf-pm/ENCODE/mutator-slurms|
bmajoros|COMPLETED|scavenger-gpu|2023-05-19T12:28:14|2023-05-19T15:25:11|02:56:57|dcc-youlab-gpu-23|1|10|20000M||/datacommons/igvf-pm/ENCODE/mutator-slurms|
bmajoros|COMPLETED|scavenger-gpu|2023-05-19T12:29:51|2023-05-19T15:31:57|03:02:06|dcc-youlab-gpu-15|1|10|20000M||/datacommons/igvf-pm/ENCODE/mutator-slurms|
bmajoros|COMPLETED|scavenger-gpu|2023-05-19T12:38:46|2023-05-19T15:43:31|03:04:45|dcc-youlab-gpu-11|1|10|20000M||/datacommons/igvf-pm/ENCODE/mutator-slurms|
bmajoros|COMPLETED|scavenger-gpu|2023-05-19T12:38:46|2023-05-19T15:41:46|03:03:00|dcc-youlab-gpu-10|1|10|20000M||/datacommons/igvf-pm/ENCODE/mutator-slurms|
bmajoros|COMPLETED|scavenger-gpu|2023-05-19T12:42:13|2023-05-19T15:44:57|03:02:44|dcc-youlab-gpu-13|1|10|20000M||/datacommons/igvf-pm/ENCODE/mutator-slurms|
bmajoros|COMPLETED|scavenger-gpu|2023-05-19T12:46:54|2023-05-19T15:52:43|03:05:49|dcc-youlab-gpu-18|1|10|20000M||/datacommons/igvf-pm/ENCODE/mutator-slurms|
bmajoros|COMPLETED|scavenger-gpu|2023-05-19T12:53:26|2023-05-19T15:56:25|03:02:59|dcc-youlab-gpu-03|1|10|20000M||/datacommons/igvf-pm/ENCODE/mutator-slurms|
bmajoros|COMPLETED|scavenger-gpu|2023-05-19T12:59:01|2023-05-19T16:05:16|03:06:15|dcc-youlab-gpu-14|1|10|20000M||/datacommons/igvf-pm/ENCODE/mutator-slurms|
bmajoros|COMPLETED|scavenger-gpu|2023-05-19T13:05:10|2023-05-19T16:08:47|03:03:37|dcc-youlab-gpu-55|1|10|20000M||/datacommons/igvf-pm/ENCODE/mutator-slurms|
bmajoros|COMPLETED|scavenger-gpu|2023-05-19T13:05:10|2023-05-19T15:41:32|02:36:22|dcc-youlab-gpu-44|1|10|20000M||/datacommons/igvf-pm/ENCODE/mutator-slurms|
bmajoros|COMPLETED|scavenger-gpu|2023-05-19T13:05:10|2023-05-19T16:03:28|02:58:18|dcc-youlab-gpu-43|1|10|20000M||/datacommons/igvf-pm/ENCODE/mutator-slurms|
bmajoros|COMPLETED|scavenger-gpu|2023-05-19T13:05:11|2023-05-19T16:03:52|02:58:41|dcc-youlab-gpu-42|1|10|20000M||/datacommons/igvf-pm/ENCODE/mutator-slurms|
bmajoros|COMPLETED|scavenger-gpu|2023-05-19T13:05:11|2023-05-19T16:12:05|03:06:54|dcc-youlab-gpu-41|1|10|20000M||/datacommons/igvf-pm/ENCODE/mutator-slurms|
bmajoros|COMPLETED|scavenger-gpu|2023-05-19T13:06:56|2023-05-19T16:11:26|03:04:30|dcc-youlab-gpu-40|1|10|20000M||/datacommons/igvf-pm/ENCODE/mutator-slurms|
bmajoros|COMPLETED|scavenger-gpu|2023-05-19T13:07:54|2023-05-19T16:13:42|03:05:48|dcc-youlab-gpu-53|1|10|20000M||/datacommons/igvf-pm/ENCODE/mutator-slurms|
bmajoros|COMPLETED|scavenger-gpu|2023-05-19T13:08:51|2023-05-19T16:07:53|02:59:02|dcc-youlab-gpu-36|1|10|20000M||/datacommons/igvf-pm/ENCODE/mutator-slurms|
bmajoros|COMPLETED|scavenger-gpu|2023-05-19T13:11:46|2023-05-19T16:17:14|03:05:28|dcc-youlab-gpu-29|1|10|20000M||/datacommons/igvf-pm/ENCODE/mutator-slurms|
bmajoros|COMPLETED|scavenger-gpu|2023-05-19T13:16:32|2023-05-19T16:13:16|02:56:44|dcc-youlab-gpu-27|1|10|20000M||/datacommons/igvf-pm/ENCODE/mutator-slurms|
bmajoros|COMPLETED|scavenger-gpu|2023-05-19T13:31:12|2023-05-19T16:43:54|03:12:42|dcc-youlab-gpu-38|1|10|20000M||/datacommons/igvf-pm/ENCODE/mutator-slurms|
bmajoros|COMPLETED|scavenger-gpu|2023-05-19T13:31:12|2023-05-19T16:38:10|03:06:58|dcc-youlab-gpu-24|1|10|20000M||/datacommons/igvf-pm/ENCODE/mutator-slurms|
bmajoros|COMPLETED|scavenger-gpu|2023-05-19T13:31:12|2023-05-19T16:35:57|03:04:45|dcc-youlab-gpu-09|1|10|20000M||/datacommons/igvf-pm/ENCODE/mutator-slurms|
bmajoros|COMPLETED|scavenger-gpu|2023-05-19T13:31:12|2023-05-19T16:36:28|03:05:16|dcc-youlab-gpu-08|1|10|20000M||/datacommons/igvf-pm/ENCODE/mutator-slurms|
bmajoros|COMPLETED|scavenger-gpu|2023-05-19T13:31:12|2023-05-19T16:38:46|03:07:34|dcc-youlab-gpu-02|1|10|20000M||/datacommons/igvf-pm/ENCODE/mutator-slurms|
bmajoros|COMPLETED|scavenger-gpu|2023-05-19T13:49:30|2023-05-19T16:48:28|02:58:58|dcc-youlab-gpu-37|1|10|20000M||/datacommons/igvf-pm/ENCODE/mutator-slurms|
bmajoros|COMPLETED|scavenger-gpu|2023-05-19T14:06:59|2023-05-19T17:19:18|03:12:19|dcc-youlab-gpu-34|1|10|20000M||/datacommons/igvf-pm/ENCODE/mutator-slurms|
bmajoros|COMPLETED|scavenger-gpu|2023-05-19T14:23:22|2023-05-19T17:29:05|03:05:43|dcc-youlab-gpu-04|1|10|20000M||/datacommons/igvf-pm/ENCODE/mutator-slurms|
bmajoros|COMPLETED|scavenger-gpu|2023-05-19T14:31:14|2023-05-19T17:12:34|02:41:20|dcc-ultrasound-gpu-02|1|19|20000M||/datacommons/igvf-pm/ENCODE/mutator-slurms|
bmajoros|COMPLETED|scavenger-gpu|2023-05-19T14:31:14|2023-05-19T15:39:31|01:08:17|dcc-rekerlab-gpu-01|1|8|20000M||/datacommons/igvf-pm/ENCODE/mutator-slurms|
bmajoros|COMPLETED|scavenger-gpu|2023-05-19T14:31:14|2023-05-19T17:49:52|03:18:38|dcc-pbenfeylab-gpu-03|1|10|20000M||/datacommons/igvf-pm/ENCODE/mutator-slurms|
bmajoros|COMPLETED|scavenger-gpu|2023-05-19T14:42:27|2023-05-19T17:52:29|03:10:02|dcc-vossenlab-gpu-04|1|10|20000M||/datacommons/igvf-pm/ENCODE/mutator-slurms|
bmajoros|COMPLETED|scavenger-gpu|2023-05-19T14:46:56|2023-05-19T17:50:17|03:03:21|dcc-youlab-gpu-32|1|10|20000M||/datacommons/igvf-pm/ENCODE/mutator-slurms|
bmajoros|COMPLETED|scavenger-gpu|2023-05-19T14:59:11|2023-05-19T17:58:10|02:58:59|dcc-youlab-gpu-19|1|10|20000M||/datacommons/igvf-pm/ENCODE/mutator-slurms|
bmajoros|COMPLETED|scavenger-gpu|2023-05-19T15:01:11|2023-05-19T17:55:26|02:54:15|dcc-youlab-gpu-12|1|10|20000M||/datacommons/igvf-pm/ENCODE/mutator-slurms|
bmajoros|COMPLETED|scavenger-gpu|2023-05-19T15:02:43|2023-05-19T18:05:15|03:02:32|dcc-youlab-gpu-21|1|10|20000M||/datacommons/igvf-pm/ENCODE/mutator-slurms|
bmajoros|COMPLETED|scavenger-gpu|2023-05-19T15:07:19|2023-05-19T18:01:43|02:54:24|dcc-youlab-gpu-28|1|10|20000M||/datacommons/igvf-pm/ENCODE/mutator-slurms|
bmajoros|COMPLETED|scavenger-gpu|2023-05-19T15:09:45|2023-05-19T18:38:14|03:28:29|dcc-pbenfeylab-gpu-02|1|10|20000M||/datacommons/igvf-pm/ENCODE/mutator-slurms|
bmajoros|COMPLETED|scavenger-gpu|2023-05-19T15:14:34|2023-05-19T18:14:17|02:59:43|dcc-youlab-gpu-30|1|10|20000M||/datacommons/igvf-pm/ENCODE/mutator-slurms|
bmajoros|COMPLETED|scavenger-gpu|2023-05-19T15:25:12|2023-05-19T18:26:30|03:01:18|dcc-youlab-gpu-23|1|10|20000M||/datacommons/igvf-pm/ENCODE/mutator-slurms|
bmajoros|COMPLETED|scavenger-gpu|2023-05-19T15:28:59|2023-05-19T18:30:28|03:01:29|dcc-vossenlab-gpu-01|1|10|20000M||/datacommons/igvf-pm/ENCODE/mutator-slurms|
bmajoros|COMPLETED|scavenger-gpu|2023-05-19T15:31:59|2023-05-19T18:40:58|03:08:59|dcc-youlab-gpu-15|1|10|20000M||/datacommons/igvf-pm/ENCODE/mutator-slurms|
bmajoros|COMPLETED|scavenger-gpu|2023-05-19T15:32:06|2023-05-19T18:34:17|03:02:11|dcc-youlab-gpu-16|1|10|20000M||/datacommons/igvf-pm/ENCODE/mutator-slurms|
bmajoros|COMPLETED|scavenger-gpu|2023-05-19T15:39:33|2023-05-19T16:48:51|01:09:18|dcc-rekerlab-gpu-01|1|8|20000M||/datacommons/igvf-pm/ENCODE/mutator-slurms|
bmajoros|COMPLETED|scavenger-gpu|2023-05-19T15:41:35|2023-05-19T18:43:43|03:02:08|dcc-youlab-gpu-44|1|10|20000M||/datacommons/igvf-pm/ENCODE/mutator-slurms|
bmajoros|COMPLETED|scavenger-gpu|2023-05-19T15:41:48|2023-05-19T18:46:54|03:05:06|dcc-youlab-gpu-10|1|10|20000M||/datacommons/igvf-pm/ENCODE/mutator-slurms|
bmajoros|COMPLETED|scavenger-gpu|2023-05-19T15:43:31|2023-05-19T18:47:10|03:03:39|dcc-youlab-gpu-11|1|10|20000M||/datacommons/igvf-pm/ENCODE/mutator-slurms|
bmajoros|COMPLETED|scavenger-gpu|2023-05-19T15:44:57|2023-05-19T18:49:59|03:05:02|dcc-youlab-gpu-13|1|10|20000M||/datacommons/igvf-pm/ENCODE/mutator-slurms|
bmajoros|COMPLETED|scavenger-gpu|2023-05-19T15:52:44|2023-05-19T19:01:14|03:08:30|dcc-youlab-gpu-18|1|10|20000M||/datacommons/igvf-pm/ENCODE/mutator-slurms|
bmajoros|COMPLETED|scavenger-gpu|2023-05-19T15:56:26|2023-05-19T19:00:22|03:03:56|dcc-youlab-gpu-03|1|10|20000M||/datacommons/igvf-pm/ENCODE/mutator-slurms|
bmajoros|COMPLETED|scavenger-gpu|2023-05-19T16:03:29|2023-05-19T18:57:12|02:53:43|dcc-youlab-gpu-43|1|10|20000M||/datacommons/igvf-pm/ENCODE/mutator-slurms|
bmajoros|COMPLETED|scavenger-gpu|2023-05-19T16:03:54|2023-05-19T19:10:45|03:06:51|dcc-youlab-gpu-42|1|10|20000M||/datacommons/igvf-pm/ENCODE/mutator-slurms|
bmajoros|COMPLETED|scavenger-gpu|2023-05-19T16:05:18|2023-05-19T19:09:39|03:04:21|dcc-youlab-gpu-14|1|10|20000M||/datacommons/igvf-pm/ENCODE/mutator-slurms|
bmajoros|COMPLETED|scavenger-gpu|2023-05-19T16:07:53|2023-05-19T19:12:01|03:04:08|dcc-youlab-gpu-36|1|10|20000M||/datacommons/igvf-pm/ENCODE/mutator-slurms|
bmajoros|COMPLETED|scavenger-gpu|2023-05-19T16:08:49|2023-05-19T19:09:17|03:00:28|dcc-youlab-gpu-55|1|10|20000M||/datacommons/igvf-pm/ENCODE/mutator-slurms|
bmajoros|COMPLETED|scavenger-gpu|2023-05-19T16:11:27|2023-05-19T19:15:48|03:04:21|dcc-youlab-gpu-40|1|10|20000M||/datacommons/igvf-pm/ENCODE/mutator-slurms|
bmajoros|COMPLETED|scavenger-gpu|2023-05-19T16:12:05|2023-05-19T19:12:16|03:00:11|dcc-youlab-gpu-41|1|10|20000M||/datacommons/igvf-pm/ENCODE/mutator-slurms|
bmajoros|COMPLETED|scavenger-gpu|2023-05-19T16:13:17|2023-05-19T19:11:29|02:58:12|dcc-youlab-gpu-27|1|10|20000M||/datacommons/igvf-pm/ENCODE/mutator-slurms|
bmajoros|COMPLETED|scavenger-gpu|2023-05-19T16:13:43|2023-05-19T19:22:05|03:08:22|dcc-youlab-gpu-53|1|10|20000M||/datacommons/igvf-pm/ENCODE/mutator-slurms|
bmajoros|COMPLETED|scavenger-gpu|2023-05-19T16:17:14|2023-05-19T19:15:24|02:58:10|dcc-youlab-gpu-29|1|10|20000M||/datacommons/igvf-pm/ENCODE/mutator-slurms|
bmajoros|COMPLETED|scavenger-gpu|2023-05-19T16:36:00|2023-05-19T19:42:06|03:06:06|dcc-youlab-gpu-09|1|10|20000M||/datacommons/igvf-pm/ENCODE/mutator-slurms|
bmajoros|COMPLETED|scavenger-gpu|2023-05-19T16:36:29|2023-05-19T19:39:18|03:02:49|dcc-youlab-gpu-08|1|10|20000M||/datacommons/igvf-pm/ENCODE/mutator-slurms|
bmajoros|COMPLETED|scavenger-gpu|2023-05-19T16:38:13|2023-05-19T19:37:14|02:59:01|dcc-youlab-gpu-24|1|10|20000M||/datacommons/igvf-pm/ENCODE/mutator-slurms|
bmajoros|COMPLETED|scavenger-gpu|2023-05-19T16:38:49|2023-05-19T19:47:02|03:08:13|dcc-youlab-gpu-02|1|10|20000M||/datacommons/igvf-pm/ENCODE/mutator-slurms|
bmajoros|COMPLETED|scavenger-gpu|2023-05-19T16:43:58|2023-05-19T19:51:38|03:07:40|dcc-youlab-gpu-38|1|10|20000M||/datacommons/igvf-pm/ENCODE/mutator-slurms|
bmajoros|COMPLETED|scavenger-gpu|2023-05-19T16:48:30|2023-05-19T19:48:40|03:00:10|dcc-youlab-gpu-37|1|10|20000M||/datacommons/igvf-pm/ENCODE/mutator-slurms|
bmajoros|COMPLETED|scavenger-gpu|2023-05-19T16:48:53|2023-05-19T17:56:40|01:07:47|dcc-rekerlab-gpu-01|1|8|20000M||/datacommons/igvf-pm/ENCODE/mutator-slurms|
bmajoros|COMPLETED|scavenger-gpu|2023-05-19T17:12:36|2023-05-19T19:46:06|02:33:30|dcc-ultrasound-gpu-02|1|19|20000M||/datacommons/igvf-pm/ENCODE/mutator-slurms|
bmajoros|COMPLETED|scavenger-gpu|2023-05-19T17:19:20|2023-05-19T20:34:41|03:15:21|dcc-youlab-gpu-34|1|10|20000M||/datacommons/igvf-pm/ENCODE/mutator-slurms|
bmajoros|COMPLETED|scavenger-gpu|2023-05-19T17:29:17|2023-05-19T20:35:11|03:05:54|dcc-youlab-gpu-04|1|10|20000M||/datacommons/igvf-pm/ENCODE/mutator-slurms|
bmajoros|COMPLETED|scavenger-gpu|2023-05-19T17:50:03|2023-05-19T21:03:50|03:13:47|dcc-pbenfeylab-gpu-03|1|10|20000M||/datacommons/igvf-pm/ENCODE/mutator-slurms|
bmajoros|COMPLETED|scavenger-gpu|2023-05-19T17:50:33|2023-05-19T20:54:02|03:03:29|dcc-youlab-gpu-32|1|10|20000M||/datacommons/igvf-pm/ENCODE/mutator-slurms|
bmajoros|COMPLETED|scavenger-gpu|2023-05-19T17:52:33|2023-05-19T20:58:58|03:06:25|dcc-vossenlab-gpu-04|1|10|20000M||/datacommons/igvf-pm/ENCODE/mutator-slurms|
bmajoros|COMPLETED|scavenger-gpu|2023-05-19T17:55:35|2023-05-19T20:56:05|03:00:30|dcc-youlab-gpu-12|1|10|20000M||/datacommons/igvf-pm/ENCODE/mutator-slurms|
bmajoros|COMPLETED|scavenger-gpu|2023-05-19T17:57:02|2023-05-19T18:57:50|01:00:48|dcc-rekerlab-gpu-01|1|8|20000M||/datacommons/igvf-pm/ENCODE/mutator-slurms|
bmajoros|COMPLETED|scavenger-gpu|2023-05-19T17:58:33|2023-05-19T21:00:07|03:01:34|dcc-youlab-gpu-19|1|10|20000M||/datacommons/igvf-pm/ENCODE/mutator-slurms|
bmajoros|COMPLETED|scavenger-gpu|2023-05-19T18:01:51|2023-05-19T21:06:39|03:04:48|dcc-youlab-gpu-28|1|10|20000M||/datacommons/igvf-pm/ENCODE/mutator-slurms|
bmajoros|COMPLETED|scavenger-gpu|2023-05-19T18:05:24|2023-05-19T20:59:16|02:53:52|dcc-youlab-gpu-21|1|10|20000M||/datacommons/igvf-pm/ENCODE/mutator-slurms|
bmajoros|COMPLETED|scavenger-gpu|2023-05-19T18:14:58|2023-05-19T21:19:44|03:04:46|dcc-youlab-gpu-30|1|10|20000M||/datacommons/igvf-pm/ENCODE/mutator-slurms|
bmajoros|COMPLETED|scavenger-gpu|2023-05-19T18:27:02|2023-05-19T21:32:05|03:05:03|dcc-youlab-gpu-23|1|10|20000M||/datacommons/igvf-pm/ENCODE/mutator-slurms|
bmajoros|COMPLETED|scavenger-gpu|2023-05-19T18:30:42|2023-05-19T21:37:50|03:07:08|dcc-vossenlab-gpu-01|1|10|20000M||/datacommons/igvf-pm/ENCODE/mutator-slurms|
bmajoros|COMPLETED|scavenger-gpu|2023-05-19T18:34:39|2023-05-19T21:38:33|03:03:54|dcc-youlab-gpu-16|1|10|20000M||/datacommons/igvf-pm/ENCODE/mutator-slurms|
bmajoros|COMPLETED|scavenger-gpu|2023-05-19T18:38:40|2023-05-19T22:02:21|03:23:41|dcc-pbenfeylab-gpu-02|1|10|20000M||/datacommons/igvf-pm/ENCODE/mutator-slurms|
bmajoros|COMPLETED|scavenger-gpu|2023-05-19T18:41:23|2023-05-19T21:46:20|03:04:57|dcc-youlab-gpu-15|1|10|20000M||/datacommons/igvf-pm/ENCODE/mutator-slurms|
bmajoros|COMPLETED|scavenger-gpu|2023-05-19T18:44:21|2023-05-19T21:49:44|03:05:23|dcc-youlab-gpu-44|1|10|20000M||/datacommons/igvf-pm/ENCODE/mutator-slurms|
bmajoros|COMPLETED|scavenger-gpu|2023-05-19T18:47:31|2023-05-19T21:49:39|03:02:08|dcc-youlab-gpu-11|1|10|20000M||/datacommons/igvf-pm/ENCODE/mutator-slurms|
bmajoros|COMPLETED|scavenger-gpu|2023-05-19T18:47:31|2023-05-19T21:46:39|02:59:08|dcc-youlab-gpu-10|1|10|20000M||/datacommons/igvf-pm/ENCODE/mutator-slurms|
bmajoros|COMPLETED|scavenger-gpu|2023-05-19T18:50:34|2023-05-19T21:56:03|03:05:29|dcc-youlab-gpu-13|1|10|20000M||/datacommons/igvf-pm/ENCODE/mutator-slurms|
bmajoros|COMPLETED|scavenger-gpu|2023-05-19T18:57:23|2023-05-19T21:57:05|02:59:42|dcc-youlab-gpu-43|1|10|20000M||/datacommons/igvf-pm/ENCODE/mutator-slurms|
bmajoros|COMPLETED|scavenger-gpu|2023-05-19T18:57:59|2023-05-19T20:06:52|01:08:53|dcc-rekerlab-gpu-01|1|8|20000M||/datacommons/igvf-pm/ENCODE/mutator-slurms|
bmajoros|COMPLETED|scavenger-gpu|2023-05-19T19:00:44|2023-05-19T21:59:55|02:59:11|dcc-youlab-gpu-03|1|10|20000M||/datacommons/igvf-pm/ENCODE/mutator-slurms|
bmajoros|COMPLETED|scavenger-gpu|2023-05-19T19:01:28|2023-05-19T22:01:54|03:00:26|dcc-youlab-gpu-18|1|10|20000M||/datacommons/igvf-pm/ENCODE/mutator-slurms|
bmajoros|COMPLETED|scavenger-gpu|2023-05-19T19:09:42|2023-05-19T22:14:37|03:04:55|dcc-youlab-gpu-55|1|10|20000M||/datacommons/igvf-pm/ENCODE/mutator-slurms|
bmajoros|COMPLETED|scavenger-gpu|2023-05-19T19:10:23|2023-05-19T22:11:32|03:01:09|dcc-youlab-gpu-14|1|10|20000M||/datacommons/igvf-pm/ENCODE/mutator-slurms|
bmajoros|COMPLETED|scavenger-gpu|2023-05-19T19:11:01|2023-05-19T22:07:54|02:56:53|dcc-youlab-gpu-42|1|10|20000M||/datacommons/igvf-pm/ENCODE/mutator-slurms|
bmajoros|COMPLETED|scavenger-gpu|2023-05-19T19:11:41|2023-05-19T22:15:03|03:03:22|dcc-youlab-gpu-27|1|10|20000M||/datacommons/igvf-pm/ENCODE/mutator-slurms|
bmajoros|COMPLETED|scavenger-gpu|2023-05-19T19:12:21|2023-05-19T22:07:16|02:54:55|dcc-youlab-gpu-36|1|10|20000M||/datacommons/igvf-pm/ENCODE/mutator-slurms|
bmajoros|COMPLETED|scavenger-gpu|2023-05-19T19:13:00|2023-05-19T22:18:35|03:05:35|dcc-youlab-gpu-41|1|10|20000M||/datacommons/igvf-pm/ENCODE/mutator-slurms|
bmajoros|COMPLETED|scavenger-gpu|2023-05-19T19:15:44|2023-05-19T22:13:45|02:58:01|dcc-youlab-gpu-29|1|10|20000M||/datacommons/igvf-pm/ENCODE/mutator-slurms|
bmajoros|COMPLETED|scavenger-gpu|2023-05-19T19:16:21|2023-05-19T22:13:58|02:57:37|dcc-youlab-gpu-40|1|10|20000M||/datacommons/igvf-pm/ENCODE/mutator-slurms|
bmajoros|COMPLETED|scavenger-gpu|2023-05-19T19:22:16|2023-05-19T22:21:39|02:59:23|dcc-youlab-gpu-53|1|10|20000M||/datacommons/igvf-pm/ENCODE/mutator-slurms|
bmajoros|COMPLETED|scavenger-gpu|2023-05-19T19:37:19|2023-05-19T22:40:19|03:03:00|dcc-youlab-gpu-24|1|10|20000M||/datacommons/igvf-pm/ENCODE/mutator-slurms|
bmajoros|COMPLETED|scavenger-gpu|2023-05-19T19:39:39|2023-05-19T22:47:12|03:07:33|dcc-youlab-gpu-08|1|10|20000M||/datacommons/igvf-pm/ENCODE/mutator-slurms|
bmajoros|COMPLETED|scavenger-gpu|2023-05-19T19:42:22|2023-05-19T22:44:09|03:01:47|dcc-youlab-gpu-09|1|10|20000M||/datacommons/igvf-pm/ENCODE/mutator-slurms|
bmajoros|COMPLETED|scavenger-gpu|2023-05-19T19:46:21|2023-05-19T22:19:08|02:32:47|dcc-ultrasound-gpu-02|1|19|20000M||/datacommons/igvf-pm/ENCODE/mutator-slurms|
bmajoros|COMPLETED|scavenger-gpu|2023-05-19T19:47:40|2023-05-19T22:52:41|03:05:01|dcc-youlab-gpu-02|1|10|20000M||/datacommons/igvf-pm/ENCODE/mutator-slurms|
bmajoros|COMPLETED|scavenger-gpu|2023-05-19T19:49:00|2023-05-19T22:50:15|03:01:15|dcc-youlab-gpu-37|1|10|20000M||/datacommons/igvf-pm/ENCODE/mutator-slurms|
bmajoros|COMPLETED|scavenger-gpu|2023-05-19T19:52:25|2023-05-19T22:59:30|03:07:05|dcc-youlab-gpu-38|1|10|20000M||/datacommons/igvf-pm/ENCODE/mutator-slurms|
bmajoros|COMPLETED|scavenger-gpu|2023-05-19T20:07:20|2023-05-19T21:13:26|01:06:06|dcc-rekerlab-gpu-01|1|8|20000M||/datacommons/igvf-pm/ENCODE/mutator-slurms|
bmajoros|COMPLETED|scavenger-gpu|2023-05-19T20:35:04|2023-05-19T23:47:10|03:12:06|dcc-youlab-gpu-34|1|10|20000M||/datacommons/igvf-pm/ENCODE/mutator-slurms|
bmajoros|COMPLETED|scavenger-gpu|2023-05-19T20:35:55|2023-05-19T23:39:24|03:03:29|dcc-youlab-gpu-04|1|10|20000M||/datacommons/igvf-pm/ENCODE/mutator-slurms|
bmajoros|COMPLETED|scavenger-gpu|2023-05-19T20:54:55|2023-05-19T23:55:45|03:00:50|dcc-youlab-gpu-32|1|10|20000M||/datacommons/igvf-pm/ENCODE/mutator-slurms|
bmajoros|COMPLETED|scavenger-gpu|2023-05-19T20:56:11|2023-05-20T00:00:59|03:04:48|dcc-youlab-gpu-12|1|10|20000M||/datacommons/igvf-pm/ENCODE/mutator-slurms|
bmajoros|COMPLETED|scavenger-gpu|2023-05-19T20:59:11|2023-05-20T00:02:47|03:03:36|dcc-youlab-gpu-07|1|10|20000M||/datacommons/igvf-pm/ENCODE/mutator-slurms|
bmajoros|COMPLETED|scavenger-gpu|2023-05-19T21:00:14|2023-05-20T00:00:30|03:00:16|dcc-youlab-gpu-21|1|10|20000M||/datacommons/igvf-pm/ENCODE/mutator-slurms|
bmajoros|COMPLETED|scavenger-gpu|2023-05-19T21:00:14|2023-05-19T23:52:22|02:52:08|dcc-youlab-gpu-19|1|10|20000M||/datacommons/igvf-pm/ENCODE/mutator-slurms|
bmajoros|COMPLETED|scavenger-gpu|2023-05-19T21:04:16|2023-05-20T00:17:46|03:13:30|dcc-pbenfeylab-gpu-03|1|10|20000M||/datacommons/igvf-pm/ENCODE/mutator-slurms|
bmajoros|COMPLETED|scavenger-gpu|2023-05-19T21:07:00|2023-05-20T00:00:32|02:53:32|dcc-youlab-gpu-28|1|10|20000M||/datacommons/igvf-pm/ENCODE/mutator-slurms|
bmajoros|COMPLETED|scavenger-gpu|2023-05-19T21:13:45|2023-05-19T22:19:05|01:05:20|dcc-rekerlab-gpu-01|1|8|20000M||/datacommons/igvf-pm/ENCODE/mutator-slurms|
bmajoros|COMPLETED|scavenger-gpu|2023-05-19T21:20:20|2023-05-20T00:23:38|03:03:18|dcc-youlab-gpu-30|1|10|20000M||/datacommons/igvf-pm/ENCODE/mutator-slurms|
bmajoros|COMPLETED|scavenger-gpu|2023-05-19T21:32:26|2023-05-20T00:36:11|03:03:45|dcc-youlab-gpu-23|1|10|20000M||/datacommons/igvf-pm/ENCODE/mutator-slurms|
bmajoros|COMPLETED|scavenger-gpu|2023-05-19T21:38:25|2023-05-20T00:45:20|03:06:55|dcc-vossenlab-gpu-01|1|10|20000M||/datacommons/igvf-pm/ENCODE/mutator-slurms|
bmajoros|COMPLETED|scavenger-gpu|2023-05-19T21:39:26|2023-05-20T00:40:38|03:01:12|dcc-youlab-gpu-16|1|10|20000M||/datacommons/igvf-pm/ENCODE/mutator-slurms|
bmajoros|COMPLETED|scavenger-gpu|2023-05-19T21:46:32|2023-05-20T00:58:03|03:11:31|dcc-youlab-gpu-15|1|10|20000M||/datacommons/igvf-pm/ENCODE/mutator-slurms|
bmajoros|COMPLETED|scavenger-gpu|2023-05-19T21:47:21|2023-05-20T00:55:54|03:08:33|dcc-youlab-gpu-10|1|10|20000M||/datacommons/igvf-pm/ENCODE/mutator-slurms|
bmajoros|COMPLETED|scavenger-gpu|2023-05-19T21:50:32|2023-05-20T00:56:32|03:06:00|dcc-youlab-gpu-44|1|10|20000M||/datacommons/igvf-pm/ENCODE/mutator-slurms|
bmajoros|COMPLETED|scavenger-gpu|2023-05-19T21:50:32|2023-05-20T00:54:34|03:04:02|dcc-youlab-gpu-11|1|10|20000M||/datacommons/igvf-pm/ENCODE/mutator-slurms|
bmajoros|COMPLETED|scavenger-gpu|2023-05-19T21:56:35|2023-05-20T00:56:44|03:00:09|dcc-youlab-gpu-13|1|10|20000M||/datacommons/igvf-pm/ENCODE/mutator-slurms|
bmajoros|COMPLETED|scavenger-gpu|2023-05-19T21:57:46|2023-05-20T00:55:28|02:57:42|dcc-youlab-gpu-43|1|10|20000M||/datacommons/igvf-pm/ENCODE/mutator-slurms|
bmajoros|COMPLETED|scavenger-gpu|2023-05-19T22:00:39|2023-05-20T01:02:43|03:02:04|dcc-youlab-gpu-03|1|10|20000M||/datacommons/igvf-pm/ENCODE/mutator-slurms|
bmajoros|COMPLETED|scavenger-gpu|2023-05-19T22:02:38|2023-05-20T01:15:02|03:12:24|dcc-youlab-gpu-18|1|10|20000M||/datacommons/igvf-pm/ENCODE/mutator-slurms|
bmajoros|COMPLETED|scavenger-gpu|2023-05-19T22:02:39|2023-05-20T01:21:17|03:18:38|dcc-pbenfeylab-gpu-02|1|10|20000M||/datacommons/igvf-pm/ENCODE/mutator-slurms|
bmajoros|COMPLETED|scavenger-gpu|2023-05-19T22:07:41|2023-05-20T01:03:37|02:55:56|dcc-youlab-gpu-36|1|10|20000M||/datacommons/igvf-pm/ENCODE/mutator-slurms|
bmajoros|COMPLETED|scavenger-gpu|2023-05-19T22:08:21|2023-05-20T01:06:58|02:58:37|dcc-youlab-gpu-42|1|10|20000M||/datacommons/igvf-pm/ENCODE/mutator-slurms|
bmajoros|COMPLETED|scavenger-gpu|2023-05-19T22:11:44|2023-05-20T01:22:30|03:10:46|dcc-youlab-gpu-14|1|10|20000M||/datacommons/igvf-pm/ENCODE/mutator-slurms|
bmajoros|COMPLETED|scavenger-gpu|2023-05-19T22:14:38|2023-05-20T01:15:59|03:01:21|dcc-youlab-gpu-40|1|10|20000M||/datacommons/igvf-pm/ENCODE/mutator-slurms|
bmajoros|COMPLETED|scavenger-gpu|2023-05-19T22:14:38|2023-05-20T01:20:36|03:05:58|dcc-youlab-gpu-29|1|10|20000M||/datacommons/igvf-pm/ENCODE/mutator-slurms|
bmajoros|COMPLETED|scavenger-gpu|2023-05-19T22:14:46|2023-05-20T01:17:42|03:02:56|dcc-youlab-gpu-55|1|10|20000M||/datacommons/igvf-pm/ENCODE/mutator-slurms|
bmajoros|COMPLETED|scavenger-gpu|2023-05-19T22:15:22|2023-05-20T01:19:24|03:04:02|dcc-youlab-gpu-27|1|10|20000M||/datacommons/igvf-pm/ENCODE/mutator-slurms|
bmajoros|COMPLETED|scavenger-gpu|2023-05-19T22:18:45|2023-05-20T01:21:10|03:02:25|dcc-youlab-gpu-41|1|10|20000M||/datacommons/igvf-pm/ENCODE/mutator-slurms|
bmajoros|COMPLETED|scavenger-gpu|2023-05-19T22:22:28|2023-05-20T01:31:47|03:09:19|dcc-youlab-gpu-53|1|10|20000M||/datacommons/igvf-pm/ENCODE/mutator-slurms|
bmajoros|COMPLETED|scavenger-gpu|2023-05-19T22:24:55|2023-05-20T01:36:32|03:11:37|dcc-vossenlab-gpu-04|1|10|20000M||/datacommons/igvf-pm/ENCODE/mutator-slurms|
bmajoros|COMPLETED|scavenger-gpu|2023-05-19T22:24:55|2023-05-20T01:01:48|02:36:53|dcc-ultrasound-gpu-03|1|19|20000M||/datacommons/igvf-pm/ENCODE/mutator-slurms|
bmajoros|COMPLETED|scavenger-gpu|2023-05-19T22:40:36|2023-05-20T01:44:09|03:03:33|dcc-youlab-gpu-24|1|10|20000M||/datacommons/igvf-pm/ENCODE/mutator-slurms|
bmajoros|COMPLETED|scavenger-gpu|2023-05-19T22:44:31|2023-05-20T01:42:14|02:57:43|dcc-youlab-gpu-09|1|10|20000M||/datacommons/igvf-pm/ENCODE/mutator-slurms|
bmajoros|COMPLETED|scavenger-gpu|2023-05-19T22:47:27|2023-05-20T01:49:48|03:02:21|dcc-youlab-gpu-08|1|10|20000M||/datacommons/igvf-pm/ENCODE/mutator-slurms|
bmajoros|COMPLETED|scavenger-gpu|2023-05-19T22:50:32|2023-05-20T01:52:37|03:02:05|dcc-youlab-gpu-37|1|10|20000M||/datacommons/igvf-pm/ENCODE/mutator-slurms|
bmajoros|COMPLETED|scavenger-gpu|2023-05-19T22:53:30|2023-05-20T01:58:14|03:04:44|dcc-youlab-gpu-02|1|10|20000M||/datacommons/igvf-pm/ENCODE/mutator-slurms|
bmajoros|COMPLETED|scavenger-gpu|2023-05-19T22:59:55|2023-05-20T02:09:51|03:09:56|dcc-youlab-gpu-38|1|10|20000M||/datacommons/igvf-pm/ENCODE/mutator-slurms|
bmajoros|COMPLETED|scavenger-gpu|2023-05-19T23:39:57|2023-05-20T02:49:54|03:09:57|dcc-youlab-gpu-04|1|10|20000M||/datacommons/igvf-pm/ENCODE/mutator-slurms|
bmajoros|COMPLETED|scavenger-gpu|2023-05-19T23:47:38|2023-05-20T02:58:20|03:10:42|dcc-youlab-gpu-34|1|10|20000M||/datacommons/igvf-pm/ENCODE/mutator-slurms|
bmajoros|COMPLETED|scavenger-gpu|2023-05-19T23:52:47|2023-05-20T02:51:10|02:58:23|dcc-youlab-gpu-19|1|10|20000M||/datacommons/igvf-pm/ENCODE/mutator-slurms|
bmajoros|COMPLETED|scavenger-gpu|2023-05-19T23:55:55|2023-05-20T02:50:24|02:54:29|dcc-youlab-gpu-32|1|10|20000M||/datacommons/igvf-pm/ENCODE/mutator-slurms|
bmajoros|COMPLETED|scavenger-gpu|2023-05-20T00:00:52|2023-05-20T03:04:32|03:03:40|dcc-youlab-gpu-28|1|10|20000M||/datacommons/igvf-pm/ENCODE/mutator-slurms|
bmajoros|COMPLETED|scavenger-gpu|2023-05-20T00:00:52|2023-05-20T03:00:33|02:59:41|dcc-youlab-gpu-21|1|10|20000M||/datacommons/igvf-pm/ENCODE/mutator-slurms|
bmajoros|COMPLETED|scavenger-gpu|2023-05-20T00:01:39|2023-05-20T03:06:20|03:04:41|dcc-youlab-gpu-12|1|10|20000M||/datacommons/igvf-pm/ENCODE/mutator-slurms|
bmajoros|COMPLETED|scavenger-gpu|2023-05-20T00:03:07|2023-05-20T02:59:42|02:56:35|dcc-youlab-gpu-07|1|10|20000M||/datacommons/igvf-pm/ENCODE/mutator-slurms|
bmajoros|COMPLETED|scavenger-gpu|2023-05-20T00:18:05|2023-05-20T03:30:40|03:12:35|dcc-pbenfeylab-gpu-03|1|10|20000M||/datacommons/igvf-pm/ENCODE/mutator-slurms|
bmajoros|COMPLETED|scavenger-gpu|2023-05-20T00:23:57|2023-05-20T03:30:42|03:06:45|dcc-youlab-gpu-30|1|10|20000M||/datacommons/igvf-pm/ENCODE/mutator-slurms|
bmajoros|COMPLETED|scavenger-gpu|2023-05-20T00:37:04|2023-05-20T03:40:10|03:03:06|dcc-youlab-gpu-23|1|10|20000M||/datacommons/igvf-pm/ENCODE/mutator-slurms|
bmajoros|COMPLETED|scavenger-gpu|2023-05-20T00:41:52|2023-05-20T03:43:37|03:01:45|dcc-youlab-gpu-16|1|10|20000M||/datacommons/igvf-pm/ENCODE/mutator-slurms|
bmajoros|COMPLETED|scavenger-gpu|2023-05-20T00:46:43|2023-05-20T03:48:42|03:01:59|dcc-vossenlab-gpu-01|1|10|20000M||/datacommons/igvf-pm/ENCODE/mutator-slurms|
bmajoros|COMPLETED|scavenger-gpu|2023-05-20T00:55:42|2023-05-20T03:53:03|02:57:21|dcc-youlab-gpu-11|1|10|20000M||/datacommons/igvf-pm/ENCODE/mutator-slurms|
bmajoros|COMPLETED|scavenger-gpu|2023-05-20T00:56:36|2023-05-20T03:53:48|02:57:12|dcc-youlab-gpu-43|1|10|20000M||/datacommons/igvf-pm/ENCODE/mutator-slurms|
bmajoros|COMPLETED|scavenger-gpu|2023-05-20T00:56:36|2023-05-20T04:05:34|03:08:58|dcc-youlab-gpu-10|1|10|20000M||/datacommons/igvf-pm/ENCODE/mutator-slurms|
bmajoros|COMPLETED|scavenger-gpu|2023-05-20T00:57:30|2023-05-20T04:06:17|03:08:47|dcc-youlab-gpu-44|1|10|20000M||/datacommons/igvf-pm/ENCODE/mutator-slurms|
bmajoros|COMPLETED|scavenger-gpu|2023-05-20T00:57:30|2023-05-20T04:00:53|03:03:23|dcc-youlab-gpu-13|1|10|20000M||/datacommons/igvf-pm/ENCODE/mutator-slurms|
bmajoros|COMPLETED|scavenger-gpu|2023-05-20T00:59:24|2023-05-20T04:09:29|03:10:05|dcc-youlab-gpu-15|1|10|20000M||/datacommons/igvf-pm/ENCODE/mutator-slurms|
bmajoros|COMPLETED|scavenger-gpu|2023-05-20T01:02:04|2023-05-20T02:09:51|01:07:47|dcc-gehmlab-gpu-28|1|19|20000M||/datacommons/igvf-pm/ENCODE/mutator-slurms|
bmajoros|COMPLETED|scavenger-gpu|2023-05-20T01:03:51|2023-05-20T04:04:56|03:01:05|dcc-youlab-gpu-03|1|10|20000M||/datacommons/igvf-pm/ENCODE/mutator-slurms|
bmajoros|COMPLETED|scavenger-gpu|2023-05-20T01:04:44|2023-05-20T03:59:46|02:55:02|dcc-youlab-gpu-36|1|10|20000M||/datacommons/igvf-pm/ENCODE/mutator-slurms|
bmajoros|COMPLETED|scavenger-gpu|2023-05-20T01:07:31|2023-05-20T04:05:30|02:57:59|dcc-youlab-gpu-42|1|10|20000M||/datacommons/igvf-pm/ENCODE/mutator-slurms|
bmajoros|COMPLETED|scavenger-gpu|2023-05-20T01:15:50|2023-05-20T04:24:15|03:08:25|dcc-youlab-gpu-18|1|10|20000M||/datacommons/igvf-pm/ENCODE/mutator-slurms|
bmajoros|COMPLETED|scavenger-gpu|2023-05-20T01:16:40|2023-05-20T04:15:47|02:59:07|dcc-youlab-gpu-40|1|10|20000M||/datacommons/igvf-pm/ENCODE/mutator-slurms|
bmajoros|COMPLETED|scavenger-gpu|2023-05-20T01:18:23|2023-05-20T04:13:54|02:55:31|dcc-youlab-gpu-55|1|10|20000M||/datacommons/igvf-pm/ENCODE/mutator-slurms|
bmajoros|COMPLETED|scavenger-gpu|2023-05-20T01:20:11|2023-05-20T04:24:08|03:03:57|dcc-youlab-gpu-27|1|10|20000M||/datacommons/igvf-pm/ENCODE/mutator-slurms|
bmajoros|COMPLETED|scavenger-gpu|2023-05-20T01:21:06|2023-05-20T04:23:25|03:02:19|dcc-youlab-gpu-29|1|10|20000M||/datacommons/igvf-pm/ENCODE/mutator-slurms|
bmajoros|COMPLETED|scavenger-gpu|2023-05-20T01:22:04|2023-05-20T04:29:05|03:07:01|dcc-youlab-gpu-41|1|10|20000M||/datacommons/igvf-pm/ENCODE/mutator-slurms|
bmajoros|COMPLETED|scavenger-gpu|2023-05-20T01:22:04|2023-05-20T04:38:24|03:16:20|dcc-pbenfeylab-gpu-02|1|10|20000M||/datacommons/igvf-pm/ENCODE/mutator-slurms|
bmajoros|COMPLETED|scavenger-gpu|2023-05-20T01:22:57|2023-05-20T04:22:54|02:59:57|dcc-youlab-gpu-14|1|10|20000M||/datacommons/igvf-pm/ENCODE/mutator-slurms|
bmajoros|COMPLETED|scavenger-gpu|2023-05-20T01:32:52|2023-05-20T04:37:30|03:04:38|dcc-youlab-gpu-53|1|10|20000M||/datacommons/igvf-pm/ENCODE/mutator-slurms|
bmajoros|COMPLETED|scavenger-gpu|2023-05-20T01:37:20|2023-05-20T04:47:40|03:10:20|dcc-vossenlab-gpu-04|1|10|20000M||/datacommons/igvf-pm/ENCODE/mutator-slurms|
bmajoros|COMPLETED|scavenger-gpu|2023-05-20T01:43:22|2023-05-20T04:42:30|02:59:08|dcc-youlab-gpu-09|1|10|20000M||/datacommons/igvf-pm/ENCODE/mutator-slurms|
bmajoros|COMPLETED|scavenger-gpu|2023-05-20T01:45:07|2023-05-20T04:45:27|03:00:20|dcc-youlab-gpu-24|1|10|20000M||/datacommons/igvf-pm/ENCODE/mutator-slurms|
bmajoros|COMPLETED|scavenger-gpu|2023-05-20T01:50:20|2023-05-20T04:54:59|03:04:39|dcc-youlab-gpu-08|1|10|20000M||/datacommons/igvf-pm/ENCODE/mutator-slurms|
bmajoros|COMPLETED|scavenger-gpu|2023-05-20T01:53:01|2023-05-20T04:53:09|03:00:08|dcc-youlab-gpu-37|1|10|20000M||/datacommons/igvf-pm/ENCODE/mutator-slurms|
bmajoros|COMPLETED|scavenger-gpu|2023-05-20T01:58:46|2023-05-20T05:05:24|03:06:38|dcc-youlab-gpu-02|1|10|20000M||/datacommons/igvf-pm/ENCODE/mutator-slurms|
bmajoros|COMPLETED|scavenger-gpu|2023-05-20T02:09:59|2023-05-20T06:47:57|04:37:58|dcc-ece-gpu-01|1|13|20000M||/datacommons/igvf-pm/ENCODE/mutator-slurms|
bmajoros|COMPLETED|scavenger-gpu|2023-05-20T02:10:46|2023-05-20T05:16:26|03:05:40|dcc-youlab-gpu-38|1|10|20000M||/datacommons/igvf-pm/ENCODE/mutator-slurms|
bmajoros|COMPLETED|scavenger-gpu|2023-05-20T02:50:34|2023-05-20T05:53:31|03:02:57|dcc-youlab-gpu-04|1|10|20000M||/datacommons/igvf-pm/ENCODE/mutator-slurms|
bmajoros|COMPLETED|scavenger-gpu|2023-05-20T02:51:20|2023-05-20T05:55:32|03:04:12|dcc-youlab-gpu-32|1|10|20000M||/datacommons/igvf-pm/ENCODE/mutator-slurms|
bmajoros|COMPLETED|scavenger-gpu|2023-05-20T02:52:11|2023-05-20T05:58:52|03:06:41|dcc-youlab-gpu-19|1|10|20000M||/datacommons/igvf-pm/ENCODE/mutator-slurms|
bmajoros|COMPLETED|scavenger-gpu|2023-05-20T02:59:09|2023-05-20T06:13:55|03:14:46|dcc-youlab-gpu-34|1|10|20000M||/datacommons/igvf-pm/ENCODE/mutator-slurms|
bmajoros|COMPLETED|scavenger-gpu|2023-05-20T03:00:43|2023-05-20T05:58:10|02:57:27|dcc-youlab-gpu-07|1|10|20000M||/datacommons/igvf-pm/ENCODE/mutator-slurms|
ym208|CANCELLED by 1517022|scavenger-gpu|2023-05-18T14:38:33|2023-05-21T14:55:32|3-00:16:59|dcc-vossenlab-gpu-02|1|1|2G||/hpc/group/bartesaghilab|
cem125|PREEMPTED|scavenger-gpu|2023-05-18T14:49:21|2023-05-20T22:56:46|2-08:07:25|dcc-tdunn-gpu-01|1|44|50G||/hpc/group/rekerlab/cem125/OpenNMT-py|
cem125|COMPLETED|scavenger-gpu|2023-05-18T14:49:21|2023-05-20T05:32:34|1-14:43:13|dcc-pbenfeylab-gpu-04|1|10|50G||/hpc/group/rekerlab/cem125/OpenNMT-py|
cem125|COMPLETED|scavenger-gpu|2023-05-18T14:49:22|2023-05-20T05:13:02|1-14:23:40|dcc-pbenfeylab-gpu-01|1|10|50G||/hpc/group/rekerlab/cem125/OpenNMT-py|
cem125|PREEMPTED|scavenger-gpu|2023-05-18T15:20:56|2023-05-19T14:54:36|23:33:40|dcc-youlab-gpu-07|1|10|50G||/hpc/group/rekerlab/cem125/OpenNMT-py|
yx240|COMPLETED|scavenger-gpu|2023-05-18T15:21:00|2023-05-19T06:20:38|14:59:38|dcc-gehmlab-gpu-56|1|19|2G||/work/yx240/project-martini/new/simutools/scripts|
yx240|PREEMPTED|scavenger-gpu|2023-05-18T15:21:05|2023-05-19T09:53:15|18:32:10|dcc-gehmlab-gpu-50|1|19|2G||/work/yx240/project-martini/new/simutools/scripts|
yx240|PREEMPTED|scavenger-gpu|2023-05-18T15:21:05|2023-05-19T09:53:19|18:32:14|dcc-gehmlab-gpu-37|1|19|2G||/work/yx240/project-martini/new/simutools/scripts|
yx240|PREEMPTED|scavenger-gpu|2023-05-18T15:21:08|2023-05-19T09:53:23|18:32:15|dcc-gehmlab-gpu-36|1|19|2G||/work/yx240/project-martini/new/simutools/scripts|
yx240|PREEMPTED|scavenger-gpu|2023-05-18T15:21:11|2023-05-20T11:18:56|1-19:57:45|dcc-gehmlab-gpu-35|1|19|2G||/work/yx240/project-martini/new/simutools/scripts|
jrl78|COMPLETED|scavenger-gpu|2023-05-18T16:31:17|2023-05-19T10:39:51|18:08:34|dcc-gehmlab-gpu-32|1|19|4G||/work/jrl78/Nanoparticles/JawBreakers/Different Partial Charges/EEM Full Library|
jrl78|COMPLETED|scavenger-gpu|2023-05-18T16:31:24|2023-05-19T10:52:37|18:21:13|dcc-gehmlab-gpu-17|1|19|4G||/work/jrl78/Nanoparticles/JawBreakers/Different Partial Charges/EEM Full Library|
jrl78|COMPLETED|scavenger-gpu|2023-05-18T16:31:24|2023-05-19T10:42:39|18:11:15|dcc-gehmlab-gpu-16|1|19|4G||/work/jrl78/Nanoparticles/JawBreakers/Different Partial Charges/EEM Full Library|
jrl78|COMPLETED|scavenger-gpu|2023-05-18T16:31:26|2023-05-19T06:58:26|14:27:00|dcc-gehmlab-gpu-15|1|19|4G||/work/jrl78/Nanoparticles/JawBreakers/Different Partial Charges/EEM Full Library|
jrl78|COMPLETED|scavenger-gpu|2023-05-18T16:31:29|2023-05-19T06:58:34|14:27:05|dcc-gehmlab-gpu-13|1|19|4G||/work/jrl78/Nanoparticles/JawBreakers/Different Partial Charges/EEM Full Library|
jrl78|COMPLETED|scavenger-gpu|2023-05-18T16:31:31|2023-05-19T06:52:30|14:20:59|dcc-gehmlab-gpu-12|1|19|4G||/work/jrl78/Nanoparticles/JawBreakers/Different Partial Charges/EEM Full Library|
jrl78|COMPLETED|scavenger-gpu|2023-05-18T16:31:34|2023-05-19T10:49:31|18:17:57|dcc-gehmlab-gpu-07|1|19|4G||/work/jrl78/Nanoparticles/JawBreakers/Different Partial Charges/EEM Full Library|
jrl78|COMPLETED|scavenger-gpu|2023-05-18T16:33:45|2023-05-19T08:26:58|15:53:13|dcc-youlab-gpu-33|1|10|4G||/work/jrl78/Nanoparticles/JawBreakers/Different Partial Charges/EEM Full Library|
jrl78|COMPLETED|scavenger-gpu|2023-05-18T16:42:06|2023-05-19T08:29:22|15:47:16|dcc-mainsahlab-gpu-01|1|6|4G||/work/jrl78/Nanoparticles/JawBreakers/Different Partial Charges/EEM Full Library|
jrl78|COMPLETED|scavenger-gpu|2023-05-18T16:42:08|2023-05-19T11:51:38|19:09:30|dcc-ultrasound-gpu-02|1|19|4G||/work/jrl78/Nanoparticles/JawBreakers/Different Partial Charges/EEM Full Library|
jrl78|COMPLETED|scavenger-gpu|2023-05-18T16:42:11|2023-05-19T11:54:49|19:12:38|dcc-motesa-gpu-03|1|6|4G||/work/jrl78/Nanoparticles/JawBreakers/Different Partial Charges/EEM Full Library|
jrl78|COMPLETED|scavenger-gpu|2023-05-18T22:35:16|2023-05-19T17:54:02|19:18:46|dcc-motesa-gpu-04|1|6|4G||/work/jrl78/Nanoparticles/JawBreakers/Different Partial Charges/EEM Full Library|
jrl78|COMPLETED|scavenger-gpu|2023-05-18T16:42:13|2023-05-19T13:45:16|21:03:03|dcc-gehmlab-gpu-06|1|19|4G||/work/jrl78/Nanoparticles/JawBreakers/Different Partial Charges/EEM Full Library|
jrl78|COMPLETED|scavenger-gpu|2023-05-19T06:52:38|2023-05-20T00:19:26|17:26:48|dcc-motesa-gpu-01|1|6|4G||/work/jrl78/Nanoparticles/JawBreakers/Different Partial Charges/EEM Full Library|
jrl78|COMPLETED|scavenger-gpu|2023-05-19T06:52:38|2023-05-20T00:46:01|17:53:23|dcc-mainsahlab-gpu-04|1|6|4G||/work/jrl78/Nanoparticles/JawBreakers/Different Partial Charges/EEM Full Library|
jrl78|COMPLETED|scavenger-gpu|2023-05-19T06:52:39|2023-05-19T21:27:27|14:34:48|dcc-mainsahlab-gpu-03|1|6|4G||/work/jrl78/Nanoparticles/JawBreakers/Different Partial Charges/EEM Full Library|
jrl78|COMPLETED|scavenger-gpu|2023-05-19T06:58:31|2023-05-19T21:36:45|14:38:14|dcc-mainsahlab-gpu-02|1|6|4G||/work/jrl78/Nanoparticles/JawBreakers/Different Partial Charges/EEM Full Library|
jrl78|FAILED|scavenger-gpu|2023-05-19T06:59:03|2023-05-19T06:59:22|00:00:19|dcc-gehmlab-gpu-60|1|19|4G||/work/jrl78/Nanoparticles/JawBreakers/Different Partial Charges/EEM Full Library|
jrl78|FAILED|scavenger-gpu|2023-05-19T06:59:35|2023-05-19T06:59:58|00:00:23|dcc-gehmlab-gpu-60|1|19|4G||/work/jrl78/Nanoparticles/JawBreakers/Different Partial Charges/EEM Full Library|
jrl78|FAILED|scavenger-gpu|2023-05-19T07:00:07|2023-05-19T07:00:26|00:00:19|dcc-gehmlab-gpu-60|1|19|4G||/work/jrl78/Nanoparticles/JawBreakers/Different Partial Charges/EEM Full Library|
jrl78|FAILED|scavenger-gpu|2023-05-19T07:00:39|2023-05-19T07:00:58|00:00:19|dcc-gehmlab-gpu-60|1|19|4G||/work/jrl78/Nanoparticles/JawBreakers/Different Partial Charges/EEM Full Library|
jrl78|FAILED|scavenger-gpu|2023-05-19T07:01:11|2023-05-19T07:01:35|00:00:24|dcc-gehmlab-gpu-60|1|19|4G||/work/jrl78/Nanoparticles/JawBreakers/Different Partial Charges/EEM Full Library|
jrl78|FAILED|scavenger-gpu|2023-05-19T07:01:43|2023-05-19T07:02:02|00:00:19|dcc-gehmlab-gpu-60|1|19|4G||/work/jrl78/Nanoparticles/JawBreakers/Different Partial Charges/EEM Full Library|
jrl78|FAILED|scavenger-gpu|2023-05-19T07:02:15|2023-05-19T07:02:34|00:00:19|dcc-gehmlab-gpu-60|1|19|4G||/work/jrl78/Nanoparticles/JawBreakers/Different Partial Charges/EEM Full Library|
jrl78|FAILED|scavenger-gpu|2023-05-19T07:02:47|2023-05-19T07:03:06|00:00:19|dcc-gehmlab-gpu-60|1|19|4G||/work/jrl78/Nanoparticles/JawBreakers/Different Partial Charges/EEM Full Library|
jrl78|FAILED|scavenger-gpu|2023-05-19T07:03:19|2023-05-19T07:03:34|00:00:15|dcc-gehmlab-gpu-60|1|19|4G||/work/jrl78/Nanoparticles/JawBreakers/Different Partial Charges/EEM Full Library|
jrl78|FAILED|scavenger-gpu|2023-05-19T07:03:51|2023-05-19T07:04:06|00:00:15|dcc-gehmlab-gpu-60|1|19|4G||/work/jrl78/Nanoparticles/JawBreakers/Different Partial Charges/EEM Full Library|
jrl78|FAILED|scavenger-gpu|2023-05-19T07:04:23|2023-05-19T07:04:42|00:00:19|dcc-gehmlab-gpu-60|1|19|4G||/work/jrl78/Nanoparticles/JawBreakers/Different Partial Charges/EEM Full Library|
jrl78|FAILED|scavenger-gpu|2023-05-19T07:04:55|2023-05-19T07:05:07|00:00:12|dcc-gehmlab-gpu-60|1|19|4G||/work/jrl78/Nanoparticles/JawBreakers/Different Partial Charges/EEM Full Library|
jrl78|FAILED|scavenger-gpu|2023-05-19T07:05:27|2023-05-19T07:05:42|00:00:15|dcc-gehmlab-gpu-60|1|19|4G||/work/jrl78/Nanoparticles/JawBreakers/Different Partial Charges/EEM Full Library|
jrl78|FAILED|scavenger-gpu|2023-05-19T07:05:59|2023-05-19T07:06:22|00:00:23|dcc-gehmlab-gpu-60|1|19|4G||/work/jrl78/Nanoparticles/JawBreakers/Different Partial Charges/EEM Full Library|
jrl78|FAILED|scavenger-gpu|2023-05-19T07:06:31|2023-05-19T07:06:47|00:00:16|dcc-gehmlab-gpu-60|1|19|4G||/work/jrl78/Nanoparticles/JawBreakers/Different Partial Charges/EEM Full Library|
jrl78|FAILED|scavenger-gpu|2023-05-19T07:07:03|2023-05-19T07:07:19|00:00:16|dcc-gehmlab-gpu-60|1|19|4G||/work/jrl78/Nanoparticles/JawBreakers/Different Partial Charges/EEM Full Library|
jrl78|FAILED|scavenger-gpu|2023-05-19T07:07:35|2023-05-19T07:07:51|00:00:16|dcc-gehmlab-gpu-60|1|19|4G||/work/jrl78/Nanoparticles/JawBreakers/Different Partial Charges/EEM Full Library|
jrl78|FAILED|scavenger-gpu|2023-05-19T07:08:07|2023-05-19T07:08:22|00:00:15|dcc-gehmlab-gpu-60|1|19|4G||/work/jrl78/Nanoparticles/JawBreakers/Different Partial Charges/EEM Full Library|
jrl78|FAILED|scavenger-gpu|2023-05-19T07:08:39|2023-05-19T07:08:54|00:00:15|dcc-gehmlab-gpu-60|1|19|4G||/work/jrl78/Nanoparticles/JawBreakers/Different Partial Charges/EEM Full Library|
jrl78|FAILED|scavenger-gpu|2023-05-19T07:09:11|2023-05-19T07:09:31|00:00:20|dcc-gehmlab-gpu-60|1|19|4G||/work/jrl78/Nanoparticles/JawBreakers/Different Partial Charges/EEM Full Library|
jrl78|FAILED|scavenger-gpu|2023-05-19T07:09:43|2023-05-19T07:09:58|00:00:15|dcc-gehmlab-gpu-60|1|19|4G||/work/jrl78/Nanoparticles/JawBreakers/Different Partial Charges/EEM Full Library|
jrl78|FAILED|scavenger-gpu|2023-05-19T07:10:15|2023-05-19T07:10:31|00:00:16|dcc-gehmlab-gpu-60|1|19|4G||/work/jrl78/Nanoparticles/JawBreakers/Different Partial Charges/EEM Full Library|
jrl78|FAILED|scavenger-gpu|2023-05-19T07:10:47|2023-05-19T07:11:02|00:00:15|dcc-gehmlab-gpu-60|1|19|4G||/work/jrl78/Nanoparticles/JawBreakers/Different Partial Charges/EEM Full Library|
jrl78|FAILED|scavenger-gpu|2023-05-19T07:11:19|2023-05-19T07:11:30|00:00:11|dcc-gehmlab-gpu-60|1|19|4G||/work/jrl78/Nanoparticles/JawBreakers/Different Partial Charges/EEM Full Library|
jrl78|FAILED|scavenger-gpu|2023-05-19T07:11:51|2023-05-19T07:12:03|00:00:12|dcc-gehmlab-gpu-60|1|19|4G||/work/jrl78/Nanoparticles/JawBreakers/Different Partial Charges/EEM Full Library|
jrl78|FAILED|scavenger-gpu|2023-05-19T07:12:23|2023-05-19T07:12:42|00:00:19|dcc-gehmlab-gpu-60|1|19|4G||/work/jrl78/Nanoparticles/JawBreakers/Different Partial Charges/EEM Full Library|
jrl78|FAILED|scavenger-gpu|2023-05-19T07:12:55|2023-05-19T07:13:10|00:00:15|dcc-gehmlab-gpu-60|1|19|4G||/work/jrl78/Nanoparticles/JawBreakers/Different Partial Charges/EEM Full Library|
jrl78|FAILED|scavenger-gpu|2023-05-19T07:13:27|2023-05-19T07:13:42|00:00:15|dcc-gehmlab-gpu-60|1|19|4G||/work/jrl78/Nanoparticles/JawBreakers/Different Partial Charges/EEM Full Library|
jrl78|FAILED|scavenger-gpu|2023-05-19T07:13:59|2023-05-19T07:14:26|00:00:27|dcc-gehmlab-gpu-60|1|19|4G||/work/jrl78/Nanoparticles/JawBreakers/Different Partial Charges/EEM Full Library|
jrl78|FAILED|scavenger-gpu|2023-05-19T07:14:32|2023-05-19T07:14:54|00:00:22|dcc-gehmlab-gpu-60|1|19|4G||/work/jrl78/Nanoparticles/JawBreakers/Different Partial Charges/EEM Full Library|
jrl78|FAILED|scavenger-gpu|2023-05-19T07:15:03|2023-05-19T07:15:26|00:00:23|dcc-gehmlab-gpu-60|1|19|4G||/work/jrl78/Nanoparticles/JawBreakers/Different Partial Charges/EEM Full Library|
jrl78|FAILED|scavenger-gpu|2023-05-19T07:15:35|2023-05-19T07:15:55|00:00:20|dcc-gehmlab-gpu-60|1|19|4G||/work/jrl78/Nanoparticles/JawBreakers/Different Partial Charges/EEM Full Library|
jrl78|FAILED|scavenger-gpu|2023-05-19T07:16:07|2023-05-19T07:16:22|00:00:15|dcc-gehmlab-gpu-60|1|19|4G||/work/jrl78/Nanoparticles/JawBreakers/Different Partial Charges/EEM Full Library|
jrl78|FAILED|scavenger-gpu|2023-05-19T07:16:39|2023-05-19T07:16:55|00:00:16|dcc-gehmlab-gpu-60|1|19|4G||/work/jrl78/Nanoparticles/JawBreakers/Different Partial Charges/EEM Full Library|
jrl78|FAILED|scavenger-gpu|2023-05-19T07:17:11|2023-05-19T07:17:35|00:00:24|dcc-gehmlab-gpu-60|1|19|4G||/work/jrl78/Nanoparticles/JawBreakers/Different Partial Charges/EEM Full Library|
jrl78|FAILED|scavenger-gpu|2023-05-19T07:17:43|2023-05-19T07:18:03|00:00:20|dcc-gehmlab-gpu-60|1|19|4G||/work/jrl78/Nanoparticles/JawBreakers/Different Partial Charges/EEM Full Library|
jrl78|FAILED|scavenger-gpu|2023-05-19T07:18:15|2023-05-19T07:18:34|00:00:19|dcc-gehmlab-gpu-60|1|19|4G||/work/jrl78/Nanoparticles/JawBreakers/Different Partial Charges/EEM Full Library|
jrl78|FAILED|scavenger-gpu|2023-05-19T07:18:47|2023-05-19T07:19:14|00:00:27|dcc-gehmlab-gpu-60|1|19|4G||/work/jrl78/Nanoparticles/JawBreakers/Different Partial Charges/EEM Full Library|
jrl78|FAILED|scavenger-gpu|2023-05-19T07:19:19|2023-05-19T07:19:42|00:00:23|dcc-gehmlab-gpu-60|1|19|4G||/work/jrl78/Nanoparticles/JawBreakers/Different Partial Charges/EEM Full Library|
jrl78|FAILED|scavenger-gpu|2023-05-19T07:19:51|2023-05-19T07:20:11|00:00:20|dcc-gehmlab-gpu-60|1|19|4G||/work/jrl78/Nanoparticles/JawBreakers/Different Partial Charges/EEM Full Library|
jrl78|FAILED|scavenger-gpu|2023-05-19T07:20:23|2023-05-19T07:20:42|00:00:19|dcc-gehmlab-gpu-60|1|19|4G||/work/jrl78/Nanoparticles/JawBreakers/Different Partial Charges/EEM Full Library|
jrl78|FAILED|scavenger-gpu|2023-05-19T07:20:55|2023-05-19T07:21:10|00:00:15|dcc-gehmlab-gpu-60|1|19|4G||/work/jrl78/Nanoparticles/JawBreakers/Different Partial Charges/EEM Full Library|
jrl78|FAILED|scavenger-gpu|2023-05-19T07:21:27|2023-05-19T07:21:42|00:00:15|dcc-gehmlab-gpu-60|1|19|4G||/work/jrl78/Nanoparticles/JawBreakers/Different Partial Charges/EEM Full Library|
jrl78|FAILED|scavenger-gpu|2023-05-19T07:21:59|2023-05-19T07:22:22|00:00:23|dcc-gehmlab-gpu-60|1|19|4G||/work/jrl78/Nanoparticles/JawBreakers/Different Partial Charges/EEM Full Library|
jrl78|FAILED|scavenger-gpu|2023-05-19T07:22:32|2023-05-19T07:22:50|00:00:18|dcc-gehmlab-gpu-60|1|19|4G||/work/jrl78/Nanoparticles/JawBreakers/Different Partial Charges/EEM Full Library|
jrl78|FAILED|scavenger-gpu|2023-05-19T07:23:04|2023-05-19T07:23:22|00:00:18|dcc-gehmlab-gpu-60|1|19|4G||/work/jrl78/Nanoparticles/JawBreakers/Different Partial Charges/EEM Full Library|
jrl78|FAILED|scavenger-gpu|2023-05-19T07:23:38|2023-05-19T07:23:58|00:00:20|dcc-gehmlab-gpu-60|1|19|4G||/work/jrl78/Nanoparticles/JawBreakers/Different Partial Charges/EEM Full Library|
jrl78|FAILED|scavenger-gpu|2023-05-19T07:24:11|2023-05-19T07:24:26|00:00:15|dcc-gehmlab-gpu-60|1|19|4G||/work/jrl78/Nanoparticles/JawBreakers/Different Partial Charges/EEM Full Library|
jrl78|FAILED|scavenger-gpu|2023-05-19T07:24:43|2023-05-19T07:24:59|00:00:16|dcc-gehmlab-gpu-60|1|19|4G||/work/jrl78/Nanoparticles/JawBreakers/Different Partial Charges/EEM Full Library|
jrl78|FAILED|scavenger-gpu|2023-05-19T07:25:15|2023-05-19T07:25:34|00:00:19|dcc-gehmlab-gpu-60|1|19|4G||/work/jrl78/Nanoparticles/JawBreakers/Different Partial Charges/EEM Full Library|
jrl78|FAILED|scavenger-gpu|2023-05-19T07:25:47|2023-05-19T07:26:02|00:00:15|dcc-gehmlab-gpu-60|1|19|4G||/work/jrl78/Nanoparticles/JawBreakers/Different Partial Charges/EEM Full Library|
jrl78|FAILED|scavenger-gpu|2023-05-19T07:26:25|2023-05-19T07:26:40|00:00:15|dcc-gehmlab-gpu-60|1|19|4G||/work/jrl78/Nanoparticles/JawBreakers/Different Partial Charges/EEM Full Library|
jrl78|FAILED|scavenger-gpu|2023-05-19T07:26:58|2023-05-19T07:27:16|00:00:18|dcc-gehmlab-gpu-60|1|19|4G||/work/jrl78/Nanoparticles/JawBreakers/Different Partial Charges/EEM Full Library|
jrl78|FAILED|scavenger-gpu|2023-05-19T07:27:30|2023-05-19T07:27:48|00:00:18|dcc-gehmlab-gpu-60|1|19|4G||/work/jrl78/Nanoparticles/JawBreakers/Different Partial Charges/EEM Full Library|
jrl78|FAILED|scavenger-gpu|2023-05-19T07:28:02|2023-05-19T07:28:17|00:00:15|dcc-gehmlab-gpu-60|1|19|4G||/work/jrl78/Nanoparticles/JawBreakers/Different Partial Charges/EEM Full Library|
jrl78|FAILED|scavenger-gpu|2023-05-19T07:28:34|2023-05-19T07:28:52|00:00:18|dcc-gehmlab-gpu-60|1|19|4G||/work/jrl78/Nanoparticles/JawBreakers/Different Partial Charges/EEM Full Library|
jrl78|FAILED|scavenger-gpu|2023-05-19T07:29:06|2023-05-19T07:29:21|00:00:15|dcc-gehmlab-gpu-60|1|19|4G||/work/jrl78/Nanoparticles/JawBreakers/Different Partial Charges/EEM Full Library|
jrl78|FAILED|scavenger-gpu|2023-05-19T07:29:38|2023-05-19T07:29:52|00:00:14|dcc-gehmlab-gpu-60|1|19|4G||/work/jrl78/Nanoparticles/JawBreakers/Different Partial Charges/EEM Full Library|
jrl78|FAILED|scavenger-gpu|2023-05-19T07:30:12|2023-05-19T07:30:32|00:00:20|dcc-gehmlab-gpu-60|1|19|4G||/work/jrl78/Nanoparticles/JawBreakers/Different Partial Charges/EEM Full Library|
jrl78|FAILED|scavenger-gpu|2023-05-19T07:30:45|2023-05-19T07:31:00|00:00:15|dcc-gehmlab-gpu-60|1|19|4G||/work/jrl78/Nanoparticles/JawBreakers/Different Partial Charges/EEM Full Library|
jrl78|FAILED|scavenger-gpu|2023-05-19T07:31:18|2023-05-19T07:31:32|00:00:14|dcc-gehmlab-gpu-60|1|19|4G||/work/jrl78/Nanoparticles/JawBreakers/Different Partial Charges/EEM Full Library|
jrl78|FAILED|scavenger-gpu|2023-05-19T07:31:50|2023-05-19T07:32:08|00:00:18|dcc-gehmlab-gpu-60|1|19|4G||/work/jrl78/Nanoparticles/JawBreakers/Different Partial Charges/EEM Full Library|
jrl78|FAILED|scavenger-gpu|2023-05-19T07:32:22|2023-05-19T07:32:36|00:00:14|dcc-gehmlab-gpu-60|1|19|4G||/work/jrl78/Nanoparticles/JawBreakers/Different Partial Charges/EEM Full Library|
jrl78|FAILED|scavenger-gpu|2023-05-19T07:32:54|2023-05-19T07:33:08|00:00:14|dcc-gehmlab-gpu-60|1|19|4G||/work/jrl78/Nanoparticles/JawBreakers/Different Partial Charges/EEM Full Library|
jrl78|FAILED|scavenger-gpu|2023-05-19T07:33:28|2023-05-19T07:33:48|00:00:20|dcc-gehmlab-gpu-60|1|19|4G||/work/jrl78/Nanoparticles/JawBreakers/Different Partial Charges/EEM Full Library|
jrl78|FAILED|scavenger-gpu|2023-05-19T07:34:02|2023-05-19T07:34:17|00:00:15|dcc-gehmlab-gpu-60|1|19|4G||/work/jrl78/Nanoparticles/JawBreakers/Different Partial Charges/EEM Full Library|
jrl78|FAILED|scavenger-gpu|2023-05-19T07:34:34|2023-05-19T07:34:48|00:00:14|dcc-gehmlab-gpu-60|1|19|4G||/work/jrl78/Nanoparticles/JawBreakers/Different Partial Charges/EEM Full Library|
jrl78|FAILED|scavenger-gpu|2023-05-19T07:35:08|2023-05-19T07:35:28|00:00:20|dcc-gehmlab-gpu-60|1|19|4G||/work/jrl78/Nanoparticles/JawBreakers/Different Partial Charges/EEM Full Library|
jrl78|FAILED|scavenger-gpu|2023-05-19T07:35:41|2023-05-19T07:35:56|00:00:15|dcc-gehmlab-gpu-60|1|19|4G||/work/jrl78/Nanoparticles/JawBreakers/Different Partial Charges/EEM Full Library|
jrl78|FAILED|scavenger-gpu|2023-05-19T07:36:14|2023-05-19T07:36:28|00:00:14|dcc-gehmlab-gpu-60|1|19|4G||/work/jrl78/Nanoparticles/JawBreakers/Different Partial Charges/EEM Full Library|
jrl78|FAILED|scavenger-gpu|2023-05-19T07:36:46|2023-05-19T07:37:08|00:00:22|dcc-gehmlab-gpu-60|1|19|4G||/work/jrl78/Nanoparticles/JawBreakers/Different Partial Charges/EEM Full Library|
jrl78|FAILED|scavenger-gpu|2023-05-19T07:37:20|2023-05-19T07:37:36|00:00:16|dcc-gehmlab-gpu-60|1|19|4G||/work/jrl78/Nanoparticles/JawBreakers/Different Partial Charges/EEM Full Library|
jrl78|FAILED|scavenger-gpu|2023-05-19T07:37:53|2023-05-19T07:38:09|00:00:16|dcc-gehmlab-gpu-60|1|19|4G||/work/jrl78/Nanoparticles/JawBreakers/Different Partial Charges/EEM Full Library|
jrl78|FAILED|scavenger-gpu|2023-05-19T07:38:26|2023-05-19T07:38:44|00:00:18|dcc-gehmlab-gpu-60|1|19|4G||/work/jrl78/Nanoparticles/JawBreakers/Different Partial Charges/EEM Full Library|
jrl78|FAILED|scavenger-gpu|2023-05-19T07:38:58|2023-05-19T07:39:16|00:00:18|dcc-gehmlab-gpu-60|1|19|4G||/work/jrl78/Nanoparticles/JawBreakers/Different Partial Charges/EEM Full Library|
jrl78|FAILED|scavenger-gpu|2023-05-19T07:39:32|2023-05-19T07:39:48|00:00:16|dcc-gehmlab-gpu-60|1|19|4G||/work/jrl78/Nanoparticles/JawBreakers/Different Partial Charges/EEM Full Library|
jrl78|FAILED|scavenger-gpu|2023-05-19T07:40:06|2023-05-19T07:40:24|00:00:18|dcc-gehmlab-gpu-60|1|19|4G||/work/jrl78/Nanoparticles/JawBreakers/Different Partial Charges/EEM Full Library|
jrl78|FAILED|scavenger-gpu|2023-05-19T07:40:38|2023-05-19T07:40:52|00:00:14|dcc-gehmlab-gpu-60|1|19|4G||/work/jrl78/Nanoparticles/JawBreakers/Different Partial Charges/EEM Full Library|
jrl78|FAILED|scavenger-gpu|2023-05-19T07:41:12|2023-05-19T07:41:25|00:00:13|dcc-gehmlab-gpu-60|1|19|4G||/work/jrl78/Nanoparticles/JawBreakers/Different Partial Charges/EEM Full Library|
jrl78|FAILED|scavenger-gpu|2023-05-19T07:41:46|2023-05-19T07:42:05|00:00:19|dcc-gehmlab-gpu-60|1|19|4G||/work/jrl78/Nanoparticles/JawBreakers/Different Partial Charges/EEM Full Library|
jrl78|FAILED|scavenger-gpu|2023-05-19T07:42:18|2023-05-19T07:42:33|00:00:15|dcc-gehmlab-gpu-60|1|19|4G||/work/jrl78/Nanoparticles/JawBreakers/Different Partial Charges/EEM Full Library|
jrl78|FAILED|scavenger-gpu|2023-05-19T07:42:50|2023-05-19T07:43:09|00:00:19|dcc-gehmlab-gpu-60|1|19|4G||/work/jrl78/Nanoparticles/JawBreakers/Different Partial Charges/EEM Full Library|
jrl78|FAILED|scavenger-gpu|2023-05-19T07:43:23|2023-05-19T07:43:41|00:00:18|dcc-gehmlab-gpu-60|1|19|4G||/work/jrl78/Nanoparticles/JawBreakers/Different Partial Charges/EEM Full Library|
jrl78|FAILED|scavenger-gpu|2023-05-19T07:43:55|2023-05-19T07:44:09|00:00:14|dcc-gehmlab-gpu-60|1|19|4G||/work/jrl78/Nanoparticles/JawBreakers/Different Partial Charges/EEM Full Library|
jrl78|FAILED|scavenger-gpu|2023-05-19T07:44:30|2023-05-19T07:44:45|00:00:15|dcc-gehmlab-gpu-60|1|19|4G||/work/jrl78/Nanoparticles/JawBreakers/Different Partial Charges/EEM Full Library|
jrl78|FAILED|scavenger-gpu|2023-05-19T07:45:03|2023-05-19T07:45:21|00:00:18|dcc-gehmlab-gpu-60|1|19|4G||/work/jrl78/Nanoparticles/JawBreakers/Different Partial Charges/EEM Full Library|
jrl78|FAILED|scavenger-gpu|2023-05-19T07:45:35|2023-05-19T07:45:49|00:00:14|dcc-gehmlab-gpu-60|1|19|4G||/work/jrl78/Nanoparticles/JawBreakers/Different Partial Charges/EEM Full Library|
jrl78|FAILED|scavenger-gpu|2023-05-19T07:46:09|2023-05-19T07:46:22|00:00:13|dcc-gehmlab-gpu-60|1|19|4G||/work/jrl78/Nanoparticles/JawBreakers/Different Partial Charges/EEM Full Library|
jrl78|FAILED|scavenger-gpu|2023-05-19T07:46:43|2023-05-19T07:47:02|00:00:19|dcc-gehmlab-gpu-60|1|19|4G||/work/jrl78/Nanoparticles/JawBreakers/Different Partial Charges/EEM Full Library|
jrl78|FAILED|scavenger-gpu|2023-05-19T07:47:15|2023-05-19T07:47:29|00:00:14|dcc-gehmlab-gpu-60|1|19|4G||/work/jrl78/Nanoparticles/JawBreakers/Different Partial Charges/EEM Full Library|
jrl78|FAILED|scavenger-gpu|2023-05-19T07:47:49|2023-05-19T07:48:05|00:00:16|dcc-gehmlab-gpu-60|1|19|4G||/work/jrl78/Nanoparticles/JawBreakers/Different Partial Charges/EEM Full Library|
jrl78|FAILED|scavenger-gpu|2023-05-19T07:48:25|2023-05-19T07:48:45|00:00:20|dcc-gehmlab-gpu-60|1|19|4G||/work/jrl78/Nanoparticles/JawBreakers/Different Partial Charges/EEM Full Library|
jrl78|FAILED|scavenger-gpu|2023-05-19T07:49:03|2023-05-19T07:49:21|00:00:18|dcc-gehmlab-gpu-60|1|19|4G||/work/jrl78/Nanoparticles/JawBreakers/Different Partial Charges/EEM Full Library|
jrl78|FAILED|scavenger-gpu|2023-05-19T07:49:39|2023-05-19T07:49:55|00:00:16|dcc-gehmlab-gpu-60|1|19|4G||/work/jrl78/Nanoparticles/JawBreakers/Different Partial Charges/EEM Full Library|
jrl78|FAILED|scavenger-gpu|2023-05-19T07:50:14|2023-05-19T07:50:39|00:00:25|dcc-gehmlab-gpu-60|1|19|4G||/work/jrl78/Nanoparticles/JawBreakers/Different Partial Charges/EEM Full Library|
jrl78|FAILED|scavenger-gpu|2023-05-19T07:50:51|2023-05-19T07:51:10|00:00:19|dcc-gehmlab-gpu-60|1|19|4G||/work/jrl78/Nanoparticles/JawBreakers/Different Partial Charges/EEM Full Library|
jrl78|FAILED|scavenger-gpu|2023-05-19T07:51:31|2023-05-19T07:51:59|00:00:28|dcc-gehmlab-gpu-60|1|19|4G||/work/jrl78/Nanoparticles/JawBreakers/Different Partial Charges/EEM Full Library|
jrl78|FAILED|scavenger-gpu|2023-05-19T07:52:07|2023-05-19T07:52:31|00:00:24|dcc-gehmlab-gpu-60|1|19|4G||/work/jrl78/Nanoparticles/JawBreakers/Different Partial Charges/EEM Full Library|
jrl78|FAILED|scavenger-gpu|2023-05-19T07:52:43|2023-05-19T07:53:02|00:00:19|dcc-gehmlab-gpu-60|1|19|4G||/work/jrl78/Nanoparticles/JawBreakers/Different Partial Charges/EEM Full Library|
jrl78|FAILED|scavenger-gpu|2023-05-19T07:53:18|2023-05-19T07:53:38|00:00:20|dcc-gehmlab-gpu-60|1|19|4G||/work/jrl78/Nanoparticles/JawBreakers/Different Partial Charges/EEM Full Library|
jrl78|FAILED|scavenger-gpu|2023-05-19T07:53:54|2023-05-19T07:54:18|00:00:24|dcc-gehmlab-gpu-60|1|19|4G||/work/jrl78/Nanoparticles/JawBreakers/Different Partial Charges/EEM Full Library|
jrl78|FAILED|scavenger-gpu|2023-05-19T07:54:31|2023-05-19T07:54:52|00:00:21|dcc-gehmlab-gpu-60|1|19|4G||/work/jrl78/Nanoparticles/JawBreakers/Different Partial Charges/EEM Full Library|
jrl78|FAILED|scavenger-gpu|2023-05-19T07:55:07|2023-05-19T07:55:28|00:00:21|dcc-gehmlab-gpu-60|1|19|4G||/work/jrl78/Nanoparticles/JawBreakers/Different Partial Charges/EEM Full Library|
jrl78|FAILED|scavenger-gpu|2023-05-19T07:55:43|2023-05-19T07:56:11|00:00:28|dcc-gehmlab-gpu-60|1|19|4G||/work/jrl78/Nanoparticles/JawBreakers/Different Partial Charges/EEM Full Library|
jrl78|FAILED|scavenger-gpu|2023-05-19T07:56:19|2023-05-19T07:56:43|00:00:24|dcc-gehmlab-gpu-60|1|19|4G||/work/jrl78/Nanoparticles/JawBreakers/Different Partial Charges/EEM Full Library|
jrl78|FAILED|scavenger-gpu|2023-05-19T07:56:56|2023-05-19T07:57:19|00:00:23|dcc-gehmlab-gpu-60|1|19|4G||/work/jrl78/Nanoparticles/JawBreakers/Different Partial Charges/EEM Full Library|
jrl78|FAILED|scavenger-gpu|2023-05-19T07:57:31|2023-05-19T07:57:59|00:00:28|dcc-gehmlab-gpu-60|1|19|4G||/work/jrl78/Nanoparticles/JawBreakers/Different Partial Charges/EEM Full Library|
jrl78|FAILED|scavenger-gpu|2023-05-19T07:58:07|2023-05-19T07:58:31|00:00:24|dcc-gehmlab-gpu-60|1|19|4G||/work/jrl78/Nanoparticles/JawBreakers/Different Partial Charges/EEM Full Library|
jrl78|FAILED|scavenger-gpu|2023-05-19T07:58:43|2023-05-19T07:59:04|00:00:21|dcc-gehmlab-gpu-60|1|19|4G||/work/jrl78/Nanoparticles/JawBreakers/Different Partial Charges/EEM Full Library|
jrl78|FAILED|scavenger-gpu|2023-05-19T07:59:19|2023-05-19T07:59:51|00:00:32|dcc-gehmlab-gpu-60|1|19|4G||/work/jrl78/Nanoparticles/JawBreakers/Different Partial Charges/EEM Full Library|
jrl78|COMPLETED|scavenger-gpu|2023-05-19T07:59:55|2023-05-20T11:01:20|1-03:01:25|dcc-gehmlab-gpu-54|1|19|4G||/work/jrl78/Nanoparticles/JawBreakers/Different Partial Charges/EEM Full Library|
jrl78|FAILED|scavenger-gpu|2023-05-19T08:27:06|2023-05-19T08:27:57|00:00:51|dcc-gehmlab-gpu-60|1|19|4G||/work/jrl78/Nanoparticles/JawBreakers/Different Partial Charges/EEM Full Library|
jrl78|COMPLETED|scavenger-gpu|2023-05-19T08:28:17|2023-05-19T22:48:17|14:20:00|dcc-youlab-gpu-33|1|10|4G||/work/jrl78/Nanoparticles/JawBreakers/Different Partial Charges/EEM Full Library|
jrl78|COMPLETED|scavenger-gpu|2023-05-19T08:29:29|2023-05-19T22:56:11|14:26:42|dcc-mainsahlab-gpu-01|1|6|4G||/work/jrl78/Nanoparticles/JawBreakers/Different Partial Charges/EEM Full Library|
jrl78|COMPLETED|scavenger-gpu|2023-05-19T09:56:31|2023-05-20T12:10:15|1-02:13:44|dcc-ece-gpu-03|1|13|4G||/work/jrl78/Nanoparticles/JawBreakers/Different Partial Charges/EEM Full Library|
jrl78|FAILED|scavenger-gpu|2023-05-19T10:40:26|2023-05-19T10:41:14|00:00:48|dcc-gehmlab-gpu-60|1|19|4G||/work/jrl78/Nanoparticles/JawBreakers/Different Partial Charges/EEM Full Library|
jrl78|FAILED|scavenger-gpu|2023-05-19T10:42:52|2023-05-19T10:43:10|00:00:18|dcc-gehmlab-gpu-60|1|19|4G||/work/jrl78/Nanoparticles/JawBreakers/Different Partial Charges/EEM Full Library|
jrl78|COMPLETED|scavenger-gpu|2023-05-19T10:41:14|2023-05-20T06:40:58|19:59:44|dcc-gehmlab-gpu-52|1|19|4G||/work/jrl78/Nanoparticles/JawBreakers/Different Partial Charges/EEM Full Library|
jrl78|PREEMPTED|scavenger-gpu|2023-05-19T10:43:43|2023-05-19T11:01:53|00:18:10|dcc-vossenlab-gpu-03|1|10|4G||/work/jrl78/Nanoparticles/JawBreakers/Different Partial Charges/EEM Full Library|
jrl78|FAILED|scavenger-gpu|2023-05-19T10:50:17|2023-05-19T10:50:43|00:00:26|dcc-gehmlab-gpu-60|1|19|4G||/work/jrl78/Nanoparticles/JawBreakers/Different Partial Charges/EEM Full Library|
jrl78|FAILED|scavenger-gpu|2023-05-19T10:51:05|2023-05-19T10:51:29|00:00:24|dcc-gehmlab-gpu-60|1|19|4G||/work/jrl78/Nanoparticles/JawBreakers/Different Partial Charges/EEM Full Library|
jrl78|FAILED|scavenger-gpu|2023-05-19T10:51:53|2023-05-19T10:52:17|00:00:24|dcc-gehmlab-gpu-60|1|19|4G||/work/jrl78/Nanoparticles/JawBreakers/Different Partial Charges/EEM Full Library|
jrl78|FAILED|scavenger-gpu|2023-05-19T10:52:45|2023-05-19T10:53:05|00:00:20|dcc-gehmlab-gpu-60|1|19|4G||/work/jrl78/Nanoparticles/JawBreakers/Different Partial Charges/EEM Full Library|
jrl78|COMPLETED|scavenger-gpu|2023-05-19T10:52:45|2023-05-20T04:27:49|17:35:04|dcc-gehmlab-gpu-53|1|19|4G||/work/jrl78/Nanoparticles/JawBreakers/Different Partial Charges/EEM Full Library|
jrl78|FAILED|scavenger-gpu|2023-05-19T10:53:33|2023-05-19T10:54:01|00:00:28|dcc-gehmlab-gpu-60|1|19|4G||/work/jrl78/Nanoparticles/JawBreakers/Different Partial Charges/EEM Full Library|
jrl78|FAILED|scavenger-gpu|2023-05-19T10:54:26|2023-05-19T10:54:50|00:00:24|dcc-gehmlab-gpu-60|1|19|4G||/work/jrl78/Nanoparticles/JawBreakers/Different Partial Charges/EEM Full Library|
jrl78|FAILED|scavenger-gpu|2023-05-19T10:55:13|2023-05-19T10:55:37|00:00:24|dcc-gehmlab-gpu-60|1|19|4G||/work/jrl78/Nanoparticles/JawBreakers/Different Partial Charges/EEM Full Library|
jrl78|FAILED|scavenger-gpu|2023-05-19T10:56:03|2023-05-19T10:56:30|00:00:27|dcc-gehmlab-gpu-60|1|19|4G||/work/jrl78/Nanoparticles/JawBreakers/Different Partial Charges/EEM Full Library|
jrl78|FAILED|scavenger-gpu|2023-05-19T10:56:54|2023-05-19T10:57:18|00:00:24|dcc-gehmlab-gpu-60|1|19|4G||/work/jrl78/Nanoparticles/JawBreakers/Different Partial Charges/EEM Full Library|
jrl78|FAILED|scavenger-gpu|2023-05-19T10:57:44|2023-05-19T10:58:07|00:00:23|dcc-gehmlab-gpu-60|1|19|4G||/work/jrl78/Nanoparticles/JawBreakers/Different Partial Charges/EEM Full Library|
jrl78|FAILED|scavenger-gpu|2023-05-19T10:58:33|2023-05-19T10:58:58|00:00:25|dcc-gehmlab-gpu-60|1|19|4G||/work/jrl78/Nanoparticles/JawBreakers/Different Partial Charges/EEM Full Library|
jrl78|FAILED|scavenger-gpu|2023-05-19T10:59:22|2023-05-19T10:59:45|00:00:23|dcc-gehmlab-gpu-60|1|19|4G||/work/jrl78/Nanoparticles/JawBreakers/Different Partial Charges/EEM Full Library|
jrl78|FAILED|scavenger-gpu|2023-05-19T11:00:12|2023-05-19T11:00:34|00:00:22|dcc-gehmlab-gpu-60|1|19|4G||/work/jrl78/Nanoparticles/JawBreakers/Different Partial Charges/EEM Full Library|
jrl78|FAILED|scavenger-gpu|2023-05-19T11:01:06|2023-05-19T11:01:34|00:00:28|dcc-gehmlab-gpu-60|1|19|4G||/work/jrl78/Nanoparticles/JawBreakers/Different Partial Charges/EEM Full Library|
jrl78|FAILED|scavenger-gpu|2023-05-19T11:01:55|2023-05-19T11:02:19|00:00:24|dcc-gehmlab-gpu-60|1|19|4G||/work/jrl78/Nanoparticles/JawBreakers/Different Partial Charges/EEM Full Library|
jrl78|COMPLETED|scavenger-gpu|2023-05-19T11:01:55|2023-05-20T10:49:02|23:47:07|dcc-gehmlab-gpu-50|1|19|4G||/work/jrl78/Nanoparticles/JawBreakers/Different Partial Charges/EEM Full Library|
jrl78|FAILED|scavenger-gpu|2023-05-19T11:02:44|2023-05-19T11:03:11|00:00:27|dcc-gehmlab-gpu-60|1|19|4G||/work/jrl78/Nanoparticles/JawBreakers/Different Partial Charges/EEM Full Library|
jrl78|FAILED|scavenger-gpu|2023-05-19T11:03:32|2023-05-19T11:03:55|00:00:23|dcc-gehmlab-gpu-60|1|19|4G||/work/jrl78/Nanoparticles/JawBreakers/Different Partial Charges/EEM Full Library|
jrl78|FAILED|scavenger-gpu|2023-05-19T11:04:24|2023-05-19T11:04:44|00:00:20|dcc-gehmlab-gpu-60|1|19|4G||/work/jrl78/Nanoparticles/JawBreakers/Different Partial Charges/EEM Full Library|
jrl78|FAILED|scavenger-gpu|2023-05-19T11:05:13|2023-05-19T11:05:37|00:00:24|dcc-gehmlab-gpu-60|1|19|4G||/work/jrl78/Nanoparticles/JawBreakers/Different Partial Charges/EEM Full Library|
jrl78|FAILED|scavenger-gpu|2023-05-19T11:06:04|2023-05-19T11:06:21|00:00:17|dcc-gehmlab-gpu-60|1|19|4G||/work/jrl78/Nanoparticles/JawBreakers/Different Partial Charges/EEM Full Library|
jrl78|FAILED|scavenger-gpu|2023-05-19T11:06:55|2023-05-19T11:07:18|00:00:23|dcc-gehmlab-gpu-60|1|19|4G||/work/jrl78/Nanoparticles/JawBreakers/Different Partial Charges/EEM Full Library|
jrl78|FAILED|scavenger-gpu|2023-05-19T11:07:44|2023-05-19T11:08:16|00:00:32|dcc-gehmlab-gpu-60|1|19|4G||/work/jrl78/Nanoparticles/JawBreakers/Different Partial Charges/EEM Full Library|
jrl78|COMPLETED|scavenger-gpu|2023-05-19T11:08:37|2023-05-20T09:11:58|22:03:21|dcc-gehmlab-gpu-37|1|19|4G||/work/jrl78/Nanoparticles/JawBreakers/Different Partial Charges/EEM Full Library|
jrl78|COMPLETED|scavenger-gpu|2023-05-19T11:51:47|2023-05-20T09:54:19|22:02:32|dcc-gehmlab-gpu-45|1|19|4G||/work/jrl78/Nanoparticles/JawBreakers/Different Partial Charges/EEM Full Library|
jrl78|COMPLETED|scavenger-gpu|2023-05-19T11:55:33|2023-05-20T09:14:53|21:19:20|dcc-motesa-gpu-03|1|6|4G||/work/jrl78/Nanoparticles/JawBreakers/Different Partial Charges/EEM Full Library|
jrl78|FAILED|scavenger-gpu|2023-05-19T14:31:14|2023-05-19T14:32:05|00:00:51|dcc-gehmlab-gpu-60|1|19|4G||/work/jrl78/Nanoparticles/JawBreakers/Different Partial Charges/EEM Full Library|
jrl78|FAILED|scavenger-gpu|2023-05-19T14:32:34|2023-05-19T14:33:00|00:00:26|dcc-gehmlab-gpu-60|1|19|4G||/work/jrl78/Nanoparticles/JawBreakers/Different Partial Charges/EEM Full Library|
jrl78|FAILED|scavenger-gpu|2023-05-19T14:33:05|2023-05-19T14:33:31|00:00:26|dcc-gehmlab-gpu-60|1|19|4G||/work/jrl78/Nanoparticles/JawBreakers/Different Partial Charges/EEM Full Library|
jrl78|FAILED|scavenger-gpu|2023-05-19T14:33:52|2023-05-19T14:34:13|00:00:21|dcc-gehmlab-gpu-60|1|19|4G||/work/jrl78/Nanoparticles/JawBreakers/Different Partial Charges/EEM Full Library|
jrl78|FAILED|scavenger-gpu|2023-05-19T14:34:27|2023-05-19T14:34:47|00:00:20|dcc-gehmlab-gpu-60|1|19|4G||/work/jrl78/Nanoparticles/JawBreakers/Different Partial Charges/EEM Full Library|
jrl78|FAILED|scavenger-gpu|2023-05-19T14:35:02|2023-05-19T14:35:27|00:00:25|dcc-gehmlab-gpu-60|1|19|4G||/work/jrl78/Nanoparticles/JawBreakers/Different Partial Charges/EEM Full Library|
jrl78|FAILED|scavenger-gpu|2023-05-19T14:35:39|2023-05-19T14:35:58|00:00:19|dcc-gehmlab-gpu-60|1|19|4G||/work/jrl78/Nanoparticles/JawBreakers/Different Partial Charges/EEM Full Library|
jrl78|FAILED|scavenger-gpu|2023-05-19T14:36:14|2023-05-19T14:36:34|00:00:20|dcc-gehmlab-gpu-60|1|19|4G||/work/jrl78/Nanoparticles/JawBreakers/Different Partial Charges/EEM Full Library|
jrl78|FAILED|scavenger-gpu|2023-05-19T14:36:49|2023-05-19T14:37:12|00:00:23|dcc-gehmlab-gpu-60|1|19|4G||/work/jrl78/Nanoparticles/JawBreakers/Different Partial Charges/EEM Full Library|
jrl78|FAILED|scavenger-gpu|2023-05-19T14:37:23|2023-05-19T14:37:43|00:00:20|dcc-gehmlab-gpu-60|1|19|4G||/work/jrl78/Nanoparticles/JawBreakers/Different Partial Charges/EEM Full Library|
jrl78|FAILED|scavenger-gpu|2023-05-19T14:37:58|2023-05-19T14:38:18|00:00:20|dcc-gehmlab-gpu-60|1|19|4G||/work/jrl78/Nanoparticles/JawBreakers/Different Partial Charges/EEM Full Library|
jrl78|FAILED|scavenger-gpu|2023-05-19T14:38:31|2023-05-19T14:38:58|00:00:27|dcc-gehmlab-gpu-60|1|19|4G||/work/jrl78/Nanoparticles/JawBreakers/Different Partial Charges/EEM Full Library|
jrl78|FAILED|scavenger-gpu|2023-05-19T14:39:05|2023-05-19T14:39:27|00:00:22|dcc-gehmlab-gpu-60|1|19|4G||/work/jrl78/Nanoparticles/JawBreakers/Different Partial Charges/EEM Full Library|
jrl78|FAILED|scavenger-gpu|2023-05-19T14:39:41|2023-05-19T14:40:03|00:00:22|dcc-gehmlab-gpu-60|1|19|4G||/work/jrl78/Nanoparticles/JawBreakers/Different Partial Charges/EEM Full Library|
jrl78|FAILED|scavenger-gpu|2023-05-19T14:40:09|2023-05-19T14:40:44|00:00:35|dcc-gehmlab-gpu-60|1|19|4G||/work/jrl78/Nanoparticles/JawBreakers/Different Partial Charges/EEM Full Library|
jrl78|FAILED|scavenger-gpu|2023-05-19T17:54:33|2023-05-20T18:40:39|1-00:46:06|dcc-motesa-gpu-04|1|6|4G||/work/jrl78/Nanoparticles/JawBreakers/Different Partial Charges/EEM Full Library|
jrl78|PREEMPTED|scavenger-gpu|2023-05-19T14:40:47|2023-05-20T11:19:12|20:38:25|dcc-gehmlab-gpu-30|1|19|4G||/work/jrl78/Nanoparticles/JawBreakers/Different Partial Charges/EEM Full Library|
jrl78|COMPLETED|scavenger-gpu|2023-05-19T21:28:25|2023-05-20T16:41:19|19:12:54|dcc-mainsahlab-gpu-03|1|6|4G||/work/jrl78/Nanoparticles/JawBreakers/Different Partial Charges/EEM Full Library|
jrl78|COMPLETED|scavenger-gpu|2023-05-19T21:37:08|2023-05-20T16:50:13|19:13:05|dcc-mainsahlab-gpu-02|1|6|4G||/work/jrl78/Nanoparticles/JawBreakers/Different Partial Charges/EEM Full Library|
jrl78|COMPLETED|scavenger-gpu|2023-05-19T22:48:54|2023-05-20T17:47:30|18:58:36|dcc-youlab-gpu-33|1|10|4G||/work/jrl78/Nanoparticles/JawBreakers/Different Partial Charges/EEM Full Library|
jrl78|COMPLETED|scavenger-gpu|2023-05-19T22:56:32|2023-05-20T14:50:19|15:53:47|dcc-mainsahlab-gpu-01|1|6|4G||/work/jrl78/Nanoparticles/JawBreakers/Different Partial Charges/EEM Full Library|
jrl78|COMPLETED|scavenger-gpu|2023-05-20T00:20:16|2023-05-20T15:54:29|15:34:13|dcc-motesa-gpu-01|1|6|4G||/work/jrl78/Nanoparticles/JawBreakers/Different Partial Charges/EEM Full Library|
jrl78|COMPLETED|scavenger-gpu|2023-05-20T00:46:43|2023-05-20T16:33:06|15:46:23|dcc-mainsahlab-gpu-04|1|6|4G||/work/jrl78/Nanoparticles/JawBreakers/Different Partial Charges/EEM Full Library|
jrl78|PREEMPTED|scavenger-gpu|2023-05-20T04:28:06|2023-05-20T11:19:16|06:51:10|dcc-gehmlab-gpu-53|1|19|4G||/work/jrl78/Nanoparticles/JawBreakers/Different Partial Charges/EEM Full Library|
jrl78|FAILED|scavenger-gpu|2023-05-20T06:41:47|2023-05-20T19:07:13|12:25:26|dcc-youlab-gpu-32|1|10|4G||/work/jrl78/Nanoparticles/JawBreakers/Different Partial Charges/EEM Full Library|
jrl78|FAILED|scavenger-gpu|2023-05-20T06:41:47|2023-05-20T19:13:14|12:31:27|dcc-youlab-gpu-24|1|10|4G||/work/jrl78/Nanoparticles/JawBreakers/Different Partial Charges/EEM Full Library|
kw297|CANCELLED by 1215097|scavenger-gpu|2023-05-18T16:50:53|2023-05-19T16:14:28|23:23:35|dcc-chsi-gpu-01|1|4|20G||/hpc/group/ychenlab/DA|
kw297|COMPLETED|scavenger-gpu|2023-05-18T17:22:26|2023-05-19T07:54:15|14:31:49|dcc-chsi-gpu-02|1|2|8G||/hpc/group/ychenlab/DA|
kw297|COMPLETED|scavenger-gpu|2023-05-18T17:22:26|2023-05-19T07:44:45|14:22:19|dcc-chsi-gpu-03|1|2|8G||/hpc/group/ychenlab/DA|
kw297|COMPLETED|scavenger-gpu|2023-05-18T17:22:26|2023-05-19T07:33:44|14:11:18|dcc-chsi-gpu-04|1|2|8G||/hpc/group/ychenlab/DA|
kw297|COMPLETED|scavenger-gpu|2023-05-18T17:22:26|2023-05-19T07:17:14|13:54:48|dcc-gehmlab-gpu-19|1|2|8G||/hpc/group/ychenlab/DA|
kw297|FAILED|scavenger-gpu|2023-05-18T17:22:27|2023-05-19T07:07:14|13:44:47|dcc-carlsonlab-gpu-16|1|2|8G||/hpc/group/ychenlab/DA|
kw297|FAILED|scavenger-gpu|2023-05-18T17:22:27|2023-05-19T06:09:04|12:46:37|dcc-ece-gpu-01|1|2|8G||/hpc/group/ychenlab/DA|
kw297|COMPLETED|scavenger-gpu|2023-05-18T17:22:27|2023-05-19T08:14:57|14:52:30|dcc-ece-gpu-02|1|2|8G||/hpc/group/ychenlab/DA|
kw297|COMPLETED|scavenger-gpu|2023-05-18T17:22:27|2023-05-19T14:00:46|20:38:19|dcc-allenlab-gpu-04|1|2|8G||/hpc/group/ychenlab/DA|
kw297|COMPLETED|scavenger-gpu|2023-05-18T17:22:27|2023-05-19T11:55:35|18:33:08|dcc-allenlab-gpu-01|1|2|8G||/hpc/group/ychenlab/DA|
kw297|COMPLETED|scavenger-gpu|2023-05-18T17:22:27|2023-05-19T10:29:20|17:06:53|dcc-allenlab-gpu-02|1|2|8G||/hpc/group/ychenlab/DA|
kw297|COMPLETED|scavenger-gpu|2023-05-18T17:22:27|2023-05-19T11:24:41|18:02:14|dcc-allenlab-gpu-03|1|2|8G||/hpc/group/ychenlab/DA|
kw297|COMPLETED|scavenger-gpu|2023-05-18T17:22:27|2023-05-19T11:48:52|18:26:25|dcc-biostat-gpu-01|1|2|8G||/hpc/group/ychenlab/DA|
kw297|FAILED|scavenger-gpu|2023-05-18T17:22:27|2023-05-19T10:44:03|17:21:36|dcc-biostat-gpu-02|1|2|8G||/hpc/group/ychenlab/DA|
kw297|FAILED|scavenger-gpu|2023-05-18T17:22:30|2023-05-19T06:31:14|13:08:44|dcc-brunellab-gpu-01|1|2|8G||/hpc/group/ychenlab/DA|
kw297|COMPLETED|scavenger-gpu|2023-05-18T17:22:30|2023-05-19T07:56:40|14:34:10|dcc-brunellab-gpu-02|1|2|8G||/hpc/group/ychenlab/DA|
kw297|COMPLETED|scavenger-gpu|2023-05-18T17:22:30|2023-05-19T08:17:48|14:55:18|dcc-brunellab-gpu-03|1|2|8G||/hpc/group/ychenlab/DA|
kw297|COMPLETED|scavenger-gpu|2023-05-18T17:22:30|2023-05-19T07:50:27|14:27:57|dcc-brunellab-gpu-04|1|2|8G||/hpc/group/ychenlab/DA|
kw297|COMPLETED|scavenger-gpu|2023-05-18T17:22:30|2023-05-19T08:01:59|14:39:29|dcc-chsi-gpu-07|1|2|8G||/hpc/group/ychenlab/DA|
kw297|COMPLETED|scavenger-gpu|2023-05-18T17:22:30|2023-05-19T07:44:45|14:22:15|dcc-chsi-gpu-08|1|2|8G||/hpc/group/ychenlab/DA|
kw297|COMPLETED|scavenger-gpu|2023-05-18T17:22:30|2023-05-19T13:27:38|20:05:08|dcc-collinslab-gpu-01|1|2|8G||/hpc/group/ychenlab/DA|
kw297|CANCELLED by 1215097|scavenger-gpu|2023-05-18T17:22:30|2023-05-19T16:14:28|22:51:58|dcc-collinslab-gpu-02|1|2|8G||/hpc/group/ychenlab/DA|
kw297|CANCELLED by 1215097|scavenger-gpu|2023-05-18T17:22:30|2023-05-19T16:14:28|22:51:58|dcc-collinslab-gpu-03|1|2|8G||/hpc/group/ychenlab/DA|
kw297|COMPLETED|scavenger-gpu|2023-05-18T17:22:30|2023-05-19T13:45:53|20:23:23|dcc-collinslab-gpu-04|1|2|8G||/hpc/group/ychenlab/DA|
kw297|COMPLETED|scavenger-gpu|2023-05-18T17:22:30|2023-05-19T08:30:29|15:07:59|dcc-dsplus-gpu-06|1|2|8G||/hpc/group/ychenlab/DA|
kw297|COMPLETED|scavenger-gpu|2023-05-18T17:22:30|2023-05-19T07:43:01|14:20:31|dcc-dsplus-gpu-07|1|2|8G||/hpc/group/ychenlab/DA|
kw297|COMPLETED|scavenger-gpu|2023-05-18T17:22:30|2023-05-19T07:08:26|13:45:56|dcc-dsplus-gpu-08|1|2|8G||/hpc/group/ychenlab/DA|
kw297|COMPLETED|scavenger-gpu|2023-05-18T17:22:30|2023-05-19T07:27:37|14:05:07|dcc-dsplus-gpu-09|1|2|8G||/hpc/group/ychenlab/DA|
kw297|COMPLETED|scavenger-gpu|2023-05-18T17:22:30|2023-05-19T07:14:27|13:51:57|dcc-dsplus-gpu-10|1|2|8G||/hpc/group/ychenlab/DA|
kw297|COMPLETED|scavenger-gpu|2023-05-18T17:22:30|2023-05-19T10:33:46|17:11:16|dcc-gehmlab-gpu-01|1|2|8G||/hpc/group/ychenlab/DA|
kw297|COMPLETED|scavenger-gpu|2023-05-18T17:22:30|2023-05-19T10:58:53|17:36:23|dcc-gehmlab-gpu-02|1|2|8G||/hpc/group/ychenlab/DA|
kw297|COMPLETED|scavenger-gpu|2023-05-18T17:22:30|2023-05-19T08:03:03|14:40:33|dcc-gehmlab-gpu-03|1|2|8G||/hpc/group/ychenlab/DA|
kw297|COMPLETED|scavenger-gpu|2023-05-18T17:22:33|2023-05-19T06:04:53|12:42:20|dcc-gehmlab-gpu-04|1|2|8G||/hpc/group/ychenlab/DA|
yw564|PREEMPTED|scavenger-gpu|2023-05-18T17:41:10|2023-05-21T23:54:52|3-06:13:42|dcc-viplab-gpu-01|1|2|50G||/hpc/group/jilab/yw564/GeneSegNet|
yx240|COMPLETED|scavenger-gpu|2023-05-18T18:46:53|2023-05-19T23:10:49|1-04:23:56|dcc-carlsonlab-gpu-03|1|21|2G||/work/yx240/project-martini/new/simutools/scripts|
yx240|CANCELLED by 1495323|scavenger-gpu|2023-05-18T18:48:59|2023-05-20T11:27:55|1-16:38:56|dcc-carin-gpu-07|1|19|2G||/work/yx240/project-martini/new/simutools/scripts|
yx240|CANCELLED by 1495323|scavenger-gpu|2023-05-18T18:50:16|2023-05-20T11:27:55|1-16:37:39|dcc-carin-gpu-06|1|19|2G||/work/yx240/project-martini/new/simutools/scripts|
yx240|CANCELLED by 1495323|scavenger-gpu|2023-05-18T18:50:22|2023-05-20T11:27:55|1-16:37:33|dcc-carin-gpu-04|1|19|2G||/work/yx240/project-martini/new/simutools/scripts|
yx240|CANCELLED by 1495323|scavenger-gpu|2023-05-18T20:04:51|2023-05-20T11:27:55|1-15:23:04|dcc-carin-gpu-03|1|19|2G||/work/yx240/project-martini/new/simutools/scripts|
yx240|CANCELLED by 1495323|scavenger-gpu|2023-05-18T20:05:20|2023-05-20T11:27:55|1-15:22:35|dcc-carin-gpu-02|1|19|2G||/work/yx240/project-martini/new/simutools/scripts|
yk206|COMPLETED|scavenger-gpu|2023-05-18T21:42:15|2023-05-19T06:36:18|08:54:03|dcc-tdunn-gpu-02|1|44|24G||/hpc/home/yk206/script/face_download|
cem125|PREEMPTED|scavenger-gpu|2023-05-18T20:48:03|2023-05-19T07:47:31|10:59:28|dcc-brownlab-gpu-04|1|19|50G||/hpc/group/rekerlab/cem125/OpenNMT-py|
cem125|PREEMPTED|scavenger-gpu|2023-05-18T20:48:03|2023-05-19T07:47:31|10:59:28|dcc-brownlab-gpu-03|1|19|50G||/hpc/group/rekerlab/cem125/OpenNMT-py|
cem125|PREEMPTED|scavenger-gpu|2023-05-18T20:48:03|2023-05-19T07:47:31|10:59:28|dcc-brownlab-gpu-02|1|19|50G||/hpc/group/rekerlab/cem125/OpenNMT-py|
cem125|PREEMPTED|scavenger-gpu|2023-05-18T20:48:34|2023-05-19T07:47:31|10:58:57|dcc-brownlab-gpu-01|1|19|50G||/hpc/group/rekerlab/cem125/OpenNMT-py|
cem125|COMPLETED|scavenger-gpu|2023-05-18T21:42:41|2023-05-20T03:54:58|1-06:12:17|dcc-gehmlab-gpu-42|1|19|50G||/hpc/group/rekerlab/cem125/OpenNMT-py|
cem125|COMPLETED|scavenger-gpu|2023-05-18T21:43:12|2023-05-20T07:11:00|1-09:27:48|dcc-gehmlab-gpu-49|1|19|50G||/hpc/group/rekerlab/cem125/OpenNMT-py|
cem125|COMPLETED|scavenger-gpu|2023-05-18T21:43:12|2023-05-20T06:29:56|1-08:46:44|dcc-gehmlab-gpu-22|1|19|50G||/hpc/group/rekerlab/cem125/OpenNMT-py|
cem125|COMPLETED|scavenger-gpu|2023-05-18T21:43:12|2023-05-20T13:50:15|1-16:07:03|dcc-carlsonlab-gpu-02|1|21|50G||/hpc/group/rekerlab/cem125/OpenNMT-py|
cem125|COMPLETED|scavenger-gpu|2023-05-18T21:43:14|2023-05-20T03:24:20|1-05:41:06|dcc-gehmlab-gpu-05|1|19|50G||/hpc/group/rekerlab/cem125/OpenNMT-py|
cem125|COMPLETED|scavenger-gpu|2023-05-18T21:43:17|2023-05-20T08:22:17|1-10:39:00|dcc-youlab-gpu-05|1|10|50G||/hpc/group/rekerlab/cem125/OpenNMT-py|
cem125|COMPLETED|scavenger-gpu|2023-05-18T21:43:19|2023-05-20T08:52:43|1-11:09:24|dcc-youlab-gpu-35|1|10|50G||/hpc/group/rekerlab/cem125/OpenNMT-py|
cem125|COMPLETED|scavenger-gpu|2023-05-18T21:43:19|2023-05-20T07:46:42|1-10:03:23|dcc-youlab-gpu-31|1|10|50G||/hpc/group/rekerlab/cem125/OpenNMT-py|
as1296|TIMEOUT|scavenger-gpu|2023-05-18T21:17:13|2023-05-19T05:17:20|08:00:07|dcc-gehmlab-gpu-27|1|10|60000M||/hpc/group/tdunn/asabath|
yk206|OUT_OF_MEMORY|scavenger-gpu|2023-05-18T21:43:12|2023-05-19T05:01:40|07:18:28|dcc-youlab-gpu-32|1|10|24G||/hpc/home/yk206/script/face_download|
zcb2|COMPLETED|scavenger-gpu|2023-05-18T23:30:00|2023-05-19T08:38:26|09:08:26|dcc-ultrasound-gpu-04|1|1|2G||/hpc/home/zcb2/causal-inference-for-neurological-data/train|
zcb2|COMPLETED|scavenger-gpu|2023-05-18T23:35:50|2023-05-19T09:52:17|10:16:27|dcc-ultrasound-gpu-04|1|1|2G||/hpc/home/zcb2/causal-inference-for-neurological-data/train|
zcb2|COMPLETED|scavenger-gpu|2023-05-18T23:40:52|2023-05-19T09:52:12|10:11:20|dcc-ultrasound-gpu-04|1|1|2G||/hpc/home/zcb2/causal-inference-for-neurological-data/train|
zcb2|COMPLETED|scavenger-gpu|2023-05-18T23:46:56|2023-05-19T09:44:30|09:57:34|dcc-ultrasound-gpu-01|1|1|2G||/hpc/home/zcb2/causal-inference-for-neurological-data/train|
yw564|CANCELLED by 1502970|scavenger-gpu|2023-05-19T00:27:55|2023-05-19T11:33:55|11:06:00|dcc-pbenfeylab-gpu-02|1|10|100G||/hpc/group/jilab/yw564/GeneSegNet|
hk276|COMPLETED|scavenger-gpu|2023-05-19T02:27:58|2023-05-20T04:52:10|1-02:24:12|dcc-carin-gpu-01|1|12|50000M||/hpc/group/tdunn/hk276/tangosave/src|
hk276|COMPLETED|scavenger-gpu|2023-05-19T02:28:09|2023-05-19T15:28:17|13:00:08|dcc-carin-gpu-05|1|12|50000M||/hpc/group/tdunn/hk276/tangosave/src|
hk276|PREEMPTED|scavenger-gpu|2023-05-19T02:28:38|2023-05-19T12:40:47|10:12:09|dcc-dsplus-gpu-05|1|12|50000M||/hpc/group/tdunn/hk276/tangosave/src|
hk276|COMPLETED|scavenger-gpu|2023-05-19T02:28:47|2023-05-20T03:50:25|1-01:21:38|dcc-gehmlab-gpu-18|1|12|50000M||/hpc/group/tdunn/hk276/tangosave/src|
pkk16|TIMEOUT|scavenger-gpu|2023-05-19T06:36:38|2023-05-20T06:36:49|1-00:00:11|dcc-tdunn-gpu-02|1|2|20G||/hpc/home/pkk16/ondemand/data/sys/dashboard/batch_connect/sys/bc_jupyter/output/fe8e2bfc-3e0d-4e40-ae6f-3a9fd020fd43|
