yw564|TIMEOUT|scavenger-gpu|2023-05-04T17:26:37|2023-05-11T17:27:01|7-00:00:24|dcc-mastatlab-gpu-01|1|2|50G||/hpc/group/jilab/imaging/huimin/Inference_rebuttal|
yk206|TIMEOUT|scavenger-gpu|2023-05-07T13:08:05|2023-05-14T13:08:33|7-00:00:28|dcc-motesa-gpu-04|1|6|12G||/hpc/home/yk206/script|
yk206|TIMEOUT|scavenger-gpu|2023-05-07T13:08:05|2023-05-14T13:08:33|7-00:00:28|dcc-motesa-gpu-01|1|6|12G||/hpc/home/yk206/script|
pkk16|TIMEOUT|scavenger-gpu|2023-05-08T09:15:58|2023-05-09T09:16:03|1-00:00:05|dcc-mastatlab-gpu-01|1|2|20G||/hpc/home/pkk16/ondemand/data/sys/dashboard/batch_connect/sys/bc_jupyter/output/482e4a3b-fba4-4c62-b4fe-3114b198129a|
pkk16|TIMEOUT|scavenger-gpu|2023-05-08T10:02:55|2023-05-09T10:03:10|1-00:00:15|dcc-youlab-gpu-01|1|2|100G||/hpc/home/pkk16/ondemand/data/sys/dashboard/batch_connect/sys/bc_jupyter/output/c4be4274-2f28-4f62-a096-87fb868c3a5a|
cem125|CANCELLED by 1491193|scavenger-gpu|2023-05-08T10:20:40|2023-05-09T09:50:23|23:29:43|dcc-youlab-gpu-57|1|10|50G||/hpc/group/rekerlab/cem125/OpenNMT-py|
cem125|CANCELLED by 1491193|scavenger-gpu|2023-05-08T10:20:45|2023-05-09T09:50:16|23:29:31|dcc-youlab-gpu-56|1|10|50G||/hpc/group/rekerlab/cem125/OpenNMT-py|
cem125|CANCELLED by 1491193|scavenger-gpu|2023-05-08T10:20:50|2023-05-09T09:50:11|23:29:21|dcc-youlab-gpu-55|1|10|50G||/hpc/group/rekerlab/cem125/OpenNMT-py|
kw297|CANCELLED by 1215097|scavenger-gpu|2023-05-08T11:15:47|2023-05-10T08:56:01|1-21:40:14|dcc-motesa-gpu-03|1|4|20G||/hpc/group/ychenlab/DA|
pkk16|TIMEOUT|scavenger-gpu|2023-05-08T15:11:38|2023-05-09T15:11:41|1-00:00:03|dcc-youlab-gpu-01|1|2|100G||/hpc/home/pkk16/ondemand/data/sys/dashboard/batch_connect/sys/bc_jupyter/output/80d27b2e-20cc-4899-8cc2-54f0bab97b8f|
yl407|TIMEOUT|scavenger-gpu|2023-05-08T15:31:08|2023-05-09T11:31:15|20:00:07|dcc-ultrasound-gpu-04|1|2|120G||/hpc/home/yl407/ondemand/data/sys/dashboard/batch_connect/sys/bc_jupyter/output/de09e608-b12c-4a93-8749-25c77b6a5208|
dl370|PREEMPTED|scavenger-gpu|2023-05-08T16:22:29|2023-05-10T21:17:59|2-04:55:30|dcc-youlab-gpu-53|1|10|2G||/work/dl370|
mk423|CANCELLED by 1192605|scavenger-gpu|2023-05-08T18:36:03|2023-05-09T15:53:23|21:17:20|dcc-ultrasound-gpu-03|1|12|80G||/hpc/home/mk423/Anxiety/FullDataWork/Code/Training/SingleTask|
mk423|CANCELLED by 1192605|scavenger-gpu|2023-05-08T18:36:03|2023-05-09T15:53:23|21:17:20|dcc-collinslab-gpu-01|1|12|80G||/hpc/home/mk423/Anxiety/FullDataWork/Code/Training/SingleTask|
mk423|CANCELLED by 1192605|scavenger-gpu|2023-05-08T19:26:58|2023-05-09T15:53:23|20:26:25|dcc-biostat-gpu-01|1|12|80G||/hpc/home/mk423/Anxiety/FullDataWork/Code/Training/SingleTask|
mk423|PREEMPTED|scavenger-gpu|2023-05-08T20:13:07|2023-05-09T09:42:44|13:29:37|dcc-carlsonlab-gpu-02|1|12|80G||/hpc/home/mk423/Anxiety/FullDataWork/Code/Training/SingleTask|
jrl78|COMPLETED|scavenger-gpu|2023-05-08T21:59:37|2023-05-09T09:13:16|11:13:39|dcc-youlab-gpu-49|1|10|2G||/work/jrl78/Nanoparticles/JawBreakers/Big Library/run2|
jrl78|COMPLETED|scavenger-gpu|2023-05-08T21:59:39|2023-05-09T14:31:06|16:31:27|dcc-youlab-gpu-48|1|10|2G||/work/jrl78/Nanoparticles/JawBreakers/Big Library/run2|
jrl78|COMPLETED|scavenger-gpu|2023-05-08T21:59:42|2023-05-09T11:19:13|13:19:31|dcc-youlab-gpu-43|1|10|2G||/work/jrl78/Nanoparticles/JawBreakers/Big Library/run2|
jrl78|COMPLETED|scavenger-gpu|2023-05-08T21:59:45|2023-05-09T14:42:43|16:42:58|dcc-youlab-gpu-42|1|10|2G||/work/jrl78/Nanoparticles/JawBreakers/Big Library/run2|
jrl78|COMPLETED|scavenger-gpu|2023-05-08T21:59:48|2023-05-09T12:51:17|14:51:29|dcc-youlab-gpu-41|1|10|2G||/work/jrl78/Nanoparticles/JawBreakers/Big Library/run2|
jrl78|COMPLETED|scavenger-gpu|2023-05-08T21:59:50|2023-05-09T11:07:15|13:07:25|dcc-youlab-gpu-40|1|10|2G||/work/jrl78/Nanoparticles/JawBreakers/Big Library/run2|
jrl78|COMPLETED|scavenger-gpu|2023-05-08T21:59:52|2023-05-09T11:53:30|13:53:38|dcc-youlab-gpu-39|1|10|2G||/work/jrl78/Nanoparticles/JawBreakers/Big Library/run2|
jrl78|COMPLETED|scavenger-gpu|2023-05-08T21:59:55|2023-05-09T15:59:59|18:00:04|dcc-youlab-gpu-38|1|10|2G||/work/jrl78/Nanoparticles/JawBreakers/Big Library/run2|
jrl78|COMPLETED|scavenger-gpu|2023-05-08T22:13:14|2023-05-09T14:15:00|16:01:46|dcc-youlab-gpu-50|1|10|2G||/work/jrl78/Nanoparticles/JawBreakers/Big Library/run2|
jrl78|COMPLETED|scavenger-gpu|2023-05-08T22:13:14|2023-05-09T12:36:24|14:23:10|dcc-youlab-gpu-37|1|10|2G||/work/jrl78/Nanoparticles/JawBreakers/Big Library/run2|
jrl78|COMPLETED|scavenger-gpu|2023-05-08T22:13:14|2023-05-09T15:07:13|16:53:59|dcc-youlab-gpu-35|1|10|2G||/work/jrl78/Nanoparticles/JawBreakers/Big Library/run2|
jrl78|COMPLETED|scavenger-gpu|2023-05-08T22:13:14|2023-05-09T14:39:03|16:25:49|dcc-youlab-gpu-34|1|10|2G||/work/jrl78/Nanoparticles/JawBreakers/Big Library/run2|
jrl78|COMPLETED|scavenger-gpu|2023-05-08T22:13:14|2023-05-09T12:42:36|14:29:22|dcc-youlab-gpu-33|1|10|2G||/work/jrl78/Nanoparticles/JawBreakers/Big Library/run2|
jrl78|COMPLETED|scavenger-gpu|2023-05-08T22:13:14|2023-05-09T22:31:41|1-00:18:27|dcc-youlab-gpu-32|1|10|2G||/work/jrl78/Nanoparticles/JawBreakers/Big Library/run2|
jrl78|COMPLETED|scavenger-gpu|2023-05-08T22:13:14|2023-05-09T15:39:23|17:26:09|dcc-youlab-gpu-23|1|10|2G||/work/jrl78/Nanoparticles/JawBreakers/Big Library/run2|
jrl78|COMPLETED|scavenger-gpu|2023-05-08T22:13:54|2023-05-09T11:12:55|12:59:01|dcc-youlab-gpu-36|1|10|2G||/work/jrl78/Nanoparticles/JawBreakers/Big Library/run2|
jrl78|COMPLETED|scavenger-gpu|2023-05-08T22:14:10|2023-05-09T14:26:48|16:12:38|dcc-youlab-gpu-31|1|10|2G||/work/jrl78/Nanoparticles/JawBreakers/Big Library/run2|
jrl78|COMPLETED|scavenger-gpu|2023-05-08T22:27:18|2023-05-09T10:43:18|12:16:00|dcc-youlab-gpu-51|1|10|2G||/work/jrl78/Nanoparticles/JawBreakers/Big Library/run2|
jrl78|COMPLETED|scavenger-gpu|2023-05-08T22:40:11|2023-05-09T12:32:55|13:52:44|dcc-youlab-gpu-54|1|10|2G||/work/jrl78/Nanoparticles/JawBreakers/Big Library/run2|
jrl78|COMPLETED|scavenger-gpu|2023-05-08T22:48:36|2023-05-09T14:22:02|15:33:26|dcc-youlab-gpu-52|1|10|2G||/work/jrl78/Nanoparticles/JawBreakers/Big Library/run2|
jrl78|COMPLETED|scavenger-gpu|2023-05-09T09:13:37|2023-05-10T00:14:53|15:01:16|dcc-youlab-gpu-49|1|10|2G||/work/jrl78/Nanoparticles/JawBreakers/Big Library/run2|
jrl78|COMPLETED|scavenger-gpu|2023-05-09T10:43:23|2023-05-10T03:43:26|17:00:03|dcc-youlab-gpu-51|1|10|2G||/work/jrl78/Nanoparticles/JawBreakers/Big Library/run2|
jrl78|COMPLETED|scavenger-gpu|2023-05-09T11:07:21|2023-05-10T08:35:31|21:28:10|dcc-youlab-gpu-40|1|10|2G||/work/jrl78/Nanoparticles/JawBreakers/Big Library/run2|
jrl78|COMPLETED|scavenger-gpu|2023-05-09T11:13:18|2023-05-10T03:21:09|16:07:51|dcc-youlab-gpu-18|1|10|2G||/work/jrl78/Nanoparticles/JawBreakers/Big Library/run2|
jrl78|OUT_OF_MEMORY|scavenger-gpu|2023-05-09T11:19:43|2023-05-09T11:20:09|00:00:26|dcc-youlab-gpu-11|1|10|2G||/work/jrl78/Nanoparticles/JawBreakers/Big Library/run2|
jrl78|COMPLETED|scavenger-gpu|2023-05-09T11:20:13|2023-05-10T05:16:03|17:55:50|dcc-youlab-gpu-11|1|10|2G||/work/jrl78/Nanoparticles/JawBreakers/Big Library/run2|
jrl78|COMPLETED|scavenger-gpu|2023-05-09T11:53:33|2023-05-10T02:09:06|14:15:33|dcc-youlab-gpu-39|1|10|2G||/work/jrl78/Nanoparticles/JawBreakers/Big Library/run2|
jrl78|COMPLETED|scavenger-gpu|2023-05-09T12:32:57|2023-05-10T07:47:59|19:15:02|dcc-youlab-gpu-54|1|10|2G||/work/jrl78/Nanoparticles/JawBreakers/Big Library/run2|
jrl78|COMPLETED|scavenger-gpu|2023-05-09T12:36:31|2023-05-10T17:20:40|1-04:44:09|dcc-youlab-gpu-37|1|10|2G||/work/jrl78/Nanoparticles/JawBreakers/Big Library/run2|
jrl78|COMPLETED|scavenger-gpu|2023-05-09T12:42:39|2023-05-10T04:10:35|15:27:56|dcc-youlab-gpu-33|1|10|2G||/work/jrl78/Nanoparticles/JawBreakers/Big Library/run2|
jrl78|COMPLETED|scavenger-gpu|2023-05-09T12:51:19|2023-05-10T04:06:50|15:15:31|dcc-youlab-gpu-41|1|10|2G||/work/jrl78/Nanoparticles/JawBreakers/Big Library/run2|
jrl78|COMPLETED|scavenger-gpu|2023-05-09T14:17:56|2023-05-10T11:35:11|21:17:15|dcc-pbenfeylab-gpu-01|1|10|2G||/work/jrl78/Nanoparticles/JawBreakers/Big Library/run2|
jrl78|COMPLETED|scavenger-gpu|2023-05-09T14:22:03|2023-05-10T10:44:36|20:22:33|dcc-youlab-gpu-52|1|10|2G||/work/jrl78/Nanoparticles/JawBreakers/Big Library/run2|
jrl78|COMPLETED|scavenger-gpu|2023-05-09T14:28:48|2023-05-10T05:05:47|14:36:59|dcc-pbenfeylab-gpu-04|1|10|2G||/work/jrl78/Nanoparticles/JawBreakers/Big Library/run2|
jrl78|COMPLETED|scavenger-gpu|2023-05-09T14:31:08|2023-05-10T04:41:06|14:09:58|dcc-youlab-gpu-50|1|10|2G||/work/jrl78/Nanoparticles/JawBreakers/Big Library/run2|
jrl78|COMPLETED|scavenger-gpu|2023-05-09T14:39:05|2023-05-10T09:10:48|18:31:43|dcc-youlab-gpu-48|1|10|2G||/work/jrl78/Nanoparticles/JawBreakers/Big Library/run2|
jrl78|COMPLETED|scavenger-gpu|2023-05-09T14:42:43|2023-05-10T03:56:45|13:14:02|dcc-youlab-gpu-42|1|10|2G||/work/jrl78/Nanoparticles/JawBreakers/Big Library/run2|
jrl78|COMPLETED|scavenger-gpu|2023-05-09T15:09:34|2023-05-10T04:12:27|13:02:53|dcc-youlab-gpu-57|1|10|2G||/work/jrl78/Nanoparticles/JawBreakers/Big Library/run2|
jrl78|COMPLETED|scavenger-gpu|2023-05-09T16:13:17|2023-05-10T08:48:29|16:35:12|dcc-chsi-gpu-01|1|6|2G||/work/jrl78/Nanoparticles/JawBreakers/Big Library/run2|
jrl78|COMPLETED|scavenger-gpu|2023-05-09T16:21:03|2023-05-10T15:41:03|23:20:00|dcc-dhvi-gpu-05|1|10|2G||/work/jrl78/Nanoparticles/JawBreakers/Big Library/run2|
jrl78|COMPLETED|scavenger-gpu|2023-05-09T22:31:58|2023-05-10T11:33:01|13:01:03|dcc-youlab-gpu-56|1|10|2G||/work/jrl78/Nanoparticles/JawBreakers/Big Library/run2|
jrl78|COMPLETED|scavenger-gpu|2023-05-10T00:14:54|2023-05-10T18:39:34|18:24:40|dcc-youlab-gpu-49|1|10|2G||/work/jrl78/Nanoparticles/JawBreakers/Big Library/run2|
jrl78|COMPLETED|scavenger-gpu|2023-05-10T02:09:08|2023-05-10T15:58:42|13:49:34|dcc-youlab-gpu-39|1|10|2G||/work/jrl78/Nanoparticles/JawBreakers/Big Library/run2|
jrl78|COMPLETED|scavenger-gpu|2023-05-10T03:21:12|2023-05-10T19:36:30|16:15:18|dcc-youlab-gpu-55|1|10|2G||/work/jrl78/Nanoparticles/JawBreakers/Big Library/run2|
jrl78|PREEMPTED|scavenger-gpu|2023-05-10T03:43:28|2023-05-10T21:18:01|17:34:33|dcc-youlab-gpu-51|1|10|2G||/work/jrl78/Nanoparticles/JawBreakers/Big Library/run2|
jrl78|PREEMPTED|scavenger-gpu|2023-05-10T03:56:47|2023-05-10T21:18:03|17:21:16|dcc-youlab-gpu-46|1|10|2G||/work/jrl78/Nanoparticles/JawBreakers/Big Library/run2|
jrl78|COMPLETED|scavenger-gpu|2023-05-10T04:06:57|2023-05-10T16:53:52|12:46:55|dcc-youlab-gpu-43|1|10|2G||/work/jrl78/Nanoparticles/JawBreakers/Big Library/run2|
jrl78|COMPLETED|scavenger-gpu|2023-05-10T04:10:37|2023-05-10T19:07:13|14:56:36|dcc-youlab-gpu-42|1|10|2G||/work/jrl78/Nanoparticles/JawBreakers/Big Library/run2|
jrl78|COMPLETED|scavenger-gpu|2023-05-10T04:12:33|2023-05-10T20:14:45|16:02:12|dcc-youlab-gpu-57|1|10|2G||/work/jrl78/Nanoparticles/JawBreakers/Big Library/run2|
jrl78|PREEMPTED|scavenger-gpu|2023-05-10T04:41:07|2023-05-10T21:18:05|16:36:58|dcc-youlab-gpu-50|1|10|2G||/work/jrl78/Nanoparticles/JawBreakers/Big Library/run2|
jrl78|PREEMPTED|scavenger-gpu|2023-05-10T05:05:50|2023-05-10T21:18:08|16:12:18|dcc-youlab-gpu-41|1|10|2G||/work/jrl78/Nanoparticles/JawBreakers/Big Library/run2|
jrl78|PREEMPTED|scavenger-gpu|2023-05-10T05:16:06|2023-05-10T21:18:10|16:02:04|dcc-youlab-gpu-27|1|10|2G||/work/jrl78/Nanoparticles/JawBreakers/Big Library/run2|
jrl78|PREEMPTED|scavenger-gpu|2023-05-10T07:48:02|2023-05-10T21:18:12|13:30:10|dcc-youlab-gpu-54|1|10|2G||/work/jrl78/Nanoparticles/JawBreakers/Big Library/run2|
jrl78|PREEMPTED|scavenger-gpu|2023-05-10T08:35:33|2023-05-10T21:18:14|12:42:41|dcc-youlab-gpu-40|1|10|2G||/work/jrl78/Nanoparticles/JawBreakers/Big Library/run2|
jrl78|OUT_OF_MEMORY|scavenger-gpu|2023-05-10T08:48:30|2023-05-10T08:49:13|00:00:43|dcc-youlab-gpu-14|1|10|2G||/work/jrl78/Nanoparticles/JawBreakers/Big Library/run2|
jrl78|COMPLETED|scavenger-gpu|2023-05-10T08:49:15|2023-05-11T03:18:51|18:29:36|dcc-youlab-gpu-14|1|10|2G||/work/jrl78/Nanoparticles/JawBreakers/Big Library/run2|
jrl78|OUT_OF_MEMORY|scavenger-gpu|2023-05-10T09:10:49|2023-05-10T09:11:56|00:01:07|dcc-youlab-gpu-35|1|10|2G||/work/jrl78/Nanoparticles/JawBreakers/Big Library/run2|
xz284|COMPLETED|scavenger-gpu|2023-05-08T22:06:11|2023-05-09T06:02:18|07:56:07|dcc-rekerlab-gpu-01|1|8|64G||/hpc/group/motesa/Risk_Aware_SCUC_Model/Prelim/CT=0_RAT=1/RAS-EMS_New_extreme/beta=0.8/V3M_12Scen_1Realization_1Year_SolarDet|
xz284|COMPLETED|scavenger-gpu|2023-05-08T22:06:16|2023-05-09T11:48:18|13:42:02|dcc-biostat-gpu-02|1|8|64G||/hpc/group/motesa/Risk_Aware_SCUC_Model/Prelim/CT=0_RAT=1/RAS-EMS_New_extreme/beta=0.8/V3M_12Scen_1Realization_1Year_SolarDet|
xz284|FAILED|scavenger-gpu|2023-05-08T22:06:22|2023-05-09T03:49:55|05:43:33|dcc-carlsonlab-gpu-05|1|8|64G||/hpc/group/motesa/Risk_Aware_SCUC_Model/Prelim/CT=0_RAT=1/RAS-EMS_New_extreme/beta=0.8/V3M_12Scen_1Realization_1Year_SolarDet|
xz284|PREEMPTED|scavenger-gpu|2023-05-08T22:06:27|2023-05-09T09:45:39|11:39:12|dcc-carlsonlab-gpu-06|1|8|64G||/hpc/group/motesa/Risk_Aware_SCUC_Model/Prelim/CT=0_RAT=1/RAS-EMS_New_extreme/beta=0.8/V3M_12Scen_1Realization_1Year_SolarDet|
xz284|PREEMPTED|scavenger-gpu|2023-05-08T22:06:35|2023-05-09T09:50:44|11:44:09|dcc-carlsonlab-gpu-09|1|8|64G||/hpc/group/motesa/Risk_Aware_SCUC_Model/Prelim/CT=0_RAT=1/RAS-EMS_New_extreme/beta=0.8/V3M_12Scen_1Realization_1Year_SolarDet|
xz284|COMPLETED|scavenger-gpu|2023-05-08T22:06:38|2023-05-09T09:39:39|11:33:01|dcc-ultrasound-gpu-02|1|8|64G||/hpc/group/motesa/Risk_Aware_SCUC_Model/Prelim/CT=0_RAT=1/RAS-EMS_New_extreme/beta=0.8/V3M_12Scen_1Realization_1Year_SolarDet|
xz284|COMPLETED|scavenger-gpu|2023-05-08T22:06:47|2023-05-09T06:56:59|08:50:12|dcc-youlab-gpu-27|1|8|64G||/hpc/group/motesa/Risk_Aware_SCUC_Model/Prelim/CT=0_RAT=1/RAS-EMS_New_extreme/beta=0.8/V3M_12Scen_1Realization_1Year_SolarDet|
xz284|PREEMPTED|scavenger-gpu|2023-05-08T22:06:57|2023-05-09T09:50:52|11:43:55|dcc-carlsonlab-gpu-08|1|8|64G||/hpc/group/motesa/Risk_Aware_SCUC_Model/Prelim/CT=0_RAT=1/RAS-EMS_New_extreme/beta=0.8/V3M_12Scen_1Realization_1Year_SolarDet|
xz284|COMPLETED|scavenger-gpu|2023-05-08T22:07:02|2023-05-09T05:10:32|07:03:30|dcc-youlab-gpu-26|1|8|64G||/hpc/group/motesa/Risk_Aware_SCUC_Model/Prelim/CT=0_RAT=1/RAS-EMS_New_extreme/beta=0.8/V3M_12Scen_1Realization_1Year_SolarDet|
xz284|COMPLETED|scavenger-gpu|2023-05-08T22:09:33|2023-05-09T12:09:31|13:59:58|dcc-collinslab-gpu-03|1|8|64G||/hpc/group/motesa/Risk_Aware_SCUC_Model/Prelim/CT=0_RAT=1/RAS-EMS_New_extreme/beta=0.8/V3M_12Scen_1Realization_1Year_SolarDet|
xz284|COMPLETED|scavenger-gpu|2023-05-08T22:09:43|2023-05-09T13:30:16|15:20:33|dcc-collinslab-gpu-04|1|8|64G||/hpc/group/motesa/Risk_Aware_SCUC_Model/Prelim/CT=0_RAT=1/RAS-EMS_New_extreme/beta=0.8/V3M_12Scen_1Realization_1Year_SolarDet|
xz284|COMPLETED|scavenger-gpu|2023-05-08T22:11:20|2023-05-09T06:34:13|08:22:53|dcc-pbenfeylab-gpu-02|1|8|64G||/hpc/group/motesa/Risk_Aware_SCUC_Model/Prelim/CT=0_RAT=1/RAS-EMS_New_historical/beta=0.8/V3M_12Scen_1Realization_1Year_SolarDet|
xz284|COMPLETED|scavenger-gpu|2023-05-08T22:11:24|2023-05-09T05:47:49|07:36:25|dcc-pbenfeylab-gpu-03|1|8|64G||/hpc/group/motesa/Risk_Aware_SCUC_Model/Prelim/CT=0_RAT=1/RAS-EMS_New_historical/beta=0.8/V3M_12Scen_1Realization_1Year_SolarDet|
xz284|COMPLETED|scavenger-gpu|2023-05-08T22:11:27|2023-05-09T07:22:40|09:11:13|dcc-allenlab-gpu-01|1|8|64G||/hpc/group/motesa/Risk_Aware_SCUC_Model/Prelim/CT=0_RAT=1/RAS-EMS_New_historical/beta=0.8/V3M_12Scen_1Realization_1Year_SolarDet|
xz284|COMPLETED|scavenger-gpu|2023-05-08T22:11:33|2023-05-09T07:00:05|08:48:32|dcc-allenlab-gpu-02|1|8|64G||/hpc/group/motesa/Risk_Aware_SCUC_Model/Prelim/CT=0_RAT=1/RAS-EMS_New_historical/beta=0.8/V3M_12Scen_1Realization_1Year_SolarDet|
xz284|COMPLETED|scavenger-gpu|2023-05-08T22:11:38|2023-05-09T07:35:13|09:23:35|dcc-allenlab-gpu-03|1|8|64G||/hpc/group/motesa/Risk_Aware_SCUC_Model/Prelim/CT=0_RAT=1/RAS-EMS_New_historical/beta=0.8/V3M_12Scen_1Realization_1Year_SolarDet|
xz284|FAILED|scavenger-gpu|2023-05-08T23:31:03|2023-05-09T15:24:44|15:53:41|dcc-mastatlab-gpu-01|1|8|64G||/hpc/group/motesa/Risk_Aware_SCUC_Model/Prelim/CT=0_RAT=1/RAS-EMS_New_historical/beta=0.8/V3M_12Scen_1Realization_1Year_SolarDet|
xz284|COMPLETED|scavenger-gpu|2023-05-09T00:09:53|2023-05-09T06:47:51|06:37:58|dcc-allenlab-gpu-04|1|8|64G||/hpc/group/motesa/Risk_Aware_SCUC_Model/Prelim/CT=0_RAT=1/RAS-EMS_New_historical/beta=0.8/V3M_12Scen_1Realization_1Year_SolarDet|
xz284|FAILED|scavenger-gpu|2023-05-09T00:38:37|2023-05-09T02:24:38|01:46:01|dcc-pbenfeylab-gpu-01|1|8|64G||/hpc/group/motesa/Risk_Aware_SCUC_Model/Prelim/CT=0_RAT=1/RAS-EMS_New_historical/beta=0.8/V3M_12Scen_1Realization_1Year_SolarDet|
xz284|COMPLETED|scavenger-gpu|2023-05-08T23:41:25|2023-05-09T02:39:42|02:58:17|dcc-viplab-gpu-01|1|4|32G||/hpc/group/motesa/Risk_Aware_SCUC_Model/Prelim/CT=0_RAT=1_PerfectForecast/DE-EMS/C11|
pm231|TIMEOUT|scavenger-gpu|2023-05-08T23:49:30|2023-05-09T05:49:33|06:00:03|dcc-carlsonlab-gpu-13|1|16|32G||/hpc/home/pm231/ondemand/data/sys/dashboard/batch_connect/sys/bc_jupyter/output/8eb7de38-57a8-45dd-bc3e-a0b1e0de8b0e|
yc551|FAILED|scavenger-gpu|2023-05-08T23:56:09|2023-05-09T02:38:34|02:42:25|dcc-pbenfeylab-gpu-04|1|10|60000M||/hpc/home/yc551|
aam131|TIMEOUT|scavenger-gpu|2023-05-09T00:40:43|2023-05-09T05:40:59|05:00:16|dcc-tdunn-gpu-02|1|40|80G||/hpc/home/aam131/ondemand/data/sys/dashboard/batch_connect/sys/bc_rstudio_singularity/output/b3d382ae-5f17-44fd-8b48-b898b6b7b88e|
xz284|PREEMPTED|scavenger-gpu|2023-05-09T00:40:46|2023-05-09T09:51:53|09:11:07|dcc-carlsonlab-gpu-14|1|8|64G||/hpc/group/motesa/Risk_Aware_SCUC_Model/Prelim/CT=0_RAT=1/RAS-EMS_New_historical/beta=0.8/V3M_12Scen_1Realization_1Year_SolarDet|
xz284|PREEMPTED|scavenger-gpu|2023-05-09T00:40:46|2023-05-09T11:03:36|10:22:50|dcc-carlsonlab-gpu-15|1|8|64G||/hpc/group/motesa/Risk_Aware_SCUC_Model/Prelim/CT=0_RAT=1/RAS-EMS_New_historical/beta=0.8/V3M_12Scen_1Realization_1Year_SolarDet|
xz284|FAILED|scavenger-gpu|2023-05-09T01:19:41|2023-05-09T14:01:35|12:41:54|dcc-collinslab-gpu-02|1|8|64G||/hpc/group/motesa/Risk_Aware_SCUC_Model/Prelim/CT=0_RAT=1/RAS-EMS_New_historical/beta=0.8/V3M_12Scen_1Realization_1Year_SolarDet|
zcb2|CANCELLED by 1397940|scavenger-gpu|None|2023-05-09T09:36:18|00:00:00|None assigned|1|19|182952M||/hpc/home/zcb2/predictive-electome-modeling/train|
yw564|COMPLETED|scavenger-gpu|2023-05-09T00:44:49|2023-05-09T03:33:30|02:48:41|dcc-dhvi-gpu-01|1|10|100G||/hpc/group/jilab/yw564/GeneSegNet|
mk423|CANCELLED by 1192605|scavenger-gpu|2023-05-09T00:55:11|2023-05-09T15:53:23|14:58:12|dcc-tdunn-gpu-01|1|12|80G||/hpc/home/mk423/Anxiety/FullDataWork/Code/Training/SingleTask|
pm231|COMPLETED|scavenger-gpu|2023-05-09T01:14:27|2023-05-09T03:52:14|02:37:47|dcc-ece-gpu-03|1|12|60000M||/hpc/home/pm231/Contrastive Learning|
pm231|COMPLETED|scavenger-gpu|2023-05-09T01:14:27|2023-05-09T03:33:30|02:19:03|dcc-ece-gpu-04|1|12|60000M||/hpc/home/pm231/Contrastive Learning|
