pb183|COMPLETED|scavenger-gpu|2023-06-02T07:39:34|2023-06-04T18:57:11|2-11:17:37|dcc-youlab-gpu-04|1|10|96G||/hpc/group/ldefratelab/Patrick/Cartilage_ML_3D|
pb183|COMPLETED|scavenger-gpu|2023-06-02T11:46:40|2023-06-06T05:29:02|3-17:42:22|dcc-youlab-gpu-53|1|10|96G||/hpc/group/ldefratelab/Patrick/Cartilage_ML_3D|
pb183|COMPLETED|scavenger-gpu|2023-06-02T12:17:55|2023-06-04T16:58:41|2-04:40:46|dcc-youlab-gpu-15|1|10|96G||/hpc/group/ldefratelab/Patrick/Cartilage_ML_3D|
pb183|COMPLETED|scavenger-gpu|2023-06-03T05:46:01|2023-06-05T01:12:31|1-19:26:30|dcc-pbenfeylab-gpu-02|1|10|96G||/hpc/group/ldefratelab/Patrick/Cartilage_ML_3D|
pb183|COMPLETED|scavenger-gpu|2023-06-04T00:04:15|2023-06-04T15:26:40|15:22:25|dcc-youlab-gpu-41|1|10|96G||/hpc/group/ldefratelab/Patrick/Cartilage_ML_3D|
pb183|COMPLETED|scavenger-gpu|2023-06-04T00:10:51|2023-06-04T17:02:43|16:51:52|dcc-youlab-gpu-38|1|10|96G||/hpc/group/ldefratelab/Patrick/Cartilage_ML_3D|
pb183|COMPLETED|scavenger-gpu|2023-06-04T02:10:26|2023-06-05T12:17:40|1-10:07:14|dcc-youlab-gpu-42|1|10|96G||/hpc/group/ldefratelab/Patrick/Cartilage_ML_3D|
pb183|PREEMPTED|scavenger-gpu|2023-06-04T04:27:00|2023-06-05T12:44:08|1-08:17:08|dcc-rekerlab-gpu-01|1|8|96G||/hpc/group/ldefratelab/Patrick/Cartilage_ML_3D|
pb183|COMPLETED|scavenger-gpu|2023-06-04T04:49:09|2023-06-06T17:36:56|2-12:47:47|dcc-youlab-gpu-55|1|10|96G||/hpc/group/ldefratelab/Patrick/Cartilage_ML_3D|
pb183|COMPLETED|scavenger-gpu|2023-06-04T06:27:02|2023-06-05T01:34:45|19:07:43|dcc-youlab-gpu-35|1|10|96G||/hpc/group/ldefratelab/Patrick/Cartilage_ML_3D|
pb183|COMPLETED|scavenger-gpu|2023-06-04T06:31:36|2023-06-05T14:42:51|1-08:11:15|dcc-youlab-gpu-34|1|10|96G||/hpc/group/ldefratelab/Patrick/Cartilage_ML_3D|
pb183|COMPLETED|scavenger-gpu|2023-06-04T07:51:30|2023-06-06T15:15:23|2-07:23:53|dcc-youlab-gpu-40|1|10|96G||/hpc/group/ldefratelab/Patrick/Cartilage_ML_3D|
pb183|COMPLETED|scavenger-gpu|2023-06-04T09:05:50|2023-06-06T04:29:02|1-19:23:12|dcc-youlab-gpu-37|1|10|96G||/hpc/group/ldefratelab/Patrick/Cartilage_ML_3D|
pb183|COMPLETED|scavenger-gpu|2023-06-04T12:51:35|2023-06-05T07:10:58|18:19:23|dcc-youlab-gpu-36|1|10|96G||/hpc/group/ldefratelab/Patrick/Cartilage_ML_3D|
pb183|COMPLETED|scavenger-gpu|2023-06-04T13:19:14|2023-06-05T21:31:06|1-08:11:52|dcc-youlab-gpu-43|1|10|96G||/hpc/group/ldefratelab/Patrick/Cartilage_ML_3D|
pb183|COMPLETED|scavenger-gpu|2023-06-04T15:27:00|2023-06-04T16:27:38|01:00:38|dcc-youlab-gpu-41|1|10|96G||/hpc/group/ldefratelab/Patrick/Cartilage_ML_3D|
pb183|COMPLETED|scavenger-gpu|2023-06-04T16:27:50|2023-06-05T21:36:30|1-05:08:40|dcc-youlab-gpu-41|1|10|96G||/hpc/group/ldefratelab/Patrick/Cartilage_ML_3D|
pb183|COMPLETED|scavenger-gpu|2023-06-04T16:59:13|2023-06-04T18:43:15|01:44:02|dcc-youlab-gpu-15|1|10|96G||/hpc/group/ldefratelab/Patrick/Cartilage_ML_3D|
pb183|COMPLETED|scavenger-gpu|2023-06-04T17:03:11|2023-06-04T20:24:02|03:20:51|dcc-youlab-gpu-38|1|10|96G||/hpc/group/ldefratelab/Patrick/Cartilage_ML_3D|
pb183|COMPLETED|scavenger-gpu|2023-06-04T18:43:50|2023-06-04T21:41:59|02:58:09|dcc-youlab-gpu-15|1|10|96G||/hpc/group/ldefratelab/Patrick/Cartilage_ML_3D|
pb183|COMPLETED|scavenger-gpu|2023-06-04T18:57:47|2023-06-04T21:54:37|02:56:50|dcc-youlab-gpu-04|1|10|96G||/hpc/group/ldefratelab/Patrick/Cartilage_ML_3D|
pb183|COMPLETED|scavenger-gpu|2023-06-04T20:24:31|2023-06-04T22:11:53|01:47:22|dcc-youlab-gpu-38|1|10|96G||/hpc/group/ldefratelab/Patrick/Cartilage_ML_3D|
pb183|COMPLETED|scavenger-gpu|2023-06-04T21:42:35|2023-06-05T01:27:40|03:45:05|dcc-youlab-gpu-15|1|10|96G||/hpc/group/ldefratelab/Patrick/Cartilage_ML_3D|
pb183|COMPLETED|scavenger-gpu|2023-06-04T21:55:15|2023-06-05T00:53:17|02:58:02|dcc-youlab-gpu-04|1|10|96G||/hpc/group/ldefratelab/Patrick/Cartilage_ML_3D|
pb183|COMPLETED|scavenger-gpu|2023-06-04T22:12:13|2023-06-05T01:15:09|03:02:56|dcc-youlab-gpu-38|1|10|96G||/hpc/group/ldefratelab/Patrick/Cartilage_ML_3D|
pb183|FAILED|scavenger-gpu|2023-06-05T00:53:40|2023-06-05T00:55:05|00:01:25|dcc-youlab-gpu-04|1|10|96G||/hpc/group/ldefratelab/Patrick/Cartilage_ML_3D|
pb183|COMPLETED|scavenger-gpu|2023-06-05T00:55:17|2023-06-05T02:39:13|01:43:56|dcc-youlab-gpu-04|1|10|96G||/hpc/group/ldefratelab/Patrick/Cartilage_ML_3D|
pb183|COMPLETED|scavenger-gpu|2023-06-05T01:12:35|2023-06-05T03:00:44|01:48:09|dcc-ultrasound-gpu-02|1|19|96G||/hpc/group/ldefratelab/Patrick/Cartilage_ML_3D|
pb183|COMPLETED|scavenger-gpu|2023-06-05T01:15:14|2023-06-05T02:58:00|01:42:46|dcc-youlab-gpu-38|1|10|96G||/hpc/group/ldefratelab/Patrick/Cartilage_ML_3D|
pb183|FAILED|scavenger-gpu|2023-06-05T01:27:49|2023-06-05T01:29:07|00:01:18|dcc-youlab-gpu-15|1|10|96G||/hpc/group/ldefratelab/Patrick/Cartilage_ML_3D|
pb183|COMPLETED|scavenger-gpu|2023-06-05T01:29:22|2023-06-05T03:14:29|01:45:07|dcc-youlab-gpu-15|1|10|96G||/hpc/group/ldefratelab/Patrick/Cartilage_ML_3D|
pb183|COMPLETED|scavenger-gpu|2023-06-05T01:35:05|2023-06-05T03:15:11|01:40:06|dcc-youlab-gpu-35|1|10|96G||/hpc/group/ldefratelab/Patrick/Cartilage_ML_3D|
pb183|COMPLETED|scavenger-gpu|2023-06-05T02:39:16|2023-06-07T06:14:21|2-03:35:05|dcc-youlab-gpu-16|1|10|96G||/hpc/group/ldefratelab/Patrick/Cartilage_ML_3D|
pb183|FAILED|scavenger-gpu|2023-06-05T02:58:29|2023-06-05T03:00:19|00:01:50|dcc-youlab-gpu-38|1|10|96G||/hpc/group/ldefratelab/Patrick/Cartilage_ML_3D|
pb183|COMPLETED|scavenger-gpu|2023-06-05T03:00:31|2023-06-05T08:34:43|05:34:12|dcc-youlab-gpu-38|1|10|96G||/hpc/group/ldefratelab/Patrick/Cartilage_ML_3D|
pb183|COMPLETED|scavenger-gpu|2023-06-05T03:01:03|2023-06-05T07:51:08|04:50:05|dcc-youlab-gpu-04|1|10|96G||/hpc/group/ldefratelab/Patrick/Cartilage_ML_3D|
pb183|COMPLETED|scavenger-gpu|2023-06-05T03:14:46|2023-06-05T08:05:29|04:50:43|dcc-youlab-gpu-15|1|10|96G||/hpc/group/ldefratelab/Patrick/Cartilage_ML_3D|
pb183|FAILED|scavenger-gpu|2023-06-05T03:15:18|2023-06-05T03:16:44|00:01:26|dcc-youlab-gpu-35|1|10|96G||/hpc/group/ldefratelab/Patrick/Cartilage_ML_3D|
pb183|COMPLETED|scavenger-gpu|2023-06-05T03:16:49|2023-06-05T08:31:10|05:14:21|dcc-youlab-gpu-35|1|10|96G||/hpc/group/ldefratelab/Patrick/Cartilage_ML_3D|
pb183|COMPLETED|scavenger-gpu|2023-06-05T07:11:05|2023-06-05T11:55:03|04:43:58|dcc-youlab-gpu-36|1|10|96G||/hpc/group/ldefratelab/Patrick/Cartilage_ML_3D|
pb183|COMPLETED|scavenger-gpu|2023-06-05T07:51:12|2023-06-05T12:39:51|04:48:39|dcc-youlab-gpu-28|1|10|96G||/hpc/group/ldefratelab/Patrick/Cartilage_ML_3D|
pb183|COMPLETED|scavenger-gpu|2023-06-05T08:05:31|2023-06-05T18:41:19|10:35:48|dcc-youlab-gpu-27|1|10|96G||/hpc/group/ldefratelab/Patrick/Cartilage_ML_3D|
pb183|COMPLETED|scavenger-gpu|2023-06-05T08:31:24|2023-06-05T13:33:32|05:02:08|dcc-youlab-gpu-35|1|10|96G||/hpc/group/ldefratelab/Patrick/Cartilage_ML_3D|
pb183|COMPLETED|scavenger-gpu|2023-06-05T08:35:00|2023-06-05T21:55:50|13:20:50|dcc-youlab-gpu-38|1|10|96G||/hpc/group/ldefratelab/Patrick/Cartilage_ML_3D|
pb183|COMPLETED|scavenger-gpu|2023-06-05T11:55:03|2023-06-05T22:32:54|10:37:51|dcc-youlab-gpu-36|1|10|96G||/hpc/group/ldefratelab/Patrick/Cartilage_ML_3D|
pb183|COMPLETED|scavenger-gpu|2023-06-05T12:17:40|2023-06-05T15:41:57|03:24:17|dcc-youlab-gpu-42|1|10|96G||/hpc/group/ldefratelab/Patrick/Cartilage_ML_3D|
pb183|COMPLETED|scavenger-gpu|2023-06-05T12:39:51|2023-06-05T18:30:34|05:50:43|dcc-youlab-gpu-28|1|10|96G||/hpc/group/ldefratelab/Patrick/Cartilage_ML_3D|
pb183|PREEMPTED|scavenger-gpu|2023-06-05T12:53:42|2023-06-05T12:54:07|00:00:25|dcc-rekerlab-gpu-01|1|8|96G||/hpc/group/ldefratelab/Patrick/Cartilage_ML_3D|
pb183|PREEMPTED|scavenger-gpu|2023-06-05T12:54:11|2023-06-05T12:56:25|00:02:14|dcc-rekerlab-gpu-01|1|8|96G||/hpc/group/ldefratelab/Patrick/Cartilage_ML_3D|
pb183|COMPLETED|scavenger-gpu|2023-06-05T12:56:41|2023-06-05T13:37:31|00:40:50|dcc-vossenlab-gpu-04|1|10|96G||/hpc/group/ldefratelab/Patrick/Cartilage_ML_3D|
pb183|COMPLETED|scavenger-gpu|2023-06-05T13:33:35|2023-06-05T14:26:29|00:52:54|dcc-youlab-gpu-35|1|10|96G||/hpc/group/ldefratelab/Patrick/Cartilage_ML_3D|
pb183|PREEMPTED|scavenger-gpu|2023-06-05T13:37:32|2023-06-06T09:42:27|20:04:55|dcc-vossenlab-gpu-04|1|10|96G||/hpc/group/ldefratelab/Patrick/Cartilage_ML_3D|
pb183|COMPLETED|scavenger-gpu|2023-06-05T14:29:31|2023-06-05T15:33:36|01:04:05|dcc-youlab-gpu-35|1|10|96G||/hpc/group/ldefratelab/Patrick/Cartilage_ML_3D|
pb183|COMPLETED|scavenger-gpu|2023-06-05T14:42:59|2023-06-06T21:42:04|1-06:59:05|dcc-youlab-gpu-34|1|10|96G||/hpc/group/ldefratelab/Patrick/Cartilage_ML_3D|
pb183|COMPLETED|scavenger-gpu|2023-06-05T15:33:38|2023-06-06T21:07:42|1-05:34:04|dcc-youlab-gpu-35|1|10|96G||/hpc/group/ldefratelab/Patrick/Cartilage_ML_3D|
pb183|COMPLETED|scavenger-gpu|2023-06-05T15:42:00|2023-06-07T17:45:02|2-02:03:02|dcc-youlab-gpu-42|1|10|96G||/hpc/group/ldefratelab/Patrick/Cartilage_ML_3D|
pb183|COMPLETED|scavenger-gpu|2023-06-05T18:30:36|2023-06-08T00:16:19|2-05:45:43|dcc-youlab-gpu-44|1|10|96G||/hpc/group/ldefratelab/Patrick/Cartilage_ML_3D|
pb183|COMPLETED|scavenger-gpu|2023-06-05T18:41:19|2023-06-05T19:03:24|00:22:05|dcc-youlab-gpu-27|1|10|96G||/hpc/group/ldefratelab/Patrick/Cartilage_ML_3D|
pb183|COMPLETED|scavenger-gpu|2023-06-05T19:03:24|2023-06-05T19:36:08|00:32:44|dcc-youlab-gpu-27|1|10|96G||/hpc/group/ldefratelab/Patrick/Cartilage_ML_3D|
pb183|COMPLETED|scavenger-gpu|2023-06-05T19:36:08|2023-06-05T20:12:36|00:36:28|dcc-youlab-gpu-27|1|10|96G||/hpc/group/ldefratelab/Patrick/Cartilage_ML_3D|
pb183|COMPLETED|scavenger-gpu|2023-06-05T20:12:36|2023-06-05T20:49:34|00:36:58|dcc-youlab-gpu-27|1|10|96G||/hpc/group/ldefratelab/Patrick/Cartilage_ML_3D|
pb183|COMPLETED|scavenger-gpu|2023-06-05T20:49:36|2023-06-05T21:14:33|00:24:57|dcc-youlab-gpu-33|1|10|96G||/hpc/group/ldefratelab/Patrick/Cartilage_ML_3D|
pb183|COMPLETED|scavenger-gpu|2023-06-05T21:14:33|2023-06-06T05:11:58|07:57:25|dcc-youlab-gpu-33|1|10|96G||/hpc/group/ldefratelab/Patrick/Cartilage_ML_3D|
pb183|COMPLETED|scavenger-gpu|2023-06-05T21:31:06|2023-06-07T01:34:10|1-04:03:04|dcc-youlab-gpu-43|1|10|96G||/hpc/group/ldefratelab/Patrick/Cartilage_ML_3D|
pb183|COMPLETED|scavenger-gpu|2023-06-05T21:36:31|2023-06-06T17:44:55|20:08:24|dcc-youlab-gpu-41|1|10|96G||/hpc/group/ldefratelab/Patrick/Cartilage_ML_3D|
pb183|COMPLETED|scavenger-gpu|2023-06-05T21:55:50|2023-06-05T22:52:12|00:56:22|dcc-youlab-gpu-38|1|10|96G||/hpc/group/ldefratelab/Patrick/Cartilage_ML_3D|
pb183|COMPLETED|scavenger-gpu|2023-06-05T22:32:54|2023-06-05T23:47:32|01:14:38|dcc-youlab-gpu-36|1|10|96G||/hpc/group/ldefratelab/Patrick/Cartilage_ML_3D|
pb183|COMPLETED|scavenger-gpu|2023-06-05T22:52:13|2023-06-06T00:26:22|01:34:09|dcc-youlab-gpu-38|1|10|96G||/hpc/group/ldefratelab/Patrick/Cartilage_ML_3D|
pb183|COMPLETED|scavenger-gpu|2023-06-05T23:47:33|2023-06-06T01:20:55|01:33:22|dcc-youlab-gpu-36|1|10|96G||/hpc/group/ldefratelab/Patrick/Cartilage_ML_3D|
pb183|COMPLETED|scavenger-gpu|2023-06-06T00:26:49|2023-06-06T01:23:28|00:56:39|dcc-youlab-gpu-38|1|10|96G||/hpc/group/ldefratelab/Patrick/Cartilage_ML_3D|
pb183|COMPLETED|scavenger-gpu|2023-06-06T01:20:55|2023-06-07T13:15:44|1-11:54:49|dcc-youlab-gpu-36|1|10|96G||/hpc/group/ldefratelab/Patrick/Cartilage_ML_3D|
pb183|COMPLETED|scavenger-gpu|2023-06-06T01:23:28|2023-06-08T09:11:43|2-07:48:15|dcc-youlab-gpu-38|1|10|96G||/hpc/group/ldefratelab/Patrick/Cartilage_ML_3D|
pb183|COMPLETED|scavenger-gpu|2023-06-06T04:29:02|2023-06-07T15:50:50|1-11:21:48|dcc-youlab-gpu-37|1|10|96G||/hpc/group/ldefratelab/Patrick/Cartilage_ML_3D|
pb183|FAILED|scavenger-gpu|2023-06-06T05:11:58|2023-06-06T05:13:41|00:01:43|dcc-youlab-gpu-33|1|10|96G||/hpc/group/ldefratelab/Patrick/Cartilage_ML_3D|
pb183|COMPLETED|scavenger-gpu|2023-06-06T05:13:41|2023-06-06T06:10:34|00:56:53|dcc-youlab-gpu-33|1|10|96G||/hpc/group/ldefratelab/Patrick/Cartilage_ML_3D|
pb183|COMPLETED|scavenger-gpu|2023-06-06T05:29:02|2023-06-06T06:29:47|01:00:45|dcc-youlab-gpu-53|1|10|96G||/hpc/group/ldefratelab/Patrick/Cartilage_ML_3D|
pb183|COMPLETED|scavenger-gpu|2023-06-06T06:10:35|2023-06-06T07:10:28|00:59:53|dcc-youlab-gpu-33|1|10|96G||/hpc/group/ldefratelab/Patrick/Cartilage_ML_3D|
pb183|FAILED|scavenger-gpu|2023-06-06T06:29:47|2023-06-06T06:31:23|00:01:36|dcc-youlab-gpu-53|1|10|96G||/hpc/group/ldefratelab/Patrick/Cartilage_ML_3D|
pb183|COMPLETED|scavenger-gpu|2023-06-06T06:31:23|2023-06-07T06:45:57|1-00:14:34|dcc-youlab-gpu-53|1|10|96G||/hpc/group/ldefratelab/Patrick/Cartilage_ML_3D|
pb183|COMPLETED|scavenger-gpu|2023-06-06T07:10:28|2023-06-07T10:06:37|1-02:56:09|dcc-youlab-gpu-33|1|10|96G||/hpc/group/ldefratelab/Patrick/Cartilage_ML_3D|
pb183|COMPLETED|scavenger-gpu|2023-06-06T09:42:27|2023-06-08T06:15:23|1-20:32:56|dcc-ultrasound-gpu-02|1|19|96G||/hpc/group/ldefratelab/Patrick/Cartilage_ML_3D|
pb183|FAILED|scavenger-gpu|2023-06-06T15:15:24|2023-06-06T15:16:47|00:01:23|dcc-youlab-gpu-40|1|10|96G||/hpc/group/ldefratelab/Patrick/Cartilage_ML_3D|
pb183|COMPLETED|scavenger-gpu|2023-06-06T15:16:49|2023-06-06T17:24:38|02:07:49|dcc-youlab-gpu-40|1|10|96G||/hpc/group/ldefratelab/Patrick/Cartilage_ML_3D|
pb183|COMPLETED|scavenger-gpu|2023-06-06T17:24:38|2023-06-06T19:37:14|02:12:36|dcc-youlab-gpu-40|1|10|96G||/hpc/group/ldefratelab/Patrick/Cartilage_ML_3D|
pb183|COMPLETED|scavenger-gpu|2023-06-06T17:36:57|2023-06-06T19:51:49|02:14:52|dcc-youlab-gpu-55|1|10|96G||/hpc/group/ldefratelab/Patrick/Cartilage_ML_3D|
pb183|FAILED|scavenger-gpu|2023-06-06T17:44:55|2023-06-06T17:46:35|00:01:40|dcc-youlab-gpu-41|1|10|96G||/hpc/group/ldefratelab/Patrick/Cartilage_ML_3D|
pb183|COMPLETED|scavenger-gpu|2023-06-06T17:46:35|2023-06-06T19:58:17|02:11:42|dcc-youlab-gpu-41|1|10|96G||/hpc/group/ldefratelab/Patrick/Cartilage_ML_3D|
pb183|COMPLETED|scavenger-gpu|2023-06-06T19:37:14|2023-06-06T21:51:18|02:14:04|dcc-youlab-gpu-40|1|10|96G||/hpc/group/ldefratelab/Patrick/Cartilage_ML_3D|
pb183|COMPLETED|scavenger-gpu|2023-06-06T19:51:49|2023-06-06T22:08:05|02:16:16|dcc-youlab-gpu-55|1|10|96G||/hpc/group/ldefratelab/Patrick/Cartilage_ML_3D|
pb183|FAILED|scavenger-gpu|2023-06-06T19:58:18|2023-06-06T19:59:39|00:01:21|dcc-youlab-gpu-41|1|10|96G||/hpc/group/ldefratelab/Patrick/Cartilage_ML_3D|
pb183|COMPLETED|scavenger-gpu|2023-06-06T19:59:39|2023-06-06T21:48:46|01:49:07|dcc-youlab-gpu-41|1|10|96G||/hpc/group/ldefratelab/Patrick/Cartilage_ML_3D|
pb183|FAILED|scavenger-gpu|2023-06-06T21:07:43|2023-06-06T21:10:07|00:02:24|dcc-youlab-gpu-35|1|10|96G||/hpc/group/ldefratelab/Patrick/Cartilage_ML_3D|
pb183|COMPLETED|scavenger-gpu|2023-06-06T21:10:07|2023-06-06T22:54:27|01:44:20|dcc-youlab-gpu-35|1|10|96G||/hpc/group/ldefratelab/Patrick/Cartilage_ML_3D|
pb183|FAILED|scavenger-gpu|2023-06-06T21:42:04|2023-06-06T21:43:29|00:01:25|dcc-youlab-gpu-34|1|10|96G||/hpc/group/ldefratelab/Patrick/Cartilage_ML_3D|
pb183|COMPLETED|scavenger-gpu|2023-06-06T21:43:30|2023-06-06T23:38:56|01:55:26|dcc-youlab-gpu-34|1|10|96G||/hpc/group/ldefratelab/Patrick/Cartilage_ML_3D|
pb183|FAILED|scavenger-gpu|2023-06-06T21:48:47|2023-06-06T21:50:58|00:02:11|dcc-youlab-gpu-41|1|10|96G||/hpc/group/ldefratelab/Patrick/Cartilage_ML_3D|
pb183|COMPLETED|scavenger-gpu|2023-06-06T21:51:00|2023-06-08T11:44:13|1-13:53:13|dcc-youlab-gpu-41|1|10|96G||/hpc/group/ldefratelab/Patrick/Cartilage_ML_3D|
pb183|FAILED|scavenger-gpu|2023-06-06T21:51:18|2023-06-06T21:52:51|00:01:33|dcc-youlab-gpu-40|1|10|96G||/hpc/group/ldefratelab/Patrick/Cartilage_ML_3D|
pb183|COMPLETED|scavenger-gpu|2023-06-06T21:52:51|2023-06-07T02:24:42|04:31:51|dcc-youlab-gpu-40|1|10|96G||/hpc/group/ldefratelab/Patrick/Cartilage_ML_3D|
pb183|FAILED|scavenger-gpu|2023-06-06T22:08:05|2023-06-06T22:12:34|00:04:29|dcc-ultrasound-gpu-01|1|19|96G||/hpc/group/ldefratelab/Patrick/Cartilage_ML_3D|
pb183|COMPLETED|scavenger-gpu|2023-06-06T22:12:34|2023-06-07T02:29:53|04:17:19|dcc-youlab-gpu-55|1|10|96G||/hpc/group/ldefratelab/Patrick/Cartilage_ML_3D|
pb183|FAILED|scavenger-gpu|2023-06-06T22:54:27|2023-06-06T22:56:15|00:01:48|dcc-youlab-gpu-35|1|10|96G||/hpc/group/ldefratelab/Patrick/Cartilage_ML_3D|
pb183|COMPLETED|scavenger-gpu|2023-06-06T22:56:15|2023-06-09T02:11:05|2-03:14:50|dcc-youlab-gpu-35|1|10|96G||/hpc/group/ldefratelab/Patrick/Cartilage_ML_3D|
pb183|FAILED|scavenger-gpu|2023-06-06T23:38:57|2023-06-06T23:44:01|00:05:04|dcc-youlab-gpu-34|1|10|96G||/hpc/group/ldefratelab/Patrick/Cartilage_ML_3D|
pb183|COMPLETED|scavenger-gpu|2023-06-06T23:44:02|2023-06-07T04:19:52|04:35:50|dcc-youlab-gpu-34|1|10|96G||/hpc/group/ldefratelab/Patrick/Cartilage_ML_3D|
minhe|PREEMPTED|scavenger-gpu|2023-05-30T13:18:49|2023-06-05T16:39:31|6-03:20:42|dcc-dsplus-gpu-01|1|92|150692M||/work/minhe/alphafold|
minhe|PREEMPTED|scavenger-gpu|2023-05-31T13:26:17|2023-06-04T21:35:12|4-08:08:55|dcc-ultrasound-gpu-04|1|19|150692M||/work/minhe/alphafold|
vk93|TIMEOUT|scavenger-gpu|2023-05-31T22:34:58|2023-06-07T22:35:23|7-00:00:25|dcc-dsplus-gpu-02|1|40|350109M||/hpc/home/vk93/ondemand/data/sys/dashboard/batch_connect/sys/bc_jupyter/output/8ef6e1c5-29a3-4b2f-9caf-67c9017f6f0a|
rd254|COMPLETED|scavenger-gpu|2023-06-01T00:25:10|2023-06-06T06:08:09|5-05:42:59|dcc-chsi-gpu-05|1|6|12G||/work/rd254/ADP_monomer|
cem125|PREEMPTED|scavenger-gpu|2023-06-02T09:39:44|2023-06-05T10:11:12|3-00:31:28|dcc-gehmlab-gpu-02|1|19|50G||/hpc/group/rekerlab/cem125/OpenNMT-py|
yk206|COMPLETED|scavenger-gpu|2023-06-02T12:06:02|2023-06-04T15:37:09|2-03:31:07|dcc-allenlab-gpu-02|1|10|24G||/hpc/home/yk206/script/face_download|
bgb13|PREEMPTED|scavenger-gpu|2023-06-02T14:38:49|2023-06-05T10:11:14|2-19:32:25|dcc-gehmlab-gpu-01|1|16|10G||/hpc/group/dukenmr/bgb13/cyp51b_phosphorylated_S451/./.|
yw564|TIMEOUT|scavenger-gpu|2023-06-03T03:27:20|2023-06-10T03:27:20|7-00:00:00|dcc-youlab-gpu-01|1|2|50G||/hpc/group/jilab|
yx240|COMPLETED|scavenger-gpu|2023-06-03T05:29:27|2023-06-04T18:26:15|1-12:56:48|dcc-gehmlab-gpu-48|1|19|2G||/work/yx240/project-martini/simutools/sor-urs|
yx240|COMPLETED|scavenger-gpu|2023-06-03T06:23:12|2023-06-05T00:49:09|1-18:25:57|dcc-gehmlab-gpu-50|1|19|2G||/work/yx240/project-martini/simutools/sor-cr|
yx240|COMPLETED|scavenger-gpu|2023-06-03T06:23:12|2023-06-04T16:21:43|1-09:58:31|dcc-gehmlab-gpu-47|1|19|2G||/work/yx240/project-martini/simutools/sor-cr|
yk206|COMPLETED|scavenger-gpu|2023-06-03T17:35:29|2023-06-04T23:08:40|1-05:33:11|dcc-pbenfeylab-gpu-03|1|10|24G||/hpc/home/yk206/script/face_download|
yw564|TIMEOUT|scavenger-gpu|2023-06-03T14:43:42|2023-06-10T14:43:47|7-00:00:05|dcc-youlab-gpu-01|1|2|50G||/hpc/group/jilab|
yk206|COMPLETED|scavenger-gpu|2023-06-03T20:15:58|2023-06-04T21:36:28|1-01:20:30|dcc-youlab-gpu-44|1|10|24G||/hpc/home/yk206/script/face_download|
hk276|CANCELLED by 1460377|scavenger-gpu|2023-06-03T17:13:24|2023-06-04T17:26:35|1-00:13:11|dcc-biostat-gpu-01|1|12|150000M||/hpc/group/tdunn/hk276/dappy/dappy|
yk206|COMPLETED|scavenger-gpu|2023-06-03T21:18:07|2023-06-04T15:01:44|17:43:37|dcc-youlab-gpu-24|1|10|24G||/hpc/home/yk206/script/face_download|
yk206|COMPLETED|scavenger-gpu|2023-06-03T21:20:09|2023-06-04T15:01:00|17:40:51|dcc-youlab-gpu-31|1|10|24G||/hpc/home/yk206/script/face_download|
vk93|PREEMPTED|scavenger-gpu|2023-06-03T21:47:33|2023-06-06T12:07:23|2-14:19:50|dcc-youlab-gpu-01|1|40|350109M||/hpc/home/vk93/ondemand/data/sys/dashboard/batch_connect/sys/bc_jupyter/output/ba078d78-973d-4dcf-a8d1-ae22745f5c83|
yk206|OUT_OF_MEMORY|scavenger-gpu|2023-06-04T10:37:35|2023-06-04T18:08:49|07:31:14|dcc-allenlab-gpu-01|1|10|24G||/hpc/home/yk206/script/face_download|
yk206|COMPLETED|scavenger-gpu|2023-06-04T10:37:35|2023-06-06T06:53:03|1-20:15:28|dcc-allenlab-gpu-04|1|10|24G||/hpc/home/yk206/script/face_download|
yk206|COMPLETED|scavenger-gpu|2023-06-04T10:37:35|2023-06-04T17:59:16|07:21:41|dcc-pbenfeylab-gpu-01|1|10|24G||/hpc/home/yk206/script/face_download|
yk206|COMPLETED|scavenger-gpu|2023-06-04T10:37:38|2023-06-04T18:29:00|07:51:22|dcc-youlab-gpu-05|1|10|24G||/hpc/home/yk206/script/face_download|
yk206|OUT_OF_MEMORY|scavenger-gpu|2023-06-04T10:37:38|2023-06-05T01:42:07|15:04:29|dcc-youlab-gpu-16|1|10|24G||/hpc/home/yk206/script/face_download|
yk206|COMPLETED|scavenger-gpu|2023-06-04T10:37:38|2023-06-04T22:03:17|11:25:39|dcc-youlab-gpu-21|1|10|24G||/hpc/home/yk206/script/face_download|
yk206|OUT_OF_MEMORY|scavenger-gpu|2023-06-04T10:37:38|2023-06-04T22:40:02|12:02:24|dcc-youlab-gpu-23|1|10|24G||/hpc/home/yk206/script/face_download|
yk206|OUT_OF_MEMORY|scavenger-gpu|2023-06-04T10:37:38|2023-06-05T08:52:30|22:14:52|dcc-youlab-gpu-32|1|10|24G||/hpc/home/yk206/script/face_download|
yk206|COMPLETED|scavenger-gpu|2023-06-04T10:37:38|2023-06-05T12:09:01|1-01:31:23|dcc-youlab-gpu-02|1|10|24G||/hpc/home/yk206/script/face_download|
yk206|COMPLETED|scavenger-gpu|2023-06-04T10:37:38|2023-06-04T17:57:31|07:19:53|dcc-youlab-gpu-03|1|10|24G||/hpc/home/yk206/script/face_download|
yk206|OUT_OF_MEMORY|scavenger-gpu|2023-06-04T10:37:38|2023-06-05T01:26:39|14:49:01|dcc-youlab-gpu-18|1|10|24G||/hpc/home/yk206/script/face_download|
yk206|OUT_OF_MEMORY|scavenger-gpu|2023-06-04T10:37:38|2023-06-05T04:46:05|18:08:27|dcc-youlab-gpu-19|1|10|24G||/hpc/home/yk206/script/face_download|
yk206|COMPLETED|scavenger-gpu|2023-06-04T10:37:38|2023-06-04T18:38:46|08:01:08|dcc-biostat-gpu-02|1|22|24G||/hpc/home/yk206/script/face_download|
yk206|PREEMPTED|scavenger-gpu|2023-06-04T10:37:38|2023-06-04T17:27:37|06:49:59|dcc-carlsonlab-gpu-17|1|10|24G||/hpc/home/yk206/script/face_download|
yk206|COMPLETED|scavenger-gpu|2023-06-04T10:37:38|2023-06-05T04:05:12|17:27:34|dcc-carlsonlab-gpu-18|1|10|24G||/hpc/home/yk206/script/face_download|
yk206|COMPLETED|scavenger-gpu|2023-06-04T10:37:38|2023-06-05T00:43:14|14:05:36|dcc-carlsonlab-gpu-19|1|10|24G||/hpc/home/yk206/script/face_download|
yk206|OUT_OF_MEMORY|scavenger-gpu|2023-06-04T10:37:38|2023-06-04T21:06:27|10:28:49|dcc-carlsonlab-gpu-20|1|10|24G||/hpc/home/yk206/script/face_download|
yk206|COMPLETED|scavenger-gpu|2023-06-04T10:37:38|2023-06-04T19:45:27|09:07:49|dcc-vossenlab-gpu-01|1|10|24G||/hpc/home/yk206/script/face_download|
yk206|OUT_OF_MEMORY|scavenger-gpu|2023-06-04T10:37:39|2023-06-04T21:19:18|10:41:39|dcc-vossenlab-gpu-02|1|10|24G||/hpc/home/yk206/script/face_download|
yk206|COMPLETED|scavenger-gpu|2023-06-04T10:37:39|2023-06-05T02:53:41|16:16:02|dcc-vossenlab-gpu-03|1|10|24G||/hpc/home/yk206/script/face_download|
np145|PREEMPTED|scavenger-gpu|2023-06-04T12:09:59|2023-06-04T17:47:13|05:37:14|dcc-tdunn-gpu-02|1|20|80G||/datacommons/lefkowitz/np145/KRIOS/relion/Bar-BRIL-Fab-Nb-C5|
jrl78|COMPLETED|scavenger-gpu|2023-06-04T12:15:49|2023-06-05T08:23:38|20:07:49|dcc-youlab-gpu-33|1|10|2G||/work/jrl78/Nanoparticles/JawBreakers/Different Partial Charges/EEM Full Library/round3_pKaStuff|
jrl78|COMPLETED|scavenger-gpu|2023-06-04T12:15:49|2023-06-05T08:28:02|20:12:13|dcc-youlab-gpu-30|1|10|2G||/work/jrl78/Nanoparticles/JawBreakers/Different Partial Charges/EEM Full Library/round3_pKaStuff|
jrl78|COMPLETED|scavenger-gpu|2023-06-04T12:15:49|2023-06-05T08:22:01|20:06:12|dcc-youlab-gpu-29|1|10|2G||/work/jrl78/Nanoparticles/JawBreakers/Different Partial Charges/EEM Full Library/round3_pKaStuff|
jrl78|COMPLETED|scavenger-gpu|2023-06-04T12:15:49|2023-06-05T07:21:25|19:05:36|dcc-youlab-gpu-28|1|10|2G||/work/jrl78/Nanoparticles/JawBreakers/Different Partial Charges/EEM Full Library/round3_pKaStuff|
jrl78|COMPLETED|scavenger-gpu|2023-06-04T12:15:49|2023-06-05T07:32:34|19:16:45|dcc-youlab-gpu-27|1|10|2G||/work/jrl78/Nanoparticles/JawBreakers/Different Partial Charges/EEM Full Library/round3_pKaStuff|
jrl78|COMPLETED|scavenger-gpu|2023-06-04T12:15:49|2023-06-05T07:44:51|19:29:02|dcc-youlab-gpu-14|1|10|2G||/work/jrl78/Nanoparticles/JawBreakers/Different Partial Charges/EEM Full Library/round3_pKaStuff|
jrl78|COMPLETED|scavenger-gpu|2023-06-04T12:15:50|2023-06-05T05:31:24|17:15:34|dcc-youlab-gpu-13|1|10|2G||/work/jrl78/Nanoparticles/JawBreakers/Different Partial Charges/EEM Full Library/round3_pKaStuff|
jrl78|COMPLETED|scavenger-gpu|2023-06-04T12:15:50|2023-06-05T05:31:19|17:15:29|dcc-youlab-gpu-12|1|10|2G||/work/jrl78/Nanoparticles/JawBreakers/Different Partial Charges/EEM Full Library/round3_pKaStuff|
jrl78|COMPLETED|scavenger-gpu|2023-06-04T12:16:22|2023-06-05T05:27:17|17:10:55|dcc-youlab-gpu-11|1|10|2G||/work/jrl78/Nanoparticles/JawBreakers/Different Partial Charges/EEM Full Library/round3_pKaStuff|
jrl78|COMPLETED|scavenger-gpu|2023-06-04T12:16:22|2023-06-05T16:02:02|1-03:45:40|dcc-youlab-gpu-10|1|10|2G||/work/jrl78/Nanoparticles/JawBreakers/Different Partial Charges/EEM Full Library/round3_pKaStuff|
jrl78|COMPLETED|scavenger-gpu|2023-06-04T12:16:22|2023-06-05T15:50:16|1-03:33:54|dcc-youlab-gpu-09|1|10|2G||/work/jrl78/Nanoparticles/JawBreakers/Different Partial Charges/EEM Full Library/round3_pKaStuff|
jrl78|COMPLETED|scavenger-gpu|2023-06-04T12:16:22|2023-06-05T15:37:02|1-03:20:40|dcc-youlab-gpu-08|1|10|2G||/work/jrl78/Nanoparticles/JawBreakers/Different Partial Charges/EEM Full Library/round3_pKaStuff|
jrl78|COMPLETED|scavenger-gpu|2023-06-04T12:16:24|2023-06-05T12:09:11|23:52:47|dcc-vossenlab-gpu-04|1|10|2G||/work/jrl78/Nanoparticles/JawBreakers/Different Partial Charges/EEM Full Library/round3_pKaStuff|
jrl78|COMPLETED|scavenger-gpu|2023-06-04T12:16:24|2023-06-05T11:42:12|23:25:48|dcc-ultrasound-gpu-03|1|19|2G||/work/jrl78/Nanoparticles/JawBreakers/Different Partial Charges/EEM Full Library/round3_pKaStuff|
jrl78|COMPLETED|scavenger-gpu|2023-06-04T12:16:24|2023-06-05T11:32:50|23:16:26|dcc-ultrasound-gpu-01|1|19|2G||/work/jrl78/Nanoparticles/JawBreakers/Different Partial Charges/EEM Full Library/round3_pKaStuff|
jrl78|PREEMPTED|scavenger-gpu|2023-06-04T12:16:24|2023-06-04T22:15:40|09:59:16|dcc-pbenfeylab-gpu-04|1|10|2G||/work/jrl78/Nanoparticles/JawBreakers/Different Partial Charges/EEM Full Library/round3_pKaStuff|
jrl78|COMPLETED|scavenger-gpu|2023-06-04T12:16:24|2023-06-05T13:01:23|1-00:44:59|dcc-motesa-gpu-04|1|6|2G||/work/jrl78/Nanoparticles/JawBreakers/Different Partial Charges/EEM Full Library/round3_pKaStuff|
jrl78|COMPLETED|scavenger-gpu|2023-06-04T12:16:24|2023-06-05T12:45:41|1-00:29:17|dcc-motesa-gpu-03|1|6|2G||/work/jrl78/Nanoparticles/JawBreakers/Different Partial Charges/EEM Full Library/round3_pKaStuff|
jrl78|COMPLETED|scavenger-gpu|2023-06-04T12:16:24|2023-06-05T09:42:58|21:26:34|dcc-motesa-gpu-02|1|6|2G||/work/jrl78/Nanoparticles/JawBreakers/Different Partial Charges/EEM Full Library/round3_pKaStuff|
jrl78|COMPLETED|scavenger-gpu|2023-06-04T12:16:24|2023-06-05T09:52:12|21:35:48|dcc-mainsahlab-gpu-04|1|6|2G||/work/jrl78/Nanoparticles/JawBreakers/Different Partial Charges/EEM Full Library/round3_pKaStuff|
jrl78|COMPLETED|scavenger-gpu|2023-06-04T12:16:24|2023-06-05T09:41:25|21:25:01|dcc-mainsahlab-gpu-03|1|6|2G||/work/jrl78/Nanoparticles/JawBreakers/Different Partial Charges/EEM Full Library/round3_pKaStuff|
jrl78|COMPLETED|scavenger-gpu|2023-06-04T12:16:56|2023-06-05T15:28:03|1-03:11:07|dcc-mainsahlab-gpu-02|1|6|2G||/work/jrl78/Nanoparticles/JawBreakers/Different Partial Charges/EEM Full Library/round3_pKaStuff|
jrl78|COMPLETED|scavenger-gpu|2023-06-04T12:16:56|2023-06-05T15:23:38|1-03:06:42|dcc-mainsahlab-gpu-01|1|6|2G||/work/jrl78/Nanoparticles/JawBreakers/Different Partial Charges/EEM Full Library/round3_pKaStuff|
jrl78|PREEMPTED|scavenger-gpu|2023-06-04T12:16:57|2023-06-05T10:11:16|21:54:19|dcc-gehmlab-gpu-59|1|19|2G||/work/jrl78/Nanoparticles/JawBreakers/Different Partial Charges/EEM Full Library/round3_pKaStuff|
jrl78|PREEMPTED|scavenger-gpu|2023-06-04T12:16:57|2023-06-05T10:11:18|21:54:21|dcc-gehmlab-gpu-58|1|19|2G||/work/jrl78/Nanoparticles/JawBreakers/Different Partial Charges/EEM Full Library/round3_pKaStuff|
jrl78|PREEMPTED|scavenger-gpu|2023-06-04T12:16:57|2023-06-05T10:11:20|21:54:23|dcc-gehmlab-gpu-57|1|19|2G||/work/jrl78/Nanoparticles/JawBreakers/Different Partial Charges/EEM Full Library/round3_pKaStuff|
jrl78|PREEMPTED|scavenger-gpu|2023-06-04T12:16:57|2023-06-05T10:11:22|21:54:25|dcc-gehmlab-gpu-56|1|19|2G||/work/jrl78/Nanoparticles/JawBreakers/Different Partial Charges/EEM Full Library/round3_pKaStuff|
jrl78|PREEMPTED|scavenger-gpu|2023-06-04T12:16:57|2023-06-05T10:11:22|21:54:25|dcc-gehmlab-gpu-55|1|19|2G||/work/jrl78/Nanoparticles/JawBreakers/Different Partial Charges/EEM Full Library/round3_pKaStuff|
jrl78|PREEMPTED|scavenger-gpu|2023-06-04T12:16:57|2023-06-05T10:11:22|21:54:25|dcc-gehmlab-gpu-54|1|19|2G||/work/jrl78/Nanoparticles/JawBreakers/Different Partial Charges/EEM Full Library/round3_pKaStuff|
jrl78|PREEMPTED|scavenger-gpu|2023-06-04T12:16:58|2023-06-05T10:11:22|21:54:24|dcc-gehmlab-gpu-53|1|19|2G||/work/jrl78/Nanoparticles/JawBreakers/Different Partial Charges/EEM Full Library/round3_pKaStuff|
jrl78|PREEMPTED|scavenger-gpu|2023-06-04T12:16:58|2023-06-05T10:11:22|21:54:24|dcc-gehmlab-gpu-51|1|19|2G||/work/jrl78/Nanoparticles/JawBreakers/Different Partial Charges/EEM Full Library/round3_pKaStuff|
jrl78|PREEMPTED|scavenger-gpu|2023-06-04T12:28:38|2023-06-05T10:11:24|21:42:46|dcc-gehmlab-gpu-46|1|19|2G||/work/jrl78/Nanoparticles/JawBreakers/Different Partial Charges/EEM Full Library/round3_pKaStuff|
yk206|PREEMPTED|scavenger-gpu|2023-06-04T13:42:50|2023-06-05T11:29:52|21:47:02|dcc-allenlab-gpu-03|1|10|24G||/hpc/home/yk206/script/face_download|
cem125|COMPLETED|scavenger-gpu|2023-06-04T14:20:25|2023-06-10T22:27:31|6-08:07:06|dcc-youlab-gpu-07|1|10|50G||/hpc/group/rekerlab/cem125/OpenNMT-py|
zq43|COMPLETED|scavenger-gpu|2023-06-04T14:38:38|2023-06-04T21:46:37|07:07:59|dcc-chsi-gpu-02|1|6|2G||/hpc/group/renlab/zhuobiao/MC_kV_for_zhuobiao|
zq43|COMPLETED|scavenger-gpu|2023-06-04T14:38:38|2023-06-04T21:54:59|07:16:21|dcc-chsi-gpu-03|1|6|2G||/hpc/group/renlab/zhuobiao/MC_kV_for_zhuobiao|
zq43|COMPLETED|scavenger-gpu|2023-06-04T14:39:08|2023-06-04T22:12:13|07:33:05|dcc-chsi-gpu-04|1|6|2G||/hpc/group/renlab/zhuobiao/MC_kV_for_zhuobiao|
zq43|COMPLETED|scavenger-gpu|2023-06-04T14:39:08|2023-06-04T21:20:18|06:41:10|dcc-chsi-gpu-06|1|6|2G||/hpc/group/renlab/zhuobiao/MC_kV_for_zhuobiao|
zq43|COMPLETED|scavenger-gpu|2023-06-04T14:39:08|2023-06-04T21:17:06|06:37:58|dcc-chsi-gpu-07|1|6|2G||/hpc/group/renlab/zhuobiao/MC_kV_for_zhuobiao|
zq43|COMPLETED|scavenger-gpu|2023-06-04T14:40:41|2023-06-04T21:47:24|07:06:43|dcc-chsi-gpu-08|1|6|2G||/hpc/group/renlab/zhuobiao/MC_kV_for_zhuobiao|
zq43|COMPLETED|scavenger-gpu|2023-06-04T14:41:44|2023-06-04T21:22:38|06:40:54|dcc-carlsonlab-gpu-06|1|21|2G||/hpc/group/renlab/zhuobiao/MC_kV_for_zhuobiao|
zq43|COMPLETED|scavenger-gpu|2023-06-04T14:41:44|2023-06-04T22:18:15|07:36:31|dcc-carlsonlab-gpu-13|1|21|2G||/hpc/group/renlab/zhuobiao/MC_kV_for_zhuobiao|
sa400|COMPLETED|scavenger-gpu|2023-06-04T14:58:22|2023-06-04T15:00:01|00:01:39|dcc-mastatlab-gpu-01|1|1|10G||/hpc/home/sa400/research/SDF-HF/code/revision_sdf_oos|
sa400|COMPLETED|scavenger-gpu|2023-06-04T14:58:22|2023-06-04T15:00:04|00:01:42|dcc-mastatlab-gpu-01|1|1|10G||/hpc/home/sa400/research/SDF-HF/code/revision_sdf_oos|
sa400|COMPLETED|scavenger-gpu|2023-06-04T14:58:22|2023-06-04T15:00:04|00:01:42|dcc-mastatlab-gpu-01|1|1|10G||/hpc/home/sa400/research/SDF-HF/code/revision_sdf_oos|
sa400|COMPLETED|scavenger-gpu|2023-06-04T15:25:52|2023-06-04T15:26:56|00:01:04|dcc-youlab-gpu-31|1|1|10G||/hpc/home/sa400/research/SDF-HF/code/revision_sdf_oos|
sa400|COMPLETED|scavenger-gpu|2023-06-04T15:25:52|2023-06-04T15:26:56|00:01:04|dcc-youlab-gpu-24|1|1|10G||/hpc/home/sa400/research/SDF-HF/code/revision_sdf_oos|
sa400|COMPLETED|scavenger-gpu|2023-06-04T15:25:52|2023-06-04T15:27:12|00:01:20|dcc-viplab-gpu-01|1|1|10G||/hpc/home/sa400/research/SDF-HF/code/revision_sdf_oos|
sa400|COMPLETED|scavenger-gpu|2023-06-04T15:25:52|2023-06-04T15:27:12|00:01:20|dcc-viplab-gpu-01|1|1|10G||/hpc/home/sa400/research/SDF-HF/code/revision_sdf_oos|
sa400|COMPLETED|scavenger-gpu|2023-06-04T15:25:53|2023-06-04T15:27:12|00:01:19|dcc-viplab-gpu-01|1|1|10G||/hpc/home/sa400/research/SDF-HF/code/revision_sdf_oos|
sa400|COMPLETED|scavenger-gpu|2023-06-04T15:25:53|2023-06-04T15:27:10|00:01:17|dcc-ultrasound-gpu-02|1|1|10G||/hpc/home/sa400/research/SDF-HF/code/revision_sdf_oos|
sa400|COMPLETED|scavenger-gpu|2023-06-04T15:25:53|2023-06-04T15:27:08|00:01:15|dcc-tdunn-gpu-02|1|1|10G||/hpc/home/sa400/research/SDF-HF/code/revision_sdf_oos|
sa400|COMPLETED|scavenger-gpu|2023-06-04T15:25:53|2023-06-04T15:27:08|00:01:15|dcc-tdunn-gpu-02|1|1|10G||/hpc/home/sa400/research/SDF-HF/code/revision_sdf_oos|
sa400|COMPLETED|scavenger-gpu|2023-06-04T15:25:53|2023-06-04T15:27:12|00:01:19|dcc-tdunn-gpu-01|1|1|10G||/hpc/home/sa400/research/SDF-HF/code/revision_sdf_oos|
sa400|COMPLETED|scavenger-gpu|2023-06-04T15:25:53|2023-06-04T15:27:12|00:01:19|dcc-tdunn-gpu-01|1|1|10G||/hpc/home/sa400/research/SDF-HF/code/revision_sdf_oos|
sa400|COMPLETED|scavenger-gpu|2023-06-04T15:25:53|2023-06-04T15:27:36|00:01:43|dcc-mastatlab-gpu-01|1|1|10G||/hpc/home/sa400/research/SDF-HF/code/revision_sdf_oos|
sa400|COMPLETED|scavenger-gpu|2023-06-04T15:25:53|2023-06-04T15:27:32|00:01:39|dcc-mastatlab-gpu-01|1|1|10G||/hpc/home/sa400/research/SDF-HF/code/revision_sdf_oos|
sa400|COMPLETED|scavenger-gpu|2023-06-04T15:25:54|2023-06-04T15:27:36|00:01:42|dcc-mastatlab-gpu-01|1|1|10G||/hpc/home/sa400/research/SDF-HF/code/revision_sdf_oos|
sa400|COMPLETED|scavenger-gpu|2023-06-04T15:25:54|2023-06-04T15:27:08|00:01:14|dcc-mastatlab-gpu-01|1|1|10G||/hpc/home/sa400/research/SDF-HF/code/revision_sdf_oos|
sa400|FAILED|scavenger-gpu|2023-06-04T15:25:54|2023-06-04T15:26:13|00:00:19|dcc-gehmlab-gpu-60|1|1|10G||/hpc/home/sa400/research/SDF-HF/code/revision_sdf_oos|
sa400|COMPLETED|scavenger-gpu|2023-06-04T15:25:54|2023-06-04T15:27:16|00:01:22|dcc-gehmlab-gpu-52|1|1|10G||/hpc/home/sa400/research/SDF-HF/code/revision_sdf_oos|
sa400|COMPLETED|scavenger-gpu|2023-06-04T15:25:54|2023-06-04T15:27:16|00:01:22|dcc-gehmlab-gpu-49|1|1|10G||/hpc/home/sa400/research/SDF-HF/code/revision_sdf_oos|
sa400|COMPLETED|scavenger-gpu|2023-06-04T15:25:54|2023-06-04T15:27:13|00:01:19|dcc-gehmlab-gpu-45|1|1|10G||/hpc/home/sa400/research/SDF-HF/code/revision_sdf_oos|
sa400|COMPLETED|scavenger-gpu|2023-06-04T15:25:54|2023-06-04T15:27:16|00:01:22|dcc-gehmlab-gpu-44|1|1|10G||/hpc/home/sa400/research/SDF-HF/code/revision_sdf_oos|
sa400|COMPLETED|scavenger-gpu|2023-06-04T15:25:54|2023-06-04T15:27:16|00:01:22|dcc-gehmlab-gpu-43|1|1|10G||/hpc/home/sa400/research/SDF-HF/code/revision_sdf_oos|
sa400|COMPLETED|scavenger-gpu|2023-06-04T15:25:54|2023-06-04T15:27:16|00:01:22|dcc-gehmlab-gpu-42|1|1|10G||/hpc/home/sa400/research/SDF-HF/code/revision_sdf_oos|
sa400|COMPLETED|scavenger-gpu|2023-06-04T15:25:56|2023-06-04T15:27:20|00:01:24|dcc-gehmlab-gpu-41|1|1|10G||/hpc/home/sa400/research/SDF-HF/code/revision_sdf_oos|
sa400|COMPLETED|scavenger-gpu|2023-06-04T15:52:23|2023-06-04T15:53:53|00:01:30|dcc-youlab-gpu-31|1|1|10G||/hpc/home/sa400/research/SDF-HF/code/revision_sdf_oos|
sa400|COMPLETED|scavenger-gpu|2023-06-04T15:52:23|2023-06-04T15:53:57|00:01:34|dcc-youlab-gpu-24|1|1|10G||/hpc/home/sa400/research/SDF-HF/code/revision_sdf_oos|
sa400|COMPLETED|scavenger-gpu|2023-06-04T15:52:23|2023-06-04T15:54:13|00:01:50|dcc-viplab-gpu-01|1|1|10G||/hpc/home/sa400/research/SDF-HF/code/revision_sdf_oos|
sa400|COMPLETED|scavenger-gpu|2023-06-04T15:52:23|2023-06-04T15:54:13|00:01:50|dcc-viplab-gpu-01|1|1|10G||/hpc/home/sa400/research/SDF-HF/code/revision_sdf_oos|
sa400|COMPLETED|scavenger-gpu|2023-06-04T15:52:23|2023-06-04T15:54:13|00:01:50|dcc-viplab-gpu-01|1|1|10G||/hpc/home/sa400/research/SDF-HF/code/revision_sdf_oos|
sa400|COMPLETED|scavenger-gpu|2023-06-04T15:52:23|2023-06-04T15:54:10|00:01:47|dcc-ultrasound-gpu-02|1|1|10G||/hpc/home/sa400/research/SDF-HF/code/revision_sdf_oos|
sa400|COMPLETED|scavenger-gpu|2023-06-04T15:52:23|2023-06-04T15:54:13|00:01:50|dcc-tdunn-gpu-02|1|1|10G||/hpc/home/sa400/research/SDF-HF/code/revision_sdf_oos|
sa400|COMPLETED|scavenger-gpu|2023-06-04T15:52:23|2023-06-04T15:54:13|00:01:50|dcc-tdunn-gpu-02|1|1|10G||/hpc/home/sa400/research/SDF-HF/code/revision_sdf_oos|
sa400|COMPLETED|scavenger-gpu|2023-06-04T15:52:23|2023-06-04T15:54:21|00:01:58|dcc-tdunn-gpu-01|1|1|10G||/hpc/home/sa400/research/SDF-HF/code/revision_sdf_oos|
sa400|COMPLETED|scavenger-gpu|2023-06-04T15:52:24|2023-06-04T15:54:21|00:01:57|dcc-tdunn-gpu-01|1|1|10G||/hpc/home/sa400/research/SDF-HF/code/revision_sdf_oos|
sa400|COMPLETED|scavenger-gpu|2023-06-04T15:52:24|2023-06-04T15:54:50|00:02:26|dcc-mastatlab-gpu-01|1|1|10G||/hpc/home/sa400/research/SDF-HF/code/revision_sdf_oos|
sa400|COMPLETED|scavenger-gpu|2023-06-04T15:52:24|2023-06-04T15:54:46|00:02:22|dcc-mastatlab-gpu-01|1|1|10G||/hpc/home/sa400/research/SDF-HF/code/revision_sdf_oos|
sa400|COMPLETED|scavenger-gpu|2023-06-04T15:52:24|2023-06-04T15:54:50|00:02:26|dcc-mastatlab-gpu-01|1|1|10G||/hpc/home/sa400/research/SDF-HF/code/revision_sdf_oos|
sa400|COMPLETED|scavenger-gpu|2023-06-04T15:52:24|2023-06-04T15:54:09|00:01:45|dcc-mastatlab-gpu-01|1|1|10G||/hpc/home/sa400/research/SDF-HF/code/revision_sdf_oos|
sa400|FAILED|scavenger-gpu|2023-06-04T15:52:24|2023-06-04T15:52:43|00:00:19|dcc-gehmlab-gpu-60|1|1|10G||/hpc/home/sa400/research/SDF-HF/code/revision_sdf_oos|
sa400|COMPLETED|scavenger-gpu|2023-06-04T15:52:24|2023-06-04T15:54:26|00:02:02|dcc-gehmlab-gpu-52|1|1|10G||/hpc/home/sa400/research/SDF-HF/code/revision_sdf_oos|
sa400|COMPLETED|scavenger-gpu|2023-06-04T15:52:25|2023-06-04T15:54:26|00:02:01|dcc-gehmlab-gpu-49|1|1|10G||/hpc/home/sa400/research/SDF-HF/code/revision_sdf_oos|
sa400|COMPLETED|scavenger-gpu|2023-06-04T15:52:25|2023-06-04T15:54:25|00:02:00|dcc-gehmlab-gpu-45|1|1|10G||/hpc/home/sa400/research/SDF-HF/code/revision_sdf_oos|
sa400|COMPLETED|scavenger-gpu|2023-06-04T15:52:25|2023-06-04T15:54:30|00:02:05|dcc-gehmlab-gpu-44|1|1|10G||/hpc/home/sa400/research/SDF-HF/code/revision_sdf_oos|
sa400|COMPLETED|scavenger-gpu|2023-06-04T15:52:25|2023-06-04T15:54:26|00:02:01|dcc-gehmlab-gpu-43|1|1|10G||/hpc/home/sa400/research/SDF-HF/code/revision_sdf_oos|
sa400|COMPLETED|scavenger-gpu|2023-06-04T15:52:25|2023-06-04T15:54:29|00:02:04|dcc-gehmlab-gpu-42|1|1|10G||/hpc/home/sa400/research/SDF-HF/code/revision_sdf_oos|
sa400|COMPLETED|scavenger-gpu|2023-06-04T15:52:25|2023-06-04T15:54:29|00:02:04|dcc-gehmlab-gpu-41|1|1|10G||/hpc/home/sa400/research/SDF-HF/code/revision_sdf_oos|
sa400|COMPLETED|scavenger-gpu|2023-06-04T15:52:25|2023-06-04T15:54:33|00:02:08|dcc-gehmlab-gpu-40|1|1|10G||/hpc/home/sa400/research/SDF-HF/code/revision_sdf_oos|
sa400|COMPLETED|scavenger-gpu|2023-06-04T15:52:25|2023-06-04T15:54:29|00:02:04|dcc-gehmlab-gpu-39|1|1|10G||/hpc/home/sa400/research/SDF-HF/code/revision_sdf_oos|
sa400|COMPLETED|scavenger-gpu|2023-06-04T15:52:25|2023-06-04T15:54:33|00:02:08|dcc-gehmlab-gpu-38|1|1|10G||/hpc/home/sa400/research/SDF-HF/code/revision_sdf_oos|
sa400|COMPLETED|scavenger-gpu|2023-06-04T15:52:26|2023-06-04T15:54:37|00:02:11|dcc-gehmlab-gpu-37|1|1|10G||/hpc/home/sa400/research/SDF-HF/code/revision_sdf_oos|
sa400|COMPLETED|scavenger-gpu|2023-06-04T15:52:26|2023-06-04T15:54:30|00:02:04|dcc-gehmlab-gpu-36|1|1|10G||/hpc/home/sa400/research/SDF-HF/code/revision_sdf_oos|
sa400|COMPLETED|scavenger-gpu|2023-06-04T15:52:26|2023-06-04T15:54:26|00:02:00|dcc-gehmlab-gpu-35|1|1|10G||/hpc/home/sa400/research/SDF-HF/code/revision_sdf_oos|
sa400|COMPLETED|scavenger-gpu|2023-06-04T15:52:26|2023-06-04T15:54:29|00:02:03|dcc-gehmlab-gpu-34|1|1|10G||/hpc/home/sa400/research/SDF-HF/code/revision_sdf_oos|
sa400|COMPLETED|scavenger-gpu|2023-06-04T15:52:26|2023-06-04T15:54:33|00:02:07|dcc-gehmlab-gpu-33|1|1|10G||/hpc/home/sa400/research/SDF-HF/code/revision_sdf_oos|
sa400|COMPLETED|scavenger-gpu|2023-06-04T15:52:26|2023-06-04T15:54:29|00:02:03|dcc-gehmlab-gpu-32|1|1|10G||/hpc/home/sa400/research/SDF-HF/code/revision_sdf_oos|
sa400|COMPLETED|scavenger-gpu|2023-06-04T15:52:26|2023-06-04T15:54:33|00:02:07|dcc-gehmlab-gpu-31|1|1|10G||/hpc/home/sa400/research/SDF-HF/code/revision_sdf_oos|
sa400|COMPLETED|scavenger-gpu|2023-06-04T15:52:26|2023-06-04T15:54:29|00:02:03|dcc-gehmlab-gpu-30|1|1|10G||/hpc/home/sa400/research/SDF-HF/code/revision_sdf_oos|
sa400|COMPLETED|scavenger-gpu|2023-06-04T15:52:26|2023-06-04T15:54:29|00:02:03|dcc-gehmlab-gpu-29|1|1|10G||/hpc/home/sa400/research/SDF-HF/code/revision_sdf_oos|
sa400|COMPLETED|scavenger-gpu|2023-06-04T15:52:26|2023-06-04T15:54:33|00:02:07|dcc-gehmlab-gpu-28|1|1|10G||/hpc/home/sa400/research/SDF-HF/code/revision_sdf_oos|
sa400|COMPLETED|scavenger-gpu|2023-06-04T15:52:26|2023-06-04T15:54:29|00:02:03|dcc-gehmlab-gpu-27|1|1|10G||/hpc/home/sa400/research/SDF-HF/code/revision_sdf_oos|
sa400|COMPLETED|scavenger-gpu|2023-06-04T15:52:26|2023-06-04T15:54:29|00:02:03|dcc-gehmlab-gpu-26|1|1|10G||/hpc/home/sa400/research/SDF-HF/code/revision_sdf_oos|
sa400|COMPLETED|scavenger-gpu|2023-06-04T15:52:27|2023-06-04T15:54:29|00:02:02|dcc-gehmlab-gpu-25|1|1|10G||/hpc/home/sa400/research/SDF-HF/code/revision_sdf_oos|
sa400|COMPLETED|scavenger-gpu|2023-06-04T15:52:27|2023-06-04T15:54:29|00:02:02|dcc-gehmlab-gpu-24|1|1|10G||/hpc/home/sa400/research/SDF-HF/code/revision_sdf_oos|
sa400|COMPLETED|scavenger-gpu|2023-06-04T15:52:27|2023-06-04T15:54:29|00:02:02|dcc-gehmlab-gpu-23|1|1|10G||/hpc/home/sa400/research/SDF-HF/code/revision_sdf_oos|
sa400|FAILED|scavenger-gpu|2023-06-04T15:52:57|2023-06-04T15:53:17|00:00:20|dcc-gehmlab-gpu-60|1|1|10G||/hpc/home/sa400/research/SDF-HF/code/revision_sdf_oos|
sa400|COMPLETED|scavenger-gpu|2023-06-04T15:52:57|2023-06-04T15:54:58|00:02:01|dcc-gehmlab-gpu-22|1|1|10G||/hpc/home/sa400/research/SDF-HF/code/revision_sdf_oos|
sa400|COMPLETED|scavenger-gpu|2023-06-04T15:52:57|2023-06-04T15:54:58|00:02:01|dcc-gehmlab-gpu-21|1|1|10G||/hpc/home/sa400/research/SDF-HF/code/revision_sdf_oos|
sa400|COMPLETED|scavenger-gpu|2023-06-04T15:52:57|2023-06-04T15:55:01|00:02:04|dcc-gehmlab-gpu-20|1|1|10G||/hpc/home/sa400/research/SDF-HF/code/revision_sdf_oos|
sa400|COMPLETED|scavenger-gpu|2023-06-04T15:52:57|2023-06-04T15:55:01|00:02:04|dcc-gehmlab-gpu-19|1|1|10G||/hpc/home/sa400/research/SDF-HF/code/revision_sdf_oos|
sa400|COMPLETED|scavenger-gpu|2023-06-04T15:52:57|2023-06-04T15:55:01|00:02:04|dcc-gehmlab-gpu-18|1|1|10G||/hpc/home/sa400/research/SDF-HF/code/revision_sdf_oos|
sa400|COMPLETED|scavenger-gpu|2023-06-04T15:52:58|2023-06-04T15:55:01|00:02:03|dcc-gehmlab-gpu-17|1|1|10G||/hpc/home/sa400/research/SDF-HF/code/revision_sdf_oos|
sa400|COMPLETED|scavenger-gpu|2023-06-04T15:52:58|2023-06-04T15:55:05|00:02:07|dcc-gehmlab-gpu-16|1|1|10G||/hpc/home/sa400/research/SDF-HF/code/revision_sdf_oos|
sa400|COMPLETED|scavenger-gpu|2023-06-04T15:52:58|2023-06-04T15:54:58|00:02:00|dcc-gehmlab-gpu-15|1|1|10G||/hpc/home/sa400/research/SDF-HF/code/revision_sdf_oos|
sa400|COMPLETED|scavenger-gpu|2023-06-04T15:52:58|2023-06-04T15:55:01|00:02:03|dcc-gehmlab-gpu-14|1|1|10G||/hpc/home/sa400/research/SDF-HF/code/revision_sdf_oos|
sa400|COMPLETED|scavenger-gpu|2023-06-04T15:52:58|2023-06-04T15:55:01|00:02:03|dcc-gehmlab-gpu-13|1|1|10G||/hpc/home/sa400/research/SDF-HF/code/revision_sdf_oos|
sa400|COMPLETED|scavenger-gpu|2023-06-04T15:52:58|2023-06-04T15:55:05|00:02:07|dcc-gehmlab-gpu-12|1|1|10G||/hpc/home/sa400/research/SDF-HF/code/revision_sdf_oos|
sa400|COMPLETED|scavenger-gpu|2023-06-04T15:52:58|2023-06-04T15:55:01|00:02:03|dcc-gehmlab-gpu-11|1|1|10G||/hpc/home/sa400/research/SDF-HF/code/revision_sdf_oos|
sa400|COMPLETED|scavenger-gpu|2023-06-04T15:52:59|2023-06-04T15:55:02|00:02:03|dcc-gehmlab-gpu-10|1|1|10G||/hpc/home/sa400/research/SDF-HF/code/revision_sdf_oos|
sa400|COMPLETED|scavenger-gpu|2023-06-04T15:52:59|2023-06-04T15:55:05|00:02:06|dcc-gehmlab-gpu-09|1|1|10G||/hpc/home/sa400/research/SDF-HF/code/revision_sdf_oos|
sa400|COMPLETED|scavenger-gpu|2023-06-04T15:52:59|2023-06-04T15:55:01|00:02:02|dcc-gehmlab-gpu-08|1|1|10G||/hpc/home/sa400/research/SDF-HF/code/revision_sdf_oos|
sa400|COMPLETED|scavenger-gpu|2023-06-04T15:52:59|2023-06-04T15:55:05|00:02:06|dcc-gehmlab-gpu-07|1|1|10G||/hpc/home/sa400/research/SDF-HF/code/revision_sdf_oos|
sa400|COMPLETED|scavenger-gpu|2023-06-04T15:52:59|2023-06-04T15:55:01|00:02:02|dcc-gehmlab-gpu-06|1|1|10G||/hpc/home/sa400/research/SDF-HF/code/revision_sdf_oos|
sa400|COMPLETED|scavenger-gpu|2023-06-04T15:52:59|2023-06-04T15:55:01|00:02:02|dcc-gehmlab-gpu-05|1|1|10G||/hpc/home/sa400/research/SDF-HF/code/revision_sdf_oos|
sa400|COMPLETED|scavenger-gpu|2023-06-04T15:52:59|2023-06-04T16:23:47|00:30:48|dcc-gehmlab-gpu-04|1|1|10G||/hpc/home/sa400/research/SDF-HF/code/revision_sdf_oos|
sa400|COMPLETED|scavenger-gpu|2023-06-04T15:52:59|2023-06-04T15:55:30|00:02:31|dcc-gehmlab-gpu-03|1|1|10G||/hpc/home/sa400/research/SDF-HF/code/revision_sdf_oos|
sa400|COMPLETED|scavenger-gpu|2023-06-04T15:52:59|2023-06-04T15:55:17|00:02:18|dcc-ece-gpu-04|1|1|10G||/hpc/home/sa400/research/SDF-HF/code/revision_sdf_oos|
sa400|COMPLETED|scavenger-gpu|2023-06-04T15:52:59|2023-06-04T15:55:25|00:02:26|dcc-ece-gpu-03|1|1|10G||/hpc/home/sa400/research/SDF-HF/code/revision_sdf_oos|
sa400|COMPLETED|scavenger-gpu|2023-06-04T15:52:59|2023-06-04T15:55:17|00:02:18|dcc-ece-gpu-02|1|1|10G||/hpc/home/sa400/research/SDF-HF/code/revision_sdf_oos|
sa400|COMPLETED|scavenger-gpu|2023-06-04T15:52:59|2023-06-04T15:55:17|00:02:18|dcc-ece-gpu-01|1|1|10G||/hpc/home/sa400/research/SDF-HF/code/revision_sdf_oos|
sa400|COMPLETED|scavenger-gpu|2023-06-04T15:53:01|2023-06-04T15:55:21|00:02:20|dcc-dsplus-gpu-10|1|1|10G||/hpc/home/sa400/research/SDF-HF/code/revision_sdf_oos|
sa400|COMPLETED|scavenger-gpu|2023-06-04T15:53:01|2023-06-04T15:55:17|00:02:16|dcc-dsplus-gpu-09|1|1|10G||/hpc/home/sa400/research/SDF-HF/code/revision_sdf_oos|
sa400|COMPLETED|scavenger-gpu|2023-06-04T15:53:01|2023-06-04T15:55:17|00:02:16|dcc-dsplus-gpu-08|1|1|10G||/hpc/home/sa400/research/SDF-HF/code/revision_sdf_oos|
sa400|COMPLETED|scavenger-gpu|2023-06-04T15:53:01|2023-06-04T15:55:25|00:02:24|dcc-dsplus-gpu-07|1|1|10G||/hpc/home/sa400/research/SDF-HF/code/revision_sdf_oos|
sa400|COMPLETED|scavenger-gpu|2023-06-04T15:53:01|2023-06-04T15:55:18|00:02:17|dcc-dsplus-gpu-06|1|1|10G||/hpc/home/sa400/research/SDF-HF/code/revision_sdf_oos|
sa400|COMPLETED|scavenger-gpu|2023-06-04T15:53:01|2023-06-04T15:55:21|00:02:20|dcc-dsplus-gpu-05|1|1|10G||/hpc/home/sa400/research/SDF-HF/code/revision_sdf_oos|
sa400|COMPLETED|scavenger-gpu|2023-06-04T15:53:01|2023-06-04T15:55:17|00:02:16|dcc-dsplus-gpu-04|1|1|10G||/hpc/home/sa400/research/SDF-HF/code/revision_sdf_oos|
sa400|COMPLETED|scavenger-gpu|2023-06-04T15:53:01|2023-06-04T15:55:17|00:02:16|dcc-dsplus-gpu-03|1|1|10G||/hpc/home/sa400/research/SDF-HF/code/revision_sdf_oos|
sa400|COMPLETED|scavenger-gpu|2023-06-04T15:53:01|2023-06-04T15:56:45|00:03:44|dcc-collinslab-gpu-04|1|1|10G||/hpc/home/sa400/research/SDF-HF/code/revision_sdf_oos|
sa400|COMPLETED|scavenger-gpu|2023-06-04T15:53:01|2023-06-04T15:55:50|00:02:49|dcc-collinslab-gpu-03|1|1|10G||/hpc/home/sa400/research/SDF-HF/code/revision_sdf_oos|
sa400|COMPLETED|scavenger-gpu|2023-06-04T15:53:01|2023-06-04T15:55:49|00:02:48|dcc-collinslab-gpu-02|1|1|10G||/hpc/home/sa400/research/SDF-HF/code/revision_sdf_oos|
sa400|COMPLETED|scavenger-gpu|2023-06-04T15:53:01|2023-06-04T15:55:54|00:02:53|dcc-collinslab-gpu-01|1|1|10G||/hpc/home/sa400/research/SDF-HF/code/revision_sdf_oos|
sa400|COMPLETED|scavenger-gpu|2023-06-04T15:53:01|2023-06-04T15:55:21|00:02:20|dcc-chsi-gpu-01|1|1|10G||/hpc/home/sa400/research/SDF-HF/code/revision_sdf_oos|
sa400|COMPLETED|scavenger-gpu|2023-06-04T15:53:01|2023-06-04T15:55:02|00:02:01|dcc-carlsonlab-gpu-16|1|1|10G||/hpc/home/sa400/research/SDF-HF/code/revision_sdf_oos|
sa400|FAILED|scavenger-gpu|2023-06-04T15:53:01|2023-06-04T15:53:15|00:00:14|dcc-carlsonlab-gpu-15|1|1|10G||/hpc/home/sa400/research/SDF-HF/code/revision_sdf_oos|
sa400|COMPLETED|scavenger-gpu|2023-06-04T15:53:01|2023-06-04T15:55:05|00:02:04|dcc-carlsonlab-gpu-14|1|1|10G||/hpc/home/sa400/research/SDF-HF/code/revision_sdf_oos|
sa400|COMPLETED|scavenger-gpu|2023-06-04T15:53:02|2023-06-04T15:55:05|00:02:03|dcc-carlsonlab-gpu-12|1|1|10G||/hpc/home/sa400/research/SDF-HF/code/revision_sdf_oos|
sa400|COMPLETED|scavenger-gpu|2023-06-04T15:53:02|2023-06-04T15:55:05|00:02:03|dcc-carlsonlab-gpu-11|1|1|10G||/hpc/home/sa400/research/SDF-HF/code/revision_sdf_oos|
sa400|COMPLETED|scavenger-gpu|2023-06-04T15:53:02|2023-06-04T15:55:05|00:02:03|dcc-carlsonlab-gpu-10|1|1|10G||/hpc/home/sa400/research/SDF-HF/code/revision_sdf_oos|
sa400|COMPLETED|scavenger-gpu|2023-06-04T15:53:02|2023-06-04T15:55:10|00:02:08|dcc-carlsonlab-gpu-09|1|1|10G||/hpc/home/sa400/research/SDF-HF/code/revision_sdf_oos|
sa400|COMPLETED|scavenger-gpu|2023-06-04T15:53:02|2023-06-04T15:55:05|00:02:03|dcc-carlsonlab-gpu-08|1|1|10G||/hpc/home/sa400/research/SDF-HF/code/revision_sdf_oos|
sa400|COMPLETED|scavenger-gpu|2023-06-04T15:53:02|2023-06-04T15:55:02|00:02:00|dcc-carlsonlab-gpu-07|1|1|10G||/hpc/home/sa400/research/SDF-HF/code/revision_sdf_oos|
sa400|COMPLETED|scavenger-gpu|2023-06-04T15:53:02|2023-06-04T15:55:09|00:02:07|dcc-carlsonlab-gpu-05|1|1|10G||/hpc/home/sa400/research/SDF-HF/code/revision_sdf_oos|
sa400|COMPLETED|scavenger-gpu|2023-06-04T15:53:03|2023-06-04T15:55:06|00:02:03|dcc-carlsonlab-gpu-04|1|1|10G||/hpc/home/sa400/research/SDF-HF/code/revision_sdf_oos|
sa400|COMPLETED|scavenger-gpu|2023-06-04T15:53:03|2023-06-04T15:55:05|00:02:02|dcc-carlsonlab-gpu-03|1|1|10G||/hpc/home/sa400/research/SDF-HF/code/revision_sdf_oos|
sa400|COMPLETED|scavenger-gpu|2023-06-04T15:53:03|2023-06-04T15:55:05|00:02:02|dcc-carlsonlab-gpu-02|1|1|10G||/hpc/home/sa400/research/SDF-HF/code/revision_sdf_oos|
sa400|COMPLETED|scavenger-gpu|2023-06-04T15:53:03|2023-06-04T15:55:05|00:02:02|dcc-carlsonlab-gpu-01|1|1|10G||/hpc/home/sa400/research/SDF-HF/code/revision_sdf_oos|
sa400|COMPLETED|scavenger-gpu|2023-06-04T15:53:03|2023-06-04T15:55:21|00:02:18|dcc-carin-gpu-12|1|1|10G||/hpc/home/sa400/research/SDF-HF/code/revision_sdf_oos|
sa400|COMPLETED|scavenger-gpu|2023-06-04T15:53:03|2023-06-04T15:55:25|00:02:22|dcc-carin-gpu-11|1|1|10G||/hpc/home/sa400/research/SDF-HF/code/revision_sdf_oos|
sa400|COMPLETED|scavenger-gpu|2023-06-04T15:53:03|2023-06-04T15:55:21|00:02:18|dcc-carin-gpu-10|1|1|10G||/hpc/home/sa400/research/SDF-HF/code/revision_sdf_oos|
sa400|COMPLETED|scavenger-gpu|2023-06-04T15:53:03|2023-06-04T15:55:22|00:02:19|dcc-carin-gpu-09|1|1|10G||/hpc/home/sa400/research/SDF-HF/code/revision_sdf_oos|
sa400|COMPLETED|scavenger-gpu|2023-06-04T15:53:03|2023-06-04T15:55:21|00:02:18|dcc-carin-gpu-08|1|1|10G||/hpc/home/sa400/research/SDF-HF/code/revision_sdf_oos|
sa400|COMPLETED|scavenger-gpu|2023-06-04T15:53:05|2023-06-04T15:55:26|00:02:21|dcc-carin-gpu-07|1|1|10G||/hpc/home/sa400/research/SDF-HF/code/revision_sdf_oos|
sa400|COMPLETED|scavenger-gpu|2023-06-04T15:53:05|2023-06-04T15:55:21|00:02:16|dcc-carin-gpu-06|1|1|10G||/hpc/home/sa400/research/SDF-HF/code/revision_sdf_oos|
sa400|COMPLETED|scavenger-gpu|2023-06-04T15:53:05|2023-06-04T15:55:21|00:02:16|dcc-carin-gpu-05|1|1|10G||/hpc/home/sa400/research/SDF-HF/code/revision_sdf_oos|
sa400|FAILED|scavenger-gpu|2023-06-04T15:53:41|2023-06-04T15:53:57|00:00:16|dcc-gehmlab-gpu-60|1|1|10G||/hpc/home/sa400/research/SDF-HF/code/revision_sdf_oos|
sa400|FAILED|scavenger-gpu|2023-06-04T15:53:41|2023-06-04T15:53:53|00:00:12|dcc-carlsonlab-gpu-15|1|1|10G||/hpc/home/sa400/research/SDF-HF/code/revision_sdf_oos|
sa400|COMPLETED|scavenger-gpu|2023-06-04T15:53:41|2023-06-04T15:55:57|00:02:16|dcc-carin-gpu-04|1|1|10G||/hpc/home/sa400/research/SDF-HF/code/revision_sdf_oos|
sa400|COMPLETED|scavenger-gpu|2023-06-04T15:53:41|2023-06-04T15:55:57|00:02:16|dcc-carin-gpu-03|1|1|10G||/hpc/home/sa400/research/SDF-HF/code/revision_sdf_oos|
sa400|COMPLETED|scavenger-gpu|2023-06-04T15:53:41|2023-06-04T15:55:57|00:02:16|dcc-carin-gpu-02|1|1|10G||/hpc/home/sa400/research/SDF-HF/code/revision_sdf_oos|
sa400|COMPLETED|scavenger-gpu|2023-06-04T15:53:41|2023-06-04T15:56:01|00:02:20|dcc-carin-gpu-01|1|1|10G||/hpc/home/sa400/research/SDF-HF/code/revision_sdf_oos|
sa400|COMPLETED|scavenger-gpu|2023-06-04T15:53:41|2023-06-04T15:55:41|00:02:00|dcc-brunellab-gpu-04|1|1|10G||/hpc/home/sa400/research/SDF-HF/code/revision_sdf_oos|
sa400|COMPLETED|scavenger-gpu|2023-06-04T15:53:41|2023-06-04T15:55:45|00:02:04|dcc-brunellab-gpu-03|1|1|10G||/hpc/home/sa400/research/SDF-HF/code/revision_sdf_oos|
sa400|COMPLETED|scavenger-gpu|2023-06-04T15:53:41|2023-06-04T15:55:45|00:02:04|dcc-brunellab-gpu-02|1|1|10G||/hpc/home/sa400/research/SDF-HF/code/revision_sdf_oos|
sa400|COMPLETED|scavenger-gpu|2023-06-04T15:53:41|2023-06-04T15:55:45|00:02:04|dcc-brunellab-gpu-01|1|1|10G||/hpc/home/sa400/research/SDF-HF/code/revision_sdf_oos|
sa400|COMPLETED|scavenger-gpu|2023-06-04T15:53:41|2023-06-04T15:56:41|00:03:00|dcc-brownlab-gpu-04|1|1|10G||/hpc/home/sa400/research/SDF-HF/code/revision_sdf_oos|
sa400|COMPLETED|scavenger-gpu|2023-06-04T15:53:41|2023-06-04T15:56:06|00:02:25|dcc-brownlab-gpu-03|1|1|10G||/hpc/home/sa400/research/SDF-HF/code/revision_sdf_oos|
sa400|COMPLETED|scavenger-gpu|2023-06-04T15:53:41|2023-06-04T15:56:33|00:02:52|dcc-brownlab-gpu-02|1|1|10G||/hpc/home/sa400/research/SDF-HF/code/revision_sdf_oos|
sa400|COMPLETED|scavenger-gpu|2023-06-04T15:53:41|2023-06-04T15:56:07|00:02:26|dcc-brownlab-gpu-01|1|1|10G||/hpc/home/sa400/research/SDF-HF/code/revision_sdf_oos|
sa400|COMPLETED|scavenger-gpu|2023-06-04T15:53:41|2023-06-04T15:55:13|00:01:32|dcc-allenlab-gpu-02|1|1|10G||/hpc/home/sa400/research/SDF-HF/code/revision_sdf_oos|
sa400|COMPLETED|scavenger-gpu|2023-06-04T15:54:14|2023-06-04T15:55:41|00:01:27|dcc-youlab-gpu-31|1|1|10G||/hpc/home/sa400/research/SDF-HF/code/revision_sdf_oos|
sa400|COMPLETED|scavenger-gpu|2023-06-04T15:54:15|2023-06-04T15:55:41|00:01:26|dcc-youlab-gpu-24|1|1|10G||/hpc/home/sa400/research/SDF-HF/code/revision_sdf_oos|
sa400|COMPLETED|scavenger-gpu|2023-06-04T15:54:15|2023-06-04T15:56:01|00:01:46|dcc-ultrasound-gpu-02|1|1|10G||/hpc/home/sa400/research/SDF-HF/code/revision_sdf_oos|
sa400|COMPLETED|scavenger-gpu|2023-06-04T15:54:15|2023-06-04T15:55:57|00:01:42|dcc-mastatlab-gpu-01|1|1|10G||/hpc/home/sa400/research/SDF-HF/code/revision_sdf_oos|
sa400|FAILED|scavenger-gpu|2023-06-04T15:54:15|2023-06-04T15:54:33|00:00:18|dcc-gehmlab-gpu-60|1|1|10G||/hpc/home/sa400/research/SDF-HF/code/revision_sdf_oos|
sa400|FAILED|scavenger-gpu|2023-06-04T15:54:15|2023-06-04T15:54:29|00:00:14|dcc-carlsonlab-gpu-15|1|1|10G||/hpc/home/sa400/research/SDF-HF/code/revision_sdf_oos|
sa400|COMPLETED|scavenger-gpu|2023-06-04T15:54:49|2023-06-04T15:56:41|00:01:52|dcc-viplab-gpu-01|1|1|10G||/hpc/home/sa400/research/SDF-HF/code/revision_sdf_oos|
sa400|COMPLETED|scavenger-gpu|2023-06-04T15:54:50|2023-06-04T15:56:38|00:01:48|dcc-viplab-gpu-01|1|1|10G||/hpc/home/sa400/research/SDF-HF/code/revision_sdf_oos|
sa400|COMPLETED|scavenger-gpu|2023-06-04T15:54:50|2023-06-04T15:56:41|00:01:51|dcc-viplab-gpu-01|1|1|10G||/hpc/home/sa400/research/SDF-HF/code/revision_sdf_oos|
sa400|COMPLETED|scavenger-gpu|2023-06-04T15:54:50|2023-06-04T15:56:37|00:01:47|dcc-tdunn-gpu-02|1|1|10G||/hpc/home/sa400/research/SDF-HF/code/revision_sdf_oos|
sa400|COMPLETED|scavenger-gpu|2023-06-04T15:54:50|2023-06-04T15:56:37|00:01:47|dcc-tdunn-gpu-02|1|1|10G||/hpc/home/sa400/research/SDF-HF/code/revision_sdf_oos|
sa400|COMPLETED|scavenger-gpu|2023-06-04T15:54:50|2023-06-04T15:56:45|00:01:55|dcc-tdunn-gpu-01|1|1|10G||/hpc/home/sa400/research/SDF-HF/code/revision_sdf_oos|
sa400|COMPLETED|scavenger-gpu|2023-06-04T15:54:50|2023-06-04T15:56:45|00:01:55|dcc-tdunn-gpu-01|1|1|10G||/hpc/home/sa400/research/SDF-HF/code/revision_sdf_oos|
sa400|FAILED|scavenger-gpu|2023-06-04T15:54:50|2023-06-04T15:55:09|00:00:19|dcc-gehmlab-gpu-60|1|1|10G||/hpc/home/sa400/research/SDF-HF/code/revision_sdf_oos|
sa400|COMPLETED|scavenger-gpu|2023-06-04T15:54:50|2023-06-04T15:56:53|00:02:03|dcc-gehmlab-gpu-52|1|1|10G||/hpc/home/sa400/research/SDF-HF/code/revision_sdf_oos|
sa400|COMPLETED|scavenger-gpu|2023-06-04T15:54:51|2023-06-04T15:56:53|00:02:02|dcc-gehmlab-gpu-49|1|1|10G||/hpc/home/sa400/research/SDF-HF/code/revision_sdf_oos|
sa400|COMPLETED|scavenger-gpu|2023-06-04T15:54:51|2023-06-04T15:56:49|00:01:58|dcc-gehmlab-gpu-45|1|1|10G||/hpc/home/sa400/research/SDF-HF/code/revision_sdf_oos|
sa400|COMPLETED|scavenger-gpu|2023-06-04T15:54:51|2023-06-04T15:56:53|00:02:02|dcc-gehmlab-gpu-44|1|1|10G||/hpc/home/sa400/research/SDF-HF/code/revision_sdf_oos|
sa400|COMPLETED|scavenger-gpu|2023-06-04T15:54:51|2023-06-04T15:57:01|00:02:10|dcc-gehmlab-gpu-43|1|1|10G||/hpc/home/sa400/research/SDF-HF/code/revision_sdf_oos|
sa400|COMPLETED|scavenger-gpu|2023-06-04T15:54:51|2023-06-04T15:56:53|00:02:02|dcc-gehmlab-gpu-42|1|1|10G||/hpc/home/sa400/research/SDF-HF/code/revision_sdf_oos|
sa400|COMPLETED|scavenger-gpu|2023-06-04T15:54:51|2023-06-04T15:56:54|00:02:03|dcc-gehmlab-gpu-41|1|1|10G||/hpc/home/sa400/research/SDF-HF/code/revision_sdf_oos|
sa400|COMPLETED|scavenger-gpu|2023-06-04T15:54:51|2023-06-04T15:56:50|00:01:59|dcc-gehmlab-gpu-40|1|1|10G||/hpc/home/sa400/research/SDF-HF/code/revision_sdf_oos|
sa400|COMPLETED|scavenger-gpu|2023-06-04T15:54:51|2023-06-04T15:56:53|00:02:02|dcc-gehmlab-gpu-39|1|1|10G||/hpc/home/sa400/research/SDF-HF/code/revision_sdf_oos|
sa400|COMPLETED|scavenger-gpu|2023-06-04T15:54:51|2023-06-04T15:56:50|00:01:59|dcc-gehmlab-gpu-38|1|1|10G||/hpc/home/sa400/research/SDF-HF/code/revision_sdf_oos|
sa400|COMPLETED|scavenger-gpu|2023-06-04T15:54:51|2023-06-04T15:56:53|00:02:02|dcc-gehmlab-gpu-37|1|1|10G||/hpc/home/sa400/research/SDF-HF/code/revision_sdf_oos|
sa400|COMPLETED|scavenger-gpu|2023-06-04T15:54:53|2023-06-04T15:56:54|00:02:01|dcc-gehmlab-gpu-36|1|1|10G||/hpc/home/sa400/research/SDF-HF/code/revision_sdf_oos|
sa400|COMPLETED|scavenger-gpu|2023-06-04T15:54:53|2023-06-04T15:56:53|00:02:00|dcc-gehmlab-gpu-35|1|1|10G||/hpc/home/sa400/research/SDF-HF/code/revision_sdf_oos|
sa400|COMPLETED|scavenger-gpu|2023-06-04T15:54:53|2023-06-04T15:56:54|00:02:01|dcc-gehmlab-gpu-34|1|1|10G||/hpc/home/sa400/research/SDF-HF/code/revision_sdf_oos|
sa400|COMPLETED|scavenger-gpu|2023-06-04T15:54:53|2023-06-04T15:56:57|00:02:04|dcc-gehmlab-gpu-33|1|1|10G||/hpc/home/sa400/research/SDF-HF/code/revision_sdf_oos|
sa400|COMPLETED|scavenger-gpu|2023-06-04T15:54:53|2023-06-04T15:56:57|00:02:04|dcc-gehmlab-gpu-32|1|1|10G||/hpc/home/sa400/research/SDF-HF/code/revision_sdf_oos|
sa400|COMPLETED|scavenger-gpu|2023-06-04T15:54:53|2023-06-04T15:56:57|00:02:04|dcc-gehmlab-gpu-31|1|1|10G||/hpc/home/sa400/research/SDF-HF/code/revision_sdf_oos|
sa400|COMPLETED|scavenger-gpu|2023-06-04T15:54:53|2023-06-04T15:56:57|00:02:04|dcc-gehmlab-gpu-30|1|1|10G||/hpc/home/sa400/research/SDF-HF/code/revision_sdf_oos|
sa400|COMPLETED|scavenger-gpu|2023-06-04T15:54:53|2023-06-04T15:56:57|00:02:04|dcc-gehmlab-gpu-29|1|1|10G||/hpc/home/sa400/research/SDF-HF/code/revision_sdf_oos|
sa400|COMPLETED|scavenger-gpu|2023-06-04T15:54:53|2023-06-04T15:56:53|00:02:00|dcc-gehmlab-gpu-28|1|1|10G||/hpc/home/sa400/research/SDF-HF/code/revision_sdf_oos|
sa400|COMPLETED|scavenger-gpu|2023-06-04T15:54:53|2023-06-04T15:58:22|00:03:29|dcc-gehmlab-gpu-27|1|1|10G||/hpc/home/sa400/research/SDF-HF/code/revision_sdf_oos|
sa400|COMPLETED|scavenger-gpu|2023-06-04T15:54:53|2023-06-04T15:58:22|00:03:29|dcc-gehmlab-gpu-26|1|1|10G||/hpc/home/sa400/research/SDF-HF/code/revision_sdf_oos|
sa400|COMPLETED|scavenger-gpu|2023-06-04T15:54:53|2023-06-04T15:58:22|00:03:29|dcc-gehmlab-gpu-25|1|1|10G||/hpc/home/sa400/research/SDF-HF/code/revision_sdf_oos|
sa400|COMPLETED|scavenger-gpu|2023-06-04T15:54:53|2023-06-04T15:58:22|00:03:29|dcc-gehmlab-gpu-24|1|1|10G||/hpc/home/sa400/research/SDF-HF/code/revision_sdf_oos|
sa400|COMPLETED|scavenger-gpu|2023-06-04T15:54:53|2023-06-04T15:58:22|00:03:29|dcc-gehmlab-gpu-23|1|1|10G||/hpc/home/sa400/research/SDF-HF/code/revision_sdf_oos|
sa400|FAILED|scavenger-gpu|2023-06-04T15:54:53|2023-06-04T15:55:09|00:00:16|dcc-carlsonlab-gpu-15|1|1|10G||/hpc/home/sa400/research/SDF-HF/code/revision_sdf_oos|
sa400|COMPLETED|scavenger-gpu|2023-06-04T15:55:25|2023-06-04T15:59:28|00:04:03|dcc-mastatlab-gpu-01|1|1|10G||/hpc/home/sa400/research/SDF-HF/code/revision_sdf_oos|
sa400|COMPLETED|scavenger-gpu|2023-06-04T15:55:25|2023-06-04T15:59:36|00:04:11|dcc-mastatlab-gpu-01|1|1|10G||/hpc/home/sa400/research/SDF-HF/code/revision_sdf_oos|
sa400|COMPLETED|scavenger-gpu|2023-06-04T15:55:26|2023-06-04T15:59:28|00:04:02|dcc-mastatlab-gpu-01|1|1|10G||/hpc/home/sa400/research/SDF-HF/code/revision_sdf_oos|
sa400|FAILED|scavenger-gpu|2023-06-04T15:55:26|2023-06-04T15:55:42|00:00:16|dcc-gehmlab-gpu-60|1|1|10G||/hpc/home/sa400/research/SDF-HF/code/revision_sdf_oos|
sa400|COMPLETED|scavenger-gpu|2023-06-04T15:55:26|2023-06-04T15:58:56|00:03:30|dcc-gehmlab-gpu-22|1|1|10G||/hpc/home/sa400/research/SDF-HF/code/revision_sdf_oos|
sa400|COMPLETED|scavenger-gpu|2023-06-04T15:55:26|2023-06-04T15:58:52|00:03:26|dcc-gehmlab-gpu-21|1|1|10G||/hpc/home/sa400/research/SDF-HF/code/revision_sdf_oos|
sa400|COMPLETED|scavenger-gpu|2023-06-04T15:55:26|2023-06-04T15:58:56|00:03:30|dcc-gehmlab-gpu-20|1|1|10G||/hpc/home/sa400/research/SDF-HF/code/revision_sdf_oos|
sa400|COMPLETED|scavenger-gpu|2023-06-04T15:55:26|2023-06-04T15:58:56|00:03:30|dcc-gehmlab-gpu-19|1|1|10G||/hpc/home/sa400/research/SDF-HF/code/revision_sdf_oos|
sa400|COMPLETED|scavenger-gpu|2023-06-04T15:55:26|2023-06-04T15:58:56|00:03:30|dcc-gehmlab-gpu-18|1|1|10G||/hpc/home/sa400/research/SDF-HF/code/revision_sdf_oos|
sa400|COMPLETED|scavenger-gpu|2023-06-04T15:55:27|2023-06-04T15:58:53|00:03:26|dcc-gehmlab-gpu-17|1|1|10G||/hpc/home/sa400/research/SDF-HF/code/revision_sdf_oos|
sa400|COMPLETED|scavenger-gpu|2023-06-04T15:55:27|2023-06-04T15:58:56|00:03:29|dcc-gehmlab-gpu-16|1|1|10G||/hpc/home/sa400/research/SDF-HF/code/revision_sdf_oos|
sa400|COMPLETED|scavenger-gpu|2023-06-04T15:55:27|2023-06-04T15:58:56|00:03:29|dcc-gehmlab-gpu-15|1|1|10G||/hpc/home/sa400/research/SDF-HF/code/revision_sdf_oos|
sa400|COMPLETED|scavenger-gpu|2023-06-04T15:55:27|2023-06-04T15:58:56|00:03:29|dcc-gehmlab-gpu-14|1|1|10G||/hpc/home/sa400/research/SDF-HF/code/revision_sdf_oos|
sa400|COMPLETED|scavenger-gpu|2023-06-04T15:55:27|2023-06-04T15:58:52|00:03:25|dcc-gehmlab-gpu-13|1|1|10G||/hpc/home/sa400/research/SDF-HF/code/revision_sdf_oos|
sa400|COMPLETED|scavenger-gpu|2023-06-04T15:55:27|2023-06-04T15:58:56|00:03:29|dcc-gehmlab-gpu-12|1|1|10G||/hpc/home/sa400/research/SDF-HF/code/revision_sdf_oos|
sa400|COMPLETED|scavenger-gpu|2023-06-04T15:55:27|2023-06-04T15:58:53|00:03:26|dcc-gehmlab-gpu-11|1|1|10G||/hpc/home/sa400/research/SDF-HF/code/revision_sdf_oos|
sa400|COMPLETED|scavenger-gpu|2023-06-04T15:55:27|2023-06-04T15:58:56|00:03:29|dcc-gehmlab-gpu-10|1|1|10G||/hpc/home/sa400/research/SDF-HF/code/revision_sdf_oos|
sa400|COMPLETED|scavenger-gpu|2023-06-04T15:55:27|2023-06-04T15:58:56|00:03:29|dcc-gehmlab-gpu-09|1|1|10G||/hpc/home/sa400/research/SDF-HF/code/revision_sdf_oos|
sa400|COMPLETED|scavenger-gpu|2023-06-04T15:55:29|2023-06-04T15:59:01|00:03:32|dcc-gehmlab-gpu-08|1|1|10G||/hpc/home/sa400/research/SDF-HF/code/revision_sdf_oos|
sa400|COMPLETED|scavenger-gpu|2023-06-04T15:55:29|2023-06-04T15:59:01|00:03:32|dcc-gehmlab-gpu-07|1|1|10G||/hpc/home/sa400/research/SDF-HF/code/revision_sdf_oos|
sa400|COMPLETED|scavenger-gpu|2023-06-04T15:55:29|2023-06-04T15:59:01|00:03:32|dcc-gehmlab-gpu-06|1|1|10G||/hpc/home/sa400/research/SDF-HF/code/revision_sdf_oos|
sa400|COMPLETED|scavenger-gpu|2023-06-04T15:55:29|2023-06-04T15:59:01|00:03:32|dcc-gehmlab-gpu-05|1|1|10G||/hpc/home/sa400/research/SDF-HF/code/revision_sdf_oos|
sa400|COMPLETED|scavenger-gpu|2023-06-04T15:55:29|2023-06-04T15:59:33|00:04:04|dcc-ece-gpu-04|1|1|10G||/hpc/home/sa400/research/SDF-HF/code/revision_sdf_oos|
sa400|COMPLETED|scavenger-gpu|2023-06-04T15:55:29|2023-06-04T15:59:28|00:03:59|dcc-ece-gpu-02|1|1|10G||/hpc/home/sa400/research/SDF-HF/code/revision_sdf_oos|
sa400|COMPLETED|scavenger-gpu|2023-06-04T15:55:29|2023-06-04T15:59:32|00:04:03|dcc-ece-gpu-01|1|1|10G||/hpc/home/sa400/research/SDF-HF/code/revision_sdf_oos|
sa400|COMPLETED|scavenger-gpu|2023-06-04T15:55:29|2023-06-04T15:59:28|00:03:59|dcc-dsplus-gpu-10|1|1|10G||/hpc/home/sa400/research/SDF-HF/code/revision_sdf_oos|
sa400|COMPLETED|scavenger-gpu|2023-06-04T15:55:29|2023-06-04T15:59:28|00:03:59|dcc-dsplus-gpu-09|1|1|10G||/hpc/home/sa400/research/SDF-HF/code/revision_sdf_oos|
sa400|COMPLETED|scavenger-gpu|2023-06-04T15:55:29|2023-06-04T15:59:28|00:03:59|dcc-dsplus-gpu-08|1|1|10G||/hpc/home/sa400/research/SDF-HF/code/revision_sdf_oos|
sa400|COMPLETED|scavenger-gpu|2023-06-04T15:55:29|2023-06-04T15:59:29|00:04:00|dcc-dsplus-gpu-06|1|1|10G||/hpc/home/sa400/research/SDF-HF/code/revision_sdf_oos|
sa400|COMPLETED|scavenger-gpu|2023-06-04T15:55:29|2023-06-04T15:59:40|00:04:11|dcc-dsplus-gpu-05|1|1|10G||/hpc/home/sa400/research/SDF-HF/code/revision_sdf_oos|
sa400|COMPLETED|scavenger-gpu|2023-06-04T15:55:29|2023-06-04T15:59:28|00:03:59|dcc-dsplus-gpu-04|1|1|10G||/hpc/home/sa400/research/SDF-HF/code/revision_sdf_oos|
sa400|COMPLETED|scavenger-gpu|2023-06-04T15:55:29|2023-06-04T15:59:28|00:03:59|dcc-dsplus-gpu-03|1|1|10G||/hpc/home/sa400/research/SDF-HF/code/revision_sdf_oos|
sa400|COMPLETED|scavenger-gpu|2023-06-04T15:55:30|2023-06-04T15:59:29|00:03:59|dcc-chsi-gpu-01|1|1|10G||/hpc/home/sa400/research/SDF-HF/code/revision_sdf_oos|
sa400|COMPLETED|scavenger-gpu|2023-06-04T15:55:30|2023-06-04T15:58:57|00:03:27|dcc-carlsonlab-gpu-16|1|1|10G||/hpc/home/sa400/research/SDF-HF/code/revision_sdf_oos|
sa400|FAILED|scavenger-gpu|2023-06-04T15:55:30|2023-06-04T15:55:45|00:00:15|dcc-carlsonlab-gpu-15|1|1|10G||/hpc/home/sa400/research/SDF-HF/code/revision_sdf_oos|
sa400|COMPLETED|scavenger-gpu|2023-06-04T15:55:30|2023-06-04T15:58:57|00:03:27|dcc-carlsonlab-gpu-14|1|1|10G||/hpc/home/sa400/research/SDF-HF/code/revision_sdf_oos|
sa400|COMPLETED|scavenger-gpu|2023-06-04T15:55:30|2023-06-04T15:59:01|00:03:31|dcc-carlsonlab-gpu-12|1|1|10G||/hpc/home/sa400/research/SDF-HF/code/revision_sdf_oos|
sa400|COMPLETED|scavenger-gpu|2023-06-04T15:55:30|2023-06-04T15:58:56|00:03:26|dcc-carlsonlab-gpu-11|1|1|10G||/hpc/home/sa400/research/SDF-HF/code/revision_sdf_oos|
sa400|COMPLETED|scavenger-gpu|2023-06-04T15:55:30|2023-06-04T15:58:57|00:03:27|dcc-carlsonlab-gpu-10|1|1|10G||/hpc/home/sa400/research/SDF-HF/code/revision_sdf_oos|
sa400|COMPLETED|scavenger-gpu|2023-06-04T15:55:30|2023-06-04T15:59:12|00:03:42|dcc-carlsonlab-gpu-09|1|1|10G||/hpc/home/sa400/research/SDF-HF/code/revision_sdf_oos|
sa400|COMPLETED|scavenger-gpu|2023-06-04T15:55:31|2023-06-04T15:59:01|00:03:30|dcc-carlsonlab-gpu-08|1|1|10G||/hpc/home/sa400/research/SDF-HF/code/revision_sdf_oos|
sa400|COMPLETED|scavenger-gpu|2023-06-04T15:55:31|2023-06-04T15:59:01|00:03:30|dcc-carlsonlab-gpu-07|1|1|10G||/hpc/home/sa400/research/SDF-HF/code/revision_sdf_oos|
sa400|COMPLETED|scavenger-gpu|2023-06-04T15:55:31|2023-06-04T15:59:01|00:03:30|dcc-carlsonlab-gpu-05|1|1|10G||/hpc/home/sa400/research/SDF-HF/code/revision_sdf_oos|
sa400|COMPLETED|scavenger-gpu|2023-06-04T15:55:31|2023-06-04T15:59:04|00:03:33|dcc-carlsonlab-gpu-04|1|1|10G||/hpc/home/sa400/research/SDF-HF/code/revision_sdf_oos|
sa400|COMPLETED|scavenger-gpu|2023-06-04T15:55:31|2023-06-04T15:59:01|00:03:30|dcc-carlsonlab-gpu-03|1|1|10G||/hpc/home/sa400/research/SDF-HF/code/revision_sdf_oos|
sa400|COMPLETED|scavenger-gpu|2023-06-04T15:55:31|2023-06-04T15:59:04|00:03:33|dcc-carlsonlab-gpu-02|1|1|10G||/hpc/home/sa400/research/SDF-HF/code/revision_sdf_oos|
sa400|COMPLETED|scavenger-gpu|2023-06-04T15:55:31|2023-06-04T15:59:01|00:03:30|dcc-carlsonlab-gpu-01|1|1|10G||/hpc/home/sa400/research/SDF-HF/code/revision_sdf_oos|
sa400|COMPLETED|scavenger-gpu|2023-06-04T15:55:31|2023-06-04T15:59:32|00:04:01|dcc-carin-gpu-12|1|1|10G||/hpc/home/sa400/research/SDF-HF/code/revision_sdf_oos|
sa400|COMPLETED|scavenger-gpu|2023-06-04T15:55:31|2023-06-04T15:59:32|00:04:01|dcc-carin-gpu-10|1|1|10G||/hpc/home/sa400/research/SDF-HF/code/revision_sdf_oos|
sa400|COMPLETED|scavenger-gpu|2023-06-04T15:55:31|2023-06-04T15:59:32|00:04:01|dcc-carin-gpu-09|1|1|10G||/hpc/home/sa400/research/SDF-HF/code/revision_sdf_oos|
sa400|COMPLETED|scavenger-gpu|2023-06-04T15:55:33|2023-06-04T15:59:32|00:03:59|dcc-carin-gpu-08|1|1|10G||/hpc/home/sa400/research/SDF-HF/code/revision_sdf_oos|
sa400|COMPLETED|scavenger-gpu|2023-06-04T15:55:33|2023-06-04T15:59:32|00:03:59|dcc-carin-gpu-06|1|1|10G||/hpc/home/sa400/research/SDF-HF/code/revision_sdf_oos|
sa400|COMPLETED|scavenger-gpu|2023-06-04T15:55:33|2023-06-04T15:59:40|00:04:07|dcc-carin-gpu-05|1|1|10G||/hpc/home/sa400/research/SDF-HF/code/revision_sdf_oos|
sa400|COMPLETED|scavenger-gpu|2023-06-04T15:55:33|2023-06-04T15:58:02|00:02:29|dcc-allenlab-gpu-02|1|1|10G||/hpc/home/sa400/research/SDF-HF/code/revision_sdf_oos|
sa400|COMPLETED|scavenger-gpu|2023-06-04T15:56:09|2023-06-04T15:58:36|00:02:27|dcc-youlab-gpu-31|1|1|10G||/hpc/home/sa400/research/SDF-HF/code/revision_sdf_oos|
sa400|COMPLETED|scavenger-gpu|2023-06-04T15:56:09|2023-06-04T15:58:37|00:02:28|dcc-youlab-gpu-24|1|1|10G||/hpc/home/sa400/research/SDF-HF/code/revision_sdf_oos|
sa400|COMPLETED|scavenger-gpu|2023-06-04T15:56:09|2023-06-04T15:59:08|00:02:59|dcc-ultrasound-gpu-02|1|1|10G||/hpc/home/sa400/research/SDF-HF/code/revision_sdf_oos|
sa400|COMPLETED|scavenger-gpu|2023-06-04T15:56:09|2023-06-04T15:59:04|00:02:55|dcc-mastatlab-gpu-01|1|1|10G||/hpc/home/sa400/research/SDF-HF/code/revision_sdf_oos|
sa400|FAILED|scavenger-gpu|2023-06-04T15:56:09|2023-06-04T15:56:26|00:00:17|dcc-gehmlab-gpu-60|1|1|10G||/hpc/home/sa400/research/SDF-HF/code/revision_sdf_oos|
sa400|COMPLETED|scavenger-gpu|2023-06-04T15:56:09|2023-06-04T16:00:36|00:04:27|dcc-gehmlab-gpu-03|1|1|10G||/hpc/home/sa400/research/SDF-HF/code/revision_sdf_oos|
sa400|COMPLETED|scavenger-gpu|2023-06-04T15:56:09|2023-06-04T16:00:08|00:03:59|dcc-ece-gpu-03|1|1|10G||/hpc/home/sa400/research/SDF-HF/code/revision_sdf_oos|
sa400|COMPLETED|scavenger-gpu|2023-06-04T15:56:09|2023-06-04T16:00:08|00:03:59|dcc-dsplus-gpu-07|1|1|10G||/hpc/home/sa400/research/SDF-HF/code/revision_sdf_oos|
sa400|COMPLETED|scavenger-gpu|2023-06-04T15:56:09|2023-06-04T16:01:00|00:04:51|dcc-collinslab-gpu-03|1|1|10G||/hpc/home/sa400/research/SDF-HF/code/revision_sdf_oos|
sa400|COMPLETED|scavenger-gpu|2023-06-04T15:56:09|2023-06-04T16:01:01|00:04:52|dcc-collinslab-gpu-02|1|1|10G||/hpc/home/sa400/research/SDF-HF/code/revision_sdf_oos|
sa400|COMPLETED|scavenger-gpu|2023-06-04T15:56:09|2023-06-04T16:01:04|00:04:55|dcc-collinslab-gpu-01|1|1|10G||/hpc/home/sa400/research/SDF-HF/code/revision_sdf_oos|
sa400|FAILED|scavenger-gpu|2023-06-04T15:56:09|2023-06-04T15:56:21|00:00:12|dcc-carlsonlab-gpu-15|1|1|10G||/hpc/home/sa400/research/SDF-HF/code/revision_sdf_oos|
sa400|COMPLETED|scavenger-gpu|2023-06-04T15:56:09|2023-06-04T16:00:08|00:03:59|dcc-carin-gpu-11|1|1|10G||/hpc/home/sa400/research/SDF-HF/code/revision_sdf_oos|
sa400|COMPLETED|scavenger-gpu|2023-06-04T15:56:09|2023-06-04T16:00:06|00:03:57|dcc-carin-gpu-07|1|1|10G||/hpc/home/sa400/research/SDF-HF/code/revision_sdf_oos|
sa400|COMPLETED|scavenger-gpu|2023-06-04T15:56:10|2023-06-04T16:00:12|00:04:02|dcc-carin-gpu-04|1|1|10G||/hpc/home/sa400/research/SDF-HF/code/revision_sdf_oos|
sa400|COMPLETED|scavenger-gpu|2023-06-04T15:56:10|2023-06-04T16:00:12|00:04:02|dcc-carin-gpu-03|1|1|10G||/hpc/home/sa400/research/SDF-HF/code/revision_sdf_oos|
sa400|COMPLETED|scavenger-gpu|2023-06-04T15:56:10|2023-06-04T16:00:08|00:03:58|dcc-carin-gpu-02|1|1|10G||/hpc/home/sa400/research/SDF-HF/code/revision_sdf_oos|
sa400|COMPLETED|scavenger-gpu|2023-06-04T15:56:10|2023-06-04T16:00:12|00:04:02|dcc-carin-gpu-01|1|1|10G||/hpc/home/sa400/research/SDF-HF/code/revision_sdf_oos|
sa400|COMPLETED|scavenger-gpu|2023-06-04T15:56:10|2023-06-04T15:59:41|00:03:31|dcc-brunellab-gpu-04|1|1|10G||/hpc/home/sa400/research/SDF-HF/code/revision_sdf_oos|
sa400|COMPLETED|scavenger-gpu|2023-06-04T15:56:10|2023-06-04T15:59:37|00:03:27|dcc-brunellab-gpu-03|1|1|10G||/hpc/home/sa400/research/SDF-HF/code/revision_sdf_oos|
sa400|COMPLETED|scavenger-gpu|2023-06-04T15:56:10|2023-06-04T15:59:40|00:03:30|dcc-brunellab-gpu-02|1|1|10G||/hpc/home/sa400/research/SDF-HF/code/revision_sdf_oos|
sa400|COMPLETED|scavenger-gpu|2023-06-04T15:56:11|2023-06-04T15:59:36|00:03:25|dcc-brunellab-gpu-01|1|1|10G||/hpc/home/sa400/research/SDF-HF/code/revision_sdf_oos|
sa400|COMPLETED|scavenger-gpu|2023-06-04T15:56:43|2023-06-04T15:59:44|00:03:01|dcc-tdunn-gpu-02|1|1|10G||/hpc/home/sa400/research/SDF-HF/code/revision_sdf_oos|
sa400|COMPLETED|scavenger-gpu|2023-06-04T15:56:43|2023-06-04T15:59:41|00:02:58|dcc-tdunn-gpu-02|1|1|10G||/hpc/home/sa400/research/SDF-HF/code/revision_sdf_oos|
sa400|FAILED|scavenger-gpu|2023-06-04T15:56:43|2023-06-04T15:57:01|00:00:18|dcc-gehmlab-gpu-60|1|1|10G||/hpc/home/sa400/research/SDF-HF/code/revision_sdf_oos|
sa400|FAILED|scavenger-gpu|2023-06-04T15:56:43|2023-06-04T15:56:57|00:00:14|dcc-carlsonlab-gpu-15|1|1|10G||/hpc/home/sa400/research/SDF-HF/code/revision_sdf_oos|
sa400|COMPLETED|scavenger-gpu|2023-06-04T15:56:43|2023-06-04T16:01:45|00:05:02|dcc-brownlab-gpu-04|1|1|10G||/hpc/home/sa400/research/SDF-HF/code/revision_sdf_oos|
sa400|COMPLETED|scavenger-gpu|2023-06-04T15:56:43|2023-06-04T16:00:56|00:04:13|dcc-brownlab-gpu-03|1|1|10G||/hpc/home/sa400/research/SDF-HF/code/revision_sdf_oos|
sa400|COMPLETED|scavenger-gpu|2023-06-04T15:56:43|2023-06-04T16:01:46|00:05:03|dcc-brownlab-gpu-02|1|1|10G||/hpc/home/sa400/research/SDF-HF/code/revision_sdf_oos|
sa400|COMPLETED|scavenger-gpu|2023-06-04T15:56:43|2023-06-04T16:01:12|00:04:29|dcc-brownlab-gpu-01|1|1|10G||/hpc/home/sa400/research/SDF-HF/code/revision_sdf_oos|
sa400|COMPLETED|scavenger-gpu|2023-06-04T15:57:17|2023-06-04T16:00:20|00:03:03|dcc-viplab-gpu-01|1|1|10G||/hpc/home/sa400/research/SDF-HF/code/revision_sdf_oos|
sa400|COMPLETED|scavenger-gpu|2023-06-04T15:57:17|2023-06-04T16:00:17|00:03:00|dcc-viplab-gpu-01|1|1|10G||/hpc/home/sa400/research/SDF-HF/code/revision_sdf_oos|
sa400|COMPLETED|scavenger-gpu|2023-06-04T15:57:17|2023-06-04T16:00:17|00:03:00|dcc-viplab-gpu-01|1|1|10G||/hpc/home/sa400/research/SDF-HF/code/revision_sdf_oos|
sa400|COMPLETED|scavenger-gpu|2023-06-04T15:57:17|2023-06-04T16:00:21|00:03:04|dcc-tdunn-gpu-01|1|1|10G||/hpc/home/sa400/research/SDF-HF/code/revision_sdf_oos|
sa400|COMPLETED|scavenger-gpu|2023-06-04T15:57:17|2023-06-04T16:00:24|00:03:07|dcc-tdunn-gpu-01|1|1|10G||/hpc/home/sa400/research/SDF-HF/code/revision_sdf_oos|
sa400|FAILED|scavenger-gpu|2023-06-04T15:57:17|2023-06-04T15:57:34|00:00:17|dcc-gehmlab-gpu-60|1|1|10G||/hpc/home/sa400/research/SDF-HF/code/revision_sdf_oos|
sa400|COMPLETED|scavenger-gpu|2023-06-04T15:57:17|2023-06-04T16:00:48|00:03:31|dcc-gehmlab-gpu-52|1|1|10G||/hpc/home/sa400/research/SDF-HF/code/revision_sdf_oos|
sa400|COMPLETED|scavenger-gpu|2023-06-04T15:57:17|2023-06-04T16:00:45|00:03:28|dcc-gehmlab-gpu-49|1|1|10G||/hpc/home/sa400/research/SDF-HF/code/revision_sdf_oos|
sa400|COMPLETED|scavenger-gpu|2023-06-04T15:57:17|2023-06-04T16:00:44|00:03:27|dcc-gehmlab-gpu-45|1|1|10G||/hpc/home/sa400/research/SDF-HF/code/revision_sdf_oos|
sa400|COMPLETED|scavenger-gpu|2023-06-04T15:57:18|2023-06-04T16:00:49|00:03:31|dcc-gehmlab-gpu-44|1|1|10G||/hpc/home/sa400/research/SDF-HF/code/revision_sdf_oos|
sa400|COMPLETED|scavenger-gpu|2023-06-04T15:57:18|2023-06-04T16:00:45|00:03:27|dcc-gehmlab-gpu-43|1|1|10G||/hpc/home/sa400/research/SDF-HF/code/revision_sdf_oos|
sa400|COMPLETED|scavenger-gpu|2023-06-04T15:57:18|2023-06-04T16:00:45|00:03:27|dcc-gehmlab-gpu-42|1|1|10G||/hpc/home/sa400/research/SDF-HF/code/revision_sdf_oos|
sa400|COMPLETED|scavenger-gpu|2023-06-04T15:57:18|2023-06-04T16:00:50|00:03:32|dcc-gehmlab-gpu-41|1|1|10G||/hpc/home/sa400/research/SDF-HF/code/revision_sdf_oos|
sa400|COMPLETED|scavenger-gpu|2023-06-04T15:57:18|2023-06-04T16:00:48|00:03:30|dcc-gehmlab-gpu-40|1|1|10G||/hpc/home/sa400/research/SDF-HF/code/revision_sdf_oos|
sa400|COMPLETED|scavenger-gpu|2023-06-04T15:57:18|2023-06-04T16:00:48|00:03:30|dcc-gehmlab-gpu-39|1|1|10G||/hpc/home/sa400/research/SDF-HF/code/revision_sdf_oos|
sa400|COMPLETED|scavenger-gpu|2023-06-04T15:57:18|2023-06-04T16:00:48|00:03:30|dcc-gehmlab-gpu-38|1|1|10G||/hpc/home/sa400/research/SDF-HF/code/revision_sdf_oos|
sa400|COMPLETED|scavenger-gpu|2023-06-04T15:57:19|2023-06-04T16:00:48|00:03:29|dcc-gehmlab-gpu-37|1|1|10G||/hpc/home/sa400/research/SDF-HF/code/revision_sdf_oos|
sa400|COMPLETED|scavenger-gpu|2023-06-04T15:57:19|2023-06-04T16:00:52|00:03:33|dcc-gehmlab-gpu-36|1|1|10G||/hpc/home/sa400/research/SDF-HF/code/revision_sdf_oos|
sa400|COMPLETED|scavenger-gpu|2023-06-04T15:57:19|2023-06-04T16:00:48|00:03:29|dcc-gehmlab-gpu-35|1|1|10G||/hpc/home/sa400/research/SDF-HF/code/revision_sdf_oos|
sa400|COMPLETED|scavenger-gpu|2023-06-04T15:57:19|2023-06-04T16:00:52|00:03:33|dcc-gehmlab-gpu-34|1|1|10G||/hpc/home/sa400/research/SDF-HF/code/revision_sdf_oos|
sa400|COMPLETED|scavenger-gpu|2023-06-04T15:57:19|2023-06-04T16:00:52|00:03:33|dcc-gehmlab-gpu-33|1|1|10G||/hpc/home/sa400/research/SDF-HF/code/revision_sdf_oos|
sa400|COMPLETED|scavenger-gpu|2023-06-04T15:57:19|2023-06-04T16:00:45|00:03:26|dcc-gehmlab-gpu-32|1|1|10G||/hpc/home/sa400/research/SDF-HF/code/revision_sdf_oos|
sa400|COMPLETED|scavenger-gpu|2023-06-04T15:57:19|2023-06-04T16:00:48|00:03:29|dcc-gehmlab-gpu-31|1|1|10G||/hpc/home/sa400/research/SDF-HF/code/revision_sdf_oos|
sa400|COMPLETED|scavenger-gpu|2023-06-04T15:57:19|2023-06-04T16:00:48|00:03:29|dcc-gehmlab-gpu-30|1|1|10G||/hpc/home/sa400/research/SDF-HF/code/revision_sdf_oos|
sa400|COMPLETED|scavenger-gpu|2023-06-04T15:57:19|2023-06-04T16:00:49|00:03:30|dcc-gehmlab-gpu-29|1|1|10G||/hpc/home/sa400/research/SDF-HF/code/revision_sdf_oos|
sa400|COMPLETED|scavenger-gpu|2023-06-04T15:57:21|2023-06-04T16:00:52|00:03:31|dcc-gehmlab-gpu-28|1|1|10G||/hpc/home/sa400/research/SDF-HF/code/revision_sdf_oos|
sa400|COMPLETED|scavenger-gpu|2023-06-04T15:57:21|2023-06-04T16:04:01|00:06:40|dcc-collinslab-gpu-04|1|1|10G||/hpc/home/sa400/research/SDF-HF/code/revision_sdf_oos|
sa400|FAILED|scavenger-gpu|2023-06-04T15:57:21|2023-06-04T15:57:33|00:00:12|dcc-carlsonlab-gpu-15|1|1|10G||/hpc/home/sa400/research/SDF-HF/code/revision_sdf_oos|
sa400|FAILED|scavenger-gpu|2023-06-04T15:57:52|2023-06-04T15:58:07|00:00:15|dcc-gehmlab-gpu-60|1|1|10G||/hpc/home/sa400/research/SDF-HF/code/revision_sdf_oos|
sa400|FAILED|scavenger-gpu|2023-06-04T15:57:52|2023-06-04T15:58:06|00:00:14|dcc-carlsonlab-gpu-15|1|1|10G||/hpc/home/sa400/research/SDF-HF/code/revision_sdf_oos|
sa400|FAILED|scavenger-gpu|2023-06-04T15:58:28|2023-06-04T15:58:44|00:00:16|dcc-gehmlab-gpu-60|1|1|10G||/hpc/home/sa400/research/SDF-HF/code/revision_sdf_oos|
sa400|COMPLETED|scavenger-gpu|2023-06-04T15:58:28|2023-06-04T16:02:07|00:03:39|dcc-gehmlab-gpu-27|1|1|10G||/hpc/home/sa400/research/SDF-HF/code/revision_sdf_oos|
sa400|COMPLETED|scavenger-gpu|2023-06-04T15:58:28|2023-06-04T16:01:54|00:03:26|dcc-gehmlab-gpu-26|1|1|10G||/hpc/home/sa400/research/SDF-HF/code/revision_sdf_oos|
sa400|COMPLETED|scavenger-gpu|2023-06-04T15:58:28|2023-06-04T16:01:57|00:03:29|dcc-gehmlab-gpu-25|1|1|10G||/hpc/home/sa400/research/SDF-HF/code/revision_sdf_oos|
sa400|COMPLETED|scavenger-gpu|2023-06-04T15:58:28|2023-06-04T16:01:57|00:03:29|dcc-gehmlab-gpu-24|1|1|10G||/hpc/home/sa400/research/SDF-HF/code/revision_sdf_oos|
sa400|COMPLETED|scavenger-gpu|2023-06-04T15:58:28|2023-06-04T16:01:57|00:03:29|dcc-gehmlab-gpu-23|1|1|10G||/hpc/home/sa400/research/SDF-HF/code/revision_sdf_oos|
sa400|FAILED|scavenger-gpu|2023-06-04T15:58:28|2023-06-04T15:58:40|00:00:12|dcc-carlsonlab-gpu-15|1|1|10G||/hpc/home/sa400/research/SDF-HF/code/revision_sdf_oos|
sa400|COMPLETED|scavenger-gpu|2023-06-04T15:58:28|2023-06-04T16:00:53|00:02:25|dcc-allenlab-gpu-02|1|1|10G||/hpc/home/sa400/research/SDF-HF/code/revision_sdf_oos|
sa400|COMPLETED|scavenger-gpu|2023-06-04T15:59:00|2023-06-04T16:01:29|00:02:29|dcc-youlab-gpu-31|1|1|10G||/hpc/home/sa400/research/SDF-HF/code/revision_sdf_oos|
sa400|COMPLETED|scavenger-gpu|2023-06-04T15:59:00|2023-06-04T16:01:29|00:02:29|dcc-youlab-gpu-24|1|1|10G||/hpc/home/sa400/research/SDF-HF/code/revision_sdf_oos|
sa400|FAILED|scavenger-gpu|2023-06-04T15:59:00|2023-06-04T15:59:16|00:00:16|dcc-gehmlab-gpu-60|1|1|10G||/hpc/home/sa400/research/SDF-HF/code/revision_sdf_oos|
sa400|COMPLETED|scavenger-gpu|2023-06-04T15:59:00|2023-06-04T16:02:29|00:03:29|dcc-gehmlab-gpu-22|1|1|10G||/hpc/home/sa400/research/SDF-HF/code/revision_sdf_oos|
sa400|COMPLETED|scavenger-gpu|2023-06-04T15:59:00|2023-06-04T16:02:29|00:03:29|dcc-gehmlab-gpu-21|1|1|10G||/hpc/home/sa400/research/SDF-HF/code/revision_sdf_oos|
sa400|COMPLETED|scavenger-gpu|2023-06-04T15:59:00|2023-06-04T16:02:29|00:03:29|dcc-gehmlab-gpu-20|1|1|10G||/hpc/home/sa400/research/SDF-HF/code/revision_sdf_oos|
sa400|COMPLETED|scavenger-gpu|2023-06-04T15:59:00|2023-06-04T16:02:29|00:03:29|dcc-gehmlab-gpu-19|1|1|10G||/hpc/home/sa400/research/SDF-HF/code/revision_sdf_oos|
sa400|COMPLETED|scavenger-gpu|2023-06-04T15:59:01|2023-06-04T16:02:29|00:03:28|dcc-gehmlab-gpu-18|1|1|10G||/hpc/home/sa400/research/SDF-HF/code/revision_sdf_oos|
sa400|COMPLETED|scavenger-gpu|2023-06-04T15:59:01|2023-06-04T16:02:29|00:03:28|dcc-gehmlab-gpu-17|1|1|10G||/hpc/home/sa400/research/SDF-HF/code/revision_sdf_oos|
sa400|COMPLETED|scavenger-gpu|2023-06-04T15:59:01|2023-06-04T16:02:29|00:03:28|dcc-gehmlab-gpu-16|1|1|10G||/hpc/home/sa400/research/SDF-HF/code/revision_sdf_oos|
sa400|COMPLETED|scavenger-gpu|2023-06-04T15:59:01|2023-06-04T16:02:30|00:03:29|dcc-gehmlab-gpu-15|1|1|10G||/hpc/home/sa400/research/SDF-HF/code/revision_sdf_oos|
sa400|COMPLETED|scavenger-gpu|2023-06-04T15:59:01|2023-06-04T16:02:33|00:03:32|dcc-gehmlab-gpu-14|1|1|10G||/hpc/home/sa400/research/SDF-HF/code/revision_sdf_oos|
sa400|COMPLETED|scavenger-gpu|2023-06-04T15:59:01|2023-06-04T16:02:25|00:03:24|dcc-gehmlab-gpu-13|1|1|10G||/hpc/home/sa400/research/SDF-HF/code/revision_sdf_oos|
sa400|COMPLETED|scavenger-gpu|2023-06-04T15:59:01|2023-06-04T16:02:33|00:03:32|dcc-gehmlab-gpu-12|1|1|10G||/hpc/home/sa400/research/SDF-HF/code/revision_sdf_oos|
sa400|COMPLETED|scavenger-gpu|2023-06-04T15:59:02|2023-06-04T16:02:30|00:03:28|dcc-gehmlab-gpu-11|1|1|10G||/hpc/home/sa400/research/SDF-HF/code/revision_sdf_oos|
sa400|COMPLETED|scavenger-gpu|2023-06-04T15:59:02|2023-06-04T16:02:29|00:03:27|dcc-gehmlab-gpu-10|1|1|10G||/hpc/home/sa400/research/SDF-HF/code/revision_sdf_oos|
sa400|COMPLETED|scavenger-gpu|2023-06-04T15:59:02|2023-06-04T16:02:34|00:03:32|dcc-gehmlab-gpu-09|1|1|10G||/hpc/home/sa400/research/SDF-HF/code/revision_sdf_oos|
sa400|COMPLETED|scavenger-gpu|2023-06-04T15:59:02|2023-06-04T16:02:29|00:03:27|dcc-carlsonlab-gpu-16|1|1|10G||/hpc/home/sa400/research/SDF-HF/code/revision_sdf_oos|
sa400|FAILED|scavenger-gpu|2023-06-04T15:59:02|2023-06-04T15:59:16|00:00:14|dcc-carlsonlab-gpu-15|1|1|10G||/hpc/home/sa400/research/SDF-HF/code/revision_sdf_oos|
sa400|COMPLETED|scavenger-gpu|2023-06-04T15:59:02|2023-06-04T16:02:29|00:03:27|dcc-carlsonlab-gpu-14|1|1|10G||/hpc/home/sa400/research/SDF-HF/code/revision_sdf_oos|
sa400|COMPLETED|scavenger-gpu|2023-06-04T15:59:02|2023-06-04T16:02:29|00:03:27|dcc-carlsonlab-gpu-11|1|1|10G||/hpc/home/sa400/research/SDF-HF/code/revision_sdf_oos|
sa400|COMPLETED|scavenger-gpu|2023-06-04T15:59:02|2023-06-04T16:02:29|00:03:27|dcc-carlsonlab-gpu-10|1|1|10G||/hpc/home/sa400/research/SDF-HF/code/revision_sdf_oos|
sa400|FAILED|scavenger-gpu|2023-06-04T15:59:36|2023-06-04T15:59:41|00:00:05|dcc-ultrasound-gpu-02|1|1|10G||/hpc/home/sa400/research/SDF-HF/code/revision_sdf_oos|
sa400|FAILED|scavenger-gpu|2023-06-04T15:59:36|2023-06-04T15:59:44|00:00:08|dcc-mastatlab-gpu-01|1|1|10G||/hpc/home/sa400/research/SDF-HF/code/revision_sdf_oos|
