pb183|COMPLETED|scavenger-gpu|2023-06-02T11:46:40|2023-06-06T05:29:02|3-17:42:22|dcc-youlab-gpu-53|1|10|96G||/hpc/group/ldefratelab/Patrick/Cartilage_ML_3D|
pb183|COMPLETED|scavenger-gpu|2023-06-04T04:49:09|2023-06-06T17:36:56|2-12:47:47|dcc-youlab-gpu-55|1|10|96G||/hpc/group/ldefratelab/Patrick/Cartilage_ML_3D|
pb183|COMPLETED|scavenger-gpu|2023-06-04T07:51:30|2023-06-06T15:15:23|2-07:23:53|dcc-youlab-gpu-40|1|10|96G||/hpc/group/ldefratelab/Patrick/Cartilage_ML_3D|
pb183|COMPLETED|scavenger-gpu|2023-06-04T09:05:50|2023-06-06T04:29:02|1-19:23:12|dcc-youlab-gpu-37|1|10|96G||/hpc/group/ldefratelab/Patrick/Cartilage_ML_3D|
pb183|COMPLETED|scavenger-gpu|2023-06-05T02:39:16|2023-06-07T06:14:21|2-03:35:05|dcc-youlab-gpu-16|1|10|96G||/hpc/group/ldefratelab/Patrick/Cartilage_ML_3D|
pb183|PREEMPTED|scavenger-gpu|2023-06-05T13:37:32|2023-06-06T09:42:27|20:04:55|dcc-vossenlab-gpu-04|1|10|96G||/hpc/group/ldefratelab/Patrick/Cartilage_ML_3D|
pb183|COMPLETED|scavenger-gpu|2023-06-05T14:42:59|2023-06-06T21:42:04|1-06:59:05|dcc-youlab-gpu-34|1|10|96G||/hpc/group/ldefratelab/Patrick/Cartilage_ML_3D|
pb183|COMPLETED|scavenger-gpu|2023-06-05T15:33:38|2023-06-06T21:07:42|1-05:34:04|dcc-youlab-gpu-35|1|10|96G||/hpc/group/ldefratelab/Patrick/Cartilage_ML_3D|
pb183|COMPLETED|scavenger-gpu|2023-06-05T15:42:00|2023-06-07T17:45:02|2-02:03:02|dcc-youlab-gpu-42|1|10|96G||/hpc/group/ldefratelab/Patrick/Cartilage_ML_3D|
pb183|COMPLETED|scavenger-gpu|2023-06-05T18:30:36|2023-06-08T00:16:19|2-05:45:43|dcc-youlab-gpu-44|1|10|96G||/hpc/group/ldefratelab/Patrick/Cartilage_ML_3D|
pb183|COMPLETED|scavenger-gpu|2023-06-05T21:14:33|2023-06-06T05:11:58|07:57:25|dcc-youlab-gpu-33|1|10|96G||/hpc/group/ldefratelab/Patrick/Cartilage_ML_3D|
pb183|COMPLETED|scavenger-gpu|2023-06-05T21:31:06|2023-06-07T01:34:10|1-04:03:04|dcc-youlab-gpu-43|1|10|96G||/hpc/group/ldefratelab/Patrick/Cartilage_ML_3D|
pb183|COMPLETED|scavenger-gpu|2023-06-05T21:36:31|2023-06-06T17:44:55|20:08:24|dcc-youlab-gpu-41|1|10|96G||/hpc/group/ldefratelab/Patrick/Cartilage_ML_3D|
pb183|COMPLETED|scavenger-gpu|2023-06-05T22:32:54|2023-06-05T23:47:32|01:14:38|dcc-youlab-gpu-36|1|10|96G||/hpc/group/ldefratelab/Patrick/Cartilage_ML_3D|
pb183|COMPLETED|scavenger-gpu|2023-06-05T22:52:13|2023-06-06T00:26:22|01:34:09|dcc-youlab-gpu-38|1|10|96G||/hpc/group/ldefratelab/Patrick/Cartilage_ML_3D|
pb183|COMPLETED|scavenger-gpu|2023-06-05T23:47:33|2023-06-06T01:20:55|01:33:22|dcc-youlab-gpu-36|1|10|96G||/hpc/group/ldefratelab/Patrick/Cartilage_ML_3D|
pb183|COMPLETED|scavenger-gpu|2023-06-06T00:26:49|2023-06-06T01:23:28|00:56:39|dcc-youlab-gpu-38|1|10|96G||/hpc/group/ldefratelab/Patrick/Cartilage_ML_3D|
pb183|COMPLETED|scavenger-gpu|2023-06-06T01:20:55|2023-06-07T13:15:44|1-11:54:49|dcc-youlab-gpu-36|1|10|96G||/hpc/group/ldefratelab/Patrick/Cartilage_ML_3D|
pb183|COMPLETED|scavenger-gpu|2023-06-06T01:23:28|2023-06-08T09:11:43|2-07:48:15|dcc-youlab-gpu-38|1|10|96G||/hpc/group/ldefratelab/Patrick/Cartilage_ML_3D|
pb183|COMPLETED|scavenger-gpu|2023-06-06T04:29:02|2023-06-07T15:50:50|1-11:21:48|dcc-youlab-gpu-37|1|10|96G||/hpc/group/ldefratelab/Patrick/Cartilage_ML_3D|
pb183|FAILED|scavenger-gpu|2023-06-06T05:11:58|2023-06-06T05:13:41|00:01:43|dcc-youlab-gpu-33|1|10|96G||/hpc/group/ldefratelab/Patrick/Cartilage_ML_3D|
pb183|COMPLETED|scavenger-gpu|2023-06-06T05:13:41|2023-06-06T06:10:34|00:56:53|dcc-youlab-gpu-33|1|10|96G||/hpc/group/ldefratelab/Patrick/Cartilage_ML_3D|
pb183|COMPLETED|scavenger-gpu|2023-06-06T05:29:02|2023-06-06T06:29:47|01:00:45|dcc-youlab-gpu-53|1|10|96G||/hpc/group/ldefratelab/Patrick/Cartilage_ML_3D|
pb183|COMPLETED|scavenger-gpu|2023-06-06T06:10:35|2023-06-06T07:10:28|00:59:53|dcc-youlab-gpu-33|1|10|96G||/hpc/group/ldefratelab/Patrick/Cartilage_ML_3D|
pb183|FAILED|scavenger-gpu|2023-06-06T06:29:47|2023-06-06T06:31:23|00:01:36|dcc-youlab-gpu-53|1|10|96G||/hpc/group/ldefratelab/Patrick/Cartilage_ML_3D|
pb183|COMPLETED|scavenger-gpu|2023-06-06T06:31:23|2023-06-07T06:45:57|1-00:14:34|dcc-youlab-gpu-53|1|10|96G||/hpc/group/ldefratelab/Patrick/Cartilage_ML_3D|
pb183|COMPLETED|scavenger-gpu|2023-06-06T07:10:28|2023-06-07T10:06:37|1-02:56:09|dcc-youlab-gpu-33|1|10|96G||/hpc/group/ldefratelab/Patrick/Cartilage_ML_3D|
pb183|COMPLETED|scavenger-gpu|2023-06-06T09:42:27|2023-06-08T06:15:23|1-20:32:56|dcc-ultrasound-gpu-02|1|19|96G||/hpc/group/ldefratelab/Patrick/Cartilage_ML_3D|
pb183|FAILED|scavenger-gpu|2023-06-06T15:15:24|2023-06-06T15:16:47|00:01:23|dcc-youlab-gpu-40|1|10|96G||/hpc/group/ldefratelab/Patrick/Cartilage_ML_3D|
pb183|COMPLETED|scavenger-gpu|2023-06-06T15:16:49|2023-06-06T17:24:38|02:07:49|dcc-youlab-gpu-40|1|10|96G||/hpc/group/ldefratelab/Patrick/Cartilage_ML_3D|
pb183|COMPLETED|scavenger-gpu|2023-06-06T17:24:38|2023-06-06T19:37:14|02:12:36|dcc-youlab-gpu-40|1|10|96G||/hpc/group/ldefratelab/Patrick/Cartilage_ML_3D|
pb183|COMPLETED|scavenger-gpu|2023-06-06T17:36:57|2023-06-06T19:51:49|02:14:52|dcc-youlab-gpu-55|1|10|96G||/hpc/group/ldefratelab/Patrick/Cartilage_ML_3D|
pb183|FAILED|scavenger-gpu|2023-06-06T17:44:55|2023-06-06T17:46:35|00:01:40|dcc-youlab-gpu-41|1|10|96G||/hpc/group/ldefratelab/Patrick/Cartilage_ML_3D|
pb183|COMPLETED|scavenger-gpu|2023-06-06T17:46:35|2023-06-06T19:58:17|02:11:42|dcc-youlab-gpu-41|1|10|96G||/hpc/group/ldefratelab/Patrick/Cartilage_ML_3D|
pb183|COMPLETED|scavenger-gpu|2023-06-06T19:37:14|2023-06-06T21:51:18|02:14:04|dcc-youlab-gpu-40|1|10|96G||/hpc/group/ldefratelab/Patrick/Cartilage_ML_3D|
pb183|COMPLETED|scavenger-gpu|2023-06-06T19:51:49|2023-06-06T22:08:05|02:16:16|dcc-youlab-gpu-55|1|10|96G||/hpc/group/ldefratelab/Patrick/Cartilage_ML_3D|
pb183|FAILED|scavenger-gpu|2023-06-06T19:58:18|2023-06-06T19:59:39|00:01:21|dcc-youlab-gpu-41|1|10|96G||/hpc/group/ldefratelab/Patrick/Cartilage_ML_3D|
pb183|COMPLETED|scavenger-gpu|2023-06-06T19:59:39|2023-06-06T21:48:46|01:49:07|dcc-youlab-gpu-41|1|10|96G||/hpc/group/ldefratelab/Patrick/Cartilage_ML_3D|
pb183|FAILED|scavenger-gpu|2023-06-06T21:07:43|2023-06-06T21:10:07|00:02:24|dcc-youlab-gpu-35|1|10|96G||/hpc/group/ldefratelab/Patrick/Cartilage_ML_3D|
pb183|COMPLETED|scavenger-gpu|2023-06-06T21:10:07|2023-06-06T22:54:27|01:44:20|dcc-youlab-gpu-35|1|10|96G||/hpc/group/ldefratelab/Patrick/Cartilage_ML_3D|
pb183|FAILED|scavenger-gpu|2023-06-06T21:42:04|2023-06-06T21:43:29|00:01:25|dcc-youlab-gpu-34|1|10|96G||/hpc/group/ldefratelab/Patrick/Cartilage_ML_3D|
pb183|COMPLETED|scavenger-gpu|2023-06-06T21:43:30|2023-06-06T23:38:56|01:55:26|dcc-youlab-gpu-34|1|10|96G||/hpc/group/ldefratelab/Patrick/Cartilage_ML_3D|
pb183|FAILED|scavenger-gpu|2023-06-06T21:48:47|2023-06-06T21:50:58|00:02:11|dcc-youlab-gpu-41|1|10|96G||/hpc/group/ldefratelab/Patrick/Cartilage_ML_3D|
pb183|COMPLETED|scavenger-gpu|2023-06-06T21:51:00|2023-06-08T11:44:13|1-13:53:13|dcc-youlab-gpu-41|1|10|96G||/hpc/group/ldefratelab/Patrick/Cartilage_ML_3D|
pb183|FAILED|scavenger-gpu|2023-06-06T21:51:18|2023-06-06T21:52:51|00:01:33|dcc-youlab-gpu-40|1|10|96G||/hpc/group/ldefratelab/Patrick/Cartilage_ML_3D|
pb183|COMPLETED|scavenger-gpu|2023-06-06T21:52:51|2023-06-07T02:24:42|04:31:51|dcc-youlab-gpu-40|1|10|96G||/hpc/group/ldefratelab/Patrick/Cartilage_ML_3D|
pb183|FAILED|scavenger-gpu|2023-06-06T22:08:05|2023-06-06T22:12:34|00:04:29|dcc-ultrasound-gpu-01|1|19|96G||/hpc/group/ldefratelab/Patrick/Cartilage_ML_3D|
pb183|COMPLETED|scavenger-gpu|2023-06-06T22:12:34|2023-06-07T02:29:53|04:17:19|dcc-youlab-gpu-55|1|10|96G||/hpc/group/ldefratelab/Patrick/Cartilage_ML_3D|
pb183|FAILED|scavenger-gpu|2023-06-06T22:54:27|2023-06-06T22:56:15|00:01:48|dcc-youlab-gpu-35|1|10|96G||/hpc/group/ldefratelab/Patrick/Cartilage_ML_3D|
pb183|COMPLETED|scavenger-gpu|2023-06-06T22:56:15|2023-06-09T02:11:05|2-03:14:50|dcc-youlab-gpu-35|1|10|96G||/hpc/group/ldefratelab/Patrick/Cartilage_ML_3D|
pb183|FAILED|scavenger-gpu|2023-06-06T23:38:57|2023-06-06T23:44:01|00:05:04|dcc-youlab-gpu-34|1|10|96G||/hpc/group/ldefratelab/Patrick/Cartilage_ML_3D|
pb183|COMPLETED|scavenger-gpu|2023-06-06T23:44:02|2023-06-07T04:19:52|04:35:50|dcc-youlab-gpu-34|1|10|96G||/hpc/group/ldefratelab/Patrick/Cartilage_ML_3D|
vk93|TIMEOUT|scavenger-gpu|2023-05-31T22:34:58|2023-06-07T22:35:23|7-00:00:25|dcc-dsplus-gpu-02|1|40|350109M||/hpc/home/vk93/ondemand/data/sys/dashboard/batch_connect/sys/bc_jupyter/output/8ef6e1c5-29a3-4b2f-9caf-67c9017f6f0a|
rd254|COMPLETED|scavenger-gpu|2023-06-01T00:25:10|2023-06-06T06:08:09|5-05:42:59|dcc-chsi-gpu-05|1|6|12G||/work/rd254/ADP_monomer|
yw564|TIMEOUT|scavenger-gpu|2023-06-03T03:27:20|2023-06-10T03:27:20|7-00:00:00|dcc-youlab-gpu-01|1|2|50G||/hpc/group/jilab|
yw564|TIMEOUT|scavenger-gpu|2023-06-03T14:43:42|2023-06-10T14:43:47|7-00:00:05|dcc-youlab-gpu-01|1|2|50G||/hpc/group/jilab|
vk93|PREEMPTED|scavenger-gpu|2023-06-03T21:47:33|2023-06-06T12:07:23|2-14:19:50|dcc-youlab-gpu-01|1|40|350109M||/hpc/home/vk93/ondemand/data/sys/dashboard/batch_connect/sys/bc_jupyter/output/ba078d78-973d-4dcf-a8d1-ae22745f5c83|
yk206|COMPLETED|scavenger-gpu|2023-06-04T10:37:35|2023-06-06T06:53:03|1-20:15:28|dcc-allenlab-gpu-04|1|10|24G||/hpc/home/yk206/script/face_download|
cem125|COMPLETED|scavenger-gpu|2023-06-04T14:20:25|2023-06-10T22:27:31|6-08:07:06|dcc-youlab-gpu-07|1|10|50G||/hpc/group/rekerlab/cem125/OpenNMT-py|
yk206|COMPLETED|scavenger-gpu|2023-06-05T00:43:34|2023-06-06T04:05:58|1-03:22:24|dcc-carlsonlab-gpu-19|1|10|24G||/hpc/home/yk206/script/face_download|
jrl78|FAILED|scavenger-gpu|2023-06-04T23:07:59|2023-06-06T22:56:53|1-23:48:54|dcc-dsplus-gpu-09|1|19|2G||/work/jrl78/Nanoparticles/JawBreakers/Different Partial Charges/EEM Full Library/round3_pKaStuff|
yk206|OUT_OF_MEMORY|scavenger-gpu|2023-06-05T04:50:30|2023-06-06T07:39:34|1-02:49:04|dcc-vossenlab-gpu-02|1|10|24G||/hpc/home/yk206/script/face_download|
yk206|OUT_OF_MEMORY|scavenger-gpu|2023-06-05T05:31:39|2023-06-06T02:29:57|20:58:18|dcc-youlab-gpu-13|1|10|24G||/hpc/home/yk206/script/face_download|
bgb13|FAILED|scavenger-gpu|2023-06-05T09:11:20|2023-06-08T11:31:17|3-02:19:57|dcc-dsplus-gpu-10|1|16|10G||/hpc/group/dukenmr/bgb13/cyp51b_phosphorylated_S123/./.|
cem125|TIMEOUT|scavenger-gpu|2023-06-05T10:13:16|2023-06-12T10:13:24|7-00:00:08|dcc-youlab-gpu-32|1|10|50G||/hpc/group/rekerlab/cem125/OpenNMT-py|
jrl78|COMPLETED|scavenger-gpu|2023-06-05T10:13:20|2023-06-06T06:34:53|20:21:33|dcc-youlab-gpu-30|1|10|2G||/work/jrl78/Nanoparticles/JawBreakers/Different Partial Charges/EEM Full Library/round3_pKaStuff|
jrl78|COMPLETED|scavenger-gpu|2023-06-05T10:13:22|2023-06-06T06:10:25|19:57:03|dcc-youlab-gpu-29|1|10|2G||/work/jrl78/Nanoparticles/JawBreakers/Different Partial Charges/EEM Full Library/round3_pKaStuff|
jrl78|COMPLETED|scavenger-gpu|2023-06-05T10:13:23|2023-06-06T06:13:46|20:00:23|dcc-youlab-gpu-15|1|10|2G||/work/jrl78/Nanoparticles/JawBreakers/Different Partial Charges/EEM Full Library/round3_pKaStuff|
jrl78|COMPLETED|scavenger-gpu|2023-06-05T10:13:26|2023-06-06T07:28:33|21:15:07|dcc-youlab-gpu-14|1|10|2G||/work/jrl78/Nanoparticles/JawBreakers/Different Partial Charges/EEM Full Library/round3_pKaStuff|
jrl78|COMPLETED|scavenger-gpu|2023-06-05T10:13:26|2023-06-06T07:14:17|21:00:51|dcc-youlab-gpu-04|1|10|2G||/work/jrl78/Nanoparticles/JawBreakers/Different Partial Charges/EEM Full Library/round3_pKaStuff|
jrl78|FAILED|scavenger-gpu|2023-06-05T10:13:26|2023-06-07T01:59:52|1-15:46:26|dcc-dsplus-gpu-06|1|19|2G||/work/jrl78/Nanoparticles/JawBreakers/Different Partial Charges/EEM Full Library/round3_pKaStuff|
jrl78|FAILED|scavenger-gpu|2023-06-05T10:13:26|2023-06-07T02:10:08|1-15:56:42|dcc-dsplus-gpu-05|1|19|2G||/work/jrl78/Nanoparticles/JawBreakers/Different Partial Charges/EEM Full Library/round3_pKaStuff|
jrl78|COMPLETED|scavenger-gpu|2023-06-05T10:13:28|2023-06-06T10:37:32|1-00:24:04|dcc-chsi-gpu-08|1|6|2G||/work/jrl78/Nanoparticles/JawBreakers/Different Partial Charges/EEM Full Library/round3_pKaStuff|
bgb13|TIMEOUT|scavenger-gpu|2023-06-05T10:13:30|2023-06-12T10:13:55|7-00:00:25|dcc-carlsonlab-gpu-16|1|16|10G||/hpc/group/dukenmr/bgb13/AAV12/./.|
bgb13|PREEMPTED|scavenger-gpu|2023-06-05T11:19:26|2023-06-06T11:23:52|1-00:04:26|dcc-gehmlab-gpu-50|1|16|10G||/hpc/group/dukenmr/bgb13/cyp51b_phosphorylated_S451/./.|
yk206|PREEMPTED|scavenger-gpu|2023-06-05T11:46:53|2023-06-06T09:54:51|22:07:58|dcc-allenlab-gpu-01|1|10|24G||/hpc/home/yk206/script/face_download|
pb183|COMPLETED|scavenger-gpu|2023-06-07T01:34:10|2023-06-08T01:44:11|1-00:10:01|dcc-youlab-gpu-43|1|10|96G||/hpc/group/ldefratelab/Patrick/Cartilage_ML_3D|
pb183|COMPLETED|scavenger-gpu|2023-06-07T02:25:03|2023-06-07T11:07:37|08:42:34|dcc-youlab-gpu-40|1|10|96G||/hpc/group/ldefratelab/Patrick/Cartilage_ML_3D|
pb183|COMPLETED|scavenger-gpu|2023-06-07T04:20:12|2023-06-08T00:05:57|19:45:45|dcc-youlab-gpu-34|1|10|96G||/hpc/group/ldefratelab/Patrick/Cartilage_ML_3D|
yk206|COMPLETED|scavenger-gpu|2023-06-05T13:55:55|2023-06-06T12:54:08|22:58:13|dcc-carlsonlab-gpu-17|1|10|24G||/hpc/home/yk206/script/face_download|
sl498|TIMEOUT|scavenger-gpu|2023-06-05T15:50:17|2023-06-05T23:50:44|08:00:27|dcc-ultrasound-gpu-01|1|10|125G||/hpc/group/tdunn/st3dio_dev2|
minhe|PREEMPTED|scavenger-gpu|2023-06-05T16:41:47|2023-06-12T13:09:02|6-20:27:15|dcc-ultrasound-gpu-03|1|19|150692M||/work/minhe/alphafold|
yx240|CANCELLED by 1495323|scavenger-gpu|2023-06-05T18:38:42|2023-06-05T23:11:50|04:33:08|dcc-youlab-gpu-09|1|10|2G||/work/yx240/project-martini/simutools/metad|
zq43|COMPLETED|scavenger-gpu|2023-06-05T19:30:56|2023-06-06T03:22:00|07:51:04|dcc-chsi-gpu-02|1|6|2G||/hpc/group/renlab/zhuobiao/MC_kV_for_zhuobiao|
zq43|COMPLETED|scavenger-gpu|2023-06-05T19:31:00|2023-06-06T03:06:49|07:35:49|dcc-chsi-gpu-03|1|6|2G||/hpc/group/renlab/zhuobiao/MC_kV_for_zhuobiao|
zq43|COMPLETED|scavenger-gpu|2023-06-05T19:31:03|2023-06-06T03:09:00|07:37:57|dcc-chsi-gpu-04|1|6|2G||/hpc/group/renlab/zhuobiao/MC_kV_for_zhuobiao|
zq43|COMPLETED|scavenger-gpu|2023-06-05T19:31:15|2023-06-06T03:11:41|07:40:26|dcc-carlsonlab-gpu-05|1|21|2G||/hpc/group/renlab/zhuobiao/MC_kV_for_zhuobiao|
zq43|COMPLETED|scavenger-gpu|2023-06-05T19:31:19|2023-06-06T03:24:30|07:53:11|dcc-chsi-gpu-06|1|6|2G||/hpc/group/renlab/zhuobiao/MC_kV_for_zhuobiao|
zq43|COMPLETED|scavenger-gpu|2023-06-05T19:31:23|2023-06-06T03:29:03|07:57:40|dcc-chsi-gpu-07|1|6|2G||/hpc/group/renlab/zhuobiao/MC_kV_for_zhuobiao|
zq43|COMPLETED|scavenger-gpu|2023-06-05T19:31:30|2023-06-06T03:14:31|07:43:01|dcc-carlsonlab-gpu-06|1|21|2G||/hpc/group/renlab/zhuobiao/MC_kV_for_zhuobiao|
zq43|COMPLETED|scavenger-gpu|2023-06-05T19:31:34|2023-06-06T03:22:49|07:51:15|dcc-carlsonlab-gpu-14|1|21|2G||/hpc/group/renlab/zhuobiao/MC_kV_for_zhuobiao|
pm231|TIMEOUT|scavenger-gpu|2023-06-05T20:59:59|2023-06-06T05:00:05|08:00:06|dcc-allenlab-gpu-02|1|10|60000M||/hpc/group/tdunn/TBI/WACV1|
yk206|COMPLETED|scavenger-gpu|2023-06-05T22:14:03|2023-06-06T17:03:24|18:49:21|dcc-carlsonlab-gpu-20|1|10|24G||/hpc/home/yk206/script/face_download|
yk206|OUT_OF_MEMORY|scavenger-gpu|2023-06-05T22:14:03|2023-06-06T05:14:34|07:00:31|dcc-vossenlab-gpu-01|1|10|24G||/hpc/home/yk206/script/face_download|
yk206|PREEMPTED|scavenger-gpu|2023-06-05T22:14:03|2023-06-06T08:44:09|10:30:06|dcc-vossenlab-gpu-03|1|10|24G||/hpc/home/yk206/script/face_download|
yk206|OUT_OF_MEMORY|scavenger-gpu|2023-06-05T22:14:03|2023-06-07T00:09:23|1-01:55:20|dcc-youlab-gpu-05|1|10|24G||/hpc/home/yk206/script/face_download|
yk206|COMPLETED|scavenger-gpu|2023-06-05T22:14:03|2023-06-06T10:19:21|12:05:18|dcc-youlab-gpu-11|1|10|24G||/hpc/home/yk206/script/face_download|
yk206|COMPLETED|scavenger-gpu|2023-06-05T22:14:05|2023-06-06T06:02:05|07:48:00|dcc-youlab-gpu-18|1|10|24G||/hpc/home/yk206/script/face_download|
yk206|COMPLETED|scavenger-gpu|2023-06-05T22:14:05|2023-06-06T06:51:50|08:37:45|dcc-youlab-gpu-28|1|10|24G||/hpc/home/yk206/script/face_download|
yk206|COMPLETED|scavenger-gpu|2023-06-05T22:14:05|2023-06-06T21:57:23|23:43:18|dcc-pbenfeylab-gpu-02|1|10|24G||/hpc/home/yk206/script/face_download|
yk206|COMPLETED|scavenger-gpu|2023-06-05T22:14:05|2023-06-06T17:16:36|19:02:31|dcc-pbenfeylab-gpu-03|1|10|24G||/hpc/home/yk206/script/face_download|
yk206|COMPLETED|scavenger-gpu|2023-06-05T22:14:05|2023-06-06T09:33:53|11:19:48|dcc-youlab-gpu-02|1|10|24G||/hpc/home/yk206/script/face_download|
yk206|OUT_OF_MEMORY|scavenger-gpu|2023-06-05T22:14:05|2023-06-06T08:04:06|09:50:01|dcc-youlab-gpu-03|1|10|24G||/hpc/home/yk206/script/face_download|
yk206|COMPLETED|scavenger-gpu|2023-06-05T22:14:05|2023-06-06T07:25:26|09:11:21|dcc-youlab-gpu-23|1|10|24G||/hpc/home/yk206/script/face_download|
yk206|COMPLETED|scavenger-gpu|2023-06-05T22:14:05|2023-06-06T11:09:01|12:54:56|dcc-youlab-gpu-24|1|10|24G||/hpc/home/yk206/script/face_download|
yk206|OUT_OF_MEMORY|scavenger-gpu|2023-06-05T22:14:05|2023-06-06T09:14:44|11:00:39|dcc-biostat-gpu-01|1|22|24G||/hpc/home/yk206/script/face_download|
yk206|OUT_OF_MEMORY|scavenger-gpu|2023-06-05T22:14:05|2023-06-06T19:57:30|21:43:25|dcc-biostat-gpu-02|1|22|24G||/hpc/home/yk206/script/face_download|
yk206|OUT_OF_MEMORY|scavenger-gpu|2023-06-05T22:14:05|2023-06-06T16:01:09|17:47:04|dcc-mastatlab-gpu-01|1|44|24G||/hpc/home/yk206/script/face_download|
yk206|COMPLETED|scavenger-gpu|2023-06-05T22:14:05|2023-06-06T09:34:27|11:20:22|dcc-viplab-gpu-01|1|92|24G||/hpc/home/yk206/script/face_download|
yk206|COMPLETED|scavenger-gpu|2023-06-05T22:14:05|2023-06-06T07:48:52|09:34:47|dcc-fanglab-gpu-01|1|100|24G||/hpc/home/yk206/script/face_download|
yk206|OUT_OF_MEMORY|scavenger-gpu|2023-06-05T22:14:46|2023-06-06T10:29:13|12:14:27|dcc-youlab-gpu-27|1|10|24G||/hpc/home/yk206/script/face_download|
yk206|OUT_OF_MEMORY|scavenger-gpu|2023-06-05T22:15:11|2023-06-06T06:10:10|07:54:59|dcc-youlab-gpu-21|1|10|24G||/hpc/home/yk206/script/face_download|
pm231|TIMEOUT|scavenger-gpu|2023-06-05T22:16:32|2023-06-06T06:16:35|08:00:03|dcc-pbenfeylab-gpu-01|1|10|60000M||/hpc/group/tdunn/TBI/WACV1|
lyc15|TIMEOUT|scavenger-gpu|2023-06-05T22:49:38|2023-06-05T23:49:44|01:00:06|dcc-carlsonlab-gpu-18|1|8|24G||/hpc/home/lyc15/ondemand/data/sys/dashboard/batch_connect/sys/bc_jupyter_codeplus2023/output/e50f1065-915d-45f5-9282-ad47a64889fd|
yx240|COMPLETED|scavenger-gpu|2023-06-05T23:13:06|2023-06-07T23:20:32|2-00:07:26|dcc-youlab-gpu-31|1|10|2G||/work/yx240/project-martini/simutools/scripts|
yx240|COMPLETED|scavenger-gpu|2023-06-05T23:13:06|2023-06-07T21:43:09|1-22:30:03|dcc-youlab-gpu-19|1|10|2G||/work/yx240/project-martini/simutools/scripts|
yx240|COMPLETED|scavenger-gpu|2023-06-05T23:13:06|2023-06-07T20:52:41|1-21:39:35|dcc-youlab-gpu-12|1|10|2G||/work/yx240/project-martini/simutools/scripts|
yx240|COMPLETED|scavenger-gpu|2023-06-05T23:13:06|2023-06-08T10:09:37|2-10:56:31|dcc-youlab-gpu-10|1|10|2G||/work/yx240/project-martini/simutools/scripts|
yx240|COMPLETED|scavenger-gpu|2023-06-05T23:13:06|2023-06-08T08:43:08|2-09:30:02|dcc-youlab-gpu-09|1|10|2G||/work/yx240/project-martini/simutools/scripts|
yx240|COMPLETED|scavenger-gpu|2023-06-05T23:15:39|2023-06-06T20:12:51|20:57:12|dcc-youlab-gpu-08|1|10|2G||/work/yx240/project-martini/simutools/metad|
yx240|COMPLETED|scavenger-gpu|2023-06-05T23:15:39|2023-06-06T17:43:29|18:27:50|dcc-rekerlab-gpu-01|1|8|2G||/work/yx240/project-martini/simutools/metad|
yx240|COMPLETED|scavenger-gpu|2023-06-05T23:15:39|2023-06-06T19:08:21|19:52:42|dcc-motesa-gpu-04|1|6|2G||/work/yx240/project-martini/simutools/metad|
yx240|PREEMPTED|scavenger-gpu|2023-06-05T23:15:39|2023-06-06T11:23:54|12:08:15|dcc-gehmlab-gpu-58|1|19|2G||/work/yx240/project-martini/simutools/metad|
yx240|PREEMPTED|scavenger-gpu|2023-06-05T23:15:39|2023-06-06T11:23:58|12:08:19|dcc-gehmlab-gpu-57|1|19|2G||/work/yx240/project-martini/simutools/metad|
yx240|PREEMPTED|scavenger-gpu|2023-06-05T23:15:39|2023-06-06T11:24:00|12:08:21|dcc-gehmlab-gpu-56|1|19|2G||/work/yx240/project-martini/simutools/metad|
yx240|PREEMPTED|scavenger-gpu|2023-06-05T23:15:41|2023-06-06T11:24:03|12:08:22|dcc-gehmlab-gpu-54|1|19|2G||/work/yx240/project-martini/simutools/metad|
yx240|PREEMPTED|scavenger-gpu|2023-06-05T23:15:42|2023-06-06T11:24:05|12:08:23|dcc-gehmlab-gpu-53|1|19|2G||/work/yx240/project-martini/simutools/metad|
yx240|PREEMPTED|scavenger-gpu|2023-06-05T23:15:42|2023-06-06T11:24:07|12:08:25|dcc-gehmlab-gpu-52|1|19|2G||/work/yx240/project-martini/simutools/metad|
yx240|PREEMPTED|scavenger-gpu|2023-06-05T23:15:42|2023-06-06T11:24:09|12:08:27|dcc-gehmlab-gpu-51|1|19|2G||/work/yx240/project-martini/simutools/metad|
jx132|FAILED|scavenger-gpu|2023-06-05T23:34:04|2023-06-06T06:17:10|06:43:06|dcc-ultrasound-gpu-02|1|10|60000M||/hpc/group/tdunn/jx132|
