vk93|TIMEOUT|scavenger-gpu|2023-05-15T16:11:33|2023-05-22T16:11:51|7-00:00:18|dcc-dsplus-gpu-02|1|40|350109M||/hpc/home/vk93/ondemand/data/sys/dashboard/batch_connect/sys/bc_jupyter/output/23d4d6a9-4d03-429b-b1e0-2247cea267b4|
lh342|TIMEOUT|scavenger-gpu|2023-05-16T16:11:07|2023-05-23T16:11:07|7-00:00:00|dcc-motesa-gpu-02|1|6|16G||/hpc/home/lh342/MMVAE|
bgb13|FAILED|scavenger-gpu|2023-05-17T14:02:45|2023-05-23T06:01:01|5-15:58:16|dcc-ultrasound-gpu-04|1|16|10G||/hpc/group/dukenmr/bgb13/cyp51b_phosphorylated_S123/./.|
ym208|CANCELLED by 1517022|scavenger-gpu|2023-05-18T14:38:33|2023-05-21T14:55:32|3-00:16:59|dcc-vossenlab-gpu-02|1|1|2G||/hpc/group/bartesaghilab|
yw564|PREEMPTED|scavenger-gpu|2023-05-18T17:41:10|2023-05-21T23:54:52|3-06:13:42|dcc-viplab-gpu-01|1|2|50G||/hpc/group/jilab/yw564/GeneSegNet|
kw297|CANCELLED by 1215097|scavenger-gpu|2023-05-19T17:26:16|2023-05-22T14:46:00|2-21:19:44|dcc-allenlab-gpu-01|1|4|20G||/hpc/group/ychenlab/DA|
cem125|COMPLETED|scavenger-gpu|2023-05-20T11:21:25|2023-05-21T20:36:25|1-09:15:00|dcc-youlab-gpu-42|1|10|50G||/hpc/group/rekerlab/cem125/OpenNMT-py|
jrl78|FAILED|scavenger-gpu|2023-05-20T11:22:20|2023-05-21T04:38:56|17:16:36|dcc-youlab-gpu-34|1|10|4G||/work/jrl78/Nanoparticles/JawBreakers/Different Partial Charges/EEM Full Library|
cem125|COMPLETED|scavenger-gpu|2023-05-20T11:22:20|2023-05-21T17:06:45|1-05:44:25|dcc-youlab-gpu-38|1|10|50G||/hpc/group/rekerlab/cem125/OpenNMT-py|
cem125|COMPLETED|scavenger-gpu|2023-05-20T11:22:20|2023-05-22T18:52:24|2-07:30:04|dcc-youlab-gpu-37|1|10|50G||/hpc/group/rekerlab/cem125/OpenNMT-py|
cem125|COMPLETED|scavenger-gpu|2023-05-20T11:22:20|2023-05-22T18:30:48|2-07:08:28|dcc-youlab-gpu-36|1|10|50G||/hpc/group/rekerlab/cem125/OpenNMT-py|
cem125|COMPLETED|scavenger-gpu|2023-05-20T11:22:20|2023-05-23T00:07:23|2-12:45:03|dcc-youlab-gpu-35|1|10|50G||/hpc/group/rekerlab/cem125/OpenNMT-py|
yx240|COMPLETED|scavenger-gpu|2023-05-20T11:30:55|2023-05-23T16:20:20|3-04:49:25|dcc-youlab-gpu-41|1|10|2G||/work/yx240/project-martini/new/simutools/scripts|
yx240|COMPLETED|scavenger-gpu|2023-05-20T11:30:56|2023-05-21T05:28:53|17:57:57|dcc-youlab-gpu-19|1|10|2G||/work/yx240/project-martini/new/simutools/scripts|
yx240|COMPLETED|scavenger-gpu|2023-05-20T11:30:56|2023-05-22T08:21:37|1-20:50:41|dcc-youlab-gpu-18|1|10|2G||/work/yx240/project-martini/new/simutools/scripts|
yx240|COMPLETED|scavenger-gpu|2023-05-20T11:30:56|2023-05-21T11:40:54|1-00:09:58|dcc-youlab-gpu-15|1|10|2G||/work/yx240/project-martini/new/simutools/scripts|
jrl78|FAILED|scavenger-gpu|2023-05-20T18:52:37|2023-05-21T17:08:35|22:15:58|dcc-youlab-gpu-44|1|10|4G||/work/jrl78/Nanoparticles/JawBreakers/Different Partial Charges/EEM Full Library|
jrl78|COMPLETED|scavenger-gpu|2023-05-20T18:52:37|2023-05-21T13:34:49|18:42:12|dcc-youlab-gpu-33|1|10|4G||/work/jrl78/Nanoparticles/JawBreakers/Different Partial Charges/EEM Full Library|
jrl78|COMPLETED|scavenger-gpu|2023-05-20T18:52:37|2023-05-21T13:01:09|18:08:32|dcc-youlab-gpu-29|1|10|4G||/work/jrl78/Nanoparticles/JawBreakers/Different Partial Charges/EEM Full Library|
jrl78|COMPLETED|scavenger-gpu|2023-05-20T18:52:37|2023-05-21T06:09:39|11:17:02|dcc-youlab-gpu-28|1|10|4G||/work/jrl78/Nanoparticles/JawBreakers/Different Partial Charges/EEM Full Library|
jrl78|COMPLETED|scavenger-gpu|2023-05-20T18:52:39|2023-05-21T09:39:05|14:46:26|dcc-youlab-gpu-27|1|10|4G||/work/jrl78/Nanoparticles/JawBreakers/Different Partial Charges/EEM Full Library|
jrl78|COMPLETED|scavenger-gpu|2023-05-20T18:52:39|2023-05-21T11:35:21|16:42:42|dcc-youlab-gpu-04|1|10|4G||/work/jrl78/Nanoparticles/JawBreakers/Different Partial Charges/EEM Full Library|
jrl78|FAILED|scavenger-gpu|2023-05-20T18:52:39|2023-05-21T04:38:53|09:46:14|dcc-youlab-gpu-02|1|10|4G||/work/jrl78/Nanoparticles/JawBreakers/Different Partial Charges/EEM Full Library|
jrl78|COMPLETED|scavenger-gpu|2023-05-20T18:52:39|2023-05-21T10:59:47|16:07:08|dcc-youlab-gpu-01|1|44|4G||/work/jrl78/Nanoparticles/JawBreakers/Different Partial Charges/EEM Full Library|
jrl78|COMPLETED|scavenger-gpu|2023-05-20T18:52:39|2023-05-21T09:18:26|14:25:47|dcc-vossenlab-gpu-04|1|10|4G||/work/jrl78/Nanoparticles/JawBreakers/Different Partial Charges/EEM Full Library|
jrl78|COMPLETED|scavenger-gpu|2023-05-20T18:52:39|2023-05-21T13:11:40|18:19:01|dcc-vossenlab-gpu-01|1|10|4G||/work/jrl78/Nanoparticles/JawBreakers/Different Partial Charges/EEM Full Library|
jrl78|COMPLETED|scavenger-gpu|2023-05-20T18:53:17|2023-05-21T09:20:53|14:27:36|dcc-youlab-gpu-11|1|10|4G||/work/jrl78/Nanoparticles/JawBreakers/Different Partial Charges/EEM Full Library|
jrl78|COMPLETED|scavenger-gpu|2023-05-20T19:07:46|2023-05-21T12:31:25|17:23:39|dcc-youlab-gpu-32|1|10|4G||/work/jrl78/Nanoparticles/JawBreakers/Different Partial Charges/EEM Full Library|
jrl78|COMPLETED|scavenger-gpu|2023-05-20T19:13:39|2023-05-21T14:17:27|19:03:48|dcc-youlab-gpu-24|1|10|4G||/work/jrl78/Nanoparticles/JawBreakers/Different Partial Charges/EEM Full Library|
jrl78|COMPLETED|scavenger-gpu|2023-05-20T21:24:12|2023-05-21T10:50:46|13:26:34|dcc-motesa-gpu-04|1|6|4G||/work/jrl78/Nanoparticles/JawBreakers/Different Partial Charges/EEM Full Library|
jrl78|COMPLETED|scavenger-gpu|2023-05-21T00:14:11|2023-05-21T16:21:15|16:07:04|dcc-youlab-gpu-31|1|10|4G||/work/jrl78/Nanoparticles/JawBreakers/Different Partial Charges/EEM Full Library|
jrl78|COMPLETED|scavenger-gpu|2023-05-21T02:52:59|2023-05-21T16:57:44|14:04:45|dcc-youlab-gpu-53|1|10|4G||/work/jrl78/Nanoparticles/JawBreakers/Different Partial Charges/EEM Full Library|
jrl78|COMPLETED|scavenger-gpu|2023-05-21T04:39:05|2023-05-21T21:15:27|16:36:22|dcc-youlab-gpu-34|1|10|4G||/work/jrl78/Nanoparticles/JawBreakers/Different Partial Charges/EEM Full Library|
jrl78|COMPLETED|scavenger-gpu|2023-05-21T04:39:05|2023-05-21T22:06:20|17:27:15|dcc-youlab-gpu-02|1|10|4G||/work/jrl78/Nanoparticles/JawBreakers/Different Partial Charges/EEM Full Library|
jrl78|COMPLETED|scavenger-gpu|2023-05-21T06:10:07|2023-05-21T20:06:31|13:56:24|dcc-youlab-gpu-28|1|10|4G||/work/jrl78/Nanoparticles/JawBreakers/Different Partial Charges/EEM Full Library|
jrl78|COMPLETED|scavenger-gpu|2023-05-21T09:18:50|2023-05-21T23:30:30|14:11:40|dcc-youlab-gpu-23|1|10|4G||/work/jrl78/Nanoparticles/JawBreakers/Different Partial Charges/EEM Full Library|
jrl78|COMPLETED|scavenger-gpu|2023-05-21T09:21:08|2023-05-22T03:00:59|17:39:51|dcc-youlab-gpu-21|1|10|4G||/work/jrl78/Nanoparticles/JawBreakers/Different Partial Charges/EEM Full Library|
jrl78|COMPLETED|scavenger-gpu|2023-05-21T09:39:22|2023-05-22T02:54:35|17:15:13|dcc-youlab-gpu-27|1|10|4G||/work/jrl78/Nanoparticles/JawBreakers/Different Partial Charges/EEM Full Library|
jrl78|COMPLETED|scavenger-gpu|2023-05-21T10:59:53|2023-05-22T03:45:41|16:45:48|dcc-youlab-gpu-40|1|10|4G||/work/jrl78/Nanoparticles/JawBreakers/Different Partial Charges/EEM Full Library|
jrl78|COMPLETED|scavenger-gpu|2023-05-21T10:59:53|2023-05-22T04:35:34|17:35:41|dcc-youlab-gpu-19|1|10|4G||/work/jrl78/Nanoparticles/JawBreakers/Different Partial Charges/EEM Full Library|
jrl78|COMPLETED|scavenger-gpu|2023-05-21T10:59:53|2023-05-22T02:43:20|15:43:27|dcc-youlab-gpu-11|1|10|4G||/work/jrl78/Nanoparticles/JawBreakers/Different Partial Charges/EEM Full Library|
jrl78|COMPLETED|scavenger-gpu|2023-05-21T11:33:32|2023-05-22T09:46:22|22:12:50|dcc-vossenlab-gpu-04|1|10|4G||/work/jrl78/Nanoparticles/JawBreakers/Different Partial Charges/EEM Full Library|
jrl78|FAILED|scavenger-gpu|2023-05-21T11:33:32|2023-05-22T03:55:44|16:22:12|dcc-vossenlab-gpu-03|1|10|4G||/work/jrl78/Nanoparticles/JawBreakers/Different Partial Charges/EEM Full Library|
jrl78|COMPLETED|scavenger-gpu|2023-05-21T11:35:44|2023-05-22T02:15:16|14:39:32|dcc-youlab-gpu-04|1|10|4G||/work/jrl78/Nanoparticles/JawBreakers/Different Partial Charges/EEM Full Library|
jrl78|COMPLETED|scavenger-gpu|2023-05-21T12:31:44|2023-05-22T07:08:09|18:36:25|dcc-youlab-gpu-32|1|10|4G||/work/jrl78/Nanoparticles/JawBreakers/Different Partial Charges/EEM Full Library|
jrl78|FAILED|scavenger-gpu|2023-05-21T13:01:18|2023-05-21T19:29:51|06:28:33|dcc-youlab-gpu-29|1|10|4G||/work/jrl78/Nanoparticles/JawBreakers/Different Partial Charges/EEM Full Library|
jrl78|COMPLETED|scavenger-gpu|2023-05-21T13:11:59|2023-05-22T06:20:06|17:08:07|dcc-youlab-gpu-15|1|10|4G||/work/jrl78/Nanoparticles/JawBreakers/Different Partial Charges/EEM Full Library|
jrl78|COMPLETED|scavenger-gpu|2023-05-21T13:35:15|2023-05-22T05:59:08|16:23:53|dcc-youlab-gpu-33|1|10|4G||/work/jrl78/Nanoparticles/JawBreakers/Different Partial Charges/EEM Full Library|
jrl78|COMPLETED|scavenger-gpu|2023-05-21T14:19:52|2023-05-22T06:10:03|15:50:11|dcc-youlab-gpu-24|1|10|4G||/work/jrl78/Nanoparticles/JawBreakers/Different Partial Charges/EEM Full Library|
jrl78|COMPLETED|scavenger-gpu|2023-05-21T16:26:03|2023-05-22T08:30:21|16:04:18|dcc-youlab-gpu-31|1|10|4G||/work/jrl78/Nanoparticles/JawBreakers/Different Partial Charges/EEM Full Library|
jrl78|COMPLETED|scavenger-gpu|2023-05-21T16:58:10|2023-05-22T11:03:00|18:04:50|dcc-youlab-gpu-53|1|10|4G||/work/jrl78/Nanoparticles/JawBreakers/Different Partial Charges/EEM Full Library|
jrl78|COMPLETED|scavenger-gpu|2023-05-21T17:08:37|2023-05-22T07:08:12|13:59:35|dcc-youlab-gpu-38|1|10|4G||/work/jrl78/Nanoparticles/JawBreakers/Different Partial Charges/EEM Full Library|
jrl78|COMPLETED|scavenger-gpu|2023-05-21T19:30:09|2023-05-22T09:09:11|13:39:02|dcc-youlab-gpu-44|1|10|4G||/work/jrl78/Nanoparticles/JawBreakers/Different Partial Charges/EEM Full Library|
jrl78|COMPLETED|scavenger-gpu|2023-05-21T20:07:04|2023-05-22T12:03:26|15:56:22|dcc-youlab-gpu-29|1|10|4G||/work/jrl78/Nanoparticles/JawBreakers/Different Partial Charges/EEM Full Library|
jrl78|COMPLETED|scavenger-gpu|2023-05-21T21:15:28|2023-05-22T14:47:29|17:32:01|dcc-youlab-gpu-42|1|10|4G||/work/jrl78/Nanoparticles/JawBreakers/Different Partial Charges/EEM Full Library|
jrl78|COMPLETED|scavenger-gpu|2023-05-21T22:06:34|2023-05-22T19:35:01|21:28:27|dcc-youlab-gpu-02|1|10|4G||/work/jrl78/Nanoparticles/JawBreakers/Different Partial Charges/EEM Full Library|
jrl78|COMPLETED|scavenger-gpu|2023-05-21T23:31:02|2023-05-22T10:52:54|11:21:52|dcc-youlab-gpu-23|1|10|4G||/work/jrl78/Nanoparticles/JawBreakers/Different Partial Charges/EEM Full Library|
jrl78|COMPLETED|scavenger-gpu|2023-05-22T02:15:33|2023-05-22T19:24:57|17:09:24|dcc-youlab-gpu-04|1|10|4G||/work/jrl78/Nanoparticles/JawBreakers/Different Partial Charges/EEM Full Library|
jrl78|COMPLETED|scavenger-gpu|2023-05-22T02:43:28|2023-05-22T16:15:29|13:32:01|dcc-youlab-gpu-11|1|10|4G||/work/jrl78/Nanoparticles/JawBreakers/Different Partial Charges/EEM Full Library|
jrl78|COMPLETED|scavenger-gpu|2023-05-22T02:55:00|2023-05-22T18:46:21|15:51:21|dcc-youlab-gpu-27|1|10|4G||/work/jrl78/Nanoparticles/JawBreakers/Different Partial Charges/EEM Full Library|
jrl78|COMPLETED|scavenger-gpu|2023-05-22T03:01:34|2023-05-23T00:25:03|21:23:29|dcc-youlab-gpu-21|1|10|4G||/work/jrl78/Nanoparticles/JawBreakers/Different Partial Charges/EEM Full Library|
jrl78|COMPLETED|scavenger-gpu|2023-05-22T03:45:58|2023-05-22T18:44:26|14:58:28|dcc-youlab-gpu-40|1|10|4G||/work/jrl78/Nanoparticles/JawBreakers/Different Partial Charges/EEM Full Library|
jrl78|COMPLETED|scavenger-gpu|2023-05-22T03:56:14|2023-05-22T17:50:35|13:54:21|dcc-vossenlab-gpu-03|1|10|4G||/work/jrl78/Nanoparticles/JawBreakers/Different Partial Charges/EEM Full Library|
jrl78|COMPLETED|scavenger-gpu|2023-05-22T04:35:42|2023-05-23T00:50:40|20:14:58|dcc-youlab-gpu-19|1|10|4G||/work/jrl78/Nanoparticles/JawBreakers/Different Partial Charges/EEM Full Library|
jrl78|COMPLETED|scavenger-gpu|2023-05-22T05:59:20|2023-05-22T22:21:37|16:22:17|dcc-youlab-gpu-33|1|10|4G||/work/jrl78/Nanoparticles/JawBreakers/Different Partial Charges/EEM Full Library|
jrl78|COMPLETED|scavenger-gpu|2023-05-22T06:20:17|2023-05-22T21:44:53|15:24:36|dcc-youlab-gpu-28|1|10|4G||/work/jrl78/Nanoparticles/JawBreakers/Different Partial Charges/EEM Full Library|
jrl78|COMPLETED|scavenger-gpu|2023-05-22T07:08:20|2023-05-23T02:19:54|19:11:34|dcc-youlab-gpu-38|1|10|4G||/work/jrl78/Nanoparticles/JawBreakers/Different Partial Charges/EEM Full Library|
jrl78|COMPLETED|scavenger-gpu|2023-05-22T07:08:20|2023-05-22T22:42:51|15:34:31|dcc-youlab-gpu-32|1|10|4G||/work/jrl78/Nanoparticles/JawBreakers/Different Partial Charges/EEM Full Library|
jrl78|COMPLETED|scavenger-gpu|2023-05-22T08:30:25|2023-05-23T02:26:07|17:55:42|dcc-youlab-gpu-43|1|10|4G||/work/jrl78/Nanoparticles/JawBreakers/Different Partial Charges/EEM Full Library|
jrl78|COMPLETED|scavenger-gpu|2023-05-22T09:09:11|2023-05-23T02:25:29|17:16:18|dcc-motesa-gpu-04|1|6|4G||/work/jrl78/Nanoparticles/JawBreakers/Different Partial Charges/EEM Full Library|
jrl78|COMPLETED|scavenger-gpu|2023-05-22T09:46:36|2023-05-23T00:13:46|14:27:10|dcc-vossenlab-gpu-04|1|10|4G||/work/jrl78/Nanoparticles/JawBreakers/Different Partial Charges/EEM Full Library|
jrl78|COMPLETED|scavenger-gpu|2023-05-22T10:52:57|2023-05-23T04:44:24|17:51:27|dcc-youlab-gpu-23|1|10|4G||/work/jrl78/Nanoparticles/JawBreakers/Different Partial Charges/EEM Full Library|
jrl78|COMPLETED|scavenger-gpu|2023-05-22T11:03:03|2023-05-23T05:09:23|18:06:20|dcc-youlab-gpu-53|1|10|4G||/work/jrl78/Nanoparticles/JawBreakers/Different Partial Charges/EEM Full Library|
jrl78|COMPLETED|scavenger-gpu|2023-05-22T06:10:05|2023-05-22T20:40:04|14:29:59|dcc-youlab-gpu-30|1|10|4G||/work/jrl78/Nanoparticles/JawBreakers/Different Partial Charges/EEM Full Library|
jrl78|COMPLETED|scavenger-gpu|2023-05-22T12:03:57|2023-05-23T02:46:37|14:42:40|dcc-youlab-gpu-55|1|10|4G||/work/jrl78/Nanoparticles/JawBreakers/Different Partial Charges/EEM Full Library|
jrl78|COMPLETED|scavenger-gpu|2023-05-22T14:47:29|2023-05-23T05:23:01|14:35:32|dcc-motesa-gpu-01|1|6|4G||/work/jrl78/Nanoparticles/JawBreakers/Different Partial Charges/EEM Full Library|
jrl78|COMPLETED|scavenger-gpu|2023-05-22T14:47:29|2023-05-23T08:52:33|18:05:04|dcc-mainsahlab-gpu-04|1|6|4G||/work/jrl78/Nanoparticles/JawBreakers/Different Partial Charges/EEM Full Library|
jrl78|COMPLETED|scavenger-gpu|2023-05-22T16:15:30|2023-05-23T06:10:35|13:55:05|dcc-youlab-gpu-11|1|10|4G||/work/jrl78/Nanoparticles/JawBreakers/Different Partial Charges/EEM Full Library|
jrl78|COMPLETED|scavenger-gpu|2023-05-22T17:50:37|2023-05-23T08:43:01|14:52:24|dcc-youlab-gpu-15|1|10|4G||/work/jrl78/Nanoparticles/JawBreakers/Different Partial Charges/EEM Full Library|
jrl78|COMPLETED|scavenger-gpu|2023-05-22T18:44:31|2023-05-23T08:19:30|13:34:59|dcc-mainsahlab-gpu-03|1|6|4G||/work/jrl78/Nanoparticles/JawBreakers/Different Partial Charges/EEM Full Library|
jrl78|COMPLETED|scavenger-gpu|2023-05-22T18:44:31|2023-05-23T12:43:19|17:58:48|dcc-mainsahlab-gpu-02|1|6|4G||/work/jrl78/Nanoparticles/JawBreakers/Different Partial Charges/EEM Full Library|
jrl78|COMPLETED|scavenger-gpu|2023-05-22T18:46:26|2023-05-23T13:23:19|18:36:53|dcc-youlab-gpu-27|1|10|4G||/work/jrl78/Nanoparticles/JawBreakers/Different Partial Charges/EEM Full Library|
jrl78|COMPLETED|scavenger-gpu|2023-05-22T19:24:57|2023-05-23T12:53:52|17:28:55|dcc-youlab-gpu-18|1|10|4G||/work/jrl78/Nanoparticles/JawBreakers/Different Partial Charges/EEM Full Library|
jrl78|COMPLETED|scavenger-gpu|2023-05-22T19:35:01|2023-05-23T07:14:19|11:39:18|dcc-youlab-gpu-36|1|10|4G||/work/jrl78/Nanoparticles/JawBreakers/Different Partial Charges/EEM Full Library|
jrl78|COMPLETED|scavenger-gpu|2023-05-22T20:40:05|2023-05-23T12:13:52|15:33:47|dcc-youlab-gpu-30|1|10|4G||/work/jrl78/Nanoparticles/JawBreakers/Different Partial Charges/EEM Full Library|
jrl78|FAILED|scavenger-gpu|2023-05-22T21:44:53|2023-05-22T21:57:55|00:13:02|dcc-youlab-gpu-28|1|10|4G||/work/jrl78/Nanoparticles/JawBreakers/Different Partial Charges/EEM Full Library|
jrl78|COMPLETED|scavenger-gpu|2023-05-22T21:57:55|2023-05-23T11:23:50|13:25:55|dcc-youlab-gpu-28|1|10|4G||/work/jrl78/Nanoparticles/JawBreakers/Different Partial Charges/EEM Full Library|
jrl78|COMPLETED|scavenger-gpu|2023-05-22T22:21:39|2023-05-23T12:32:35|14:10:56|dcc-youlab-gpu-33|1|10|4G||/work/jrl78/Nanoparticles/JawBreakers/Different Partial Charges/EEM Full Library|
jrl78|COMPLETED|scavenger-gpu|2023-05-22T22:42:51|2023-05-23T12:33:45|13:50:54|dcc-youlab-gpu-32|1|10|4G||/work/jrl78/Nanoparticles/JawBreakers/Different Partial Charges/EEM Full Library|
jrl78|COMPLETED|scavenger-gpu|2023-05-23T00:13:47|2023-05-23T17:24:55|17:11:08|dcc-youlab-gpu-42|1|10|4G||/work/jrl78/Nanoparticles/JawBreakers/Different Partial Charges/EEM Full Library|
jrl78|COMPLETED|scavenger-gpu|2023-05-23T00:25:03|2023-05-23T16:49:45|16:24:42|dcc-youlab-gpu-40|1|10|4G||/work/jrl78/Nanoparticles/JawBreakers/Different Partial Charges/EEM Full Library|
jrl78|COMPLETED|scavenger-gpu|2023-05-23T00:50:40|2023-05-23T15:54:08|15:03:28|dcc-youlab-gpu-37|1|10|4G||/work/jrl78/Nanoparticles/JawBreakers/Different Partial Charges/EEM Full Library|
jrl78|COMPLETED|scavenger-gpu|2023-05-23T02:19:56|2023-05-23T21:31:51|19:11:55|dcc-youlab-gpu-38|1|10|4G||/work/jrl78/Nanoparticles/JawBreakers/Different Partial Charges/EEM Full Library|
jrl78|COMPLETED|scavenger-gpu|2023-05-23T02:26:07|2023-05-23T20:09:08|17:43:01|dcc-youlab-gpu-43|1|10|4G||/work/jrl78/Nanoparticles/JawBreakers/Different Partial Charges/EEM Full Library|
jrl78|COMPLETED|scavenger-gpu|2023-05-23T02:46:37|2023-05-23T20:22:54|17:36:17|dcc-youlab-gpu-55|1|10|4G||/work/jrl78/Nanoparticles/JawBreakers/Different Partial Charges/EEM Full Library|
jrl78|COMPLETED|scavenger-gpu|2023-05-23T04:44:24|2023-05-23T23:01:25|18:17:01|dcc-youlab-gpu-31|1|10|4G||/work/jrl78/Nanoparticles/JawBreakers/Different Partial Charges/EEM Full Library|
jrl78|COMPLETED|scavenger-gpu|2023-05-23T05:09:23|2023-05-23T22:14:43|17:05:20|dcc-youlab-gpu-53|1|10|4G||/work/jrl78/Nanoparticles/JawBreakers/Different Partial Charges/EEM Full Library|
jrl78|FAILED|scavenger-gpu|2023-05-23T05:23:02|2023-05-24T01:53:21|20:30:19|dcc-youlab-gpu-29|1|10|4G||/work/jrl78/Nanoparticles/JawBreakers/Different Partial Charges/EEM Full Library|
jrl78|COMPLETED|scavenger-gpu|2023-05-23T06:10:36|2023-05-24T00:10:17|17:59:41|dcc-youlab-gpu-24|1|10|4G||/work/jrl78/Nanoparticles/JawBreakers/Different Partial Charges/EEM Full Library|
jrl78|COMPLETED|scavenger-gpu|2023-05-23T07:14:19|2023-05-23T23:06:22|15:52:03|dcc-youlab-gpu-36|1|10|4G||/work/jrl78/Nanoparticles/JawBreakers/Different Partial Charges/EEM Full Library|
jrl78|COMPLETED|scavenger-gpu|2023-05-23T08:43:01|2023-05-24T06:11:08|21:28:07|dcc-youlab-gpu-23|1|10|4G||/work/jrl78/Nanoparticles/JawBreakers/Different Partial Charges/EEM Full Library|
jrl78|COMPLETED|scavenger-gpu|2023-05-23T08:52:33|2023-05-23T23:01:35|14:09:02|dcc-youlab-gpu-21|1|10|4G||/work/jrl78/Nanoparticles/JawBreakers/Different Partial Charges/EEM Full Library|
jrl78|COMPLETED|scavenger-gpu|2023-05-23T09:58:41|2023-05-23T23:55:26|13:56:45|dcc-motesa-gpu-01|1|6|4G||/work/jrl78/Nanoparticles/JawBreakers/Different Partial Charges/EEM Full Library|
jrl78|PREEMPTED|scavenger-gpu|2023-05-23T09:58:41|2023-05-23T15:37:33|05:38:52|dcc-mainsahlab-gpu-04|1|6|4G||/work/jrl78/Nanoparticles/JawBreakers/Different Partial Charges/EEM Full Library|
jrl78|PREEMPTED|scavenger-gpu|2023-05-23T09:58:41|2023-05-23T15:50:48|05:52:07|dcc-mainsahlab-gpu-03|1|6|4G||/work/jrl78/Nanoparticles/JawBreakers/Different Partial Charges/EEM Full Library|
jrl78|PREEMPTED|scavenger-gpu|2023-05-23T09:58:41|2023-05-23T15:59:03|06:00:22|dcc-mainsahlab-gpu-01|1|6|4G||/work/jrl78/Nanoparticles/JawBreakers/Different Partial Charges/EEM Full Library|
jrl78|PREEMPTED|scavenger-gpu|2023-05-23T09:58:41|2023-05-23T15:35:32|05:36:51|dcc-gehmlab-gpu-20|1|19|4G||/work/jrl78/Nanoparticles/JawBreakers/Different Partial Charges/EEM Full Library|
jrl78|PREEMPTED|scavenger-gpu|2023-05-23T09:58:41|2023-05-23T15:35:35|05:36:54|dcc-gehmlab-gpu-19|1|19|4G||/work/jrl78/Nanoparticles/JawBreakers/Different Partial Charges/EEM Full Library|
jrl78|PREEMPTED|scavenger-gpu|2023-05-23T09:58:41|2023-05-23T15:35:39|05:36:58|dcc-gehmlab-gpu-18|1|19|4G||/work/jrl78/Nanoparticles/JawBreakers/Different Partial Charges/EEM Full Library|
jrl78|PREEMPTED|scavenger-gpu|2023-05-23T09:58:41|2023-05-23T15:35:42|05:37:01|dcc-gehmlab-gpu-17|1|19|4G||/work/jrl78/Nanoparticles/JawBreakers/Different Partial Charges/EEM Full Library|
jrl78|COMPLETED|scavenger-gpu|2023-05-23T09:58:57|2023-05-24T04:45:43|18:46:46|dcc-motesa-gpu-04|1|6|4G||/work/jrl78/Nanoparticles/JawBreakers/Different Partial Charges/EEM Full Library|
jrl78|PREEMPTED|scavenger-gpu|2023-05-23T09:58:57|2023-05-23T15:35:46|05:36:49|dcc-gehmlab-gpu-16|1|19|4G||/work/jrl78/Nanoparticles/JawBreakers/Different Partial Charges/EEM Full Library|
jrl78|PREEMPTED|scavenger-gpu|2023-05-23T09:58:57|2023-05-23T15:35:50|05:36:53|dcc-gehmlab-gpu-15|1|19|4G||/work/jrl78/Nanoparticles/JawBreakers/Different Partial Charges/EEM Full Library|
jrl78|PREEMPTED|scavenger-gpu|2023-05-23T09:58:57|2023-05-23T15:35:54|05:36:57|dcc-gehmlab-gpu-14|1|19|4G||/work/jrl78/Nanoparticles/JawBreakers/Different Partial Charges/EEM Full Library|
jrl78|PREEMPTED|scavenger-gpu|2023-05-23T09:58:57|2023-05-23T15:35:57|05:37:00|dcc-gehmlab-gpu-13|1|19|4G||/work/jrl78/Nanoparticles/JawBreakers/Different Partial Charges/EEM Full Library|
jrl78|PREEMPTED|scavenger-gpu|2023-05-23T09:58:57|2023-05-23T15:36:07|05:37:10|dcc-gehmlab-gpu-12|1|19|4G||/work/jrl78/Nanoparticles/JawBreakers/Different Partial Charges/EEM Full Library|
jrl78|COMPLETED|scavenger-gpu|2023-05-23T11:23:51|2023-05-24T04:02:41|16:38:50|dcc-youlab-gpu-44|1|10|4G||/work/jrl78/Nanoparticles/JawBreakers/Different Partial Charges/EEM Full Library|
jrl78|COMPLETED|scavenger-gpu|2023-05-23T12:13:53|2023-05-24T03:50:50|15:36:57|dcc-youlab-gpu-30|1|10|4G||/work/jrl78/Nanoparticles/JawBreakers/Different Partial Charges/EEM Full Library|
jrl78|FAILED|scavenger-gpu|2023-05-23T12:32:36|2023-05-23T23:31:44|10:59:08|dcc-youlab-gpu-33|1|10|4G||/work/jrl78/Nanoparticles/JawBreakers/Different Partial Charges/EEM Full Library|
jrl78|COMPLETED|scavenger-gpu|2023-05-23T12:33:46|2023-05-24T04:42:18|16:08:32|dcc-youlab-gpu-32|1|10|4G||/work/jrl78/Nanoparticles/JawBreakers/Different Partial Charges/EEM Full Library|
jrl78|COMPLETED|scavenger-gpu|2023-05-23T12:53:52|2023-05-24T06:44:00|17:50:08|dcc-youlab-gpu-18|1|10|4G||/work/jrl78/Nanoparticles/JawBreakers/Different Partial Charges/EEM Full Library|
jrl78|COMPLETED|scavenger-gpu|2023-05-23T13:23:20|2023-05-24T03:41:04|14:17:44|dcc-youlab-gpu-27|1|10|4G||/work/jrl78/Nanoparticles/JawBreakers/Different Partial Charges/EEM Full Library|
jrl78|PREEMPTED|scavenger-gpu|2023-05-23T13:28:11|2023-05-23T22:41:26|09:13:15|dcc-mainsahlab-gpu-02|1|6|4G||/work/jrl78/Nanoparticles/JawBreakers/Different Partial Charges/EEM Full Library|
jrl78|FAILED|scavenger-gpu|2023-05-23T15:35:32|2023-05-23T23:03:23|07:27:51|dcc-collinslab-gpu-04|1|19|4G||/work/jrl78/Nanoparticles/JawBreakers/Different Partial Charges/EEM Full Library|
jrl78|COMPLETED|scavenger-gpu|2023-05-23T15:35:36|2023-05-24T22:58:16|1-07:22:40|dcc-collinslab-gpu-03|1|19|4G||/work/jrl78/Nanoparticles/JawBreakers/Different Partial Charges/EEM Full Library|
jrl78|COMPLETED|scavenger-gpu|2023-05-23T15:35:39|2023-05-24T23:45:53|1-08:10:14|dcc-collinslab-gpu-02|1|19|4G||/work/jrl78/Nanoparticles/JawBreakers/Different Partial Charges/EEM Full Library|
jrl78|COMPLETED|scavenger-gpu|2023-05-23T15:35:43|2023-05-24T23:45:32|1-08:09:49|dcc-collinslab-gpu-01|1|19|4G||/work/jrl78/Nanoparticles/JawBreakers/Different Partial Charges/EEM Full Library|
jrl78|FAILED|scavenger-gpu|2023-05-23T15:35:51|2023-05-23T17:14:00|01:38:09|dcc-chsi-gpu-08|1|6|4G||/work/jrl78/Nanoparticles/JawBreakers/Different Partial Charges/EEM Full Library|
jrl78|COMPLETED|scavenger-gpu|2023-05-23T15:35:51|2023-05-24T13:14:43|21:38:52|dcc-chsi-gpu-07|1|6|4G||/work/jrl78/Nanoparticles/JawBreakers/Different Partial Charges/EEM Full Library|
jrl78|COMPLETED|scavenger-gpu|2023-05-23T15:35:51|2023-05-24T07:40:55|16:05:04|dcc-chsi-gpu-06|1|6|4G||/work/jrl78/Nanoparticles/JawBreakers/Different Partial Charges/EEM Full Library|
jrl78|COMPLETED|scavenger-gpu|2023-05-23T15:35:51|2023-05-24T13:10:56|21:35:05|dcc-chsi-gpu-05|1|6|4G||/work/jrl78/Nanoparticles/JawBreakers/Different Partial Charges/EEM Full Library|
jrl78|COMPLETED|scavenger-gpu|2023-05-23T15:35:51|2023-05-24T13:28:36|21:52:45|dcc-chsi-gpu-04|1|6|4G||/work/jrl78/Nanoparticles/JawBreakers/Different Partial Charges/EEM Full Library|
jrl78|FAILED|scavenger-gpu|2023-05-23T15:35:51|2023-05-23T20:10:28|04:34:37|dcc-chsi-gpu-03|1|6|4G||/work/jrl78/Nanoparticles/JawBreakers/Different Partial Charges/EEM Full Library|
jrl78|COMPLETED|scavenger-gpu|2023-05-23T15:35:54|2023-05-24T10:55:48|19:19:54|dcc-chsi-gpu-02|1|6|4G||/work/jrl78/Nanoparticles/JawBreakers/Different Partial Charges/EEM Full Library|
jrl78|COMPLETED|scavenger-gpu|2023-05-23T15:35:54|2023-05-24T18:14:25|1-02:38:31|dcc-chsi-gpu-01|1|6|4G||/work/jrl78/Nanoparticles/JawBreakers/Different Partial Charges/EEM Full Library|
jrl78|PREEMPTED|scavenger-gpu|2023-05-23T15:35:57|2023-05-23T18:16:51|02:40:54|dcc-carlsonlab-gpu-13|1|21|4G||/work/jrl78/Nanoparticles/JawBreakers/Different Partial Charges/EEM Full Library|
jrl78|FAILED|scavenger-gpu|2023-05-23T15:36:07|2023-05-24T00:52:12|09:16:05|dcc-carlsonlab-gpu-12|1|21|4G||/work/jrl78/Nanoparticles/JawBreakers/Different Partial Charges/EEM Full Library|
jrl78|COMPLETED|scavenger-gpu|2023-05-23T15:56:54|2023-05-24T06:42:30|14:45:36|dcc-mainsahlab-gpu-03|1|6|4G||/work/jrl78/Nanoparticles/JawBreakers/Different Partial Charges/EEM Full Library|
jrl78|FAILED|scavenger-gpu|2023-05-23T15:48:26|2023-05-24T03:48:32|12:00:06|dcc-youlab-gpu-08|1|10|4G||/work/jrl78/Nanoparticles/JawBreakers/Different Partial Charges/EEM Full Library|
jrl78|COMPLETED|scavenger-gpu|2023-05-23T16:04:50|2023-05-24T09:58:33|17:53:43|dcc-youlab-gpu-35|1|10|4G||/work/jrl78/Nanoparticles/JawBreakers/Different Partial Charges/EEM Full Library|
jrl78|COMPLETED|scavenger-gpu|2023-05-23T16:00:41|2023-05-24T05:34:19|13:33:38|dcc-vossenlab-gpu-01|1|10|4G||/work/jrl78/Nanoparticles/JawBreakers/Different Partial Charges/EEM Full Library|
jrl78|COMPLETED|scavenger-gpu|2023-05-23T17:05:45|2023-05-24T07:26:19|14:20:34|dcc-mainsahlab-gpu-01|1|6|4G||/work/jrl78/Nanoparticles/JawBreakers/Different Partial Charges/EEM Full Library|
jrl78|COMPLETED|scavenger-gpu|2023-05-23T17:14:01|2023-05-24T09:32:19|16:18:18|dcc-chsi-gpu-08|1|6|4G||/work/jrl78/Nanoparticles/JawBreakers/Different Partial Charges/EEM Full Library|
jrl78|COMPLETED|scavenger-gpu|2023-05-23T17:24:57|2023-05-24T08:02:27|14:37:30|dcc-youlab-gpu-42|1|10|4G||/work/jrl78/Nanoparticles/JawBreakers/Different Partial Charges/EEM Full Library|
jrl78|FAILED|scavenger-gpu|2023-05-23T18:16:56|2023-05-25T02:59:30|1-08:42:34|dcc-carin-gpu-08|1|19|4G||/work/jrl78/Nanoparticles/JawBreakers/Different Partial Charges/EEM Full Library|
jrl78|COMPLETED|scavenger-gpu|2023-05-23T20:09:10|2023-05-24T14:52:44|18:43:34|dcc-youlab-gpu-43|1|10|4G||/work/jrl78/Nanoparticles/JawBreakers/Different Partial Charges/EEM Full Library|
jrl78|COMPLETED|scavenger-gpu|2023-05-23T20:10:29|2023-05-24T21:09:49|1-00:59:20|dcc-chsi-gpu-03|1|6|4G||/work/jrl78/Nanoparticles/JawBreakers/Different Partial Charges/EEM Full Library|
jrl78|COMPLETED|scavenger-gpu|2023-05-23T20:22:54|2023-05-24T14:22:09|17:59:15|dcc-youlab-gpu-55|1|10|4G||/work/jrl78/Nanoparticles/JawBreakers/Different Partial Charges/EEM Full Library|
jrl78|COMPLETED|scavenger-gpu|2023-05-23T21:33:37|2023-05-24T11:58:11|14:24:34|dcc-pbenfeylab-gpu-01|1|10|4G||/work/jrl78/Nanoparticles/JawBreakers/Different Partial Charges/EEM Full Library|
jrl78|COMPLETED|scavenger-gpu|2023-05-23T22:14:44|2023-05-24T13:15:11|15:00:27|dcc-youlab-gpu-53|1|10|4G||/work/jrl78/Nanoparticles/JawBreakers/Different Partial Charges/EEM Full Library|
jrl78|COMPLETED|scavenger-gpu|2023-05-23T22:47:45|2023-05-24T14:44:29|15:56:44|dcc-youlab-gpu-16|1|10|4G||/work/jrl78/Nanoparticles/JawBreakers/Different Partial Charges/EEM Full Library|
jrl78|FAILED|scavenger-gpu|2023-05-23T23:01:28|2023-05-24T08:22:12|09:20:44|dcc-youlab-gpu-31|1|10|4G||/work/jrl78/Nanoparticles/JawBreakers/Different Partial Charges/EEM Full Library|
jrl78|COMPLETED|scavenger-gpu|2023-05-23T23:01:38|2023-05-24T14:23:58|15:22:20|dcc-youlab-gpu-21|1|10|4G||/work/jrl78/Nanoparticles/JawBreakers/Different Partial Charges/EEM Full Library|
jrl78|COMPLETED|scavenger-gpu|2023-05-23T23:03:24|2023-05-24T17:50:03|18:46:39|dcc-gehmlab-gpu-55|1|19|4G||/work/jrl78/Nanoparticles/JawBreakers/Different Partial Charges/EEM Full Library|
jrl78|FAILED|scavenger-gpu|2023-05-23T23:06:22|2023-05-24T15:28:57|16:22:35|dcc-youlab-gpu-36|1|10|4G||/work/jrl78/Nanoparticles/JawBreakers/Different Partial Charges/EEM Full Library|
jrl78|COMPLETED|scavenger-gpu|2023-05-23T23:31:46|2023-05-24T18:44:20|19:12:34|dcc-youlab-gpu-33|1|10|4G||/work/jrl78/Nanoparticles/JawBreakers/Different Partial Charges/EEM Full Library|
jrl78|COMPLETED|scavenger-gpu|2023-05-23T23:55:27|2023-05-24T21:48:51|21:53:24|dcc-motesa-gpu-01|1|6|4G||/work/jrl78/Nanoparticles/JawBreakers/Different Partial Charges/EEM Full Library|
jrl78|COMPLETED|scavenger-gpu|2023-05-24T00:10:17|2023-05-24T20:35:58|20:25:41|dcc-youlab-gpu-24|1|10|4G||/work/jrl78/Nanoparticles/JawBreakers/Different Partial Charges/EEM Full Library|
jrl78|FAILED|scavenger-gpu|2023-05-24T00:52:13|2023-05-24T07:07:21|06:15:08|dcc-youlab-gpu-34|1|10|4G||/work/jrl78/Nanoparticles/JawBreakers/Different Partial Charges/EEM Full Library|
jrl78|COMPLETED|scavenger-gpu|2023-05-24T00:52:13|2023-05-24T18:27:43|17:35:30|dcc-mainsahlab-gpu-02|1|6|4G||/work/jrl78/Nanoparticles/JawBreakers/Different Partial Charges/EEM Full Library|
jrl78|COMPLETED|scavenger-gpu|2023-05-24T01:53:23|2023-05-24T17:42:05|15:48:42|dcc-youlab-gpu-29|1|10|4G||/work/jrl78/Nanoparticles/JawBreakers/Different Partial Charges/EEM Full Library|
jrl78|COMPLETED|scavenger-gpu|2023-05-24T03:41:05|2023-05-24T22:21:36|18:40:31|dcc-youlab-gpu-27|1|10|4G||/work/jrl78/Nanoparticles/JawBreakers/Different Partial Charges/EEM Full Library|
jrl78|COMPLETED|scavenger-gpu|2023-05-24T03:48:33|2023-05-24T19:47:26|15:58:53|dcc-youlab-gpu-08|1|10|4G||/work/jrl78/Nanoparticles/JawBreakers/Different Partial Charges/EEM Full Library|
jrl78|COMPLETED|scavenger-gpu|2023-05-24T03:50:50|2023-05-24T18:05:43|14:14:53|dcc-youlab-gpu-30|1|10|4G||/work/jrl78/Nanoparticles/JawBreakers/Different Partial Charges/EEM Full Library|
jrl78|COMPLETED|scavenger-gpu|2023-05-24T04:02:41|2023-05-24T21:03:58|17:01:17|dcc-youlab-gpu-44|1|10|4G||/work/jrl78/Nanoparticles/JawBreakers/Different Partial Charges/EEM Full Library|
yx240|COMPLETED|scavenger-gpu|2023-05-20T19:34:20|2023-05-22T08:11:30|1-12:37:10|dcc-youlab-gpu-43|1|10|2G||/work/yx240/project-martini/new/simutools/scripts|
yx240|COMPLETED|scavenger-gpu|2023-05-20T19:34:20|2023-05-21T09:54:10|14:19:50|dcc-youlab-gpu-40|1|10|2G||/work/yx240/project-martini/new/simutools/scripts|
yx240|COMPLETED|scavenger-gpu|2023-05-20T19:34:21|2023-05-21T08:10:43|12:36:22|dcc-youlab-gpu-23|1|10|2G||/work/yx240/project-martini/new/simutools/scripts|
yx240|COMPLETED|scavenger-gpu|2023-05-20T19:40:21|2023-05-22T13:57:24|1-18:17:03|dcc-pbenfeylab-gpu-02|1|10|2G||/work/yx240/project-martini/new/simutools/scripts|
minhe|COMPLETED|scavenger-gpu|2023-05-21T04:10:35|2023-05-21T04:37:22|00:26:47|dcc-youlab-gpu-21|1|10|86172M||/work/minhe/alphafold|
minhe|COMPLETED|scavenger-gpu|2023-05-21T04:11:11|2023-05-21T05:41:34|01:30:23|dcc-vossenlab-gpu-03|1|10|86172M||/work/minhe/alphafold|
minhe|COMPLETED|scavenger-gpu|2023-05-21T04:11:45|2023-05-21T04:27:05|00:15:20|dcc-ultrasound-gpu-03|1|19|86172M||/work/minhe/alphafold|
minhe|COMPLETED|scavenger-gpu|2023-05-21T04:12:19|2023-05-21T04:27:09|00:14:50|dcc-ultrasound-gpu-02|1|19|86172M||/work/minhe/alphafold|
minhe|COMPLETED|scavenger-gpu|2023-05-21T04:12:52|2023-05-21T06:26:35|02:13:43|dcc-ultrasound-gpu-01|1|19|86172M||/work/minhe/alphafold|
minhe|COMPLETED|scavenger-gpu|2023-05-21T04:12:52|2023-05-21T04:24:36|00:11:44|dcc-tdunn-gpu-02|1|44|86172M||/work/minhe/alphafold|
minhe|COMPLETED|scavenger-gpu|2023-05-21T04:13:27|2023-05-21T05:30:28|01:17:01|dcc-tdunn-gpu-01|1|44|86172M||/work/minhe/alphafold|
minhe|COMPLETED|scavenger-gpu|2023-05-21T04:13:27|2023-05-21T04:26:32|00:13:05|dcc-mastatlab-gpu-01|1|44|86172M||/work/minhe/alphafold|
minhe|COMPLETED|scavenger-gpu|2023-05-21T04:14:01|2023-05-21T04:26:42|00:12:41|dcc-gehmlab-gpu-32|1|19|86172M||/work/minhe/alphafold|
minhe|COMPLETED|scavenger-gpu|2023-05-21T04:14:01|2023-05-21T04:23:16|00:09:15|dcc-gehmlab-gpu-31|1|19|86172M||/work/minhe/alphafold|
minhe|COMPLETED|scavenger-gpu|2023-05-21T04:14:35|2023-05-21T05:21:54|01:07:19|dcc-gehmlab-gpu-30|1|19|86172M||/work/minhe/alphafold|
minhe|COMPLETED|scavenger-gpu|2023-05-21T04:14:35|2023-05-21T04:26:38|00:12:03|dcc-gehmlab-gpu-29|1|19|86172M||/work/minhe/alphafold|
minhe|COMPLETED|scavenger-gpu|2023-05-21T04:15:10|2023-05-21T04:54:38|00:39:28|dcc-gehmlab-gpu-28|1|19|86172M||/work/minhe/alphafold|
minhe|COMPLETED|scavenger-gpu|2023-05-21T04:15:10|2023-05-21T04:35:24|00:20:14|dcc-gehmlab-gpu-27|1|19|86172M||/work/minhe/alphafold|
minhe|COMPLETED|scavenger-gpu|2023-05-21T04:15:45|2023-05-21T06:50:26|02:34:41|dcc-gehmlab-gpu-26|1|19|86172M||/work/minhe/alphafold|
minhe|COMPLETED|scavenger-gpu|2023-05-21T04:15:45|2023-05-21T04:27:09|00:11:24|dcc-gehmlab-gpu-25|1|19|86172M||/work/minhe/alphafold|
minhe|COMPLETED|scavenger-gpu|2023-05-21T04:16:18|2023-05-21T04:30:43|00:14:25|dcc-gehmlab-gpu-24|1|19|86172M||/work/minhe/alphafold|
minhe|COMPLETED|scavenger-gpu|2023-05-21T04:16:18|2023-05-21T04:27:00|00:10:42|dcc-gehmlab-gpu-23|1|19|86172M||/work/minhe/alphafold|
minhe|COMPLETED|scavenger-gpu|2023-05-21T04:16:52|2023-05-21T04:27:23|00:10:31|dcc-gehmlab-gpu-22|1|19|86172M||/work/minhe/alphafold|
minhe|COMPLETED|scavenger-gpu|2023-05-21T04:16:52|2023-05-21T04:27:32|00:10:40|dcc-gehmlab-gpu-21|1|19|86172M||/work/minhe/alphafold|
minhe|COMPLETED|scavenger-gpu|2023-05-21T04:17:26|2023-05-21T04:27:16|00:09:50|dcc-gehmlab-gpu-20|1|19|86172M||/work/minhe/alphafold|
minhe|COMPLETED|scavenger-gpu|2023-05-21T04:17:26|2023-05-21T04:29:21|00:11:55|dcc-gehmlab-gpu-19|1|19|86172M||/work/minhe/alphafold|
minhe|COMPLETED|scavenger-gpu|2023-05-21T04:18:02|2023-05-21T04:41:14|00:23:12|dcc-gehmlab-gpu-18|1|19|86172M||/work/minhe/alphafold|
minhe|COMPLETED|scavenger-gpu|2023-05-21T04:18:02|2023-05-21T04:54:17|00:36:15|dcc-gehmlab-gpu-17|1|19|86172M||/work/minhe/alphafold|
minhe|COMPLETED|scavenger-gpu|2023-05-21T04:18:35|2023-05-21T04:27:00|00:08:25|dcc-gehmlab-gpu-16|1|19|86172M||/work/minhe/alphafold|
minhe|COMPLETED|scavenger-gpu|2023-05-21T04:18:35|2023-05-21T04:27:10|00:08:35|dcc-gehmlab-gpu-15|1|19|86172M||/work/minhe/alphafold|
minhe|COMPLETED|scavenger-gpu|2023-05-21T04:19:10|2023-05-21T05:00:27|00:41:17|dcc-gehmlab-gpu-14|1|19|86172M||/work/minhe/alphafold|
minhe|COMPLETED|scavenger-gpu|2023-05-21T04:19:10|2023-05-21T04:56:03|00:36:53|dcc-gehmlab-gpu-13|1|19|86172M||/work/minhe/alphafold|
minhe|COMPLETED|scavenger-gpu|2023-05-21T04:19:44|2023-05-21T05:02:22|00:42:38|dcc-gehmlab-gpu-12|1|19|86172M||/work/minhe/alphafold|
minhe|COMPLETED|scavenger-gpu|2023-05-21T04:23:43|2023-05-21T05:27:10|01:03:27|dcc-gehmlab-gpu-31|1|19|86172M||/work/minhe/alphafold|
minhe|COMPLETED|scavenger-gpu|2023-05-21T04:24:52|2023-05-21T04:31:57|00:07:05|dcc-tdunn-gpu-02|1|44|86172M||/work/minhe/alphafold|
minhe|COMPLETED|scavenger-gpu|2023-05-21T04:26:35|2023-05-21T04:42:40|00:16:05|dcc-gehmlab-gpu-11|1|19|86172M||/work/minhe/alphafold|
minhe|COMPLETED|scavenger-gpu|2023-05-21T04:26:35|2023-05-21T05:27:17|01:00:42|dcc-gehmlab-gpu-10|1|19|86172M||/work/minhe/alphafold|
minhe|COMPLETED|scavenger-gpu|2023-05-21T04:27:12|2023-05-21T05:32:00|01:04:48|dcc-ultrasound-gpu-03|1|19|86172M||/work/minhe/alphafold|
minhe|COMPLETED|scavenger-gpu|2023-05-21T04:27:12|2023-05-21T04:43:48|00:16:36|dcc-mastatlab-gpu-01|1|44|86172M||/work/minhe/alphafold|
minhe|COMPLETED|scavenger-gpu|2023-05-21T04:27:12|2023-05-21T06:28:06|02:00:54|dcc-gehmlab-gpu-32|1|19|86172M||/work/minhe/alphafold|
minhe|COMPLETED|scavenger-gpu|2023-05-21T04:27:12|2023-05-21T05:28:04|01:00:52|dcc-gehmlab-gpu-29|1|19|86172M||/work/minhe/alphafold|
minhe|COMPLETED|scavenger-gpu|2023-05-21T04:27:12|2023-05-21T05:19:00|00:51:48|dcc-gehmlab-gpu-23|1|19|86172M||/work/minhe/alphafold|
minhe|COMPLETED|scavenger-gpu|2023-05-21T04:27:12|2023-05-21T05:03:49|00:36:37|dcc-gehmlab-gpu-16|1|19|86172M||/work/minhe/alphafold|
minhe|COMPLETED|scavenger-gpu|2023-05-21T04:27:46|2023-05-21T05:27:33|00:59:47|dcc-ultrasound-gpu-02|1|19|86172M||/work/minhe/alphafold|
minhe|COMPLETED|scavenger-gpu|2023-05-21T04:27:46|2023-05-21T04:51:56|00:24:10|dcc-gehmlab-gpu-25|1|19|86172M||/work/minhe/alphafold|
minhe|COMPLETED|scavenger-gpu|2023-05-21T04:27:46|2023-05-21T05:17:39|00:49:53|dcc-gehmlab-gpu-22|1|19|86172M||/work/minhe/alphafold|
minhe|COMPLETED|scavenger-gpu|2023-05-21T04:27:46|2023-05-21T04:38:02|00:10:16|dcc-gehmlab-gpu-21|1|19|86172M||/work/minhe/alphafold|
minhe|COMPLETED|scavenger-gpu|2023-05-21T04:29:29|2023-05-21T05:29:07|00:59:38|dcc-gehmlab-gpu-20|1|19|86172M||/work/minhe/alphafold|
minhe|COMPLETED|scavenger-gpu|2023-05-21T04:31:11|2023-05-21T04:47:10|00:15:59|dcc-gehmlab-gpu-24|1|19|86172M||/work/minhe/alphafold|
minhe|COMPLETED|scavenger-gpu|2023-05-21T04:32:19|2023-05-21T05:26:42|00:54:23|dcc-tdunn-gpu-02|1|44|86172M||/work/minhe/alphafold|
minhe|COMPLETED|scavenger-gpu|2023-05-21T04:35:43|2023-05-21T05:10:54|00:35:11|dcc-gehmlab-gpu-27|1|19|86172M||/work/minhe/alphafold|
minhe|COMPLETED|scavenger-gpu|2023-05-21T04:37:57|2023-05-21T05:25:47|00:47:50|dcc-youlab-gpu-21|1|10|86172M||/work/minhe/alphafold|
minhe|COMPLETED|scavenger-gpu|2023-05-21T04:38:31|2023-05-21T05:27:09|00:48:38|dcc-gehmlab-gpu-21|1|19|86172M||/work/minhe/alphafold|
minhe|COMPLETED|scavenger-gpu|2023-05-21T04:41:21|2023-05-21T05:12:41|00:31:20|dcc-gehmlab-gpu-19|1|19|86172M||/work/minhe/alphafold|
minhe|COMPLETED|scavenger-gpu|2023-05-21T04:43:04|2023-05-21T05:27:02|00:43:58|dcc-gehmlab-gpu-18|1|19|86172M||/work/minhe/alphafold|
minhe|COMPLETED|scavenger-gpu|2023-05-21T04:44:11|2023-05-21T06:26:15|01:42:04|dcc-mastatlab-gpu-01|1|44|86172M||/work/minhe/alphafold|
minhe|COMPLETED|scavenger-gpu|2023-05-21T04:47:32|2023-05-21T05:15:33|00:28:01|dcc-gehmlab-gpu-24|1|19|86172M||/work/minhe/alphafold|
minhe|COMPLETED|scavenger-gpu|2023-05-21T04:52:03|2023-05-21T06:26:49|01:34:46|dcc-gehmlab-gpu-25|1|19|86172M||/work/minhe/alphafold|
minhe|COMPLETED|scavenger-gpu|2023-05-21T04:52:38|2023-05-21T06:02:43|01:10:05|dcc-gehmlab-gpu-15|1|19|86172M||/work/minhe/alphafold|
minhe|COMPLETED|scavenger-gpu|2023-05-21T04:52:38|2023-05-21T05:28:10|00:35:32|dcc-gehmlab-gpu-11|1|19|86172M||/work/minhe/alphafold|
minhe|COMPLETED|scavenger-gpu|2023-05-21T04:52:38|2023-05-21T06:00:58|01:08:20|dcc-gehmlab-gpu-09|1|19|86172M||/work/minhe/alphafold|
minhe|COMPLETED|scavenger-gpu|2023-05-21T04:52:38|2023-05-21T06:38:26|01:45:48|dcc-gehmlab-gpu-08|1|19|86172M||/work/minhe/alphafold|
minhe|COMPLETED|scavenger-gpu|2023-05-21T04:54:19|2023-05-21T05:14:06|00:19:47|dcc-gehmlab-gpu-07|1|19|86172M||/work/minhe/alphafold|
minhe|COMPLETED|scavenger-gpu|2023-05-21T04:54:52|2023-05-21T05:23:00|00:28:08|dcc-gehmlab-gpu-28|1|19|86172M||/work/minhe/alphafold|
minhe|COMPLETED|scavenger-gpu|2023-05-21T04:56:35|2023-05-21T05:27:06|00:30:31|dcc-gehmlab-gpu-17|1|19|86172M||/work/minhe/alphafold|
minhe|COMPLETED|scavenger-gpu|2023-05-21T05:00:32|2023-05-21T06:57:34|01:57:02|dcc-gehmlab-gpu-14|1|19|86172M||/work/minhe/alphafold|
minhe|COMPLETED|scavenger-gpu|2023-05-21T05:02:51|2023-05-21T05:38:12|00:35:21|dcc-gehmlab-gpu-13|1|19|86172M||/work/minhe/alphafold|
minhe|COMPLETED|scavenger-gpu|2023-05-21T05:03:58|2023-05-21T05:44:09|00:40:11|dcc-gehmlab-gpu-16|1|19|86172M||/work/minhe/alphafold|
minhe|COMPLETED|scavenger-gpu|2023-05-21T05:11:20|2023-05-21T06:17:14|01:05:54|dcc-gehmlab-gpu-27|1|19|86172M||/work/minhe/alphafold|
minhe|COMPLETED|scavenger-gpu|2023-05-21T05:13:03|2023-05-21T05:26:38|00:13:35|dcc-gehmlab-gpu-19|1|19|86172M||/work/minhe/alphafold|
minhe|COMPLETED|scavenger-gpu|2023-05-21T05:14:12|2023-05-21T05:54:37|00:40:25|dcc-gehmlab-gpu-12|1|19|86172M||/work/minhe/alphafold|
minhe|COMPLETED|scavenger-gpu|2023-05-21T05:15:54|2023-05-21T05:25:05|00:09:11|dcc-gehmlab-gpu-24|1|19|86172M||/work/minhe/alphafold|
minhe|COMPLETED|scavenger-gpu|2023-05-21T05:18:12|2023-05-21T05:27:05|00:08:53|dcc-gehmlab-gpu-22|1|19|86172M||/work/minhe/alphafold|
minhe|COMPLETED|scavenger-gpu|2023-05-21T05:19:21|2023-05-21T05:51:38|00:32:17|dcc-gehmlab-gpu-23|1|19|86172M||/work/minhe/alphafold|
minhe|COMPLETED|scavenger-gpu|2023-05-21T05:22:14|2023-05-21T07:03:25|01:41:11|dcc-gehmlab-gpu-30|1|19|86172M||/work/minhe/alphafold|
minhe|COMPLETED|scavenger-gpu|2023-05-21T05:23:25|2023-05-21T05:33:52|00:10:27|dcc-gehmlab-gpu-28|1|19|86172M||/work/minhe/alphafold|
minhe|COMPLETED|scavenger-gpu|2023-05-21T05:25:09|2023-05-21T07:06:29|01:41:20|dcc-gehmlab-gpu-07|1|19|86172M||/work/minhe/alphafold|
minhe|COMPLETED|scavenger-gpu|2023-05-21T05:26:18|2023-05-21T05:38:45|00:12:27|dcc-youlab-gpu-21|1|10|86172M||/work/minhe/alphafold|
minhe|COMPLETED|scavenger-gpu|2023-05-21T05:26:53|2023-05-21T07:04:37|01:37:44|dcc-tdunn-gpu-02|1|44|86172M||/work/minhe/alphafold|
minhe|COMPLETED|scavenger-gpu|2023-05-21T05:26:53|2023-05-21T06:52:39|01:25:46|dcc-gehmlab-gpu-24|1|19|86172M||/work/minhe/alphafold|
minhe|COMPLETED|scavenger-gpu|2023-05-21T05:27:29|2023-05-21T06:05:18|00:37:49|dcc-gehmlab-gpu-31|1|19|86172M||/work/minhe/alphafold|
minhe|COMPLETED|scavenger-gpu|2023-05-21T05:27:29|2023-05-21T05:59:13|00:31:44|dcc-gehmlab-gpu-22|1|19|86172M||/work/minhe/alphafold|
minhe|COMPLETED|scavenger-gpu|2023-05-21T05:28:06|2023-05-21T05:56:45|00:28:39|dcc-ultrasound-gpu-02|1|19|86172M||/work/minhe/alphafold|
minhe|COMPLETED|scavenger-gpu|2023-05-21T05:28:06|2023-05-21T05:50:09|00:22:03|dcc-gehmlab-gpu-21|1|19|86172M||/work/minhe/alphafold|
minhe|COMPLETED|scavenger-gpu|2023-05-21T05:28:42|2023-05-21T05:41:20|00:12:38|dcc-gehmlab-gpu-29|1|19|86172M||/work/minhe/alphafold|
minhe|COMPLETED|scavenger-gpu|2023-05-21T05:29:16|2023-05-21T07:11:08|01:41:52|dcc-youlab-gpu-19|1|10|86172M||/work/minhe/alphafold|
minhe|COMPLETED|scavenger-gpu|2023-05-21T05:29:16|2023-05-21T05:59:17|00:30:01|dcc-gehmlab-gpu-20|1|19|86172M||/work/minhe/alphafold|
minhe|COMPLETED|scavenger-gpu|2023-05-21T05:30:59|2023-05-21T06:26:44|00:55:45|dcc-tdunn-gpu-01|1|44|86172M||/work/minhe/alphafold|
minhe|COMPLETED|scavenger-gpu|2023-05-21T05:32:10|2023-05-21T06:19:42|00:47:32|dcc-ultrasound-gpu-03|1|19|86172M||/work/minhe/alphafold|
minhe|COMPLETED|scavenger-gpu|2023-05-21T05:33:52|2023-05-21T06:33:45|00:59:53|dcc-gehmlab-gpu-19|1|19|86172M||/work/minhe/alphafold|
minhe|COMPLETED|scavenger-gpu|2023-05-21T05:36:09|2023-05-21T06:11:27|00:35:18|dcc-gehmlab-gpu-28|1|19|86172M||/work/minhe/alphafold|
minhe|COMPLETED|scavenger-gpu|2023-05-21T05:38:26|2023-05-21T06:29:15|00:50:49|dcc-gehmlab-gpu-18|1|19|86172M||/work/minhe/alphafold|
minhe|COMPLETED|scavenger-gpu|2023-05-21T05:39:00|2023-05-21T05:47:27|00:08:27|dcc-youlab-gpu-21|1|10|86172M||/work/minhe/alphafold|
minhe|COMPLETED|scavenger-gpu|2023-05-21T05:41:53|2023-05-21T06:25:45|00:43:52|dcc-vossenlab-gpu-03|1|10|86172M||/work/minhe/alphafold|
minhe|COMPLETED|scavenger-gpu|2023-05-21T05:41:53|2023-05-21T06:27:18|00:45:25|dcc-gehmlab-gpu-29|1|19|86172M||/work/minhe/alphafold|
minhe|COMPLETED|scavenger-gpu|2023-05-21T05:44:09|2023-05-21T07:26:49|01:42:40|dcc-gehmlab-gpu-17|1|19|86172M||/work/minhe/alphafold|
minhe|COMPLETED|scavenger-gpu|2023-05-21T05:45:53|2023-05-21T05:53:52|00:07:59|dcc-gehmlab-gpu-16|1|19|86172M||/work/minhe/alphafold|
minhe|COMPLETED|scavenger-gpu|2023-05-21T05:45:53|2023-05-21T06:26:44|00:40:51|dcc-gehmlab-gpu-13|1|19|86172M||/work/minhe/alphafold|
minhe|COMPLETED|scavenger-gpu|2023-05-21T05:47:35|2023-05-21T06:25:49|00:38:14|dcc-youlab-gpu-21|1|10|86172M||/work/minhe/alphafold|
minhe|COMPLETED|scavenger-gpu|2023-05-21T05:50:27|2023-05-21T07:21:43|01:31:16|dcc-gehmlab-gpu-21|1|19|86172M||/work/minhe/alphafold|
minhe|COMPLETED|scavenger-gpu|2023-05-21T05:52:12|2023-05-21T06:23:37|00:31:25|dcc-gehmlab-gpu-23|1|19|86172M||/work/minhe/alphafold|
minhe|COMPLETED|scavenger-gpu|2023-05-21T05:53:58|2023-05-21T07:03:37|01:09:39|dcc-gehmlab-gpu-16|1|19|86172M||/work/minhe/alphafold|
minhe|COMPLETED|scavenger-gpu|2023-05-21T05:55:07|2023-05-21T07:09:49|01:14:42|dcc-gehmlab-gpu-12|1|19|86172M||/work/minhe/alphafold|
minhe|COMPLETED|scavenger-gpu|2023-05-21T05:56:51|2023-05-21T06:28:42|00:31:51|dcc-ultrasound-gpu-02|1|19|86172M||/work/minhe/alphafold|
minhe|COMPLETED|scavenger-gpu|2023-05-21T05:59:48|2023-05-21T06:08:19|00:08:31|dcc-gehmlab-gpu-22|1|19|86172M||/work/minhe/alphafold|
minhe|COMPLETED|scavenger-gpu|2023-05-21T05:59:48|2023-05-21T06:27:06|00:27:18|dcc-gehmlab-gpu-20|1|19|86172M||/work/minhe/alphafold|
minhe|COMPLETED|scavenger-gpu|2023-05-21T06:01:34|2023-05-21T06:25:08|00:23:34|dcc-gehmlab-gpu-11|1|19|86172M||/work/minhe/alphafold|
minhe|COMPLETED|scavenger-gpu|2023-05-21T06:03:18|2023-05-21T06:27:06|00:23:48|dcc-gehmlab-gpu-15|1|19|86172M||/work/minhe/alphafold|
minhe|COMPLETED|scavenger-gpu|2023-05-21T06:04:26|2023-05-21T06:15:45|00:11:19|dcc-gehmlab-gpu-10|1|19|86172M||/work/minhe/alphafold|
minhe|COMPLETED|scavenger-gpu|2023-05-21T06:05:34|2023-05-21T06:27:06|00:21:32|dcc-gehmlab-gpu-31|1|19|86172M||/work/minhe/alphafold|
minhe|COMPLETED|scavenger-gpu|2023-05-21T06:06:41|2023-05-21T06:27:14|00:20:33|dcc-gehmlab-gpu-09|1|19|86172M||/work/minhe/alphafold|
minhe|COMPLETED|scavenger-gpu|2023-05-21T06:08:25|2023-05-21T06:20:19|00:11:54|dcc-gehmlab-gpu-22|1|19|86172M||/work/minhe/alphafold|
minhe|COMPLETED|scavenger-gpu|2023-05-21T06:11:52|2023-05-21T06:49:50|00:37:58|dcc-gehmlab-gpu-28|1|19|86172M||/work/minhe/alphafold|
minhe|COMPLETED|scavenger-gpu|2023-05-21T06:14:45|2023-05-21T06:30:43|00:15:58|dcc-gehmlab-gpu-06|1|19|86172M||/work/minhe/alphafold|
minhe|COMPLETED|scavenger-gpu|2023-05-21T06:15:53|2023-05-21T06:27:10|00:11:17|dcc-gehmlab-gpu-10|1|19|86172M||/work/minhe/alphafold|
minhe|COMPLETED|scavenger-gpu|2023-05-21T06:17:38|2023-05-21T07:14:21|00:56:43|dcc-gehmlab-gpu-27|1|19|86172M||/work/minhe/alphafold|
minhe|COMPLETED|scavenger-gpu|2023-05-21T06:19:55|2023-05-21T07:10:49|00:50:54|dcc-ultrasound-gpu-03|1|19|86172M||/work/minhe/alphafold|
minhe|COMPLETED|scavenger-gpu|2023-05-21T06:20:30|2023-05-21T06:27:56|00:07:26|dcc-gehmlab-gpu-22|1|19|86172M||/work/minhe/alphafold|
minhe|COMPLETED|scavenger-gpu|2023-05-21T06:22:14|2023-05-21T06:36:54|00:14:40|dcc-gehmlab-gpu-05|1|19|86172M||/work/minhe/alphafold|
minhe|COMPLETED|scavenger-gpu|2023-05-21T06:23:59|2023-05-21T06:53:14|00:29:15|dcc-gehmlab-gpu-23|1|19|86172M||/work/minhe/alphafold|
minhe|COMPLETED|scavenger-gpu|2023-05-21T06:25:41|2023-05-21T07:00:34|00:34:53|dcc-gehmlab-gpu-11|1|19|86172M||/work/minhe/alphafold|
minhe|COMPLETED|scavenger-gpu|2023-05-21T06:26:15|2023-05-21T06:38:15|00:12:00|dcc-youlab-gpu-21|1|10|86172M||/work/minhe/alphafold|
minhe|COMPLETED|scavenger-gpu|2023-05-21T06:26:15|2023-05-21T06:46:16|00:20:01|dcc-vossenlab-gpu-03|1|10|86172M||/work/minhe/alphafold|
minhe|COMPLETED|scavenger-gpu|2023-05-21T06:26:16|2023-05-21T06:26:33|00:00:17|dcc-gehmlab-gpu-04|1|19|86172M||/work/minhe/alphafold|
minhe|COMPLETED|scavenger-gpu|2023-05-21T06:26:16|2023-05-21T06:45:35|00:19:19|dcc-gehmlab-gpu-03|1|19|86172M||/work/minhe/alphafold|
minhe|COMPLETED|scavenger-gpu|2023-05-21T06:26:16|2023-05-21T07:09:34|00:43:18|dcc-gehmlab-gpu-02|1|19|86172M||/work/minhe/alphafold|
minhe|COMPLETED|scavenger-gpu|2023-05-21T06:26:52|2023-05-21T07:26:29|00:59:37|dcc-ultrasound-gpu-01|1|19|86172M||/work/minhe/alphafold|
minhe|COMPLETED|scavenger-gpu|2023-05-21T06:26:52|2023-05-21T06:40:19|00:13:27|dcc-tdunn-gpu-01|1|44|86172M||/work/minhe/alphafold|
cem125|COMPLETED|scavenger-gpu|2023-05-20T22:59:11|2023-05-22T13:11:12|1-14:12:01|dcc-gehmlab-gpu-60|1|19|50G||/hpc/group/rekerlab/cem125/OpenNMT-py|
yx240|COMPLETED|scavenger-gpu|2023-05-20T23:17:58|2023-05-22T10:31:58|1-11:14:00|dcc-youlab-gpu-55|1|10|2G||/work/yx240/project-martini/new/simutools/run-pbs|
yx240|COMPLETED|scavenger-gpu|2023-05-20T23:17:58|2023-05-22T05:32:36|1-06:14:38|dcc-youlab-gpu-30|1|10|2G||/work/yx240/project-martini/new/simutools/run-pbs|
yx240|COMPLETED|scavenger-gpu|2023-05-20T23:17:58|2023-05-22T21:09:26|1-21:51:28|dcc-youlab-gpu-16|1|10|2G||/work/yx240/project-martini/new/simutools/run-pbs|
yx240|COMPLETED|scavenger-gpu|2023-05-20T23:17:58|2023-05-22T18:21:38|1-19:03:40|dcc-youlab-gpu-14|1|10|2G||/work/yx240/project-martini/new/simutools/run-pbs|
yx240|COMPLETED|scavenger-gpu|2023-05-20T23:17:58|2023-05-23T02:03:34|2-02:45:36|dcc-youlab-gpu-13|1|10|2G||/work/yx240/project-martini/new/simutools/run-pbs|
yx240|COMPLETED|scavenger-gpu|2023-05-20T23:17:59|2023-05-22T21:57:01|1-22:39:02|dcc-youlab-gpu-12|1|10|2G||/work/yx240/project-martini/new/simutools/run-pbs|
yx240|COMPLETED|scavenger-gpu|2023-05-20T23:17:59|2023-05-22T15:37:10|1-16:19:11|dcc-youlab-gpu-10|1|10|2G||/work/yx240/project-martini/new/simutools/run-pbs|
yx240|COMPLETED|scavenger-gpu|2023-05-20T23:17:59|2023-05-22T01:10:51|1-01:52:52|dcc-youlab-gpu-09|1|10|2G||/work/yx240/project-martini/new/simutools/run-pbs|
yx240|COMPLETED|scavenger-gpu|2023-05-20T23:18:00|2023-05-22T19:36:06|1-20:18:06|dcc-youlab-gpu-08|1|10|2G||/work/yx240/project-martini/new/simutools/run-pbs|
yx240|COMPLETED|scavenger-gpu|2023-05-20T23:18:00|2023-05-22T14:23:14|1-15:05:14|dcc-youlab-gpu-07|1|10|2G||/work/yx240/project-martini/new/simutools/run-pbs|
yx240|COMPLETED|scavenger-gpu|2023-05-20T23:18:00|2023-05-24T04:40:15|3-05:22:15|dcc-youlab-gpu-05|1|10|2G||/work/yx240/project-martini/new/simutools/run-pbs|
yx240|COMPLETED|scavenger-gpu|2023-05-20T23:18:00|2023-05-23T23:19:03|3-00:01:03|dcc-youlab-gpu-03|1|10|2G||/work/yx240/project-martini/new/simutools/run-pbs|
yx240|PREEMPTED|scavenger-gpu|2023-05-20T23:23:05|2023-05-21T11:30:46|12:07:41|dcc-rekerlab-gpu-01|1|8|2G||/work/yx240/project-martini/new/simutools/run-pbs|
yx240|COMPLETED|scavenger-gpu|2023-05-20T23:23:05|2023-05-22T17:59:56|1-18:36:51|dcc-pbenfeylab-gpu-04|1|10|2G||/work/yx240/project-martini/new/simutools/run-pbs|
yx240|COMPLETED|scavenger-gpu|2023-05-20T23:23:05|2023-05-23T04:34:57|2-05:11:52|dcc-pbenfeylab-gpu-03|1|10|2G||/work/yx240/project-martini/new/simutools/run-pbs|
yx240|COMPLETED|scavenger-gpu|2023-05-20T23:23:05|2023-05-22T22:46:09|1-23:23:04|dcc-pbenfeylab-gpu-01|1|10|2G||/work/yx240/project-martini/new/simutools/run-pbs|
yx240|PREEMPTED|scavenger-gpu|2023-05-20T23:23:05|2023-05-23T15:36:10|2-16:13:05|dcc-gehmlab-gpu-58|1|19|2G||/work/yx240/project-martini/new/simutools/run-pbs|
yx240|PREEMPTED|scavenger-gpu|2023-05-20T23:23:05|2023-05-23T15:36:12|2-16:13:07|dcc-gehmlab-gpu-57|1|19|2G||/work/yx240/project-martini/new/simutools/run-pbs|
yx240|COMPLETED|scavenger-gpu|2023-05-20T23:23:05|2023-05-21T08:50:33|09:27:28|dcc-gehmlab-gpu-56|1|19|2G||/work/yx240/project-martini/new/simutools/run-pbs|
yx240|COMPLETED|scavenger-gpu|2023-05-20T23:23:05|2023-05-23T11:47:27|2-12:24:22|dcc-gehmlab-gpu-55|1|19|2G||/work/yx240/project-martini/new/simutools/run-pbs|
yx240|PREEMPTED|scavenger-gpu|2023-05-20T23:23:06|2023-05-23T15:36:12|2-16:13:06|dcc-gehmlab-gpu-54|1|19|2G||/work/yx240/project-martini/new/simutools/run-pbs|
yx240|PREEMPTED|scavenger-gpu|2023-05-20T23:23:06|2023-05-23T15:36:12|2-16:13:06|dcc-gehmlab-gpu-53|1|19|2G||/work/yx240/project-martini/new/simutools/run-pbs|
yx240|PREEMPTED|scavenger-gpu|2023-05-20T23:23:06|2023-05-23T15:36:12|2-16:13:06|dcc-gehmlab-gpu-52|1|19|2G||/work/yx240/project-martini/new/simutools/run-pbs|
yx240|COMPLETED|scavenger-gpu|2023-05-20T23:23:06|2023-05-23T10:55:57|2-11:32:51|dcc-gehmlab-gpu-51|1|19|2G||/work/yx240/project-martini/new/simutools/run-pbs|
yx240|PREEMPTED|scavenger-gpu|2023-05-20T23:23:06|2023-05-23T15:36:12|2-16:13:06|dcc-gehmlab-gpu-50|1|19|2G||/work/yx240/project-martini/new/simutools/run-pbs|
yx240|PREEMPTED|scavenger-gpu|2023-05-20T23:23:06|2023-05-23T15:36:12|2-16:13:06|dcc-gehmlab-gpu-49|1|19|2G||/work/yx240/project-martini/new/simutools/run-pbs|
yx240|PREEMPTED|scavenger-gpu|2023-05-20T23:23:06|2023-05-23T15:36:12|2-16:13:06|dcc-gehmlab-gpu-48|1|19|2G||/work/yx240/project-martini/new/simutools/run-pbs|
yx240|COMPLETED|scavenger-gpu|2023-05-20T23:23:06|2023-05-24T08:18:19|3-08:55:13|dcc-gehmlab-gpu-47|1|19|2G||/work/yx240/project-martini/new/simutools/run-pbs|
yx240|PREEMPTED|scavenger-gpu|2023-05-20T23:23:06|2023-05-23T15:36:12|2-16:13:06|dcc-gehmlab-gpu-46|1|19|2G||/work/yx240/project-martini/new/simutools/run-pbs|
yx240|COMPLETED|scavenger-gpu|2023-05-20T23:23:08|2023-05-23T08:11:52|2-08:48:44|dcc-gehmlab-gpu-45|1|19|2G||/work/yx240/project-martini/new/simutools/run-pbs|
yx240|PREEMPTED|scavenger-gpu|2023-05-20T23:23:08|2023-05-23T15:36:12|2-16:13:04|dcc-gehmlab-gpu-44|1|19|2G||/work/yx240/project-martini/new/simutools/run-pbs|
yx240|PREEMPTED|scavenger-gpu|2023-05-20T23:23:08|2023-05-23T15:36:12|2-16:13:04|dcc-gehmlab-gpu-43|1|19|2G||/work/yx240/project-martini/new/simutools/run-pbs|
yx240|PREEMPTED|scavenger-gpu|2023-05-20T23:23:08|2023-05-23T15:36:12|2-16:13:04|dcc-gehmlab-gpu-42|1|19|2G||/work/yx240/project-martini/new/simutools/run-pbs|
yx240|COMPLETED|scavenger-gpu|2023-05-20T23:23:08|2023-05-23T10:47:21|2-11:24:13|dcc-gehmlab-gpu-41|1|19|2G||/work/yx240/project-martini/new/simutools/run-pbs|
yx240|PREEMPTED|scavenger-gpu|2023-05-20T23:23:08|2023-05-23T15:36:17|2-16:13:09|dcc-gehmlab-gpu-40|1|19|2G||/work/yx240/project-martini/new/simutools/run-pbs|
yx240|PREEMPTED|scavenger-gpu|2023-05-20T23:23:08|2023-05-23T15:36:21|2-16:13:13|dcc-gehmlab-gpu-39|1|19|2G||/work/yx240/project-martini/new/simutools/run-pbs|
yx240|COMPLETED|scavenger-gpu|2023-05-20T23:23:08|2023-05-23T03:33:36|2-04:10:28|dcc-gehmlab-gpu-38|1|19|2G||/work/yx240/project-martini/new/simutools/run-pbs|
yx240|COMPLETED|scavenger-gpu|2023-05-20T23:23:08|2023-05-22T15:45:17|1-16:22:09|dcc-gehmlab-gpu-37|1|19|2G||/work/yx240/project-martini/new/simutools/run-pbs|
yx240|PREEMPTED|scavenger-gpu|2023-05-20T23:23:08|2023-05-23T15:36:24|2-16:13:16|dcc-gehmlab-gpu-36|1|19|2G||/work/yx240/project-martini/new/simutools/run-pbs|
yx240|COMPLETED|scavenger-gpu|2023-05-20T23:23:08|2023-05-23T07:10:58|2-07:47:50|dcc-gehmlab-gpu-35|1|19|2G||/work/yx240/project-martini/new/simutools/run-pbs|
yx240|PREEMPTED|scavenger-gpu|2023-05-20T23:23:08|2023-05-23T15:36:27|2-16:13:19|dcc-gehmlab-gpu-34|1|19|2G||/work/yx240/project-martini/new/simutools/run-pbs|
yx240|PREEMPTED|scavenger-gpu|2023-05-20T23:23:08|2023-05-23T15:36:31|2-16:13:23|dcc-gehmlab-gpu-33|1|19|2G||/work/yx240/project-martini/new/simutools/run-pbs|
xz284|FAILED|scavenger-gpu|2023-05-21T01:39:08|2023-05-21T05:25:58|03:46:50|dcc-carlsonlab-gpu-02|1|8|64G||/hpc/group/motesa/Risk_Aware_SCUC_Model/Prelim/CT=0_RAT=1_New/RAS-EMS_updated/beta=0.8/extreme|
xz284|CANCELLED by 1229038|scavenger-gpu|2023-05-21T01:39:08|2023-05-21T09:58:39|08:19:31|dcc-gehmlab-gpu-59|1|8|64G||/hpc/group/motesa/Risk_Aware_SCUC_Model/Prelim/CT=0_RAT=1_New/RAS-EMS_updated/beta=0.8/extreme|
xz284|FAILED|scavenger-gpu|2023-05-21T01:39:08|2023-05-21T07:14:51|05:35:43|dcc-allenlab-gpu-02|1|8|64G||/hpc/group/motesa/Risk_Aware_SCUC_Model/Prelim/CT=0_RAT=1_New/RAS-EMS_updated/beta=0.8/extreme|
xz284|FAILED|scavenger-gpu|2023-05-21T01:39:09|2023-05-21T05:20:33|03:41:24|dcc-viplab-gpu-01|1|8|64G||/hpc/group/motesa/Risk_Aware_SCUC_Model/Prelim/CT=0_RAT=1_New/RAS-EMS_updated/beta=0.8/extreme|
xz284|FAILED|scavenger-gpu|2023-05-21T01:39:43|2023-05-21T04:02:58|02:23:15|dcc-viplab-gpu-01|1|8|64G||/hpc/group/motesa/Risk_Aware_SCUC_Model/Prelim/CT=0_RAT=1_New/RAS-EMS_updated/beta=0.8/extreme|
xz284|FAILED|scavenger-gpu|2023-05-21T01:39:44|2023-05-21T04:17:04|02:37:20|dcc-brunellab-gpu-02|1|8|64G||/hpc/group/motesa/Risk_Aware_SCUC_Model/Prelim/CT=0_RAT=1_New/RAS-EMS_updated/beta=0.8/extreme|
xz284|FAILED|scavenger-gpu|2023-05-21T01:39:44|2023-05-21T06:58:25|05:18:41|dcc-brunellab-gpu-03|1|8|64G||/hpc/group/motesa/Risk_Aware_SCUC_Model/Prelim/CT=0_RAT=1_New/RAS-EMS_updated/beta=0.8/extreme|
xz284|FAILED|scavenger-gpu|2023-05-21T01:40:22|2023-05-21T05:37:32|03:57:10|dcc-brunellab-gpu-01|1|8|64G||/hpc/group/motesa/Risk_Aware_SCUC_Model/Prelim/CT=0_RAT=1_New/RAS-EMS_updated/beta=0.8/historical|
xz284|CANCELLED by 1229038|scavenger-gpu|2023-05-21T01:40:22|2023-05-21T09:58:31|08:18:09|dcc-brunellab-gpu-04|1|8|64G||/hpc/group/motesa/Risk_Aware_SCUC_Model/Prelim/CT=0_RAT=1_New/RAS-EMS_updated/beta=0.8/historical|
xz284|CANCELLED by 1229038|scavenger-gpu|2023-05-21T01:40:22|2023-05-21T09:58:34|08:18:12|dcc-biostat-gpu-02|1|8|64G||/hpc/group/motesa/Risk_Aware_SCUC_Model/Prelim/CT=0_RAT=1_New/RAS-EMS_updated/beta=0.8/historical|
xz284|FAILED|scavenger-gpu|2023-05-21T01:40:22|2023-05-21T05:22:11|03:41:49|dcc-collinslab-gpu-01|1|8|64G||/hpc/group/motesa/Risk_Aware_SCUC_Model/Prelim/CT=0_RAT=1_New/RAS-EMS_updated/beta=0.8/historical|
xz284|FAILED|scavenger-gpu|2023-05-21T01:40:23|2023-05-21T05:09:29|03:29:06|dcc-collinslab-gpu-03|1|8|64G||/hpc/group/motesa/Risk_Aware_SCUC_Model/Prelim/CT=0_RAT=1_New/RAS-EMS_updated/beta=0.8/historical|
xz284|FAILED|scavenger-gpu|2023-05-21T01:40:58|2023-05-21T07:53:35|06:12:37|dcc-dsplus-gpu-01|1|8|64G||/hpc/group/motesa/Risk_Aware_SCUC_Model/Prelim/CT=0_RAT=1_New/RAS-EMS_updated/beta=0.8/historical|
