yw564|FAILED|scavenger-gpu|2023-05-13T11:32:34|2023-05-18T03:15:49|4-15:43:15|dcc-mastatlab-gpu-01|1|2|50G||/hpc/group/jilab|
mk423|CANCELLED by 1192605|scavenger-gpu|2023-05-13T11:54:57|2023-05-16T10:46:28|2-22:51:31|dcc-biostat-gpu-01|1|12|80G||/hpc/home/mk423/Anxiety/FullDataWork/Code/Training/MultiTask|
mk423|CANCELLED by 1192605|scavenger-gpu|2023-05-13T11:54:57|2023-05-16T10:46:28|2-22:51:31|dcc-mastatlab-gpu-01|1|12|80G||/hpc/home/mk423/Anxiety/FullDataWork/Code/Training/MultiTask|
mk423|CANCELLED by 1192605|scavenger-gpu|2023-05-13T11:54:57|2023-05-16T10:46:28|2-22:51:31|dcc-ultrasound-gpu-03|1|12|80G||/hpc/home/mk423/Anxiety/FullDataWork/Code/Training/MultiTask|
mk423|CANCELLED by 1192605|scavenger-gpu|2023-05-13T11:54:58|2023-05-16T10:46:28|2-22:51:30|dcc-tdunn-gpu-02|1|12|80G||/hpc/home/mk423/Anxiety/FullDataWork/Code/Training/MultiTask|
mk423|CANCELLED by 1192605|scavenger-gpu|2023-05-13T11:54:58|2023-05-16T10:46:28|2-22:51:30|dcc-youlab-gpu-01|1|12|80G||/hpc/home/mk423/Anxiety/FullDataWork/Code/Training/MultiTask|
mk423|CANCELLED by 1192605|scavenger-gpu|2023-05-13T11:54:58|2023-05-16T10:46:28|2-22:51:30|dcc-youlab-gpu-01|1|12|80G||/hpc/home/mk423/Anxiety/FullDataWork/Code/Training/MultiTask|
mk423|CANCELLED by 1192605|scavenger-gpu|2023-05-13T11:54:58|2023-05-16T10:46:28|2-22:51:30|dcc-collinslab-gpu-01|1|12|80G||/hpc/home/mk423/Anxiety/FullDataWork/Code/Training/MultiTask|
mk423|CANCELLED by 1192605|scavenger-gpu|2023-05-13T11:54:58|2023-05-16T10:46:28|2-22:51:30|dcc-collinslab-gpu-02|1|12|80G||/hpc/home/mk423/Anxiety/FullDataWork/Code/Training/MultiTask|
mk423|CANCELLED by 1192605|scavenger-gpu|2023-05-13T14:49:28|2023-05-16T10:46:28|2-19:57:00|dcc-biostat-gpu-02|1|12|80G||/hpc/home/mk423/Anxiety/FullDataWork/Code/Training/MultiTask|
mk423|CANCELLED by 1192605|scavenger-gpu|2023-05-13T14:54:31|2023-05-16T10:46:28|2-19:51:57|dcc-brunellab-gpu-04|1|12|80G||/hpc/home/mk423/Anxiety/FullDataWork/Code/Training/MultiTask|
mk423|CANCELLED by 1192605|scavenger-gpu|2023-05-13T16:33:18|2023-05-16T10:46:28|2-18:13:10|dcc-youlab-gpu-01|1|12|80G||/hpc/home/mk423/Anxiety/FullDataWork/Code/Training/MultiTask|
mk423|CANCELLED by 1192605|scavenger-gpu|2023-05-13T18:17:21|2023-05-16T10:46:28|2-16:29:07|dcc-ultrasound-gpu-02|1|12|80G||/hpc/home/mk423/Anxiety/FullDataWork/Code/Training/MultiTask|
mk423|CANCELLED by 1192605|scavenger-gpu|2023-05-13T19:29:08|2023-05-16T10:46:28|2-15:17:20|dcc-carlsonlab-gpu-13|1|12|80G||/hpc/home/mk423/Anxiety/FullDataWork/Code/Training/MultiTask|
mk423|CANCELLED by 1192605|scavenger-gpu|2023-05-13T21:10:45|2023-05-16T10:46:28|2-13:35:43|dcc-mastatlab-gpu-01|1|12|80G||/hpc/home/mk423/Anxiety/FullDataWork/Code/Training/MultiTask|
mk423|CANCELLED by 1192605|scavenger-gpu|2023-05-13T21:25:36|2023-05-16T10:46:28|2-13:20:52|dcc-tdunn-gpu-02|1|12|80G||/hpc/home/mk423/Anxiety/FullDataWork/Code/Training/MultiTask|
mk423|CANCELLED by 1192605|scavenger-gpu|2023-05-14T00:09:06|2023-05-16T10:46:28|2-10:37:22|dcc-carlsonlab-gpu-12|1|12|80G||/hpc/home/mk423/Anxiety/FullDataWork/Code/Training/MultiTask|
mk423|CANCELLED by 1192605|scavenger-gpu|2023-05-15T09:55:37|2023-05-16T10:46:28|1-00:50:51|dcc-brunellab-gpu-01|1|12|80G||/hpc/home/mk423/Anxiety/FullDataWork/Code/Training/MultiTask|
mk423|CANCELLED by 1192605|scavenger-gpu|2023-05-15T09:55:38|2023-05-16T10:46:28|1-00:50:50|dcc-carlsonlab-gpu-01|1|12|80G||/hpc/home/mk423/Anxiety/FullDataWork/Code/Training/MultiTask|
mk423|CANCELLED by 1192605|scavenger-gpu|None|2023-05-16T10:46:28|00:00:00|None assigned|1|12|80G||/hpc/home/mk423/Anxiety/FullDataWork/Code/Training/MultiTask|
kl371|TIMEOUT|scavenger-gpu|2023-05-13T17:39:32|2023-05-16T17:39:58|3-00:00:26|dcc-youlab-gpu-23|1|8|64G||/hpc/home/kl371/ondemand/data/sys/dashboard/batch_connect/sys/bc_jupyter/output/7d7e470b-5711-4523-9bcf-90a7a1462c7b|
mk423|CANCELLED by 1192605|scavenger-gpu|None|2023-05-16T10:46:28|00:00:00|None assigned|1|12|80G||/hpc/home/mk423/Anxiety/FullDataWork/Code/Training/MultiTask|
mk423|CANCELLED by 1192605|scavenger-gpu|None|2023-05-16T10:46:28|00:00:00|None assigned|1|12|80G||/hpc/home/mk423/Anxiety/FullDataWork/Code/Training/MultiTask|
mk423|CANCELLED by 1192605|scavenger-gpu|None|2023-05-16T10:46:28|00:00:00|None assigned|1|12|80G||/hpc/home/mk423/Anxiety/FullDataWork/Code/Training/MultiTask|
mk423|CANCELLED by 1192605|scavenger-gpu|None|2023-05-16T10:46:28|00:00:00|None assigned|1|12|80G||/hpc/home/mk423/Anxiety/FullDataWork/Code/Training/MultiTask|
pkk16|TIMEOUT|scavenger-gpu|2023-05-15T10:51:37|2023-05-16T10:51:53|1-00:00:16|dcc-dsplus-gpu-01|1|2|20G||/hpc/home/pkk16/ondemand/data/sys/dashboard/batch_connect/sys/bc_jupyter/output/2b06841c-a256-4217-80d7-182abcb2b464|
lh342|PREEMPTED|scavenger-gpu|2023-05-15T13:49:29|2023-05-16T19:17:58|1-05:28:29|dcc-youlab-gpu-06|1|10|24G||/hpc/home/lh342/MMVAE|
lh342|PREEMPTED|scavenger-gpu|2023-05-15T13:52:14|2023-05-16T19:18:09|1-05:25:55|dcc-youlab-gpu-17|1|10|24G||/hpc/home/lh342/MMVAE|
kw297|PREEMPTED|scavenger-gpu|2023-05-15T14:19:51|2023-05-17T13:49:35|1-23:29:44|dcc-allenlab-gpu-01|1|4|20G||/hpc/group/ychenlab/DA|
yw564|FAILED|scavenger-gpu|2023-05-15T14:43:02|2023-05-18T03:15:50|2-12:32:48|dcc-mastatlab-gpu-01|1|2|50G||/hpc/group/jilab|
yw564|FAILED|scavenger-gpu|2023-05-15T15:37:58|2023-05-18T03:15:50|2-11:37:52|dcc-tdunn-gpu-02|1|2|50G||/hpc/group/jilab|
vk93|TIMEOUT|scavenger-gpu|2023-05-15T16:11:33|2023-05-22T16:11:51|7-00:00:18|dcc-dsplus-gpu-02|1|40|350109M||/hpc/home/vk93/ondemand/data/sys/dashboard/batch_connect/sys/bc_jupyter/output/23d4d6a9-4d03-429b-b1e0-2247cea267b4|
yl407|TIMEOUT|scavenger-gpu|2023-05-15T16:43:38|2023-05-17T16:43:59|2-00:00:21|dcc-youlab-gpu-01|1|2|150G||/hpc/home/yl407/ondemand/data/sys/dashboard/batch_connect/sys/bc_jupyter/output/b10f5cef-69cb-443a-9296-6b6825e991d1|
yl407|CANCELLED by 1099244|scavenger-gpu|2023-05-15T17:28:36|2023-05-17T17:07:18|1-23:38:42|dcc-tdunn-gpu-01|1|2|160G||/hpc/home/yl407/ondemand/data/sys/dashboard/batch_connect/sys/bc_jupyter/output/bba069dd-0809-412a-9c2c-72df0a8129eb|
lh342|PREEMPTED|scavenger-gpu|2023-05-15T18:24:33|2023-05-16T19:18:11|1-00:53:38|dcc-youlab-gpu-29|1|10|24G||/hpc/home/lh342/MMVAE|
lh342|FAILED|scavenger-gpu|2023-05-15T18:33:35|2023-05-16T19:21:08|1-00:47:33|dcc-youlab-gpu-35|1|10|24G||/hpc/home/lh342/MMVAE|
lh342|FAILED|scavenger-gpu|2023-05-15T18:38:34|2023-05-16T19:51:38|1-01:13:04|dcc-youlab-gpu-38|1|10|24G||/hpc/home/lh342/MMVAE|
lh342|FAILED|scavenger-gpu|2023-05-15T18:40:15|2023-05-16T20:05:51|1-01:25:36|dcc-youlab-gpu-53|1|10|24G||/hpc/home/lh342/MMVAE|
lh342|PREEMPTED|scavenger-gpu|2023-05-15T18:42:31|2023-05-16T21:10:28|1-02:27:57|dcc-youlab-gpu-56|1|10|24G||/hpc/home/lh342/MMVAE|
mjv22|COMPLETED|scavenger-gpu|2023-05-16T10:46:33|2023-05-16T10:50:00|00:03:27|dcc-ultrasound-gpu-03|1|19|160G||/hpc/home/mjv22/q_sim|
yx240|CANCELLED by 1495323|scavenger-gpu|2023-05-16T08:49:22|2023-05-16T09:00:48|00:11:26|dcc-youlab-gpu-57|1|10|2G||/work/yx240/project-martini/new/simutools/scripts|
yx240|CANCELLED by 1495323|scavenger-gpu|2023-05-16T08:49:22|2023-05-16T09:00:48|00:11:26|dcc-youlab-gpu-55|1|10|2G||/work/yx240/project-martini/new/simutools/scripts|
yx240|CANCELLED by 1495323|scavenger-gpu|2023-05-16T08:49:22|2023-05-16T09:00:48|00:11:26|dcc-youlab-gpu-54|1|10|2G||/work/yx240/project-martini/new/simutools/scripts|
yx240|CANCELLED by 1495323|scavenger-gpu|2023-05-16T08:49:22|2023-05-16T09:00:48|00:11:26|dcc-youlab-gpu-40|1|10|2G||/work/yx240/project-martini/new/simutools/scripts|
yx240|CANCELLED by 1495323|scavenger-gpu|2023-05-16T08:49:22|2023-05-16T09:00:48|00:11:26|dcc-youlab-gpu-39|1|10|2G||/work/yx240/project-martini/new/simutools/scripts|
yx240|CANCELLED by 1495323|scavenger-gpu|2023-05-16T08:49:22|2023-05-16T09:00:48|00:11:26|dcc-youlab-gpu-37|1|10|2G||/work/yx240/project-martini/new/simutools/scripts|
yx240|CANCELLED by 1495323|scavenger-gpu|2023-05-16T08:49:23|2023-05-16T09:00:48|00:11:25|dcc-youlab-gpu-36|1|10|2G||/work/yx240/project-martini/new/simutools/scripts|
yx240|CANCELLED by 1495323|scavenger-gpu|2023-05-16T08:49:23|2023-05-16T09:00:48|00:11:25|dcc-youlab-gpu-34|1|10|2G||/work/yx240/project-martini/new/simutools/scripts|
yx240|CANCELLED by 1495323|scavenger-gpu|2023-05-16T08:49:23|2023-05-16T09:00:48|00:11:25|dcc-youlab-gpu-33|1|10|2G||/work/yx240/project-martini/new/simutools/scripts|
yx240|CANCELLED by 1495323|scavenger-gpu|2023-05-16T08:49:23|2023-05-16T09:00:48|00:11:25|dcc-youlab-gpu-32|1|10|2G||/work/yx240/project-martini/new/simutools/scripts|
yx240|CANCELLED by 1495323|scavenger-gpu|2023-05-16T08:49:23|2023-05-16T09:00:48|00:11:25|dcc-youlab-gpu-31|1|10|2G||/work/yx240/project-martini/new/simutools/scripts|
yx240|CANCELLED by 1495323|scavenger-gpu|2023-05-16T08:49:23|2023-05-16T09:00:48|00:11:25|dcc-youlab-gpu-30|1|10|2G||/work/yx240/project-martini/new/simutools/scripts|
yx240|CANCELLED by 1495323|scavenger-gpu|2023-05-16T09:02:00|2023-05-16T09:15:58|00:13:58|dcc-youlab-gpu-57|1|10|2G||/work/yx240/project-martini/new/simutools/scripts|
yx240|CANCELLED by 1495323|scavenger-gpu|2023-05-16T09:02:00|2023-05-16T09:15:58|00:13:58|dcc-youlab-gpu-55|1|10|2G||/work/yx240/project-martini/new/simutools/scripts|
yx240|CANCELLED by 1495323|scavenger-gpu|2023-05-16T09:02:00|2023-05-16T09:15:58|00:13:58|dcc-youlab-gpu-54|1|10|2G||/work/yx240/project-martini/new/simutools/scripts|
yx240|CANCELLED by 1495323|scavenger-gpu|2023-05-16T09:02:00|2023-05-16T09:15:58|00:13:58|dcc-youlab-gpu-40|1|10|2G||/work/yx240/project-martini/new/simutools/scripts|
yx240|CANCELLED by 1495323|scavenger-gpu|2023-05-16T09:02:00|2023-05-16T09:15:58|00:13:58|dcc-youlab-gpu-39|1|10|2G||/work/yx240/project-martini/new/simutools/scripts|
yx240|CANCELLED by 1495323|scavenger-gpu|2023-05-16T09:02:00|2023-05-16T09:15:58|00:13:58|dcc-youlab-gpu-37|1|10|2G||/work/yx240/project-martini/new/simutools/scripts|
yx240|CANCELLED by 1495323|scavenger-gpu|2023-05-16T09:02:00|2023-05-16T09:15:58|00:13:58|dcc-youlab-gpu-36|1|10|2G||/work/yx240/project-martini/new/simutools/scripts|
yx240|CANCELLED by 1495323|scavenger-gpu|2023-05-16T09:02:00|2023-05-16T09:15:58|00:13:58|dcc-youlab-gpu-34|1|10|2G||/work/yx240/project-martini/new/simutools/scripts|
yx240|CANCELLED by 1495323|scavenger-gpu|2023-05-16T09:02:00|2023-05-16T09:15:58|00:13:58|dcc-youlab-gpu-33|1|10|2G||/work/yx240/project-martini/new/simutools/scripts|
yx240|CANCELLED by 1495323|scavenger-gpu|2023-05-16T09:02:00|2023-05-16T09:15:58|00:13:58|dcc-youlab-gpu-32|1|10|2G||/work/yx240/project-martini/new/simutools/scripts|
yx240|CANCELLED by 1495323|scavenger-gpu|2023-05-16T09:02:00|2023-05-16T09:15:58|00:13:58|dcc-youlab-gpu-31|1|10|2G||/work/yx240/project-martini/new/simutools/scripts|
yx240|CANCELLED by 1495323|scavenger-gpu|2023-05-16T09:02:00|2023-05-16T09:15:58|00:13:58|dcc-youlab-gpu-30|1|10|2G||/work/yx240/project-martini/new/simutools/scripts|
cem125|COMPLETED|scavenger-gpu|2023-05-16T09:22:42|2023-05-16T09:35:00|00:12:18|dcc-youlab-gpu-57|1|10|50G||/hpc/group/rekerlab/cem125/OpenNMT-py|
yx240|CANCELLED by 1495323|scavenger-gpu|2023-05-16T09:37:54|2023-05-16T09:38:06|00:00:12|dcc-youlab-gpu-57|1|10|2G||/work/yx240/project-martini/new/simutools/scripts|
yx240|COMPLETED|scavenger-gpu|2023-05-16T09:38:24|2023-05-16T10:04:29|00:26:05|dcc-youlab-gpu-57|1|10|2G||/work/yx240/project-martini/new/simutools/scripts|
yx240|COMPLETED|scavenger-gpu|2023-05-16T09:38:24|2023-05-16T10:10:12|00:31:48|dcc-youlab-gpu-55|1|10|2G||/work/yx240/project-martini/new/simutools/scripts|
yx240|COMPLETED|scavenger-gpu|2023-05-16T09:38:24|2023-05-16T10:20:13|00:41:49|dcc-youlab-gpu-54|1|10|2G||/work/yx240/project-martini/new/simutools/scripts|
yx240|COMPLETED|scavenger-gpu|2023-05-16T09:38:24|2023-05-16T10:21:36|00:43:12|dcc-youlab-gpu-40|1|10|2G||/work/yx240/project-martini/new/simutools/scripts|
yx240|COMPLETED|scavenger-gpu|2023-05-16T09:38:24|2023-05-16T09:45:29|00:07:05|dcc-youlab-gpu-39|1|10|2G||/work/yx240/project-martini/new/simutools/scripts|
yx240|COMPLETED|scavenger-gpu|2023-05-16T09:38:24|2023-05-16T10:54:46|01:16:22|dcc-youlab-gpu-37|1|10|2G||/work/yx240/project-martini/new/simutools/scripts|
yx240|COMPLETED|scavenger-gpu|2023-05-16T09:38:24|2023-05-16T10:13:22|00:34:58|dcc-youlab-gpu-36|1|10|2G||/work/yx240/project-martini/new/simutools/scripts|
yx240|COMPLETED|scavenger-gpu|2023-05-16T09:38:24|2023-05-16T10:14:30|00:36:06|dcc-youlab-gpu-34|1|10|2G||/work/yx240/project-martini/new/simutools/scripts|
yx240|COMPLETED|scavenger-gpu|2023-05-16T09:38:24|2023-05-16T10:09:11|00:30:47|dcc-youlab-gpu-33|1|10|2G||/work/yx240/project-martini/new/simutools/scripts|
yx240|COMPLETED|scavenger-gpu|2023-05-16T09:38:24|2023-05-16T10:20:13|00:41:49|dcc-youlab-gpu-32|1|10|2G||/work/yx240/project-martini/new/simutools/scripts|
yx240|COMPLETED|scavenger-gpu|2023-05-16T09:38:24|2023-05-16T10:26:12|00:47:48|dcc-youlab-gpu-31|1|10|2G||/work/yx240/project-martini/new/simutools/scripts|
yx240|COMPLETED|scavenger-gpu|2023-05-16T09:38:25|2023-05-16T10:39:13|01:00:48|dcc-youlab-gpu-30|1|10|2G||/work/yx240/project-martini/new/simutools/scripts|
cem125|FAILED|scavenger-gpu|2023-05-16T09:39:25|2023-05-16T09:46:16|00:06:51|dcc-youlab-gpu-28|1|10|50G||/hpc/group/rekerlab/cem125/OpenNMT-py|
cem125|COMPLETED|scavenger-gpu|2023-05-16T09:48:02|2023-05-16T09:54:43|00:06:41|dcc-youlab-gpu-39|1|10|50G||/hpc/group/rekerlab/cem125/OpenNMT-py|
yx240|COMPLETED|scavenger-gpu|2023-05-16T09:52:35|2023-05-16T09:52:45|00:00:10|dcc-youlab-gpu-28|1|10|2G||/work/yx240/project-martini/new/simutools/scripts|
yx240|COMPLETED|scavenger-gpu|2023-05-16T09:53:06|2023-05-16T10:08:36|00:15:30|dcc-youlab-gpu-28|1|10|2G||/work/yx240/project-martini/new/simutools/scripts|
cem125|PREEMPTED|scavenger-gpu|2023-05-16T09:59:10|2023-05-16T21:10:33|11:11:23|dcc-youlab-gpu-39|1|10|50G||/hpc/group/rekerlab/cem125/OpenNMT-py|
cem125|CANCELLED by 1491193|scavenger-gpu|2023-05-16T10:00:11|2023-05-16T10:03:09|00:02:58|dcc-youlab-gpu-27|1|10|50G||/hpc/group/rekerlab/cem125/OpenNMT-py|
cem125|PREEMPTED|scavenger-gpu|2023-05-16T10:00:11|2023-05-16T21:10:38|11:10:27|dcc-youlab-gpu-26|1|10|50G||/hpc/group/rekerlab/cem125/OpenNMT-py|
cem125|CANCELLED by 1491193|scavenger-gpu|2023-05-16T10:00:11|2023-05-16T10:01:13|00:01:02|dcc-youlab-gpu-25|1|10|50G||/hpc/group/rekerlab/cem125/OpenNMT-py|
