pb183|COMPLETED|scavenger-gpu|2023-06-04T04:49:09|2023-06-06T17:36:56|2-12:47:47|dcc-youlab-gpu-55|1|10|96G||/hpc/group/ldefratelab/Patrick/Cartilage_ML_3D|
pb183|COMPLETED|scavenger-gpu|2023-06-04T07:51:30|2023-06-06T15:15:23|2-07:23:53|dcc-youlab-gpu-40|1|10|96G||/hpc/group/ldefratelab/Patrick/Cartilage_ML_3D|
pb183|COMPLETED|scavenger-gpu|2023-06-05T02:39:16|2023-06-07T06:14:21|2-03:35:05|dcc-youlab-gpu-16|1|10|96G||/hpc/group/ldefratelab/Patrick/Cartilage_ML_3D|
pb183|COMPLETED|scavenger-gpu|2023-06-05T14:42:59|2023-06-06T21:42:04|1-06:59:05|dcc-youlab-gpu-34|1|10|96G||/hpc/group/ldefratelab/Patrick/Cartilage_ML_3D|
pb183|COMPLETED|scavenger-gpu|2023-06-05T15:33:38|2023-06-06T21:07:42|1-05:34:04|dcc-youlab-gpu-35|1|10|96G||/hpc/group/ldefratelab/Patrick/Cartilage_ML_3D|
pb183|COMPLETED|scavenger-gpu|2023-06-05T15:42:00|2023-06-07T17:45:02|2-02:03:02|dcc-youlab-gpu-42|1|10|96G||/hpc/group/ldefratelab/Patrick/Cartilage_ML_3D|
pb183|COMPLETED|scavenger-gpu|2023-06-05T18:30:36|2023-06-08T00:16:19|2-05:45:43|dcc-youlab-gpu-44|1|10|96G||/hpc/group/ldefratelab/Patrick/Cartilage_ML_3D|
pb183|COMPLETED|scavenger-gpu|2023-06-05T21:31:06|2023-06-07T01:34:10|1-04:03:04|dcc-youlab-gpu-43|1|10|96G||/hpc/group/ldefratelab/Patrick/Cartilage_ML_3D|
pb183|COMPLETED|scavenger-gpu|2023-06-05T21:36:31|2023-06-06T17:44:55|20:08:24|dcc-youlab-gpu-41|1|10|96G||/hpc/group/ldefratelab/Patrick/Cartilage_ML_3D|
pb183|COMPLETED|scavenger-gpu|2023-06-06T01:20:55|2023-06-07T13:15:44|1-11:54:49|dcc-youlab-gpu-36|1|10|96G||/hpc/group/ldefratelab/Patrick/Cartilage_ML_3D|
pb183|COMPLETED|scavenger-gpu|2023-06-06T01:23:28|2023-06-08T09:11:43|2-07:48:15|dcc-youlab-gpu-38|1|10|96G||/hpc/group/ldefratelab/Patrick/Cartilage_ML_3D|
pb183|COMPLETED|scavenger-gpu|2023-06-06T04:29:02|2023-06-07T15:50:50|1-11:21:48|dcc-youlab-gpu-37|1|10|96G||/hpc/group/ldefratelab/Patrick/Cartilage_ML_3D|
pb183|COMPLETED|scavenger-gpu|2023-06-06T06:31:23|2023-06-07T06:45:57|1-00:14:34|dcc-youlab-gpu-53|1|10|96G||/hpc/group/ldefratelab/Patrick/Cartilage_ML_3D|
pb183|COMPLETED|scavenger-gpu|2023-06-06T07:10:28|2023-06-07T10:06:37|1-02:56:09|dcc-youlab-gpu-33|1|10|96G||/hpc/group/ldefratelab/Patrick/Cartilage_ML_3D|
pb183|COMPLETED|scavenger-gpu|2023-06-06T09:42:27|2023-06-08T06:15:23|1-20:32:56|dcc-ultrasound-gpu-02|1|19|96G||/hpc/group/ldefratelab/Patrick/Cartilage_ML_3D|
pb183|FAILED|scavenger-gpu|2023-06-06T15:15:24|2023-06-06T15:16:47|00:01:23|dcc-youlab-gpu-40|1|10|96G||/hpc/group/ldefratelab/Patrick/Cartilage_ML_3D|
pb183|COMPLETED|scavenger-gpu|2023-06-06T15:16:49|2023-06-06T17:24:38|02:07:49|dcc-youlab-gpu-40|1|10|96G||/hpc/group/ldefratelab/Patrick/Cartilage_ML_3D|
pb183|COMPLETED|scavenger-gpu|2023-06-06T17:24:38|2023-06-06T19:37:14|02:12:36|dcc-youlab-gpu-40|1|10|96G||/hpc/group/ldefratelab/Patrick/Cartilage_ML_3D|
pb183|COMPLETED|scavenger-gpu|2023-06-06T17:36:57|2023-06-06T19:51:49|02:14:52|dcc-youlab-gpu-55|1|10|96G||/hpc/group/ldefratelab/Patrick/Cartilage_ML_3D|
pb183|FAILED|scavenger-gpu|2023-06-06T17:44:55|2023-06-06T17:46:35|00:01:40|dcc-youlab-gpu-41|1|10|96G||/hpc/group/ldefratelab/Patrick/Cartilage_ML_3D|
pb183|COMPLETED|scavenger-gpu|2023-06-06T17:46:35|2023-06-06T19:58:17|02:11:42|dcc-youlab-gpu-41|1|10|96G||/hpc/group/ldefratelab/Patrick/Cartilage_ML_3D|
pb183|COMPLETED|scavenger-gpu|2023-06-06T19:37:14|2023-06-06T21:51:18|02:14:04|dcc-youlab-gpu-40|1|10|96G||/hpc/group/ldefratelab/Patrick/Cartilage_ML_3D|
pb183|COMPLETED|scavenger-gpu|2023-06-06T19:51:49|2023-06-06T22:08:05|02:16:16|dcc-youlab-gpu-55|1|10|96G||/hpc/group/ldefratelab/Patrick/Cartilage_ML_3D|
pb183|FAILED|scavenger-gpu|2023-06-06T19:58:18|2023-06-06T19:59:39|00:01:21|dcc-youlab-gpu-41|1|10|96G||/hpc/group/ldefratelab/Patrick/Cartilage_ML_3D|
pb183|COMPLETED|scavenger-gpu|2023-06-06T19:59:39|2023-06-06T21:48:46|01:49:07|dcc-youlab-gpu-41|1|10|96G||/hpc/group/ldefratelab/Patrick/Cartilage_ML_3D|
pb183|FAILED|scavenger-gpu|2023-06-06T21:07:43|2023-06-06T21:10:07|00:02:24|dcc-youlab-gpu-35|1|10|96G||/hpc/group/ldefratelab/Patrick/Cartilage_ML_3D|
pb183|COMPLETED|scavenger-gpu|2023-06-06T21:10:07|2023-06-06T22:54:27|01:44:20|dcc-youlab-gpu-35|1|10|96G||/hpc/group/ldefratelab/Patrick/Cartilage_ML_3D|
pb183|FAILED|scavenger-gpu|2023-06-06T21:42:04|2023-06-06T21:43:29|00:01:25|dcc-youlab-gpu-34|1|10|96G||/hpc/group/ldefratelab/Patrick/Cartilage_ML_3D|
pb183|COMPLETED|scavenger-gpu|2023-06-06T21:43:30|2023-06-06T23:38:56|01:55:26|dcc-youlab-gpu-34|1|10|96G||/hpc/group/ldefratelab/Patrick/Cartilage_ML_3D|
pb183|FAILED|scavenger-gpu|2023-06-06T21:48:47|2023-06-06T21:50:58|00:02:11|dcc-youlab-gpu-41|1|10|96G||/hpc/group/ldefratelab/Patrick/Cartilage_ML_3D|
pb183|COMPLETED|scavenger-gpu|2023-06-06T21:51:00|2023-06-08T11:44:13|1-13:53:13|dcc-youlab-gpu-41|1|10|96G||/hpc/group/ldefratelab/Patrick/Cartilage_ML_3D|
pb183|FAILED|scavenger-gpu|2023-06-06T21:51:18|2023-06-06T21:52:51|00:01:33|dcc-youlab-gpu-40|1|10|96G||/hpc/group/ldefratelab/Patrick/Cartilage_ML_3D|
pb183|COMPLETED|scavenger-gpu|2023-06-06T21:52:51|2023-06-07T02:24:42|04:31:51|dcc-youlab-gpu-40|1|10|96G||/hpc/group/ldefratelab/Patrick/Cartilage_ML_3D|
pb183|FAILED|scavenger-gpu|2023-06-06T22:08:05|2023-06-06T22:12:34|00:04:29|dcc-ultrasound-gpu-01|1|19|96G||/hpc/group/ldefratelab/Patrick/Cartilage_ML_3D|
pb183|COMPLETED|scavenger-gpu|2023-06-06T22:12:34|2023-06-07T02:29:53|04:17:19|dcc-youlab-gpu-55|1|10|96G||/hpc/group/ldefratelab/Patrick/Cartilage_ML_3D|
pb183|FAILED|scavenger-gpu|2023-06-06T22:54:27|2023-06-06T22:56:15|00:01:48|dcc-youlab-gpu-35|1|10|96G||/hpc/group/ldefratelab/Patrick/Cartilage_ML_3D|
pb183|COMPLETED|scavenger-gpu|2023-06-06T22:56:15|2023-06-09T02:11:05|2-03:14:50|dcc-youlab-gpu-35|1|10|96G||/hpc/group/ldefratelab/Patrick/Cartilage_ML_3D|
pb183|FAILED|scavenger-gpu|2023-06-06T23:38:57|2023-06-06T23:44:01|00:05:04|dcc-youlab-gpu-34|1|10|96G||/hpc/group/ldefratelab/Patrick/Cartilage_ML_3D|
pb183|COMPLETED|scavenger-gpu|2023-06-06T23:44:02|2023-06-07T04:19:52|04:35:50|dcc-youlab-gpu-34|1|10|96G||/hpc/group/ldefratelab/Patrick/Cartilage_ML_3D|
vk93|TIMEOUT|scavenger-gpu|2023-05-31T22:34:58|2023-06-07T22:35:23|7-00:00:25|dcc-dsplus-gpu-02|1|40|350109M||/hpc/home/vk93/ondemand/data/sys/dashboard/batch_connect/sys/bc_jupyter/output/8ef6e1c5-29a3-4b2f-9caf-67c9017f6f0a|
yw564|TIMEOUT|scavenger-gpu|2023-06-03T03:27:20|2023-06-10T03:27:20|7-00:00:00|dcc-youlab-gpu-01|1|2|50G||/hpc/group/jilab|
yw564|TIMEOUT|scavenger-gpu|2023-06-03T14:43:42|2023-06-10T14:43:47|7-00:00:05|dcc-youlab-gpu-01|1|2|50G||/hpc/group/jilab|
cem125|COMPLETED|scavenger-gpu|2023-06-04T14:20:25|2023-06-10T22:27:31|6-08:07:06|dcc-youlab-gpu-07|1|10|50G||/hpc/group/rekerlab/cem125/OpenNMT-py|
jrl78|FAILED|scavenger-gpu|2023-06-04T23:07:59|2023-06-06T22:56:53|1-23:48:54|dcc-dsplus-gpu-09|1|19|2G||/work/jrl78/Nanoparticles/JawBreakers/Different Partial Charges/EEM Full Library/round3_pKaStuff|
bgb13|FAILED|scavenger-gpu|2023-06-05T09:11:20|2023-06-08T11:31:17|3-02:19:57|dcc-dsplus-gpu-10|1|16|10G||/hpc/group/dukenmr/bgb13/cyp51b_phosphorylated_S123/./.|
cem125|TIMEOUT|scavenger-gpu|2023-06-05T10:13:16|2023-06-12T10:13:24|7-00:00:08|dcc-youlab-gpu-32|1|10|50G||/hpc/group/rekerlab/cem125/OpenNMT-py|
jrl78|FAILED|scavenger-gpu|2023-06-05T10:13:26|2023-06-07T01:59:52|1-15:46:26|dcc-dsplus-gpu-06|1|19|2G||/work/jrl78/Nanoparticles/JawBreakers/Different Partial Charges/EEM Full Library/round3_pKaStuff|
jrl78|FAILED|scavenger-gpu|2023-06-05T10:13:26|2023-06-07T02:10:08|1-15:56:42|dcc-dsplus-gpu-05|1|19|2G||/work/jrl78/Nanoparticles/JawBreakers/Different Partial Charges/EEM Full Library/round3_pKaStuff|
bgb13|TIMEOUT|scavenger-gpu|2023-06-05T10:13:30|2023-06-12T10:13:55|7-00:00:25|dcc-carlsonlab-gpu-16|1|16|10G||/hpc/group/dukenmr/bgb13/AAV12/./.|
pb183|COMPLETED|scavenger-gpu|2023-06-07T01:34:10|2023-06-08T01:44:11|1-00:10:01|dcc-youlab-gpu-43|1|10|96G||/hpc/group/ldefratelab/Patrick/Cartilage_ML_3D|
pb183|COMPLETED|scavenger-gpu|2023-06-07T02:25:03|2023-06-07T11:07:37|08:42:34|dcc-youlab-gpu-40|1|10|96G||/hpc/group/ldefratelab/Patrick/Cartilage_ML_3D|
pb183|COMPLETED|scavenger-gpu|2023-06-07T04:20:12|2023-06-08T00:05:57|19:45:45|dcc-youlab-gpu-34|1|10|96G||/hpc/group/ldefratelab/Patrick/Cartilage_ML_3D|
yk206|COMPLETED|scavenger-gpu|2023-06-05T13:55:55|2023-06-06T12:54:08|22:58:13|dcc-carlsonlab-gpu-17|1|10|24G||/hpc/home/yk206/script/face_download|
minhe|PREEMPTED|scavenger-gpu|2023-06-05T16:41:47|2023-06-12T13:09:02|6-20:27:15|dcc-ultrasound-gpu-03|1|19|150692M||/work/minhe/alphafold|
yk206|COMPLETED|scavenger-gpu|2023-06-05T22:14:03|2023-06-06T17:03:24|18:49:21|dcc-carlsonlab-gpu-20|1|10|24G||/hpc/home/yk206/script/face_download|
yk206|OUT_OF_MEMORY|scavenger-gpu|2023-06-05T22:14:03|2023-06-07T00:09:23|1-01:55:20|dcc-youlab-gpu-05|1|10|24G||/hpc/home/yk206/script/face_download|
yk206|COMPLETED|scavenger-gpu|2023-06-05T22:14:05|2023-06-06T21:57:23|23:43:18|dcc-pbenfeylab-gpu-02|1|10|24G||/hpc/home/yk206/script/face_download|
yk206|COMPLETED|scavenger-gpu|2023-06-05T22:14:05|2023-06-06T17:16:36|19:02:31|dcc-pbenfeylab-gpu-03|1|10|24G||/hpc/home/yk206/script/face_download|
yk206|OUT_OF_MEMORY|scavenger-gpu|2023-06-05T22:14:05|2023-06-06T19:57:30|21:43:25|dcc-biostat-gpu-02|1|22|24G||/hpc/home/yk206/script/face_download|
yk206|OUT_OF_MEMORY|scavenger-gpu|2023-06-05T22:14:05|2023-06-06T16:01:09|17:47:04|dcc-mastatlab-gpu-01|1|44|24G||/hpc/home/yk206/script/face_download|
yx240|COMPLETED|scavenger-gpu|2023-06-05T23:13:06|2023-06-07T23:20:32|2-00:07:26|dcc-youlab-gpu-31|1|10|2G||/work/yx240/project-martini/simutools/scripts|
yx240|COMPLETED|scavenger-gpu|2023-06-05T23:13:06|2023-06-07T21:43:09|1-22:30:03|dcc-youlab-gpu-19|1|10|2G||/work/yx240/project-martini/simutools/scripts|
yx240|COMPLETED|scavenger-gpu|2023-06-05T23:13:06|2023-06-07T20:52:41|1-21:39:35|dcc-youlab-gpu-12|1|10|2G||/work/yx240/project-martini/simutools/scripts|
yx240|COMPLETED|scavenger-gpu|2023-06-05T23:13:06|2023-06-08T10:09:37|2-10:56:31|dcc-youlab-gpu-10|1|10|2G||/work/yx240/project-martini/simutools/scripts|
yx240|COMPLETED|scavenger-gpu|2023-06-05T23:13:06|2023-06-08T08:43:08|2-09:30:02|dcc-youlab-gpu-09|1|10|2G||/work/yx240/project-martini/simutools/scripts|
yx240|COMPLETED|scavenger-gpu|2023-06-05T23:15:39|2023-06-06T20:12:51|20:57:12|dcc-youlab-gpu-08|1|10|2G||/work/yx240/project-martini/simutools/metad|
yx240|COMPLETED|scavenger-gpu|2023-06-05T23:15:39|2023-06-06T17:43:29|18:27:50|dcc-rekerlab-gpu-01|1|8|2G||/work/yx240/project-martini/simutools/metad|
yx240|COMPLETED|scavenger-gpu|2023-06-05T23:15:39|2023-06-06T19:08:21|19:52:42|dcc-motesa-gpu-04|1|6|2G||/work/yx240/project-martini/simutools/metad|
yx240|COMPLETED|scavenger-gpu|2023-06-06T08:13:58|2023-06-08T00:41:51|1-16:27:53|dcc-youlab-gpu-30|1|10|2G||/work/yx240/project-martini/simutools/scripts|
yx240|COMPLETED|scavenger-gpu|2023-06-06T08:13:59|2023-06-07T00:54:58|16:40:59|dcc-youlab-gpu-29|1|10|2G||/work/yx240/project-martini/simutools/scripts|
yx240|COMPLETED|scavenger-gpu|2023-06-06T08:13:59|2023-06-07T02:20:56|18:06:57|dcc-youlab-gpu-28|1|10|2G||/work/yx240/project-martini/simutools/scripts|
yx240|COMPLETED|scavenger-gpu|2023-06-06T08:13:59|2023-06-07T09:52:28|1-01:38:29|dcc-youlab-gpu-23|1|10|2G||/work/yx240/project-martini/simutools/scripts|
yx240|COMPLETED|scavenger-gpu|2023-06-06T08:14:03|2023-06-07T12:17:26|1-04:03:23|dcc-youlab-gpu-21|1|10|2G||/work/yx240/project-martini/simutools/scripts|
yx240|COMPLETED|scavenger-gpu|2023-06-06T08:14:06|2023-06-07T03:33:10|19:19:04|dcc-youlab-gpu-18|1|10|2G||/work/yx240/project-martini/simutools/scripts|
yx240|COMPLETED|scavenger-gpu|2023-06-06T08:14:07|2023-06-06T23:39:39|15:25:32|dcc-youlab-gpu-15|1|10|2G||/work/yx240/project-martini/simutools/scripts|
yx240|COMPLETED|scavenger-gpu|2023-06-06T08:14:07|2023-06-07T15:21:05|1-07:06:58|dcc-youlab-gpu-14|1|10|2G||/work/yx240/project-martini/simutools/scripts|
yx240|CANCELLED by 1495323|scavenger-gpu|2023-06-06T08:14:07|2023-06-08T12:31:56|2-04:17:49|dcc-youlab-gpu-13|1|10|2G||/work/yx240/project-martini/simutools/scripts|
yx240|CANCELLED by 1495323|scavenger-gpu|2023-06-06T08:14:07|2023-06-08T12:31:56|2-04:17:49|dcc-youlab-gpu-04|1|10|2G||/work/yx240/project-martini/simutools/scripts|
yx240|COMPLETED|scavenger-gpu|2023-06-06T08:14:07|2023-06-08T09:48:25|2-01:34:18|dcc-youlab-gpu-03|1|10|2G||/work/yx240/project-martini/simutools/scripts|
dcs67|COMPLETED|scavenger-gpu|2023-06-06T08:27:16|2023-06-06T12:28:08|04:00:52|dcc-pbenfeylab-gpu-01|1|8|64G||/hpc/home/dcs67|
yk206|PREEMPTED|scavenger-gpu|2023-06-06T08:51:23|2023-06-06T13:13:43|04:22:20|dcc-vossenlab-gpu-01|1|10|24G||/hpc/home/yk206/script/face_download|
yk206|COMPLETED|scavenger-gpu|2023-06-06T08:45:43|2023-06-06T16:38:08|07:52:25|dcc-carlsonlab-gpu-18|1|10|24G||/hpc/home/yk206/script/face_download|
yk206|OUT_OF_MEMORY|scavenger-gpu|2023-06-06T08:45:43|2023-06-07T00:47:43|16:02:00|dcc-carlsonlab-gpu-19|1|10|24G||/hpc/home/yk206/script/face_download|
yk206|OUT_OF_MEMORY|scavenger-gpu|2023-06-06T08:45:43|2023-06-06T20:31:06|11:45:23|dcc-allenlab-gpu-02|1|10|24G||/hpc/home/yk206/script/face_download|
yk206|OUT_OF_MEMORY|scavenger-gpu|2023-06-06T08:45:43|2023-06-06T18:50:32|10:04:49|dcc-allenlab-gpu-03|1|10|24G||/hpc/home/yk206/script/face_download|
yk206|COMPLETED|scavenger-gpu|2023-06-06T08:45:45|2023-06-06T19:44:43|10:58:58|dcc-allenlab-gpu-04|1|10|24G||/hpc/home/yk206/script/face_download|
yk206|PREEMPTED|scavenger-gpu|2023-06-06T08:45:45|2023-06-06T15:11:14|06:25:29|dcc-tdunn-gpu-01|1|44|24G||/hpc/home/yk206/script/face_download|
yk206|OUT_OF_MEMORY|scavenger-gpu|2023-06-06T08:45:45|2023-06-07T22:28:14|1-13:42:29|dcc-tdunn-gpu-02|1|44|24G||/hpc/home/yk206/script/face_download|
yk206|COMPLETED|scavenger-gpu|2023-06-06T08:45:45|2023-06-06T16:29:07|07:43:22|dcc-fanglab-gpu-01|1|100|24G||/hpc/home/yk206/script/face_download|
yk206|OUT_OF_MEMORY|scavenger-gpu|2023-06-06T09:14:44|2023-06-06T23:43:45|14:29:01|dcc-biostat-gpu-01|1|22|24G||/hpc/home/yk206/script/face_download|
yk206|OUT_OF_MEMORY|scavenger-gpu|2023-06-06T09:33:53|2023-06-06T22:41:32|13:07:39|dcc-youlab-gpu-02|1|10|24G||/hpc/home/yk206/script/face_download|
yk206|OUT_OF_MEMORY|scavenger-gpu|2023-06-06T08:50:43|2023-06-06T22:51:59|14:01:16|dcc-vossenlab-gpu-03|1|10|24G||/hpc/home/yk206/script/face_download|
yk206|COMPLETED|scavenger-gpu|2023-06-06T09:34:27|2023-06-06T18:54:15|09:19:48|dcc-viplab-gpu-01|1|92|24G||/hpc/home/yk206/script/face_download|
yk206|COMPLETED|scavenger-gpu|2023-06-06T10:19:21|2023-06-06T19:40:13|09:20:52|dcc-youlab-gpu-11|1|10|24G||/hpc/home/yk206/script/face_download|
yk206|PREEMPTED|scavenger-gpu|2023-06-06T10:09:21|2023-06-07T09:43:09|23:33:48|dcc-vossenlab-gpu-02|1|10|24G||/hpc/home/yk206/script/face_download|
yk206|COMPLETED|scavenger-gpu|2023-06-06T10:29:13|2023-06-07T01:02:00|14:32:47|dcc-youlab-gpu-27|1|10|24G||/hpc/home/yk206/script/face_download|
yk206|OUT_OF_MEMORY|scavenger-gpu|2023-06-06T12:28:15|2023-06-06T22:25:48|09:57:33|dcc-pbenfeylab-gpu-01|1|10|24G||/hpc/home/yk206/script/face_download|
yk206|COMPLETED|scavenger-gpu|2023-06-06T11:09:01|2023-06-07T01:08:02|13:59:01|dcc-youlab-gpu-24|1|10|24G||/hpc/home/yk206/script/face_download|
yk206|OUT_OF_MEMORY|scavenger-gpu|2023-06-06T12:43:29|2023-06-06T22:59:05|10:15:36|dcc-vossenlab-gpu-04|1|10|24G||/hpc/home/yk206/script/face_download|
yk206|COMPLETED|scavenger-gpu|2023-06-06T12:45:30|2023-06-07T00:06:22|11:20:52|dcc-allenlab-gpu-01|1|10|24G||/hpc/home/yk206/script/face_download|
yk206|COMPLETED|scavenger-gpu|2023-06-06T12:54:08|2023-06-07T04:38:57|15:44:49|dcc-carlsonlab-gpu-17|1|10|24G||/hpc/home/yk206/script/face_download|
isd8|TIMEOUT|scavenger-gpu|2023-06-06T09:11:43|2023-06-06T12:12:08|03:00:25|dcc-motesa-gpu-02|1|4|16G||/hpc/home/isd8/ondemand/data/sys/dashboard/batch_connect/sys/bc_jupyter_codeplus2023/output/b4675fd7-9404-48ff-aea6-dc7fbb1cb835|
el229|TIMEOUT|scavenger-gpu|2023-06-06T09:17:40|2023-06-06T12:18:08|03:00:28|dcc-dsplus-gpu-03|1|8|24G||/hpc/home/el229/ondemand/data/sys/dashboard/batch_connect/sys/bc_jupyter_codeplus2023/output/1bbc5238-af41-4911-94dd-c5e4ddd5d10b|
meg126|TIMEOUT|scavenger-gpu|2023-06-06T09:22:40|2023-06-06T12:22:40|03:00:00|dcc-dsplus-gpu-04|1|8|24G||/hpc/home/meg126/ondemand/data/sys/dashboard/batch_connect/sys/bc_jupyter_codeplus2023/output/0b2ffeb1-6287-4739-b242-997034207676|
tnc23|TIMEOUT|scavenger-gpu|2023-06-06T09:31:08|2023-06-06T12:31:18|03:00:10|dcc-mainsahlab-gpu-01|1|2|24G||/hpc/home/tnc23/ondemand/data/sys/dashboard/batch_connect/sys/bc_jupyter_codeplus2023/output/6f712820-e150-4efd-bdaa-75a5539ff432|
pb183|COMPLETED|scavenger-gpu|2023-06-07T02:30:08|2023-06-07T17:55:14|15:25:06|dcc-youlab-gpu-55|1|10|96G||/hpc/group/ldefratelab/Patrick/Cartilage_ML_3D|
yk206|COMPLETED|scavenger-gpu|2023-06-06T16:01:13|2023-06-08T16:39:30|2-00:38:17|dcc-mastatlab-gpu-01|1|44|24G||/hpc/home/yk206/script/face_download|
pk231|TIMEOUT|scavenger-gpu|2023-06-06T09:56:41|2023-06-06T12:56:59|03:00:18|dcc-ultrasound-gpu-01|1|8|24G||/hpc/home/pk231/ondemand/data/sys/dashboard/batch_connect/sys/bc_jupyter_codeplus2023/output/4d813de9-c01e-46b3-a126-0b5860feaf83|
lyc15|TIMEOUT|scavenger-gpu|2023-06-06T10:09:50|2023-06-06T12:10:08|02:00:18|dcc-dsplus-gpu-07|1|8|24G||/hpc/home/lyc15/ondemand/data/sys/dashboard/batch_connect/sys/bc_jupyter_codeplus2023/output/8cfca60d-d0d3-4979-aa74-2424ff9c4a9a|
bgb13|TIMEOUT|scavenger-gpu|2023-06-06T11:26:06|2023-06-13T11:26:35|7-00:00:29|dcc-dsplus-gpu-08|1|16|10G||/hpc/group/dukenmr/bgb13/cyp51b_phosphorylated_S451/./.|
yw522|FAILED|scavenger-gpu|2023-06-06T11:38:14|2023-06-06T13:05:15|01:27:01|dcc-dsplus-gpu-01|1|16|300G||/datacommons/ydiaolab/diaolab_group/YuanWang|
yx240|COMPLETED|scavenger-gpu|2023-06-06T11:58:44|2023-06-06T15:08:41|03:09:57|dcc-gehmlab-gpu-58|1|19|2G||/work/yx240/project-martini/simutools/metad|
yx240|COMPLETED|scavenger-gpu|2023-06-06T11:58:44|2023-06-06T15:26:40|03:27:56|dcc-gehmlab-gpu-57|1|19|2G||/work/yx240/project-martini/simutools/metad|
yx240|COMPLETED|scavenger-gpu|2023-06-06T11:58:44|2023-06-06T17:28:57|05:30:13|dcc-gehmlab-gpu-56|1|19|2G||/work/yx240/project-martini/simutools/metad|
yx240|COMPLETED|scavenger-gpu|2023-06-06T11:58:44|2023-06-06T16:04:03|04:05:19|dcc-gehmlab-gpu-55|1|19|2G||/work/yx240/project-martini/simutools/metad|
yx240|COMPLETED|scavenger-gpu|2023-06-06T11:58:44|2023-06-06T17:50:56|05:52:12|dcc-gehmlab-gpu-54|1|19|2G||/work/yx240/project-martini/simutools/metad|
yx240|COMPLETED|scavenger-gpu|2023-06-06T11:58:44|2023-06-06T16:15:38|04:16:54|dcc-gehmlab-gpu-53|1|19|2G||/work/yx240/project-martini/simutools/metad|
yx240|COMPLETED|scavenger-gpu|2023-06-06T11:58:44|2023-06-06T17:18:55|05:20:11|dcc-gehmlab-gpu-52|1|19|2G||/work/yx240/project-martini/simutools/metad|
yx240|COMPLETED|scavenger-gpu|2023-06-06T11:58:44|2023-06-07T03:05:30|15:06:46|dcc-gehmlab-gpu-51|1|19|2G||/work/yx240/project-martini/simutools/scripts|
jrl78|COMPLETED|scavenger-gpu|2023-06-06T12:01:18|2023-06-06T12:02:39|00:01:21|dcc-motesa-gpu-03|1|6|4G||/work/jrl78/Nanoparticles/JawBreakers/Different Partial Charges/EEM Full Library/round3_pKaStuff|
jrl78|COMPLETED|scavenger-gpu|2023-06-06T12:01:18|2023-06-06T12:02:06|00:00:48|dcc-motesa-gpu-01|1|6|4G||/work/jrl78/Nanoparticles/JawBreakers/Different Partial Charges/EEM Full Library/round3_pKaStuff|
jrl78|COMPLETED|scavenger-gpu|2023-06-06T12:01:18|2023-06-06T12:02:39|00:01:21|dcc-gehmlab-gpu-60|1|19|4G||/work/jrl78/Nanoparticles/JawBreakers/Different Partial Charges/EEM Full Library/round3_pKaStuff|
jrl78|COMPLETED|scavenger-gpu|2023-06-06T12:01:18|2023-06-06T12:02:04|00:00:46|dcc-gehmlab-gpu-59|1|19|4G||/work/jrl78/Nanoparticles/JawBreakers/Different Partial Charges/EEM Full Library/round3_pKaStuff|
jrl78|COMPLETED|scavenger-gpu|2023-06-06T12:01:18|2023-06-06T12:03:21|00:02:03|dcc-gehmlab-gpu-50|1|19|4G||/work/jrl78/Nanoparticles/JawBreakers/Different Partial Charges/EEM Full Library/round3_pKaStuff|
jrl78|COMPLETED|scavenger-gpu|2023-06-06T12:01:18|2023-06-06T12:02:17|00:00:59|dcc-gehmlab-gpu-49|1|19|4G||/work/jrl78/Nanoparticles/JawBreakers/Different Partial Charges/EEM Full Library/round3_pKaStuff|
jrl78|COMPLETED|scavenger-gpu|2023-06-06T12:01:18|2023-06-06T12:02:52|00:01:34|dcc-gehmlab-gpu-48|1|19|4G||/work/jrl78/Nanoparticles/JawBreakers/Different Partial Charges/EEM Full Library/round3_pKaStuff|
jrl78|COMPLETED|scavenger-gpu|2023-06-06T12:01:18|2023-06-06T12:02:11|00:00:53|dcc-gehmlab-gpu-47|1|19|4G||/work/jrl78/Nanoparticles/JawBreakers/Different Partial Charges/EEM Full Library/round3_pKaStuff|
jrl78|COMPLETED|scavenger-gpu|2023-06-06T12:01:49|2023-06-06T12:03:13|00:01:24|dcc-gehmlab-gpu-46|1|19|4G||/work/jrl78/Nanoparticles/JawBreakers/Different Partial Charges/EEM Full Library/round3_pKaStuff|
jrl78|COMPLETED|scavenger-gpu|2023-06-06T12:01:49|2023-06-06T12:02:31|00:00:42|dcc-gehmlab-gpu-45|1|19|4G||/work/jrl78/Nanoparticles/JawBreakers/Different Partial Charges/EEM Full Library/round3_pKaStuff|
jrl78|COMPLETED|scavenger-gpu|2023-06-06T12:01:49|2023-06-06T12:03:05|00:01:16|dcc-gehmlab-gpu-44|1|19|4G||/work/jrl78/Nanoparticles/JawBreakers/Different Partial Charges/EEM Full Library/round3_pKaStuff|
jrl78|COMPLETED|scavenger-gpu|2023-06-06T12:01:49|2023-06-06T12:02:29|00:00:40|dcc-gehmlab-gpu-43|1|19|4G||/work/jrl78/Nanoparticles/JawBreakers/Different Partial Charges/EEM Full Library/round3_pKaStuff|
jrl78|COMPLETED|scavenger-gpu|2023-06-06T12:01:49|2023-06-06T12:03:06|00:01:17|dcc-gehmlab-gpu-42|1|19|4G||/work/jrl78/Nanoparticles/JawBreakers/Different Partial Charges/EEM Full Library/round3_pKaStuff|
jrl78|COMPLETED|scavenger-gpu|2023-06-06T12:01:49|2023-06-06T12:02:29|00:00:40|dcc-gehmlab-gpu-41|1|19|4G||/work/jrl78/Nanoparticles/JawBreakers/Different Partial Charges/EEM Full Library/round3_pKaStuff|
jrl78|COMPLETED|scavenger-gpu|2023-06-06T12:01:49|2023-06-06T12:03:33|00:01:44|dcc-gehmlab-gpu-40|1|19|4G||/work/jrl78/Nanoparticles/JawBreakers/Different Partial Charges/EEM Full Library/round3_pKaStuff|
jrl78|COMPLETED|scavenger-gpu|2023-06-06T12:01:49|2023-06-06T12:02:40|00:00:51|dcc-gehmlab-gpu-39|1|19|4G||/work/jrl78/Nanoparticles/JawBreakers/Different Partial Charges/EEM Full Library/round3_pKaStuff|
jrl78|COMPLETED|scavenger-gpu|2023-06-06T12:01:49|2023-06-06T12:03:04|00:01:15|dcc-gehmlab-gpu-38|1|19|4G||/work/jrl78/Nanoparticles/JawBreakers/Different Partial Charges/EEM Full Library/round3_pKaStuff|
jrl78|COMPLETED|scavenger-gpu|2023-06-06T12:01:49|2023-06-06T12:02:31|00:00:42|dcc-gehmlab-gpu-37|1|19|4G||/work/jrl78/Nanoparticles/JawBreakers/Different Partial Charges/EEM Full Library/round3_pKaStuff|
jrl78|COMPLETED|scavenger-gpu|2023-06-06T12:02:19|2023-06-06T12:03:58|00:01:39|dcc-motesa-gpu-01|1|6|4G||/work/jrl78/Nanoparticles/JawBreakers/Different Partial Charges/EEM Full Library/round3_pKaStuff|
jrl78|COMPLETED|scavenger-gpu|2023-06-06T12:02:20|2023-06-06T12:03:12|00:00:52|dcc-gehmlab-gpu-59|1|19|4G||/work/jrl78/Nanoparticles/JawBreakers/Different Partial Charges/EEM Full Library/round3_pKaStuff|
jrl78|COMPLETED|scavenger-gpu|2023-06-06T12:02:20|2023-06-06T12:04:11|00:01:51|dcc-gehmlab-gpu-49|1|19|4G||/work/jrl78/Nanoparticles/JawBreakers/Different Partial Charges/EEM Full Library/round3_pKaStuff|
jrl78|COMPLETED|scavenger-gpu|2023-06-06T12:02:20|2023-06-06T12:03:08|00:00:48|dcc-gehmlab-gpu-47|1|19|4G||/work/jrl78/Nanoparticles/JawBreakers/Different Partial Charges/EEM Full Library/round3_pKaStuff|
jrl78|COMPLETED|scavenger-gpu|2023-06-06T12:02:20|2023-06-06T12:03:57|00:01:37|dcc-gehmlab-gpu-36|1|19|4G||/work/jrl78/Nanoparticles/JawBreakers/Different Partial Charges/EEM Full Library/round3_pKaStuff|
jrl78|COMPLETED|scavenger-gpu|2023-06-06T12:02:50|2023-06-06T12:03:34|00:00:44|dcc-motesa-gpu-03|1|6|4G||/work/jrl78/Nanoparticles/JawBreakers/Different Partial Charges/EEM Full Library/round3_pKaStuff|
jrl78|COMPLETED|scavenger-gpu|2023-06-06T12:02:50|2023-06-06T12:04:19|00:01:29|dcc-gehmlab-gpu-60|1|19|4G||/work/jrl78/Nanoparticles/JawBreakers/Different Partial Charges/EEM Full Library/round3_pKaStuff|
jrl78|COMPLETED|scavenger-gpu|2023-06-06T12:02:50|2023-06-06T12:03:33|00:00:43|dcc-gehmlab-gpu-45|1|19|4G||/work/jrl78/Nanoparticles/JawBreakers/Different Partial Charges/EEM Full Library/round3_pKaStuff|
jrl78|COMPLETED|scavenger-gpu|2023-06-06T12:02:50|2023-06-06T12:03:45|00:00:55|dcc-gehmlab-gpu-43|1|19|4G||/work/jrl78/Nanoparticles/JawBreakers/Different Partial Charges/EEM Full Library/round3_pKaStuff|
jrl78|COMPLETED|scavenger-gpu|2023-06-06T12:02:50|2023-06-06T12:03:19|00:00:29|dcc-gehmlab-gpu-41|1|19|4G||/work/jrl78/Nanoparticles/JawBreakers/Different Partial Charges/EEM Full Library/round3_pKaStuff|
jrl78|COMPLETED|scavenger-gpu|2023-06-06T12:02:50|2023-06-06T12:04:15|00:01:25|dcc-gehmlab-gpu-39|1|19|4G||/work/jrl78/Nanoparticles/JawBreakers/Different Partial Charges/EEM Full Library/round3_pKaStuff|
jrl78|COMPLETED|scavenger-gpu|2023-06-06T12:02:50|2023-06-06T12:03:34|00:00:44|dcc-gehmlab-gpu-37|1|19|4G||/work/jrl78/Nanoparticles/JawBreakers/Different Partial Charges/EEM Full Library/round3_pKaStuff|
jrl78|COMPLETED|scavenger-gpu|2023-06-06T12:03:21|2023-06-06T12:04:33|00:01:12|dcc-gehmlab-gpu-59|1|19|4G||/work/jrl78/Nanoparticles/JawBreakers/Different Partial Charges/EEM Full Library/round3_pKaStuff|
jrl78|COMPLETED|scavenger-gpu|2023-06-06T12:03:21|2023-06-06T12:03:56|00:00:35|dcc-gehmlab-gpu-48|1|19|4G||/work/jrl78/Nanoparticles/JawBreakers/Different Partial Charges/EEM Full Library/round3_pKaStuff|
jrl78|COMPLETED|scavenger-gpu|2023-06-06T12:03:21|2023-06-06T12:04:34|00:01:13|dcc-gehmlab-gpu-47|1|19|4G||/work/jrl78/Nanoparticles/JawBreakers/Different Partial Charges/EEM Full Library/round3_pKaStuff|
jrl78|COMPLETED|scavenger-gpu|2023-06-06T12:03:21|2023-06-06T12:04:00|00:00:39|dcc-gehmlab-gpu-46|1|19|4G||/work/jrl78/Nanoparticles/JawBreakers/Different Partial Charges/EEM Full Library/round3_pKaStuff|
jrl78|COMPLETED|scavenger-gpu|2023-06-06T12:03:21|2023-06-06T12:04:34|00:01:13|dcc-gehmlab-gpu-44|1|19|4G||/work/jrl78/Nanoparticles/JawBreakers/Different Partial Charges/EEM Full Library/round3_pKaStuff|
jrl78|COMPLETED|scavenger-gpu|2023-06-06T12:03:21|2023-06-06T12:03:59|00:00:38|dcc-gehmlab-gpu-42|1|19|4G||/work/jrl78/Nanoparticles/JawBreakers/Different Partial Charges/EEM Full Library/round3_pKaStuff|
jrl78|COMPLETED|scavenger-gpu|2023-06-06T12:03:21|2023-06-06T12:04:58|00:01:37|dcc-gehmlab-gpu-41|1|19|4G||/work/jrl78/Nanoparticles/JawBreakers/Different Partial Charges/EEM Full Library/round3_pKaStuff|
jrl78|COMPLETED|scavenger-gpu|2023-06-06T12:03:21|2023-06-06T12:04:11|00:00:50|dcc-gehmlab-gpu-38|1|19|4G||/work/jrl78/Nanoparticles/JawBreakers/Different Partial Charges/EEM Full Library/round3_pKaStuff|
jrl78|COMPLETED|scavenger-gpu|2023-06-06T12:03:51|2023-06-06T12:05:12|00:01:21|dcc-motesa-gpu-03|1|6|4G||/work/jrl78/Nanoparticles/JawBreakers/Different Partial Charges/EEM Full Library/round3_pKaStuff|
jrl78|COMPLETED|scavenger-gpu|2023-06-06T12:03:51|2023-06-06T12:04:39|00:00:48|dcc-gehmlab-gpu-50|1|19|4G||/work/jrl78/Nanoparticles/JawBreakers/Different Partial Charges/EEM Full Library/round3_pKaStuff|
jrl78|COMPLETED|scavenger-gpu|2023-06-06T12:03:51|2023-06-06T12:04:41|00:00:50|dcc-gehmlab-gpu-45|1|19|4G||/work/jrl78/Nanoparticles/JawBreakers/Different Partial Charges/EEM Full Library/round3_pKaStuff|
jrl78|COMPLETED|scavenger-gpu|2023-06-06T12:03:51|2023-06-06T12:04:19|00:00:28|dcc-gehmlab-gpu-43|1|19|4G||/work/jrl78/Nanoparticles/JawBreakers/Different Partial Charges/EEM Full Library/round3_pKaStuff|
jrl78|COMPLETED|scavenger-gpu|2023-06-06T12:03:52|2023-06-06T12:05:05|00:01:13|dcc-gehmlab-gpu-40|1|19|4G||/work/jrl78/Nanoparticles/JawBreakers/Different Partial Charges/EEM Full Library/round3_pKaStuff|
jrl78|COMPLETED|scavenger-gpu|2023-06-06T12:03:52|2023-06-06T12:04:30|00:00:38|dcc-gehmlab-gpu-37|1|19|4G||/work/jrl78/Nanoparticles/JawBreakers/Different Partial Charges/EEM Full Library/round3_pKaStuff|
jrl78|COMPLETED|scavenger-gpu|2023-06-06T12:04:22|2023-06-06T12:05:29|00:01:07|dcc-motesa-gpu-01|1|6|4G||/work/jrl78/Nanoparticles/JawBreakers/Different Partial Charges/EEM Full Library/round3_pKaStuff|
jrl78|COMPLETED|scavenger-gpu|2023-06-06T12:04:22|2023-06-06T12:05:03|00:00:41|dcc-gehmlab-gpu-60|1|19|4G||/work/jrl78/Nanoparticles/JawBreakers/Different Partial Charges/EEM Full Library/round3_pKaStuff|
jrl78|COMPLETED|scavenger-gpu|2023-06-06T12:04:22|2023-06-06T12:05:36|00:01:14|dcc-gehmlab-gpu-49|1|19|4G||/work/jrl78/Nanoparticles/JawBreakers/Different Partial Charges/EEM Full Library/round3_pKaStuff|
jrl78|COMPLETED|scavenger-gpu|2023-06-06T12:04:22|2023-06-06T12:05:00|00:00:38|dcc-gehmlab-gpu-48|1|19|4G||/work/jrl78/Nanoparticles/JawBreakers/Different Partial Charges/EEM Full Library/round3_pKaStuff|
jrl78|COMPLETED|scavenger-gpu|2023-06-06T12:04:22|2023-06-06T12:05:31|00:01:09|dcc-gehmlab-gpu-46|1|19|4G||/work/jrl78/Nanoparticles/JawBreakers/Different Partial Charges/EEM Full Library/round3_pKaStuff|
jrl78|COMPLETED|scavenger-gpu|2023-06-06T12:04:22|2023-06-06T12:05:01|00:00:39|dcc-gehmlab-gpu-43|1|19|4G||/work/jrl78/Nanoparticles/JawBreakers/Different Partial Charges/EEM Full Library/round3_pKaStuff|
jrl78|COMPLETED|scavenger-gpu|2023-06-06T12:04:22|2023-06-06T12:05:42|00:01:20|dcc-gehmlab-gpu-42|1|19|4G||/work/jrl78/Nanoparticles/JawBreakers/Different Partial Charges/EEM Full Library/round3_pKaStuff|
jrl78|COMPLETED|scavenger-gpu|2023-06-06T12:04:22|2023-06-06T12:05:07|00:00:45|dcc-gehmlab-gpu-39|1|19|4G||/work/jrl78/Nanoparticles/JawBreakers/Different Partial Charges/EEM Full Library/round3_pKaStuff|
jrl78|COMPLETED|scavenger-gpu|2023-06-06T12:04:22|2023-06-06T12:05:44|00:01:22|dcc-gehmlab-gpu-38|1|19|4G||/work/jrl78/Nanoparticles/JawBreakers/Different Partial Charges/EEM Full Library/round3_pKaStuff|
jrl78|COMPLETED|scavenger-gpu|2023-06-06T12:04:22|2023-06-06T12:05:04|00:00:42|dcc-gehmlab-gpu-36|1|19|4G||/work/jrl78/Nanoparticles/JawBreakers/Different Partial Charges/EEM Full Library/round3_pKaStuff|
jrl78|COMPLETED|scavenger-gpu|2023-06-06T12:04:53|2023-06-06T12:06:20|00:01:27|dcc-gehmlab-gpu-59|1|19|4G||/work/jrl78/Nanoparticles/JawBreakers/Different Partial Charges/EEM Full Library/round3_pKaStuff|
jrl78|COMPLETED|scavenger-gpu|2023-06-06T12:04:53|2023-06-06T12:05:34|00:00:41|dcc-gehmlab-gpu-50|1|19|4G||/work/jrl78/Nanoparticles/JawBreakers/Different Partial Charges/EEM Full Library/round3_pKaStuff|
jrl78|COMPLETED|scavenger-gpu|2023-06-06T12:04:53|2023-06-06T12:05:55|00:01:02|dcc-gehmlab-gpu-47|1|19|4G||/work/jrl78/Nanoparticles/JawBreakers/Different Partial Charges/EEM Full Library/round3_pKaStuff|
jrl78|COMPLETED|scavenger-gpu|2023-06-06T12:04:53|2023-06-06T12:05:26|00:00:33|dcc-gehmlab-gpu-45|1|19|4G||/work/jrl78/Nanoparticles/JawBreakers/Different Partial Charges/EEM Full Library/round3_pKaStuff|
jrl78|COMPLETED|scavenger-gpu|2023-06-06T12:04:53|2023-06-06T12:06:01|00:01:08|dcc-gehmlab-gpu-44|1|19|4G||/work/jrl78/Nanoparticles/JawBreakers/Different Partial Charges/EEM Full Library/round3_pKaStuff|
jrl78|COMPLETED|scavenger-gpu|2023-06-06T12:04:53|2023-06-06T12:05:31|00:00:38|dcc-gehmlab-gpu-37|1|19|4G||/work/jrl78/Nanoparticles/JawBreakers/Different Partial Charges/EEM Full Library/round3_pKaStuff|
jrl78|COMPLETED|scavenger-gpu|2023-06-06T12:05:23|2023-06-06T12:06:32|00:01:09|dcc-motesa-gpu-03|1|6|4G||/work/jrl78/Nanoparticles/JawBreakers/Different Partial Charges/EEM Full Library/round3_pKaStuff|
jrl78|COMPLETED|scavenger-gpu|2023-06-06T12:05:23|2023-06-06T12:06:02|00:00:39|dcc-gehmlab-gpu-60|1|19|4G||/work/jrl78/Nanoparticles/JawBreakers/Different Partial Charges/EEM Full Library/round3_pKaStuff|
vk93|TIMEOUT|scavenger-gpu|2023-06-06T13:05:15|2023-06-13T13:05:23|7-00:00:08|dcc-dsplus-gpu-01|1|40|350109M||/hpc/home/vk93/ondemand/data/sys/dashboard/batch_connect/sys/bc_jupyter/output/ba078d78-973d-4dcf-a8d1-ae22745f5c83|
isd8|TIMEOUT|scavenger-gpu|2023-06-06T12:16:23|2023-06-06T15:16:49|03:00:26|dcc-motesa-gpu-01|1|4|16G||/hpc/home/isd8/ondemand/data/sys/dashboard/batch_connect/sys/bc_jupyter_codeplus2023/output/4d7895f3-0046-4345-961c-1c909795a877|
meg126|CANCELLED by 1463398|scavenger-gpu|2023-06-06T12:25:47|2023-06-06T13:32:18|01:06:31|dcc-dsplus-gpu-07|1|8|24G||/hpc/home/meg126/ondemand/data/sys/dashboard/batch_connect/sys/bc_jupyter_codeplus2023/output/631a7a6e-f707-4b91-b400-7db6fac6c7db|
isd8|TIMEOUT|scavenger-gpu|2023-06-06T12:27:46|2023-06-06T15:27:56|03:00:10|dcc-motesa-gpu-02|1|4|16G||/hpc/home/isd8/ondemand/data/sys/dashboard/batch_connect/sys/bc_jupyter_codeplus2023/output/7201ad09-3024-44f7-9e1c-cc1d14f042e3|
el229|TIMEOUT|scavenger-gpu|2023-06-06T12:34:55|2023-06-06T14:35:14|02:00:19|dcc-motesa-gpu-03|1|4|16G||/hpc/home/el229/ondemand/data/sys/dashboard/batch_connect/sys/bc_jupyter_codeplus2023/output/a39429b1-9126-4d03-85bf-eccefbfb05d5|
pk231|TIMEOUT|scavenger-gpu|2023-06-06T12:57:52|2023-06-06T14:58:16|02:00:24|dcc-ultrasound-gpu-01|1|4|16G||/hpc/home/pk231/ondemand/data/sys/dashboard/batch_connect/sys/bc_jupyter_codeplus2023/output/c508a52a-4abe-46aa-a8e1-75838c607e8d|
