yw564|TIMEOUT|scavenger-gpu|2023-05-04T17:26:37|2023-05-11T17:27:01|7-00:00:24|dcc-mastatlab-gpu-01|1|2|50G||/hpc/group/jilab/imaging/huimin/Inference_rebuttal|
kw297|CANCELLED by 1215097|scavenger-gpu|2023-05-06T15:48:03|2023-05-08T11:15:43|1-19:27:40|dcc-motesa-gpu-03|1|4|20G||/hpc/group/ychenlab/DA|
yk206|TIMEOUT|scavenger-gpu|2023-05-07T13:08:05|2023-05-14T13:08:33|7-00:00:28|dcc-motesa-gpu-04|1|6|12G||/hpc/home/yk206/script|
yk206|TIMEOUT|scavenger-gpu|2023-05-07T13:08:05|2023-05-14T13:08:33|7-00:00:28|dcc-motesa-gpu-01|1|6|12G||/hpc/home/yk206/script|
yk206|FAILED|scavenger-gpu|2023-05-07T13:08:08|2023-05-08T08:43:52|19:35:44|dcc-allenlab-gpu-04|1|10|12G||/hpc/home/yk206/script|
yk206|FAILED|scavenger-gpu|2023-05-07T13:08:08|2023-05-08T08:57:17|19:49:09|dcc-pbenfeylab-gpu-02|1|10|12G||/hpc/home/yk206/script|
yk206|COMPLETED|scavenger-gpu|2023-05-07T13:08:08|2023-05-08T06:59:46|17:51:38|dcc-pbenfeylab-gpu-03|1|10|12G||/hpc/home/yk206/script|
