yw564|TIMEOUT|scavenger-gpu|2023-05-04T17:26:37|2023-05-11T17:27:01|7-00:00:24|dcc-mastatlab-gpu-01|1|2|50G||/hpc/group/jilab/imaging/huimin/Inference_rebuttal|
yk206|TIMEOUT|scavenger-gpu|2023-05-07T13:08:05|2023-05-14T13:08:33|7-00:00:28|dcc-motesa-gpu-04|1|6|12G||/hpc/home/yk206/script|
yk206|TIMEOUT|scavenger-gpu|2023-05-07T13:08:05|2023-05-14T13:08:33|7-00:00:28|dcc-motesa-gpu-01|1|6|12G||/hpc/home/yk206/script|
jrl78|COMPLETED|scavenger-gpu|2023-05-10T21:20:08|2023-05-11T16:23:03|19:02:55|dcc-vossenlab-gpu-02|1|10|2G||/work/jrl78/Nanoparticles/JawBreakers/Big Library/run2|
jrl78|COMPLETED|scavenger-gpu|2023-05-10T21:20:22|2023-05-11T18:19:05|20:58:43|dcc-tdunn-gpu-01|1|44|2G||/work/jrl78/Nanoparticles/JawBreakers/Big Library/run2|
kw297|CANCELLED by 1215097|scavenger-gpu|2023-05-10T23:59:14|2023-05-12T12:23:59|1-12:24:45|dcc-motesa-gpu-03|1|4|20G||/hpc/group/ychenlab/DA|
lh342|FAILED|scavenger-gpu|2023-05-11T00:44:44|2023-05-11T16:22:02|15:37:18|dcc-dhvi-gpu-02|1|10|24G||/hpc/home/lh342/MMVAE|
jbf18|TIMEOUT|scavenger-gpu|2023-05-11T08:23:22|2023-05-11T20:23:24|12:00:02|dcc-mastatlab-gpu-01|1|32|84G||/hpc/home/jbf18/ondemand/data/sys/dashboard/batch_connect/sys/bc_jupyter_singularity/output/39a9b452-a95f-4f11-ae23-50bd25f97eee|
kl371|TIMEOUT|scavenger-gpu|2023-05-11T08:38:32|2023-05-12T08:38:56|1-00:00:24|dcc-dhvi-gpu-01|1|8|64G||/hpc/home/kl371/ondemand/data/sys/dashboard/batch_connect/sys/bc_jupyter/output/695688f2-8392-4417-b46c-515f761aa920|
kl371|TIMEOUT|scavenger-gpu|2023-05-11T08:46:08|2023-05-14T08:46:37|3-00:00:29|dcc-mastatlab-gpu-01|1|8|64G||/hpc/home/kl371/ondemand/data/sys/dashboard/batch_connect/sys/bc_jupyter/output/2e3a3297-9e34-42a2-9e28-1bf9489d2508|
lh342|FAILED|scavenger-gpu|2023-05-11T08:56:08|2023-05-11T21:43:28|12:47:20|dcc-motesa-gpu-02|1|6|16G||/hpc/home/lh342/MMVAE|
lh342|CANCELLED by 1397954|scavenger-gpu|2023-05-11T10:33:06|2023-05-11T21:44:12|11:11:06|dcc-allenlab-gpu-04|1|10|24G||/hpc/home/lh342/MMVAE|
lh342|CANCELLED by 1397954|scavenger-gpu|2023-05-11T10:36:37|2023-05-11T21:44:12|11:07:35|dcc-dhvi-gpu-03|1|10|24G||/hpc/home/lh342/MMVAE|
lh342|CANCELLED by 1397954|scavenger-gpu|2023-05-11T11:00:35|2023-05-11T21:44:12|10:43:37|dcc-allenlab-gpu-03|1|10|24G||/hpc/home/lh342/MMVAE|
as1296|TIMEOUT|scavenger-gpu|2023-05-11T11:01:33|2023-05-11T19:01:38|08:00:05|dcc-brunellab-gpu-01|1|10|60000M||/hpc/group/tdunn/asabath|
dl370|PREEMPTED|scavenger-gpu|2023-05-11T11:03:45|2023-05-11T20:59:35|09:55:50|dcc-youlab-gpu-55|1|10|2G||/work/dl370|
lh342|PREEMPTED|scavenger-gpu|2023-05-11T11:35:17|2023-05-11T20:59:39|09:24:22|dcc-youlab-gpu-20|1|10|24G||/hpc/home/lh342/MMVAE|
jrl78|PREEMPTED|scavenger-gpu|2023-05-11T11:48:36|2023-05-11T20:59:37|09:11:01|dcc-youlab-gpu-54|1|10|2G||/work/jrl78/Nanoparticles/JawBreakers/Big Library/run2|
lh342|CANCELLED by 1397954|scavenger-gpu|2023-05-11T12:07:29|2023-05-11T21:44:12|09:36:43|dcc-allenlab-gpu-02|1|10|24G||/hpc/home/lh342/MMVAE|
xz284|COMPLETED|scavenger-gpu|2023-05-11T12:13:16|2023-05-11T22:56:48|10:43:32|dcc-brunellab-gpu-04|1|8|64G||/hpc/group/motesa/Risk_Aware_SCUC_Model/Prelim/CT=0_RAT=1_New/RAS-EMS/beta=0.8/historical|
xz284|COMPLETED|scavenger-gpu|2023-05-11T12:13:29|2023-05-11T19:54:55|07:41:26|dcc-youlab-gpu-45|1|8|64G||/hpc/group/motesa/Risk_Aware_SCUC_Model/Prelim/CT=0_RAT=1_New/RAS-EMS/beta=0.8/historical|
xz284|PREEMPTED|scavenger-gpu|2023-05-11T12:13:33|2023-05-11T17:20:20|05:06:47|dcc-carlsonlab-gpu-13|1|8|64G||/hpc/group/motesa/Risk_Aware_SCUC_Model/Prelim/CT=0_RAT=1_New/RAS-EMS/beta=0.8/historical|
xz284|PREEMPTED|scavenger-gpu|2023-05-11T12:13:36|2023-05-11T17:20:28|05:06:52|dcc-carlsonlab-gpu-14|1|8|64G||/hpc/group/motesa/Risk_Aware_SCUC_Model/Prelim/CT=0_RAT=1_New/RAS-EMS/beta=0.8/historical|
xz284|COMPLETED|scavenger-gpu|2023-05-11T12:13:40|2023-05-11T20:23:40|08:10:00|dcc-vossenlab-gpu-03|1|8|64G||/hpc/group/motesa/Risk_Aware_SCUC_Model/Prelim/CT=0_RAT=1_New/RAS-EMS/beta=0.8/historical|
xz284|COMPLETED|scavenger-gpu|2023-05-11T12:13:43|2023-05-11T20:32:18|08:18:35|dcc-vossenlab-gpu-04|1|8|64G||/hpc/group/motesa/Risk_Aware_SCUC_Model/Prelim/CT=0_RAT=1_New/RAS-EMS/beta=0.8/historical|
xz284|COMPLETED|scavenger-gpu|2023-05-11T12:13:48|2023-05-12T01:51:57|13:38:09|dcc-biostat-gpu-01|1|8|64G||/hpc/group/motesa/Risk_Aware_SCUC_Model/Prelim/CT=0_RAT=1_New/RAS-EMS/beta=0.8/historical|
xz284|PREEMPTED|scavenger-gpu|2023-05-11T12:13:52|2023-05-11T17:20:34|05:06:42|dcc-carlsonlab-gpu-06|1|8|64G||/hpc/group/motesa/Risk_Aware_SCUC_Model/Prelim/CT=0_RAT=1_New/RAS-EMS/beta=0.8/historical|
xz284|COMPLETED|scavenger-gpu|2023-05-11T12:13:56|2023-05-12T03:56:44|15:42:48|dcc-biostat-gpu-02|1|8|64G||/hpc/group/motesa/Risk_Aware_SCUC_Model/Prelim/CT=0_RAT=1_New/RAS-EMS/beta=0.8/historical|
xz284|COMPLETED|scavenger-gpu|2023-05-11T12:14:00|2023-05-11T22:28:39|10:14:39|dcc-brownlab-gpu-01|1|8|64G||/hpc/group/motesa/Risk_Aware_SCUC_Model/Prelim/CT=0_RAT=1_New/RAS-EMS/beta=0.8/historical|
xz284|COMPLETED|scavenger-gpu|2023-05-11T12:14:16|2023-05-11T23:00:39|10:46:23|dcc-brownlab-gpu-02|1|8|64G||/hpc/group/motesa/Risk_Aware_SCUC_Model/Prelim/CT=0_RAT=1_New/RAS-EMS/beta=0.8/extreme|
xz284|COMPLETED|scavenger-gpu|2023-05-11T12:14:22|2023-05-12T01:15:30|13:01:08|dcc-brownlab-gpu-03|1|8|64G||/hpc/group/motesa/Risk_Aware_SCUC_Model/Prelim/CT=0_RAT=1_New/RAS-EMS/beta=0.8/extreme|
xz284|COMPLETED|scavenger-gpu|2023-05-11T12:14:27|2023-05-12T04:34:10|16:19:43|dcc-brownlab-gpu-04|1|8|64G||/hpc/group/motesa/Risk_Aware_SCUC_Model/Prelim/CT=0_RAT=1_New/RAS-EMS/beta=0.8/extreme|
xz284|COMPLETED|scavenger-gpu|2023-05-11T12:14:30|2023-05-12T02:06:11|13:51:41|dcc-collinslab-gpu-01|1|8|64G||/hpc/group/motesa/Risk_Aware_SCUC_Model/Prelim/CT=0_RAT=1_New/RAS-EMS/beta=0.8/extreme|
xz284|COMPLETED|scavenger-gpu|2023-05-11T12:14:39|2023-05-12T03:10:11|14:55:32|dcc-collinslab-gpu-03|1|8|64G||/hpc/group/motesa/Risk_Aware_SCUC_Model/Prelim/CT=0_RAT=1_New/RAS-EMS/beta=0.8/extreme|
xz284|COMPLETED|scavenger-gpu|2023-05-11T12:14:41|2023-05-12T03:44:22|15:29:41|dcc-collinslab-gpu-04|1|8|64G||/hpc/group/motesa/Risk_Aware_SCUC_Model/Prelim/CT=0_RAT=1_New/RAS-EMS/beta=0.8/extreme|
xz284|COMPLETED|scavenger-gpu|2023-05-11T12:14:46|2023-05-12T03:32:33|15:17:47|dcc-collinslab-gpu-02|1|8|64G||/hpc/group/motesa/Risk_Aware_SCUC_Model/Prelim/CT=0_RAT=1_New/RAS-EMS/beta=0.8/extreme|
xz284|COMPLETED|scavenger-gpu|2023-05-11T12:14:50|2023-05-12T00:18:03|12:03:13|dcc-ece-gpu-01|1|8|64G||/hpc/group/motesa/Risk_Aware_SCUC_Model/Prelim/CT=0_RAT=1_New/RAS-EMS/beta=0.8/extreme|
xz284|COMPLETED|scavenger-gpu|2023-05-11T12:14:54|2023-05-12T00:35:06|12:20:12|dcc-ece-gpu-02|1|8|64G||/hpc/group/motesa/Risk_Aware_SCUC_Model/Prelim/CT=0_RAT=1_New/RAS-EMS/beta=0.8/extreme|
xz284|COMPLETED|scavenger-gpu|2023-05-11T12:14:59|2023-05-12T02:55:21|14:40:22|dcc-ece-gpu-03|1|8|64G||/hpc/group/motesa/Risk_Aware_SCUC_Model/Prelim/CT=0_RAT=1_New/RAS-EMS/beta=0.8/extreme|
xz284|COMPLETED|scavenger-gpu|2023-05-11T13:05:49|2023-05-11T22:17:47|09:11:58|dcc-ece-gpu-04|1|8|64G||/hpc/group/motesa/Risk_Aware_SCUC_Model/Prelim/CT=0_RAT=1_New/RAS-EMS/beta=0.8/extreme|
lh342|CANCELLED by 1397954|scavenger-gpu|2023-05-11T12:32:57|2023-05-11T21:44:12|09:11:15|dcc-dhvi-gpu-04|1|10|24G||/hpc/home/lh342/MMVAE|
pkk16|PREEMPTED|scavenger-gpu|2023-05-11T12:39:48|2023-05-11T20:59:43|08:19:55|dcc-youlab-gpu-01|1|2|100G||/hpc/home/pkk16/ondemand/data/sys/dashboard/batch_connect/sys/bc_jupyter/output/89a1f51e-c11d-43c8-b786-ea07c46a9763|
xz284|COMPLETED|scavenger-gpu|2023-05-11T13:52:57|2023-05-11T22:31:43|08:38:46|dcc-pbenfeylab-gpu-04|1|8|64G||/hpc/group/motesa/Risk_Aware_SCUC_Model/Prelim/CT=0_RAT=1_New/RAS-EMS/beta=0.8/extreme|
xz284|FAILED|scavenger-gpu|2023-05-11T17:20:20|2023-05-11T17:20:58|00:00:38|dcc-allenlab-gpu-01|1|8|64G||/hpc/group/motesa/Risk_Aware_SCUC_Model/Prelim/CT=0_RAT=1_New/RAS-EMS/beta=0.8/extreme_test|
xz284|COMPLETED|scavenger-gpu|2023-05-11T17:20:28|2023-05-12T00:21:44|07:01:16|dcc-dhvi-gpu-02|1|8|64G||/hpc/group/motesa/Risk_Aware_SCUC_Model/Prelim/CT=0_RAT=1_New/RAS-EMS/beta=0.8/historical|
lh342|CANCELLED by 1397954|scavenger-gpu|2023-05-11T13:18:54|2023-05-11T21:44:12|08:25:18|dcc-pbenfeylab-gpu-01|1|10|24G||/hpc/home/lh342/MMVAE|
xz284|PREEMPTED|scavenger-gpu|2023-05-11T17:20:34|2023-05-11T17:29:37|00:09:03|dcc-rekerlab-gpu-01|1|8|64G||/hpc/group/motesa/Risk_Aware_SCUC_Model/Prelim/CT=0_RAT=1_New/RAS-EMS/beta=0.8/historical|
yw564|FAILED|scavenger-gpu|2023-05-11T14:27:17|2023-05-12T02:52:33|12:25:16|dcc-mastatlab-gpu-01|1|2|50G||/hpc/group/jilab|
lh342|PREEMPTED|scavenger-gpu|2023-05-11T14:52:34|2023-05-11T20:59:46|06:07:12|dcc-youlab-gpu-48|1|10|24G||/hpc/home/lh342/MMVAE|
lh342|PREEMPTED|scavenger-gpu|2023-05-11T15:07:05|2023-05-11T20:59:50|05:52:45|dcc-youlab-gpu-02|1|10|24G||/hpc/home/lh342/MMVAE|
lh342|PREEMPTED|scavenger-gpu|2023-05-11T15:10:42|2023-05-11T20:59:52|05:49:10|dcc-youlab-gpu-31|1|10|24G||/hpc/home/lh342/MMVAE|
byz6|FAILED|scavenger-gpu|2023-05-11T15:11:06|2023-05-11T19:35:24|04:24:18|dcc-youlab-gpu-57|1|10|60G||/hpc/group/rekerlab/byz6|
lh342|CANCELLED by 1397954|scavenger-gpu|2023-05-11T15:13:22|2023-05-11T21:44:12|06:30:50|dcc-dhvi-gpu-05|1|10|24G||/hpc/home/lh342/MMVAE|
lh342|PREEMPTED|scavenger-gpu|2023-05-11T15:14:12|2023-05-11T20:59:56|05:45:44|dcc-youlab-gpu-30|1|10|24G||/hpc/home/lh342/MMVAE|
lh342|PREEMPTED|scavenger-gpu|2023-05-11T15:23:28|2023-05-11T20:59:58|05:36:30|dcc-youlab-gpu-56|1|10|24G||/hpc/home/lh342/MMVAE|
vk93|PREEMPTED|scavenger-gpu|2023-05-11T15:25:30|2023-05-12T02:21:39|10:56:09|dcc-tdunn-gpu-02|1|40|350109M||/hpc/home/vk93/ondemand/data/sys/dashboard/batch_connect/sys/bc_jupyter/output/23d4d6a9-4d03-429b-b1e0-2247cea267b4|
yx240|CANCELLED by 1495323|scavenger-gpu|2023-05-11T15:52:45|2023-05-11T16:04:18|00:11:33|dcc-youlab-gpu-53|1|1|2G||/work/yx240/project-martini/simutools/scripts|
yx240|COMPLETED|scavenger-gpu|2023-05-11T15:52:45|2023-05-11T16:01:53|00:09:08|dcc-youlab-gpu-53|1|1|2G||/work/yx240/project-martini/simutools/scripts|
yx240|CANCELLED by 1495323|scavenger-gpu|2023-05-11T15:52:45|2023-05-11T16:04:18|00:11:33|dcc-youlab-gpu-53|1|1|2G||/work/yx240/project-martini/simutools/scripts|
yx240|CANCELLED by 1495323|scavenger-gpu|2023-05-11T15:52:45|2023-05-11T16:04:18|00:11:33|dcc-youlab-gpu-53|1|1|2G||/work/yx240/project-martini/simutools/scripts|
yx240|CANCELLED by 1495323|scavenger-gpu|2023-05-11T15:52:47|2023-05-11T16:04:18|00:11:31|dcc-youlab-gpu-53|1|1|2G||/work/yx240/project-martini/simutools/scripts|
yx240|CANCELLED by 1495323|scavenger-gpu|2023-05-11T15:52:47|2023-05-11T16:04:18|00:11:31|dcc-youlab-gpu-53|1|1|2G||/work/yx240/project-martini/simutools/scripts|
yx240|CANCELLED by 1495323|scavenger-gpu|2023-05-11T15:52:47|2023-05-11T16:04:18|00:11:31|dcc-youlab-gpu-53|1|1|2G||/work/yx240/project-martini/simutools/scripts|
yx240|CANCELLED by 1495323|scavenger-gpu|2023-05-11T15:52:47|2023-05-11T16:04:18|00:11:31|dcc-youlab-gpu-53|1|1|2G||/work/yx240/project-martini/simutools/scripts|
yx240|COMPLETED|scavenger-gpu|2023-05-11T15:52:47|2023-05-11T16:02:07|00:09:20|dcc-youlab-gpu-52|1|1|2G||/work/yx240/project-martini/simutools/scripts|
yx240|CANCELLED by 1495323|scavenger-gpu|2023-05-11T15:52:47|2023-05-11T16:04:18|00:11:31|dcc-youlab-gpu-52|1|1|2G||/work/yx240/project-martini/simutools/scripts|
yx240|CANCELLED by 1495323|scavenger-gpu|2023-05-11T16:19:43|2023-05-11T18:41:43|02:22:00|dcc-youlab-gpu-53|1|10|2G||/work/yx240/project-martini/simutools/scripts-gpu|
yx240|CANCELLED by 1495323|scavenger-gpu|2023-05-11T16:19:43|2023-05-11T18:41:43|02:22:00|dcc-youlab-gpu-52|1|10|2G||/work/yx240/project-martini/simutools/scripts-gpu|
yx240|CANCELLED by 1495323|scavenger-gpu|2023-05-11T16:19:43|2023-05-11T18:41:43|02:22:00|dcc-youlab-gpu-51|1|10|2G||/work/yx240/project-martini/simutools/scripts-gpu|
yx240|CANCELLED by 1495323|scavenger-gpu|2023-05-11T16:19:43|2023-05-11T18:41:43|02:22:00|dcc-youlab-gpu-50|1|10|2G||/work/yx240/project-martini/simutools/scripts-gpu|
yx240|CANCELLED by 1495323|scavenger-gpu|2023-05-11T16:19:44|2023-05-11T18:41:43|02:21:59|dcc-youlab-gpu-49|1|10|2G||/work/yx240/project-martini/simutools/scripts-gpu|
yx240|CANCELLED by 1495323|scavenger-gpu|2023-05-11T16:19:44|2023-05-11T18:41:43|02:21:59|dcc-youlab-gpu-46|1|10|2G||/work/yx240/project-martini/simutools/scripts-gpu|
yx240|CANCELLED by 1495323|scavenger-gpu|2023-05-11T16:19:44|2023-05-11T18:41:43|02:21:59|dcc-youlab-gpu-43|1|10|2G||/work/yx240/project-martini/simutools/scripts-gpu|
yx240|CANCELLED by 1495323|scavenger-gpu|2023-05-11T16:19:46|2023-05-11T18:41:43|02:21:57|dcc-youlab-gpu-42|1|10|2G||/work/yx240/project-martini/simutools/scripts-gpu|
yx240|COMPLETED|scavenger-gpu|2023-05-11T16:19:46|2023-05-11T17:47:05|01:27:19|dcc-youlab-gpu-41|1|10|2G||/work/yx240/project-martini/simutools/scripts-gpu|
yx240|CANCELLED by 1495323|scavenger-gpu|2023-05-11T16:19:46|2023-05-11T18:41:43|02:21:57|dcc-youlab-gpu-40|1|10|2G||/work/yx240/project-martini/simutools/scripts-gpu|
yx240|COMPLETED|scavenger-gpu|2023-05-11T16:19:46|2023-05-11T17:39:13|01:19:27|dcc-youlab-gpu-39|1|10|2G||/work/yx240/project-martini/simutools/scripts-gpu|
yx240|CANCELLED by 1495323|scavenger-gpu|2023-05-11T16:19:46|2023-05-11T18:41:43|02:21:57|dcc-youlab-gpu-38|1|10|2G||/work/yx240/project-martini/simutools/scripts-gpu|
