yx240|CANCELLED by 1495323|scavenger-gpu|2023-05-23T15:57:49|2023-05-30T11:42:56|6-19:45:07|dcc-dsplus-gpu-01|1|92|38G||/work/yx240/project-martini/new/simutools/run-pbs|
bgb13|TIMEOUT|scavenger-gpu|2023-05-24T09:47:50|2023-05-31T09:48:13|7-00:00:23|dcc-carin-gpu-01|1|16|10G||/hpc/group/dukenmr/bgb13/cyp51b_phosphorylated_S451/./.|
rd254|COMPLETED|scavenger-gpu|2023-05-24T10:49:56|2023-05-29T23:29:59|5-12:40:03|dcc-carlsonlab-gpu-12|1|6|12G||/work/rd254/ATP_monomer|
lh342|TIMEOUT|scavenger-gpu|2023-05-24T15:04:49|2023-05-31T15:04:58|7-00:00:09|dcc-youlab-gpu-19|1|10|16G||/hpc/home/lh342/MMVAE|
yw564|TIMEOUT|scavenger-gpu|2023-05-24T17:04:47|2023-05-31T17:05:15|7-00:00:28|dcc-pbenfeylab-gpu-01|1|2|50G||/hpc/group/jilab|
bgb13|TIMEOUT|scavenger-gpu|2023-05-25T11:07:09|2023-06-01T11:07:26|7-00:00:17|dcc-carin-gpu-02|1|16|10G||/hpc/group/dukenmr/bgb13/AAV12/./.|
pb183|COMPLETED|scavenger-gpu|2023-05-29T03:09:42|2023-05-30T01:29:33|22:19:51|dcc-youlab-gpu-35|1|10|96G||/hpc/group/ldefratelab/Patrick/Cartilage_ML|
pb183|COMPLETED|scavenger-gpu|2023-05-29T03:58:11|2023-06-01T00:43:39|2-20:45:28|dcc-youlab-gpu-32|1|10|96G||/hpc/group/ldefratelab/Patrick/Cartilage_ML|
pb183|COMPLETED|scavenger-gpu|2023-05-29T09:59:19|2023-05-30T15:05:16|1-05:05:57|dcc-youlab-gpu-41|1|10|96G||/hpc/group/ldefratelab/Patrick/Cartilage_ML|
pb183|COMPLETED|scavenger-gpu|2023-05-29T10:41:07|2023-05-31T07:56:26|1-21:15:19|dcc-youlab-gpu-30|1|10|96G||/hpc/group/ldefratelab/Patrick/Cartilage_ML|
pb183|COMPLETED|scavenger-gpu|2023-05-29T15:40:27|2023-05-30T02:20:35|10:40:08|dcc-youlab-gpu-42|1|10|96G||/hpc/group/ldefratelab/Patrick/Cartilage_ML|
pb183|COMPLETED|scavenger-gpu|2023-05-29T17:09:30|2023-05-29T23:14:29|06:04:59|dcc-youlab-gpu-43|1|10|96G||/hpc/group/ldefratelab/Patrick/Cartilage_ML|
pb183|COMPLETED|scavenger-gpu|2023-05-29T17:58:25|2023-05-30T15:18:49|21:20:24|dcc-youlab-gpu-44|1|10|96G||/hpc/group/ldefratelab/Patrick/Cartilage_ML|
pb183|COMPLETED|scavenger-gpu|2023-05-29T19:05:32|2023-05-30T13:27:27|18:21:55|dcc-youlab-gpu-34|1|10|96G||/hpc/group/ldefratelab/Patrick/Cartilage_ML|
pb183|COMPLETED|scavenger-gpu|2023-05-29T20:09:46|2023-05-31T09:42:15|1-13:32:29|dcc-youlab-gpu-33|1|10|96G||/hpc/group/ldefratelab/Patrick/Cartilage_ML|
pb183|COMPLETED|scavenger-gpu|2023-05-29T20:53:11|2023-05-30T00:34:00|03:40:49|dcc-youlab-gpu-38|1|10|96G||/hpc/group/ldefratelab/Patrick/Cartilage_ML|
pb183|COMPLETED|scavenger-gpu|2023-05-29T21:17:48|2023-05-30T00:54:58|03:37:10|dcc-youlab-gpu-37|1|10|96G||/hpc/group/ldefratelab/Patrick/Cartilage_ML|
pb183|COMPLETED|scavenger-gpu|2023-05-29T21:42:22|2023-05-30T01:32:57|03:50:35|dcc-youlab-gpu-36|1|10|96G||/hpc/group/ldefratelab/Patrick/Cartilage_ML|
pb183|COMPLETED|scavenger-gpu|2023-05-29T22:15:42|2023-05-30T02:31:14|04:15:32|dcc-youlab-gpu-53|1|10|96G||/hpc/group/ldefratelab/Patrick/Cartilage_ML|
pb183|COMPLETED|scavenger-gpu|2023-05-29T22:35:02|2023-05-29T23:04:02|00:29:00|dcc-youlab-gpu-40|1|10|96G||/hpc/group/ldefratelab/Patrick/Cartilage_ML|
pb183|COMPLETED|scavenger-gpu|2023-05-29T22:53:05|2023-05-30T03:00:28|04:07:23|dcc-youlab-gpu-55|1|10|96G||/hpc/group/ldefratelab/Patrick/Cartilage_ML|
pb183|COMPLETED|scavenger-gpu|2023-05-29T23:04:03|2023-05-29T23:43:22|00:39:19|dcc-youlab-gpu-40|1|10|96G||/hpc/group/ldefratelab/Patrick/Cartilage_ML|
pb183|COMPLETED|scavenger-gpu|2023-05-29T23:14:29|2023-05-29T23:54:38|00:40:09|dcc-youlab-gpu-43|1|10|96G||/hpc/group/ldefratelab/Patrick/Cartilage_ML|
pb183|COMPLETED|scavenger-gpu|2023-05-29T23:43:23|2023-05-30T07:51:48|08:08:25|dcc-youlab-gpu-40|1|10|96G||/hpc/group/ldefratelab/Patrick/Cartilage_ML|
pb183|COMPLETED|scavenger-gpu|2023-05-29T23:54:40|2023-05-30T00:45:56|00:51:16|dcc-youlab-gpu-43|1|10|96G||/hpc/group/ldefratelab/Patrick/Cartilage_ML|
pb183|COMPLETED|scavenger-gpu|2023-05-30T00:34:00|2023-05-30T10:54:37|10:20:37|dcc-youlab-gpu-38|1|10|96G||/hpc/group/ldefratelab/Patrick/Cartilage_ML|
pb183|COMPLETED|scavenger-gpu|2023-05-30T00:45:59|2023-05-30T18:21:13|17:35:14|dcc-youlab-gpu-43|1|10|96G||/hpc/group/ldefratelab/Patrick/Cartilage_ML|
pb183|COMPLETED|scavenger-gpu|2023-05-30T00:54:59|2023-05-30T02:21:54|01:26:55|dcc-youlab-gpu-37|1|10|96G||/hpc/group/ldefratelab/Patrick/Cartilage_ML|
pb183|FAILED|scavenger-gpu|2023-05-30T01:29:35|2023-05-30T01:48:19|00:18:44|dcc-collinslab-gpu-04|1|19|96G||/hpc/group/ldefratelab/Patrick/Cartilage_ML|
pb183|FAILED|scavenger-gpu|2023-05-30T01:32:59|2023-05-30T02:56:48|01:23:49|dcc-youlab-gpu-36|1|10|96G||/hpc/group/ldefratelab/Patrick/Cartilage_ML|
pb183|FAILED|scavenger-gpu|2023-05-30T01:48:19|2023-05-30T03:38:26|01:50:07|dcc-youlab-gpu-35|1|10|96G||/hpc/group/ldefratelab/Patrick/Cartilage_ML|
pb183|COMPLETED|scavenger-gpu|2023-05-30T02:20:37|2023-05-30T04:17:49|01:57:12|dcc-youlab-gpu-42|1|10|96G||/hpc/group/ldefratelab/Patrick/Cartilage_ML|
pb183|FAILED|scavenger-gpu|2023-05-30T02:21:54|2023-05-30T04:09:27|01:47:33|dcc-youlab-gpu-37|1|10|96G||/hpc/group/ldefratelab/Patrick/Cartilage_ML|
pb183|COMPLETED|scavenger-gpu|2023-05-30T02:31:14|2023-05-30T02:45:34|00:14:20|dcc-youlab-gpu-53|1|10|96G||/hpc/group/ldefratelab/Patrick/Cartilage_ML_3D|
pb183|COMPLETED|scavenger-gpu|2023-05-30T02:45:34|2023-05-30T03:19:01|00:33:27|dcc-youlab-gpu-53|1|10|96G||/hpc/group/ldefratelab/Patrick/Cartilage_ML_3D|
pb183|COMPLETED|scavenger-gpu|2023-05-30T02:56:49|2023-05-30T08:49:05|05:52:16|dcc-youlab-gpu-36|1|10|96G||/hpc/group/ldefratelab/Patrick/Cartilage_ML_3D|
pb183|COMPLETED|scavenger-gpu|2023-05-30T03:00:29|2023-05-30T03:29:19|00:28:50|dcc-youlab-gpu-55|1|10|96G||/hpc/group/ldefratelab/Patrick/Cartilage_ML_3D|
pb183|COMPLETED|scavenger-gpu|2023-05-30T03:19:01|2023-05-30T03:33:22|00:14:21|dcc-youlab-gpu-53|1|10|96G||/hpc/group/ldefratelab/Patrick/Cartilage_ML_3D|
pb183|COMPLETED|scavenger-gpu|2023-05-30T03:29:19|2023-05-30T04:02:50|00:33:31|dcc-youlab-gpu-55|1|10|96G||/hpc/group/ldefratelab/Patrick/Cartilage_ML_3D|
pb183|COMPLETED|scavenger-gpu|2023-05-30T03:33:22|2023-05-31T00:20:52|20:47:30|dcc-youlab-gpu-53|1|10|96G||/hpc/group/ldefratelab/Patrick/Cartilage_ML_3D|
pb183|COMPLETED|scavenger-gpu|2023-05-30T03:38:26|2023-05-30T04:07:06|00:28:40|dcc-youlab-gpu-35|1|10|96G||/hpc/group/ldefratelab/Patrick/Cartilage_ML_3D|
pb183|COMPLETED|scavenger-gpu|2023-05-30T04:02:50|2023-05-30T04:44:46|00:41:56|dcc-youlab-gpu-55|1|10|96G||/hpc/group/ldefratelab/Patrick/Cartilage_ML_3D|
pb183|COMPLETED|scavenger-gpu|2023-05-30T04:07:06|2023-05-30T05:32:35|01:25:29|dcc-youlab-gpu-35|1|10|96G||/hpc/group/ldefratelab/Patrick/Cartilage_ML_3D|
pb183|COMPLETED|scavenger-gpu|2023-05-30T04:09:27|2023-05-30T05:24:26|01:14:59|dcc-youlab-gpu-37|1|10|96G||/hpc/group/ldefratelab/Patrick/Cartilage_ML_3D|
pb183|COMPLETED|scavenger-gpu|2023-05-30T04:17:49|2023-05-30T05:32:52|01:15:03|dcc-youlab-gpu-42|1|10|96G||/hpc/group/ldefratelab/Patrick/Cartilage_ML_3D|
pb183|COMPLETED|scavenger-gpu|2023-05-30T04:44:47|2023-05-31T14:47:18|1-10:02:31|dcc-youlab-gpu-55|1|10|96G||/hpc/group/ldefratelab/Patrick/Cartilage_ML_3D|
pb183|COMPLETED|scavenger-gpu|2023-05-30T05:24:26|2023-05-30T06:56:07|01:31:41|dcc-youlab-gpu-37|1|10|96G||/hpc/group/ldefratelab/Patrick/Cartilage_ML_3D|
pb183|COMPLETED|scavenger-gpu|2023-05-30T05:32:35|2023-06-01T16:12:01|2-10:39:26|dcc-youlab-gpu-35|1|10|96G||/hpc/group/ldefratelab/Patrick/Cartilage_ML_3D|
pb183|COMPLETED|scavenger-gpu|2023-05-30T05:32:52|2023-05-30T06:48:40|01:15:48|dcc-youlab-gpu-42|1|10|96G||/hpc/group/ldefratelab/Patrick/Cartilage_ML_3D|
pb183|COMPLETED|scavenger-gpu|2023-05-30T06:48:40|2023-05-30T18:44:26|11:55:46|dcc-youlab-gpu-42|1|10|96G||/hpc/group/ldefratelab/Patrick/Cartilage_ML_3D|
pb183|COMPLETED|scavenger-gpu|2023-05-30T06:56:07|2023-05-30T07:45:47|00:49:40|dcc-youlab-gpu-37|1|10|96G||/hpc/group/ldefratelab/Patrick/Cartilage_ML_3D|
pb183|COMPLETED|scavenger-gpu|2023-05-30T07:45:49|2023-05-30T17:02:41|09:16:52|dcc-youlab-gpu-37|1|10|96G||/hpc/group/ldefratelab/Patrick/Cartilage_ML_3D|
pb183|COMPLETED|scavenger-gpu|2023-05-30T07:51:49|2023-05-30T08:32:53|00:41:04|dcc-youlab-gpu-40|1|10|96G||/hpc/group/ldefratelab/Patrick/Cartilage_ML_3D|
pb183|COMPLETED|scavenger-gpu|2023-05-30T08:32:53|2023-05-30T19:23:25|10:50:32|dcc-youlab-gpu-40|1|10|96G||/hpc/group/ldefratelab/Patrick/Cartilage_ML_3D|
pb183|COMPLETED|scavenger-gpu|2023-05-30T08:49:05|2023-05-30T09:38:11|00:49:06|dcc-youlab-gpu-36|1|10|96G||/hpc/group/ldefratelab/Patrick/Cartilage_ML_3D|
pb183|COMPLETED|scavenger-gpu|2023-05-30T09:38:11|2023-05-30T10:18:15|00:40:04|dcc-youlab-gpu-36|1|10|96G||/hpc/group/ldefratelab/Patrick/Cartilage_ML_3D|
pb183|COMPLETED|scavenger-gpu|2023-05-30T10:18:15|2023-05-30T10:58:55|00:40:40|dcc-youlab-gpu-36|1|10|96G||/hpc/group/ldefratelab/Patrick/Cartilage_ML_3D|
pb183|COMPLETED|scavenger-gpu|2023-05-30T10:54:37|2023-05-30T12:07:28|01:12:51|dcc-youlab-gpu-38|1|10|96G||/hpc/group/ldefratelab/Patrick/Cartilage_ML_3D|
pb183|COMPLETED|scavenger-gpu|2023-05-30T10:58:56|2023-05-30T13:21:22|02:22:26|dcc-youlab-gpu-36|1|10|96G||/hpc/group/ldefratelab/Patrick/Cartilage_ML_3D|
pb183|COMPLETED|scavenger-gpu|2023-05-30T12:07:30|2023-05-30T14:12:02|02:04:32|dcc-youlab-gpu-38|1|10|96G||/hpc/group/ldefratelab/Patrick/Cartilage_ML_3D|
pb183|COMPLETED|scavenger-gpu|2023-05-30T13:21:23|2023-05-30T15:23:56|02:02:33|dcc-youlab-gpu-36|1|10|96G||/hpc/group/ldefratelab/Patrick/Cartilage_ML_3D|
pb183|COMPLETED|scavenger-gpu|2023-05-30T13:27:29|2023-05-31T19:55:01|1-06:27:32|dcc-youlab-gpu-34|1|10|96G||/hpc/group/ldefratelab/Patrick/Cartilage_ML_3D|
pb183|COMPLETED|scavenger-gpu|2023-05-30T14:12:05|2023-05-30T16:40:16|02:28:11|dcc-youlab-gpu-38|1|10|96G||/hpc/group/ldefratelab/Patrick/Cartilage_ML_3D|
pb183|COMPLETED|scavenger-gpu|2023-05-30T15:10:52|2023-06-04T05:26:05|4-14:15:13|dcc-collinslab-gpu-03|1|19|96G||/hpc/group/ldefratelab/Patrick/Cartilage_ML_3D|
pb183|COMPLETED|scavenger-gpu|2023-05-30T15:22:13|2023-05-30T17:26:52|02:04:39|dcc-vossenlab-gpu-02|1|10|96G||/hpc/group/ldefratelab/Patrick/Cartilage_ML_3D|
pb183|COMPLETED|scavenger-gpu|2023-05-30T15:25:38|2023-05-30T16:34:30|01:08:52|dcc-collinslab-gpu-02|1|19|96G||/hpc/group/ldefratelab/Patrick/Cartilage_ML_3D|
pb183|COMPLETED|scavenger-gpu|2023-05-30T16:34:35|2023-05-30T18:43:03|02:08:28|dcc-collinslab-gpu-02|1|19|96G||/hpc/group/ldefratelab/Patrick/Cartilage_ML_3D|
pb183|COMPLETED|scavenger-gpu|2023-05-30T16:41:01|2023-05-30T17:36:50|00:55:49|dcc-allenlab-gpu-02|1|10|96G||/hpc/group/ldefratelab/Patrick/Cartilage_ML_3D|
pb183|COMPLETED|scavenger-gpu|2023-05-30T17:03:16|2023-05-30T18:12:46|01:09:30|dcc-youlab-gpu-38|1|10|96G||/hpc/group/ldefratelab/Patrick/Cartilage_ML_3D|
pb183|COMPLETED|scavenger-gpu|2023-05-30T17:29:25|2023-05-30T18:09:18|00:39:53|dcc-youlab-gpu-04|1|10|96G||/hpc/group/ldefratelab/Patrick/Cartilage_ML_3D|
pb183|COMPLETED|scavenger-gpu|2023-05-30T17:37:24|2023-05-30T18:50:46|01:13:22|dcc-youlab-gpu-03|1|10|96G||/hpc/group/ldefratelab/Patrick/Cartilage_ML_3D|
pb183|COMPLETED|scavenger-gpu|2023-05-30T18:12:05|2023-05-30T19:16:53|01:04:48|dcc-youlab-gpu-04|1|10|96G||/hpc/group/ldefratelab/Patrick/Cartilage_ML_3D|
pb183|COMPLETED|scavenger-gpu|2023-05-30T18:12:49|2023-05-30T19:17:54|01:05:05|dcc-youlab-gpu-38|1|10|96G||/hpc/group/ldefratelab/Patrick/Cartilage_ML_3D|
pb183|COMPLETED|scavenger-gpu|2023-05-30T18:21:20|2023-05-30T20:14:22|01:53:02|dcc-youlab-gpu-43|1|10|96G||/hpc/group/ldefratelab/Patrick/Cartilage_ML_3D|
pb183|COMPLETED|scavenger-gpu|2023-05-30T18:43:06|2023-05-30T22:42:34|03:59:28|dcc-youlab-gpu-02|1|10|96G||/hpc/group/ldefratelab/Patrick/Cartilage_ML_3D|
pb183|COMPLETED|scavenger-gpu|2023-05-30T18:44:33|2023-05-30T22:00:21|03:15:48|dcc-youlab-gpu-42|1|10|96G||/hpc/group/ldefratelab/Patrick/Cartilage_ML_3D|
pb183|COMPLETED|scavenger-gpu|2023-05-30T18:50:53|2023-05-30T22:03:43|03:12:50|dcc-youlab-gpu-09|1|10|96G||/hpc/group/ldefratelab/Patrick/Cartilage_ML_3D|
pb183|COMPLETED|scavenger-gpu|2023-05-30T19:17:00|2023-06-01T08:52:57|1-13:35:57|dcc-youlab-gpu-04|1|10|96G||/hpc/group/ldefratelab/Patrick/Cartilage_ML_3D|
pb183|COMPLETED|scavenger-gpu|2023-05-30T19:18:00|2023-05-30T23:09:07|03:51:07|dcc-youlab-gpu-38|1|10|96G||/hpc/group/ldefratelab/Patrick/Cartilage_ML_3D|
pb183|COMPLETED|scavenger-gpu|2023-05-30T19:23:30|2023-06-01T15:02:01|1-19:38:31|dcc-youlab-gpu-40|1|10|96G||/hpc/group/ldefratelab/Patrick/Cartilage_ML_3D|
pb183|COMPLETED|scavenger-gpu|2023-05-30T20:14:25|2023-05-30T23:27:05|03:12:40|dcc-youlab-gpu-43|1|10|96G||/hpc/group/ldefratelab/Patrick/Cartilage_ML_3D|
pb183|COMPLETED|scavenger-gpu|2023-05-30T22:00:24|2023-05-30T23:05:09|01:04:45|dcc-youlab-gpu-42|1|10|96G||/hpc/group/ldefratelab/Patrick/Cartilage_ML_3D|
pb183|COMPLETED|scavenger-gpu|2023-05-30T22:03:44|2023-05-31T00:21:33|02:17:49|dcc-youlab-gpu-10|1|10|96G||/hpc/group/ldefratelab/Patrick/Cartilage_ML_3D|
pb183|COMPLETED|scavenger-gpu|2023-05-30T22:42:37|2023-05-31T00:38:50|01:56:13|dcc-youlab-gpu-02|1|10|96G||/hpc/group/ldefratelab/Patrick/Cartilage_ML_3D|
pb183|COMPLETED|scavenger-gpu|2023-05-30T23:05:12|2023-05-31T00:47:56|01:42:44|dcc-youlab-gpu-42|1|10|96G||/hpc/group/ldefratelab/Patrick/Cartilage_ML_3D|
pb183|COMPLETED|scavenger-gpu|2023-05-30T23:09:10|2023-05-31T00:17:37|01:08:27|dcc-youlab-gpu-38|1|10|96G||/hpc/group/ldefratelab/Patrick/Cartilage_ML_3D|
pb183|COMPLETED|scavenger-gpu|2023-05-30T23:27:07|2023-05-31T01:35:34|02:08:27|dcc-youlab-gpu-43|1|10|96G||/hpc/group/ldefratelab/Patrick/Cartilage_ML_3D|
pb183|COMPLETED|scavenger-gpu|2023-05-31T00:17:39|2023-05-31T02:16:37|01:58:58|dcc-youlab-gpu-38|1|10|96G||/hpc/group/ldefratelab/Patrick/Cartilage_ML_3D|
pb183|COMPLETED|scavenger-gpu|2023-05-31T00:20:55|2023-05-31T02:05:05|01:44:10|dcc-youlab-gpu-53|1|10|96G||/hpc/group/ldefratelab/Patrick/Cartilage_ML_3D|
pb183|COMPLETED|scavenger-gpu|2023-05-31T00:21:35|2023-05-31T04:01:02|03:39:27|dcc-youlab-gpu-10|1|10|96G||/hpc/group/ldefratelab/Patrick/Cartilage_ML_3D|
pb183|COMPLETED|scavenger-gpu|2023-05-31T00:39:04|2023-05-31T08:03:58|07:24:54|dcc-youlab-gpu-09|1|10|96G||/hpc/group/ldefratelab/Patrick/Cartilage_ML_3D|
pb183|COMPLETED|scavenger-gpu|2023-05-31T00:47:59|2023-05-31T06:58:36|06:10:37|dcc-youlab-gpu-42|1|10|96G||/hpc/group/ldefratelab/Patrick/Cartilage_ML_3D|
pb183|COMPLETED|scavenger-gpu|2023-05-31T01:35:35|2023-05-31T06:50:10|05:14:35|dcc-youlab-gpu-43|1|10|96G||/hpc/group/ldefratelab/Patrick/Cartilage_ML_3D|
pb183|COMPLETED|scavenger-gpu|2023-05-31T02:05:07|2023-05-31T05:39:36|03:34:29|dcc-youlab-gpu-53|1|10|96G||/hpc/group/ldefratelab/Patrick/Cartilage_ML_3D|
pb183|COMPLETED|scavenger-gpu|2023-05-31T02:16:40|2023-05-31T09:32:41|07:16:01|dcc-youlab-gpu-38|1|10|96G||/hpc/group/ldefratelab/Patrick/Cartilage_ML_3D|
pb183|COMPLETED|scavenger-gpu|2023-05-31T04:01:05|2023-05-31T10:15:56|06:14:51|dcc-youlab-gpu-11|1|10|96G||/hpc/group/ldefratelab/Patrick/Cartilage_ML_3D|
pb183|COMPLETED|scavenger-gpu|2023-05-31T05:39:36|2023-05-31T10:58:57|05:19:21|dcc-youlab-gpu-53|1|10|96G||/hpc/group/ldefratelab/Patrick/Cartilage_ML_3D|
pb183|COMPLETED|scavenger-gpu|2023-05-31T06:50:12|2023-05-31T17:15:57|10:25:45|dcc-youlab-gpu-43|1|10|96G||/hpc/group/ldefratelab/Patrick/Cartilage_ML_3D|
pb183|COMPLETED|scavenger-gpu|2023-05-31T06:58:36|2023-05-31T07:47:38|00:49:02|dcc-youlab-gpu-08|1|10|96G||/hpc/group/ldefratelab/Patrick/Cartilage_ML_3D|
pb183|COMPLETED|scavenger-gpu|2023-05-31T07:47:40|2023-05-31T13:59:34|06:11:54|dcc-youlab-gpu-12|1|10|96G||/hpc/group/ldefratelab/Patrick/Cartilage_ML_3D|
pb183|COMPLETED|scavenger-gpu|2023-05-31T07:56:26|2023-05-31T08:21:42|00:25:16|dcc-youlab-gpu-30|1|10|96G||/hpc/group/ldefratelab/Patrick/Cartilage_ML_3D|
pb183|COMPLETED|scavenger-gpu|2023-05-31T08:04:00|2023-05-31T10:52:53|02:48:53|dcc-youlab-gpu-10|1|10|96G||/hpc/group/ldefratelab/Patrick/Cartilage_ML_3D|
pb183|COMPLETED|scavenger-gpu|2023-05-31T08:21:44|2023-05-31T08:50:06|00:28:22|dcc-youlab-gpu-09|1|10|96G||/hpc/group/ldefratelab/Patrick/Cartilage_ML_3D|
pb183|COMPLETED|scavenger-gpu|2023-05-31T08:50:07|2023-05-31T17:29:01|08:38:54|dcc-youlab-gpu-36|1|10|96G||/hpc/group/ldefratelab/Patrick/Cartilage_ML_3D|
pb183|COMPLETED|scavenger-gpu|2023-05-31T09:32:41|2023-05-31T10:00:45|00:28:04|dcc-youlab-gpu-42|1|10|96G||/hpc/group/ldefratelab/Patrick/Cartilage_ML_3D|
pb183|COMPLETED|scavenger-gpu|2023-05-31T09:42:16|2023-05-31T10:25:16|00:43:00|dcc-youlab-gpu-41|1|10|96G||/hpc/group/ldefratelab/Patrick/Cartilage_ML_3D|
pb183|COMPLETED|scavenger-gpu|2023-05-31T10:00:45|2023-05-31T11:22:14|01:21:29|dcc-youlab-gpu-42|1|10|96G||/hpc/group/ldefratelab/Patrick/Cartilage_ML_3D|
pb183|COMPLETED|scavenger-gpu|2023-05-31T10:15:58|2023-05-31T14:14:11|03:58:13|dcc-youlab-gpu-38|1|10|96G||/hpc/group/ldefratelab/Patrick/Cartilage_ML_3D|
pb183|COMPLETED|scavenger-gpu|2023-05-31T10:25:17|2023-05-31T11:40:00|01:14:43|dcc-youlab-gpu-41|1|10|96G||/hpc/group/ldefratelab/Patrick/Cartilage_ML_3D|
pb183|COMPLETED|scavenger-gpu|2023-05-31T10:52:55|2023-06-01T17:09:49|1-06:16:54|dcc-youlab-gpu-10|1|10|96G||/hpc/group/ldefratelab/Patrick/Cartilage_ML_3D|
pb183|COMPLETED|scavenger-gpu|2023-05-31T10:58:59|2023-05-31T12:25:52|01:26:53|dcc-youlab-gpu-53|1|10|96G||/hpc/group/ldefratelab/Patrick/Cartilage_ML_3D|
pb183|COMPLETED|scavenger-gpu|2023-05-31T11:22:16|2023-05-31T12:35:42|01:13:26|dcc-youlab-gpu-42|1|10|96G||/hpc/group/ldefratelab/Patrick/Cartilage_ML_3D|
pb183|COMPLETED|scavenger-gpu|2023-05-31T11:40:03|2023-05-31T12:54:56|01:14:53|dcc-youlab-gpu-41|1|10|96G||/hpc/group/ldefratelab/Patrick/Cartilage_ML_3D|
pb183|COMPLETED|scavenger-gpu|2023-05-31T12:25:53|2023-05-31T12:51:49|00:25:56|dcc-youlab-gpu-09|1|10|96G||/hpc/group/ldefratelab/Patrick/Cartilage_ML_3D|
pb183|COMPLETED|scavenger-gpu|2023-05-31T12:35:45|2023-05-31T13:13:56|00:38:11|dcc-youlab-gpu-53|1|10|96G||/hpc/group/ldefratelab/Patrick/Cartilage_ML_3D|
pb183|COMPLETED|scavenger-gpu|2023-05-31T12:52:05|2023-05-31T13:31:09|00:39:04|dcc-youlab-gpu-42|1|10|96G||/hpc/group/ldefratelab/Patrick/Cartilage_ML_3D|
pb183|COMPLETED|scavenger-gpu|2023-05-31T12:54:57|2023-05-31T13:33:04|00:38:07|dcc-youlab-gpu-41|1|10|96G||/hpc/group/ldefratelab/Patrick/Cartilage_ML_3D|
pb183|COMPLETED|scavenger-gpu|2023-05-31T13:13:59|2023-06-01T06:40:56|17:26:57|dcc-youlab-gpu-53|1|10|96G||/hpc/group/ldefratelab/Patrick/Cartilage_ML_3D|
pb183|COMPLETED|scavenger-gpu|2023-05-31T13:31:10|2023-05-31T14:06:43|00:35:33|dcc-youlab-gpu-42|1|10|96G||/hpc/group/ldefratelab/Patrick/Cartilage_ML_3D|
pb183|COMPLETED|scavenger-gpu|2023-05-31T13:33:05|2023-06-01T02:42:27|13:09:22|dcc-youlab-gpu-41|1|10|96G||/hpc/group/ldefratelab/Patrick/Cartilage_ML_3D|
pb183|COMPLETED|scavenger-gpu|2023-05-31T14:00:17|2023-05-31T14:41:19|00:41:02|dcc-youlab-gpu-12|1|10|96G||/hpc/group/ldefratelab/Patrick/Cartilage_ML_3D|
pb183|COMPLETED|scavenger-gpu|2023-05-31T14:06:58|2023-05-31T17:10:05|03:03:07|dcc-collinslab-gpu-04|1|19|96G||/hpc/group/ldefratelab/Patrick/Cartilage_ML_3D|
pb183|COMPLETED|scavenger-gpu|2023-05-31T14:14:17|2023-05-31T16:37:21|02:23:04|dcc-youlab-gpu-38|1|10|96G||/hpc/group/ldefratelab/Patrick/Cartilage_ML_3D|
pb183|COMPLETED|scavenger-gpu|2023-05-31T14:41:20|2023-05-31T16:39:26|01:58:06|dcc-youlab-gpu-12|1|10|96G||/hpc/group/ldefratelab/Patrick/Cartilage_ML_3D|
pb183|COMPLETED|scavenger-gpu|2023-05-31T14:47:19|2023-05-31T16:46:50|01:59:31|dcc-youlab-gpu-55|1|10|96G||/hpc/group/ldefratelab/Patrick/Cartilage_ML_3D|
pb183|COMPLETED|scavenger-gpu|2023-05-31T16:37:23|2023-06-02T09:37:37|1-17:00:14|dcc-youlab-gpu-38|1|10|96G||/hpc/group/ldefratelab/Patrick/Cartilage_ML_3D|
pb183|COMPLETED|scavenger-gpu|2023-05-31T16:39:27|2023-05-31T18:40:55|02:01:28|dcc-allenlab-gpu-02|1|10|96G||/hpc/group/ldefratelab/Patrick/Cartilage_ML_3D|
pb183|COMPLETED|scavenger-gpu|2023-05-31T16:47:13|2023-05-31T18:46:55|01:59:42|dcc-youlab-gpu-55|1|10|96G||/hpc/group/ldefratelab/Patrick/Cartilage_ML_3D|
pb183|COMPLETED|scavenger-gpu|2023-05-31T17:10:08|2023-05-31T19:16:45|02:06:37|dcc-pbenfeylab-gpu-02|1|10|96G||/hpc/group/ldefratelab/Patrick/Cartilage_ML_3D|
pb183|COMPLETED|scavenger-gpu|2023-05-31T17:15:58|2023-05-31T17:52:25|00:36:27|dcc-youlab-gpu-43|1|10|96G||/hpc/group/ldefratelab/Patrick/Cartilage_ML_3D|
pb183|COMPLETED|scavenger-gpu|2023-05-31T17:29:04|2023-05-31T18:24:37|00:55:33|dcc-youlab-gpu-36|1|10|96G||/hpc/group/ldefratelab/Patrick/Cartilage_ML_3D|
pb183|COMPLETED|scavenger-gpu|2023-05-31T17:52:26|2023-05-31T18:53:44|01:01:18|dcc-youlab-gpu-43|1|10|96G||/hpc/group/ldefratelab/Patrick/Cartilage_ML_3D|
pb183|COMPLETED|scavenger-gpu|2023-05-31T18:24:42|2023-05-31T19:24:20|00:59:38|dcc-youlab-gpu-36|1|10|96G||/hpc/group/ldefratelab/Patrick/Cartilage_ML_3D|
pb183|FAILED|scavenger-gpu|2023-05-31T18:40:57|2023-05-31T18:45:02|00:04:05|dcc-collinslab-gpu-01|1|19|96G||/hpc/group/ldefratelab/Patrick/Cartilage_ML_3D|
pb183|COMPLETED|scavenger-gpu|2023-05-31T18:45:04|2023-05-31T21:23:16|02:38:12|dcc-collinslab-gpu-01|1|19|96G||/hpc/group/ldefratelab/Patrick/Cartilage_ML_3D|
pb183|COMPLETED|scavenger-gpu|2023-05-31T18:46:58|2023-06-01T22:02:49|1-03:15:51|dcc-youlab-gpu-55|1|10|96G||/hpc/group/ldefratelab/Patrick/Cartilage_ML_3D|
pb183|COMPLETED|scavenger-gpu|2023-05-31T18:53:45|2023-05-31T19:54:44|01:00:59|dcc-youlab-gpu-43|1|10|96G||/hpc/group/ldefratelab/Patrick/Cartilage_ML_3D|
pb183|COMPLETED|scavenger-gpu|2023-05-31T19:16:47|2023-05-31T21:06:04|01:49:17|dcc-pbenfeylab-gpu-02|1|10|96G||/hpc/group/ldefratelab/Patrick/Cartilage_ML_3D|
pb183|COMPLETED|scavenger-gpu|2023-05-31T19:24:21|2023-05-31T22:37:09|03:12:48|dcc-youlab-gpu-36|1|10|96G||/hpc/group/ldefratelab/Patrick/Cartilage_ML_3D|
pb183|COMPLETED|scavenger-gpu|2023-05-31T19:54:47|2023-05-31T22:51:23|02:56:36|dcc-youlab-gpu-43|1|10|96G||/hpc/group/ldefratelab/Patrick/Cartilage_ML_3D|
pb183|COMPLETED|scavenger-gpu|2023-05-31T19:55:02|2023-06-01T03:46:24|07:51:22|dcc-collinslab-gpu-04|1|19|96G||/hpc/group/ldefratelab/Patrick/Cartilage_ML_3D|
pb183|COMPLETED|scavenger-gpu|2023-05-31T21:06:06|2023-05-31T22:52:45|01:46:39|dcc-pbenfeylab-gpu-02|1|10|96G||/hpc/group/ldefratelab/Patrick/Cartilage_ML_3D|
pb183|COMPLETED|scavenger-gpu|2023-05-31T21:23:18|2023-06-01T01:57:53|04:34:35|dcc-collinslab-gpu-01|1|19|96G||/hpc/group/ldefratelab/Patrick/Cartilage_ML_3D|
pb183|COMPLETED|scavenger-gpu|2023-05-31T22:37:10|2023-06-02T12:35:20|1-13:58:10|dcc-youlab-gpu-36|1|10|96G||/hpc/group/ldefratelab/Patrick/Cartilage_ML_3D|
pb183|COMPLETED|scavenger-gpu|2023-05-31T22:51:54|2023-06-01T01:31:40|02:39:46|dcc-allenlab-gpu-01|1|10|96G||/hpc/group/ldefratelab/Patrick/Cartilage_ML_3D|
pb183|FAILED|scavenger-gpu|2023-05-31T22:53:07|2023-05-31T22:54:38|00:01:31|dcc-pbenfeylab-gpu-02|1|10|96G||/hpc/group/ldefratelab/Patrick/Cartilage_ML_3D|
pb183|COMPLETED|scavenger-gpu|2023-05-31T22:54:56|2023-06-01T00:42:22|01:47:26|dcc-pbenfeylab-gpu-02|1|10|96G||/hpc/group/ldefratelab/Patrick/Cartilage_ML_3D|
pb183|COMPLETED|scavenger-gpu|2023-06-01T00:42:23|2023-06-01T02:26:48|01:44:25|dcc-pbenfeylab-gpu-02|1|10|96G||/hpc/group/ldefratelab/Patrick/Cartilage_ML_3D|
pb183|COMPLETED|scavenger-gpu|2023-06-01T00:43:42|2023-06-01T02:21:46|01:38:04|dcc-youlab-gpu-32|1|10|96G||/hpc/group/ldefratelab/Patrick/Cartilage_ML_3D|
pb183|COMPLETED|scavenger-gpu|2023-06-01T01:31:40|2023-06-01T02:36:38|01:04:58|dcc-allenlab-gpu-02|1|10|96G||/hpc/group/ldefratelab/Patrick/Cartilage_ML_3D|
pb183|COMPLETED|scavenger-gpu|2023-06-01T01:57:54|2023-06-01T05:18:12|03:20:18|dcc-collinslab-gpu-01|1|19|96G||/hpc/group/ldefratelab/Patrick/Cartilage_ML_3D|
pb183|COMPLETED|scavenger-gpu|2023-06-01T02:21:47|2023-06-02T15:35:21|1-13:13:34|dcc-youlab-gpu-32|1|10|96G||/hpc/group/ldefratelab/Patrick/Cartilage_ML_3D|
pb183|COMPLETED|scavenger-gpu|2023-06-01T02:26:49|2023-06-01T04:08:27|01:41:38|dcc-pbenfeylab-gpu-02|1|10|96G||/hpc/group/ldefratelab/Patrick/Cartilage_ML_3D|
pb183|FAILED|scavenger-gpu|2023-06-01T02:36:39|2023-06-01T02:41:48|00:05:09|dcc-collinslab-gpu-02|1|19|96G||/hpc/group/ldefratelab/Patrick/Cartilage_ML_3D|
pb183|COMPLETED|scavenger-gpu|2023-06-01T02:41:49|2023-06-01T12:42:32|10:00:43|dcc-collinslab-gpu-02|1|19|96G||/hpc/group/ldefratelab/Patrick/Cartilage_ML_3D|
pb183|COMPLETED|scavenger-gpu|2023-06-01T02:42:27|2023-06-01T07:28:27|04:46:00|dcc-youlab-gpu-41|1|10|96G||/hpc/group/ldefratelab/Patrick/Cartilage_ML_3D|
pb183|COMPLETED|scavenger-gpu|2023-06-01T03:46:25|2023-06-01T19:01:48|15:15:23|dcc-collinslab-gpu-04|1|19|96G||/hpc/group/ldefratelab/Patrick/Cartilage_ML_3D|
pb183|FAILED|scavenger-gpu|2023-06-01T04:08:27|2023-06-01T04:10:01|00:01:34|dcc-pbenfeylab-gpu-02|1|10|96G||/hpc/group/ldefratelab/Patrick/Cartilage_ML_3D|
pb183|COMPLETED|scavenger-gpu|2023-06-01T04:10:01|2023-06-01T09:39:44|05:29:43|dcc-pbenfeylab-gpu-02|1|10|96G||/hpc/group/ldefratelab/Patrick/Cartilage_ML_3D|
pb183|FAILED|scavenger-gpu|2023-06-01T05:18:15|2023-06-01T05:24:09|00:05:54|dcc-rekerlab-gpu-01|1|8|96G||/hpc/group/ldefratelab/Patrick/Cartilage_ML_3D|
pb183|COMPLETED|scavenger-gpu|2023-06-01T05:24:20|2023-06-01T12:10:45|06:46:25|dcc-rekerlab-gpu-01|1|8|96G||/hpc/group/ldefratelab/Patrick/Cartilage_ML_3D|
pb183|COMPLETED|scavenger-gpu|2023-06-01T06:41:05|2023-06-01T17:20:53|10:39:48|dcc-youlab-gpu-53|1|10|96G||/hpc/group/ldefratelab/Patrick/Cartilage_ML_3D|
pb183|COMPLETED|scavenger-gpu|2023-06-01T07:28:33|2023-06-01T11:47:19|04:18:46|dcc-youlab-gpu-12|1|10|96G||/hpc/group/ldefratelab/Patrick/Cartilage_ML_3D|
pb183|COMPLETED|scavenger-gpu|2023-06-01T08:52:59|2023-06-01T13:50:34|04:57:35|dcc-youlab-gpu-04|1|10|96G||/hpc/group/ldefratelab/Patrick/Cartilage_ML_3D|
pb183|COMPLETED|scavenger-gpu|2023-06-01T09:40:13|2023-06-01T10:05:19|00:25:06|dcc-pbenfeylab-gpu-02|1|10|96G||/hpc/group/ldefratelab/Patrick/Cartilage_ML_3D|
pb183|COMPLETED|scavenger-gpu|2023-06-01T10:05:25|2023-06-01T13:45:41|03:40:16|dcc-pbenfeylab-gpu-02|1|10|96G||/hpc/group/ldefratelab/Patrick/Cartilage_ML_3D|
pb183|COMPLETED|scavenger-gpu|2023-06-01T11:47:20|2023-06-01T17:28:36|05:41:16|dcc-youlab-gpu-12|1|10|96G||/hpc/group/ldefratelab/Patrick/Cartilage_ML_3D|
pb183|COMPLETED|scavenger-gpu|2023-06-01T12:11:07|2023-06-02T04:10:52|15:59:45|dcc-rekerlab-gpu-01|1|8|96G||/hpc/group/ldefratelab/Patrick/Cartilage_ML_3D|
pb183|COMPLETED|scavenger-gpu|2023-06-01T12:42:34|2023-06-01T13:47:35|01:05:01|dcc-collinslab-gpu-02|1|19|96G||/hpc/group/ldefratelab/Patrick/Cartilage_ML_3D|
pb183|COMPLETED|scavenger-gpu|2023-06-01T13:45:42|2023-06-01T14:23:41|00:37:59|dcc-pbenfeylab-gpu-02|1|10|96G||/hpc/group/ldefratelab/Patrick/Cartilage_ML_3D|
pb183|COMPLETED|scavenger-gpu|2023-06-01T13:47:35|2023-06-01T19:29:57|05:42:22|dcc-collinslab-gpu-02|1|19|96G||/hpc/group/ldefratelab/Patrick/Cartilage_ML_3D|
pb183|COMPLETED|scavenger-gpu|2023-06-01T13:50:34|2023-06-02T03:05:35|13:15:01|dcc-youlab-gpu-04|1|10|96G||/hpc/group/ldefratelab/Patrick/Cartilage_ML_3D|
pb183|COMPLETED|scavenger-gpu|2023-06-01T14:23:41|2023-06-01T15:30:05|01:06:24|dcc-pbenfeylab-gpu-02|1|10|96G||/hpc/group/ldefratelab/Patrick/Cartilage_ML_3D|
pb183|COMPLETED|scavenger-gpu|2023-06-01T15:02:03|2023-06-02T20:29:46|1-05:27:43|dcc-youlab-gpu-40|1|10|96G||/hpc/group/ldefratelab/Patrick/Cartilage_ML_3D|
pb183|COMPLETED|scavenger-gpu|2023-06-01T15:30:06|2023-06-02T17:01:49|1-01:31:43|dcc-pbenfeylab-gpu-02|1|10|96G||/hpc/group/ldefratelab/Patrick/Cartilage_ML_3D|
pb183|COMPLETED|scavenger-gpu|2023-06-01T16:12:03|2023-06-02T06:48:30|14:36:27|dcc-youlab-gpu-35|1|10|96G||/hpc/group/ldefratelab/Patrick/Cartilage_ML_3D|
pb183|COMPLETED|scavenger-gpu|2023-06-01T17:09:51|2023-06-01T18:43:09|01:33:18|dcc-youlab-gpu-10|1|10|96G||/hpc/group/ldefratelab/Patrick/Cartilage_ML_3D|
pb183|COMPLETED|scavenger-gpu|2023-06-01T17:20:56|2023-06-01T17:43:10|00:22:14|dcc-youlab-gpu-53|1|10|96G||/hpc/group/ldefratelab/Patrick/Cartilage_ML_3D|
pb183|COMPLETED|scavenger-gpu|2023-06-01T17:28:38|2023-06-01T18:01:19|00:32:41|dcc-youlab-gpu-12|1|10|96G||/hpc/group/ldefratelab/Patrick/Cartilage_ML_3D|
pb183|COMPLETED|scavenger-gpu|2023-06-01T17:43:10|2023-06-01T18:20:08|00:36:58|dcc-youlab-gpu-53|1|10|96G||/hpc/group/ldefratelab/Patrick/Cartilage_ML_3D|
pb183|COMPLETED|scavenger-gpu|2023-06-01T18:01:21|2023-06-01T18:41:45|00:40:24|dcc-youlab-gpu-16|1|10|96G||/hpc/group/ldefratelab/Patrick/Cartilage_ML_3D|
pb183|COMPLETED|scavenger-gpu|2023-06-01T18:20:09|2023-06-02T11:44:26|17:24:17|dcc-youlab-gpu-53|1|10|96G||/hpc/group/ldefratelab/Patrick/Cartilage_ML_3D|
pb183|COMPLETED|scavenger-gpu|2023-06-01T18:41:47|2023-06-02T05:39:07|10:57:20|dcc-youlab-gpu-16|1|10|96G||/hpc/group/ldefratelab/Patrick/Cartilage_ML_3D|
pb183|COMPLETED|scavenger-gpu|2023-06-01T18:43:11|2023-06-03T00:44:10|1-06:00:59|dcc-youlab-gpu-10|1|10|96G||/hpc/group/ldefratelab/Patrick/Cartilage_ML_3D|
pb183|COMPLETED|scavenger-gpu|2023-06-01T19:02:06|2023-06-01T21:23:00|02:20:54|dcc-collinslab-gpu-04|1|19|96G||/hpc/group/ldefratelab/Patrick/Cartilage_ML_3D|
pb183|COMPLETED|scavenger-gpu|2023-06-01T19:29:58|2023-06-01T20:27:20|00:57:22|dcc-youlab-gpu-01|1|44|96G||/hpc/group/ldefratelab/Patrick/Cartilage_ML_3D|
pb183|COMPLETED|scavenger-gpu|2023-06-01T20:27:34|2023-06-01T22:42:40|02:15:06|dcc-collinslab-gpu-01|1|19|96G||/hpc/group/ldefratelab/Patrick/Cartilage_ML_3D|
pb183|COMPLETED|scavenger-gpu|2023-06-01T21:23:00|2023-06-02T00:53:05|03:30:05|dcc-collinslab-gpu-04|1|19|96G||/hpc/group/ldefratelab/Patrick/Cartilage_ML_3D|
pb183|COMPLETED|scavenger-gpu|2023-06-01T22:02:50|2023-06-01T23:36:40|01:33:50|dcc-youlab-gpu-55|1|10|96G||/hpc/group/ldefratelab/Patrick/Cartilage_ML_3D|
pb183|FAILED|scavenger-gpu|2023-06-01T22:42:41|2023-06-01T22:46:30|00:03:49|dcc-collinslab-gpu-02|1|19|96G||/hpc/group/ldefratelab/Patrick/Cartilage_ML_3D|
pb183|COMPLETED|scavenger-gpu|2023-06-01T22:46:32|2023-06-04T00:14:56|2-01:28:24|dcc-collinslab-gpu-02|1|19|96G||/hpc/group/ldefratelab/Patrick/Cartilage_ML_3D|
pb183|COMPLETED|scavenger-gpu|2023-06-01T23:36:42|2023-06-03T04:24:45|1-04:48:03|dcc-youlab-gpu-55|1|10|96G||/hpc/group/ldefratelab/Patrick/Cartilage_ML_3D|
pb183|COMPLETED|scavenger-gpu|2023-06-02T00:53:07|2023-06-02T04:55:21|04:02:14|dcc-collinslab-gpu-04|1|19|96G||/hpc/group/ldefratelab/Patrick/Cartilage_ML_3D|
pb183|FAILED|scavenger-gpu|2023-06-02T03:05:37|2023-06-02T03:06:50|00:01:13|dcc-youlab-gpu-04|1|10|96G||/hpc/group/ldefratelab/Patrick/Cartilage_ML_3D|
pb183|COMPLETED|scavenger-gpu|2023-06-02T03:06:52|2023-06-02T04:28:16|01:21:24|dcc-youlab-gpu-04|1|10|96G||/hpc/group/ldefratelab/Patrick/Cartilage_ML_3D|
pb183|FAILED|scavenger-gpu|2023-06-02T04:10:53|2023-06-02T04:12:52|00:01:59|dcc-rekerlab-gpu-01|1|8|96G||/hpc/group/ldefratelab/Patrick/Cartilage_ML_3D|
pb183|COMPLETED|scavenger-gpu|2023-06-02T04:12:54|2023-06-02T05:21:50|01:08:56|dcc-rekerlab-gpu-01|1|8|96G||/hpc/group/ldefratelab/Patrick/Cartilage_ML_3D|
pb183|FAILED|scavenger-gpu|2023-06-02T04:28:16|2023-06-02T04:29:27|00:01:11|dcc-youlab-gpu-04|1|10|96G||/hpc/group/ldefratelab/Patrick/Cartilage_ML_3D|
pb183|COMPLETED|scavenger-gpu|2023-06-02T04:29:27|2023-06-02T05:26:19|00:56:52|dcc-youlab-gpu-04|1|10|96G||/hpc/group/ldefratelab/Patrick/Cartilage_ML_3D|
pb183|COMPLETED|scavenger-gpu|2023-06-02T04:55:43|2023-06-04T04:26:33|1-23:30:50|dcc-collinslab-gpu-04|1|19|96G||/hpc/group/ldefratelab/Patrick/Cartilage_ML_3D|
pb183|COMPLETED|scavenger-gpu|2023-06-02T05:22:06|2023-06-02T06:51:43|01:29:37|dcc-rekerlab-gpu-01|1|8|96G||/hpc/group/ldefratelab/Patrick/Cartilage_ML_3D|
pb183|FAILED|scavenger-gpu|2023-06-02T05:26:45|2023-06-02T05:27:56|00:01:11|dcc-youlab-gpu-04|1|10|96G||/hpc/group/ldefratelab/Patrick/Cartilage_ML_3D|
pb183|COMPLETED|scavenger-gpu|2023-06-02T05:28:17|2023-06-02T07:39:34|02:11:17|dcc-youlab-gpu-04|1|10|96G||/hpc/group/ldefratelab/Patrick/Cartilage_ML_3D|
pb183|COMPLETED|scavenger-gpu|2023-06-02T05:39:08|2023-06-02T07:53:26|02:14:18|dcc-youlab-gpu-16|1|10|96G||/hpc/group/ldefratelab/Patrick/Cartilage_ML_3D|
pb183|COMPLETED|scavenger-gpu|2023-06-02T06:48:32|2023-06-02T09:02:05|02:13:33|dcc-youlab-gpu-35|1|10|96G||/hpc/group/ldefratelab/Patrick/Cartilage_ML_3D|
pb183|FAILED|scavenger-gpu|2023-06-02T06:51:44|2023-06-02T06:53:04|00:01:20|dcc-rekerlab-gpu-01|1|8|96G||/hpc/group/ldefratelab/Patrick/Cartilage_ML_3D|
pb183|COMPLETED|scavenger-gpu|2023-06-02T06:53:05|2023-06-03T15:45:20|1-08:52:15|dcc-youlab-gpu-12|1|10|96G||/hpc/group/ldefratelab/Patrick/Cartilage_ML_3D|
pb183|COMPLETED|scavenger-gpu|2023-06-02T07:39:34|2023-06-04T18:57:11|2-11:17:37|dcc-youlab-gpu-04|1|10|96G||/hpc/group/ldefratelab/Patrick/Cartilage_ML_3D|
pb183|COMPLETED|scavenger-gpu|2023-06-02T07:53:28|2023-06-02T10:08:33|02:15:05|dcc-youlab-gpu-16|1|10|96G||/hpc/group/ldefratelab/Patrick/Cartilage_ML_3D|
pb183|FAILED|scavenger-gpu|2023-06-02T09:02:06|2023-06-02T09:03:31|00:01:25|dcc-youlab-gpu-35|1|10|96G||/hpc/group/ldefratelab/Patrick/Cartilage_ML_3D|
pb183|FAILED|scavenger-gpu|2023-06-02T09:03:31|2023-06-02T09:08:35|00:05:04|dcc-rekerlab-gpu-01|1|8|96G||/hpc/group/ldefratelab/Patrick/Cartilage_ML_3D|
pb183|FAILED|scavenger-gpu|2023-06-02T09:08:35|2023-06-02T09:10:01|00:01:26|dcc-rekerlab-gpu-01|1|8|96G||/hpc/group/ldefratelab/Patrick/Cartilage_ML_3D|
pb183|FAILED|scavenger-gpu|2023-06-02T09:10:01|2023-06-02T09:11:32|00:01:31|dcc-rekerlab-gpu-01|1|8|96G||/hpc/group/ldefratelab/Patrick/Cartilage_ML_3D|
pb183|FAILED|scavenger-gpu|2023-06-02T09:11:34|2023-06-02T09:13:33|00:01:59|dcc-youlab-gpu-15|1|10|96G||/hpc/group/ldefratelab/Patrick/Cartilage_ML_3D|
pb183|COMPLETED|scavenger-gpu|2023-06-02T09:13:34|2023-06-02T12:17:43|03:04:09|dcc-youlab-gpu-15|1|10|96G||/hpc/group/ldefratelab/Patrick/Cartilage_ML_3D|
pb183|FAILED|scavenger-gpu|2023-06-02T09:37:38|2023-06-02T09:43:34|00:05:56|dcc-youlab-gpu-38|1|10|96G||/hpc/group/ldefratelab/Patrick/Cartilage_ML_3D|
pb183|COMPLETED|scavenger-gpu|2023-06-02T09:43:35|2023-06-02T11:33:08|01:49:33|dcc-youlab-gpu-38|1|10|96G||/hpc/group/ldefratelab/Patrick/Cartilage_ML_3D|
pb183|FAILED|scavenger-gpu|2023-06-02T10:08:34|2023-06-02T10:09:56|00:01:22|dcc-youlab-gpu-16|1|10|96G||/hpc/group/ldefratelab/Patrick/Cartilage_ML_3D|
pb183|COMPLETED|scavenger-gpu|2023-06-02T10:09:56|2023-06-02T14:43:04|04:33:08|dcc-youlab-gpu-16|1|10|96G||/hpc/group/ldefratelab/Patrick/Cartilage_ML_3D|
pb183|FAILED|scavenger-gpu|2023-06-02T11:33:13|2023-06-02T11:41:49|00:08:36|dcc-youlab-gpu-38|1|10|96G||/hpc/group/ldefratelab/Patrick/Cartilage_ML_3D|
pb183|COMPLETED|scavenger-gpu|2023-06-02T11:42:01|2023-06-02T16:00:32|04:18:31|dcc-youlab-gpu-42|1|10|96G||/hpc/group/ldefratelab/Patrick/Cartilage_ML_3D|
pb183|FAILED|scavenger-gpu|2023-06-02T11:44:37|2023-06-02T11:46:23|00:01:46|dcc-youlab-gpu-53|1|10|96G||/hpc/group/ldefratelab/Patrick/Cartilage_ML_3D|
pb183|COMPLETED|scavenger-gpu|2023-06-02T11:46:40|2023-06-06T05:29:02|3-17:42:22|dcc-youlab-gpu-53|1|10|96G||/hpc/group/ldefratelab/Patrick/Cartilage_ML_3D|
pb183|COMPLETED|scavenger-gpu|2023-06-02T12:17:55|2023-06-04T16:58:41|2-04:40:46|dcc-youlab-gpu-15|1|10|96G||/hpc/group/ldefratelab/Patrick/Cartilage_ML_3D|
pb183|COMPLETED|scavenger-gpu|2023-06-02T12:35:41|2023-06-02T16:50:46|04:15:05|dcc-youlab-gpu-36|1|10|96G||/hpc/group/ldefratelab/Patrick/Cartilage_ML_3D|
pb183|COMPLETED|scavenger-gpu|2023-06-02T14:43:26|2023-06-02T14:57:34|00:14:08|dcc-youlab-gpu-16|1|10|96G||/hpc/group/ldefratelab/Patrick/Cartilage_ML_3D|
pb183|COMPLETED|scavenger-gpu|2023-06-02T14:57:39|2023-06-02T15:29:46|00:32:07|dcc-youlab-gpu-16|1|10|96G||/hpc/group/ldefratelab/Patrick/Cartilage_ML_3D|
pb183|COMPLETED|scavenger-gpu|2023-06-02T15:30:11|2023-06-02T22:02:06|06:31:55|dcc-youlab-gpu-16|1|10|96G||/hpc/group/ldefratelab/Patrick/Cartilage_ML_3D|
pb183|COMPLETED|scavenger-gpu|2023-06-02T15:35:46|2023-06-02T16:04:47|00:29:01|dcc-youlab-gpu-32|1|10|96G||/hpc/group/ldefratelab/Patrick/Cartilage_ML_3D|
pb183|COMPLETED|scavenger-gpu|2023-06-02T16:01:02|2023-06-03T02:36:51|10:35:49|dcc-youlab-gpu-42|1|10|96G||/hpc/group/ldefratelab/Patrick/Cartilage_ML_3D|
pb183|COMPLETED|scavenger-gpu|2023-06-02T16:05:19|2023-06-02T16:37:40|00:32:21|dcc-youlab-gpu-32|1|10|96G||/hpc/group/ldefratelab/Patrick/Cartilage_ML_3D|
pb183|COMPLETED|scavenger-gpu|2023-06-02T16:38:01|2023-06-03T05:58:58|13:20:57|dcc-youlab-gpu-32|1|10|96G||/hpc/group/ldefratelab/Patrick/Cartilage_ML_3D|
pb183|COMPLETED|scavenger-gpu|2023-06-02T16:50:51|2023-06-02T17:21:29|00:30:38|dcc-youlab-gpu-36|1|10|96G||/hpc/group/ldefratelab/Patrick/Cartilage_ML_3D|
pb183|COMPLETED|scavenger-gpu|2023-06-02T17:02:11|2023-06-03T05:46:01|12:43:50|dcc-pbenfeylab-gpu-02|1|10|96G||/hpc/group/ldefratelab/Patrick/Cartilage_ML_3D|
pb183|COMPLETED|scavenger-gpu|2023-06-02T17:21:44|2023-06-02T18:46:44|01:25:00|dcc-youlab-gpu-36|1|10|96G||/hpc/group/ldefratelab/Patrick/Cartilage_ML_3D|
pb183|COMPLETED|scavenger-gpu|2023-06-02T18:46:54|2023-06-03T09:15:20|14:28:26|dcc-youlab-gpu-36|1|10|96G||/hpc/group/ldefratelab/Patrick/Cartilage_ML_3D|
pb183|COMPLETED|scavenger-gpu|2023-06-02T20:30:11|2023-06-02T21:47:04|01:16:53|dcc-youlab-gpu-40|1|10|96G||/hpc/group/ldefratelab/Patrick/Cartilage_ML_3D|
pb183|COMPLETED|scavenger-gpu|2023-06-02T21:47:04|2023-06-02T22:28:21|00:41:17|dcc-youlab-gpu-40|1|10|96G||/hpc/group/ldefratelab/Patrick/Cartilage_ML_3D|
pb183|COMPLETED|scavenger-gpu|2023-06-02T22:02:07|2023-06-02T23:30:38|01:28:31|dcc-youlab-gpu-16|1|10|96G||/hpc/group/ldefratelab/Patrick/Cartilage_ML_3D|
pb183|COMPLETED|scavenger-gpu|2023-06-02T22:28:23|2023-06-02T23:41:31|01:13:08|dcc-youlab-gpu-40|1|10|96G||/hpc/group/ldefratelab/Patrick/Cartilage_ML_3D|
pb183|COMPLETED|scavenger-gpu|2023-06-02T23:30:39|2023-06-03T00:58:06|01:27:27|dcc-youlab-gpu-16|1|10|96G||/hpc/group/ldefratelab/Patrick/Cartilage_ML_3D|
pb183|COMPLETED|scavenger-gpu|2023-06-02T23:41:31|2023-06-03T16:47:46|17:06:15|dcc-youlab-gpu-40|1|10|96G||/hpc/group/ldefratelab/Patrick/Cartilage_ML_3D|
pb183|COMPLETED|scavenger-gpu|2023-06-03T00:44:10|2023-06-03T01:32:55|00:48:45|dcc-youlab-gpu-10|1|10|96G||/hpc/group/ldefratelab/Patrick/Cartilage_ML_3D|
pb183|COMPLETED|scavenger-gpu|2023-06-03T00:58:06|2023-06-03T10:45:29|09:47:23|dcc-youlab-gpu-16|1|10|96G||/hpc/group/ldefratelab/Patrick/Cartilage_ML_3D|
pb183|COMPLETED|scavenger-gpu|2023-06-03T01:32:58|2023-06-03T02:16:43|00:43:45|dcc-youlab-gpu-10|1|10|96G||/hpc/group/ldefratelab/Patrick/Cartilage_ML_3D|
pb183|COMPLETED|scavenger-gpu|2023-06-03T02:16:44|2023-06-03T02:39:24|00:22:40|dcc-youlab-gpu-10|1|10|96G||/hpc/group/ldefratelab/Patrick/Cartilage_ML_3D|
pb183|COMPLETED|scavenger-gpu|2023-06-03T02:36:51|2023-06-03T03:24:25|00:47:34|dcc-youlab-gpu-42|1|10|96G||/hpc/group/ldefratelab/Patrick/Cartilage_ML_3D|
pb183|COMPLETED|scavenger-gpu|2023-06-03T02:39:24|2023-06-03T03:20:13|00:40:49|dcc-youlab-gpu-10|1|10|96G||/hpc/group/ldefratelab/Patrick/Cartilage_ML_3D|
pb183|COMPLETED|scavenger-gpu|2023-06-03T03:20:18|2023-06-03T04:05:10|00:44:52|dcc-youlab-gpu-27|1|10|96G||/hpc/group/ldefratelab/Patrick/Cartilage_ML_3D|
pb183|COMPLETED|scavenger-gpu|2023-06-03T03:24:49|2023-06-03T04:34:03|01:09:14|dcc-youlab-gpu-42|1|10|96G||/hpc/group/ldefratelab/Patrick/Cartilage_ML_3D|
pb183|COMPLETED|scavenger-gpu|2023-06-03T04:05:32|2023-06-03T06:29:25|02:23:53|dcc-youlab-gpu-27|1|10|96G||/hpc/group/ldefratelab/Patrick/Cartilage_ML_3D|
pb183|COMPLETED|scavenger-gpu|2023-06-03T04:25:07|2023-06-03T06:25:08|02:00:01|dcc-youlab-gpu-55|1|10|96G||/hpc/group/ldefratelab/Patrick/Cartilage_ML_3D|
pb183|COMPLETED|scavenger-gpu|2023-06-03T04:34:10|2023-06-03T06:35:23|02:01:13|dcc-youlab-gpu-42|1|10|96G||/hpc/group/ldefratelab/Patrick/Cartilage_ML_3D|
pb183|COMPLETED|scavenger-gpu|2023-06-03T05:46:01|2023-06-05T01:12:31|1-19:26:30|dcc-pbenfeylab-gpu-02|1|10|96G||/hpc/group/ldefratelab/Patrick/Cartilage_ML_3D|
pb183|COMPLETED|scavenger-gpu|2023-06-03T05:58:58|2023-06-03T08:17:30|02:18:32|dcc-youlab-gpu-32|1|10|96G||/hpc/group/ldefratelab/Patrick/Cartilage_ML_3D|
pb183|COMPLETED|scavenger-gpu|2023-06-03T06:25:08|2023-06-03T08:24:38|01:59:30|dcc-youlab-gpu-55|1|10|96G||/hpc/group/ldefratelab/Patrick/Cartilage_ML_3D|
pb183|COMPLETED|scavenger-gpu|2023-06-03T06:29:25|2023-06-03T08:31:39|02:02:14|dcc-youlab-gpu-27|1|10|96G||/hpc/group/ldefratelab/Patrick/Cartilage_ML_3D|
pb183|COMPLETED|scavenger-gpu|2023-06-03T06:35:23|2023-06-03T07:10:40|00:35:17|dcc-youlab-gpu-42|1|10|96G||/hpc/group/ldefratelab/Patrick/Cartilage_ML_3D|
pb183|COMPLETED|scavenger-gpu|2023-06-03T07:10:40|2023-06-03T08:23:06|01:12:26|dcc-youlab-gpu-42|1|10|96G||/hpc/group/ldefratelab/Patrick/Cartilage_ML_3D|
pb183|COMPLETED|scavenger-gpu|2023-06-03T08:17:31|2023-06-03T09:19:10|01:01:39|dcc-youlab-gpu-32|1|10|96G||/hpc/group/ldefratelab/Patrick/Cartilage_ML_3D|
pb183|COMPLETED|scavenger-gpu|2023-06-03T08:23:06|2023-06-03T09:25:32|01:02:26|dcc-youlab-gpu-42|1|10|96G||/hpc/group/ldefratelab/Patrick/Cartilage_ML_3D|
pb183|COMPLETED|scavenger-gpu|2023-06-03T08:24:38|2023-06-03T09:00:27|00:35:49|dcc-youlab-gpu-55|1|10|96G||/hpc/group/ldefratelab/Patrick/Cartilage_ML_3D|
pb183|COMPLETED|scavenger-gpu|2023-06-03T08:31:39|2023-06-03T09:44:51|01:13:12|dcc-youlab-gpu-27|1|10|96G||/hpc/group/ldefratelab/Patrick/Cartilage_ML_3D|
pb183|COMPLETED|scavenger-gpu|2023-06-03T09:00:27|2023-06-04T04:49:00|19:48:33|dcc-youlab-gpu-55|1|10|96G||/hpc/group/ldefratelab/Patrick/Cartilage_ML_3D|
pb183|COMPLETED|scavenger-gpu|2023-06-03T09:15:20|2023-06-03T10:17:50|01:02:30|dcc-youlab-gpu-36|1|10|96G||/hpc/group/ldefratelab/Patrick/Cartilage_ML_3D|
pb183|COMPLETED|scavenger-gpu|2023-06-03T09:19:11|2023-06-03T11:10:29|01:51:18|dcc-youlab-gpu-32|1|10|96G||/hpc/group/ldefratelab/Patrick/Cartilage_ML_3D|
pb183|COMPLETED|scavenger-gpu|2023-06-03T09:25:32|2023-06-03T13:08:27|03:42:55|dcc-youlab-gpu-42|1|10|96G||/hpc/group/ldefratelab/Patrick/Cartilage_ML_3D|
pb183|COMPLETED|scavenger-gpu|2023-06-03T09:44:52|2023-06-03T13:00:57|03:16:05|dcc-youlab-gpu-27|1|10|96G||/hpc/group/ldefratelab/Patrick/Cartilage_ML_3D|
pb183|COMPLETED|scavenger-gpu|2023-06-03T10:17:50|2023-06-03T13:30:18|03:12:28|dcc-youlab-gpu-36|1|10|96G||/hpc/group/ldefratelab/Patrick/Cartilage_ML_3D|
pb183|COMPLETED|scavenger-gpu|2023-06-03T10:45:29|2023-06-03T12:38:20|01:52:51|dcc-youlab-gpu-16|1|10|96G||/hpc/group/ldefratelab/Patrick/Cartilage_ML_3D|
pb183|COMPLETED|scavenger-gpu|2023-06-03T11:10:30|2023-06-03T14:50:36|03:40:06|dcc-youlab-gpu-32|1|10|96G||/hpc/group/ldefratelab/Patrick/Cartilage_ML_3D|
pb183|COMPLETED|scavenger-gpu|2023-06-03T12:38:20|2023-06-03T15:53:42|03:15:22|dcc-youlab-gpu-16|1|10|96G||/hpc/group/ldefratelab/Patrick/Cartilage_ML_3D|
pb183|COMPLETED|scavenger-gpu|2023-06-03T13:00:58|2023-06-03T16:14:21|03:13:23|dcc-youlab-gpu-27|1|10|96G||/hpc/group/ldefratelab/Patrick/Cartilage_ML_3D|
pb183|COMPLETED|scavenger-gpu|2023-06-03T13:08:27|2023-06-03T14:13:35|01:05:08|dcc-youlab-gpu-42|1|10|96G||/hpc/group/ldefratelab/Patrick/Cartilage_ML_3D|
pb183|COMPLETED|scavenger-gpu|2023-06-03T13:30:18|2023-06-03T15:37:16|02:06:58|dcc-youlab-gpu-36|1|10|96G||/hpc/group/ldefratelab/Patrick/Cartilage_ML_3D|
pb183|COMPLETED|scavenger-gpu|2023-06-03T14:13:35|2023-06-03T16:07:05|01:53:30|dcc-youlab-gpu-42|1|10|96G||/hpc/group/ldefratelab/Patrick/Cartilage_ML_3D|
pb183|COMPLETED|scavenger-gpu|2023-06-03T14:50:36|2023-06-03T16:31:59|01:41:23|dcc-youlab-gpu-32|1|10|96G||/hpc/group/ldefratelab/Patrick/Cartilage_ML_3D|
pb183|COMPLETED|scavenger-gpu|2023-06-03T15:37:16|2023-06-03T16:42:15|01:04:59|dcc-youlab-gpu-36|1|10|96G||/hpc/group/ldefratelab/Patrick/Cartilage_ML_3D|
pb183|COMPLETED|scavenger-gpu|2023-06-03T15:45:22|2023-06-03T17:52:47|02:07:25|dcc-youlab-gpu-12|1|10|96G||/hpc/group/ldefratelab/Patrick/Cartilage_ML_3D|
pb183|COMPLETED|scavenger-gpu|2023-06-03T15:53:42|2023-06-03T17:46:34|01:52:52|dcc-youlab-gpu-16|1|10|96G||/hpc/group/ldefratelab/Patrick/Cartilage_ML_3D|
pb183|COMPLETED|scavenger-gpu|2023-06-03T16:07:05|2023-06-03T17:49:32|01:42:27|dcc-youlab-gpu-42|1|10|96G||/hpc/group/ldefratelab/Patrick/Cartilage_ML_3D|
pb183|COMPLETED|scavenger-gpu|2023-06-03T16:14:21|2023-06-03T19:46:51|03:32:30|dcc-youlab-gpu-27|1|10|96G||/hpc/group/ldefratelab/Patrick/Cartilage_ML_3D|
pb183|COMPLETED|scavenger-gpu|2023-06-03T16:32:00|2023-06-03T23:23:58|06:51:58|dcc-youlab-gpu-32|1|10|96G||/hpc/group/ldefratelab/Patrick/Cartilage_ML_3D|
pb183|COMPLETED|scavenger-gpu|2023-06-03T16:42:16|2023-06-03T22:52:17|06:10:01|dcc-youlab-gpu-36|1|10|96G||/hpc/group/ldefratelab/Patrick/Cartilage_ML_3D|
pb183|COMPLETED|scavenger-gpu|2023-06-03T16:47:47|2023-06-03T22:00:24|05:12:37|dcc-youlab-gpu-40|1|10|96G||/hpc/group/ldefratelab/Patrick/Cartilage_ML_3D|
pb183|COMPLETED|scavenger-gpu|2023-06-03T17:46:34|2023-06-03T21:19:14|03:32:40|dcc-youlab-gpu-16|1|10|96G||/hpc/group/ldefratelab/Patrick/Cartilage_ML_3D|
pb183|COMPLETED|scavenger-gpu|2023-06-03T17:49:33|2023-06-04T00:48:33|06:59:00|dcc-youlab-gpu-42|1|10|96G||/hpc/group/ldefratelab/Patrick/Cartilage_ML_3D|
pb183|COMPLETED|scavenger-gpu|2023-06-03T17:53:01|2023-06-04T00:04:14|06:11:13|dcc-youlab-gpu-12|1|10|96G||/hpc/group/ldefratelab/Patrick/Cartilage_ML_3D|
pb183|COMPLETED|scavenger-gpu|2023-06-03T19:46:52|2023-06-04T01:04:24|05:17:32|dcc-youlab-gpu-27|1|10|96G||/hpc/group/ldefratelab/Patrick/Cartilage_ML_3D|
pb183|COMPLETED|scavenger-gpu|2023-06-03T21:19:38|2023-06-04T07:10:41|09:51:03|dcc-youlab-gpu-16|1|10|96G||/hpc/group/ldefratelab/Patrick/Cartilage_ML_3D|
pb183|COMPLETED|scavenger-gpu|2023-06-03T22:00:24|2023-06-03T22:24:10|00:23:46|dcc-youlab-gpu-40|1|10|96G||/hpc/group/ldefratelab/Patrick/Cartilage_ML_3D|
pb183|COMPLETED|scavenger-gpu|2023-06-03T22:24:11|2023-06-04T06:43:02|08:18:51|dcc-youlab-gpu-40|1|10|96G||/hpc/group/ldefratelab/Patrick/Cartilage_ML_3D|
pb183|COMPLETED|scavenger-gpu|2023-06-03T22:52:17|2023-06-03T23:38:47|00:46:30|dcc-youlab-gpu-38|1|10|96G||/hpc/group/ldefratelab/Patrick/Cartilage_ML_3D|
pb183|COMPLETED|scavenger-gpu|2023-06-03T23:23:58|2023-06-04T06:49:14|07:25:16|dcc-youlab-gpu-32|1|10|96G||/hpc/group/ldefratelab/Patrick/Cartilage_ML_3D|
pb183|COMPLETED|scavenger-gpu|2023-06-03T23:38:47|2023-06-04T00:10:51|00:32:04|dcc-youlab-gpu-38|1|10|96G||/hpc/group/ldefratelab/Patrick/Cartilage_ML_3D|
pb183|COMPLETED|scavenger-gpu|2023-06-04T00:04:15|2023-06-04T15:26:40|15:22:25|dcc-youlab-gpu-41|1|10|96G||/hpc/group/ldefratelab/Patrick/Cartilage_ML_3D|
pb183|COMPLETED|scavenger-gpu|2023-06-04T00:10:51|2023-06-04T17:02:43|16:51:52|dcc-youlab-gpu-38|1|10|96G||/hpc/group/ldefratelab/Patrick/Cartilage_ML_3D|
pb183|COMPLETED|scavenger-gpu|2023-06-04T00:14:57|2023-06-04T00:57:35|00:42:38|dcc-youlab-gpu-36|1|10|96G||/hpc/group/ldefratelab/Patrick/Cartilage_ML_3D|
pb183|COMPLETED|scavenger-gpu|2023-06-04T00:48:35|2023-06-04T02:10:19|01:21:44|dcc-youlab-gpu-42|1|10|96G||/hpc/group/ldefratelab/Patrick/Cartilage_ML_3D|
pb183|COMPLETED|scavenger-gpu|2023-06-04T00:57:35|2023-06-04T06:20:02|05:22:27|dcc-youlab-gpu-36|1|10|96G||/hpc/group/ldefratelab/Patrick/Cartilage_ML_3D|
pb183|COMPLETED|scavenger-gpu|2023-06-04T01:04:24|2023-06-04T02:47:30|01:43:06|dcc-youlab-gpu-27|1|10|96G||/hpc/group/ldefratelab/Patrick/Cartilage_ML_3D|
pb183|COMPLETED|scavenger-gpu|2023-06-04T02:10:26|2023-06-05T12:17:40|1-10:07:14|dcc-youlab-gpu-42|1|10|96G||/hpc/group/ldefratelab/Patrick/Cartilage_ML_3D|
pb183|COMPLETED|scavenger-gpu|2023-06-04T02:48:01|2023-06-04T04:52:12|02:04:11|dcc-youlab-gpu-30|1|10|96G||/hpc/group/ldefratelab/Patrick/Cartilage_ML_3D|
pb183|PREEMPTED|scavenger-gpu|2023-06-04T04:27:00|2023-06-05T12:44:08|1-08:17:08|dcc-rekerlab-gpu-01|1|8|96G||/hpc/group/ldefratelab/Patrick/Cartilage_ML_3D|
pb183|COMPLETED|scavenger-gpu|2023-06-04T04:49:09|2023-06-06T17:36:56|2-12:47:47|dcc-youlab-gpu-55|1|10|96G||/hpc/group/ldefratelab/Patrick/Cartilage_ML_3D|
pb183|COMPLETED|scavenger-gpu|2023-06-04T04:52:20|2023-06-04T05:15:07|00:22:47|dcc-youlab-gpu-35|1|10|96G||/hpc/group/ldefratelab/Patrick/Cartilage_ML_3D|
pb183|COMPLETED|scavenger-gpu|2023-06-04T05:15:39|2023-06-04T05:49:14|00:33:35|dcc-youlab-gpu-35|1|10|96G||/hpc/group/ldefratelab/Patrick/Cartilage_ML_3D|
pb183|COMPLETED|scavenger-gpu|2023-06-04T05:26:28|2023-06-04T06:07:08|00:40:40|dcc-youlab-gpu-34|1|10|96G||/hpc/group/ldefratelab/Patrick/Cartilage_ML_3D|
pb183|COMPLETED|scavenger-gpu|2023-06-04T05:49:21|2023-06-04T06:26:44|00:37:23|dcc-youlab-gpu-35|1|10|96G||/hpc/group/ldefratelab/Patrick/Cartilage_ML_3D|
pb183|COMPLETED|scavenger-gpu|2023-06-04T06:07:36|2023-06-04T06:31:09|00:23:33|dcc-youlab-gpu-34|1|10|96G||/hpc/group/ldefratelab/Patrick/Cartilage_ML_3D|
pb183|COMPLETED|scavenger-gpu|2023-06-04T06:20:21|2023-06-04T06:57:48|00:37:27|dcc-youlab-gpu-36|1|10|96G||/hpc/group/ldefratelab/Patrick/Cartilage_ML_3D|
pb183|COMPLETED|scavenger-gpu|2023-06-04T06:27:02|2023-06-05T01:34:45|19:07:43|dcc-youlab-gpu-35|1|10|96G||/hpc/group/ldefratelab/Patrick/Cartilage_ML_3D|
pb183|COMPLETED|scavenger-gpu|2023-06-04T06:31:36|2023-06-05T14:42:51|1-08:11:15|dcc-youlab-gpu-34|1|10|96G||/hpc/group/ldefratelab/Patrick/Cartilage_ML_3D|
pb183|COMPLETED|scavenger-gpu|2023-06-04T06:43:22|2023-06-04T07:51:07|01:07:45|dcc-youlab-gpu-40|1|10|96G||/hpc/group/ldefratelab/Patrick/Cartilage_ML_3D|
pb183|COMPLETED|scavenger-gpu|2023-06-04T06:49:34|2023-06-04T09:05:34|02:16:00|dcc-youlab-gpu-32|1|10|96G||/hpc/group/ldefratelab/Patrick/Cartilage_ML_3D|
pb183|COMPLETED|scavenger-gpu|2023-06-04T06:58:20|2023-06-04T08:56:49|01:58:29|dcc-youlab-gpu-36|1|10|96G||/hpc/group/ldefratelab/Patrick/Cartilage_ML_3D|
pb183|COMPLETED|scavenger-gpu|2023-06-04T07:11:08|2023-06-04T09:16:08|02:05:00|dcc-youlab-gpu-30|1|10|96G||/hpc/group/ldefratelab/Patrick/Cartilage_ML_3D|
pb183|COMPLETED|scavenger-gpu|2023-06-04T07:51:30|2023-06-06T15:15:23|2-07:23:53|dcc-youlab-gpu-40|1|10|96G||/hpc/group/ldefratelab/Patrick/Cartilage_ML_3D|
pb183|COMPLETED|scavenger-gpu|2023-06-04T08:57:01|2023-06-04T11:25:15|02:28:14|dcc-youlab-gpu-43|1|10|96G||/hpc/group/ldefratelab/Patrick/Cartilage_ML_3D|
pb183|COMPLETED|scavenger-gpu|2023-06-04T09:05:50|2023-06-06T04:29:02|1-19:23:12|dcc-youlab-gpu-37|1|10|96G||/hpc/group/ldefratelab/Patrick/Cartilage_ML_3D|
pb183|COMPLETED|scavenger-gpu|2023-06-04T09:16:18|2023-06-04T11:16:32|02:00:14|dcc-youlab-gpu-36|1|10|96G||/hpc/group/ldefratelab/Patrick/Cartilage_ML_3D|
pb183|COMPLETED|scavenger-gpu|2023-06-04T11:16:40|2023-06-04T11:51:43|00:35:03|dcc-youlab-gpu-36|1|10|96G||/hpc/group/ldefratelab/Patrick/Cartilage_ML_3D|
pb183|COMPLETED|scavenger-gpu|2023-06-04T11:25:43|2023-06-04T12:19:56|00:54:13|dcc-youlab-gpu-43|1|10|96G||/hpc/group/ldefratelab/Patrick/Cartilage_ML_3D|
pb183|COMPLETED|scavenger-gpu|2023-06-04T11:51:54|2023-06-04T12:51:07|00:59:13|dcc-youlab-gpu-36|1|10|96G||/hpc/group/ldefratelab/Patrick/Cartilage_ML_3D|
pb183|COMPLETED|scavenger-gpu|2023-06-04T12:20:08|2023-06-04T13:18:58|00:58:50|dcc-youlab-gpu-43|1|10|96G||/hpc/group/ldefratelab/Patrick/Cartilage_ML_3D|
pb183|COMPLETED|scavenger-gpu|2023-06-04T12:51:35|2023-06-05T07:10:58|18:19:23|dcc-youlab-gpu-36|1|10|96G||/hpc/group/ldefratelab/Patrick/Cartilage_ML_3D|
pb183|COMPLETED|scavenger-gpu|2023-06-04T13:19:14|2023-06-05T21:31:06|1-08:11:52|dcc-youlab-gpu-43|1|10|96G||/hpc/group/ldefratelab/Patrick/Cartilage_ML_3D|
pb183|COMPLETED|scavenger-gpu|2023-06-04T15:27:00|2023-06-04T16:27:38|01:00:38|dcc-youlab-gpu-41|1|10|96G||/hpc/group/ldefratelab/Patrick/Cartilage_ML_3D|
pb183|COMPLETED|scavenger-gpu|2023-06-04T16:27:50|2023-06-05T21:36:30|1-05:08:40|dcc-youlab-gpu-41|1|10|96G||/hpc/group/ldefratelab/Patrick/Cartilage_ML_3D|
pb183|COMPLETED|scavenger-gpu|2023-06-04T16:59:13|2023-06-04T18:43:15|01:44:02|dcc-youlab-gpu-15|1|10|96G||/hpc/group/ldefratelab/Patrick/Cartilage_ML_3D|
pb183|COMPLETED|scavenger-gpu|2023-06-04T17:03:11|2023-06-04T20:24:02|03:20:51|dcc-youlab-gpu-38|1|10|96G||/hpc/group/ldefratelab/Patrick/Cartilage_ML_3D|
pb183|COMPLETED|scavenger-gpu|2023-06-04T18:43:50|2023-06-04T21:41:59|02:58:09|dcc-youlab-gpu-15|1|10|96G||/hpc/group/ldefratelab/Patrick/Cartilage_ML_3D|
pb183|COMPLETED|scavenger-gpu|2023-06-04T18:57:47|2023-06-04T21:54:37|02:56:50|dcc-youlab-gpu-04|1|10|96G||/hpc/group/ldefratelab/Patrick/Cartilage_ML_3D|
pb183|COMPLETED|scavenger-gpu|2023-06-04T20:24:31|2023-06-04T22:11:53|01:47:22|dcc-youlab-gpu-38|1|10|96G||/hpc/group/ldefratelab/Patrick/Cartilage_ML_3D|
pb183|COMPLETED|scavenger-gpu|2023-06-04T21:42:35|2023-06-05T01:27:40|03:45:05|dcc-youlab-gpu-15|1|10|96G||/hpc/group/ldefratelab/Patrick/Cartilage_ML_3D|
pb183|COMPLETED|scavenger-gpu|2023-06-04T21:55:15|2023-06-05T00:53:17|02:58:02|dcc-youlab-gpu-04|1|10|96G||/hpc/group/ldefratelab/Patrick/Cartilage_ML_3D|
pb183|COMPLETED|scavenger-gpu|2023-06-04T22:12:13|2023-06-05T01:15:09|03:02:56|dcc-youlab-gpu-38|1|10|96G||/hpc/group/ldefratelab/Patrick/Cartilage_ML_3D|
pb183|FAILED|scavenger-gpu|2023-06-05T00:53:40|2023-06-05T00:55:05|00:01:25|dcc-youlab-gpu-04|1|10|96G||/hpc/group/ldefratelab/Patrick/Cartilage_ML_3D|
pb183|COMPLETED|scavenger-gpu|2023-06-05T00:55:17|2023-06-05T02:39:13|01:43:56|dcc-youlab-gpu-04|1|10|96G||/hpc/group/ldefratelab/Patrick/Cartilage_ML_3D|
pb183|COMPLETED|scavenger-gpu|2023-06-05T01:12:35|2023-06-05T03:00:44|01:48:09|dcc-ultrasound-gpu-02|1|19|96G||/hpc/group/ldefratelab/Patrick/Cartilage_ML_3D|
pb183|COMPLETED|scavenger-gpu|2023-06-05T01:15:14|2023-06-05T02:58:00|01:42:46|dcc-youlab-gpu-38|1|10|96G||/hpc/group/ldefratelab/Patrick/Cartilage_ML_3D|
pb183|FAILED|scavenger-gpu|2023-06-05T01:27:49|2023-06-05T01:29:07|00:01:18|dcc-youlab-gpu-15|1|10|96G||/hpc/group/ldefratelab/Patrick/Cartilage_ML_3D|
pb183|COMPLETED|scavenger-gpu|2023-06-05T01:29:22|2023-06-05T03:14:29|01:45:07|dcc-youlab-gpu-15|1|10|96G||/hpc/group/ldefratelab/Patrick/Cartilage_ML_3D|
pb183|COMPLETED|scavenger-gpu|2023-06-05T01:35:05|2023-06-05T03:15:11|01:40:06|dcc-youlab-gpu-35|1|10|96G||/hpc/group/ldefratelab/Patrick/Cartilage_ML_3D|
pb183|COMPLETED|scavenger-gpu|2023-06-05T02:39:16|2023-06-07T06:14:21|2-03:35:05|dcc-youlab-gpu-16|1|10|96G||/hpc/group/ldefratelab/Patrick/Cartilage_ML_3D|
pb183|FAILED|scavenger-gpu|2023-06-05T02:58:29|2023-06-05T03:00:19|00:01:50|dcc-youlab-gpu-38|1|10|96G||/hpc/group/ldefratelab/Patrick/Cartilage_ML_3D|
pb183|COMPLETED|scavenger-gpu|2023-06-05T03:00:31|2023-06-05T08:34:43|05:34:12|dcc-youlab-gpu-38|1|10|96G||/hpc/group/ldefratelab/Patrick/Cartilage_ML_3D|
pb183|COMPLETED|scavenger-gpu|2023-06-05T03:01:03|2023-06-05T07:51:08|04:50:05|dcc-youlab-gpu-04|1|10|96G||/hpc/group/ldefratelab/Patrick/Cartilage_ML_3D|
pb183|COMPLETED|scavenger-gpu|2023-06-05T03:14:46|2023-06-05T08:05:29|04:50:43|dcc-youlab-gpu-15|1|10|96G||/hpc/group/ldefratelab/Patrick/Cartilage_ML_3D|
pb183|FAILED|scavenger-gpu|2023-06-05T03:15:18|2023-06-05T03:16:44|00:01:26|dcc-youlab-gpu-35|1|10|96G||/hpc/group/ldefratelab/Patrick/Cartilage_ML_3D|
pb183|COMPLETED|scavenger-gpu|2023-06-05T03:16:49|2023-06-05T08:31:10|05:14:21|dcc-youlab-gpu-35|1|10|96G||/hpc/group/ldefratelab/Patrick/Cartilage_ML_3D|
pb183|COMPLETED|scavenger-gpu|2023-06-05T07:11:05|2023-06-05T11:55:03|04:43:58|dcc-youlab-gpu-36|1|10|96G||/hpc/group/ldefratelab/Patrick/Cartilage_ML_3D|
pb183|COMPLETED|scavenger-gpu|2023-06-05T07:51:12|2023-06-05T12:39:51|04:48:39|dcc-youlab-gpu-28|1|10|96G||/hpc/group/ldefratelab/Patrick/Cartilage_ML_3D|
pb183|COMPLETED|scavenger-gpu|2023-06-05T08:05:31|2023-06-05T18:41:19|10:35:48|dcc-youlab-gpu-27|1|10|96G||/hpc/group/ldefratelab/Patrick/Cartilage_ML_3D|
pb183|COMPLETED|scavenger-gpu|2023-06-05T08:31:24|2023-06-05T13:33:32|05:02:08|dcc-youlab-gpu-35|1|10|96G||/hpc/group/ldefratelab/Patrick/Cartilage_ML_3D|
pb183|COMPLETED|scavenger-gpu|2023-06-05T08:35:00|2023-06-05T21:55:50|13:20:50|dcc-youlab-gpu-38|1|10|96G||/hpc/group/ldefratelab/Patrick/Cartilage_ML_3D|
pb183|COMPLETED|scavenger-gpu|2023-06-05T11:55:03|2023-06-05T22:32:54|10:37:51|dcc-youlab-gpu-36|1|10|96G||/hpc/group/ldefratelab/Patrick/Cartilage_ML_3D|
pb183|COMPLETED|scavenger-gpu|2023-06-05T12:17:40|2023-06-05T15:41:57|03:24:17|dcc-youlab-gpu-42|1|10|96G||/hpc/group/ldefratelab/Patrick/Cartilage_ML_3D|
pb183|COMPLETED|scavenger-gpu|2023-06-05T12:39:51|2023-06-05T18:30:34|05:50:43|dcc-youlab-gpu-28|1|10|96G||/hpc/group/ldefratelab/Patrick/Cartilage_ML_3D|
pb183|PREEMPTED|scavenger-gpu|2023-06-05T12:53:42|2023-06-05T12:54:07|00:00:25|dcc-rekerlab-gpu-01|1|8|96G||/hpc/group/ldefratelab/Patrick/Cartilage_ML_3D|
pb183|PREEMPTED|scavenger-gpu|2023-06-05T12:54:11|2023-06-05T12:56:25|00:02:14|dcc-rekerlab-gpu-01|1|8|96G||/hpc/group/ldefratelab/Patrick/Cartilage_ML_3D|
pb183|COMPLETED|scavenger-gpu|2023-06-05T12:56:41|2023-06-05T13:37:31|00:40:50|dcc-vossenlab-gpu-04|1|10|96G||/hpc/group/ldefratelab/Patrick/Cartilage_ML_3D|
pb183|COMPLETED|scavenger-gpu|2023-06-05T13:33:35|2023-06-05T14:26:29|00:52:54|dcc-youlab-gpu-35|1|10|96G||/hpc/group/ldefratelab/Patrick/Cartilage_ML_3D|
pb183|PREEMPTED|scavenger-gpu|2023-06-05T13:37:32|2023-06-06T09:42:27|20:04:55|dcc-vossenlab-gpu-04|1|10|96G||/hpc/group/ldefratelab/Patrick/Cartilage_ML_3D|
pb183|COMPLETED|scavenger-gpu|2023-06-05T14:29:31|2023-06-05T15:33:36|01:04:05|dcc-youlab-gpu-35|1|10|96G||/hpc/group/ldefratelab/Patrick/Cartilage_ML_3D|
pb183|COMPLETED|scavenger-gpu|2023-06-05T14:42:59|2023-06-06T21:42:04|1-06:59:05|dcc-youlab-gpu-34|1|10|96G||/hpc/group/ldefratelab/Patrick/Cartilage_ML_3D|
pb183|COMPLETED|scavenger-gpu|2023-06-05T15:33:38|2023-06-06T21:07:42|1-05:34:04|dcc-youlab-gpu-35|1|10|96G||/hpc/group/ldefratelab/Patrick/Cartilage_ML_3D|
pb183|COMPLETED|scavenger-gpu|2023-06-05T15:42:00|2023-06-07T17:45:02|2-02:03:02|dcc-youlab-gpu-42|1|10|96G||/hpc/group/ldefratelab/Patrick/Cartilage_ML_3D|
pb183|COMPLETED|scavenger-gpu|2023-06-05T18:30:36|2023-06-08T00:16:19|2-05:45:43|dcc-youlab-gpu-44|1|10|96G||/hpc/group/ldefratelab/Patrick/Cartilage_ML_3D|
pb183|COMPLETED|scavenger-gpu|2023-06-05T18:41:19|2023-06-05T19:03:24|00:22:05|dcc-youlab-gpu-27|1|10|96G||/hpc/group/ldefratelab/Patrick/Cartilage_ML_3D|
pb183|COMPLETED|scavenger-gpu|2023-06-05T19:03:24|2023-06-05T19:36:08|00:32:44|dcc-youlab-gpu-27|1|10|96G||/hpc/group/ldefratelab/Patrick/Cartilage_ML_3D|
pb183|COMPLETED|scavenger-gpu|2023-06-05T19:36:08|2023-06-05T20:12:36|00:36:28|dcc-youlab-gpu-27|1|10|96G||/hpc/group/ldefratelab/Patrick/Cartilage_ML_3D|
pb183|COMPLETED|scavenger-gpu|2023-06-05T20:12:36|2023-06-05T20:49:34|00:36:58|dcc-youlab-gpu-27|1|10|96G||/hpc/group/ldefratelab/Patrick/Cartilage_ML_3D|
pb183|COMPLETED|scavenger-gpu|2023-06-05T20:49:36|2023-06-05T21:14:33|00:24:57|dcc-youlab-gpu-33|1|10|96G||/hpc/group/ldefratelab/Patrick/Cartilage_ML_3D|
pb183|COMPLETED|scavenger-gpu|2023-06-05T21:14:33|2023-06-06T05:11:58|07:57:25|dcc-youlab-gpu-33|1|10|96G||/hpc/group/ldefratelab/Patrick/Cartilage_ML_3D|
pb183|COMPLETED|scavenger-gpu|2023-06-05T21:31:06|2023-06-07T01:34:10|1-04:03:04|dcc-youlab-gpu-43|1|10|96G||/hpc/group/ldefratelab/Patrick/Cartilage_ML_3D|
pb183|COMPLETED|scavenger-gpu|2023-06-05T21:36:31|2023-06-06T17:44:55|20:08:24|dcc-youlab-gpu-41|1|10|96G||/hpc/group/ldefratelab/Patrick/Cartilage_ML_3D|
pb183|COMPLETED|scavenger-gpu|2023-06-05T21:55:50|2023-06-05T22:52:12|00:56:22|dcc-youlab-gpu-38|1|10|96G||/hpc/group/ldefratelab/Patrick/Cartilage_ML_3D|
pb183|COMPLETED|scavenger-gpu|2023-06-05T22:32:54|2023-06-05T23:47:32|01:14:38|dcc-youlab-gpu-36|1|10|96G||/hpc/group/ldefratelab/Patrick/Cartilage_ML_3D|
pb183|COMPLETED|scavenger-gpu|2023-06-05T22:52:13|2023-06-06T00:26:22|01:34:09|dcc-youlab-gpu-38|1|10|96G||/hpc/group/ldefratelab/Patrick/Cartilage_ML_3D|
pb183|COMPLETED|scavenger-gpu|2023-06-05T23:47:33|2023-06-06T01:20:55|01:33:22|dcc-youlab-gpu-36|1|10|96G||/hpc/group/ldefratelab/Patrick/Cartilage_ML_3D|
pb183|COMPLETED|scavenger-gpu|2023-06-06T00:26:49|2023-06-06T01:23:28|00:56:39|dcc-youlab-gpu-38|1|10|96G||/hpc/group/ldefratelab/Patrick/Cartilage_ML_3D|
pb183|COMPLETED|scavenger-gpu|2023-06-06T01:20:55|2023-06-07T13:15:44|1-11:54:49|dcc-youlab-gpu-36|1|10|96G||/hpc/group/ldefratelab/Patrick/Cartilage_ML_3D|
pb183|COMPLETED|scavenger-gpu|2023-06-06T01:23:28|2023-06-08T09:11:43|2-07:48:15|dcc-youlab-gpu-38|1|10|96G||/hpc/group/ldefratelab/Patrick/Cartilage_ML_3D|
pb183|COMPLETED|scavenger-gpu|2023-06-06T04:29:02|2023-06-07T15:50:50|1-11:21:48|dcc-youlab-gpu-37|1|10|96G||/hpc/group/ldefratelab/Patrick/Cartilage_ML_3D|
pb183|FAILED|scavenger-gpu|2023-06-06T05:11:58|2023-06-06T05:13:41|00:01:43|dcc-youlab-gpu-33|1|10|96G||/hpc/group/ldefratelab/Patrick/Cartilage_ML_3D|
pb183|COMPLETED|scavenger-gpu|2023-06-06T05:13:41|2023-06-06T06:10:34|00:56:53|dcc-youlab-gpu-33|1|10|96G||/hpc/group/ldefratelab/Patrick/Cartilage_ML_3D|
pb183|COMPLETED|scavenger-gpu|2023-06-06T05:29:02|2023-06-06T06:29:47|01:00:45|dcc-youlab-gpu-53|1|10|96G||/hpc/group/ldefratelab/Patrick/Cartilage_ML_3D|
pb183|COMPLETED|scavenger-gpu|2023-06-06T06:10:35|2023-06-06T07:10:28|00:59:53|dcc-youlab-gpu-33|1|10|96G||/hpc/group/ldefratelab/Patrick/Cartilage_ML_3D|
pb183|FAILED|scavenger-gpu|2023-06-06T06:29:47|2023-06-06T06:31:23|00:01:36|dcc-youlab-gpu-53|1|10|96G||/hpc/group/ldefratelab/Patrick/Cartilage_ML_3D|
pb183|COMPLETED|scavenger-gpu|2023-06-06T06:31:23|2023-06-07T06:45:57|1-00:14:34|dcc-youlab-gpu-53|1|10|96G||/hpc/group/ldefratelab/Patrick/Cartilage_ML_3D|
pb183|COMPLETED|scavenger-gpu|2023-06-06T07:10:28|2023-06-07T10:06:37|1-02:56:09|dcc-youlab-gpu-33|1|10|96G||/hpc/group/ldefratelab/Patrick/Cartilage_ML_3D|
pb183|COMPLETED|scavenger-gpu|2023-06-06T09:42:27|2023-06-08T06:15:23|1-20:32:56|dcc-ultrasound-gpu-02|1|19|96G||/hpc/group/ldefratelab/Patrick/Cartilage_ML_3D|
pb183|FAILED|scavenger-gpu|2023-06-06T15:15:24|2023-06-06T15:16:47|00:01:23|dcc-youlab-gpu-40|1|10|96G||/hpc/group/ldefratelab/Patrick/Cartilage_ML_3D|
pb183|COMPLETED|scavenger-gpu|2023-06-06T15:16:49|2023-06-06T17:24:38|02:07:49|dcc-youlab-gpu-40|1|10|96G||/hpc/group/ldefratelab/Patrick/Cartilage_ML_3D|
pb183|COMPLETED|scavenger-gpu|2023-06-06T17:24:38|2023-06-06T19:37:14|02:12:36|dcc-youlab-gpu-40|1|10|96G||/hpc/group/ldefratelab/Patrick/Cartilage_ML_3D|
pb183|COMPLETED|scavenger-gpu|2023-06-06T17:36:57|2023-06-06T19:51:49|02:14:52|dcc-youlab-gpu-55|1|10|96G||/hpc/group/ldefratelab/Patrick/Cartilage_ML_3D|
pb183|FAILED|scavenger-gpu|2023-06-06T17:44:55|2023-06-06T17:46:35|00:01:40|dcc-youlab-gpu-41|1|10|96G||/hpc/group/ldefratelab/Patrick/Cartilage_ML_3D|
pb183|COMPLETED|scavenger-gpu|2023-06-06T17:46:35|2023-06-06T19:58:17|02:11:42|dcc-youlab-gpu-41|1|10|96G||/hpc/group/ldefratelab/Patrick/Cartilage_ML_3D|
pb183|COMPLETED|scavenger-gpu|2023-06-06T19:37:14|2023-06-06T21:51:18|02:14:04|dcc-youlab-gpu-40|1|10|96G||/hpc/group/ldefratelab/Patrick/Cartilage_ML_3D|
pb183|COMPLETED|scavenger-gpu|2023-06-06T19:51:49|2023-06-06T22:08:05|02:16:16|dcc-youlab-gpu-55|1|10|96G||/hpc/group/ldefratelab/Patrick/Cartilage_ML_3D|
pb183|FAILED|scavenger-gpu|2023-06-06T19:58:18|2023-06-06T19:59:39|00:01:21|dcc-youlab-gpu-41|1|10|96G||/hpc/group/ldefratelab/Patrick/Cartilage_ML_3D|
pb183|COMPLETED|scavenger-gpu|2023-06-06T19:59:39|2023-06-06T21:48:46|01:49:07|dcc-youlab-gpu-41|1|10|96G||/hpc/group/ldefratelab/Patrick/Cartilage_ML_3D|
pb183|FAILED|scavenger-gpu|2023-06-06T21:07:43|2023-06-06T21:10:07|00:02:24|dcc-youlab-gpu-35|1|10|96G||/hpc/group/ldefratelab/Patrick/Cartilage_ML_3D|
pb183|COMPLETED|scavenger-gpu|2023-06-06T21:10:07|2023-06-06T22:54:27|01:44:20|dcc-youlab-gpu-35|1|10|96G||/hpc/group/ldefratelab/Patrick/Cartilage_ML_3D|
pb183|FAILED|scavenger-gpu|2023-06-06T21:42:04|2023-06-06T21:43:29|00:01:25|dcc-youlab-gpu-34|1|10|96G||/hpc/group/ldefratelab/Patrick/Cartilage_ML_3D|
pb183|COMPLETED|scavenger-gpu|2023-06-06T21:43:30|2023-06-06T23:38:56|01:55:26|dcc-youlab-gpu-34|1|10|96G||/hpc/group/ldefratelab/Patrick/Cartilage_ML_3D|
pb183|FAILED|scavenger-gpu|2023-06-06T21:48:47|2023-06-06T21:50:58|00:02:11|dcc-youlab-gpu-41|1|10|96G||/hpc/group/ldefratelab/Patrick/Cartilage_ML_3D|
pb183|COMPLETED|scavenger-gpu|2023-06-06T21:51:00|2023-06-08T11:44:13|1-13:53:13|dcc-youlab-gpu-41|1|10|96G||/hpc/group/ldefratelab/Patrick/Cartilage_ML_3D|
pb183|FAILED|scavenger-gpu|2023-06-06T21:51:18|2023-06-06T21:52:51|00:01:33|dcc-youlab-gpu-40|1|10|96G||/hpc/group/ldefratelab/Patrick/Cartilage_ML_3D|
pb183|COMPLETED|scavenger-gpu|2023-06-06T21:52:51|2023-06-07T02:24:42|04:31:51|dcc-youlab-gpu-40|1|10|96G||/hpc/group/ldefratelab/Patrick/Cartilage_ML_3D|
pb183|FAILED|scavenger-gpu|2023-06-06T22:08:05|2023-06-06T22:12:34|00:04:29|dcc-ultrasound-gpu-01|1|19|96G||/hpc/group/ldefratelab/Patrick/Cartilage_ML_3D|
pb183|COMPLETED|scavenger-gpu|2023-06-06T22:12:34|2023-06-07T02:29:53|04:17:19|dcc-youlab-gpu-55|1|10|96G||/hpc/group/ldefratelab/Patrick/Cartilage_ML_3D|
pb183|FAILED|scavenger-gpu|2023-06-06T22:54:27|2023-06-06T22:56:15|00:01:48|dcc-youlab-gpu-35|1|10|96G||/hpc/group/ldefratelab/Patrick/Cartilage_ML_3D|
pb183|COMPLETED|scavenger-gpu|2023-06-06T22:56:15|2023-06-09T02:11:05|2-03:14:50|dcc-youlab-gpu-35|1|10|96G||/hpc/group/ldefratelab/Patrick/Cartilage_ML_3D|
pb183|FAILED|scavenger-gpu|2023-06-06T23:38:57|2023-06-06T23:44:01|00:05:04|dcc-youlab-gpu-34|1|10|96G||/hpc/group/ldefratelab/Patrick/Cartilage_ML_3D|
pb183|COMPLETED|scavenger-gpu|2023-06-06T23:44:02|2023-06-07T04:19:52|04:35:50|dcc-youlab-gpu-34|1|10|96G||/hpc/group/ldefratelab/Patrick/Cartilage_ML_3D|
cem125|TIMEOUT|scavenger-gpu|2023-05-25T16:22:08|2023-06-01T16:22:34|7-00:00:26|dcc-youlab-gpu-31|1|10|50G||/hpc/group/rekerlab/cem125/OpenNMT-py|
cem125|PREEMPTED|scavenger-gpu|2023-05-25T16:25:52|2023-05-30T12:33:55|4-20:08:03|dcc-gehmlab-gpu-47|1|19|50G||/hpc/group/rekerlab/cem125/OpenNMT-py|
pb183|CANCELLED by 1394232|scavenger-gpu|None|2023-06-01T13:43:44|00:00:00|None assigned|1|1|96G||/hpc/group/ldefratelab/Patrick/Cartilage_ML|
pb183|CANCELLED by 1394232|scavenger-gpu|None|2023-06-01T13:43:26|00:00:00|None assigned|1|1|96G||/hpc/group/ldefratelab/Patrick/Cartilage_ML|
minhe|COMPLETED|scavenger-gpu|2023-05-26T15:42:35|2023-06-01T14:18:46|5-22:36:11|dcc-youlab-gpu-01|1|44|150692M||/work/minhe/alphafold|
minhe|TIMEOUT|scavenger-gpu|2023-05-26T20:47:45|2023-06-02T20:47:56|7-00:00:11|dcc-mastatlab-gpu-01|1|44|150692M||/work/minhe/alphafold|
minhe|PREEMPTED|scavenger-gpu|2023-05-26T17:13:35|2023-05-31T14:21:56|4-21:08:21|dcc-ultrasound-gpu-02|1|19|150692M||/work/minhe/alphafold|
minhe|TIMEOUT|scavenger-gpu|2023-05-27T17:20:16|2023-06-03T17:20:19|7-00:00:03|dcc-ultrasound-gpu-01|1|19|150692M||/work/minhe/alphafold|
minhe|TIMEOUT|scavenger-gpu|2023-05-27T17:21:33|2023-06-03T17:21:49|7-00:00:16|dcc-ultrasound-gpu-03|1|19|150692M||/work/minhe/alphafold|
minhe|COMPLETED|scavenger-gpu|2023-05-27T21:28:18|2023-06-01T07:57:30|4-10:29:12|dcc-biostat-gpu-02|1|22|150692M||/work/minhe/alphafold|
yk206|TIMEOUT|scavenger-gpu|2023-05-27T17:18:43|2023-06-03T17:18:49|7-00:00:06|dcc-allenlab-gpu-03|1|10|24G||/hpc/home/yk206/script/face_download|
hk276|FAILED|scavenger-gpu|2023-05-29T15:53:24|2023-05-30T05:35:09|13:41:45|dcc-carlsonlab-gpu-13|1|12|80000M||/hpc/group/tdunn/hk276/tangosave/src|
jrl78|COMPLETED|scavenger-gpu|2023-05-29T16:41:04|2023-05-30T05:34:49|12:53:45|dcc-youlab-gpu-28|1|10|4G||/work/jrl78/Nanoparticles/JawBreakers/Different Partial Charges/EEM Full Library/round2_sims|
jrl78|COMPLETED|scavenger-gpu|2023-05-29T16:41:04|2023-05-30T05:49:33|13:08:29|dcc-youlab-gpu-27|1|10|4G||/work/jrl78/Nanoparticles/JawBreakers/Different Partial Charges/EEM Full Library/round2_sims|
jrl78|COMPLETED|scavenger-gpu|2023-05-29T16:41:04|2023-05-30T05:46:37|13:05:33|dcc-youlab-gpu-24|1|10|4G||/work/jrl78/Nanoparticles/JawBreakers/Different Partial Charges/EEM Full Library/round2_sims|
jrl78|COMPLETED|scavenger-gpu|2023-05-29T16:41:04|2023-05-30T13:15:11|20:34:07|dcc-youlab-gpu-23|1|10|4G||/work/jrl78/Nanoparticles/JawBreakers/Different Partial Charges/EEM Full Library/round2_sims|
jrl78|COMPLETED|scavenger-gpu|2023-05-29T16:41:04|2023-05-30T13:15:38|20:34:34|dcc-youlab-gpu-21|1|10|4G||/work/jrl78/Nanoparticles/JawBreakers/Different Partial Charges/EEM Full Library/round2_sims|
jrl78|COMPLETED|scavenger-gpu|2023-05-29T16:41:04|2023-05-30T13:28:24|20:47:20|dcc-youlab-gpu-18|1|10|4G||/work/jrl78/Nanoparticles/JawBreakers/Different Partial Charges/EEM Full Library/round2_sims|
jrl78|COMPLETED|scavenger-gpu|2023-05-29T16:41:04|2023-05-30T07:18:34|14:37:30|dcc-youlab-gpu-16|1|10|4G||/work/jrl78/Nanoparticles/JawBreakers/Different Partial Charges/EEM Full Library/round2_sims|
jrl78|COMPLETED|scavenger-gpu|2023-05-29T16:41:04|2023-05-30T07:31:12|14:50:08|dcc-youlab-gpu-15|1|10|4G||/work/jrl78/Nanoparticles/JawBreakers/Different Partial Charges/EEM Full Library/round2_sims|
jrl78|COMPLETED|scavenger-gpu|2023-05-29T16:41:06|2023-05-30T07:39:53|14:58:47|dcc-youlab-gpu-14|1|10|4G||/work/jrl78/Nanoparticles/JawBreakers/Different Partial Charges/EEM Full Library/round2_sims|
jrl78|COMPLETED|scavenger-gpu|2023-05-29T16:41:08|2023-05-30T06:20:23|13:39:15|dcc-youlab-gpu-13|1|10|4G||/work/jrl78/Nanoparticles/JawBreakers/Different Partial Charges/EEM Full Library/round2_sims|
jrl78|COMPLETED|scavenger-gpu|2023-05-29T16:41:08|2023-05-30T06:14:42|13:33:34|dcc-youlab-gpu-12|1|10|4G||/work/jrl78/Nanoparticles/JawBreakers/Different Partial Charges/EEM Full Library/round2_sims|
jrl78|COMPLETED|scavenger-gpu|2023-05-29T16:41:10|2023-05-30T06:12:20|13:31:10|dcc-youlab-gpu-11|1|10|4G||/work/jrl78/Nanoparticles/JawBreakers/Different Partial Charges/EEM Full Library/round2_sims|
jrl78|COMPLETED|scavenger-gpu|2023-05-29T16:41:12|2023-05-30T19:09:46|1-02:28:34|dcc-youlab-gpu-10|1|10|4G||/work/jrl78/Nanoparticles/JawBreakers/Different Partial Charges/EEM Full Library/round2_sims|
jrl78|COMPLETED|scavenger-gpu|2023-05-29T16:41:13|2023-05-30T18:47:48|1-02:06:35|dcc-youlab-gpu-09|1|10|4G||/work/jrl78/Nanoparticles/JawBreakers/Different Partial Charges/EEM Full Library/round2_sims|
jrl78|COMPLETED|scavenger-gpu|2023-05-29T16:41:14|2023-05-30T18:53:55|1-02:12:41|dcc-youlab-gpu-08|1|10|4G||/work/jrl78/Nanoparticles/JawBreakers/Different Partial Charges/EEM Full Library/round2_sims|
jrl78|COMPLETED|scavenger-gpu|2023-05-29T16:41:20|2023-05-30T12:59:14|20:17:54|dcc-youlab-gpu-04|1|10|4G||/work/jrl78/Nanoparticles/JawBreakers/Different Partial Charges/EEM Full Library/round2_sims|
jrl78|COMPLETED|scavenger-gpu|2023-05-29T16:41:23|2023-05-30T04:56:17|12:14:54|dcc-youlab-gpu-03|1|10|4G||/work/jrl78/Nanoparticles/JawBreakers/Different Partial Charges/EEM Full Library/round2_sims|
jrl78|COMPLETED|scavenger-gpu|2023-05-29T16:41:23|2023-05-30T05:19:25|12:38:02|dcc-youlab-gpu-02|1|10|4G||/work/jrl78/Nanoparticles/JawBreakers/Different Partial Charges/EEM Full Library/round2_sims|
jrl78|COMPLETED|scavenger-gpu|2023-05-29T16:41:26|2023-05-30T05:25:14|12:43:48|dcc-vossenlab-gpu-04|1|10|4G||/work/jrl78/Nanoparticles/JawBreakers/Different Partial Charges/EEM Full Library/round2_sims|
jrl78|COMPLETED|scavenger-gpu|2023-05-29T16:41:26|2023-05-30T13:30:18|20:48:52|dcc-vossenlab-gpu-03|1|10|4G||/work/jrl78/Nanoparticles/JawBreakers/Different Partial Charges/EEM Full Library/round2_sims|
jrl78|COMPLETED|scavenger-gpu|2023-05-29T16:41:28|2023-05-30T13:27:06|20:45:38|dcc-vossenlab-gpu-02|1|10|4G||/work/jrl78/Nanoparticles/JawBreakers/Different Partial Charges/EEM Full Library/round2_sims|
jrl78|COMPLETED|scavenger-gpu|2023-05-29T16:41:31|2023-05-30T13:41:03|20:59:32|dcc-vossenlab-gpu-01|1|10|4G||/work/jrl78/Nanoparticles/JawBreakers/Different Partial Charges/EEM Full Library/round2_sims|
jrl78|COMPLETED|scavenger-gpu|2023-05-29T16:41:34|2023-05-30T15:57:33|23:15:59|dcc-ultrasound-gpu-04|1|19|4G||/work/jrl78/Nanoparticles/JawBreakers/Different Partial Charges/EEM Full Library/round2_sims|
jrl78|COMPLETED|scavenger-gpu|2023-05-29T16:41:34|2023-05-30T21:53:25|1-05:11:51|dcc-rekerlab-gpu-01|1|8|4G||/work/jrl78/Nanoparticles/JawBreakers/Different Partial Charges/EEM Full Library/round2_sims|
jrl78|COMPLETED|scavenger-gpu|2023-05-29T16:41:36|2023-05-30T16:04:11|23:22:35|dcc-pbenfeylab-gpu-04|1|10|4G||/work/jrl78/Nanoparticles/JawBreakers/Different Partial Charges/EEM Full Library/round2_sims|
jrl78|COMPLETED|scavenger-gpu|2023-05-29T16:41:36|2023-05-30T18:28:23|1-01:46:47|dcc-pbenfeylab-gpu-03|1|10|4G||/work/jrl78/Nanoparticles/JawBreakers/Different Partial Charges/EEM Full Library/round2_sims|
jrl78|COMPLETED|scavenger-gpu|2023-05-29T16:41:39|2023-05-30T18:53:22|1-02:11:43|dcc-pbenfeylab-gpu-02|1|10|4G||/work/jrl78/Nanoparticles/JawBreakers/Different Partial Charges/EEM Full Library/round2_sims|
jrl78|COMPLETED|scavenger-gpu|2023-05-29T16:41:42|2023-05-30T18:40:05|1-01:58:23|dcc-motesa-gpu-04|1|6|4G||/work/jrl78/Nanoparticles/JawBreakers/Different Partial Charges/EEM Full Library/round2_sims|
jrl78|FAILED|scavenger-gpu|2023-05-29T16:41:44|2023-05-30T09:07:06|16:25:22|dcc-motesa-gpu-02|1|6|4G||/work/jrl78/Nanoparticles/JawBreakers/Different Partial Charges/EEM Full Library/round2_sims|
jrl78|COMPLETED|scavenger-gpu|2023-05-29T16:41:53|2023-05-30T15:34:25|22:52:32|dcc-ece-gpu-04|1|13|4G||/work/jrl78/Nanoparticles/JawBreakers/Different Partial Charges/EEM Full Library/round2_sims|
jrl78|COMPLETED|scavenger-gpu|2023-05-29T16:41:55|2023-05-30T15:35:01|22:53:06|dcc-ece-gpu-03|1|13|4G||/work/jrl78/Nanoparticles/JawBreakers/Different Partial Charges/EEM Full Library/round2_sims|
yw564|PREEMPTED|scavenger-gpu|2023-05-29T17:04:22|2023-05-31T15:17:22|1-22:13:00|dcc-tdunn-gpu-02|1|2|50G||/hpc/group/jilab|
yw564|PREEMPTED|scavenger-gpu|2023-05-29T17:05:48|2023-05-31T17:25:13|2-00:19:25|dcc-tdunn-gpu-02|1|2|50G||/hpc/group/jilab|
yw564|FAILED|scavenger-gpu|2023-05-29T17:16:26|2023-06-01T03:11:29|2-09:55:03|dcc-viplab-gpu-01|1|2|50G||/hpc/group/jilab|
kw297|TIMEOUT|scavenger-gpu|2023-05-29T20:06:53|2023-06-01T20:06:55|3-00:00:02|dcc-motesa-gpu-03|1|4|20G||/hpc/group/ychenlab/DA|
minhe|PREEMPTED|scavenger-gpu|2023-05-29T20:30:22|2023-05-31T13:23:03|1-16:52:41|dcc-dsplus-gpu-02|1|92|150692M||/work/minhe/alphafold|
minhe|PREEMPTED|scavenger-gpu|2023-05-29T23:10:07|2023-05-30T13:16:42|14:06:35|dcc-tdunn-gpu-01|1|44|150692M||/work/minhe/alphafold|
jrl78|COMPLETED|scavenger-gpu|2023-05-29T22:36:49|2023-05-30T20:06:18|21:29:29|dcc-youlab-gpu-29|1|10|4G||/work/jrl78/Nanoparticles/JawBreakers/Different Partial Charges/EEM Full Library/round2_sims|
jrl78|COMPLETED|scavenger-gpu|2023-05-29T22:36:49|2023-05-30T19:56:55|21:20:06|dcc-youlab-gpu-07|1|10|4G||/work/jrl78/Nanoparticles/JawBreakers/Different Partial Charges/EEM Full Library/round2_sims|
jrl78|COMPLETED|scavenger-gpu|2023-05-29T22:37:19|2023-05-30T19:43:51|21:06:32|dcc-youlab-gpu-05|1|10|4G||/work/jrl78/Nanoparticles/JawBreakers/Different Partial Charges/EEM Full Library/round2_sims|
jrl78|COMPLETED|scavenger-gpu|2023-05-29T22:37:55|2023-05-30T10:23:42|11:45:47|dcc-motesa-gpu-01|1|6|4G||/work/jrl78/Nanoparticles/JawBreakers/Different Partial Charges/EEM Full Library/round2_sims|
