yx240|COMPLETED|scavenger-gpu|2023-05-13T10:27:49|2023-05-15T23:30:50|2-13:03:01|dcc-youlab-gpu-18|1|10|2G||/work/yx240/project-martini/simutools/scripts|
yw564|FAILED|scavenger-gpu|2023-05-13T11:32:34|2023-05-18T03:15:49|4-15:43:15|dcc-mastatlab-gpu-01|1|2|50G||/hpc/group/jilab|
mk423|CANCELLED by 1192605|scavenger-gpu|2023-05-13T11:54:57|2023-05-16T10:46:28|2-22:51:31|dcc-biostat-gpu-01|1|12|80G||/hpc/home/mk423/Anxiety/FullDataWork/Code/Training/MultiTask|
mk423|CANCELLED by 1192605|scavenger-gpu|2023-05-13T11:54:57|2023-05-16T10:46:28|2-22:51:31|dcc-mastatlab-gpu-01|1|12|80G||/hpc/home/mk423/Anxiety/FullDataWork/Code/Training/MultiTask|
mk423|CANCELLED by 1192605|scavenger-gpu|2023-05-13T11:54:57|2023-05-16T10:46:28|2-22:51:31|dcc-ultrasound-gpu-03|1|12|80G||/hpc/home/mk423/Anxiety/FullDataWork/Code/Training/MultiTask|
mk423|CANCELLED by 1192605|scavenger-gpu|2023-05-13T11:54:58|2023-05-16T10:46:28|2-22:51:30|dcc-tdunn-gpu-02|1|12|80G||/hpc/home/mk423/Anxiety/FullDataWork/Code/Training/MultiTask|
mk423|CANCELLED by 1192605|scavenger-gpu|2023-05-13T11:54:58|2023-05-16T10:46:28|2-22:51:30|dcc-youlab-gpu-01|1|12|80G||/hpc/home/mk423/Anxiety/FullDataWork/Code/Training/MultiTask|
mk423|CANCELLED by 1192605|scavenger-gpu|2023-05-13T11:54:58|2023-05-16T10:46:28|2-22:51:30|dcc-youlab-gpu-01|1|12|80G||/hpc/home/mk423/Anxiety/FullDataWork/Code/Training/MultiTask|
mk423|CANCELLED by 1192605|scavenger-gpu|2023-05-13T11:54:58|2023-05-16T10:46:28|2-22:51:30|dcc-collinslab-gpu-01|1|12|80G||/hpc/home/mk423/Anxiety/FullDataWork/Code/Training/MultiTask|
mk423|CANCELLED by 1192605|scavenger-gpu|2023-05-13T11:54:58|2023-05-16T10:46:28|2-22:51:30|dcc-collinslab-gpu-02|1|12|80G||/hpc/home/mk423/Anxiety/FullDataWork/Code/Training/MultiTask|
mk423|CANCELLED by 1192605|scavenger-gpu|2023-05-13T14:49:28|2023-05-16T10:46:28|2-19:57:00|dcc-biostat-gpu-02|1|12|80G||/hpc/home/mk423/Anxiety/FullDataWork/Code/Training/MultiTask|
mk423|CANCELLED by 1192605|scavenger-gpu|2023-05-13T14:54:31|2023-05-16T10:46:28|2-19:51:57|dcc-brunellab-gpu-04|1|12|80G||/hpc/home/mk423/Anxiety/FullDataWork/Code/Training/MultiTask|
mk423|CANCELLED by 1192605|scavenger-gpu|2023-05-13T16:33:18|2023-05-16T10:46:28|2-18:13:10|dcc-youlab-gpu-01|1|12|80G||/hpc/home/mk423/Anxiety/FullDataWork/Code/Training/MultiTask|
mk423|CANCELLED by 1192605|scavenger-gpu|2023-05-13T18:17:21|2023-05-16T10:46:28|2-16:29:07|dcc-ultrasound-gpu-02|1|12|80G||/hpc/home/mk423/Anxiety/FullDataWork/Code/Training/MultiTask|
mk423|CANCELLED by 1192605|scavenger-gpu|2023-05-13T19:29:08|2023-05-16T10:46:28|2-15:17:20|dcc-carlsonlab-gpu-13|1|12|80G||/hpc/home/mk423/Anxiety/FullDataWork/Code/Training/MultiTask|
mk423|CANCELLED by 1192605|scavenger-gpu|2023-05-13T21:10:45|2023-05-16T10:46:28|2-13:35:43|dcc-mastatlab-gpu-01|1|12|80G||/hpc/home/mk423/Anxiety/FullDataWork/Code/Training/MultiTask|
mk423|CANCELLED by 1192605|scavenger-gpu|2023-05-13T21:25:36|2023-05-16T10:46:28|2-13:20:52|dcc-tdunn-gpu-02|1|12|80G||/hpc/home/mk423/Anxiety/FullDataWork/Code/Training/MultiTask|
mk423|CANCELLED by 1192605|scavenger-gpu|2023-05-14T00:09:06|2023-05-16T10:46:28|2-10:37:22|dcc-carlsonlab-gpu-12|1|12|80G||/hpc/home/mk423/Anxiety/FullDataWork/Code/Training/MultiTask|
mk423|CANCELLED by 1192605|scavenger-gpu|2023-05-15T09:55:37|2023-05-16T10:46:28|1-00:50:51|dcc-brunellab-gpu-01|1|12|80G||/hpc/home/mk423/Anxiety/FullDataWork/Code/Training/MultiTask|
mk423|CANCELLED by 1192605|scavenger-gpu|2023-05-15T09:55:38|2023-05-16T10:46:28|1-00:50:50|dcc-carlsonlab-gpu-01|1|12|80G||/hpc/home/mk423/Anxiety/FullDataWork/Code/Training/MultiTask|
mk423|CANCELLED by 1192605|scavenger-gpu|None|2023-05-16T10:46:28|00:00:00|None assigned|1|12|80G||/hpc/home/mk423/Anxiety/FullDataWork/Code/Training/MultiTask|
kl371|TIMEOUT|scavenger-gpu|2023-05-13T17:39:32|2023-05-16T17:39:58|3-00:00:26|dcc-youlab-gpu-23|1|8|64G||/hpc/home/kl371/ondemand/data/sys/dashboard/batch_connect/sys/bc_jupyter/output/7d7e470b-5711-4523-9bcf-90a7a1462c7b|
mk423|CANCELLED by 1192605|scavenger-gpu|None|2023-05-16T10:46:28|00:00:00|None assigned|1|12|80G||/hpc/home/mk423/Anxiety/FullDataWork/Code/Training/MultiTask|
mk423|CANCELLED by 1192605|scavenger-gpu|None|2023-05-16T10:46:28|00:00:00|None assigned|1|12|80G||/hpc/home/mk423/Anxiety/FullDataWork/Code/Training/MultiTask|
jrl78|COMPLETED|scavenger-gpu|2023-05-15T03:26:23|2023-05-15T23:39:34|20:13:11|dcc-youlab-gpu-57|1|10|2G||/work/jrl78/Nanoparticles/JawBreakers/Water Box Size|
jrl78|COMPLETED|scavenger-gpu|2023-05-15T03:28:45|2023-05-15T18:35:39|15:06:54|dcc-youlab-gpu-56|1|10|2G||/work/jrl78/Nanoparticles/JawBreakers/Water Box Size|
jrl78|COMPLETED|scavenger-gpu|2023-05-15T03:42:28|2023-05-15T18:49:50|15:07:22|dcc-youlab-gpu-55|1|10|2G||/work/jrl78/Nanoparticles/JawBreakers/Water Box Size|
jrl78|COMPLETED|scavenger-gpu|2023-05-15T03:45:27|2023-05-15T18:54:07|15:08:40|dcc-youlab-gpu-37|1|10|2G||/work/jrl78/Nanoparticles/JawBreakers/Water Box Size|
jrl78|COMPLETED|scavenger-gpu|2023-05-15T05:31:06|2023-05-15T18:33:33|13:02:27|dcc-youlab-gpu-53|1|10|2G||/work/jrl78/Nanoparticles/JawBreakers/Water Box Size|
jrl78|COMPLETED|scavenger-gpu|2023-05-15T05:42:41|2023-05-16T04:44:28|23:01:47|dcc-youlab-gpu-34|1|10|2G||/work/jrl78/Nanoparticles/JawBreakers/Water Box Size|
jrl78|COMPLETED|scavenger-gpu|2023-05-15T05:50:36|2023-05-16T04:19:18|22:28:42|dcc-youlab-gpu-33|1|10|2G||/work/jrl78/Nanoparticles/JawBreakers/Water Box Size|
jrl78|COMPLETED|scavenger-gpu|2023-05-15T07:19:28|2023-05-16T05:52:30|22:33:02|dcc-youlab-gpu-31|1|10|2G||/work/jrl78/Nanoparticles/JawBreakers/Water Box Size|
jrl78|COMPLETED|scavenger-gpu|2023-05-15T07:28:51|2023-05-15T20:58:26|13:29:35|dcc-youlab-gpu-32|1|10|2G||/work/jrl78/Nanoparticles/JawBreakers/Water Box Size|
jrl78|COMPLETED|scavenger-gpu|2023-05-15T07:29:54|2023-05-15T21:20:07|13:50:13|dcc-youlab-gpu-30|1|10|2G||/work/jrl78/Nanoparticles/JawBreakers/Water Box Size|
jrl78|COMPLETED|scavenger-gpu|2023-05-15T12:03:47|2023-05-16T01:47:58|13:44:11|dcc-youlab-gpu-22|1|10|2G||/work/jrl78/Nanoparticles/JawBreakers/Water Box Size|
jrl78|COMPLETED|scavenger-gpu|2023-05-15T12:08:31|2023-05-15T23:29:32|11:21:01|dcc-youlab-gpu-20|1|10|2G||/work/jrl78/Nanoparticles/JawBreakers/Water Box Size|
jrl78|COMPLETED|scavenger-gpu|2023-05-15T14:24:34|2023-05-16T01:43:47|11:19:13|dcc-youlab-gpu-39|1|10|2G||/work/jrl78/Nanoparticles/JawBreakers/Water Box Size|
jrl78|COMPLETED|scavenger-gpu|2023-05-15T14:17:16|2023-05-16T01:48:57|11:31:41|dcc-youlab-gpu-24|1|10|2G||/work/jrl78/Nanoparticles/JawBreakers/Water Box Size|
yl407|TIMEOUT|scavenger-gpu|2023-05-14T20:44:32|2023-05-15T20:44:32|1-00:00:00|dcc-youlab-gpu-16|1|2|80G||/hpc/home/yl407/ondemand/data/sys/dashboard/batch_connect/sys/bc_jupyter/output/8cd3795a-be88-4e07-aeb1-f70957920934|
mk423|CANCELLED by 1192605|scavenger-gpu|None|2023-05-16T10:46:28|00:00:00|None assigned|1|12|80G||/hpc/home/mk423/Anxiety/FullDataWork/Code/Training/MultiTask|
mk423|CANCELLED by 1192605|scavenger-gpu|None|2023-05-16T10:46:28|00:00:00|None assigned|1|12|80G||/hpc/home/mk423/Anxiety/FullDataWork/Code/Training/MultiTask|
yx240|COMPLETED|scavenger-gpu|2023-05-15T10:15:17|2023-05-16T03:18:43|17:03:26|dcc-youlab-gpu-54|1|10|2G||/work/yx240/project-martini/new/simutools/scripts|
yx240|COMPLETED|scavenger-gpu|2023-05-15T10:15:17|2023-05-16T03:23:30|17:08:13|dcc-youlab-gpu-28|1|10|2G||/work/yx240/project-martini/new/simutools/scripts|
yx240|COMPLETED|scavenger-gpu|2023-05-15T10:15:17|2023-05-15T21:46:46|11:31:29|dcc-youlab-gpu-27|1|10|2G||/work/yx240/project-martini/new/simutools/scripts|
yx240|COMPLETED|scavenger-gpu|2023-05-15T10:15:17|2023-05-15T21:59:10|11:43:53|dcc-youlab-gpu-25|1|10|2G||/work/yx240/project-martini/new/simutools/scripts|
pkk16|TIMEOUT|scavenger-gpu|2023-05-15T10:51:37|2023-05-16T10:51:53|1-00:00:16|dcc-dsplus-gpu-01|1|2|20G||/hpc/home/pkk16/ondemand/data/sys/dashboard/batch_connect/sys/bc_jupyter/output/2b06841c-a256-4217-80d7-182abcb2b464|
byz6|FAILED|scavenger-gpu|2023-05-15T11:46:57|2023-05-15T18:11:15|06:24:18|dcc-youlab-gpu-29|1|10|60G||/hpc/group/rekerlab/byz6|
lh342|FAILED|scavenger-gpu|2023-05-15T13:15:10|2023-05-16T03:24:08|14:08:58|dcc-motesa-gpu-02|1|6|16G||/hpc/home/lh342/MMVAE|
zq43|COMPLETED|scavenger-gpu|2023-05-15T13:34:59|2023-05-15T19:34:20|05:59:21|dcc-gehmlab-gpu-16|1|19|2G||/hpc/group/renlab/zhuobiao/MC_kV_for_zhuobiao|
zq43|COMPLETED|scavenger-gpu|2023-05-15T13:34:59|2023-05-15T19:20:35|05:45:36|dcc-gehmlab-gpu-19|1|19|2G||/hpc/group/renlab/zhuobiao/MC_kV_for_zhuobiao|
zq43|COMPLETED|scavenger-gpu|2023-05-15T13:34:59|2023-05-15T19:16:28|05:41:29|dcc-gehmlab-gpu-20|1|19|2G||/hpc/group/renlab/zhuobiao/MC_kV_for_zhuobiao|
zq43|COMPLETED|scavenger-gpu|2023-05-15T13:35:30|2023-05-15T19:27:17|05:51:47|dcc-gehmlab-gpu-21|1|19|2G||/hpc/group/renlab/zhuobiao/MC_kV_for_zhuobiao|
zq43|COMPLETED|scavenger-gpu|2023-05-15T13:35:30|2023-05-15T19:50:54|06:15:24|dcc-gehmlab-gpu-27|1|19|2G||/hpc/group/renlab/zhuobiao/MC_kV_for_zhuobiao|
zq43|COMPLETED|scavenger-gpu|2023-05-15T13:35:30|2023-05-15T19:54:41|06:19:11|dcc-gehmlab-gpu-28|1|19|2G||/hpc/group/renlab/zhuobiao/MC_kV_for_zhuobiao|
zq43|COMPLETED|scavenger-gpu|2023-05-15T13:35:30|2023-05-15T19:39:33|06:04:03|dcc-gehmlab-gpu-29|1|19|2G||/hpc/group/renlab/zhuobiao/MC_kV_for_zhuobiao|
zq43|COMPLETED|scavenger-gpu|2023-05-15T13:35:30|2023-05-15T19:37:00|06:01:30|dcc-gehmlab-gpu-30|1|19|2G||/hpc/group/renlab/zhuobiao/MC_kV_for_zhuobiao|
zq43|COMPLETED|scavenger-gpu|2023-05-15T13:36:04|2023-05-15T19:43:19|06:07:15|dcc-gehmlab-gpu-31|1|19|2G||/hpc/group/renlab/zhuobiao/MC_kV_for_zhuobiao|
lh342|PREEMPTED|scavenger-gpu|2023-05-15T13:49:29|2023-05-16T19:17:58|1-05:28:29|dcc-youlab-gpu-06|1|10|24G||/hpc/home/lh342/MMVAE|
lh342|PREEMPTED|scavenger-gpu|2023-05-15T13:52:14|2023-05-16T19:18:09|1-05:25:55|dcc-youlab-gpu-17|1|10|24G||/hpc/home/lh342/MMVAE|
kw297|PREEMPTED|scavenger-gpu|2023-05-15T14:19:51|2023-05-17T13:49:35|1-23:29:44|dcc-allenlab-gpu-01|1|4|20G||/hpc/group/ychenlab/DA|
dl370|COMPLETED|scavenger-gpu|2023-05-15T14:24:03|2023-05-16T06:30:54|16:06:51|dcc-youlab-gpu-15|1|10|2G||/work/dl370|
yw564|FAILED|scavenger-gpu|2023-05-15T14:43:02|2023-05-18T03:15:50|2-12:32:48|dcc-mastatlab-gpu-01|1|2|50G||/hpc/group/jilab|
yw564|FAILED|scavenger-gpu|2023-05-15T15:37:58|2023-05-18T03:15:50|2-11:37:52|dcc-tdunn-gpu-02|1|2|50G||/hpc/group/jilab|
vk93|TIMEOUT|scavenger-gpu|2023-05-15T16:11:33|2023-05-22T16:11:51|7-00:00:18|dcc-dsplus-gpu-02|1|40|350109M||/hpc/home/vk93/ondemand/data/sys/dashboard/batch_connect/sys/bc_jupyter/output/23d4d6a9-4d03-429b-b1e0-2247cea267b4|
byz6|FAILED|scavenger-gpu|2023-05-15T16:13:57|2023-05-15T20:42:15|04:28:18|dcc-youlab-gpu-40|1|10|60G||/hpc/group/rekerlab/byz6|
hk276|FAILED|scavenger-gpu|2023-05-15T16:30:54|2023-05-16T00:06:11|07:35:17|dcc-youlab-gpu-26|1|10|60000M||/hpc/group/tdunn|
yl407|TIMEOUT|scavenger-gpu|2023-05-15T16:43:38|2023-05-17T16:43:59|2-00:00:21|dcc-youlab-gpu-01|1|2|150G||/hpc/home/yl407/ondemand/data/sys/dashboard/batch_connect/sys/bc_jupyter/output/b10f5cef-69cb-443a-9296-6b6825e991d1|
aam131|TIMEOUT|scavenger-gpu|2023-05-15T16:54:03|2023-05-15T21:54:19|05:00:16|dcc-dsplus-gpu-01|1|40|80G||/hpc/home/aam131/ondemand/data/sys/dashboard/batch_connect/sys/bc_rstudio_singularity/output/9d16285d-275d-49ce-9fc2-87ef31927aae|
aam131|TIMEOUT|scavenger-gpu|2023-05-15T17:09:18|2023-05-15T22:09:21|05:00:03|dcc-dsplus-gpu-01|1|40|80G||/hpc/home/aam131/ondemand/data/sys/dashboard/batch_connect/sys/bc_rstudio_singularity/output/df7d32bf-0c0b-40cc-b75f-102df2dd26d7|
yl407|CANCELLED by 1099244|scavenger-gpu|2023-05-15T17:28:36|2023-05-17T17:07:18|1-23:38:42|dcc-tdunn-gpu-01|1|2|160G||/hpc/home/yl407/ondemand/data/sys/dashboard/batch_connect/sys/bc_jupyter/output/bba069dd-0809-412a-9c2c-72df0a8129eb|
byz6|FAILED|scavenger-gpu|2023-05-15T17:34:51|2023-05-15T20:11:02|02:36:11|dcc-youlab-gpu-36|1|10|60G||/hpc/group/rekerlab/byz6|
aam131|TIMEOUT|scavenger-gpu|2023-05-15T18:05:19|2023-05-15T23:05:33|05:00:14|dcc-tdunn-gpu-03|1|40|80G||/hpc/home/aam131/ondemand/data/sys/dashboard/batch_connect/sys/bc_rstudio_singularity/output/5cc9b26b-d76f-4a81-a7bd-73ed777827cb|
lh342|PREEMPTED|scavenger-gpu|2023-05-15T18:24:33|2023-05-16T19:18:11|1-00:53:38|dcc-youlab-gpu-29|1|10|24G||/hpc/home/lh342/MMVAE|
lh342|FAILED|scavenger-gpu|2023-05-15T18:33:35|2023-05-16T19:21:08|1-00:47:33|dcc-youlab-gpu-35|1|10|24G||/hpc/home/lh342/MMVAE|
lh342|FAILED|scavenger-gpu|2023-05-15T18:38:34|2023-05-16T19:51:38|1-01:13:04|dcc-youlab-gpu-38|1|10|24G||/hpc/home/lh342/MMVAE|
lh342|FAILED|scavenger-gpu|2023-05-15T18:40:15|2023-05-16T20:05:51|1-01:25:36|dcc-youlab-gpu-53|1|10|24G||/hpc/home/lh342/MMVAE|
lh342|PREEMPTED|scavenger-gpu|2023-05-15T18:42:31|2023-05-16T21:10:28|1-02:27:57|dcc-youlab-gpu-56|1|10|24G||/hpc/home/lh342/MMVAE|
lh342|CANCELLED by 1397954|scavenger-gpu|2023-05-15T18:51:30|2023-05-15T23:08:51|04:17:21|dcc-youlab-gpu-55|1|10|24G||/hpc/home/lh342/MMVAE|
