yk206|TIMEOUT|scavenger-gpu|2023-05-07T13:08:05|2023-05-14T13:08:33|7-00:00:28|dcc-motesa-gpu-04|1|6|12G||/hpc/home/yk206/script|
yk206|TIMEOUT|scavenger-gpu|2023-05-07T13:08:05|2023-05-14T13:08:33|7-00:00:28|dcc-motesa-gpu-01|1|6|12G||/hpc/home/yk206/script|
kl371|TIMEOUT|scavenger-gpu|2023-05-11T08:46:08|2023-05-14T08:46:37|3-00:00:29|dcc-mastatlab-gpu-01|1|8|64G||/hpc/home/kl371/ondemand/data/sys/dashboard/batch_connect/sys/bc_jupyter/output/2e3a3297-9e34-42a2-9e28-1bf9489d2508|
pkk16|TIMEOUT|scavenger-gpu|2023-05-11T21:01:47|2023-05-12T21:02:13|1-00:00:26|dcc-mastatlab-gpu-01|1|2|100G||/hpc/home/pkk16/ondemand/data/sys/dashboard/batch_connect/sys/bc_jupyter/output/89a1f51e-c11d-43c8-b786-ea07c46a9763|
yl407|COMPLETED|scavenger-gpu|2023-05-11T23:44:28|2023-05-12T22:03:45|22:19:17|dcc-brunellab-gpu-04|1|21|4G||/work/yl407/BIWAA|
yl407|COMPLETED|scavenger-gpu|2023-05-11T23:44:58|2023-05-12T21:57:16|22:12:18|dcc-chsi-gpu-01|1|6|4G||/work/yl407/BIWAA|
vk93|PREEMPTED|scavenger-gpu|2023-05-12T02:23:43|2023-05-15T16:09:27|3-13:45:44|dcc-tdunn-gpu-01|1|40|350109M||/hpc/home/vk93/ondemand/data/sys/dashboard/batch_connect/sys/bc_jupyter/output/23d4d6a9-4d03-429b-b1e0-2247cea267b4|
jrl78|COMPLETED|scavenger-gpu|2023-05-12T12:13:53|2023-05-13T07:54:26|19:40:33|dcc-youlab-gpu-57|1|10|2G||/work/jrl78/Nanoparticles/JawBreakers/Big Library/run2|
lh342|CANCELLED by 1397954|scavenger-gpu|2023-05-12T12:21:56|2023-05-15T13:48:49|3-01:26:53|dcc-youlab-gpu-26|1|10|24G||/hpc/home/lh342/MMVAE|
kw297|TIMEOUT|scavenger-gpu|2023-05-12T12:24:36|2023-05-15T12:24:48|3-00:00:12|dcc-motesa-gpu-03|1|4|20G||/hpc/group/ychenlab/DA|
kw297|COMPLETED|scavenger-gpu|2023-05-12T15:07:07|2023-05-13T02:43:40|11:36:33|dcc-viplab-gpu-01|1|2|10G||/hpc/group/ychenlab/DA|
kw297|COMPLETED|scavenger-gpu|2023-05-12T15:07:14|2023-05-12T21:48:07|06:40:53|dcc-pbenfeylab-gpu-01|1|2|10G||/hpc/group/ychenlab/DA|
kw297|COMPLETED|scavenger-gpu|2023-05-12T15:07:14|2023-05-12T21:51:36|06:44:22|dcc-pbenfeylab-gpu-02|1|2|10G||/hpc/group/ychenlab/DA|
kw297|COMPLETED|scavenger-gpu|2023-05-12T15:07:14|2023-05-12T22:05:37|06:58:23|dcc-pbenfeylab-gpu-03|1|2|10G||/hpc/group/ychenlab/DA|
kw297|COMPLETED|scavenger-gpu|2023-05-12T15:07:14|2023-05-12T22:08:26|07:01:12|dcc-pbenfeylab-gpu-04|1|2|10G||/hpc/group/ychenlab/DA|
kw297|COMPLETED|scavenger-gpu|2023-05-12T15:07:14|2023-05-12T22:22:11|07:14:57|dcc-vossenlab-gpu-01|1|2|10G||/hpc/group/ychenlab/DA|
kw297|COMPLETED|scavenger-gpu|2023-05-12T15:07:14|2023-05-12T23:09:41|08:02:27|dcc-vossenlab-gpu-02|1|2|10G||/hpc/group/ychenlab/DA|
kw297|COMPLETED|scavenger-gpu|2023-05-12T15:07:14|2023-05-12T23:39:11|08:31:57|dcc-vossenlab-gpu-03|1|2|10G||/hpc/group/ychenlab/DA|
kw297|COMPLETED|scavenger-gpu|2023-05-12T15:07:14|2023-05-13T00:13:06|09:05:52|dcc-vossenlab-gpu-04|1|2|10G||/hpc/group/ychenlab/DA|
kw297|COMPLETED|scavenger-gpu|2023-05-12T15:07:14|2023-05-13T00:55:36|09:48:22|dcc-biostat-gpu-01|1|2|10G||/hpc/group/ychenlab/DA|
kw297|COMPLETED|scavenger-gpu|2023-05-12T15:07:18|2023-05-12T22:00:23|06:53:05|dcc-biostat-gpu-02|1|2|10G||/hpc/group/ychenlab/DA|
kw297|COMPLETED|scavenger-gpu|2023-05-12T15:07:18|2023-05-13T00:02:42|08:55:24|dcc-tdunn-gpu-02|1|2|10G||/hpc/group/ychenlab/DA|
kw297|COMPLETED|scavenger-gpu|2023-05-12T15:07:18|2023-05-13T00:17:36|09:10:18|dcc-tdunn-gpu-02|1|2|10G||/hpc/group/ychenlab/DA|
kw297|COMPLETED|scavenger-gpu|2023-05-12T15:07:18|2023-05-13T00:25:13|09:17:55|dcc-tdunn-gpu-02|1|2|10G||/hpc/group/ychenlab/DA|
kw297|COMPLETED|scavenger-gpu|2023-05-12T15:07:18|2023-05-13T00:27:57|09:20:39|dcc-tdunn-gpu-02|1|2|10G||/hpc/group/ychenlab/DA|
kw297|COMPLETED|scavenger-gpu|2023-05-12T15:07:18|2023-05-12T23:35:50|08:28:32|dcc-ece-gpu-01|1|2|10G||/hpc/group/ychenlab/DA|
kw297|COMPLETED|scavenger-gpu|2023-05-12T15:07:22|2023-05-13T00:20:25|09:13:03|dcc-ece-gpu-02|1|2|10G||/hpc/group/ychenlab/DA|
kw297|COMPLETED|scavenger-gpu|2023-05-12T15:07:22|2023-05-13T01:42:58|10:35:36|dcc-ece-gpu-03|1|2|10G||/hpc/group/ychenlab/DA|
kw297|COMPLETED|scavenger-gpu|2023-05-12T15:07:22|2023-05-13T02:14:53|11:07:31|dcc-ece-gpu-04|1|2|10G||/hpc/group/ychenlab/DA|
kw297|COMPLETED|scavenger-gpu|2023-05-12T15:07:22|2023-05-13T06:46:06|15:38:44|dcc-mainsahlab-gpu-02|1|2|10G||/hpc/group/ychenlab/DA|
kw297|COMPLETED|scavenger-gpu|2023-05-12T15:07:22|2023-05-13T07:57:45|16:50:23|dcc-mainsahlab-gpu-03|1|2|10G||/hpc/group/ychenlab/DA|
kw297|COMPLETED|scavenger-gpu|2023-05-12T15:07:22|2023-05-13T07:22:39|16:15:17|dcc-mainsahlab-gpu-04|1|2|10G||/hpc/group/ychenlab/DA|
kw297|COMPLETED|scavenger-gpu|2023-05-12T15:07:22|2023-05-12T23:39:13|08:31:51|dcc-mastatlab-gpu-01|1|2|10G||/hpc/group/ychenlab/DA|
kw297|COMPLETED|scavenger-gpu|2023-05-12T15:07:22|2023-05-12T22:15:24|07:08:02|dcc-youlab-gpu-13|1|2|10G||/hpc/group/ychenlab/DA|
kw297|COMPLETED|scavenger-gpu|2023-05-12T15:07:22|2023-05-12T22:31:39|07:24:17|dcc-youlab-gpu-14|1|2|10G||/hpc/group/ychenlab/DA|
kw297|COMPLETED|scavenger-gpu|2023-05-12T15:07:24|2023-05-12T23:07:53|08:00:29|dcc-youlab-gpu-15|1|2|10G||/hpc/group/ychenlab/DA|
kw297|COMPLETED|scavenger-gpu|2023-05-12T15:07:24|2023-05-12T23:47:49|08:40:25|dcc-youlab-gpu-16|1|2|10G||/hpc/group/ychenlab/DA|
kw297|COMPLETED|scavenger-gpu|2023-05-12T15:07:24|2023-05-13T00:21:29|09:14:05|dcc-youlab-gpu-17|1|2|10G||/hpc/group/ychenlab/DA|
kw297|COMPLETED|scavenger-gpu|2023-05-12T15:07:24|2023-05-13T00:54:58|09:47:34|dcc-youlab-gpu-18|1|2|10G||/hpc/group/ychenlab/DA|
kw297|COMPLETED|scavenger-gpu|2023-05-12T15:07:24|2023-05-12T21:40:11|06:32:47|dcc-dhvi-gpu-02|1|2|10G||/hpc/group/ychenlab/DA|
kw297|COMPLETED|scavenger-gpu|2023-05-12T15:07:24|2023-05-12T21:52:19|06:44:55|dcc-dhvi-gpu-03|1|2|10G||/hpc/group/ychenlab/DA|
kw297|COMPLETED|scavenger-gpu|2023-05-12T15:07:24|2023-05-12T21:56:34|06:49:10|dcc-dhvi-gpu-04|1|2|10G||/hpc/group/ychenlab/DA|
kw297|COMPLETED|scavenger-gpu|2023-05-12T15:07:25|2023-05-12T21:56:00|06:48:35|dcc-dhvi-gpu-05|1|2|10G||/hpc/group/ychenlab/DA|
kw297|COMPLETED|scavenger-gpu|2023-05-12T15:07:25|2023-05-12T22:08:19|07:00:54|dcc-dhvi-gpu-06|1|2|10G||/hpc/group/ychenlab/DA|
kw297|COMPLETED|scavenger-gpu|2023-05-12T15:07:25|2023-05-12T22:21:38|07:14:13|dcc-dhvi-gpu-07|1|2|10G||/hpc/group/ychenlab/DA|
kw297|COMPLETED|scavenger-gpu|2023-05-12T15:07:25|2023-05-12T23:02:49|07:55:24|dcc-dhvi-gpu-08|1|2|10G||/hpc/group/ychenlab/DA|
kw297|COMPLETED|scavenger-gpu|2023-05-12T15:07:25|2023-05-13T01:07:34|10:00:09|dcc-brownlab-gpu-01|1|2|10G||/hpc/group/ychenlab/DA|
kw297|COMPLETED|scavenger-gpu|2023-05-12T15:07:25|2023-05-13T01:52:51|10:45:26|dcc-brownlab-gpu-02|1|2|10G||/hpc/group/ychenlab/DA|
kw297|COMPLETED|scavenger-gpu|2023-05-12T15:07:25|2023-05-13T02:42:19|11:34:54|dcc-brownlab-gpu-03|1|2|10G||/hpc/group/ychenlab/DA|
cem125|COMPLETED|scavenger-gpu|2023-05-12T17:37:03|2023-05-15T00:46:42|2-07:09:39|dcc-youlab-gpu-56|1|10|50G||/hpc/group/rekerlab/cem125/OpenNMT-py|
cem125|COMPLETED|scavenger-gpu|2023-05-12T17:37:03|2023-05-14T18:04:08|2-00:27:05|dcc-youlab-gpu-55|1|10|50G||/hpc/group/rekerlab/cem125/OpenNMT-py|
cem125|COMPLETED|scavenger-gpu|2023-05-12T17:37:09|2023-05-15T04:45:47|2-11:08:38|dcc-youlab-gpu-54|1|10|50G||/hpc/group/rekerlab/cem125/OpenNMT-py|
cem125|COMPLETED|scavenger-gpu|2023-05-12T17:37:16|2023-05-14T03:35:21|1-09:58:05|dcc-youlab-gpu-53|1|10|50G||/hpc/group/rekerlab/cem125/OpenNMT-py|
aam131|TIMEOUT|scavenger-gpu|2023-05-12T17:45:49|2023-05-12T22:45:56|05:00:07|dcc-viplab-gpu-01|1|40|80G||/hpc/home/aam131/ondemand/data/sys/dashboard/batch_connect/sys/bc_rstudio_singularity/output/2dd98961-b2a5-4bda-97ff-efb486c5f233|
aam131|TIMEOUT|scavenger-gpu|2023-05-12T17:46:54|2023-05-12T22:46:56|05:00:02|dcc-tdunn-gpu-03|1|40|80G||/hpc/home/aam131/ondemand/data/sys/dashboard/batch_connect/sys/bc_rstudio_singularity/output/a1cd6434-604c-4cc8-b3c5-a5b1246d46ca|
yk206|COMPLETED|scavenger-gpu|2023-05-12T18:04:52|2023-05-12T23:23:46|05:18:54|dcc-allenlab-gpu-01|1|10|24G||/hpc/home/yk206/script/face_download|
yk206|COMPLETED|scavenger-gpu|2023-05-12T18:04:52|2023-05-13T01:44:02|07:39:10|dcc-allenlab-gpu-02|1|10|24G||/hpc/home/yk206/script/face_download|
yk206|COMPLETED|scavenger-gpu|2023-05-12T18:05:00|2023-05-12T21:43:57|03:38:57|dcc-youlab-gpu-34|1|10|24G||/hpc/home/yk206/script/face_download|
yk206|COMPLETED|scavenger-gpu|2023-05-12T18:05:00|2023-05-12T21:48:57|03:43:57|dcc-youlab-gpu-39|1|10|24G||/hpc/home/yk206/script/face_download|
yk206|OUT_OF_MEMORY|scavenger-gpu|2023-05-12T18:05:00|2023-05-13T00:34:08|06:29:08|dcc-youlab-gpu-02|1|10|24G||/hpc/home/yk206/script/face_download|
lh342|CANCELLED by 1397954|scavenger-gpu|None|2023-05-13T09:45:23|00:00:00|None assigned|1|1|2G||/hpc/home/lh342/ondemand/data/sys/dashboard/batch_connect/sys/bc_codeserver/output/d94f7f01-4923-40af-9b25-f02af4963bfb|
kw297|COMPLETED|scavenger-gpu|2023-05-12T18:58:54|2023-05-13T17:39:41|22:40:47|dcc-mainsahlab-gpu-01|1|2|10G||/hpc/group/ychenlab/DA|
zq43|COMPLETED|scavenger-gpu|2023-05-12T19:54:24|2023-05-13T01:49:19|05:54:55|dcc-gehmlab-gpu-06|1|19|2G||/hpc/group/renlab/zhuobiao/MC_kV_for_zhuobiao|
zq43|COMPLETED|scavenger-gpu|2023-05-12T19:58:21|2023-05-13T02:02:40|06:04:19|dcc-gehmlab-gpu-07|1|19|2G||/hpc/group/renlab/zhuobiao/MC_kV_for_zhuobiao|
zq43|COMPLETED|scavenger-gpu|2023-05-12T19:58:21|2023-05-13T02:22:06|06:23:45|dcc-gehmlab-gpu-08|1|19|2G||/hpc/group/renlab/zhuobiao/MC_kV_for_zhuobiao|
zq43|COMPLETED|scavenger-gpu|2023-05-12T19:58:21|2023-05-13T02:10:45|06:12:24|dcc-gehmlab-gpu-09|1|19|2G||/hpc/group/renlab/zhuobiao/MC_kV_for_zhuobiao|
zq43|COMPLETED|scavenger-gpu|2023-05-12T19:58:21|2023-05-13T01:39:56|05:41:35|dcc-gehmlab-gpu-10|1|19|2G||/hpc/group/renlab/zhuobiao/MC_kV_for_zhuobiao|
zj63|PREEMPTED|scavenger-gpu|2023-05-12T21:39:29|2023-05-13T13:33:12|15:53:43|dcc-rekerlab-gpu-01|1|2|64G||/work/zj63/Mediation_analysis/IMAVAE/experiments/TST_data|
