yk206|TIMEOUT|scavenger-gpu|2023-05-07T13:08:05|2023-05-14T13:08:33|7-00:00:28|dcc-motesa-gpu-04|1|6|12G||/hpc/home/yk206/script|
yk206|TIMEOUT|scavenger-gpu|2023-05-07T13:08:05|2023-05-14T13:08:33|7-00:00:28|dcc-motesa-gpu-01|1|6|12G||/hpc/home/yk206/script|
kw297|CANCELLED by 1215097|scavenger-gpu|2023-05-10T23:59:14|2023-05-12T12:23:59|1-12:24:45|dcc-motesa-gpu-03|1|4|20G||/hpc/group/ychenlab/DA|
kl371|TIMEOUT|scavenger-gpu|2023-05-11T08:38:32|2023-05-12T08:38:56|1-00:00:24|dcc-dhvi-gpu-01|1|8|64G||/hpc/home/kl371/ondemand/data/sys/dashboard/batch_connect/sys/bc_jupyter/output/695688f2-8392-4417-b46c-515f761aa920|
kl371|TIMEOUT|scavenger-gpu|2023-05-11T08:46:08|2023-05-14T08:46:37|3-00:00:29|dcc-mastatlab-gpu-01|1|8|64G||/hpc/home/kl371/ondemand/data/sys/dashboard/batch_connect/sys/bc_jupyter/output/2e3a3297-9e34-42a2-9e28-1bf9489d2508|
xz284|COMPLETED|scavenger-gpu|2023-05-11T19:54:56|2023-05-12T09:01:32|13:06:36|dcc-brunellab-gpu-01|1|8|64G||/hpc/group/motesa/Risk_Aware_SCUC_Model/Prelim/CT=0_RAT=1_New/RAS-EMS/beta=0.8/historical|
xz284|COMPLETED|scavenger-gpu|2023-05-11T20:23:41|2023-05-12T07:36:07|11:12:26|dcc-rekerlab-gpu-01|1|8|64G||/hpc/group/motesa/Risk_Aware_SCUC_Model/Prelim/CT=0_RAT=1_New/RAS-EMS/beta=0.8/historical|
dl370|CANCELLED by 1495203|scavenger-gpu|2023-05-11T21:01:39|2023-05-12T11:33:10|14:31:31|dcc-vossenlab-gpu-04|1|10|2G||/work/dl370|
jrl78|PREEMPTED|scavenger-gpu|2023-05-11T21:01:41|2023-05-12T12:11:36|15:09:55|dcc-ultrasound-gpu-03|1|19|2G||/work/jrl78/Nanoparticles/JawBreakers/Big Library/run2|
pkk16|TIMEOUT|scavenger-gpu|2023-05-11T21:01:47|2023-05-12T21:02:13|1-00:00:26|dcc-mastatlab-gpu-01|1|2|100G||/hpc/home/pkk16/ondemand/data/sys/dashboard/batch_connect/sys/bc_jupyter/output/89a1f51e-c11d-43c8-b786-ea07c46a9763|
yx240|COMPLETED|scavenger-gpu|2023-05-11T21:02:16|2023-05-12T05:57:14|08:54:58|dcc-gehmlab-gpu-58|1|19|2G||/work/yx240/project-martini/simutools/scripts|
yx240|CANCELLED by 1495323|scavenger-gpu|2023-05-11T21:02:16|2023-05-12T07:41:43|10:39:27|dcc-gehmlab-gpu-57|1|19|2G||/work/yx240/project-martini/simutools/scripts|
yx240|CANCELLED by 1495323|scavenger-gpu|2023-05-11T21:02:17|2023-05-12T07:41:43|10:39:26|dcc-gehmlab-gpu-55|1|19|2G||/work/yx240/project-martini/simutools/scripts|
yx240|CANCELLED by 1495323|scavenger-gpu|2023-05-11T21:02:17|2023-05-12T07:41:43|10:39:26|dcc-gehmlab-gpu-54|1|19|2G||/work/yx240/project-martini/simutools/scripts|
yx240|CANCELLED by 1495323|scavenger-gpu|2023-05-11T21:02:17|2023-05-12T07:41:43|10:39:26|dcc-gehmlab-gpu-53|1|19|2G||/work/yx240/project-martini/simutools/scripts|
yx240|CANCELLED by 1495323|scavenger-gpu|2023-05-11T21:02:47|2023-05-12T07:41:43|10:38:56|dcc-gehmlab-gpu-52|1|19|2G||/work/yx240/project-martini/simutools/scripts|
yx240|COMPLETED|scavenger-gpu|2023-05-11T21:02:48|2023-05-12T05:59:14|08:56:26|dcc-gehmlab-gpu-50|1|19|2G||/work/yx240/project-martini/simutools/scripts|
yx240|COMPLETED|scavenger-gpu|2023-05-11T21:02:48|2023-05-12T05:41:35|08:38:47|dcc-gehmlab-gpu-48|1|19|2G||/work/yx240/project-martini/simutools/scripts|
yk206|COMPLETED|scavenger-gpu|2023-05-11T21:09:48|2023-05-12T05:40:05|08:30:17|dcc-youlab-gpu-03|1|10|24G||/hpc/home/yk206/script/face_download|
lh342|PREEMPTED|scavenger-gpu|2023-05-11T21:36:39|2023-05-12T07:00:44|09:24:05|dcc-youlab-gpu-34|1|10|24G||/hpc/home/lh342/MMVAE|
lh342|FAILED|scavenger-gpu|2023-05-11T21:44:17|2023-05-12T09:41:12|11:56:55|dcc-pbenfeylab-gpu-01|1|10|24G||/hpc/home/lh342/MMVAE|
lh342|FAILED|scavenger-gpu|2023-05-11T21:46:38|2023-05-12T12:45:46|14:59:08|dcc-allenlab-gpu-02|1|10|24G||/hpc/home/lh342/MMVAE|
lh342|FAILED|scavenger-gpu|2023-05-11T21:49:07|2023-05-12T09:35:08|11:46:01|dcc-allenlab-gpu-03|1|10|24G||/hpc/home/lh342/MMVAE|
lh342|FAILED|scavenger-gpu|2023-05-11T21:58:21|2023-05-12T09:37:13|11:38:52|dcc-allenlab-gpu-04|1|10|24G||/hpc/home/lh342/MMVAE|
lh342|PREEMPTED|scavenger-gpu|2023-05-11T22:03:05|2023-05-12T07:46:00|09:42:55|dcc-youlab-gpu-05|1|10|24G||/hpc/home/lh342/MMVAE|
lh342|FAILED|scavenger-gpu|2023-05-11T23:31:24|2023-05-12T10:47:34|11:16:10|dcc-dhvi-gpu-08|1|10|24G||/hpc/home/lh342/MMVAE|
lh342|FAILED|scavenger-gpu|2023-05-11T23:40:41|2023-05-12T11:32:21|11:51:40|dcc-youlab-gpu-04|1|10|24G||/hpc/home/lh342/MMVAE|
yl407|COMPLETED|scavenger-gpu|2023-05-11T23:44:28|2023-05-12T22:03:45|22:19:17|dcc-brunellab-gpu-04|1|21|4G||/work/yl407/BIWAA|
yl407|COMPLETED|scavenger-gpu|2023-05-11T23:44:58|2023-05-12T21:57:16|22:12:18|dcc-chsi-gpu-01|1|6|4G||/work/yl407/BIWAA|
yl407|COMPLETED|scavenger-gpu|2023-05-11T23:45:44|2023-05-12T20:36:13|20:50:29|dcc-chsi-gpu-02|1|6|4G||/work/yl407/BIWAA|
lh342|FAILED|scavenger-gpu|2023-05-11T23:53:23|2023-05-12T11:11:20|11:17:57|dcc-dhvi-gpu-07|1|10|24G||/hpc/home/lh342/MMVAE|
lh342|FAILED|scavenger-gpu|2023-05-12T00:27:02|2023-05-12T12:32:59|12:05:57|dcc-youlab-gpu-06|1|10|24G||/hpc/home/lh342/MMVAE|
xz284|COMPLETED|scavenger-gpu|2023-05-12T00:57:30|2023-05-12T11:11:18|10:13:48|dcc-ece-gpu-04|1|8|64G||/hpc/group/motesa/Risk_Aware_SCUC_Model/Prelim/CT=0_RAT=1_New/RAS-EMS/beta=0.8/historical|
xz284|COMPLETED|scavenger-gpu|2023-05-12T02:26:55|2023-05-12T07:51:42|05:24:47|dcc-tdunn-gpu-02|1|4|32G||/hpc/group/motesa/Risk_Aware_SCUC_Model/Prelim/CT=0_RAT=1_New/DE-EMS/extreme/V6_1Realization_12Month_SolarDet_2RunPerDay_myopic_aware|
vk93|PREEMPTED|scavenger-gpu|2023-05-12T02:23:43|2023-05-15T16:09:27|3-13:45:44|dcc-tdunn-gpu-01|1|40|350109M||/hpc/home/vk93/ondemand/data/sys/dashboard/batch_connect/sys/bc_jupyter/output/23d4d6a9-4d03-429b-b1e0-2247cea267b4|
