vk93|PREEMPTED|scavenger-gpu|2023-05-12T02:23:43|2023-05-15T16:09:27|3-13:45:44|dcc-tdunn-gpu-01|1|40|350109M||/hpc/home/vk93/ondemand/data/sys/dashboard/batch_connect/sys/bc_jupyter/output/23d4d6a9-4d03-429b-b1e0-2247cea267b4|
lh342|CANCELLED by 1397954|scavenger-gpu|2023-05-12T12:21:56|2023-05-15T13:48:49|3-01:26:53|dcc-youlab-gpu-26|1|10|24G||/hpc/home/lh342/MMVAE|
kw297|TIMEOUT|scavenger-gpu|2023-05-12T12:24:36|2023-05-15T12:24:48|3-00:00:12|dcc-motesa-gpu-03|1|4|20G||/hpc/group/ychenlab/DA|
yx240|COMPLETED|scavenger-gpu|2023-05-13T10:27:49|2023-05-15T23:30:50|2-13:03:01|dcc-youlab-gpu-18|1|10|2G||/work/yx240/project-martini/simutools/scripts|
yw564|FAILED|scavenger-gpu|2023-05-13T11:32:34|2023-05-18T03:15:49|4-15:43:15|dcc-mastatlab-gpu-01|1|2|50G||/hpc/group/jilab|
mk423|CANCELLED by 1192605|scavenger-gpu|2023-05-13T11:54:57|2023-05-16T10:46:28|2-22:51:31|dcc-biostat-gpu-01|1|12|80G||/hpc/home/mk423/Anxiety/FullDataWork/Code/Training/MultiTask|
mk423|CANCELLED by 1192605|scavenger-gpu|2023-05-13T11:54:57|2023-05-16T10:46:28|2-22:51:31|dcc-mastatlab-gpu-01|1|12|80G||/hpc/home/mk423/Anxiety/FullDataWork/Code/Training/MultiTask|
mk423|CANCELLED by 1192605|scavenger-gpu|2023-05-13T11:54:57|2023-05-16T10:46:28|2-22:51:31|dcc-ultrasound-gpu-03|1|12|80G||/hpc/home/mk423/Anxiety/FullDataWork/Code/Training/MultiTask|
mk423|CANCELLED by 1192605|scavenger-gpu|2023-05-13T11:54:58|2023-05-16T10:46:28|2-22:51:30|dcc-tdunn-gpu-02|1|12|80G||/hpc/home/mk423/Anxiety/FullDataWork/Code/Training/MultiTask|
mk423|CANCELLED by 1192605|scavenger-gpu|2023-05-13T11:54:58|2023-05-16T10:46:28|2-22:51:30|dcc-youlab-gpu-01|1|12|80G||/hpc/home/mk423/Anxiety/FullDataWork/Code/Training/MultiTask|
mk423|CANCELLED by 1192605|scavenger-gpu|2023-05-13T11:54:58|2023-05-16T10:46:28|2-22:51:30|dcc-youlab-gpu-01|1|12|80G||/hpc/home/mk423/Anxiety/FullDataWork/Code/Training/MultiTask|
mk423|CANCELLED by 1192605|scavenger-gpu|2023-05-13T11:54:58|2023-05-16T10:46:28|2-22:51:30|dcc-collinslab-gpu-01|1|12|80G||/hpc/home/mk423/Anxiety/FullDataWork/Code/Training/MultiTask|
mk423|CANCELLED by 1192605|scavenger-gpu|2023-05-13T11:54:58|2023-05-16T10:46:28|2-22:51:30|dcc-collinslab-gpu-02|1|12|80G||/hpc/home/mk423/Anxiety/FullDataWork/Code/Training/MultiTask|
mk423|CANCELLED by 1192605|scavenger-gpu|2023-05-13T14:49:28|2023-05-16T10:46:28|2-19:57:00|dcc-biostat-gpu-02|1|12|80G||/hpc/home/mk423/Anxiety/FullDataWork/Code/Training/MultiTask|
mk423|CANCELLED by 1192605|scavenger-gpu|2023-05-13T14:54:31|2023-05-16T10:46:28|2-19:51:57|dcc-brunellab-gpu-04|1|12|80G||/hpc/home/mk423/Anxiety/FullDataWork/Code/Training/MultiTask|
mk423|CANCELLED by 1192605|scavenger-gpu|2023-05-13T16:33:18|2023-05-16T10:46:28|2-18:13:10|dcc-youlab-gpu-01|1|12|80G||/hpc/home/mk423/Anxiety/FullDataWork/Code/Training/MultiTask|
mk423|CANCELLED by 1192605|scavenger-gpu|2023-05-13T18:17:21|2023-05-16T10:46:28|2-16:29:07|dcc-ultrasound-gpu-02|1|12|80G||/hpc/home/mk423/Anxiety/FullDataWork/Code/Training/MultiTask|
mk423|CANCELLED by 1192605|scavenger-gpu|2023-05-13T19:29:08|2023-05-16T10:46:28|2-15:17:20|dcc-carlsonlab-gpu-13|1|12|80G||/hpc/home/mk423/Anxiety/FullDataWork/Code/Training/MultiTask|
mk423|CANCELLED by 1192605|scavenger-gpu|2023-05-13T21:10:45|2023-05-16T10:46:28|2-13:35:43|dcc-mastatlab-gpu-01|1|12|80G||/hpc/home/mk423/Anxiety/FullDataWork/Code/Training/MultiTask|
mk423|CANCELLED by 1192605|scavenger-gpu|2023-05-13T21:25:36|2023-05-16T10:46:28|2-13:20:52|dcc-tdunn-gpu-02|1|12|80G||/hpc/home/mk423/Anxiety/FullDataWork/Code/Training/MultiTask|
mk423|CANCELLED by 1192605|scavenger-gpu|2023-05-14T00:09:06|2023-05-16T10:46:28|2-10:37:22|dcc-carlsonlab-gpu-12|1|12|80G||/hpc/home/mk423/Anxiety/FullDataWork/Code/Training/MultiTask|
mk423|CANCELLED by 1192605|scavenger-gpu|2023-05-15T09:55:37|2023-05-16T10:46:28|1-00:50:51|dcc-brunellab-gpu-01|1|12|80G||/hpc/home/mk423/Anxiety/FullDataWork/Code/Training/MultiTask|
mk423|CANCELLED by 1192605|scavenger-gpu|2023-05-15T09:55:38|2023-05-16T10:46:28|1-00:50:50|dcc-carlsonlab-gpu-01|1|12|80G||/hpc/home/mk423/Anxiety/FullDataWork/Code/Training/MultiTask|
mk423|CANCELLED by 1192605|scavenger-gpu|None|2023-05-16T10:46:28|00:00:00|None assigned|1|12|80G||/hpc/home/mk423/Anxiety/FullDataWork/Code/Training/MultiTask|
zj63|PREEMPTED|scavenger-gpu|2023-05-13T13:35:17|2023-05-15T16:34:23|2-02:59:06|dcc-tdunn-gpu-02|1|2|64G||/work/zj63/Mediation_analysis/IMAVAE/experiments/TST_data|
kl371|TIMEOUT|scavenger-gpu|2023-05-13T17:39:32|2023-05-16T17:39:58|3-00:00:26|dcc-youlab-gpu-23|1|8|64G||/hpc/home/kl371/ondemand/data/sys/dashboard/batch_connect/sys/bc_jupyter/output/7d7e470b-5711-4523-9bcf-90a7a1462c7b|
mk423|CANCELLED by 1192605|scavenger-gpu|None|2023-05-16T10:46:28|00:00:00|None assigned|1|12|80G||/hpc/home/mk423/Anxiety/FullDataWork/Code/Training/MultiTask|
mk423|CANCELLED by 1192605|scavenger-gpu|None|2023-05-16T10:46:28|00:00:00|None assigned|1|12|80G||/hpc/home/mk423/Anxiety/FullDataWork/Code/Training/MultiTask|
kw297|COMPLETED|scavenger-gpu|2023-05-14T15:15:23|2023-05-15T12:29:32|21:14:09|dcc-mainsahlab-gpu-01|1|2|10G||/hpc/group/ychenlab/DA|
kw297|COMPLETED|scavenger-gpu|2023-05-14T15:15:23|2023-05-15T13:23:50|22:08:27|dcc-mainsahlab-gpu-02|1|2|10G||/hpc/group/ychenlab/DA|
kw297|COMPLETED|scavenger-gpu|2023-05-14T15:15:23|2023-05-15T14:41:01|23:25:38|dcc-mainsahlab-gpu-03|1|2|10G||/hpc/group/ychenlab/DA|
jrl78|COMPLETED|scavenger-gpu|2023-05-14T15:51:29|2023-05-15T14:17:16|22:25:47|dcc-youlab-gpu-40|1|10|2G||/work/jrl78/Nanoparticles/JawBreakers/Water Box Size|
jrl78|COMPLETED|scavenger-gpu|2023-05-14T15:51:31|2023-05-15T14:24:17|22:32:46|dcc-youlab-gpu-39|1|10|2G||/work/jrl78/Nanoparticles/JawBreakers/Water Box Size|
jrl78|COMPLETED|scavenger-gpu|2023-05-14T15:51:31|2023-05-15T14:58:34|23:07:03|dcc-youlab-gpu-38|1|10|2G||/work/jrl78/Nanoparticles/JawBreakers/Water Box Size|
jrl78|COMPLETED|scavenger-gpu|2023-05-14T15:52:01|2023-05-15T17:48:42|1-01:56:41|dcc-youlab-gpu-08|1|10|2G||/work/jrl78/Nanoparticles/JawBreakers/Water Box Size|
jrl78|COMPLETED|scavenger-gpu|2023-05-14T15:52:03|2023-05-15T17:48:50|1-01:56:47|dcc-youlab-gpu-07|1|10|2G||/work/jrl78/Nanoparticles/JawBreakers/Water Box Size|
jrl78|COMPLETED|scavenger-gpu|2023-05-14T15:52:05|2023-05-15T17:53:11|1-02:01:06|dcc-youlab-gpu-05|1|10|2G||/work/jrl78/Nanoparticles/JawBreakers/Water Box Size|
jrl78|COMPLETED|scavenger-gpu|2023-05-14T15:52:10|2023-05-15T12:03:27|20:11:17|dcc-youlab-gpu-04|1|10|2G||/work/jrl78/Nanoparticles/JawBreakers/Water Box Size|
jrl78|COMPLETED|scavenger-gpu|2023-05-14T15:52:10|2023-05-15T12:08:15|20:16:05|dcc-youlab-gpu-03|1|10|2G||/work/jrl78/Nanoparticles/JawBreakers/Water Box Size|
jrl78|COMPLETED|scavenger-gpu|2023-05-15T03:26:23|2023-05-15T23:39:34|20:13:11|dcc-youlab-gpu-57|1|10|2G||/work/jrl78/Nanoparticles/JawBreakers/Water Box Size|
jrl78|COMPLETED|scavenger-gpu|2023-05-15T03:28:45|2023-05-15T18:35:39|15:06:54|dcc-youlab-gpu-56|1|10|2G||/work/jrl78/Nanoparticles/JawBreakers/Water Box Size|
jrl78|COMPLETED|scavenger-gpu|2023-05-15T03:42:28|2023-05-15T18:49:50|15:07:22|dcc-youlab-gpu-55|1|10|2G||/work/jrl78/Nanoparticles/JawBreakers/Water Box Size|
jrl78|COMPLETED|scavenger-gpu|2023-05-15T03:45:27|2023-05-15T18:54:07|15:08:40|dcc-youlab-gpu-37|1|10|2G||/work/jrl78/Nanoparticles/JawBreakers/Water Box Size|
jrl78|COMPLETED|scavenger-gpu|2023-05-15T03:50:49|2023-05-15T16:35:47|12:44:58|dcc-youlab-gpu-35|1|10|2G||/work/jrl78/Nanoparticles/JawBreakers/Water Box Size|
jrl78|COMPLETED|scavenger-gpu|2023-05-15T03:51:23|2023-05-15T16:40:51|12:49:28|dcc-youlab-gpu-36|1|10|2G||/work/jrl78/Nanoparticles/JawBreakers/Water Box Size|
jrl78|COMPLETED|scavenger-gpu|2023-05-15T05:31:06|2023-05-15T18:33:33|13:02:27|dcc-youlab-gpu-53|1|10|2G||/work/jrl78/Nanoparticles/JawBreakers/Water Box Size|
jrl78|COMPLETED|scavenger-gpu|2023-05-15T05:42:41|2023-05-16T04:44:28|23:01:47|dcc-youlab-gpu-34|1|10|2G||/work/jrl78/Nanoparticles/JawBreakers/Water Box Size|
jrl78|COMPLETED|scavenger-gpu|2023-05-15T05:50:36|2023-05-16T04:19:18|22:28:42|dcc-youlab-gpu-33|1|10|2G||/work/jrl78/Nanoparticles/JawBreakers/Water Box Size|
jrl78|COMPLETED|scavenger-gpu|2023-05-15T07:19:28|2023-05-16T05:52:30|22:33:02|dcc-youlab-gpu-31|1|10|2G||/work/jrl78/Nanoparticles/JawBreakers/Water Box Size|
jrl78|COMPLETED|scavenger-gpu|2023-05-15T07:28:51|2023-05-15T20:58:26|13:29:35|dcc-youlab-gpu-32|1|10|2G||/work/jrl78/Nanoparticles/JawBreakers/Water Box Size|
jrl78|COMPLETED|scavenger-gpu|2023-05-15T07:29:54|2023-05-15T21:20:07|13:50:13|dcc-youlab-gpu-30|1|10|2G||/work/jrl78/Nanoparticles/JawBreakers/Water Box Size|
jrl78|COMPLETED|scavenger-gpu|2023-05-15T12:03:47|2023-05-16T01:47:58|13:44:11|dcc-youlab-gpu-22|1|10|2G||/work/jrl78/Nanoparticles/JawBreakers/Water Box Size|
jrl78|COMPLETED|scavenger-gpu|2023-05-15T12:08:31|2023-05-15T23:29:32|11:21:01|dcc-youlab-gpu-20|1|10|2G||/work/jrl78/Nanoparticles/JawBreakers/Water Box Size|
jrl78|COMPLETED|scavenger-gpu|2023-05-15T14:24:34|2023-05-16T01:43:47|11:19:13|dcc-youlab-gpu-39|1|10|2G||/work/jrl78/Nanoparticles/JawBreakers/Water Box Size|
jrl78|COMPLETED|scavenger-gpu|2023-05-15T14:17:16|2023-05-16T01:48:57|11:31:41|dcc-youlab-gpu-24|1|10|2G||/work/jrl78/Nanoparticles/JawBreakers/Water Box Size|
yl407|TIMEOUT|scavenger-gpu|2023-05-14T20:44:32|2023-05-15T20:44:32|1-00:00:00|dcc-youlab-gpu-16|1|2|80G||/hpc/home/yl407/ondemand/data/sys/dashboard/batch_connect/sys/bc_jupyter/output/8cd3795a-be88-4e07-aeb1-f70957920934|
hk276|FAILED|scavenger-gpu|2023-05-15T01:46:05|2023-05-15T17:38:50|15:52:45|dcc-viplab-gpu-01|1|12|100000M||/hpc/group/tdunn/hk276/tangosave/src|
byz6|FAILED|scavenger-gpu|2023-05-15T07:36:05|2023-05-15T11:30:22|03:54:17|dcc-youlab-gpu-29|1|10|60G||/hpc/group/rekerlab/byz6|
ym208|CANCELLED by 1517022|scavenger-gpu|2023-05-15T08:54:57|2023-05-15T09:35:45|00:40:48|dcc-youlab-gpu-54|1|1|2G||/hpc/group/bartesaghilab|
mfm45|COMPLETED|scavenger-gpu|2023-05-15T09:21:36|2023-05-15T09:33:20|00:11:44|dcc-mastatlab-gpu-01|1|16|128G||/hpc/group/vossenlab/mfm45/Lambda-GNNs_4_24_23/Lambda-GNNs|
mfm45|COMPLETED|scavenger-gpu|2023-05-15T09:21:36|2023-05-15T09:33:28|00:11:52|dcc-dsplus-gpu-01|1|16|128G||/hpc/group/vossenlab/mfm45/Lambda-GNNs_4_24_23/Lambda-GNNs|
mfm45|COMPLETED|scavenger-gpu|2023-05-15T09:21:36|2023-05-15T09:33:32|00:11:56|dcc-dsplus-gpu-01|1|16|128G||/hpc/group/vossenlab/mfm45/Lambda-GNNs_4_24_23/Lambda-GNNs|
mfm45|COMPLETED|scavenger-gpu|2023-05-15T09:21:37|2023-05-15T09:33:20|00:11:43|dcc-dsplus-gpu-02|1|16|128G||/hpc/group/vossenlab/mfm45/Lambda-GNNs_4_24_23/Lambda-GNNs|
pkk16|TIMEOUT|scavenger-gpu|2023-05-15T09:50:42|2023-05-15T10:50:51|01:00:09|dcc-dsplus-gpu-01|1|2|20G||/hpc/home/pkk16/ondemand/data/sys/dashboard/batch_connect/sys/bc_jupyter/output/ae44dbf6-8d7c-4761-9b29-203a96f07beb|
yx240|COMPLETED|scavenger-gpu|2023-05-15T09:51:44|2023-05-15T09:53:59|00:02:15|dcc-youlab-gpu-54|1|10|2G||/work/yx240/project-martini/new/simutools/scripts|
mk423|CANCELLED by 1192605|scavenger-gpu|None|2023-05-16T10:46:28|00:00:00|None assigned|1|12|80G||/hpc/home/mk423/Anxiety/FullDataWork/Code/Training/MultiTask|
mk423|CANCELLED by 1192605|scavenger-gpu|None|2023-05-16T10:46:28|00:00:00|None assigned|1|12|80G||/hpc/home/mk423/Anxiety/FullDataWork/Code/Training/MultiTask|
yx240|COMPLETED|scavenger-gpu|2023-05-15T09:56:48|2023-05-15T09:57:00|00:00:12|dcc-youlab-gpu-54|1|10|2G||/work/yx240/project-martini/new/simutools/scripts|
yx240|COMPLETED|scavenger-gpu|2023-05-15T09:58:01|2023-05-15T09:58:14|00:00:13|dcc-youlab-gpu-54|1|10|2G||/work/yx240/project-martini/new/simutools/scripts|
yx240|COMPLETED|scavenger-gpu|2023-05-15T10:00:16|2023-05-15T10:14:29|00:14:13|dcc-youlab-gpu-54|1|10|2G||/work/yx240/project-martini/new/simutools/scripts|
