yw564|FAILED|scavenger-gpu|2023-05-13T11:32:34|2023-05-18T03:15:49|4-15:43:15|dcc-mastatlab-gpu-01|1|2|50G||/hpc/group/jilab|
mk423|CANCELLED by 1192605|scavenger-gpu|2023-05-13T11:54:57|2023-05-16T10:46:28|2-22:51:31|dcc-biostat-gpu-01|1|12|80G||/hpc/home/mk423/Anxiety/FullDataWork/Code/Training/MultiTask|
mk423|CANCELLED by 1192605|scavenger-gpu|2023-05-13T11:54:57|2023-05-16T10:46:28|2-22:51:31|dcc-mastatlab-gpu-01|1|12|80G||/hpc/home/mk423/Anxiety/FullDataWork/Code/Training/MultiTask|
mk423|CANCELLED by 1192605|scavenger-gpu|2023-05-13T11:54:57|2023-05-16T10:46:28|2-22:51:31|dcc-ultrasound-gpu-03|1|12|80G||/hpc/home/mk423/Anxiety/FullDataWork/Code/Training/MultiTask|
mk423|CANCELLED by 1192605|scavenger-gpu|2023-05-13T11:54:58|2023-05-16T10:46:28|2-22:51:30|dcc-tdunn-gpu-02|1|12|80G||/hpc/home/mk423/Anxiety/FullDataWork/Code/Training/MultiTask|
mk423|CANCELLED by 1192605|scavenger-gpu|2023-05-13T11:54:58|2023-05-16T10:46:28|2-22:51:30|dcc-youlab-gpu-01|1|12|80G||/hpc/home/mk423/Anxiety/FullDataWork/Code/Training/MultiTask|
mk423|CANCELLED by 1192605|scavenger-gpu|2023-05-13T11:54:58|2023-05-16T10:46:28|2-22:51:30|dcc-youlab-gpu-01|1|12|80G||/hpc/home/mk423/Anxiety/FullDataWork/Code/Training/MultiTask|
mk423|CANCELLED by 1192605|scavenger-gpu|2023-05-13T11:54:58|2023-05-16T10:46:28|2-22:51:30|dcc-collinslab-gpu-01|1|12|80G||/hpc/home/mk423/Anxiety/FullDataWork/Code/Training/MultiTask|
mk423|CANCELLED by 1192605|scavenger-gpu|2023-05-13T11:54:58|2023-05-16T10:46:28|2-22:51:30|dcc-collinslab-gpu-02|1|12|80G||/hpc/home/mk423/Anxiety/FullDataWork/Code/Training/MultiTask|
mk423|CANCELLED by 1192605|scavenger-gpu|2023-05-13T14:49:28|2023-05-16T10:46:28|2-19:57:00|dcc-biostat-gpu-02|1|12|80G||/hpc/home/mk423/Anxiety/FullDataWork/Code/Training/MultiTask|
mk423|CANCELLED by 1192605|scavenger-gpu|2023-05-13T14:54:31|2023-05-16T10:46:28|2-19:51:57|dcc-brunellab-gpu-04|1|12|80G||/hpc/home/mk423/Anxiety/FullDataWork/Code/Training/MultiTask|
mk423|CANCELLED by 1192605|scavenger-gpu|2023-05-13T16:33:18|2023-05-16T10:46:28|2-18:13:10|dcc-youlab-gpu-01|1|12|80G||/hpc/home/mk423/Anxiety/FullDataWork/Code/Training/MultiTask|
mk423|CANCELLED by 1192605|scavenger-gpu|2023-05-13T18:17:21|2023-05-16T10:46:28|2-16:29:07|dcc-ultrasound-gpu-02|1|12|80G||/hpc/home/mk423/Anxiety/FullDataWork/Code/Training/MultiTask|
mk423|CANCELLED by 1192605|scavenger-gpu|2023-05-13T19:29:08|2023-05-16T10:46:28|2-15:17:20|dcc-carlsonlab-gpu-13|1|12|80G||/hpc/home/mk423/Anxiety/FullDataWork/Code/Training/MultiTask|
mk423|CANCELLED by 1192605|scavenger-gpu|2023-05-13T21:10:45|2023-05-16T10:46:28|2-13:35:43|dcc-mastatlab-gpu-01|1|12|80G||/hpc/home/mk423/Anxiety/FullDataWork/Code/Training/MultiTask|
mk423|CANCELLED by 1192605|scavenger-gpu|2023-05-13T21:25:36|2023-05-16T10:46:28|2-13:20:52|dcc-tdunn-gpu-02|1|12|80G||/hpc/home/mk423/Anxiety/FullDataWork/Code/Training/MultiTask|
mk423|CANCELLED by 1192605|scavenger-gpu|2023-05-14T00:09:06|2023-05-16T10:46:28|2-10:37:22|dcc-carlsonlab-gpu-12|1|12|80G||/hpc/home/mk423/Anxiety/FullDataWork/Code/Training/MultiTask|
mk423|CANCELLED by 1192605|scavenger-gpu|2023-05-15T09:55:37|2023-05-16T10:46:28|1-00:50:51|dcc-brunellab-gpu-01|1|12|80G||/hpc/home/mk423/Anxiety/FullDataWork/Code/Training/MultiTask|
mk423|CANCELLED by 1192605|scavenger-gpu|2023-05-15T09:55:38|2023-05-16T10:46:28|1-00:50:50|dcc-carlsonlab-gpu-01|1|12|80G||/hpc/home/mk423/Anxiety/FullDataWork/Code/Training/MultiTask|
mk423|CANCELLED by 1192605|scavenger-gpu|None|2023-05-16T10:46:28|00:00:00|None assigned|1|12|80G||/hpc/home/mk423/Anxiety/FullDataWork/Code/Training/MultiTask|
kl371|TIMEOUT|scavenger-gpu|2023-05-13T17:39:32|2023-05-16T17:39:58|3-00:00:26|dcc-youlab-gpu-23|1|8|64G||/hpc/home/kl371/ondemand/data/sys/dashboard/batch_connect/sys/bc_jupyter/output/7d7e470b-5711-4523-9bcf-90a7a1462c7b|
mk423|CANCELLED by 1192605|scavenger-gpu|None|2023-05-16T10:46:28|00:00:00|None assigned|1|12|80G||/hpc/home/mk423/Anxiety/FullDataWork/Code/Training/MultiTask|
mk423|CANCELLED by 1192605|scavenger-gpu|None|2023-05-16T10:46:28|00:00:00|None assigned|1|12|80G||/hpc/home/mk423/Anxiety/FullDataWork/Code/Training/MultiTask|
mk423|CANCELLED by 1192605|scavenger-gpu|None|2023-05-16T10:46:28|00:00:00|None assigned|1|12|80G||/hpc/home/mk423/Anxiety/FullDataWork/Code/Training/MultiTask|
mk423|CANCELLED by 1192605|scavenger-gpu|None|2023-05-16T10:46:28|00:00:00|None assigned|1|12|80G||/hpc/home/mk423/Anxiety/FullDataWork/Code/Training/MultiTask|
pkk16|TIMEOUT|scavenger-gpu|2023-05-15T10:51:37|2023-05-16T10:51:53|1-00:00:16|dcc-dsplus-gpu-01|1|2|20G||/hpc/home/pkk16/ondemand/data/sys/dashboard/batch_connect/sys/bc_jupyter/output/2b06841c-a256-4217-80d7-182abcb2b464|
lh342|PREEMPTED|scavenger-gpu|2023-05-15T13:49:29|2023-05-16T19:17:58|1-05:28:29|dcc-youlab-gpu-06|1|10|24G||/hpc/home/lh342/MMVAE|
lh342|PREEMPTED|scavenger-gpu|2023-05-15T13:52:14|2023-05-16T19:18:09|1-05:25:55|dcc-youlab-gpu-17|1|10|24G||/hpc/home/lh342/MMVAE|
kw297|PREEMPTED|scavenger-gpu|2023-05-15T14:19:51|2023-05-17T13:49:35|1-23:29:44|dcc-allenlab-gpu-01|1|4|20G||/hpc/group/ychenlab/DA|
dl370|COMPLETED|scavenger-gpu|2023-05-15T14:24:03|2023-05-16T06:30:54|16:06:51|dcc-youlab-gpu-15|1|10|2G||/work/dl370|
yw564|FAILED|scavenger-gpu|2023-05-15T14:43:02|2023-05-18T03:15:50|2-12:32:48|dcc-mastatlab-gpu-01|1|2|50G||/hpc/group/jilab|
yw564|FAILED|scavenger-gpu|2023-05-15T15:37:58|2023-05-18T03:15:50|2-11:37:52|dcc-tdunn-gpu-02|1|2|50G||/hpc/group/jilab|
vk93|TIMEOUT|scavenger-gpu|2023-05-15T16:11:33|2023-05-22T16:11:51|7-00:00:18|dcc-dsplus-gpu-02|1|40|350109M||/hpc/home/vk93/ondemand/data/sys/dashboard/batch_connect/sys/bc_jupyter/output/23d4d6a9-4d03-429b-b1e0-2247cea267b4|
yl407|TIMEOUT|scavenger-gpu|2023-05-15T16:43:38|2023-05-17T16:43:59|2-00:00:21|dcc-youlab-gpu-01|1|2|150G||/hpc/home/yl407/ondemand/data/sys/dashboard/batch_connect/sys/bc_jupyter/output/b10f5cef-69cb-443a-9296-6b6825e991d1|
yl407|CANCELLED by 1099244|scavenger-gpu|2023-05-15T17:28:36|2023-05-17T17:07:18|1-23:38:42|dcc-tdunn-gpu-01|1|2|160G||/hpc/home/yl407/ondemand/data/sys/dashboard/batch_connect/sys/bc_jupyter/output/bba069dd-0809-412a-9c2c-72df0a8129eb|
lh342|PREEMPTED|scavenger-gpu|2023-05-15T18:24:33|2023-05-16T19:18:11|1-00:53:38|dcc-youlab-gpu-29|1|10|24G||/hpc/home/lh342/MMVAE|
lh342|FAILED|scavenger-gpu|2023-05-15T18:33:35|2023-05-16T19:21:08|1-00:47:33|dcc-youlab-gpu-35|1|10|24G||/hpc/home/lh342/MMVAE|
lh342|FAILED|scavenger-gpu|2023-05-15T18:38:34|2023-05-16T19:51:38|1-01:13:04|dcc-youlab-gpu-38|1|10|24G||/hpc/home/lh342/MMVAE|
lh342|FAILED|scavenger-gpu|2023-05-15T18:40:15|2023-05-16T20:05:51|1-01:25:36|dcc-youlab-gpu-53|1|10|24G||/hpc/home/lh342/MMVAE|
lh342|PREEMPTED|scavenger-gpu|2023-05-15T18:42:31|2023-05-16T21:10:28|1-02:27:57|dcc-youlab-gpu-56|1|10|24G||/hpc/home/lh342/MMVAE|
lh342|FAILED|scavenger-gpu|2023-05-15T21:58:24|2023-05-16T07:49:01|09:50:37|dcc-youlab-gpu-27|1|10|24G||/hpc/home/lh342/MMVAE|
lh342|FAILED|scavenger-gpu|2023-05-15T22:14:48|2023-05-16T07:49:41|09:34:53|dcc-youlab-gpu-25|1|10|24G||/hpc/home/lh342/MMVAE|
lh342|FAILED|scavenger-gpu|2023-05-15T22:18:59|2023-05-16T08:06:47|09:47:48|dcc-youlab-gpu-32|1|10|24G||/hpc/home/lh342/MMVAE|
lh342|FAILED|scavenger-gpu|2023-05-15T22:27:58|2023-05-16T08:18:40|09:50:42|dcc-allenlab-gpu-03|1|10|24G||/hpc/home/lh342/MMVAE|
lh342|FAILED|scavenger-gpu|2023-05-15T23:13:24|2023-05-16T06:56:02|07:42:38|dcc-allenlab-gpu-02|1|10|24G||/hpc/home/lh342/MMVAE|
mjv22|COMPLETED|scavenger-gpu|2023-05-16T10:46:33|2023-05-16T10:50:00|00:03:27|dcc-ultrasound-gpu-03|1|19|160G||/hpc/home/mjv22/q_sim|
hk276|FAILED|scavenger-gpu|2023-05-16T01:03:35|2023-05-16T06:02:54|04:59:19|dcc-allenlab-gpu-04|1|10|60000M||/hpc/group/tdunn|
hk276|COMPLETED|scavenger-gpu|2023-05-16T05:12:46|2023-05-16T06:16:15|01:03:29|dcc-tdunn-gpu-02|1|12|100000M||/hpc/group/tdunn/hk276/tangosave/src|
