yk206|TIMEOUT|scavenger-gpu|2023-05-07T13:08:05|2023-05-14T13:08:33|7-00:00:28|dcc-motesa-gpu-04|1|6|12G||/hpc/home/yk206/script|
yk206|TIMEOUT|scavenger-gpu|2023-05-07T13:08:05|2023-05-14T13:08:33|7-00:00:28|dcc-motesa-gpu-01|1|6|12G||/hpc/home/yk206/script|
kw297|CANCELLED by 1215097|scavenger-gpu|2023-05-10T23:59:14|2023-05-12T12:23:59|1-12:24:45|dcc-motesa-gpu-03|1|4|20G||/hpc/group/ychenlab/DA|
kl371|TIMEOUT|scavenger-gpu|2023-05-11T08:38:32|2023-05-12T08:38:56|1-00:00:24|dcc-dhvi-gpu-01|1|8|64G||/hpc/home/kl371/ondemand/data/sys/dashboard/batch_connect/sys/bc_jupyter/output/695688f2-8392-4417-b46c-515f761aa920|
kl371|TIMEOUT|scavenger-gpu|2023-05-11T08:46:08|2023-05-14T08:46:37|3-00:00:29|dcc-mastatlab-gpu-01|1|8|64G||/hpc/home/kl371/ondemand/data/sys/dashboard/batch_connect/sys/bc_jupyter/output/2e3a3297-9e34-42a2-9e28-1bf9489d2508|
xz284|COMPLETED|scavenger-gpu|2023-05-11T12:13:48|2023-05-12T01:51:57|13:38:09|dcc-biostat-gpu-01|1|8|64G||/hpc/group/motesa/Risk_Aware_SCUC_Model/Prelim/CT=0_RAT=1_New/RAS-EMS/beta=0.8/historical|
xz284|COMPLETED|scavenger-gpu|2023-05-11T12:13:56|2023-05-12T03:56:44|15:42:48|dcc-biostat-gpu-02|1|8|64G||/hpc/group/motesa/Risk_Aware_SCUC_Model/Prelim/CT=0_RAT=1_New/RAS-EMS/beta=0.8/historical|
xz284|COMPLETED|scavenger-gpu|2023-05-11T12:14:22|2023-05-12T01:15:30|13:01:08|dcc-brownlab-gpu-03|1|8|64G||/hpc/group/motesa/Risk_Aware_SCUC_Model/Prelim/CT=0_RAT=1_New/RAS-EMS/beta=0.8/extreme|
xz284|COMPLETED|scavenger-gpu|2023-05-11T12:14:27|2023-05-12T04:34:10|16:19:43|dcc-brownlab-gpu-04|1|8|64G||/hpc/group/motesa/Risk_Aware_SCUC_Model/Prelim/CT=0_RAT=1_New/RAS-EMS/beta=0.8/extreme|
xz284|COMPLETED|scavenger-gpu|2023-05-11T12:14:30|2023-05-12T02:06:11|13:51:41|dcc-collinslab-gpu-01|1|8|64G||/hpc/group/motesa/Risk_Aware_SCUC_Model/Prelim/CT=0_RAT=1_New/RAS-EMS/beta=0.8/extreme|
xz284|COMPLETED|scavenger-gpu|2023-05-11T12:14:39|2023-05-12T03:10:11|14:55:32|dcc-collinslab-gpu-03|1|8|64G||/hpc/group/motesa/Risk_Aware_SCUC_Model/Prelim/CT=0_RAT=1_New/RAS-EMS/beta=0.8/extreme|
xz284|COMPLETED|scavenger-gpu|2023-05-11T12:14:41|2023-05-12T03:44:22|15:29:41|dcc-collinslab-gpu-04|1|8|64G||/hpc/group/motesa/Risk_Aware_SCUC_Model/Prelim/CT=0_RAT=1_New/RAS-EMS/beta=0.8/extreme|
xz284|COMPLETED|scavenger-gpu|2023-05-11T12:14:46|2023-05-12T03:32:33|15:17:47|dcc-collinslab-gpu-02|1|8|64G||/hpc/group/motesa/Risk_Aware_SCUC_Model/Prelim/CT=0_RAT=1_New/RAS-EMS/beta=0.8/extreme|
xz284|COMPLETED|scavenger-gpu|2023-05-11T12:14:59|2023-05-12T02:55:21|14:40:22|dcc-ece-gpu-03|1|8|64G||/hpc/group/motesa/Risk_Aware_SCUC_Model/Prelim/CT=0_RAT=1_New/RAS-EMS/beta=0.8/extreme|
yw564|FAILED|scavenger-gpu|2023-05-11T14:27:17|2023-05-12T02:52:33|12:25:16|dcc-mastatlab-gpu-01|1|2|50G||/hpc/group/jilab|
vk93|PREEMPTED|scavenger-gpu|2023-05-11T15:25:30|2023-05-12T02:21:39|10:56:09|dcc-tdunn-gpu-02|1|40|350109M||/hpc/home/vk93/ondemand/data/sys/dashboard/batch_connect/sys/bc_jupyter/output/23d4d6a9-4d03-429b-b1e0-2247cea267b4|
xz284|COMPLETED|scavenger-gpu|2023-05-11T17:22:32|2023-05-12T01:03:55|07:41:23|dcc-allenlab-gpu-01|1|8|64G||/hpc/group/motesa/Risk_Aware_SCUC_Model/Prelim/CT=0_RAT=1_New/RAS-EMS/beta=0.8/historical|
xz284|COMPLETED|scavenger-gpu|2023-05-11T19:54:56|2023-05-12T09:01:32|13:06:36|dcc-brunellab-gpu-01|1|8|64G||/hpc/group/motesa/Risk_Aware_SCUC_Model/Prelim/CT=0_RAT=1_New/RAS-EMS/beta=0.8/historical|
xz284|COMPLETED|scavenger-gpu|2023-05-11T20:23:41|2023-05-12T07:36:07|11:12:26|dcc-rekerlab-gpu-01|1|8|64G||/hpc/group/motesa/Risk_Aware_SCUC_Model/Prelim/CT=0_RAT=1_New/RAS-EMS/beta=0.8/historical|
yk206|COMPLETED|scavenger-gpu|2023-05-11T20:28:39|2023-05-12T04:13:42|07:45:03|dcc-youlab-gpu-07|1|10|24G||/hpc/home/yk206/script/face_download|
dl370|CANCELLED by 1495203|scavenger-gpu|2023-05-11T21:01:39|2023-05-12T11:33:10|14:31:31|dcc-vossenlab-gpu-04|1|10|2G||/work/dl370|
jrl78|PREEMPTED|scavenger-gpu|2023-05-11T21:01:41|2023-05-12T12:11:36|15:09:55|dcc-ultrasound-gpu-03|1|19|2G||/work/jrl78/Nanoparticles/JawBreakers/Big Library/run2|
pkk16|TIMEOUT|scavenger-gpu|2023-05-11T21:01:47|2023-05-12T21:02:13|1-00:00:26|dcc-mastatlab-gpu-01|1|2|100G||/hpc/home/pkk16/ondemand/data/sys/dashboard/batch_connect/sys/bc_jupyter/output/89a1f51e-c11d-43c8-b786-ea07c46a9763|
yx240|COMPLETED|scavenger-gpu|2023-05-11T21:02:16|2023-05-12T05:57:14|08:54:58|dcc-gehmlab-gpu-58|1|19|2G||/work/yx240/project-martini/simutools/scripts|
yx240|CANCELLED by 1495323|scavenger-gpu|2023-05-11T21:02:16|2023-05-12T07:41:43|10:39:27|dcc-gehmlab-gpu-57|1|19|2G||/work/yx240/project-martini/simutools/scripts|
yx240|COMPLETED|scavenger-gpu|2023-05-11T21:02:16|2023-05-12T01:41:06|04:38:50|dcc-gehmlab-gpu-56|1|19|2G||/work/yx240/project-martini/simutools/scripts|
yx240|CANCELLED by 1495323|scavenger-gpu|2023-05-11T21:02:17|2023-05-12T07:41:43|10:39:26|dcc-gehmlab-gpu-55|1|19|2G||/work/yx240/project-martini/simutools/scripts|
yx240|CANCELLED by 1495323|scavenger-gpu|2023-05-11T21:02:17|2023-05-12T07:41:43|10:39:26|dcc-gehmlab-gpu-54|1|19|2G||/work/yx240/project-martini/simutools/scripts|
yx240|CANCELLED by 1495323|scavenger-gpu|2023-05-11T21:02:17|2023-05-12T07:41:43|10:39:26|dcc-gehmlab-gpu-53|1|19|2G||/work/yx240/project-martini/simutools/scripts|
yx240|CANCELLED by 1495323|scavenger-gpu|2023-05-11T21:02:47|2023-05-12T07:41:43|10:38:56|dcc-gehmlab-gpu-52|1|19|2G||/work/yx240/project-martini/simutools/scripts|
yx240|COMPLETED|scavenger-gpu|2023-05-11T21:02:48|2023-05-12T05:59:14|08:56:26|dcc-gehmlab-gpu-50|1|19|2G||/work/yx240/project-martini/simutools/scripts|
yx240|COMPLETED|scavenger-gpu|2023-05-11T21:02:48|2023-05-12T05:41:35|08:38:47|dcc-gehmlab-gpu-48|1|19|2G||/work/yx240/project-martini/simutools/scripts|
yk206|COMPLETED|scavenger-gpu|2023-05-11T21:09:48|2023-05-12T05:40:05|08:30:17|dcc-youlab-gpu-03|1|10|24G||/hpc/home/yk206/script/face_download|
lh342|PREEMPTED|scavenger-gpu|2023-05-11T21:36:39|2023-05-12T07:00:44|09:24:05|dcc-youlab-gpu-34|1|10|24G||/hpc/home/lh342/MMVAE|
lh342|FAILED|scavenger-gpu|2023-05-11T21:44:17|2023-05-12T09:41:12|11:56:55|dcc-pbenfeylab-gpu-01|1|10|24G||/hpc/home/lh342/MMVAE|
lh342|FAILED|scavenger-gpu|2023-05-11T21:45:03|2023-05-12T02:16:19|04:31:16|dcc-motesa-gpu-02|1|6|16G||/hpc/home/lh342/MMVAE|
lh342|FAILED|scavenger-gpu|2023-05-11T21:46:38|2023-05-12T12:45:46|14:59:08|dcc-allenlab-gpu-02|1|10|24G||/hpc/home/lh342/MMVAE|
lh342|FAILED|scavenger-gpu|2023-05-11T21:49:07|2023-05-12T09:35:08|11:46:01|dcc-allenlab-gpu-03|1|10|24G||/hpc/home/lh342/MMVAE|
lh342|FAILED|scavenger-gpu|2023-05-11T21:58:21|2023-05-12T09:37:13|11:38:52|dcc-allenlab-gpu-04|1|10|24G||/hpc/home/lh342/MMVAE|
lh342|PREEMPTED|scavenger-gpu|2023-05-11T22:03:05|2023-05-12T07:46:00|09:42:55|dcc-youlab-gpu-05|1|10|24G||/hpc/home/lh342/MMVAE|
lh342|FAILED|scavenger-gpu|2023-05-11T23:31:24|2023-05-12T10:47:34|11:16:10|dcc-dhvi-gpu-08|1|10|24G||/hpc/home/lh342/MMVAE|
lh342|FAILED|scavenger-gpu|2023-05-11T23:40:41|2023-05-12T11:32:21|11:51:40|dcc-youlab-gpu-04|1|10|24G||/hpc/home/lh342/MMVAE|
yl407|COMPLETED|scavenger-gpu|2023-05-11T23:44:28|2023-05-12T22:03:45|22:19:17|dcc-brunellab-gpu-04|1|21|4G||/work/yl407/BIWAA|
yl407|COMPLETED|scavenger-gpu|2023-05-11T23:44:58|2023-05-12T21:57:16|22:12:18|dcc-chsi-gpu-01|1|6|4G||/work/yl407/BIWAA|
yl407|COMPLETED|scavenger-gpu|2023-05-11T23:45:44|2023-05-12T20:36:13|20:50:29|dcc-chsi-gpu-02|1|6|4G||/work/yl407/BIWAA|
lh342|FAILED|scavenger-gpu|2023-05-11T23:53:23|2023-05-12T11:11:20|11:17:57|dcc-dhvi-gpu-07|1|10|24G||/hpc/home/lh342/MMVAE|
lh342|FAILED|scavenger-gpu|2023-05-12T00:27:02|2023-05-12T12:32:59|12:05:57|dcc-youlab-gpu-06|1|10|24G||/hpc/home/lh342/MMVAE|
xz284|COMPLETED|scavenger-gpu|2023-05-12T00:57:30|2023-05-12T11:11:18|10:13:48|dcc-ece-gpu-04|1|8|64G||/hpc/group/motesa/Risk_Aware_SCUC_Model/Prelim/CT=0_RAT=1_New/RAS-EMS/beta=0.8/historical|
xz284|COMPLETED|scavenger-gpu|2023-05-12T01:24:36|2023-05-12T01:46:22|00:21:46|dcc-allenlab-gpu-01|1|4|32G||/hpc/group/motesa/Risk_Aware_SCUC_Model/Prelim/CT=0_RAT=1_New/DE-EMS/perfect/V6_1Realization_12Month_SolarDet_1RunPerDay_myopic_aware|
xz284|COMPLETED|scavenger-gpu|2023-05-12T01:24:42|2023-05-12T02:15:47|00:51:05|dcc-gehmlab-gpu-49|1|4|32G||/hpc/group/motesa/Risk_Aware_SCUC_Model/Prelim/CT=0_RAT=1_New/DE-EMS/perfect/V6_1Realization_12Month_SolarDet_1RunPerDay_myopic_aware|
xz284|COMPLETED|scavenger-gpu|2023-05-12T01:24:48|2023-05-12T02:17:05|00:52:17|dcc-gehmlab-gpu-51|1|4|32G||/hpc/group/motesa/Risk_Aware_SCUC_Model/Prelim/CT=0_RAT=1_New/DE-EMS/perfect/V6_1Realization_12Month_SolarDet_1RunPerDay_myopic_aware|
xz284|COMPLETED|scavenger-gpu|2023-05-12T01:24:50|2023-05-12T01:44:44|00:19:54|dcc-youlab-gpu-20|1|4|32G||/hpc/group/motesa/Risk_Aware_SCUC_Model/Prelim/CT=0_RAT=1_New/DE-EMS/perfect/V6_1Realization_12Month_SolarDet_1RunPerDay_myopic_aware|
xz284|COMPLETED|scavenger-gpu|2023-05-12T01:24:55|2023-05-12T01:57:42|00:32:47|dcc-ece-gpu-01|1|4|32G||/hpc/group/motesa/Risk_Aware_SCUC_Model/Prelim/CT=0_RAT=1_New/DE-EMS/perfect/V6_1Realization_12Month_SolarDet_1RunPerDay_myopic_aware|
xz284|COMPLETED|scavenger-gpu|2023-05-12T01:25:01|2023-05-12T01:58:22|00:33:21|dcc-ece-gpu-02|1|4|32G||/hpc/group/motesa/Risk_Aware_SCUC_Model/Prelim/CT=0_RAT=1_New/DE-EMS/perfect/V6_1Realization_12Month_SolarDet_1RunPerDay_myopic_aware|
xz284|COMPLETED|scavenger-gpu|2023-05-12T01:25:05|2023-05-12T02:22:53|00:57:48|dcc-gehmlab-gpu-59|1|4|32G||/hpc/group/motesa/Risk_Aware_SCUC_Model/Prelim/CT=0_RAT=1_New/DE-EMS/perfect/V6_1Realization_12Month_SolarDet_1RunPerDay_myopic_aware|
xz284|COMPLETED|scavenger-gpu|2023-05-12T01:25:12|2023-05-12T02:31:02|01:05:50|dcc-gehmlab-gpu-60|1|4|32G||/hpc/group/motesa/Risk_Aware_SCUC_Model/Prelim/CT=0_RAT=1_New/DE-EMS/perfect/V6_1Realization_12Month_SolarDet_1RunPerDay_myopic_aware|
xz284|COMPLETED|scavenger-gpu|2023-05-12T01:25:16|2023-05-12T02:10:58|00:45:42|dcc-brownlab-gpu-01|1|4|32G||/hpc/group/motesa/Risk_Aware_SCUC_Model/Prelim/CT=0_RAT=1_New/DE-EMS/perfect/V6_1Realization_12Month_SolarDet_1RunPerDay_myopic_aware|
xz284|COMPLETED|scavenger-gpu|2023-05-12T01:25:21|2023-05-12T02:12:56|00:47:35|dcc-brownlab-gpu-02|1|4|32G||/hpc/group/motesa/Risk_Aware_SCUC_Model/Prelim/CT=0_RAT=1_New/DE-EMS/perfect/V6_1Realization_12Month_SolarDet_1RunPerDay_myopic_aware|
xz284|COMPLETED|scavenger-gpu|2023-05-12T01:25:27|2023-05-12T02:14:20|00:48:53|dcc-brownlab-gpu-03|1|4|32G||/hpc/group/motesa/Risk_Aware_SCUC_Model/Prelim/CT=0_RAT=1_New/DE-EMS/perfect/V6_1Realization_12Month_SolarDet_1RunPerDay_myopic_aware|
xz284|COMPLETED|scavenger-gpu|2023-05-12T01:25:33|2023-05-12T01:46:00|00:20:27|dcc-dhvi-gpu-02|1|4|32G||/hpc/group/motesa/Risk_Aware_SCUC_Model/Prelim/CT=0_RAT=1_New/DE-EMS/perfect/V6_1Realization_12Month_SolarDet_1RunPerDay_myopic_aware|
xz284|COMPLETED|scavenger-gpu|2023-05-12T01:26:11|2023-05-12T02:04:03|00:37:52|dcc-dhvi-gpu-03|1|4|32G||/hpc/group/motesa/Risk_Aware_SCUC_Model/Prelim/CT=0_RAT=1_New/DE-EMS/perfect/V6_1Realization_12Month_SolarDet_2RunPerDay_myopic_aware|
xz284|COMPLETED|scavenger-gpu|2023-05-12T01:26:13|2023-05-12T02:06:36|00:40:23|dcc-dhvi-gpu-04|1|4|32G||/hpc/group/motesa/Risk_Aware_SCUC_Model/Prelim/CT=0_RAT=1_New/DE-EMS/perfect/V6_1Realization_12Month_SolarDet_2RunPerDay_myopic_aware|
xz284|COMPLETED|scavenger-gpu|2023-05-12T01:26:18|2023-05-12T02:08:51|00:42:33|dcc-pbenfeylab-gpu-02|1|4|32G||/hpc/group/motesa/Risk_Aware_SCUC_Model/Prelim/CT=0_RAT=1_New/DE-EMS/perfect/V6_1Realization_12Month_SolarDet_2RunPerDay_myopic_aware|
xz284|COMPLETED|scavenger-gpu|2023-05-12T01:26:24|2023-05-12T02:02:52|00:36:28|dcc-pbenfeylab-gpu-03|1|4|32G||/hpc/group/motesa/Risk_Aware_SCUC_Model/Prelim/CT=0_RAT=1_New/DE-EMS/perfect/V6_1Realization_12Month_SolarDet_2RunPerDay_myopic_aware|
xz284|COMPLETED|scavenger-gpu|2023-05-12T01:26:27|2023-05-12T02:07:45|00:41:18|dcc-pbenfeylab-gpu-04|1|4|32G||/hpc/group/motesa/Risk_Aware_SCUC_Model/Prelim/CT=0_RAT=1_New/DE-EMS/perfect/V6_1Realization_12Month_SolarDet_2RunPerDay_myopic_aware|
xz284|COMPLETED|scavenger-gpu|2023-05-12T01:26:29|2023-05-12T02:05:36|00:39:07|dcc-vossenlab-gpu-01|1|4|32G||/hpc/group/motesa/Risk_Aware_SCUC_Model/Prelim/CT=0_RAT=1_New/DE-EMS/perfect/V6_1Realization_12Month_SolarDet_2RunPerDay_myopic_aware|
xz284|COMPLETED|scavenger-gpu|2023-05-12T01:26:34|2023-05-12T02:05:57|00:39:23|dcc-vossenlab-gpu-02|1|4|32G||/hpc/group/motesa/Risk_Aware_SCUC_Model/Prelim/CT=0_RAT=1_New/DE-EMS/perfect/V6_1Realization_12Month_SolarDet_2RunPerDay_myopic_aware|
xz284|COMPLETED|scavenger-gpu|2023-05-12T01:26:36|2023-05-12T02:09:28|00:42:52|dcc-vossenlab-gpu-03|1|4|32G||/hpc/group/motesa/Risk_Aware_SCUC_Model/Prelim/CT=0_RAT=1_New/DE-EMS/perfect/V6_1Realization_12Month_SolarDet_2RunPerDay_myopic_aware|
xz284|COMPLETED|scavenger-gpu|2023-05-12T01:26:41|2023-05-12T02:58:51|01:32:10|dcc-carlsonlab-gpu-11|1|4|32G||/hpc/group/motesa/Risk_Aware_SCUC_Model/Prelim/CT=0_RAT=1_New/DE-EMS/perfect/V6_1Realization_12Month_SolarDet_2RunPerDay_myopic_aware|
xz284|COMPLETED|scavenger-gpu|2023-05-12T01:26:48|2023-05-12T02:58:50|01:32:02|dcc-carlsonlab-gpu-12|1|4|32G||/hpc/group/motesa/Risk_Aware_SCUC_Model/Prelim/CT=0_RAT=1_New/DE-EMS/perfect/V6_1Realization_12Month_SolarDet_2RunPerDay_myopic_aware|
xz284|COMPLETED|scavenger-gpu|2023-05-12T01:26:52|2023-05-12T02:53:30|01:26:38|dcc-carlsonlab-gpu-13|1|4|32G||/hpc/group/motesa/Risk_Aware_SCUC_Model/Prelim/CT=0_RAT=1_New/DE-EMS/perfect/V6_1Realization_12Month_SolarDet_2RunPerDay_myopic_aware|
xz284|COMPLETED|scavenger-gpu|2023-05-12T01:44:44|2023-05-12T03:05:28|01:20:44|dcc-carlsonlab-gpu-14|1|4|32G||/hpc/group/motesa/Risk_Aware_SCUC_Model/Prelim/CT=0_RAT=1_New/DE-EMS/perfect/V6_1Realization_12Month_SolarDet_2RunPerDay_myopic_aware|
xz284|COMPLETED|scavenger-gpu|2023-05-12T01:46:01|2023-05-12T02:08:48|00:22:47|dcc-dhvi-gpu-02|1|4|32G||/hpc/group/motesa/Risk_Aware_SCUC_Model/Prelim/CT=0_RAT=1_New/DE-EMS/perfect/V6_1Realization_12Month_SolarDet_1RunPerDay_6h_aware|
xz284|COMPLETED|scavenger-gpu|2023-05-12T01:46:24|2023-05-12T02:10:16|00:23:52|dcc-allenlab-gpu-01|1|4|32G||/hpc/group/motesa/Risk_Aware_SCUC_Model/Prelim/CT=0_RAT=1_New/DE-EMS/perfect/V6_1Realization_12Month_SolarDet_1RunPerDay_6h_aware|
xz284|COMPLETED|scavenger-gpu|2023-05-12T01:51:58|2023-05-12T02:47:33|00:55:35|dcc-gehmlab-gpu-56|1|4|32G||/hpc/group/motesa/Risk_Aware_SCUC_Model/Prelim/CT=0_RAT=1_New/DE-EMS/perfect/V6_1Realization_12Month_SolarDet_1RunPerDay_6h_aware|
xz284|COMPLETED|scavenger-gpu|2023-05-12T01:51:58|2023-05-12T02:13:00|00:21:02|dcc-youlab-gpu-20|1|4|32G||/hpc/group/motesa/Risk_Aware_SCUC_Model/Prelim/CT=0_RAT=1_New/DE-EMS/perfect/V6_1Realization_12Month_SolarDet_1RunPerDay_6h_aware|
xz284|COMPLETED|scavenger-gpu|2023-05-12T01:57:43|2023-05-12T02:33:41|00:35:58|dcc-ece-gpu-01|1|4|32G||/hpc/group/motesa/Risk_Aware_SCUC_Model/Prelim/CT=0_RAT=1_New/DE-EMS/perfect/V6_1Realization_12Month_SolarDet_1RunPerDay_6h_aware|
xz284|COMPLETED|scavenger-gpu|2023-05-12T01:58:23|2023-05-12T02:31:52|00:33:29|dcc-ece-gpu-02|1|4|32G||/hpc/group/motesa/Risk_Aware_SCUC_Model/Prelim/CT=0_RAT=1_New/DE-EMS/perfect/V6_1Realization_12Month_SolarDet_1RunPerDay_6h_aware|
xz284|COMPLETED|scavenger-gpu|2023-05-12T02:02:54|2023-05-12T02:26:53|00:23:59|dcc-pbenfeylab-gpu-03|1|4|32G||/hpc/group/motesa/Risk_Aware_SCUC_Model/Prelim/CT=0_RAT=1_New/DE-EMS/perfect/V6_1Realization_12Month_SolarDet_1RunPerDay_6h_aware|
xz284|COMPLETED|scavenger-gpu|2023-05-12T02:04:05|2023-05-12T02:27:30|00:23:25|dcc-dhvi-gpu-03|1|4|32G||/hpc/group/motesa/Risk_Aware_SCUC_Model/Prelim/CT=0_RAT=1_New/DE-EMS/perfect/V6_1Realization_12Month_SolarDet_1RunPerDay_6h_aware|
xz284|COMPLETED|scavenger-gpu|2023-05-12T02:05:36|2023-05-12T02:28:34|00:22:58|dcc-vossenlab-gpu-01|1|4|32G||/hpc/group/motesa/Risk_Aware_SCUC_Model/Prelim/CT=0_RAT=1_New/DE-EMS/perfect/V6_1Realization_12Month_SolarDet_1RunPerDay_6h_aware|
xz284|COMPLETED|scavenger-gpu|2023-05-12T02:05:57|2023-05-12T02:27:41|00:21:44|dcc-vossenlab-gpu-02|1|4|32G||/hpc/group/motesa/Risk_Aware_SCUC_Model/Prelim/CT=0_RAT=1_New/DE-EMS/perfect/V6_1Realization_12Month_SolarDet_1RunPerDay_6h_aware|
xz284|COMPLETED|scavenger-gpu|2023-05-12T02:06:12|2023-05-12T03:03:38|00:57:26|dcc-collinslab-gpu-01|1|4|32G||/hpc/group/motesa/Risk_Aware_SCUC_Model/Prelim/CT=0_RAT=1_New/DE-EMS/perfect/V6_1Realization_12Month_SolarDet_1RunPerDay_6h_aware|
xz284|COMPLETED|scavenger-gpu|2023-05-12T02:06:12|2023-05-12T02:29:48|00:23:36|dcc-dhvi-gpu-05|1|4|32G||/hpc/group/motesa/Risk_Aware_SCUC_Model/Prelim/CT=0_RAT=1_New/DE-EMS/perfect/V6_1Realization_12Month_SolarDet_1RunPerDay_6h_aware|
xz284|COMPLETED|scavenger-gpu|2023-05-12T02:06:38|2023-05-12T02:28:11|00:21:33|dcc-dhvi-gpu-04|1|4|32G||/hpc/group/motesa/Risk_Aware_SCUC_Model/Prelim/CT=0_RAT=1_New/DE-EMS/extreme/V6_1Realization_12Month_SolarDet_1RunPerDay_myopic_aware|
xz284|COMPLETED|scavenger-gpu|2023-05-12T02:07:46|2023-05-12T02:31:04|00:23:18|dcc-dhvi-gpu-06|1|4|32G||/hpc/group/motesa/Risk_Aware_SCUC_Model/Prelim/CT=0_RAT=1_New/DE-EMS/extreme/V6_1Realization_12Month_SolarDet_1RunPerDay_myopic_aware|
xz284|COMPLETED|scavenger-gpu|2023-05-12T02:08:49|2023-05-12T02:34:12|00:25:23|dcc-pbenfeylab-gpu-04|1|4|32G||/hpc/group/motesa/Risk_Aware_SCUC_Model/Prelim/CT=0_RAT=1_New/DE-EMS/extreme/V6_1Realization_12Month_SolarDet_1RunPerDay_myopic_aware|
xz284|COMPLETED|scavenger-gpu|2023-05-12T02:08:51|2023-05-12T02:31:59|00:23:08|dcc-dhvi-gpu-02|1|4|32G||/hpc/group/motesa/Risk_Aware_SCUC_Model/Prelim/CT=0_RAT=1_New/DE-EMS/extreme/V6_1Realization_12Month_SolarDet_1RunPerDay_myopic_aware|
xz284|COMPLETED|scavenger-gpu|2023-05-12T02:09:29|2023-05-12T02:34:56|00:25:27|dcc-pbenfeylab-gpu-02|1|4|32G||/hpc/group/motesa/Risk_Aware_SCUC_Model/Prelim/CT=0_RAT=1_New/DE-EMS/extreme/V6_1Realization_12Month_SolarDet_1RunPerDay_myopic_aware|
xz284|COMPLETED|scavenger-gpu|2023-05-12T02:10:18|2023-05-12T02:34:30|00:24:12|dcc-allenlab-gpu-01|1|4|32G||/hpc/group/motesa/Risk_Aware_SCUC_Model/Prelim/CT=0_RAT=1_New/DE-EMS/extreme/V6_1Realization_12Month_SolarDet_1RunPerDay_myopic_aware|
xz284|COMPLETED|scavenger-gpu|2023-05-12T02:10:59|2023-05-12T03:32:44|01:21:45|dcc-brownlab-gpu-01|1|4|32G||/hpc/group/motesa/Risk_Aware_SCUC_Model/Prelim/CT=0_RAT=1_New/DE-EMS/extreme/V6_1Realization_12Month_SolarDet_1RunPerDay_myopic_aware|
xz284|COMPLETED|scavenger-gpu|2023-05-12T02:12:58|2023-05-12T03:40:46|01:27:48|dcc-brownlab-gpu-02|1|4|32G||/hpc/group/motesa/Risk_Aware_SCUC_Model/Prelim/CT=0_RAT=1_New/DE-EMS/extreme/V6_1Realization_12Month_SolarDet_1RunPerDay_myopic_aware|
xz284|COMPLETED|scavenger-gpu|2023-05-12T02:13:00|2023-05-12T02:36:41|00:23:41|dcc-vossenlab-gpu-03|1|4|32G||/hpc/group/motesa/Risk_Aware_SCUC_Model/Prelim/CT=0_RAT=1_New/DE-EMS/extreme/V6_1Realization_12Month_SolarDet_1RunPerDay_myopic_aware|
xz284|FAILED|scavenger-gpu|2023-05-12T02:14:21|2023-05-12T02:41:21|00:27:00|dcc-brownlab-gpu-03|1|4|32G||/hpc/group/motesa/Risk_Aware_SCUC_Model/Prelim/CT=0_RAT=1_New/DE-EMS/extreme/V6_1Realization_12Month_SolarDet_1RunPerDay_myopic_aware|
xz284|COMPLETED|scavenger-gpu|2023-05-12T02:15:47|2023-05-12T03:22:01|01:06:14|dcc-gehmlab-gpu-49|1|4|32G||/hpc/group/motesa/Risk_Aware_SCUC_Model/Prelim/CT=0_RAT=1_New/DE-EMS/extreme/V6_1Realization_12Month_SolarDet_1RunPerDay_myopic_aware|
xz284|COMPLETED|scavenger-gpu|2023-05-12T02:17:07|2023-05-12T03:26:53|01:09:46|dcc-gehmlab-gpu-51|1|4|32G||/hpc/group/motesa/Risk_Aware_SCUC_Model/Prelim/CT=0_RAT=1_New/DE-EMS/extreme/V6_1Realization_12Month_SolarDet_1RunPerDay_myopic_aware|
xz284|COMPLETED|scavenger-gpu|2023-05-12T02:22:53|2023-05-12T04:01:24|01:38:31|dcc-gehmlab-gpu-59|1|4|32G||/hpc/group/motesa/Risk_Aware_SCUC_Model/Prelim/CT=0_RAT=1_New/DE-EMS/extreme/V6_1Realization_12Month_SolarDet_2RunPerDay_myopic_aware|
xz284|COMPLETED|scavenger-gpu|2023-05-12T02:26:55|2023-05-12T07:51:42|05:24:47|dcc-tdunn-gpu-02|1|4|32G||/hpc/group/motesa/Risk_Aware_SCUC_Model/Prelim/CT=0_RAT=1_New/DE-EMS/extreme/V6_1Realization_12Month_SolarDet_2RunPerDay_myopic_aware|
xz284|COMPLETED|scavenger-gpu|2023-05-12T02:27:31|2023-05-12T03:08:44|00:41:13|dcc-dhvi-gpu-03|1|4|32G||/hpc/group/motesa/Risk_Aware_SCUC_Model/Prelim/CT=0_RAT=1_New/DE-EMS/extreme/V6_1Realization_12Month_SolarDet_2RunPerDay_myopic_aware|
xz284|COMPLETED|scavenger-gpu|2023-05-12T02:27:42|2023-05-12T03:06:46|00:39:04|dcc-pbenfeylab-gpu-03|1|4|32G||/hpc/group/motesa/Risk_Aware_SCUC_Model/Prelim/CT=0_RAT=1_New/DE-EMS/extreme/V6_1Realization_12Month_SolarDet_2RunPerDay_myopic_aware|
xz284|COMPLETED|scavenger-gpu|2023-05-12T02:28:12|2023-05-12T03:12:30|00:44:18|dcc-dhvi-gpu-04|1|4|32G||/hpc/group/motesa/Risk_Aware_SCUC_Model/Prelim/CT=0_RAT=1_New/DE-EMS/extreme/V6_1Realization_12Month_SolarDet_2RunPerDay_myopic_aware|
xz284|COMPLETED|scavenger-gpu|2023-05-12T02:28:35|2023-05-12T03:08:09|00:39:34|dcc-youlab-gpu-20|1|4|32G||/hpc/group/motesa/Risk_Aware_SCUC_Model/Prelim/CT=0_RAT=1_New/DE-EMS/extreme/V6_1Realization_12Month_SolarDet_2RunPerDay_myopic_aware|
xz284|COMPLETED|scavenger-gpu|2023-05-12T02:29:49|2023-05-12T03:12:59|00:43:10|dcc-dhvi-gpu-05|1|4|32G||/hpc/group/motesa/Risk_Aware_SCUC_Model/Prelim/CT=0_RAT=1_New/DE-EMS/extreme/V6_1Realization_12Month_SolarDet_2RunPerDay_myopic_aware|
xz284|COMPLETED|scavenger-gpu|2023-05-12T02:31:02|2023-05-12T04:34:58|02:03:56|dcc-gehmlab-gpu-60|1|4|32G||/hpc/group/motesa/Risk_Aware_SCUC_Model/Prelim/CT=0_RAT=1_New/DE-EMS/extreme/V6_1Realization_12Month_SolarDet_2RunPerDay_myopic_aware|
xz284|COMPLETED|scavenger-gpu|2023-05-12T02:31:07|2023-05-12T03:12:30|00:41:23|dcc-dhvi-gpu-06|1|4|32G||/hpc/group/motesa/Risk_Aware_SCUC_Model/Prelim/CT=0_RAT=1_New/DE-EMS/extreme/V6_1Realization_12Month_SolarDet_2RunPerDay_myopic_aware|
xz284|COMPLETED|scavenger-gpu|2023-05-12T02:31:53|2023-05-12T03:33:13|01:01:20|dcc-ece-gpu-02|1|4|32G||/hpc/group/motesa/Risk_Aware_SCUC_Model/Prelim/CT=0_RAT=1_New/DE-EMS/extreme/V6_1Realization_12Month_SolarDet_2RunPerDay_myopic_aware|
xz284|COMPLETED|scavenger-gpu|2023-05-12T02:32:01|2023-05-12T03:13:19|00:41:18|dcc-dhvi-gpu-02|1|4|32G||/hpc/group/motesa/Risk_Aware_SCUC_Model/Prelim/CT=0_RAT=1_New/DE-EMS/extreme/V6_1Realization_12Month_SolarDet_2RunPerDay_myopic_aware|
xz284|COMPLETED|scavenger-gpu|2023-05-12T02:33:41|2023-05-12T03:32:59|00:59:18|dcc-ece-gpu-01|1|4|32G||/hpc/group/motesa/Risk_Aware_SCUC_Model/Prelim/CT=0_RAT=1_New/DE-EMS/extreme/V6_1Realization_12Month_SolarDet_2RunPerDay_myopic_aware|
xz284|COMPLETED|scavenger-gpu|2023-05-12T02:34:14|2023-05-12T02:57:18|00:23:04|dcc-pbenfeylab-gpu-04|1|4|32G||/hpc/group/motesa/Risk_Aware_SCUC_Model/Prelim/CT=0_RAT=1_New/DE-EMS/extreme/V6_1Realization_12Month_SolarDet_1RunPerDay_6h_aware|
xz284|COMPLETED|scavenger-gpu|2023-05-12T02:34:31|2023-05-12T02:56:50|00:22:19|dcc-allenlab-gpu-01|1|4|32G||/hpc/group/motesa/Risk_Aware_SCUC_Model/Prelim/CT=0_RAT=1_New/DE-EMS/extreme/V6_1Realization_12Month_SolarDet_1RunPerDay_6h_aware|
xz284|COMPLETED|scavenger-gpu|2023-05-12T02:34:57|2023-05-12T03:01:32|00:26:35|dcc-pbenfeylab-gpu-02|1|4|32G||/hpc/group/motesa/Risk_Aware_SCUC_Model/Prelim/CT=0_RAT=1_New/DE-EMS/extreme/V6_1Realization_12Month_SolarDet_1RunPerDay_6h_aware|
xz284|COMPLETED|scavenger-gpu|2023-05-12T02:36:43|2023-05-12T03:30:52|00:54:09|dcc-biostat-gpu-01|1|4|32G||/hpc/group/motesa/Risk_Aware_SCUC_Model/Prelim/CT=0_RAT=1_New/DE-EMS/extreme/V6_1Realization_12Month_SolarDet_1RunPerDay_6h_aware|
xz284|COMPLETED|scavenger-gpu|2023-05-12T02:41:21|2023-05-12T03:43:58|01:02:37|dcc-brownlab-gpu-03|1|4|32G||/hpc/group/motesa/Risk_Aware_SCUC_Model/Prelim/CT=0_RAT=1_New/DE-EMS/extreme/V6_1Realization_12Month_SolarDet_1RunPerDay_6h_aware|
xz284|COMPLETED|scavenger-gpu|2023-05-12T02:47:33|2023-05-12T03:39:43|00:52:10|dcc-gehmlab-gpu-56|1|4|32G||/hpc/group/motesa/Risk_Aware_SCUC_Model/Prelim/CT=0_RAT=1_New/DE-EMS/extreme/V6_1Realization_12Month_SolarDet_1RunPerDay_6h_aware|
xz284|COMPLETED|scavenger-gpu|2023-05-12T02:53:32|2023-05-12T03:50:12|00:56:40|dcc-carlsonlab-gpu-13|1|4|32G||/hpc/group/motesa/Risk_Aware_SCUC_Model/Prelim/CT=0_RAT=1_New/DE-EMS/extreme/V6_1Realization_12Month_SolarDet_1RunPerDay_6h_aware|
xz284|COMPLETED|scavenger-gpu|2023-05-12T02:55:22|2023-05-12T03:30:29|00:35:07|dcc-ece-gpu-03|1|4|32G||/hpc/group/motesa/Risk_Aware_SCUC_Model/Prelim/CT=0_RAT=1_New/DE-EMS/extreme/V6_1Realization_12Month_SolarDet_1RunPerDay_6h_aware|
xz284|COMPLETED|scavenger-gpu|2023-05-12T02:55:22|2023-05-12T04:46:00|01:50:38|dcc-mastatlab-gpu-01|1|4|32G||/hpc/group/motesa/Risk_Aware_SCUC_Model/Prelim/CT=0_RAT=1_New/DE-EMS/extreme/V6_1Realization_12Month_SolarDet_1RunPerDay_6h_aware|
xz284|COMPLETED|scavenger-gpu|2023-05-12T02:56:52|2023-05-12T03:19:50|00:22:58|dcc-allenlab-gpu-01|1|4|32G||/hpc/group/motesa/Risk_Aware_SCUC_Model/Prelim/CT=0_RAT=1_New/DE-EMS/extreme/V6_1Realization_12Month_SolarDet_1RunPerDay_6h_aware|
xz284|COMPLETED|scavenger-gpu|2023-05-12T02:57:18|2023-05-12T03:21:14|00:23:56|dcc-pbenfeylab-gpu-04|1|4|32G||/hpc/group/motesa/Risk_Aware_SCUC_Model/Prelim/CT=0_RAT=1_New/DE-EMS/extreme/V6_1Realization_12Month_SolarDet_1RunPerDay_6h_aware|
xz284|COMPLETED|scavenger-gpu|2023-05-12T02:58:51|2023-05-12T03:52:06|00:53:15|dcc-carlsonlab-gpu-11|1|4|32G||/hpc/group/motesa/Risk_Aware_SCUC_Model/Prelim/CT=0_RAT=1_New/DE-EMS/extreme/V6_1Realization_12Month_SolarDet_1RunPerDay_6h_aware|
