pb183|COMPLETED|scavenger-gpu|2023-05-30T15:10:52|2023-06-04T05:26:05|4-14:15:13|dcc-collinslab-gpu-03|1|19|96G||/hpc/group/ldefratelab/Patrick/Cartilage_ML_3D|
pb183|COMPLETED|scavenger-gpu|2023-06-02T07:39:34|2023-06-04T18:57:11|2-11:17:37|dcc-youlab-gpu-04|1|10|96G||/hpc/group/ldefratelab/Patrick/Cartilage_ML_3D|
pb183|COMPLETED|scavenger-gpu|2023-06-02T11:46:40|2023-06-06T05:29:02|3-17:42:22|dcc-youlab-gpu-53|1|10|96G||/hpc/group/ldefratelab/Patrick/Cartilage_ML_3D|
pb183|COMPLETED|scavenger-gpu|2023-06-02T12:17:55|2023-06-04T16:58:41|2-04:40:46|dcc-youlab-gpu-15|1|10|96G||/hpc/group/ldefratelab/Patrick/Cartilage_ML_3D|
pb183|COMPLETED|scavenger-gpu|2023-06-03T05:46:01|2023-06-05T01:12:31|1-19:26:30|dcc-pbenfeylab-gpu-02|1|10|96G||/hpc/group/ldefratelab/Patrick/Cartilage_ML_3D|
pb183|COMPLETED|scavenger-gpu|2023-06-03T21:19:38|2023-06-04T07:10:41|09:51:03|dcc-youlab-gpu-16|1|10|96G||/hpc/group/ldefratelab/Patrick/Cartilage_ML_3D|
pb183|COMPLETED|scavenger-gpu|2023-06-03T22:24:11|2023-06-04T06:43:02|08:18:51|dcc-youlab-gpu-40|1|10|96G||/hpc/group/ldefratelab/Patrick/Cartilage_ML_3D|
pb183|COMPLETED|scavenger-gpu|2023-06-03T23:23:58|2023-06-04T06:49:14|07:25:16|dcc-youlab-gpu-32|1|10|96G||/hpc/group/ldefratelab/Patrick/Cartilage_ML_3D|
pb183|COMPLETED|scavenger-gpu|2023-06-04T00:04:15|2023-06-04T15:26:40|15:22:25|dcc-youlab-gpu-41|1|10|96G||/hpc/group/ldefratelab/Patrick/Cartilage_ML_3D|
pb183|COMPLETED|scavenger-gpu|2023-06-04T00:10:51|2023-06-04T17:02:43|16:51:52|dcc-youlab-gpu-38|1|10|96G||/hpc/group/ldefratelab/Patrick/Cartilage_ML_3D|
pb183|COMPLETED|scavenger-gpu|2023-06-04T00:57:35|2023-06-04T06:20:02|05:22:27|dcc-youlab-gpu-36|1|10|96G||/hpc/group/ldefratelab/Patrick/Cartilage_ML_3D|
pb183|COMPLETED|scavenger-gpu|2023-06-04T02:10:26|2023-06-05T12:17:40|1-10:07:14|dcc-youlab-gpu-42|1|10|96G||/hpc/group/ldefratelab/Patrick/Cartilage_ML_3D|
pb183|PREEMPTED|scavenger-gpu|2023-06-04T04:27:00|2023-06-05T12:44:08|1-08:17:08|dcc-rekerlab-gpu-01|1|8|96G||/hpc/group/ldefratelab/Patrick/Cartilage_ML_3D|
pb183|COMPLETED|scavenger-gpu|2023-06-04T04:49:09|2023-06-06T17:36:56|2-12:47:47|dcc-youlab-gpu-55|1|10|96G||/hpc/group/ldefratelab/Patrick/Cartilage_ML_3D|
pb183|COMPLETED|scavenger-gpu|2023-06-04T04:52:20|2023-06-04T05:15:07|00:22:47|dcc-youlab-gpu-35|1|10|96G||/hpc/group/ldefratelab/Patrick/Cartilage_ML_3D|
pb183|COMPLETED|scavenger-gpu|2023-06-04T05:15:39|2023-06-04T05:49:14|00:33:35|dcc-youlab-gpu-35|1|10|96G||/hpc/group/ldefratelab/Patrick/Cartilage_ML_3D|
pb183|COMPLETED|scavenger-gpu|2023-06-04T05:26:28|2023-06-04T06:07:08|00:40:40|dcc-youlab-gpu-34|1|10|96G||/hpc/group/ldefratelab/Patrick/Cartilage_ML_3D|
pb183|COMPLETED|scavenger-gpu|2023-06-04T05:49:21|2023-06-04T06:26:44|00:37:23|dcc-youlab-gpu-35|1|10|96G||/hpc/group/ldefratelab/Patrick/Cartilage_ML_3D|
pb183|COMPLETED|scavenger-gpu|2023-06-04T06:07:36|2023-06-04T06:31:09|00:23:33|dcc-youlab-gpu-34|1|10|96G||/hpc/group/ldefratelab/Patrick/Cartilage_ML_3D|
pb183|COMPLETED|scavenger-gpu|2023-06-04T06:20:21|2023-06-04T06:57:48|00:37:27|dcc-youlab-gpu-36|1|10|96G||/hpc/group/ldefratelab/Patrick/Cartilage_ML_3D|
pb183|COMPLETED|scavenger-gpu|2023-06-04T06:27:02|2023-06-05T01:34:45|19:07:43|dcc-youlab-gpu-35|1|10|96G||/hpc/group/ldefratelab/Patrick/Cartilage_ML_3D|
pb183|COMPLETED|scavenger-gpu|2023-06-04T06:31:36|2023-06-05T14:42:51|1-08:11:15|dcc-youlab-gpu-34|1|10|96G||/hpc/group/ldefratelab/Patrick/Cartilage_ML_3D|
pb183|COMPLETED|scavenger-gpu|2023-06-04T06:43:22|2023-06-04T07:51:07|01:07:45|dcc-youlab-gpu-40|1|10|96G||/hpc/group/ldefratelab/Patrick/Cartilage_ML_3D|
pb183|COMPLETED|scavenger-gpu|2023-06-04T06:49:34|2023-06-04T09:05:34|02:16:00|dcc-youlab-gpu-32|1|10|96G||/hpc/group/ldefratelab/Patrick/Cartilage_ML_3D|
pb183|COMPLETED|scavenger-gpu|2023-06-04T06:58:20|2023-06-04T08:56:49|01:58:29|dcc-youlab-gpu-36|1|10|96G||/hpc/group/ldefratelab/Patrick/Cartilage_ML_3D|
pb183|COMPLETED|scavenger-gpu|2023-06-04T07:11:08|2023-06-04T09:16:08|02:05:00|dcc-youlab-gpu-30|1|10|96G||/hpc/group/ldefratelab/Patrick/Cartilage_ML_3D|
pb183|COMPLETED|scavenger-gpu|2023-06-04T07:51:30|2023-06-06T15:15:23|2-07:23:53|dcc-youlab-gpu-40|1|10|96G||/hpc/group/ldefratelab/Patrick/Cartilage_ML_3D|
pb183|COMPLETED|scavenger-gpu|2023-06-04T08:57:01|2023-06-04T11:25:15|02:28:14|dcc-youlab-gpu-43|1|10|96G||/hpc/group/ldefratelab/Patrick/Cartilage_ML_3D|
pb183|COMPLETED|scavenger-gpu|2023-06-04T09:05:50|2023-06-06T04:29:02|1-19:23:12|dcc-youlab-gpu-37|1|10|96G||/hpc/group/ldefratelab/Patrick/Cartilage_ML_3D|
pb183|COMPLETED|scavenger-gpu|2023-06-04T09:16:18|2023-06-04T11:16:32|02:00:14|dcc-youlab-gpu-36|1|10|96G||/hpc/group/ldefratelab/Patrick/Cartilage_ML_3D|
pb183|COMPLETED|scavenger-gpu|2023-06-04T11:16:40|2023-06-04T11:51:43|00:35:03|dcc-youlab-gpu-36|1|10|96G||/hpc/group/ldefratelab/Patrick/Cartilage_ML_3D|
pb183|COMPLETED|scavenger-gpu|2023-06-04T11:25:43|2023-06-04T12:19:56|00:54:13|dcc-youlab-gpu-43|1|10|96G||/hpc/group/ldefratelab/Patrick/Cartilage_ML_3D|
pb183|COMPLETED|scavenger-gpu|2023-06-04T11:51:54|2023-06-04T12:51:07|00:59:13|dcc-youlab-gpu-36|1|10|96G||/hpc/group/ldefratelab/Patrick/Cartilage_ML_3D|
pb183|COMPLETED|scavenger-gpu|2023-06-04T12:20:08|2023-06-04T13:18:58|00:58:50|dcc-youlab-gpu-43|1|10|96G||/hpc/group/ldefratelab/Patrick/Cartilage_ML_3D|
pb183|COMPLETED|scavenger-gpu|2023-06-04T12:51:35|2023-06-05T07:10:58|18:19:23|dcc-youlab-gpu-36|1|10|96G||/hpc/group/ldefratelab/Patrick/Cartilage_ML_3D|
pb183|COMPLETED|scavenger-gpu|2023-06-04T13:19:14|2023-06-05T21:31:06|1-08:11:52|dcc-youlab-gpu-43|1|10|96G||/hpc/group/ldefratelab/Patrick/Cartilage_ML_3D|
pb183|COMPLETED|scavenger-gpu|2023-06-04T15:27:00|2023-06-04T16:27:38|01:00:38|dcc-youlab-gpu-41|1|10|96G||/hpc/group/ldefratelab/Patrick/Cartilage_ML_3D|
pb183|COMPLETED|scavenger-gpu|2023-06-04T16:27:50|2023-06-05T21:36:30|1-05:08:40|dcc-youlab-gpu-41|1|10|96G||/hpc/group/ldefratelab/Patrick/Cartilage_ML_3D|
pb183|COMPLETED|scavenger-gpu|2023-06-04T16:59:13|2023-06-04T18:43:15|01:44:02|dcc-youlab-gpu-15|1|10|96G||/hpc/group/ldefratelab/Patrick/Cartilage_ML_3D|
pb183|COMPLETED|scavenger-gpu|2023-06-04T17:03:11|2023-06-04T20:24:02|03:20:51|dcc-youlab-gpu-38|1|10|96G||/hpc/group/ldefratelab/Patrick/Cartilage_ML_3D|
pb183|COMPLETED|scavenger-gpu|2023-06-04T18:43:50|2023-06-04T21:41:59|02:58:09|dcc-youlab-gpu-15|1|10|96G||/hpc/group/ldefratelab/Patrick/Cartilage_ML_3D|
pb183|COMPLETED|scavenger-gpu|2023-06-04T18:57:47|2023-06-04T21:54:37|02:56:50|dcc-youlab-gpu-04|1|10|96G||/hpc/group/ldefratelab/Patrick/Cartilage_ML_3D|
pb183|COMPLETED|scavenger-gpu|2023-06-04T20:24:31|2023-06-04T22:11:53|01:47:22|dcc-youlab-gpu-38|1|10|96G||/hpc/group/ldefratelab/Patrick/Cartilage_ML_3D|
pb183|COMPLETED|scavenger-gpu|2023-06-04T21:42:35|2023-06-05T01:27:40|03:45:05|dcc-youlab-gpu-15|1|10|96G||/hpc/group/ldefratelab/Patrick/Cartilage_ML_3D|
pb183|COMPLETED|scavenger-gpu|2023-06-04T21:55:15|2023-06-05T00:53:17|02:58:02|dcc-youlab-gpu-04|1|10|96G||/hpc/group/ldefratelab/Patrick/Cartilage_ML_3D|
pb183|COMPLETED|scavenger-gpu|2023-06-04T22:12:13|2023-06-05T01:15:09|03:02:56|dcc-youlab-gpu-38|1|10|96G||/hpc/group/ldefratelab/Patrick/Cartilage_ML_3D|
pb183|FAILED|scavenger-gpu|2023-06-05T00:53:40|2023-06-05T00:55:05|00:01:25|dcc-youlab-gpu-04|1|10|96G||/hpc/group/ldefratelab/Patrick/Cartilage_ML_3D|
pb183|COMPLETED|scavenger-gpu|2023-06-05T00:55:17|2023-06-05T02:39:13|01:43:56|dcc-youlab-gpu-04|1|10|96G||/hpc/group/ldefratelab/Patrick/Cartilage_ML_3D|
pb183|COMPLETED|scavenger-gpu|2023-06-05T01:12:35|2023-06-05T03:00:44|01:48:09|dcc-ultrasound-gpu-02|1|19|96G||/hpc/group/ldefratelab/Patrick/Cartilage_ML_3D|
pb183|COMPLETED|scavenger-gpu|2023-06-05T01:15:14|2023-06-05T02:58:00|01:42:46|dcc-youlab-gpu-38|1|10|96G||/hpc/group/ldefratelab/Patrick/Cartilage_ML_3D|
pb183|FAILED|scavenger-gpu|2023-06-05T01:27:49|2023-06-05T01:29:07|00:01:18|dcc-youlab-gpu-15|1|10|96G||/hpc/group/ldefratelab/Patrick/Cartilage_ML_3D|
pb183|COMPLETED|scavenger-gpu|2023-06-05T01:29:22|2023-06-05T03:14:29|01:45:07|dcc-youlab-gpu-15|1|10|96G||/hpc/group/ldefratelab/Patrick/Cartilage_ML_3D|
pb183|COMPLETED|scavenger-gpu|2023-06-05T01:35:05|2023-06-05T03:15:11|01:40:06|dcc-youlab-gpu-35|1|10|96G||/hpc/group/ldefratelab/Patrick/Cartilage_ML_3D|
pb183|COMPLETED|scavenger-gpu|2023-06-05T02:39:16|2023-06-07T06:14:21|2-03:35:05|dcc-youlab-gpu-16|1|10|96G||/hpc/group/ldefratelab/Patrick/Cartilage_ML_3D|
pb183|FAILED|scavenger-gpu|2023-06-05T02:58:29|2023-06-05T03:00:19|00:01:50|dcc-youlab-gpu-38|1|10|96G||/hpc/group/ldefratelab/Patrick/Cartilage_ML_3D|
pb183|COMPLETED|scavenger-gpu|2023-06-05T03:00:31|2023-06-05T08:34:43|05:34:12|dcc-youlab-gpu-38|1|10|96G||/hpc/group/ldefratelab/Patrick/Cartilage_ML_3D|
pb183|COMPLETED|scavenger-gpu|2023-06-05T03:01:03|2023-06-05T07:51:08|04:50:05|dcc-youlab-gpu-04|1|10|96G||/hpc/group/ldefratelab/Patrick/Cartilage_ML_3D|
pb183|COMPLETED|scavenger-gpu|2023-06-05T03:14:46|2023-06-05T08:05:29|04:50:43|dcc-youlab-gpu-15|1|10|96G||/hpc/group/ldefratelab/Patrick/Cartilage_ML_3D|
pb183|FAILED|scavenger-gpu|2023-06-05T03:15:18|2023-06-05T03:16:44|00:01:26|dcc-youlab-gpu-35|1|10|96G||/hpc/group/ldefratelab/Patrick/Cartilage_ML_3D|
pb183|COMPLETED|scavenger-gpu|2023-06-05T03:16:49|2023-06-05T08:31:10|05:14:21|dcc-youlab-gpu-35|1|10|96G||/hpc/group/ldefratelab/Patrick/Cartilage_ML_3D|
pb183|COMPLETED|scavenger-gpu|2023-06-05T07:11:05|2023-06-05T11:55:03|04:43:58|dcc-youlab-gpu-36|1|10|96G||/hpc/group/ldefratelab/Patrick/Cartilage_ML_3D|
pb183|COMPLETED|scavenger-gpu|2023-06-05T07:51:12|2023-06-05T12:39:51|04:48:39|dcc-youlab-gpu-28|1|10|96G||/hpc/group/ldefratelab/Patrick/Cartilage_ML_3D|
pb183|COMPLETED|scavenger-gpu|2023-06-05T08:05:31|2023-06-05T18:41:19|10:35:48|dcc-youlab-gpu-27|1|10|96G||/hpc/group/ldefratelab/Patrick/Cartilage_ML_3D|
pb183|COMPLETED|scavenger-gpu|2023-06-05T08:31:24|2023-06-05T13:33:32|05:02:08|dcc-youlab-gpu-35|1|10|96G||/hpc/group/ldefratelab/Patrick/Cartilage_ML_3D|
pb183|COMPLETED|scavenger-gpu|2023-06-05T08:35:00|2023-06-05T21:55:50|13:20:50|dcc-youlab-gpu-38|1|10|96G||/hpc/group/ldefratelab/Patrick/Cartilage_ML_3D|
pb183|COMPLETED|scavenger-gpu|2023-06-05T11:55:03|2023-06-05T22:32:54|10:37:51|dcc-youlab-gpu-36|1|10|96G||/hpc/group/ldefratelab/Patrick/Cartilage_ML_3D|
pb183|COMPLETED|scavenger-gpu|2023-06-05T12:17:40|2023-06-05T15:41:57|03:24:17|dcc-youlab-gpu-42|1|10|96G||/hpc/group/ldefratelab/Patrick/Cartilage_ML_3D|
pb183|COMPLETED|scavenger-gpu|2023-06-05T12:39:51|2023-06-05T18:30:34|05:50:43|dcc-youlab-gpu-28|1|10|96G||/hpc/group/ldefratelab/Patrick/Cartilage_ML_3D|
pb183|PREEMPTED|scavenger-gpu|2023-06-05T12:53:42|2023-06-05T12:54:07|00:00:25|dcc-rekerlab-gpu-01|1|8|96G||/hpc/group/ldefratelab/Patrick/Cartilage_ML_3D|
pb183|PREEMPTED|scavenger-gpu|2023-06-05T12:54:11|2023-06-05T12:56:25|00:02:14|dcc-rekerlab-gpu-01|1|8|96G||/hpc/group/ldefratelab/Patrick/Cartilage_ML_3D|
pb183|COMPLETED|scavenger-gpu|2023-06-05T12:56:41|2023-06-05T13:37:31|00:40:50|dcc-vossenlab-gpu-04|1|10|96G||/hpc/group/ldefratelab/Patrick/Cartilage_ML_3D|
pb183|COMPLETED|scavenger-gpu|2023-06-05T13:33:35|2023-06-05T14:26:29|00:52:54|dcc-youlab-gpu-35|1|10|96G||/hpc/group/ldefratelab/Patrick/Cartilage_ML_3D|
pb183|PREEMPTED|scavenger-gpu|2023-06-05T13:37:32|2023-06-06T09:42:27|20:04:55|dcc-vossenlab-gpu-04|1|10|96G||/hpc/group/ldefratelab/Patrick/Cartilage_ML_3D|
pb183|COMPLETED|scavenger-gpu|2023-06-05T14:29:31|2023-06-05T15:33:36|01:04:05|dcc-youlab-gpu-35|1|10|96G||/hpc/group/ldefratelab/Patrick/Cartilage_ML_3D|
pb183|COMPLETED|scavenger-gpu|2023-06-05T14:42:59|2023-06-06T21:42:04|1-06:59:05|dcc-youlab-gpu-34|1|10|96G||/hpc/group/ldefratelab/Patrick/Cartilage_ML_3D|
pb183|COMPLETED|scavenger-gpu|2023-06-05T15:33:38|2023-06-06T21:07:42|1-05:34:04|dcc-youlab-gpu-35|1|10|96G||/hpc/group/ldefratelab/Patrick/Cartilage_ML_3D|
pb183|COMPLETED|scavenger-gpu|2023-06-05T15:42:00|2023-06-07T17:45:02|2-02:03:02|dcc-youlab-gpu-42|1|10|96G||/hpc/group/ldefratelab/Patrick/Cartilage_ML_3D|
pb183|COMPLETED|scavenger-gpu|2023-06-05T18:30:36|2023-06-08T00:16:19|2-05:45:43|dcc-youlab-gpu-44|1|10|96G||/hpc/group/ldefratelab/Patrick/Cartilage_ML_3D|
pb183|COMPLETED|scavenger-gpu|2023-06-05T18:41:19|2023-06-05T19:03:24|00:22:05|dcc-youlab-gpu-27|1|10|96G||/hpc/group/ldefratelab/Patrick/Cartilage_ML_3D|
pb183|COMPLETED|scavenger-gpu|2023-06-05T19:03:24|2023-06-05T19:36:08|00:32:44|dcc-youlab-gpu-27|1|10|96G||/hpc/group/ldefratelab/Patrick/Cartilage_ML_3D|
pb183|COMPLETED|scavenger-gpu|2023-06-05T19:36:08|2023-06-05T20:12:36|00:36:28|dcc-youlab-gpu-27|1|10|96G||/hpc/group/ldefratelab/Patrick/Cartilage_ML_3D|
pb183|COMPLETED|scavenger-gpu|2023-06-05T20:12:36|2023-06-05T20:49:34|00:36:58|dcc-youlab-gpu-27|1|10|96G||/hpc/group/ldefratelab/Patrick/Cartilage_ML_3D|
pb183|COMPLETED|scavenger-gpu|2023-06-05T20:49:36|2023-06-05T21:14:33|00:24:57|dcc-youlab-gpu-33|1|10|96G||/hpc/group/ldefratelab/Patrick/Cartilage_ML_3D|
pb183|COMPLETED|scavenger-gpu|2023-06-05T21:14:33|2023-06-06T05:11:58|07:57:25|dcc-youlab-gpu-33|1|10|96G||/hpc/group/ldefratelab/Patrick/Cartilage_ML_3D|
pb183|COMPLETED|scavenger-gpu|2023-06-05T21:31:06|2023-06-07T01:34:10|1-04:03:04|dcc-youlab-gpu-43|1|10|96G||/hpc/group/ldefratelab/Patrick/Cartilage_ML_3D|
pb183|COMPLETED|scavenger-gpu|2023-06-05T21:36:31|2023-06-06T17:44:55|20:08:24|dcc-youlab-gpu-41|1|10|96G||/hpc/group/ldefratelab/Patrick/Cartilage_ML_3D|
pb183|COMPLETED|scavenger-gpu|2023-06-05T21:55:50|2023-06-05T22:52:12|00:56:22|dcc-youlab-gpu-38|1|10|96G||/hpc/group/ldefratelab/Patrick/Cartilage_ML_3D|
pb183|COMPLETED|scavenger-gpu|2023-06-05T22:32:54|2023-06-05T23:47:32|01:14:38|dcc-youlab-gpu-36|1|10|96G||/hpc/group/ldefratelab/Patrick/Cartilage_ML_3D|
pb183|COMPLETED|scavenger-gpu|2023-06-05T22:52:13|2023-06-06T00:26:22|01:34:09|dcc-youlab-gpu-38|1|10|96G||/hpc/group/ldefratelab/Patrick/Cartilage_ML_3D|
pb183|COMPLETED|scavenger-gpu|2023-06-05T23:47:33|2023-06-06T01:20:55|01:33:22|dcc-youlab-gpu-36|1|10|96G||/hpc/group/ldefratelab/Patrick/Cartilage_ML_3D|
pb183|COMPLETED|scavenger-gpu|2023-06-06T00:26:49|2023-06-06T01:23:28|00:56:39|dcc-youlab-gpu-38|1|10|96G||/hpc/group/ldefratelab/Patrick/Cartilage_ML_3D|
pb183|COMPLETED|scavenger-gpu|2023-06-06T01:20:55|2023-06-07T13:15:44|1-11:54:49|dcc-youlab-gpu-36|1|10|96G||/hpc/group/ldefratelab/Patrick/Cartilage_ML_3D|
pb183|COMPLETED|scavenger-gpu|2023-06-06T01:23:28|2023-06-08T09:11:43|2-07:48:15|dcc-youlab-gpu-38|1|10|96G||/hpc/group/ldefratelab/Patrick/Cartilage_ML_3D|
pb183|COMPLETED|scavenger-gpu|2023-06-06T04:29:02|2023-06-07T15:50:50|1-11:21:48|dcc-youlab-gpu-37|1|10|96G||/hpc/group/ldefratelab/Patrick/Cartilage_ML_3D|
pb183|FAILED|scavenger-gpu|2023-06-06T05:11:58|2023-06-06T05:13:41|00:01:43|dcc-youlab-gpu-33|1|10|96G||/hpc/group/ldefratelab/Patrick/Cartilage_ML_3D|
pb183|COMPLETED|scavenger-gpu|2023-06-06T05:13:41|2023-06-06T06:10:34|00:56:53|dcc-youlab-gpu-33|1|10|96G||/hpc/group/ldefratelab/Patrick/Cartilage_ML_3D|
pb183|COMPLETED|scavenger-gpu|2023-06-06T05:29:02|2023-06-06T06:29:47|01:00:45|dcc-youlab-gpu-53|1|10|96G||/hpc/group/ldefratelab/Patrick/Cartilage_ML_3D|
pb183|COMPLETED|scavenger-gpu|2023-06-06T06:10:35|2023-06-06T07:10:28|00:59:53|dcc-youlab-gpu-33|1|10|96G||/hpc/group/ldefratelab/Patrick/Cartilage_ML_3D|
pb183|FAILED|scavenger-gpu|2023-06-06T06:29:47|2023-06-06T06:31:23|00:01:36|dcc-youlab-gpu-53|1|10|96G||/hpc/group/ldefratelab/Patrick/Cartilage_ML_3D|
pb183|COMPLETED|scavenger-gpu|2023-06-06T06:31:23|2023-06-07T06:45:57|1-00:14:34|dcc-youlab-gpu-53|1|10|96G||/hpc/group/ldefratelab/Patrick/Cartilage_ML_3D|
pb183|COMPLETED|scavenger-gpu|2023-06-06T07:10:28|2023-06-07T10:06:37|1-02:56:09|dcc-youlab-gpu-33|1|10|96G||/hpc/group/ldefratelab/Patrick/Cartilage_ML_3D|
pb183|COMPLETED|scavenger-gpu|2023-06-06T09:42:27|2023-06-08T06:15:23|1-20:32:56|dcc-ultrasound-gpu-02|1|19|96G||/hpc/group/ldefratelab/Patrick/Cartilage_ML_3D|
pb183|FAILED|scavenger-gpu|2023-06-06T15:15:24|2023-06-06T15:16:47|00:01:23|dcc-youlab-gpu-40|1|10|96G||/hpc/group/ldefratelab/Patrick/Cartilage_ML_3D|
pb183|COMPLETED|scavenger-gpu|2023-06-06T15:16:49|2023-06-06T17:24:38|02:07:49|dcc-youlab-gpu-40|1|10|96G||/hpc/group/ldefratelab/Patrick/Cartilage_ML_3D|
pb183|COMPLETED|scavenger-gpu|2023-06-06T17:24:38|2023-06-06T19:37:14|02:12:36|dcc-youlab-gpu-40|1|10|96G||/hpc/group/ldefratelab/Patrick/Cartilage_ML_3D|
pb183|COMPLETED|scavenger-gpu|2023-06-06T17:36:57|2023-06-06T19:51:49|02:14:52|dcc-youlab-gpu-55|1|10|96G||/hpc/group/ldefratelab/Patrick/Cartilage_ML_3D|
pb183|FAILED|scavenger-gpu|2023-06-06T17:44:55|2023-06-06T17:46:35|00:01:40|dcc-youlab-gpu-41|1|10|96G||/hpc/group/ldefratelab/Patrick/Cartilage_ML_3D|
pb183|COMPLETED|scavenger-gpu|2023-06-06T17:46:35|2023-06-06T19:58:17|02:11:42|dcc-youlab-gpu-41|1|10|96G||/hpc/group/ldefratelab/Patrick/Cartilage_ML_3D|
pb183|COMPLETED|scavenger-gpu|2023-06-06T19:37:14|2023-06-06T21:51:18|02:14:04|dcc-youlab-gpu-40|1|10|96G||/hpc/group/ldefratelab/Patrick/Cartilage_ML_3D|
pb183|COMPLETED|scavenger-gpu|2023-06-06T19:51:49|2023-06-06T22:08:05|02:16:16|dcc-youlab-gpu-55|1|10|96G||/hpc/group/ldefratelab/Patrick/Cartilage_ML_3D|
pb183|FAILED|scavenger-gpu|2023-06-06T19:58:18|2023-06-06T19:59:39|00:01:21|dcc-youlab-gpu-41|1|10|96G||/hpc/group/ldefratelab/Patrick/Cartilage_ML_3D|
pb183|COMPLETED|scavenger-gpu|2023-06-06T19:59:39|2023-06-06T21:48:46|01:49:07|dcc-youlab-gpu-41|1|10|96G||/hpc/group/ldefratelab/Patrick/Cartilage_ML_3D|
pb183|FAILED|scavenger-gpu|2023-06-06T21:07:43|2023-06-06T21:10:07|00:02:24|dcc-youlab-gpu-35|1|10|96G||/hpc/group/ldefratelab/Patrick/Cartilage_ML_3D|
pb183|COMPLETED|scavenger-gpu|2023-06-06T21:10:07|2023-06-06T22:54:27|01:44:20|dcc-youlab-gpu-35|1|10|96G||/hpc/group/ldefratelab/Patrick/Cartilage_ML_3D|
pb183|FAILED|scavenger-gpu|2023-06-06T21:42:04|2023-06-06T21:43:29|00:01:25|dcc-youlab-gpu-34|1|10|96G||/hpc/group/ldefratelab/Patrick/Cartilage_ML_3D|
pb183|COMPLETED|scavenger-gpu|2023-06-06T21:43:30|2023-06-06T23:38:56|01:55:26|dcc-youlab-gpu-34|1|10|96G||/hpc/group/ldefratelab/Patrick/Cartilage_ML_3D|
pb183|FAILED|scavenger-gpu|2023-06-06T21:48:47|2023-06-06T21:50:58|00:02:11|dcc-youlab-gpu-41|1|10|96G||/hpc/group/ldefratelab/Patrick/Cartilage_ML_3D|
pb183|COMPLETED|scavenger-gpu|2023-06-06T21:51:00|2023-06-08T11:44:13|1-13:53:13|dcc-youlab-gpu-41|1|10|96G||/hpc/group/ldefratelab/Patrick/Cartilage_ML_3D|
pb183|FAILED|scavenger-gpu|2023-06-06T21:51:18|2023-06-06T21:52:51|00:01:33|dcc-youlab-gpu-40|1|10|96G||/hpc/group/ldefratelab/Patrick/Cartilage_ML_3D|
pb183|COMPLETED|scavenger-gpu|2023-06-06T21:52:51|2023-06-07T02:24:42|04:31:51|dcc-youlab-gpu-40|1|10|96G||/hpc/group/ldefratelab/Patrick/Cartilage_ML_3D|
pb183|FAILED|scavenger-gpu|2023-06-06T22:08:05|2023-06-06T22:12:34|00:04:29|dcc-ultrasound-gpu-01|1|19|96G||/hpc/group/ldefratelab/Patrick/Cartilage_ML_3D|
pb183|COMPLETED|scavenger-gpu|2023-06-06T22:12:34|2023-06-07T02:29:53|04:17:19|dcc-youlab-gpu-55|1|10|96G||/hpc/group/ldefratelab/Patrick/Cartilage_ML_3D|
pb183|FAILED|scavenger-gpu|2023-06-06T22:54:27|2023-06-06T22:56:15|00:01:48|dcc-youlab-gpu-35|1|10|96G||/hpc/group/ldefratelab/Patrick/Cartilage_ML_3D|
pb183|COMPLETED|scavenger-gpu|2023-06-06T22:56:15|2023-06-09T02:11:05|2-03:14:50|dcc-youlab-gpu-35|1|10|96G||/hpc/group/ldefratelab/Patrick/Cartilage_ML_3D|
pb183|FAILED|scavenger-gpu|2023-06-06T23:38:57|2023-06-06T23:44:01|00:05:04|dcc-youlab-gpu-34|1|10|96G||/hpc/group/ldefratelab/Patrick/Cartilage_ML_3D|
pb183|COMPLETED|scavenger-gpu|2023-06-06T23:44:02|2023-06-07T04:19:52|04:35:50|dcc-youlab-gpu-34|1|10|96G||/hpc/group/ldefratelab/Patrick/Cartilage_ML_3D|
minhe|PREEMPTED|scavenger-gpu|2023-05-30T13:18:49|2023-06-05T16:39:31|6-03:20:42|dcc-dsplus-gpu-01|1|92|150692M||/work/minhe/alphafold|
minhe|PREEMPTED|scavenger-gpu|2023-05-31T13:26:17|2023-06-04T21:35:12|4-08:08:55|dcc-ultrasound-gpu-04|1|19|150692M||/work/minhe/alphafold|
vk93|TIMEOUT|scavenger-gpu|2023-05-31T22:34:58|2023-06-07T22:35:23|7-00:00:25|dcc-dsplus-gpu-02|1|40|350109M||/hpc/home/vk93/ondemand/data/sys/dashboard/batch_connect/sys/bc_jupyter/output/8ef6e1c5-29a3-4b2f-9caf-67c9017f6f0a|
rd254|COMPLETED|scavenger-gpu|2023-06-01T00:25:10|2023-06-06T06:08:09|5-05:42:59|dcc-chsi-gpu-05|1|6|12G||/work/rd254/ADP_monomer|
bgb13|FAILED|scavenger-gpu|2023-06-01T09:12:52|2023-06-04T12:02:04|3-02:49:12|dcc-carin-gpu-01|1|16|10G||/hpc/group/dukenmr/bgb13/cyp51b_phosphorylated_S123/./.|
cem125|PREEMPTED|scavenger-gpu|2023-06-02T09:39:44|2023-06-05T10:11:12|3-00:31:28|dcc-gehmlab-gpu-02|1|19|50G||/hpc/group/rekerlab/cem125/OpenNMT-py|
yk206|COMPLETED|scavenger-gpu|2023-06-02T12:06:02|2023-06-04T15:37:09|2-03:31:07|dcc-allenlab-gpu-02|1|10|24G||/hpc/home/yk206/script/face_download|
bgb13|PREEMPTED|scavenger-gpu|2023-06-02T14:38:49|2023-06-05T10:11:14|2-19:32:25|dcc-gehmlab-gpu-01|1|16|10G||/hpc/group/dukenmr/bgb13/cyp51b_phosphorylated_S451/./.|
yw564|TIMEOUT|scavenger-gpu|2023-06-03T03:27:20|2023-06-10T03:27:20|7-00:00:00|dcc-youlab-gpu-01|1|2|50G||/hpc/group/jilab|
yx240|COMPLETED|scavenger-gpu|2023-06-03T05:29:27|2023-06-04T10:16:01|1-04:46:34|dcc-gehmlab-gpu-51|1|19|2G||/work/yx240/project-martini/simutools/sor-urs|
yx240|COMPLETED|scavenger-gpu|2023-06-03T05:29:27|2023-06-04T18:26:15|1-12:56:48|dcc-gehmlab-gpu-48|1|19|2G||/work/yx240/project-martini/simutools/sor-urs|
yx240|COMPLETED|scavenger-gpu|2023-06-03T05:29:27|2023-06-04T09:09:29|1-03:40:02|dcc-gehmlab-gpu-44|1|19|2G||/work/yx240/project-martini/simutools/sor-urs|
yx240|COMPLETED|scavenger-gpu|2023-06-03T06:23:12|2023-06-04T12:07:57|1-05:44:45|dcc-gehmlab-gpu-55|1|19|2G||/work/yx240/project-martini/simutools/sor-cr|
yx240|COMPLETED|scavenger-gpu|2023-06-03T06:23:12|2023-06-04T13:13:16|1-06:50:04|dcc-gehmlab-gpu-52|1|19|2G||/work/yx240/project-martini/simutools/sor-cr|
yx240|COMPLETED|scavenger-gpu|2023-06-03T06:23:12|2023-06-05T00:49:09|1-18:25:57|dcc-gehmlab-gpu-50|1|19|2G||/work/yx240/project-martini/simutools/sor-cr|
yx240|COMPLETED|scavenger-gpu|2023-06-03T06:23:12|2023-06-04T16:21:43|1-09:58:31|dcc-gehmlab-gpu-47|1|19|2G||/work/yx240/project-martini/simutools/sor-cr|
yk206|COMPLETED|scavenger-gpu|2023-06-03T11:00:29|2023-06-04T11:09:47|1-00:09:18|dcc-pbenfeylab-gpu-04|1|10|24G||/hpc/home/yk206/script/face_download|
yk206|OUT_OF_MEMORY|scavenger-gpu|2023-06-03T11:00:29|2023-06-04T06:11:20|19:10:51|dcc-carlsonlab-gpu-19|1|10|24G||/hpc/home/yk206/script/face_download|
yk206|PREEMPTED|scavenger-gpu|2023-06-03T11:00:29|2023-06-04T13:33:45|1-02:33:16|dcc-viplab-gpu-01|1|92|24G||/hpc/home/yk206/script/face_download|
yk206|OUT_OF_MEMORY|scavenger-gpu|2023-06-03T12:37:21|2023-06-04T08:25:19|19:47:58|dcc-youlab-gpu-37|1|10|24G||/hpc/home/yk206/script/face_download|
yk206|OUT_OF_MEMORY|scavenger-gpu|2023-06-03T17:17:11|2023-06-04T07:53:21|14:36:10|dcc-youlab-gpu-11|1|10|24G||/hpc/home/yk206/script/face_download|
yk206|COMPLETED|scavenger-gpu|2023-06-03T17:18:46|2023-06-04T08:03:04|14:44:18|dcc-carlsonlab-gpu-17|1|10|24G||/hpc/home/yk206/script/face_download|
yk206|COMPLETED|scavenger-gpu|2023-06-03T17:18:51|2023-06-04T10:53:23|17:34:32|dcc-allenlab-gpu-03|1|10|24G||/hpc/home/yk206/script/face_download|
yk206|COMPLETED|scavenger-gpu|2023-06-03T17:35:29|2023-06-04T23:08:40|1-05:33:11|dcc-pbenfeylab-gpu-03|1|10|24G||/hpc/home/yk206/script/face_download|
yw564|TIMEOUT|scavenger-gpu|2023-06-03T14:43:42|2023-06-10T14:43:47|7-00:00:05|dcc-youlab-gpu-01|1|2|50G||/hpc/group/jilab|
yk206|COMPLETED|scavenger-gpu|2023-06-03T20:15:58|2023-06-04T21:36:28|1-01:20:30|dcc-youlab-gpu-44|1|10|24G||/hpc/home/yk206/script/face_download|
hk276|CANCELLED by 1460377|scavenger-gpu|2023-06-03T17:13:24|2023-06-04T17:26:35|1-00:13:11|dcc-biostat-gpu-01|1|12|150000M||/hpc/group/tdunn/hk276/dappy/dappy|
yk206|OUT_OF_MEMORY|scavenger-gpu|2023-06-03T20:23:01|2023-06-04T08:28:48|12:05:47|dcc-youlab-gpu-43|1|10|24G||/hpc/home/yk206/script/face_download|
yk206|COMPLETED|scavenger-gpu|2023-06-03T21:18:07|2023-06-04T05:45:09|08:27:02|dcc-youlab-gpu-05|1|10|24G||/hpc/home/yk206/script/face_download|
yk206|COMPLETED|scavenger-gpu|2023-06-03T21:18:07|2023-06-04T15:01:44|17:43:37|dcc-youlab-gpu-24|1|10|24G||/hpc/home/yk206/script/face_download|
yk206|COMPLETED|scavenger-gpu|2023-06-03T21:18:07|2023-06-04T06:22:14|09:04:07|dcc-youlab-gpu-29|1|10|24G||/hpc/home/yk206/script/face_download|
yk206|OUT_OF_MEMORY|scavenger-gpu|2023-06-03T21:20:09|2023-06-04T08:59:11|11:39:02|dcc-youlab-gpu-09|1|10|24G||/hpc/home/yk206/script/face_download|
yk206|COMPLETED|scavenger-gpu|2023-06-03T21:20:09|2023-06-04T07:15:23|09:55:14|dcc-youlab-gpu-23|1|10|24G||/hpc/home/yk206/script/face_download|
yk206|COMPLETED|scavenger-gpu|2023-06-03T21:20:09|2023-06-04T15:01:00|17:40:51|dcc-youlab-gpu-31|1|10|24G||/hpc/home/yk206/script/face_download|
yk206|OUT_OF_MEMORY|scavenger-gpu|2023-06-03T21:20:36|2023-06-04T10:04:10|12:43:34|dcc-vossenlab-gpu-01|1|10|24G||/hpc/home/yk206/script/face_download|
yk206|COMPLETED|scavenger-gpu|2023-06-03T21:21:15|2023-06-04T13:30:02|16:08:47|dcc-youlab-gpu-07|1|10|24G||/hpc/home/yk206/script/face_download|
yk206|COMPLETED|scavenger-gpu|2023-06-03T21:23:02|2023-06-04T06:19:01|08:55:59|dcc-vossenlab-gpu-03|1|10|24G||/hpc/home/yk206/script/face_download|
yk206|OUT_OF_MEMORY|scavenger-gpu|2023-06-03T21:23:10|2023-06-04T11:53:10|14:30:00|dcc-youlab-gpu-33|1|10|24G||/hpc/home/yk206/script/face_download|
np145|PREEMPTED|scavenger-gpu|2023-06-03T21:31:30|2023-06-04T12:07:54|14:36:24|dcc-mastatlab-gpu-01|1|20|80G||/datacommons/lefkowitz/np145/KRIOS/relion/Bar-BRIL-Fab-Nb-C5|
vk93|PREEMPTED|scavenger-gpu|2023-06-03T21:47:33|2023-06-06T12:07:23|2-14:19:50|dcc-youlab-gpu-01|1|40|350109M||/hpc/home/vk93/ondemand/data/sys/dashboard/batch_connect/sys/bc_jupyter/output/ba078d78-973d-4dcf-a8d1-ae22745f5c83|
sa400|TIMEOUT|scavenger-gpu|2023-06-04T01:44:20|2023-06-04T05:44:37|04:00:17|dcc-gehmlab-gpu-04|1|1|10G||/hpc/home/sa400/research/SDF-HF/code/revision_sdf_oos|
sa400|COMPLETED|scavenger-gpu|2023-06-04T04:27:34|2023-06-04T05:07:25|00:39:51|dcc-collinslab-gpu-04|1|1|10G||/hpc/home/sa400/research/SDF-HF/code/revision_sdf_oos|
sa400|COMPLETED|scavenger-gpu|2023-06-04T04:50:44|2023-06-04T05:02:25|00:11:41|dcc-dsplus-gpu-05|1|1|10G||/hpc/home/sa400/research/SDF-HF/code/revision_sdf_oos|
sa400|COMPLETED|scavenger-gpu|2023-06-04T04:50:44|2023-06-04T05:02:27|00:11:43|dcc-dsplus-gpu-04|1|1|10G||/hpc/home/sa400/research/SDF-HF/code/revision_sdf_oos|
sa400|COMPLETED|scavenger-gpu|2023-06-04T04:50:44|2023-06-04T05:02:27|00:11:43|dcc-dsplus-gpu-03|1|1|10G||/hpc/home/sa400/research/SDF-HF/code/revision_sdf_oos|
sa400|COMPLETED|scavenger-gpu|2023-06-04T04:50:44|2023-06-04T05:01:58|00:11:14|dcc-chsi-gpu-04|1|1|10G||/hpc/home/sa400/research/SDF-HF/code/revision_sdf_oos|
sa400|COMPLETED|scavenger-gpu|2023-06-04T04:50:44|2023-06-04T05:02:32|00:11:48|dcc-chsi-gpu-03|1|1|10G||/hpc/home/sa400/research/SDF-HF/code/revision_sdf_oos|
sa400|COMPLETED|scavenger-gpu|2023-06-04T04:50:44|2023-06-04T05:01:53|00:11:09|dcc-chsi-gpu-02|1|1|10G||/hpc/home/sa400/research/SDF-HF/code/revision_sdf_oos|
sa400|COMPLETED|scavenger-gpu|2023-06-04T04:50:44|2023-06-04T05:01:14|00:10:30|dcc-carlsonlab-gpu-03|1|1|10G||/hpc/home/sa400/research/SDF-HF/code/revision_sdf_oos|
sa400|COMPLETED|scavenger-gpu|2023-06-04T04:50:44|2023-06-04T05:02:19|00:11:35|dcc-carin-gpu-10|1|1|10G||/hpc/home/sa400/research/SDF-HF/code/revision_sdf_oos|
sa400|COMPLETED|scavenger-gpu|2023-06-04T04:55:33|2023-06-04T05:03:44|00:08:11|dcc-ultrasound-gpu-03|1|1|10G||/hpc/home/sa400/research/SDF-HF/code/revision_sdf_oos|
sa400|COMPLETED|scavenger-gpu|2023-06-04T04:55:33|2023-06-04T05:03:48|00:08:15|dcc-ultrasound-gpu-01|1|1|10G||/hpc/home/sa400/research/SDF-HF/code/revision_sdf_oos|
sa400|COMPLETED|scavenger-gpu|2023-06-04T04:55:33|2023-06-04T05:03:29|00:07:56|dcc-tdunn-gpu-02|1|1|10G||/hpc/home/sa400/research/SDF-HF/code/revision_sdf_oos|
sa400|COMPLETED|scavenger-gpu|2023-06-04T04:55:33|2023-06-04T05:03:37|00:08:04|dcc-tdunn-gpu-02|1|1|10G||/hpc/home/sa400/research/SDF-HF/code/revision_sdf_oos|
sa400|COMPLETED|scavenger-gpu|2023-06-04T04:55:33|2023-06-04T05:04:29|00:08:56|dcc-tdunn-gpu-01|1|1|10G||/hpc/home/sa400/research/SDF-HF/code/revision_sdf_oos|
sa400|COMPLETED|scavenger-gpu|2023-06-04T04:55:36|2023-06-04T05:04:29|00:08:53|dcc-tdunn-gpu-01|1|1|10G||/hpc/home/sa400/research/SDF-HF/code/revision_sdf_oos|
sa400|COMPLETED|scavenger-gpu|2023-06-04T04:55:36|2023-06-04T05:03:36|00:08:00|dcc-motesa-gpu-04|1|1|10G||/hpc/home/sa400/research/SDF-HF/code/revision_sdf_oos|
sa400|COMPLETED|scavenger-gpu|2023-06-04T04:55:36|2023-06-04T05:03:06|00:07:30|dcc-motesa-gpu-03|1|1|10G||/hpc/home/sa400/research/SDF-HF/code/revision_sdf_oos|
sa400|COMPLETED|scavenger-gpu|2023-06-04T04:55:36|2023-06-04T05:03:32|00:07:56|dcc-motesa-gpu-02|1|1|10G||/hpc/home/sa400/research/SDF-HF/code/revision_sdf_oos|
sa400|COMPLETED|scavenger-gpu|2023-06-04T04:55:36|2023-06-04T05:06:05|00:10:29|dcc-mastatlab-gpu-01|1|1|10G||/hpc/home/sa400/research/SDF-HF/code/revision_sdf_oos|
sa400|COMPLETED|scavenger-gpu|2023-06-04T04:55:36|2023-06-04T05:04:35|00:08:59|dcc-mainsahlab-gpu-03|1|1|10G||/hpc/home/sa400/research/SDF-HF/code/revision_sdf_oos|
sa400|COMPLETED|scavenger-gpu|2023-06-04T04:55:36|2023-06-04T05:08:17|00:12:41|dcc-mainsahlab-gpu-02|1|1|10G||/hpc/home/sa400/research/SDF-HF/code/revision_sdf_oos|
sa400|COMPLETED|scavenger-gpu|2023-06-04T04:55:36|2023-06-04T05:04:48|00:09:12|dcc-mainsahlab-gpu-01|1|1|10G||/hpc/home/sa400/research/SDF-HF/code/revision_sdf_oos|
sa400|COMPLETED|scavenger-gpu|2023-06-04T04:55:36|2023-06-04T05:05:28|00:09:52|dcc-gehmlab-gpu-59|1|1|10G||/hpc/home/sa400/research/SDF-HF/code/revision_sdf_oos|
sa400|COMPLETED|scavenger-gpu|2023-06-04T04:55:36|2023-06-04T05:05:33|00:09:57|dcc-gehmlab-gpu-58|1|1|10G||/hpc/home/sa400/research/SDF-HF/code/revision_sdf_oos|
sa400|COMPLETED|scavenger-gpu|2023-06-04T04:55:36|2023-06-04T05:05:40|00:10:04|dcc-gehmlab-gpu-57|1|1|10G||/hpc/home/sa400/research/SDF-HF/code/revision_sdf_oos|
sa400|COMPLETED|scavenger-gpu|2023-06-04T04:55:36|2023-06-04T05:05:25|00:09:49|dcc-gehmlab-gpu-56|1|1|10G||/hpc/home/sa400/research/SDF-HF/code/revision_sdf_oos|
sa400|COMPLETED|scavenger-gpu|2023-06-04T04:55:37|2023-06-04T05:05:32|00:09:55|dcc-gehmlab-gpu-54|1|1|10G||/hpc/home/sa400/research/SDF-HF/code/revision_sdf_oos|
sa400|COMPLETED|scavenger-gpu|2023-06-04T04:55:37|2023-06-04T05:06:28|00:10:51|dcc-gehmlab-gpu-53|1|1|10G||/hpc/home/sa400/research/SDF-HF/code/revision_sdf_oos|
sa400|COMPLETED|scavenger-gpu|2023-06-04T04:55:37|2023-06-04T05:05:37|00:10:00|dcc-gehmlab-gpu-49|1|1|10G||/hpc/home/sa400/research/SDF-HF/code/revision_sdf_oos|
sa400|COMPLETED|scavenger-gpu|2023-06-04T04:55:37|2023-06-04T05:05:32|00:09:55|dcc-gehmlab-gpu-46|1|1|10G||/hpc/home/sa400/research/SDF-HF/code/revision_sdf_oos|
sa400|COMPLETED|scavenger-gpu|2023-06-04T04:55:37|2023-06-04T05:05:28|00:09:51|dcc-gehmlab-gpu-45|1|1|10G||/hpc/home/sa400/research/SDF-HF/code/revision_sdf_oos|
sa400|COMPLETED|scavenger-gpu|2023-06-04T04:55:37|2023-06-04T05:05:57|00:10:20|dcc-gehmlab-gpu-43|1|1|10G||/hpc/home/sa400/research/SDF-HF/code/revision_sdf_oos|
sa400|COMPLETED|scavenger-gpu|2023-06-04T04:55:38|2023-06-04T05:05:40|00:10:02|dcc-gehmlab-gpu-42|1|1|10G||/hpc/home/sa400/research/SDF-HF/code/revision_sdf_oos|
sa400|COMPLETED|scavenger-gpu|2023-06-04T04:55:38|2023-06-04T05:05:44|00:10:06|dcc-gehmlab-gpu-41|1|1|10G||/hpc/home/sa400/research/SDF-HF/code/revision_sdf_oos|
sa400|COMPLETED|scavenger-gpu|2023-06-04T04:55:38|2023-06-04T05:05:33|00:09:55|dcc-gehmlab-gpu-40|1|1|10G||/hpc/home/sa400/research/SDF-HF/code/revision_sdf_oos|
sa400|COMPLETED|scavenger-gpu|2023-06-04T04:55:38|2023-06-04T05:15:08|00:19:30|dcc-gehmlab-gpu-39|1|1|10G||/hpc/home/sa400/research/SDF-HF/code/revision_sdf_oos|
sa400|COMPLETED|scavenger-gpu|2023-06-04T04:55:38|2023-06-04T05:15:03|00:19:25|dcc-gehmlab-gpu-38|1|1|10G||/hpc/home/sa400/research/SDF-HF/code/revision_sdf_oos|
sa400|COMPLETED|scavenger-gpu|2023-06-04T04:55:38|2023-06-04T05:14:59|00:19:21|dcc-gehmlab-gpu-37|1|1|10G||/hpc/home/sa400/research/SDF-HF/code/revision_sdf_oos|
sa400|COMPLETED|scavenger-gpu|2023-06-04T04:55:38|2023-06-04T05:15:08|00:19:30|dcc-gehmlab-gpu-36|1|1|10G||/hpc/home/sa400/research/SDF-HF/code/revision_sdf_oos|
sa400|COMPLETED|scavenger-gpu|2023-06-04T04:55:38|2023-06-04T05:14:47|00:19:09|dcc-gehmlab-gpu-35|1|1|10G||/hpc/home/sa400/research/SDF-HF/code/revision_sdf_oos|
sa400|COMPLETED|scavenger-gpu|2023-06-04T04:55:38|2023-06-04T05:15:08|00:19:30|dcc-gehmlab-gpu-34|1|1|10G||/hpc/home/sa400/research/SDF-HF/code/revision_sdf_oos|
sa400|COMPLETED|scavenger-gpu|2023-06-04T04:55:40|2023-06-04T05:15:47|00:20:07|dcc-gehmlab-gpu-33|1|1|10G||/hpc/home/sa400/research/SDF-HF/code/revision_sdf_oos|
sa400|COMPLETED|scavenger-gpu|2023-06-04T04:55:40|2023-06-04T05:14:52|00:19:12|dcc-gehmlab-gpu-32|1|1|10G||/hpc/home/sa400/research/SDF-HF/code/revision_sdf_oos|
sa400|COMPLETED|scavenger-gpu|2023-06-04T04:55:40|2023-06-04T05:15:11|00:19:31|dcc-gehmlab-gpu-31|1|1|10G||/hpc/home/sa400/research/SDF-HF/code/revision_sdf_oos|
sa400|COMPLETED|scavenger-gpu|2023-06-04T04:55:40|2023-06-04T05:15:04|00:19:24|dcc-gehmlab-gpu-30|1|1|10G||/hpc/home/sa400/research/SDF-HF/code/revision_sdf_oos|
sa400|COMPLETED|scavenger-gpu|2023-06-04T04:55:40|2023-06-04T05:14:59|00:19:19|dcc-gehmlab-gpu-29|1|1|10G||/hpc/home/sa400/research/SDF-HF/code/revision_sdf_oos|
sa400|COMPLETED|scavenger-gpu|2023-06-04T04:55:40|2023-06-04T05:15:12|00:19:32|dcc-gehmlab-gpu-28|1|1|10G||/hpc/home/sa400/research/SDF-HF/code/revision_sdf_oos|
sa400|COMPLETED|scavenger-gpu|2023-06-04T04:55:40|2023-06-04T05:14:47|00:19:07|dcc-gehmlab-gpu-27|1|1|10G||/hpc/home/sa400/research/SDF-HF/code/revision_sdf_oos|
sa400|COMPLETED|scavenger-gpu|2023-06-04T04:55:40|2023-06-04T05:14:59|00:19:19|dcc-gehmlab-gpu-26|1|1|10G||/hpc/home/sa400/research/SDF-HF/code/revision_sdf_oos|
sa400|COMPLETED|scavenger-gpu|2023-06-04T04:55:40|2023-06-04T05:15:03|00:19:23|dcc-gehmlab-gpu-25|1|1|10G||/hpc/home/sa400/research/SDF-HF/code/revision_sdf_oos|
sa400|COMPLETED|scavenger-gpu|2023-06-04T04:55:40|2023-06-04T05:15:03|00:19:23|dcc-gehmlab-gpu-24|1|1|10G||/hpc/home/sa400/research/SDF-HF/code/revision_sdf_oos|
sa400|COMPLETED|scavenger-gpu|2023-06-04T04:55:40|2023-06-04T05:15:11|00:19:31|dcc-gehmlab-gpu-22|1|1|10G||/hpc/home/sa400/research/SDF-HF/code/revision_sdf_oos|
sa400|COMPLETED|scavenger-gpu|2023-06-04T04:55:40|2023-06-04T05:14:52|00:19:12|dcc-gehmlab-gpu-21|1|1|10G||/hpc/home/sa400/research/SDF-HF/code/revision_sdf_oos|
sa400|COMPLETED|scavenger-gpu|2023-06-04T04:55:40|2023-06-04T05:14:59|00:19:19|dcc-gehmlab-gpu-20|1|1|10G||/hpc/home/sa400/research/SDF-HF/code/revision_sdf_oos|
sa400|COMPLETED|scavenger-gpu|2023-06-04T04:55:40|2023-06-04T05:15:07|00:19:27|dcc-gehmlab-gpu-19|1|1|10G||/hpc/home/sa400/research/SDF-HF/code/revision_sdf_oos|
sa400|COMPLETED|scavenger-gpu|2023-06-04T04:55:41|2023-06-04T05:14:56|00:19:15|dcc-gehmlab-gpu-18|1|1|10G||/hpc/home/sa400/research/SDF-HF/code/revision_sdf_oos|
sa400|COMPLETED|scavenger-gpu|2023-06-04T04:55:41|2023-06-04T05:14:55|00:19:14|dcc-gehmlab-gpu-17|1|1|10G||/hpc/home/sa400/research/SDF-HF/code/revision_sdf_oos|
sa400|COMPLETED|scavenger-gpu|2023-06-04T04:55:41|2023-06-04T05:14:51|00:19:10|dcc-gehmlab-gpu-16|1|1|10G||/hpc/home/sa400/research/SDF-HF/code/revision_sdf_oos|
sa400|COMPLETED|scavenger-gpu|2023-06-04T04:55:41|2023-06-04T05:15:07|00:19:26|dcc-gehmlab-gpu-15|1|1|10G||/hpc/home/sa400/research/SDF-HF/code/revision_sdf_oos|
sa400|COMPLETED|scavenger-gpu|2023-06-04T04:55:41|2023-06-04T05:15:31|00:19:50|dcc-gehmlab-gpu-14|1|1|10G||/hpc/home/sa400/research/SDF-HF/code/revision_sdf_oos|
sa400|COMPLETED|scavenger-gpu|2023-06-04T04:55:41|2023-06-04T05:14:51|00:19:10|dcc-gehmlab-gpu-13|1|1|10G||/hpc/home/sa400/research/SDF-HF/code/revision_sdf_oos|
sa400|COMPLETED|scavenger-gpu|2023-06-04T04:55:42|2023-06-04T05:14:55|00:19:13|dcc-gehmlab-gpu-12|1|1|10G||/hpc/home/sa400/research/SDF-HF/code/revision_sdf_oos|
sa400|COMPLETED|scavenger-gpu|2023-06-04T04:55:42|2023-06-04T05:14:47|00:19:05|dcc-gehmlab-gpu-11|1|1|10G||/hpc/home/sa400/research/SDF-HF/code/revision_sdf_oos|
sa400|COMPLETED|scavenger-gpu|2023-06-04T04:55:42|2023-06-04T05:14:55|00:19:13|dcc-gehmlab-gpu-10|1|1|10G||/hpc/home/sa400/research/SDF-HF/code/revision_sdf_oos|
sa400|COMPLETED|scavenger-gpu|2023-06-04T04:55:42|2023-06-04T05:15:08|00:19:26|dcc-gehmlab-gpu-09|1|1|10G||/hpc/home/sa400/research/SDF-HF/code/revision_sdf_oos|
sa400|COMPLETED|scavenger-gpu|2023-06-04T04:55:42|2023-06-04T05:15:03|00:19:21|dcc-gehmlab-gpu-08|1|1|10G||/hpc/home/sa400/research/SDF-HF/code/revision_sdf_oos|
sa400|COMPLETED|scavenger-gpu|2023-06-04T04:55:42|2023-06-04T05:14:59|00:19:17|dcc-gehmlab-gpu-07|1|1|10G||/hpc/home/sa400/research/SDF-HF/code/revision_sdf_oos|
sa400|COMPLETED|scavenger-gpu|2023-06-04T04:55:42|2023-06-04T05:14:59|00:19:17|dcc-gehmlab-gpu-06|1|1|10G||/hpc/home/sa400/research/SDF-HF/code/revision_sdf_oos|
sa400|COMPLETED|scavenger-gpu|2023-06-04T04:56:13|2023-06-04T05:16:12|00:19:59|dcc-mastatlab-gpu-01|1|1|10G||/hpc/home/sa400/research/SDF-HF/code/revision_sdf_oos|
sa400|COMPLETED|scavenger-gpu|2023-06-04T04:56:13|2023-06-04T05:20:14|00:24:01|dcc-mainsahlab-gpu-04|1|1|10G||/hpc/home/sa400/research/SDF-HF/code/revision_sdf_oos|
sa400|COMPLETED|scavenger-gpu|2023-06-04T04:56:13|2023-06-04T05:15:35|00:19:22|dcc-gehmlab-gpu-23|1|1|10G||/hpc/home/sa400/research/SDF-HF/code/revision_sdf_oos|
sa400|COMPLETED|scavenger-gpu|2023-06-04T04:56:13|2023-06-04T05:15:19|00:19:06|dcc-gehmlab-gpu-05|1|1|10G||/hpc/home/sa400/research/SDF-HF/code/revision_sdf_oos|
sa400|COMPLETED|scavenger-gpu|2023-06-04T04:56:13|2023-06-04T05:24:37|00:28:24|dcc-collinslab-gpu-02|1|1|10G||/hpc/home/sa400/research/SDF-HF/code/revision_sdf_oos|
sa400|COMPLETED|scavenger-gpu|2023-06-04T04:56:13|2023-06-04T05:16:19|00:20:06|dcc-chsi-gpu-08|1|1|10G||/hpc/home/sa400/research/SDF-HF/code/revision_sdf_oos|
sa400|COMPLETED|scavenger-gpu|2023-06-04T04:56:16|2023-06-04T05:21:23|00:25:07|dcc-chsi-gpu-07|1|1|10G||/hpc/home/sa400/research/SDF-HF/code/revision_sdf_oos|
sa400|COMPLETED|scavenger-gpu|2023-06-04T04:56:16|2023-06-04T05:21:57|00:25:41|dcc-chsi-gpu-06|1|1|10G||/hpc/home/sa400/research/SDF-HF/code/revision_sdf_oos|
sa400|COMPLETED|scavenger-gpu|2023-06-04T04:56:16|2023-06-04T05:18:06|00:21:50|dcc-chsi-gpu-01|1|1|10G||/hpc/home/sa400/research/SDF-HF/code/revision_sdf_oos|
sa400|COMPLETED|scavenger-gpu|2023-06-04T04:56:16|2023-06-04T05:15:40|00:19:24|dcc-carlsonlab-gpu-16|1|1|10G||/hpc/home/sa400/research/SDF-HF/code/revision_sdf_oos|
sa400|COMPLETED|scavenger-gpu|2023-06-04T04:56:16|2023-06-04T05:15:27|00:19:11|dcc-carlsonlab-gpu-14|1|1|10G||/hpc/home/sa400/research/SDF-HF/code/revision_sdf_oos|
sa400|COMPLETED|scavenger-gpu|2023-06-04T04:56:16|2023-06-04T05:15:32|00:19:16|dcc-carlsonlab-gpu-13|1|1|10G||/hpc/home/sa400/research/SDF-HF/code/revision_sdf_oos|
sa400|COMPLETED|scavenger-gpu|2023-06-04T04:56:16|2023-06-04T05:15:39|00:19:23|dcc-carlsonlab-gpu-12|1|1|10G||/hpc/home/sa400/research/SDF-HF/code/revision_sdf_oos|
sa400|COMPLETED|scavenger-gpu|2023-06-04T04:56:16|2023-06-04T05:15:23|00:19:07|dcc-carlsonlab-gpu-11|1|1|10G||/hpc/home/sa400/research/SDF-HF/code/revision_sdf_oos|
sa400|COMPLETED|scavenger-gpu|2023-06-04T04:56:16|2023-06-04T05:15:35|00:19:19|dcc-carlsonlab-gpu-10|1|1|10G||/hpc/home/sa400/research/SDF-HF/code/revision_sdf_oos|
sa400|COMPLETED|scavenger-gpu|2023-06-04T04:56:16|2023-06-04T05:15:55|00:19:39|dcc-carlsonlab-gpu-09|1|1|10G||/hpc/home/sa400/research/SDF-HF/code/revision_sdf_oos|
sa400|COMPLETED|scavenger-gpu|2023-06-04T04:56:16|2023-06-04T05:15:40|00:19:24|dcc-carlsonlab-gpu-08|1|1|10G||/hpc/home/sa400/research/SDF-HF/code/revision_sdf_oos|
sa400|COMPLETED|scavenger-gpu|2023-06-04T04:56:16|2023-06-04T05:15:27|00:19:11|dcc-carlsonlab-gpu-07|1|1|10G||/hpc/home/sa400/research/SDF-HF/code/revision_sdf_oos|
sa400|COMPLETED|scavenger-gpu|2023-06-04T04:56:16|2023-06-04T05:15:35|00:19:19|dcc-carlsonlab-gpu-06|1|1|10G||/hpc/home/sa400/research/SDF-HF/code/revision_sdf_oos|
sa400|COMPLETED|scavenger-gpu|2023-06-04T04:56:17|2023-06-04T05:16:52|00:20:35|dcc-carlsonlab-gpu-05|1|1|10G||/hpc/home/sa400/research/SDF-HF/code/revision_sdf_oos|
sa400|COMPLETED|scavenger-gpu|2023-06-04T04:56:17|2023-06-04T05:15:31|00:19:14|dcc-carlsonlab-gpu-04|1|1|10G||/hpc/home/sa400/research/SDF-HF/code/revision_sdf_oos|
sa400|COMPLETED|scavenger-gpu|2023-06-04T04:56:17|2023-06-04T05:15:36|00:19:19|dcc-carlsonlab-gpu-02|1|1|10G||/hpc/home/sa400/research/SDF-HF/code/revision_sdf_oos|
sa400|COMPLETED|scavenger-gpu|2023-06-04T04:56:17|2023-06-04T05:15:35|00:19:18|dcc-carlsonlab-gpu-01|1|1|10G||/hpc/home/sa400/research/SDF-HF/code/revision_sdf_oos|
sa400|COMPLETED|scavenger-gpu|2023-06-04T04:56:17|2023-06-04T05:18:51|00:22:34|dcc-carin-gpu-12|1|1|10G||/hpc/home/sa400/research/SDF-HF/code/revision_sdf_oos|
sa400|COMPLETED|scavenger-gpu|2023-06-04T04:56:17|2023-06-04T05:18:40|00:22:23|dcc-carin-gpu-11|1|1|10G||/hpc/home/sa400/research/SDF-HF/code/revision_sdf_oos|
sa400|COMPLETED|scavenger-gpu|2023-06-04T04:56:50|2023-06-04T05:19:38|00:22:48|dcc-ece-gpu-03|1|1|10G||/hpc/home/sa400/research/SDF-HF/code/revision_sdf_oos|
sa400|COMPLETED|scavenger-gpu|2023-06-04T04:56:50|2023-06-04T05:19:35|00:22:45|dcc-dsplus-gpu-10|1|1|10G||/hpc/home/sa400/research/SDF-HF/code/revision_sdf_oos|
sa400|COMPLETED|scavenger-gpu|2023-06-04T04:56:50|2023-06-04T05:19:28|00:22:38|dcc-dsplus-gpu-08|1|1|10G||/hpc/home/sa400/research/SDF-HF/code/revision_sdf_oos|
sa400|COMPLETED|scavenger-gpu|2023-06-04T04:56:50|2023-06-04T05:25:32|00:28:42|dcc-collinslab-gpu-01|1|1|10G||/hpc/home/sa400/research/SDF-HF/code/revision_sdf_oos|
sa400|COMPLETED|scavenger-gpu|2023-06-04T04:57:22|2023-06-04T05:20:05|00:22:43|dcc-ece-gpu-04|1|1|10G||/hpc/home/sa400/research/SDF-HF/code/revision_sdf_oos|
sa400|COMPLETED|scavenger-gpu|2023-06-04T04:57:22|2023-06-04T05:20:06|00:22:44|dcc-ece-gpu-02|1|1|10G||/hpc/home/sa400/research/SDF-HF/code/revision_sdf_oos|
sa400|COMPLETED|scavenger-gpu|2023-06-04T04:57:22|2023-06-04T05:20:01|00:22:39|dcc-ece-gpu-01|1|1|10G||/hpc/home/sa400/research/SDF-HF/code/revision_sdf_oos|
sa400|COMPLETED|scavenger-gpu|2023-06-04T04:57:22|2023-06-04T05:21:41|00:24:19|dcc-dsplus-gpu-07|1|1|10G||/hpc/home/sa400/research/SDF-HF/code/revision_sdf_oos|
sa400|COMPLETED|scavenger-gpu|2023-06-04T04:57:22|2023-06-04T05:19:55|00:22:33|dcc-dsplus-gpu-06|1|1|10G||/hpc/home/sa400/research/SDF-HF/code/revision_sdf_oos|
sa400|COMPLETED|scavenger-gpu|2023-06-04T04:57:55|2023-06-04T05:22:37|00:24:42|dcc-gehmlab-gpu-03|1|1|10G||/hpc/home/sa400/research/SDF-HF/code/revision_sdf_oos|
hk276|FAILED|scavenger-gpu|2023-06-04T00:44:43|2023-06-04T05:46:19|05:01:36|dcc-carlsonlab-gpu-18|1|10|60000M||/hpc/group/tdunn|
hk276|FAILED|scavenger-gpu|2023-06-04T01:07:26|2023-06-04T05:46:19|04:38:53|dcc-carin-gpu-09|1|10|60000M||/hpc/group/tdunn|
