pb183|COMPLETED|scavenger-gpu|2023-05-30T15:10:52|2023-06-04T05:26:05|4-14:15:13|dcc-collinslab-gpu-03|1|19|96G||/hpc/group/ldefratelab/Patrick/Cartilage_ML_3D|
pb183|COMPLETED|scavenger-gpu|2023-06-01T22:46:32|2023-06-04T00:14:56|2-01:28:24|dcc-collinslab-gpu-02|1|19|96G||/hpc/group/ldefratelab/Patrick/Cartilage_ML_3D|
pb183|COMPLETED|scavenger-gpu|2023-06-02T04:55:43|2023-06-04T04:26:33|1-23:30:50|dcc-collinslab-gpu-04|1|19|96G||/hpc/group/ldefratelab/Patrick/Cartilage_ML_3D|
pb183|COMPLETED|scavenger-gpu|2023-06-02T07:39:34|2023-06-04T18:57:11|2-11:17:37|dcc-youlab-gpu-04|1|10|96G||/hpc/group/ldefratelab/Patrick/Cartilage_ML_3D|
pb183|COMPLETED|scavenger-gpu|2023-06-02T11:46:40|2023-06-06T05:29:02|3-17:42:22|dcc-youlab-gpu-53|1|10|96G||/hpc/group/ldefratelab/Patrick/Cartilage_ML_3D|
pb183|COMPLETED|scavenger-gpu|2023-06-02T12:17:55|2023-06-04T16:58:41|2-04:40:46|dcc-youlab-gpu-15|1|10|96G||/hpc/group/ldefratelab/Patrick/Cartilage_ML_3D|
pb183|COMPLETED|scavenger-gpu|2023-06-03T05:46:01|2023-06-05T01:12:31|1-19:26:30|dcc-pbenfeylab-gpu-02|1|10|96G||/hpc/group/ldefratelab/Patrick/Cartilage_ML_3D|
pb183|COMPLETED|scavenger-gpu|2023-06-03T09:00:27|2023-06-04T04:49:00|19:48:33|dcc-youlab-gpu-55|1|10|96G||/hpc/group/ldefratelab/Patrick/Cartilage_ML_3D|
pb183|COMPLETED|scavenger-gpu|2023-06-03T16:14:21|2023-06-03T19:46:51|03:32:30|dcc-youlab-gpu-27|1|10|96G||/hpc/group/ldefratelab/Patrick/Cartilage_ML_3D|
pb183|COMPLETED|scavenger-gpu|2023-06-03T16:32:00|2023-06-03T23:23:58|06:51:58|dcc-youlab-gpu-32|1|10|96G||/hpc/group/ldefratelab/Patrick/Cartilage_ML_3D|
pb183|COMPLETED|scavenger-gpu|2023-06-03T16:42:16|2023-06-03T22:52:17|06:10:01|dcc-youlab-gpu-36|1|10|96G||/hpc/group/ldefratelab/Patrick/Cartilage_ML_3D|
pb183|COMPLETED|scavenger-gpu|2023-06-03T16:47:47|2023-06-03T22:00:24|05:12:37|dcc-youlab-gpu-40|1|10|96G||/hpc/group/ldefratelab/Patrick/Cartilage_ML_3D|
pb183|COMPLETED|scavenger-gpu|2023-06-03T17:46:34|2023-06-03T21:19:14|03:32:40|dcc-youlab-gpu-16|1|10|96G||/hpc/group/ldefratelab/Patrick/Cartilage_ML_3D|
pb183|COMPLETED|scavenger-gpu|2023-06-03T17:49:33|2023-06-04T00:48:33|06:59:00|dcc-youlab-gpu-42|1|10|96G||/hpc/group/ldefratelab/Patrick/Cartilage_ML_3D|
pb183|COMPLETED|scavenger-gpu|2023-06-03T17:53:01|2023-06-04T00:04:14|06:11:13|dcc-youlab-gpu-12|1|10|96G||/hpc/group/ldefratelab/Patrick/Cartilage_ML_3D|
pb183|COMPLETED|scavenger-gpu|2023-06-03T19:46:52|2023-06-04T01:04:24|05:17:32|dcc-youlab-gpu-27|1|10|96G||/hpc/group/ldefratelab/Patrick/Cartilage_ML_3D|
pb183|COMPLETED|scavenger-gpu|2023-06-03T21:19:38|2023-06-04T07:10:41|09:51:03|dcc-youlab-gpu-16|1|10|96G||/hpc/group/ldefratelab/Patrick/Cartilage_ML_3D|
pb183|COMPLETED|scavenger-gpu|2023-06-03T22:00:24|2023-06-03T22:24:10|00:23:46|dcc-youlab-gpu-40|1|10|96G||/hpc/group/ldefratelab/Patrick/Cartilage_ML_3D|
pb183|COMPLETED|scavenger-gpu|2023-06-03T22:24:11|2023-06-04T06:43:02|08:18:51|dcc-youlab-gpu-40|1|10|96G||/hpc/group/ldefratelab/Patrick/Cartilage_ML_3D|
pb183|COMPLETED|scavenger-gpu|2023-06-03T22:52:17|2023-06-03T23:38:47|00:46:30|dcc-youlab-gpu-38|1|10|96G||/hpc/group/ldefratelab/Patrick/Cartilage_ML_3D|
pb183|COMPLETED|scavenger-gpu|2023-06-03T23:23:58|2023-06-04T06:49:14|07:25:16|dcc-youlab-gpu-32|1|10|96G||/hpc/group/ldefratelab/Patrick/Cartilage_ML_3D|
pb183|COMPLETED|scavenger-gpu|2023-06-03T23:38:47|2023-06-04T00:10:51|00:32:04|dcc-youlab-gpu-38|1|10|96G||/hpc/group/ldefratelab/Patrick/Cartilage_ML_3D|
pb183|COMPLETED|scavenger-gpu|2023-06-04T00:04:15|2023-06-04T15:26:40|15:22:25|dcc-youlab-gpu-41|1|10|96G||/hpc/group/ldefratelab/Patrick/Cartilage_ML_3D|
pb183|COMPLETED|scavenger-gpu|2023-06-04T00:10:51|2023-06-04T17:02:43|16:51:52|dcc-youlab-gpu-38|1|10|96G||/hpc/group/ldefratelab/Patrick/Cartilage_ML_3D|
pb183|COMPLETED|scavenger-gpu|2023-06-04T00:14:57|2023-06-04T00:57:35|00:42:38|dcc-youlab-gpu-36|1|10|96G||/hpc/group/ldefratelab/Patrick/Cartilage_ML_3D|
pb183|COMPLETED|scavenger-gpu|2023-06-04T00:48:35|2023-06-04T02:10:19|01:21:44|dcc-youlab-gpu-42|1|10|96G||/hpc/group/ldefratelab/Patrick/Cartilage_ML_3D|
pb183|COMPLETED|scavenger-gpu|2023-06-04T00:57:35|2023-06-04T06:20:02|05:22:27|dcc-youlab-gpu-36|1|10|96G||/hpc/group/ldefratelab/Patrick/Cartilage_ML_3D|
pb183|COMPLETED|scavenger-gpu|2023-06-04T01:04:24|2023-06-04T02:47:30|01:43:06|dcc-youlab-gpu-27|1|10|96G||/hpc/group/ldefratelab/Patrick/Cartilage_ML_3D|
pb183|COMPLETED|scavenger-gpu|2023-06-04T02:10:26|2023-06-05T12:17:40|1-10:07:14|dcc-youlab-gpu-42|1|10|96G||/hpc/group/ldefratelab/Patrick/Cartilage_ML_3D|
pb183|COMPLETED|scavenger-gpu|2023-06-04T02:48:01|2023-06-04T04:52:12|02:04:11|dcc-youlab-gpu-30|1|10|96G||/hpc/group/ldefratelab/Patrick/Cartilage_ML_3D|
pb183|PREEMPTED|scavenger-gpu|2023-06-04T04:27:00|2023-06-05T12:44:08|1-08:17:08|dcc-rekerlab-gpu-01|1|8|96G||/hpc/group/ldefratelab/Patrick/Cartilage_ML_3D|
pb183|COMPLETED|scavenger-gpu|2023-06-04T04:49:09|2023-06-06T17:36:56|2-12:47:47|dcc-youlab-gpu-55|1|10|96G||/hpc/group/ldefratelab/Patrick/Cartilage_ML_3D|
pb183|COMPLETED|scavenger-gpu|2023-06-04T04:52:20|2023-06-04T05:15:07|00:22:47|dcc-youlab-gpu-35|1|10|96G||/hpc/group/ldefratelab/Patrick/Cartilage_ML_3D|
pb183|COMPLETED|scavenger-gpu|2023-06-04T05:15:39|2023-06-04T05:49:14|00:33:35|dcc-youlab-gpu-35|1|10|96G||/hpc/group/ldefratelab/Patrick/Cartilage_ML_3D|
pb183|COMPLETED|scavenger-gpu|2023-06-04T05:26:28|2023-06-04T06:07:08|00:40:40|dcc-youlab-gpu-34|1|10|96G||/hpc/group/ldefratelab/Patrick/Cartilage_ML_3D|
pb183|COMPLETED|scavenger-gpu|2023-06-04T05:49:21|2023-06-04T06:26:44|00:37:23|dcc-youlab-gpu-35|1|10|96G||/hpc/group/ldefratelab/Patrick/Cartilage_ML_3D|
pb183|COMPLETED|scavenger-gpu|2023-06-04T06:07:36|2023-06-04T06:31:09|00:23:33|dcc-youlab-gpu-34|1|10|96G||/hpc/group/ldefratelab/Patrick/Cartilage_ML_3D|
pb183|COMPLETED|scavenger-gpu|2023-06-04T06:20:21|2023-06-04T06:57:48|00:37:27|dcc-youlab-gpu-36|1|10|96G||/hpc/group/ldefratelab/Patrick/Cartilage_ML_3D|
pb183|COMPLETED|scavenger-gpu|2023-06-04T06:27:02|2023-06-05T01:34:45|19:07:43|dcc-youlab-gpu-35|1|10|96G||/hpc/group/ldefratelab/Patrick/Cartilage_ML_3D|
pb183|COMPLETED|scavenger-gpu|2023-06-04T06:31:36|2023-06-05T14:42:51|1-08:11:15|dcc-youlab-gpu-34|1|10|96G||/hpc/group/ldefratelab/Patrick/Cartilage_ML_3D|
pb183|COMPLETED|scavenger-gpu|2023-06-04T06:43:22|2023-06-04T07:51:07|01:07:45|dcc-youlab-gpu-40|1|10|96G||/hpc/group/ldefratelab/Patrick/Cartilage_ML_3D|
pb183|COMPLETED|scavenger-gpu|2023-06-04T06:49:34|2023-06-04T09:05:34|02:16:00|dcc-youlab-gpu-32|1|10|96G||/hpc/group/ldefratelab/Patrick/Cartilage_ML_3D|
pb183|COMPLETED|scavenger-gpu|2023-06-04T06:58:20|2023-06-04T08:56:49|01:58:29|dcc-youlab-gpu-36|1|10|96G||/hpc/group/ldefratelab/Patrick/Cartilage_ML_3D|
pb183|COMPLETED|scavenger-gpu|2023-06-04T07:11:08|2023-06-04T09:16:08|02:05:00|dcc-youlab-gpu-30|1|10|96G||/hpc/group/ldefratelab/Patrick/Cartilage_ML_3D|
pb183|COMPLETED|scavenger-gpu|2023-06-04T07:51:30|2023-06-06T15:15:23|2-07:23:53|dcc-youlab-gpu-40|1|10|96G||/hpc/group/ldefratelab/Patrick/Cartilage_ML_3D|
pb183|COMPLETED|scavenger-gpu|2023-06-04T08:57:01|2023-06-04T11:25:15|02:28:14|dcc-youlab-gpu-43|1|10|96G||/hpc/group/ldefratelab/Patrick/Cartilage_ML_3D|
pb183|COMPLETED|scavenger-gpu|2023-06-04T09:05:50|2023-06-06T04:29:02|1-19:23:12|dcc-youlab-gpu-37|1|10|96G||/hpc/group/ldefratelab/Patrick/Cartilage_ML_3D|
pb183|COMPLETED|scavenger-gpu|2023-06-04T09:16:18|2023-06-04T11:16:32|02:00:14|dcc-youlab-gpu-36|1|10|96G||/hpc/group/ldefratelab/Patrick/Cartilage_ML_3D|
pb183|COMPLETED|scavenger-gpu|2023-06-04T11:16:40|2023-06-04T11:51:43|00:35:03|dcc-youlab-gpu-36|1|10|96G||/hpc/group/ldefratelab/Patrick/Cartilage_ML_3D|
pb183|COMPLETED|scavenger-gpu|2023-06-04T11:25:43|2023-06-04T12:19:56|00:54:13|dcc-youlab-gpu-43|1|10|96G||/hpc/group/ldefratelab/Patrick/Cartilage_ML_3D|
pb183|COMPLETED|scavenger-gpu|2023-06-04T11:51:54|2023-06-04T12:51:07|00:59:13|dcc-youlab-gpu-36|1|10|96G||/hpc/group/ldefratelab/Patrick/Cartilage_ML_3D|
pb183|COMPLETED|scavenger-gpu|2023-06-04T12:20:08|2023-06-04T13:18:58|00:58:50|dcc-youlab-gpu-43|1|10|96G||/hpc/group/ldefratelab/Patrick/Cartilage_ML_3D|
pb183|COMPLETED|scavenger-gpu|2023-06-04T12:51:35|2023-06-05T07:10:58|18:19:23|dcc-youlab-gpu-36|1|10|96G||/hpc/group/ldefratelab/Patrick/Cartilage_ML_3D|
pb183|COMPLETED|scavenger-gpu|2023-06-04T13:19:14|2023-06-05T21:31:06|1-08:11:52|dcc-youlab-gpu-43|1|10|96G||/hpc/group/ldefratelab/Patrick/Cartilage_ML_3D|
pb183|COMPLETED|scavenger-gpu|2023-06-04T15:27:00|2023-06-04T16:27:38|01:00:38|dcc-youlab-gpu-41|1|10|96G||/hpc/group/ldefratelab/Patrick/Cartilage_ML_3D|
pb183|COMPLETED|scavenger-gpu|2023-06-04T16:27:50|2023-06-05T21:36:30|1-05:08:40|dcc-youlab-gpu-41|1|10|96G||/hpc/group/ldefratelab/Patrick/Cartilage_ML_3D|
pb183|COMPLETED|scavenger-gpu|2023-06-04T16:59:13|2023-06-04T18:43:15|01:44:02|dcc-youlab-gpu-15|1|10|96G||/hpc/group/ldefratelab/Patrick/Cartilage_ML_3D|
pb183|COMPLETED|scavenger-gpu|2023-06-04T17:03:11|2023-06-04T20:24:02|03:20:51|dcc-youlab-gpu-38|1|10|96G||/hpc/group/ldefratelab/Patrick/Cartilage_ML_3D|
pb183|COMPLETED|scavenger-gpu|2023-06-04T18:43:50|2023-06-04T21:41:59|02:58:09|dcc-youlab-gpu-15|1|10|96G||/hpc/group/ldefratelab/Patrick/Cartilage_ML_3D|
pb183|COMPLETED|scavenger-gpu|2023-06-04T18:57:47|2023-06-04T21:54:37|02:56:50|dcc-youlab-gpu-04|1|10|96G||/hpc/group/ldefratelab/Patrick/Cartilage_ML_3D|
pb183|COMPLETED|scavenger-gpu|2023-06-04T20:24:31|2023-06-04T22:11:53|01:47:22|dcc-youlab-gpu-38|1|10|96G||/hpc/group/ldefratelab/Patrick/Cartilage_ML_3D|
pb183|COMPLETED|scavenger-gpu|2023-06-04T21:42:35|2023-06-05T01:27:40|03:45:05|dcc-youlab-gpu-15|1|10|96G||/hpc/group/ldefratelab/Patrick/Cartilage_ML_3D|
pb183|COMPLETED|scavenger-gpu|2023-06-04T21:55:15|2023-06-05T00:53:17|02:58:02|dcc-youlab-gpu-04|1|10|96G||/hpc/group/ldefratelab/Patrick/Cartilage_ML_3D|
pb183|COMPLETED|scavenger-gpu|2023-06-04T22:12:13|2023-06-05T01:15:09|03:02:56|dcc-youlab-gpu-38|1|10|96G||/hpc/group/ldefratelab/Patrick/Cartilage_ML_3D|
pb183|FAILED|scavenger-gpu|2023-06-05T00:53:40|2023-06-05T00:55:05|00:01:25|dcc-youlab-gpu-04|1|10|96G||/hpc/group/ldefratelab/Patrick/Cartilage_ML_3D|
pb183|COMPLETED|scavenger-gpu|2023-06-05T00:55:17|2023-06-05T02:39:13|01:43:56|dcc-youlab-gpu-04|1|10|96G||/hpc/group/ldefratelab/Patrick/Cartilage_ML_3D|
pb183|COMPLETED|scavenger-gpu|2023-06-05T01:12:35|2023-06-05T03:00:44|01:48:09|dcc-ultrasound-gpu-02|1|19|96G||/hpc/group/ldefratelab/Patrick/Cartilage_ML_3D|
pb183|COMPLETED|scavenger-gpu|2023-06-05T01:15:14|2023-06-05T02:58:00|01:42:46|dcc-youlab-gpu-38|1|10|96G||/hpc/group/ldefratelab/Patrick/Cartilage_ML_3D|
pb183|FAILED|scavenger-gpu|2023-06-05T01:27:49|2023-06-05T01:29:07|00:01:18|dcc-youlab-gpu-15|1|10|96G||/hpc/group/ldefratelab/Patrick/Cartilage_ML_3D|
pb183|COMPLETED|scavenger-gpu|2023-06-05T01:29:22|2023-06-05T03:14:29|01:45:07|dcc-youlab-gpu-15|1|10|96G||/hpc/group/ldefratelab/Patrick/Cartilage_ML_3D|
pb183|COMPLETED|scavenger-gpu|2023-06-05T01:35:05|2023-06-05T03:15:11|01:40:06|dcc-youlab-gpu-35|1|10|96G||/hpc/group/ldefratelab/Patrick/Cartilage_ML_3D|
pb183|COMPLETED|scavenger-gpu|2023-06-05T02:39:16|2023-06-07T06:14:21|2-03:35:05|dcc-youlab-gpu-16|1|10|96G||/hpc/group/ldefratelab/Patrick/Cartilage_ML_3D|
pb183|FAILED|scavenger-gpu|2023-06-05T02:58:29|2023-06-05T03:00:19|00:01:50|dcc-youlab-gpu-38|1|10|96G||/hpc/group/ldefratelab/Patrick/Cartilage_ML_3D|
pb183|COMPLETED|scavenger-gpu|2023-06-05T03:00:31|2023-06-05T08:34:43|05:34:12|dcc-youlab-gpu-38|1|10|96G||/hpc/group/ldefratelab/Patrick/Cartilage_ML_3D|
pb183|COMPLETED|scavenger-gpu|2023-06-05T03:01:03|2023-06-05T07:51:08|04:50:05|dcc-youlab-gpu-04|1|10|96G||/hpc/group/ldefratelab/Patrick/Cartilage_ML_3D|
pb183|COMPLETED|scavenger-gpu|2023-06-05T03:14:46|2023-06-05T08:05:29|04:50:43|dcc-youlab-gpu-15|1|10|96G||/hpc/group/ldefratelab/Patrick/Cartilage_ML_3D|
pb183|FAILED|scavenger-gpu|2023-06-05T03:15:18|2023-06-05T03:16:44|00:01:26|dcc-youlab-gpu-35|1|10|96G||/hpc/group/ldefratelab/Patrick/Cartilage_ML_3D|
pb183|COMPLETED|scavenger-gpu|2023-06-05T03:16:49|2023-06-05T08:31:10|05:14:21|dcc-youlab-gpu-35|1|10|96G||/hpc/group/ldefratelab/Patrick/Cartilage_ML_3D|
pb183|COMPLETED|scavenger-gpu|2023-06-05T07:11:05|2023-06-05T11:55:03|04:43:58|dcc-youlab-gpu-36|1|10|96G||/hpc/group/ldefratelab/Patrick/Cartilage_ML_3D|
pb183|COMPLETED|scavenger-gpu|2023-06-05T07:51:12|2023-06-05T12:39:51|04:48:39|dcc-youlab-gpu-28|1|10|96G||/hpc/group/ldefratelab/Patrick/Cartilage_ML_3D|
pb183|COMPLETED|scavenger-gpu|2023-06-05T08:05:31|2023-06-05T18:41:19|10:35:48|dcc-youlab-gpu-27|1|10|96G||/hpc/group/ldefratelab/Patrick/Cartilage_ML_3D|
pb183|COMPLETED|scavenger-gpu|2023-06-05T08:31:24|2023-06-05T13:33:32|05:02:08|dcc-youlab-gpu-35|1|10|96G||/hpc/group/ldefratelab/Patrick/Cartilage_ML_3D|
pb183|COMPLETED|scavenger-gpu|2023-06-05T08:35:00|2023-06-05T21:55:50|13:20:50|dcc-youlab-gpu-38|1|10|96G||/hpc/group/ldefratelab/Patrick/Cartilage_ML_3D|
pb183|COMPLETED|scavenger-gpu|2023-06-05T11:55:03|2023-06-05T22:32:54|10:37:51|dcc-youlab-gpu-36|1|10|96G||/hpc/group/ldefratelab/Patrick/Cartilage_ML_3D|
pb183|COMPLETED|scavenger-gpu|2023-06-05T12:17:40|2023-06-05T15:41:57|03:24:17|dcc-youlab-gpu-42|1|10|96G||/hpc/group/ldefratelab/Patrick/Cartilage_ML_3D|
pb183|COMPLETED|scavenger-gpu|2023-06-05T12:39:51|2023-06-05T18:30:34|05:50:43|dcc-youlab-gpu-28|1|10|96G||/hpc/group/ldefratelab/Patrick/Cartilage_ML_3D|
pb183|PREEMPTED|scavenger-gpu|2023-06-05T12:53:42|2023-06-05T12:54:07|00:00:25|dcc-rekerlab-gpu-01|1|8|96G||/hpc/group/ldefratelab/Patrick/Cartilage_ML_3D|
pb183|PREEMPTED|scavenger-gpu|2023-06-05T12:54:11|2023-06-05T12:56:25|00:02:14|dcc-rekerlab-gpu-01|1|8|96G||/hpc/group/ldefratelab/Patrick/Cartilage_ML_3D|
pb183|COMPLETED|scavenger-gpu|2023-06-05T12:56:41|2023-06-05T13:37:31|00:40:50|dcc-vossenlab-gpu-04|1|10|96G||/hpc/group/ldefratelab/Patrick/Cartilage_ML_3D|
pb183|COMPLETED|scavenger-gpu|2023-06-05T13:33:35|2023-06-05T14:26:29|00:52:54|dcc-youlab-gpu-35|1|10|96G||/hpc/group/ldefratelab/Patrick/Cartilage_ML_3D|
pb183|PREEMPTED|scavenger-gpu|2023-06-05T13:37:32|2023-06-06T09:42:27|20:04:55|dcc-vossenlab-gpu-04|1|10|96G||/hpc/group/ldefratelab/Patrick/Cartilage_ML_3D|
pb183|COMPLETED|scavenger-gpu|2023-06-05T14:29:31|2023-06-05T15:33:36|01:04:05|dcc-youlab-gpu-35|1|10|96G||/hpc/group/ldefratelab/Patrick/Cartilage_ML_3D|
pb183|COMPLETED|scavenger-gpu|2023-06-05T14:42:59|2023-06-06T21:42:04|1-06:59:05|dcc-youlab-gpu-34|1|10|96G||/hpc/group/ldefratelab/Patrick/Cartilage_ML_3D|
pb183|COMPLETED|scavenger-gpu|2023-06-05T15:33:38|2023-06-06T21:07:42|1-05:34:04|dcc-youlab-gpu-35|1|10|96G||/hpc/group/ldefratelab/Patrick/Cartilage_ML_3D|
pb183|COMPLETED|scavenger-gpu|2023-06-05T15:42:00|2023-06-07T17:45:02|2-02:03:02|dcc-youlab-gpu-42|1|10|96G||/hpc/group/ldefratelab/Patrick/Cartilage_ML_3D|
pb183|COMPLETED|scavenger-gpu|2023-06-05T18:30:36|2023-06-08T00:16:19|2-05:45:43|dcc-youlab-gpu-44|1|10|96G||/hpc/group/ldefratelab/Patrick/Cartilage_ML_3D|
pb183|COMPLETED|scavenger-gpu|2023-06-05T18:41:19|2023-06-05T19:03:24|00:22:05|dcc-youlab-gpu-27|1|10|96G||/hpc/group/ldefratelab/Patrick/Cartilage_ML_3D|
pb183|COMPLETED|scavenger-gpu|2023-06-05T19:03:24|2023-06-05T19:36:08|00:32:44|dcc-youlab-gpu-27|1|10|96G||/hpc/group/ldefratelab/Patrick/Cartilage_ML_3D|
pb183|COMPLETED|scavenger-gpu|2023-06-05T19:36:08|2023-06-05T20:12:36|00:36:28|dcc-youlab-gpu-27|1|10|96G||/hpc/group/ldefratelab/Patrick/Cartilage_ML_3D|
pb183|COMPLETED|scavenger-gpu|2023-06-05T20:12:36|2023-06-05T20:49:34|00:36:58|dcc-youlab-gpu-27|1|10|96G||/hpc/group/ldefratelab/Patrick/Cartilage_ML_3D|
pb183|COMPLETED|scavenger-gpu|2023-06-05T20:49:36|2023-06-05T21:14:33|00:24:57|dcc-youlab-gpu-33|1|10|96G||/hpc/group/ldefratelab/Patrick/Cartilage_ML_3D|
pb183|COMPLETED|scavenger-gpu|2023-06-05T21:14:33|2023-06-06T05:11:58|07:57:25|dcc-youlab-gpu-33|1|10|96G||/hpc/group/ldefratelab/Patrick/Cartilage_ML_3D|
pb183|COMPLETED|scavenger-gpu|2023-06-05T21:31:06|2023-06-07T01:34:10|1-04:03:04|dcc-youlab-gpu-43|1|10|96G||/hpc/group/ldefratelab/Patrick/Cartilage_ML_3D|
pb183|COMPLETED|scavenger-gpu|2023-06-05T21:36:31|2023-06-06T17:44:55|20:08:24|dcc-youlab-gpu-41|1|10|96G||/hpc/group/ldefratelab/Patrick/Cartilage_ML_3D|
pb183|COMPLETED|scavenger-gpu|2023-06-05T21:55:50|2023-06-05T22:52:12|00:56:22|dcc-youlab-gpu-38|1|10|96G||/hpc/group/ldefratelab/Patrick/Cartilage_ML_3D|
pb183|COMPLETED|scavenger-gpu|2023-06-05T22:32:54|2023-06-05T23:47:32|01:14:38|dcc-youlab-gpu-36|1|10|96G||/hpc/group/ldefratelab/Patrick/Cartilage_ML_3D|
pb183|COMPLETED|scavenger-gpu|2023-06-05T22:52:13|2023-06-06T00:26:22|01:34:09|dcc-youlab-gpu-38|1|10|96G||/hpc/group/ldefratelab/Patrick/Cartilage_ML_3D|
pb183|COMPLETED|scavenger-gpu|2023-06-05T23:47:33|2023-06-06T01:20:55|01:33:22|dcc-youlab-gpu-36|1|10|96G||/hpc/group/ldefratelab/Patrick/Cartilage_ML_3D|
pb183|COMPLETED|scavenger-gpu|2023-06-06T00:26:49|2023-06-06T01:23:28|00:56:39|dcc-youlab-gpu-38|1|10|96G||/hpc/group/ldefratelab/Patrick/Cartilage_ML_3D|
pb183|COMPLETED|scavenger-gpu|2023-06-06T01:20:55|2023-06-07T13:15:44|1-11:54:49|dcc-youlab-gpu-36|1|10|96G||/hpc/group/ldefratelab/Patrick/Cartilage_ML_3D|
pb183|COMPLETED|scavenger-gpu|2023-06-06T01:23:28|2023-06-08T09:11:43|2-07:48:15|dcc-youlab-gpu-38|1|10|96G||/hpc/group/ldefratelab/Patrick/Cartilage_ML_3D|
pb183|COMPLETED|scavenger-gpu|2023-06-06T04:29:02|2023-06-07T15:50:50|1-11:21:48|dcc-youlab-gpu-37|1|10|96G||/hpc/group/ldefratelab/Patrick/Cartilage_ML_3D|
pb183|FAILED|scavenger-gpu|2023-06-06T05:11:58|2023-06-06T05:13:41|00:01:43|dcc-youlab-gpu-33|1|10|96G||/hpc/group/ldefratelab/Patrick/Cartilage_ML_3D|
pb183|COMPLETED|scavenger-gpu|2023-06-06T05:13:41|2023-06-06T06:10:34|00:56:53|dcc-youlab-gpu-33|1|10|96G||/hpc/group/ldefratelab/Patrick/Cartilage_ML_3D|
pb183|COMPLETED|scavenger-gpu|2023-06-06T05:29:02|2023-06-06T06:29:47|01:00:45|dcc-youlab-gpu-53|1|10|96G||/hpc/group/ldefratelab/Patrick/Cartilage_ML_3D|
pb183|COMPLETED|scavenger-gpu|2023-06-06T06:10:35|2023-06-06T07:10:28|00:59:53|dcc-youlab-gpu-33|1|10|96G||/hpc/group/ldefratelab/Patrick/Cartilage_ML_3D|
pb183|FAILED|scavenger-gpu|2023-06-06T06:29:47|2023-06-06T06:31:23|00:01:36|dcc-youlab-gpu-53|1|10|96G||/hpc/group/ldefratelab/Patrick/Cartilage_ML_3D|
pb183|COMPLETED|scavenger-gpu|2023-06-06T06:31:23|2023-06-07T06:45:57|1-00:14:34|dcc-youlab-gpu-53|1|10|96G||/hpc/group/ldefratelab/Patrick/Cartilage_ML_3D|
pb183|COMPLETED|scavenger-gpu|2023-06-06T07:10:28|2023-06-07T10:06:37|1-02:56:09|dcc-youlab-gpu-33|1|10|96G||/hpc/group/ldefratelab/Patrick/Cartilage_ML_3D|
pb183|COMPLETED|scavenger-gpu|2023-06-06T09:42:27|2023-06-08T06:15:23|1-20:32:56|dcc-ultrasound-gpu-02|1|19|96G||/hpc/group/ldefratelab/Patrick/Cartilage_ML_3D|
pb183|FAILED|scavenger-gpu|2023-06-06T15:15:24|2023-06-06T15:16:47|00:01:23|dcc-youlab-gpu-40|1|10|96G||/hpc/group/ldefratelab/Patrick/Cartilage_ML_3D|
pb183|COMPLETED|scavenger-gpu|2023-06-06T15:16:49|2023-06-06T17:24:38|02:07:49|dcc-youlab-gpu-40|1|10|96G||/hpc/group/ldefratelab/Patrick/Cartilage_ML_3D|
pb183|COMPLETED|scavenger-gpu|2023-06-06T17:24:38|2023-06-06T19:37:14|02:12:36|dcc-youlab-gpu-40|1|10|96G||/hpc/group/ldefratelab/Patrick/Cartilage_ML_3D|
pb183|COMPLETED|scavenger-gpu|2023-06-06T17:36:57|2023-06-06T19:51:49|02:14:52|dcc-youlab-gpu-55|1|10|96G||/hpc/group/ldefratelab/Patrick/Cartilage_ML_3D|
pb183|FAILED|scavenger-gpu|2023-06-06T17:44:55|2023-06-06T17:46:35|00:01:40|dcc-youlab-gpu-41|1|10|96G||/hpc/group/ldefratelab/Patrick/Cartilage_ML_3D|
pb183|COMPLETED|scavenger-gpu|2023-06-06T17:46:35|2023-06-06T19:58:17|02:11:42|dcc-youlab-gpu-41|1|10|96G||/hpc/group/ldefratelab/Patrick/Cartilage_ML_3D|
pb183|COMPLETED|scavenger-gpu|2023-06-06T19:37:14|2023-06-06T21:51:18|02:14:04|dcc-youlab-gpu-40|1|10|96G||/hpc/group/ldefratelab/Patrick/Cartilage_ML_3D|
pb183|COMPLETED|scavenger-gpu|2023-06-06T19:51:49|2023-06-06T22:08:05|02:16:16|dcc-youlab-gpu-55|1|10|96G||/hpc/group/ldefratelab/Patrick/Cartilage_ML_3D|
pb183|FAILED|scavenger-gpu|2023-06-06T19:58:18|2023-06-06T19:59:39|00:01:21|dcc-youlab-gpu-41|1|10|96G||/hpc/group/ldefratelab/Patrick/Cartilage_ML_3D|
pb183|COMPLETED|scavenger-gpu|2023-06-06T19:59:39|2023-06-06T21:48:46|01:49:07|dcc-youlab-gpu-41|1|10|96G||/hpc/group/ldefratelab/Patrick/Cartilage_ML_3D|
pb183|FAILED|scavenger-gpu|2023-06-06T21:07:43|2023-06-06T21:10:07|00:02:24|dcc-youlab-gpu-35|1|10|96G||/hpc/group/ldefratelab/Patrick/Cartilage_ML_3D|
pb183|COMPLETED|scavenger-gpu|2023-06-06T21:10:07|2023-06-06T22:54:27|01:44:20|dcc-youlab-gpu-35|1|10|96G||/hpc/group/ldefratelab/Patrick/Cartilage_ML_3D|
pb183|FAILED|scavenger-gpu|2023-06-06T21:42:04|2023-06-06T21:43:29|00:01:25|dcc-youlab-gpu-34|1|10|96G||/hpc/group/ldefratelab/Patrick/Cartilage_ML_3D|
pb183|COMPLETED|scavenger-gpu|2023-06-06T21:43:30|2023-06-06T23:38:56|01:55:26|dcc-youlab-gpu-34|1|10|96G||/hpc/group/ldefratelab/Patrick/Cartilage_ML_3D|
pb183|FAILED|scavenger-gpu|2023-06-06T21:48:47|2023-06-06T21:50:58|00:02:11|dcc-youlab-gpu-41|1|10|96G||/hpc/group/ldefratelab/Patrick/Cartilage_ML_3D|
pb183|COMPLETED|scavenger-gpu|2023-06-06T21:51:00|2023-06-08T11:44:13|1-13:53:13|dcc-youlab-gpu-41|1|10|96G||/hpc/group/ldefratelab/Patrick/Cartilage_ML_3D|
pb183|FAILED|scavenger-gpu|2023-06-06T21:51:18|2023-06-06T21:52:51|00:01:33|dcc-youlab-gpu-40|1|10|96G||/hpc/group/ldefratelab/Patrick/Cartilage_ML_3D|
pb183|COMPLETED|scavenger-gpu|2023-06-06T21:52:51|2023-06-07T02:24:42|04:31:51|dcc-youlab-gpu-40|1|10|96G||/hpc/group/ldefratelab/Patrick/Cartilage_ML_3D|
pb183|FAILED|scavenger-gpu|2023-06-06T22:08:05|2023-06-06T22:12:34|00:04:29|dcc-ultrasound-gpu-01|1|19|96G||/hpc/group/ldefratelab/Patrick/Cartilage_ML_3D|
pb183|COMPLETED|scavenger-gpu|2023-06-06T22:12:34|2023-06-07T02:29:53|04:17:19|dcc-youlab-gpu-55|1|10|96G||/hpc/group/ldefratelab/Patrick/Cartilage_ML_3D|
pb183|FAILED|scavenger-gpu|2023-06-06T22:54:27|2023-06-06T22:56:15|00:01:48|dcc-youlab-gpu-35|1|10|96G||/hpc/group/ldefratelab/Patrick/Cartilage_ML_3D|
pb183|COMPLETED|scavenger-gpu|2023-06-06T22:56:15|2023-06-09T02:11:05|2-03:14:50|dcc-youlab-gpu-35|1|10|96G||/hpc/group/ldefratelab/Patrick/Cartilage_ML_3D|
pb183|FAILED|scavenger-gpu|2023-06-06T23:38:57|2023-06-06T23:44:01|00:05:04|dcc-youlab-gpu-34|1|10|96G||/hpc/group/ldefratelab/Patrick/Cartilage_ML_3D|
pb183|COMPLETED|scavenger-gpu|2023-06-06T23:44:02|2023-06-07T04:19:52|04:35:50|dcc-youlab-gpu-34|1|10|96G||/hpc/group/ldefratelab/Patrick/Cartilage_ML_3D|
minhe|PREEMPTED|scavenger-gpu|2023-05-30T13:18:49|2023-06-05T16:39:31|6-03:20:42|dcc-dsplus-gpu-01|1|92|150692M||/work/minhe/alphafold|
minhe|PREEMPTED|scavenger-gpu|2023-05-31T13:26:17|2023-06-04T21:35:12|4-08:08:55|dcc-ultrasound-gpu-04|1|19|150692M||/work/minhe/alphafold|
vk93|TIMEOUT|scavenger-gpu|2023-05-31T22:34:58|2023-06-07T22:35:23|7-00:00:25|dcc-dsplus-gpu-02|1|40|350109M||/hpc/home/vk93/ondemand/data/sys/dashboard/batch_connect/sys/bc_jupyter/output/8ef6e1c5-29a3-4b2f-9caf-67c9017f6f0a|
rd254|COMPLETED|scavenger-gpu|2023-06-01T00:25:10|2023-06-06T06:08:09|5-05:42:59|dcc-chsi-gpu-05|1|6|12G||/work/rd254/ADP_monomer|
bgb13|FAILED|scavenger-gpu|2023-06-01T09:12:52|2023-06-04T12:02:04|3-02:49:12|dcc-carin-gpu-01|1|16|10G||/hpc/group/dukenmr/bgb13/cyp51b_phosphorylated_S123/./.|
vk93|PREEMPTED|scavenger-gpu|2023-06-02T20:48:00|2023-06-03T21:31:28|1-00:43:28|dcc-mastatlab-gpu-01|1|40|350109M||/hpc/home/vk93/ondemand/data/sys/dashboard/batch_connect/sys/bc_jupyter/output/ba078d78-973d-4dcf-a8d1-ae22745f5c83|
cem125|PREEMPTED|scavenger-gpu|2023-06-02T09:39:44|2023-06-05T10:11:12|3-00:31:28|dcc-gehmlab-gpu-02|1|19|50G||/hpc/group/rekerlab/cem125/OpenNMT-py|
yk206|COMPLETED|scavenger-gpu|2023-06-02T12:06:02|2023-06-04T15:37:09|2-03:31:07|dcc-allenlab-gpu-02|1|10|24G||/hpc/home/yk206/script/face_download|
yk206|OUT_OF_MEMORY|scavenger-gpu|2023-06-02T12:07:38|2023-06-03T23:59:53|1-11:52:15|dcc-youlab-gpu-41|1|10|24G||/hpc/home/yk206/script/face_download|
bmajoros|COMPLETED|scavenger-gpu|2023-06-03T15:07:13|2023-06-03T18:01:18|02:54:05|dcc-youlab-gpu-29|1|10|20000M||/datacommons/igvf-pm/ENCODE/mutator-slurms|
bmajoros|COMPLETED|scavenger-gpu|2023-06-03T15:10:01|2023-06-03T18:04:50|02:54:49|dcc-youlab-gpu-33|1|10|20000M||/datacommons/igvf-pm/ENCODE/mutator-slurms|
bmajoros|COMPLETED|scavenger-gpu|2023-06-03T15:11:49|2023-06-03T18:11:21|02:59:32|dcc-vossenlab-gpu-03|1|10|20000M||/datacommons/igvf-pm/ENCODE/mutator-slurms|
bmajoros|COMPLETED|scavenger-gpu|2023-06-03T15:12:23|2023-06-03T18:03:58|02:51:35|dcc-motesa-gpu-02|1|6|20000M||/datacommons/igvf-pm/ENCODE/mutator-slurms|
bmajoros|COMPLETED|scavenger-gpu|2023-06-03T15:17:37|2023-06-03T18:17:27|02:59:50|dcc-youlab-gpu-31|1|10|20000M||/datacommons/igvf-pm/ENCODE/mutator-slurms|
bmajoros|COMPLETED|scavenger-gpu|2023-06-03T15:18:24|2023-06-03T18:22:19|03:03:55|dcc-motesa-gpu-03|1|6|20000M||/datacommons/igvf-pm/ENCODE/mutator-slurms|
bmajoros|COMPLETED|scavenger-gpu|2023-06-03T15:18:33|2023-06-03T18:10:41|02:52:08|dcc-youlab-gpu-02|1|10|20000M||/datacommons/igvf-pm/ENCODE/mutator-slurms|
bmajoros|COMPLETED|scavenger-gpu|2023-06-03T15:19:16|2023-06-03T18:22:49|03:03:33|dcc-motesa-gpu-04|1|6|20000M||/datacommons/igvf-pm/ENCODE/mutator-slurms|
bmajoros|COMPLETED|scavenger-gpu|2023-06-03T15:19:57|2023-06-03T18:06:57|02:47:00|dcc-youlab-gpu-35|1|10|20000M||/datacommons/igvf-pm/ENCODE/mutator-slurms|
bmajoros|COMPLETED|scavenger-gpu|2023-06-03T15:20:02|2023-06-03T18:10:26|02:50:24|dcc-youlab-gpu-19|1|10|20000M||/datacommons/igvf-pm/ENCODE/mutator-slurms|
bmajoros|COMPLETED|scavenger-gpu|2023-06-03T15:26:56|2023-06-03T18:18:44|02:51:48|dcc-youlab-gpu-10|1|10|20000M||/datacommons/igvf-pm/ENCODE/mutator-slurms|
bmajoros|COMPLETED|scavenger-gpu|2023-06-03T15:34:51|2023-06-03T18:28:53|02:54:02|dcc-youlab-gpu-05|1|10|20000M||/datacommons/igvf-pm/ENCODE/mutator-slurms|
bmajoros|COMPLETED|scavenger-gpu|2023-06-03T15:41:22|2023-06-03T18:51:15|03:09:53|dcc-mainsahlab-gpu-02|1|6|20000M||/datacommons/igvf-pm/ENCODE/mutator-slurms|
bmajoros|COMPLETED|scavenger-gpu|2023-06-03T15:43:20|2023-06-03T18:48:14|03:04:54|dcc-youlab-gpu-30|1|10|20000M||/datacommons/igvf-pm/ENCODE/mutator-slurms|
bmajoros|COMPLETED|scavenger-gpu|2023-06-03T15:46:03|2023-06-03T18:21:39|02:35:36|dcc-mainsahlab-gpu-01|1|6|20000M||/datacommons/igvf-pm/ENCODE/mutator-slurms|
bmajoros|COMPLETED|scavenger-gpu|2023-06-03T15:50:26|2023-06-03T18:56:29|03:06:03|dcc-youlab-gpu-18|1|10|20000M||/datacommons/igvf-pm/ENCODE/mutator-slurms|
bmajoros|COMPLETED|scavenger-gpu|2023-06-03T15:51:08|2023-06-03T19:20:47|03:29:39|dcc-mainsahlab-gpu-04|1|6|20000M||/datacommons/igvf-pm/ENCODE/mutator-slurms|
bmajoros|COMPLETED|scavenger-gpu|2023-06-03T16:01:38|2023-06-03T19:02:10|03:00:32|dcc-youlab-gpu-14|1|10|20000M||/datacommons/igvf-pm/ENCODE/mutator-slurms|
bmajoros|COMPLETED|scavenger-gpu|2023-06-03T16:11:45|2023-06-03T19:14:36|03:02:51|dcc-youlab-gpu-21|1|10|20000M||/datacommons/igvf-pm/ENCODE/mutator-slurms|
bmajoros|COMPLETED|scavenger-gpu|2023-06-03T16:24:06|2023-06-03T19:22:26|02:58:20|dcc-youlab-gpu-38|1|10|20000M||/datacommons/igvf-pm/ENCODE/mutator-slurms|
bmajoros|COMPLETED|scavenger-gpu|2023-06-03T16:50:16|2023-06-03T19:54:45|03:04:29|dcc-vossenlab-gpu-04|1|10|20000M||/datacommons/igvf-pm/ENCODE/mutator-slurms|
bmajoros|COMPLETED|scavenger-gpu|2023-06-03T16:50:28|2023-06-03T19:55:37|03:05:09|dcc-vossenlab-gpu-02|1|10|20000M||/datacommons/igvf-pm/ENCODE/mutator-slurms|
bmajoros|COMPLETED|scavenger-gpu|2023-06-03T17:01:21|2023-06-03T18:05:58|01:04:37|dcc-gehmlab-gpu-53|1|19|20000M||/datacommons/igvf-pm/ENCODE/mutator-slurms|
bmajoros|COMPLETED|scavenger-gpu|2023-06-03T17:06:06|2023-06-03T18:06:45|01:00:39|dcc-gehmlab-gpu-59|1|19|20000M||/datacommons/igvf-pm/ENCODE/mutator-slurms|
bmajoros|COMPLETED|scavenger-gpu|2023-06-03T17:06:28|2023-06-03T18:03:04|00:56:36|dcc-gehmlab-gpu-57|1|19|20000M||/datacommons/igvf-pm/ENCODE/mutator-slurms|
bmajoros|COMPLETED|scavenger-gpu|2023-06-03T17:11:26|2023-06-03T20:27:26|03:16:00|dcc-mainsahlab-gpu-03|1|6|20000M||/datacommons/igvf-pm/ENCODE/mutator-slurms|
bmajoros|COMPLETED|scavenger-gpu|2023-06-03T17:16:22|2023-06-03T20:10:57|02:54:35|dcc-youlab-gpu-34|1|10|20000M||/datacommons/igvf-pm/ENCODE/mutator-slurms|
bmajoros|COMPLETED|scavenger-gpu|2023-06-03T17:17:50|2023-06-03T18:26:52|01:09:02|dcc-gehmlab-gpu-58|1|19|20000M||/datacommons/igvf-pm/ENCODE/mutator-slurms|
bmajoros|COMPLETED|scavenger-gpu|2023-06-03T17:22:16|2023-06-03T20:31:54|03:09:38|dcc-youlab-gpu-08|1|10|20000M||/datacommons/igvf-pm/ENCODE/mutator-slurms|
bmajoros|COMPLETED|scavenger-gpu|2023-06-03T17:31:52|2023-06-03T20:08:25|02:36:33|dcc-ultrasound-gpu-03|1|19|20000M||/datacommons/igvf-pm/ENCODE/mutator-slurms|
bmajoros|COMPLETED|scavenger-gpu|2023-06-03T17:39:03|2023-06-03T20:23:00|02:43:57|dcc-youlab-gpu-43|1|10|20000M||/datacommons/igvf-pm/ENCODE/mutator-slurms|
bmajoros|COMPLETED|scavenger-gpu|2023-06-03T17:41:38|2023-06-03T20:34:23|02:52:45|dcc-youlab-gpu-24|1|10|20000M||/datacommons/igvf-pm/ENCODE/mutator-slurms|
bmajoros|COMPLETED|scavenger-gpu|2023-06-03T17:42:47|2023-06-03T20:36:28|02:53:41|dcc-youlab-gpu-09|1|10|20000M||/datacommons/igvf-pm/ENCODE/mutator-slurms|
bmajoros|COMPLETED|scavenger-gpu|2023-06-03T17:43:08|2023-06-03T20:37:47|02:54:39|dcc-youlab-gpu-23|1|10|20000M||/datacommons/igvf-pm/ENCODE/mutator-slurms|
bmajoros|COMPLETED|scavenger-gpu|2023-06-03T17:56:38|2023-06-03T20:24:06|02:27:28|dcc-ultrasound-gpu-01|1|19|20000M||/datacommons/igvf-pm/ENCODE/mutator-slurms|
bmajoros|COMPLETED|scavenger-gpu|2023-06-03T17:57:24|2023-06-03T19:05:43|01:08:19|dcc-rekerlab-gpu-01|1|8|20000M||/datacommons/igvf-pm/ENCODE/mutator-slurms|
bmajoros|COMPLETED|scavenger-gpu|2023-06-03T18:01:18|2023-06-03T21:06:07|03:04:49|dcc-youlab-gpu-29|1|10|20000M||/datacommons/igvf-pm/ENCODE/mutator-slurms|
bmajoros|COMPLETED|scavenger-gpu|2023-06-03T18:03:06|2023-06-03T18:26:56|00:23:50|dcc-gehmlab-gpu-60|1|19|20000M||/datacommons/igvf-pm/ENCODE/mutator-slurms|
bmajoros|COMPLETED|scavenger-gpu|2023-06-03T18:03:59|2023-06-03T21:03:02|02:59:03|dcc-motesa-gpu-02|1|6|20000M||/datacommons/igvf-pm/ENCODE/mutator-slurms|
bmajoros|COMPLETED|scavenger-gpu|2023-06-03T18:04:51|2023-06-03T21:11:56|03:07:05|dcc-youlab-gpu-33|1|10|20000M||/datacommons/igvf-pm/ENCODE/mutator-slurms|
bmajoros|COMPLETED|scavenger-gpu|2023-06-03T18:05:58|2023-06-03T19:06:13|01:00:15|dcc-gehmlab-gpu-57|1|19|20000M||/datacommons/igvf-pm/ENCODE/mutator-slurms|
bmajoros|COMPLETED|scavenger-gpu|2023-06-03T18:06:46|2023-06-03T19:10:46|01:04:00|dcc-gehmlab-gpu-59|1|19|20000M||/datacommons/igvf-pm/ENCODE/mutator-slurms|
bmajoros|COMPLETED|scavenger-gpu|2023-06-03T18:06:57|2023-06-03T21:03:26|02:56:29|dcc-youlab-gpu-35|1|10|20000M||/datacommons/igvf-pm/ENCODE/mutator-slurms|
bmajoros|COMPLETED|scavenger-gpu|2023-06-03T18:10:26|2023-06-03T20:51:28|02:41:02|dcc-youlab-gpu-19|1|10|20000M||/datacommons/igvf-pm/ENCODE/mutator-slurms|
bmajoros|COMPLETED|scavenger-gpu|2023-06-03T18:10:42|2023-06-03T21:04:39|02:53:57|dcc-youlab-gpu-02|1|10|20000M||/datacommons/igvf-pm/ENCODE/mutator-slurms|
bmajoros|COMPLETED|scavenger-gpu|2023-06-03T18:11:21|2023-06-03T21:11:50|03:00:29|dcc-vossenlab-gpu-03|1|10|20000M||/datacommons/igvf-pm/ENCODE/mutator-slurms|
bmajoros|COMPLETED|scavenger-gpu|2023-06-03T18:17:28|2023-06-03T21:08:53|02:51:25|dcc-youlab-gpu-31|1|10|20000M||/datacommons/igvf-pm/ENCODE/mutator-slurms|
bmajoros|COMPLETED|scavenger-gpu|2023-06-03T18:18:44|2023-06-03T21:13:13|02:54:29|dcc-youlab-gpu-10|1|10|20000M||/datacommons/igvf-pm/ENCODE/mutator-slurms|
bmajoros|COMPLETED|scavenger-gpu|2023-06-03T18:21:41|2023-06-03T21:45:54|03:24:13|dcc-mainsahlab-gpu-01|1|6|20000M||/datacommons/igvf-pm/ENCODE/mutator-slurms|
bmajoros|COMPLETED|scavenger-gpu|2023-06-03T18:22:20|2023-06-03T21:29:56|03:07:36|dcc-motesa-gpu-03|1|6|20000M||/datacommons/igvf-pm/ENCODE/mutator-slurms|
bmajoros|COMPLETED|scavenger-gpu|2023-06-03T18:22:49|2023-06-03T21:20:52|02:58:03|dcc-motesa-gpu-04|1|6|20000M||/datacommons/igvf-pm/ENCODE/mutator-slurms|
bmajoros|COMPLETED|scavenger-gpu|2023-06-03T18:26:54|2023-06-03T19:33:41|01:06:47|dcc-gehmlab-gpu-58|1|19|20000M||/datacommons/igvf-pm/ENCODE/mutator-slurms|
bmajoros|COMPLETED|scavenger-gpu|2023-06-03T18:26:56|2023-06-03T18:51:27|00:24:31|dcc-gehmlab-gpu-60|1|19|20000M||/datacommons/igvf-pm/ENCODE/mutator-slurms|
bmajoros|COMPLETED|scavenger-gpu|2023-06-03T18:28:53|2023-06-03T21:17:49|02:48:56|dcc-youlab-gpu-05|1|10|20000M||/datacommons/igvf-pm/ENCODE/mutator-slurms|
bmajoros|COMPLETED|scavenger-gpu|2023-06-03T18:48:14|2023-06-03T21:46:57|02:58:43|dcc-youlab-gpu-30|1|10|20000M||/datacommons/igvf-pm/ENCODE/mutator-slurms|
bmajoros|PREEMPTED|scavenger-gpu|2023-06-03T18:51:15|2023-06-03T21:47:49|02:56:34|dcc-mainsahlab-gpu-02|1|6|20000M||/datacommons/igvf-pm/ENCODE/mutator-slurms|
bmajoros|COMPLETED|scavenger-gpu|2023-06-03T18:51:28|2023-06-03T19:14:21|00:22:53|dcc-gehmlab-gpu-60|1|19|20000M||/datacommons/igvf-pm/ENCODE/mutator-slurms|
bmajoros|COMPLETED|scavenger-gpu|2023-06-03T18:56:30|2023-06-03T21:58:50|03:02:20|dcc-youlab-gpu-18|1|10|20000M||/datacommons/igvf-pm/ENCODE/mutator-slurms|
bmajoros|COMPLETED|scavenger-gpu|2023-06-03T19:02:12|2023-06-03T22:11:07|03:08:55|dcc-youlab-gpu-14|1|10|20000M||/datacommons/igvf-pm/ENCODE/mutator-slurms|
bmajoros|COMPLETED|scavenger-gpu|2023-06-03T19:05:44|2023-06-03T20:04:07|00:58:23|dcc-rekerlab-gpu-01|1|8|20000M||/datacommons/igvf-pm/ENCODE/mutator-slurms|
bmajoros|COMPLETED|scavenger-gpu|2023-06-03T19:06:14|2023-06-03T20:13:05|01:06:51|dcc-gehmlab-gpu-57|1|19|20000M||/datacommons/igvf-pm/ENCODE/mutator-slurms|
bmajoros|COMPLETED|scavenger-gpu|2023-06-03T19:10:46|2023-06-03T20:17:48|01:07:02|dcc-gehmlab-gpu-59|1|19|20000M||/datacommons/igvf-pm/ENCODE/mutator-slurms|
bmajoros|COMPLETED|scavenger-gpu|2023-06-03T19:14:21|2023-06-03T19:39:22|00:25:01|dcc-gehmlab-gpu-60|1|19|20000M||/datacommons/igvf-pm/ENCODE/mutator-slurms|
bmajoros|COMPLETED|scavenger-gpu|2023-06-03T19:14:36|2023-06-03T22:17:32|03:02:56|dcc-youlab-gpu-21|1|10|20000M||/datacommons/igvf-pm/ENCODE/mutator-slurms|
bmajoros|PREEMPTED|scavenger-gpu|2023-06-03T19:20:49|2023-06-03T21:47:56|02:27:07|dcc-mainsahlab-gpu-04|1|6|20000M||/datacommons/igvf-pm/ENCODE/mutator-slurms|
bmajoros|COMPLETED|scavenger-gpu|2023-06-03T19:22:28|2023-06-03T22:21:15|02:58:47|dcc-youlab-gpu-38|1|10|20000M||/datacommons/igvf-pm/ENCODE/mutator-slurms|
bmajoros|COMPLETED|scavenger-gpu|2023-06-03T19:33:24|2023-06-04T00:20:27|04:47:03|dcc-ece-gpu-03|1|13|20000M||/datacommons/igvf-pm/ENCODE/mutator-slurms|
bmajoros|COMPLETED|scavenger-gpu|2023-06-03T19:33:42|2023-06-03T20:38:52|01:05:10|dcc-gehmlab-gpu-58|1|19|20000M||/datacommons/igvf-pm/ENCODE/mutator-slurms|
bmajoros|COMPLETED|scavenger-gpu|2023-06-03T19:39:22|2023-06-03T20:02:46|00:23:24|dcc-gehmlab-gpu-60|1|19|20000M||/datacommons/igvf-pm/ENCODE/mutator-slurms|
bmajoros|COMPLETED|scavenger-gpu|2023-06-03T19:54:47|2023-06-03T23:03:29|03:08:42|dcc-vossenlab-gpu-04|1|10|20000M||/datacommons/igvf-pm/ENCODE/mutator-slurms|
bmajoros|COMPLETED|scavenger-gpu|2023-06-03T19:55:37|2023-06-03T22:55:21|02:59:44|dcc-vossenlab-gpu-02|1|10|20000M||/datacommons/igvf-pm/ENCODE/mutator-slurms|
bmajoros|COMPLETED|scavenger-gpu|2023-06-03T20:02:47|2023-06-03T20:25:12|00:22:25|dcc-gehmlab-gpu-60|1|19|20000M||/datacommons/igvf-pm/ENCODE/mutator-slurms|
bmajoros|COMPLETED|scavenger-gpu|2023-06-03T20:04:08|2023-06-03T21:08:52|01:04:44|dcc-rekerlab-gpu-01|1|8|20000M||/datacommons/igvf-pm/ENCODE/mutator-slurms|
bgb13|PREEMPTED|scavenger-gpu|2023-06-02T14:38:49|2023-06-05T10:11:14|2-19:32:25|dcc-gehmlab-gpu-01|1|16|10G||/hpc/group/dukenmr/bgb13/cyp51b_phosphorylated_S451/./.|
bmajoros|COMPLETED|scavenger-gpu|2023-06-03T20:08:25|2023-06-03T22:28:06|02:19:41|dcc-ultrasound-gpu-03|1|19|20000M||/datacommons/igvf-pm/ENCODE/mutator-slurms|
yk206|COMPLETED|scavenger-gpu|2023-06-02T21:30:35|2023-06-03T20:15:58|22:45:23|dcc-youlab-gpu-44|1|10|24G||/hpc/home/yk206/script/face_download|
yk206|OUT_OF_MEMORY|scavenger-gpu|2023-06-03T01:18:00|2023-06-03T20:59:46|19:41:46|dcc-youlab-gpu-07|1|10|24G||/hpc/home/yk206/script/face_download|
bmajoros|COMPLETED|scavenger-gpu|2023-06-03T20:10:57|2023-06-03T23:25:28|03:14:31|dcc-youlab-gpu-34|1|10|20000M||/datacommons/igvf-pm/ENCODE/mutator-slurms|
yw564|TIMEOUT|scavenger-gpu|2023-06-03T03:27:20|2023-06-10T03:27:20|7-00:00:00|dcc-youlab-gpu-01|1|2|50G||/hpc/group/jilab|
yx240|COMPLETED|scavenger-gpu|2023-06-03T05:29:27|2023-06-04T10:16:01|1-04:46:34|dcc-gehmlab-gpu-51|1|19|2G||/work/yx240/project-martini/simutools/sor-urs|
yx240|COMPLETED|scavenger-gpu|2023-06-03T05:29:27|2023-06-03T21:35:46|16:06:19|dcc-gehmlab-gpu-49|1|19|2G||/work/yx240/project-martini/simutools/sor-urs|
yx240|COMPLETED|scavenger-gpu|2023-06-03T05:29:27|2023-06-04T18:26:15|1-12:56:48|dcc-gehmlab-gpu-48|1|19|2G||/work/yx240/project-martini/simutools/sor-urs|
yx240|COMPLETED|scavenger-gpu|2023-06-03T05:29:27|2023-06-04T09:09:29|1-03:40:02|dcc-gehmlab-gpu-44|1|19|2G||/work/yx240/project-martini/simutools/sor-urs|
yx240|COMPLETED|scavenger-gpu|2023-06-03T06:23:12|2023-06-04T12:07:57|1-05:44:45|dcc-gehmlab-gpu-55|1|19|2G||/work/yx240/project-martini/simutools/sor-cr|
yx240|COMPLETED|scavenger-gpu|2023-06-03T06:23:12|2023-06-04T13:13:16|1-06:50:04|dcc-gehmlab-gpu-52|1|19|2G||/work/yx240/project-martini/simutools/sor-cr|
yx240|COMPLETED|scavenger-gpu|2023-06-03T06:23:12|2023-06-05T00:49:09|1-18:25:57|dcc-gehmlab-gpu-50|1|19|2G||/work/yx240/project-martini/simutools/sor-cr|
yx240|COMPLETED|scavenger-gpu|2023-06-03T06:23:12|2023-06-04T16:21:43|1-09:58:31|dcc-gehmlab-gpu-47|1|19|2G||/work/yx240/project-martini/simutools/sor-cr|
yk206|OUT_OF_MEMORY|scavenger-gpu|2023-06-03T11:00:29|2023-06-04T01:32:30|14:32:01|dcc-allenlab-gpu-04|1|10|24G||/hpc/home/yk206/script/face_download|
yk206|COMPLETED|scavenger-gpu|2023-06-03T11:00:29|2023-06-03T23:41:49|12:41:20|dcc-pbenfeylab-gpu-01|1|10|24G||/hpc/home/yk206/script/face_download|
yk206|COMPLETED|scavenger-gpu|2023-06-03T11:00:29|2023-06-04T11:09:47|1-00:09:18|dcc-pbenfeylab-gpu-04|1|10|24G||/hpc/home/yk206/script/face_download|
yk206|COMPLETED|scavenger-gpu|2023-06-03T11:00:29|2023-06-04T00:36:46|13:36:17|dcc-carlsonlab-gpu-18|1|10|24G||/hpc/home/yk206/script/face_download|
yk206|OUT_OF_MEMORY|scavenger-gpu|2023-06-03T11:00:29|2023-06-04T06:11:20|19:10:51|dcc-carlsonlab-gpu-19|1|10|24G||/hpc/home/yk206/script/face_download|
yk206|COMPLETED|scavenger-gpu|2023-06-03T11:00:29|2023-06-03T23:13:29|12:13:00|dcc-biostat-gpu-02|1|22|24G||/hpc/home/yk206/script/face_download|
yk206|PREEMPTED|scavenger-gpu|2023-06-03T11:00:29|2023-06-04T13:33:45|1-02:33:16|dcc-viplab-gpu-01|1|92|24G||/hpc/home/yk206/script/face_download|
yk206|COMPLETED|scavenger-gpu|2023-06-03T11:25:47|2023-06-04T03:29:39|16:03:52|dcc-allenlab-gpu-01|1|10|24G||/hpc/home/yk206/script/face_download|
yk206|COMPLETED|scavenger-gpu|2023-06-03T12:30:40|2023-06-04T04:48:42|16:18:02|dcc-carlsonlab-gpu-20|1|10|24G||/hpc/home/yk206/script/face_download|
yk206|OUT_OF_MEMORY|scavenger-gpu|2023-06-03T12:37:21|2023-06-04T08:25:19|19:47:58|dcc-youlab-gpu-37|1|10|24G||/hpc/home/yk206/script/face_download|
yk206|COMPLETED|scavenger-gpu|2023-06-03T13:01:58|2023-06-03T20:27:27|07:25:29|dcc-vossenlab-gpu-01|1|10|24G||/hpc/home/yk206/script/face_download|
yk206|COMPLETED|scavenger-gpu|2023-06-03T13:42:55|2023-06-03T21:55:27|08:12:32|dcc-youlab-gpu-28|1|10|24G||/hpc/home/yk206/script/face_download|
yk206|COMPLETED|scavenger-gpu|2023-06-03T14:53:50|2023-06-04T00:26:45|09:32:55|dcc-youlab-gpu-03|1|10|24G||/hpc/home/yk206/script/face_download|
yk206|COMPLETED|scavenger-gpu|2023-06-03T15:10:33|2023-06-04T03:18:05|12:07:32|dcc-youlab-gpu-13|1|10|24G||/hpc/home/yk206/script/face_download|
yk206|OUT_OF_MEMORY|scavenger-gpu|2023-06-03T17:17:11|2023-06-04T07:53:21|14:36:10|dcc-youlab-gpu-11|1|10|24G||/hpc/home/yk206/script/face_download|
yk206|COMPLETED|scavenger-gpu|2023-06-03T17:18:46|2023-06-04T08:03:04|14:44:18|dcc-carlsonlab-gpu-17|1|10|24G||/hpc/home/yk206/script/face_download|
yk206|COMPLETED|scavenger-gpu|2023-06-03T17:18:51|2023-06-04T10:53:23|17:34:32|dcc-allenlab-gpu-03|1|10|24G||/hpc/home/yk206/script/face_download|
yk206|COMPLETED|scavenger-gpu|2023-06-03T17:35:29|2023-06-04T23:08:40|1-05:33:11|dcc-pbenfeylab-gpu-03|1|10|24G||/hpc/home/yk206/script/face_download|
bmajoros|COMPLETED|scavenger-gpu|2023-06-03T20:13:05|2023-06-03T21:13:40|01:00:35|dcc-gehmlab-gpu-57|1|19|20000M||/datacommons/igvf-pm/ENCODE/mutator-slurms|
yw564|TIMEOUT|scavenger-gpu|2023-06-03T14:43:42|2023-06-10T14:43:47|7-00:00:05|dcc-youlab-gpu-01|1|2|50G||/hpc/group/jilab|
hk276|FAILED|scavenger-gpu|2023-06-03T15:19:09|2023-06-03T22:00:32|06:41:23|dcc-carlsonlab-gpu-15|1|10|60000M||/hpc/group/tdunn|
yk206|COMPLETED|scavenger-gpu|2023-06-03T20:15:58|2023-06-04T21:36:28|1-01:20:30|dcc-youlab-gpu-44|1|10|24G||/hpc/home/yk206/script/face_download|
bmajoros|COMPLETED|scavenger-gpu|2023-06-03T20:18:13|2023-06-03T21:20:31|01:02:18|dcc-gehmlab-gpu-59|1|19|20000M||/datacommons/igvf-pm/ENCODE/mutator-slurms|
jhw23|PREEMPTED|scavenger-gpu|2023-06-03T16:14:39|2023-06-03T19:58:56|03:44:17|dcc-tdunn-gpu-01|1|10|60000M||/hpc/group/tdunn/joshwu/dappy/augmentations|
bmajoros|COMPLETED|scavenger-gpu|2023-06-03T20:23:10|2023-06-03T21:32:42|01:09:32|dcc-chsi-gpu-01|1|6|20000M||/datacommons/igvf-pm/ENCODE/mutator-slurms|
hk276|FAILED|scavenger-gpu|2023-06-03T16:42:18|2023-06-03T22:00:31|05:18:13|dcc-gehmlab-gpu-05|1|10|60000M||/hpc/group/tdunn|
bmajoros|COMPLETED|scavenger-gpu|2023-06-03T20:24:06|2023-06-03T22:57:23|02:33:17|dcc-ultrasound-gpu-01|1|19|20000M||/datacommons/igvf-pm/ENCODE/mutator-slurms|
hk276|CANCELLED by 1460377|scavenger-gpu|2023-06-03T17:13:24|2023-06-04T17:26:35|1-00:13:11|dcc-biostat-gpu-01|1|12|150000M||/hpc/group/tdunn/hk276/dappy/dappy|
hk276|CANCELLED by 1460377|scavenger-gpu|2023-06-03T17:14:20|2023-06-03T18:29:25|01:15:05|dcc-tdunn-gpu-02|1|12|150000M||/hpc/group/tdunn/hk276/dappy/dappy|
yk206|OUT_OF_MEMORY|scavenger-gpu|2023-06-03T20:23:01|2023-06-04T08:28:48|12:05:47|dcc-youlab-gpu-43|1|10|24G||/hpc/home/yk206/script/face_download|
sa400|COMPLETED|scavenger-gpu|2023-06-03T17:58:40|2023-06-03T18:06:40|00:08:00|dcc-youlab-gpu-01|1|1|10G||/hpc/home/sa400/research/SDF-HF/code/revision_sdf_oos|
sa400|COMPLETED|scavenger-gpu|2023-06-03T17:58:40|2023-06-03T18:06:38|00:07:58|dcc-youlab-gpu-01|1|1|10G||/hpc/home/sa400/research/SDF-HF/code/revision_sdf_oos|
sa400|COMPLETED|scavenger-gpu|2023-06-03T17:58:40|2023-06-03T18:08:12|00:09:32|dcc-tdunn-gpu-02|1|1|10G||/hpc/home/sa400/research/SDF-HF/code/revision_sdf_oos|
sa400|COMPLETED|scavenger-gpu|2023-06-03T17:58:40|2023-06-03T18:08:07|00:09:27|dcc-tdunn-gpu-02|1|1|10G||/hpc/home/sa400/research/SDF-HF/code/revision_sdf_oos|
sa400|COMPLETED|scavenger-gpu|2023-06-03T17:58:41|2023-06-03T18:05:53|00:07:12|dcc-tdunn-gpu-02|1|1|10G||/hpc/home/sa400/research/SDF-HF/code/revision_sdf_oos|
sa400|COMPLETED|scavenger-gpu|2023-06-03T17:58:41|2023-06-03T18:06:02|00:07:21|dcc-tdunn-gpu-01|1|1|10G||/hpc/home/sa400/research/SDF-HF/code/revision_sdf_oos|
sa400|COMPLETED|scavenger-gpu|2023-06-03T17:58:41|2023-06-03T18:05:51|00:07:10|dcc-tdunn-gpu-01|1|1|10G||/hpc/home/sa400/research/SDF-HF/code/revision_sdf_oos|
sa400|COMPLETED|scavenger-gpu|2023-06-03T17:58:41|2023-06-03T18:05:56|00:07:15|dcc-tdunn-gpu-01|1|1|10G||/hpc/home/sa400/research/SDF-HF/code/revision_sdf_oos|
sa400|COMPLETED|scavenger-gpu|2023-06-03T17:58:41|2023-06-03T18:14:42|00:16:01|dcc-gehmlab-gpu-56|1|1|10G||/hpc/home/sa400/research/SDF-HF/code/revision_sdf_oos|
sa400|COMPLETED|scavenger-gpu|2023-06-03T17:58:41|2023-06-03T18:14:30|00:15:49|dcc-gehmlab-gpu-54|1|1|10G||/hpc/home/sa400/research/SDF-HF/code/revision_sdf_oos|
sa400|COMPLETED|scavenger-gpu|2023-06-03T17:58:41|2023-06-03T18:14:25|00:15:44|dcc-gehmlab-gpu-46|1|1|10G||/hpc/home/sa400/research/SDF-HF/code/revision_sdf_oos|
sa400|COMPLETED|scavenger-gpu|2023-06-03T17:58:41|2023-06-03T18:14:29|00:15:48|dcc-gehmlab-gpu-45|1|1|10G||/hpc/home/sa400/research/SDF-HF/code/revision_sdf_oos|
sa400|COMPLETED|scavenger-gpu|2023-06-03T17:58:41|2023-06-03T18:14:21|00:15:40|dcc-gehmlab-gpu-43|1|1|10G||/hpc/home/sa400/research/SDF-HF/code/revision_sdf_oos|
sa400|COMPLETED|scavenger-gpu|2023-06-03T17:58:41|2023-06-03T18:14:36|00:15:55|dcc-gehmlab-gpu-42|1|1|10G||/hpc/home/sa400/research/SDF-HF/code/revision_sdf_oos|
sa400|COMPLETED|scavenger-gpu|2023-06-03T17:58:41|2023-06-03T18:14:35|00:15:54|dcc-gehmlab-gpu-41|1|1|10G||/hpc/home/sa400/research/SDF-HF/code/revision_sdf_oos|
sa400|COMPLETED|scavenger-gpu|2023-06-03T17:58:41|2023-06-03T18:14:17|00:15:36|dcc-gehmlab-gpu-40|1|1|10G||/hpc/home/sa400/research/SDF-HF/code/revision_sdf_oos|
sa400|COMPLETED|scavenger-gpu|2023-06-03T17:58:41|2023-06-03T18:08:46|00:10:05|dcc-gehmlab-gpu-39|1|1|10G||/hpc/home/sa400/research/SDF-HF/code/revision_sdf_oos|
sa400|COMPLETED|scavenger-gpu|2023-06-03T17:58:41|2023-06-03T18:08:38|00:09:57|dcc-gehmlab-gpu-38|1|1|10G||/hpc/home/sa400/research/SDF-HF/code/revision_sdf_oos|
sa400|COMPLETED|scavenger-gpu|2023-06-03T17:58:41|2023-06-03T18:08:50|00:10:09|dcc-gehmlab-gpu-37|1|1|10G||/hpc/home/sa400/research/SDF-HF/code/revision_sdf_oos|
sa400|COMPLETED|scavenger-gpu|2023-06-03T17:58:41|2023-06-03T18:08:47|00:10:06|dcc-gehmlab-gpu-36|1|1|10G||/hpc/home/sa400/research/SDF-HF/code/revision_sdf_oos|
sa400|COMPLETED|scavenger-gpu|2023-06-03T17:58:41|2023-06-03T18:08:42|00:10:01|dcc-gehmlab-gpu-35|1|1|10G||/hpc/home/sa400/research/SDF-HF/code/revision_sdf_oos|
sa400|COMPLETED|scavenger-gpu|2023-06-03T17:58:41|2023-06-03T18:08:44|00:10:03|dcc-gehmlab-gpu-34|1|1|10G||/hpc/home/sa400/research/SDF-HF/code/revision_sdf_oos|
sa400|COMPLETED|scavenger-gpu|2023-06-03T17:58:41|2023-06-03T18:09:16|00:10:35|dcc-gehmlab-gpu-33|1|1|10G||/hpc/home/sa400/research/SDF-HF/code/revision_sdf_oos|
sa400|COMPLETED|scavenger-gpu|2023-06-03T17:58:42|2023-06-03T18:15:40|00:16:58|dcc-gehmlab-gpu-32|1|1|10G||/hpc/home/sa400/research/SDF-HF/code/revision_sdf_oos|
sa400|COMPLETED|scavenger-gpu|2023-06-03T17:58:42|2023-06-03T18:15:38|00:16:56|dcc-gehmlab-gpu-31|1|1|10G||/hpc/home/sa400/research/SDF-HF/code/revision_sdf_oos|
sa400|COMPLETED|scavenger-gpu|2023-06-03T17:58:42|2023-06-03T18:15:44|00:17:02|dcc-gehmlab-gpu-30|1|1|10G||/hpc/home/sa400/research/SDF-HF/code/revision_sdf_oos|
sa400|COMPLETED|scavenger-gpu|2023-06-03T17:58:42|2023-06-03T18:15:40|00:16:58|dcc-gehmlab-gpu-29|1|1|10G||/hpc/home/sa400/research/SDF-HF/code/revision_sdf_oos|
sa400|COMPLETED|scavenger-gpu|2023-06-03T17:58:42|2023-06-03T18:15:47|00:17:05|dcc-gehmlab-gpu-28|1|1|10G||/hpc/home/sa400/research/SDF-HF/code/revision_sdf_oos|
sa400|COMPLETED|scavenger-gpu|2023-06-03T17:58:42|2023-06-03T18:15:38|00:16:56|dcc-gehmlab-gpu-27|1|1|10G||/hpc/home/sa400/research/SDF-HF/code/revision_sdf_oos|
sa400|COMPLETED|scavenger-gpu|2023-06-03T17:58:42|2023-06-03T18:15:38|00:16:56|dcc-gehmlab-gpu-26|1|1|10G||/hpc/home/sa400/research/SDF-HF/code/revision_sdf_oos|
sa400|COMPLETED|scavenger-gpu|2023-06-03T17:58:42|2023-06-03T18:15:48|00:17:06|dcc-gehmlab-gpu-25|1|1|10G||/hpc/home/sa400/research/SDF-HF/code/revision_sdf_oos|
sa400|COMPLETED|scavenger-gpu|2023-06-03T17:58:42|2023-06-03T18:15:35|00:16:53|dcc-gehmlab-gpu-24|1|1|10G||/hpc/home/sa400/research/SDF-HF/code/revision_sdf_oos|
