yk206|TIMEOUT|scavenger-gpu|2023-05-07T13:08:05|2023-05-14T13:08:33|7-00:00:28|dcc-motesa-gpu-04|1|6|12G||/hpc/home/yk206/script|
yk206|TIMEOUT|scavenger-gpu|2023-05-07T13:08:05|2023-05-14T13:08:33|7-00:00:28|dcc-motesa-gpu-01|1|6|12G||/hpc/home/yk206/script|
kw297|CANCELLED by 1215097|scavenger-gpu|2023-05-10T23:59:14|2023-05-12T12:23:59|1-12:24:45|dcc-motesa-gpu-03|1|4|20G||/hpc/group/ychenlab/DA|
kl371|TIMEOUT|scavenger-gpu|2023-05-11T08:38:32|2023-05-12T08:38:56|1-00:00:24|dcc-dhvi-gpu-01|1|8|64G||/hpc/home/kl371/ondemand/data/sys/dashboard/batch_connect/sys/bc_jupyter/output/695688f2-8392-4417-b46c-515f761aa920|
kl371|TIMEOUT|scavenger-gpu|2023-05-11T08:46:08|2023-05-14T08:46:37|3-00:00:29|dcc-mastatlab-gpu-01|1|8|64G||/hpc/home/kl371/ondemand/data/sys/dashboard/batch_connect/sys/bc_jupyter/output/2e3a3297-9e34-42a2-9e28-1bf9489d2508|
xz284|COMPLETED|scavenger-gpu|2023-05-11T12:13:56|2023-05-12T03:56:44|15:42:48|dcc-biostat-gpu-02|1|8|64G||/hpc/group/motesa/Risk_Aware_SCUC_Model/Prelim/CT=0_RAT=1_New/RAS-EMS/beta=0.8/historical|
xz284|COMPLETED|scavenger-gpu|2023-05-11T12:14:27|2023-05-12T04:34:10|16:19:43|dcc-brownlab-gpu-04|1|8|64G||/hpc/group/motesa/Risk_Aware_SCUC_Model/Prelim/CT=0_RAT=1_New/RAS-EMS/beta=0.8/extreme|
xz284|COMPLETED|scavenger-gpu|2023-05-11T12:14:39|2023-05-12T03:10:11|14:55:32|dcc-collinslab-gpu-03|1|8|64G||/hpc/group/motesa/Risk_Aware_SCUC_Model/Prelim/CT=0_RAT=1_New/RAS-EMS/beta=0.8/extreme|
xz284|COMPLETED|scavenger-gpu|2023-05-11T12:14:41|2023-05-12T03:44:22|15:29:41|dcc-collinslab-gpu-04|1|8|64G||/hpc/group/motesa/Risk_Aware_SCUC_Model/Prelim/CT=0_RAT=1_New/RAS-EMS/beta=0.8/extreme|
xz284|COMPLETED|scavenger-gpu|2023-05-11T12:14:46|2023-05-12T03:32:33|15:17:47|dcc-collinslab-gpu-02|1|8|64G||/hpc/group/motesa/Risk_Aware_SCUC_Model/Prelim/CT=0_RAT=1_New/RAS-EMS/beta=0.8/extreme|
xz284|COMPLETED|scavenger-gpu|2023-05-11T19:54:56|2023-05-12T09:01:32|13:06:36|dcc-brunellab-gpu-01|1|8|64G||/hpc/group/motesa/Risk_Aware_SCUC_Model/Prelim/CT=0_RAT=1_New/RAS-EMS/beta=0.8/historical|
xz284|COMPLETED|scavenger-gpu|2023-05-11T20:23:41|2023-05-12T07:36:07|11:12:26|dcc-rekerlab-gpu-01|1|8|64G||/hpc/group/motesa/Risk_Aware_SCUC_Model/Prelim/CT=0_RAT=1_New/RAS-EMS/beta=0.8/historical|
yk206|COMPLETED|scavenger-gpu|2023-05-11T20:28:39|2023-05-12T04:13:42|07:45:03|dcc-youlab-gpu-07|1|10|24G||/hpc/home/yk206/script/face_download|
dl370|CANCELLED by 1495203|scavenger-gpu|2023-05-11T21:01:39|2023-05-12T11:33:10|14:31:31|dcc-vossenlab-gpu-04|1|10|2G||/work/dl370|
jrl78|PREEMPTED|scavenger-gpu|2023-05-11T21:01:41|2023-05-12T12:11:36|15:09:55|dcc-ultrasound-gpu-03|1|19|2G||/work/jrl78/Nanoparticles/JawBreakers/Big Library/run2|
pkk16|TIMEOUT|scavenger-gpu|2023-05-11T21:01:47|2023-05-12T21:02:13|1-00:00:26|dcc-mastatlab-gpu-01|1|2|100G||/hpc/home/pkk16/ondemand/data/sys/dashboard/batch_connect/sys/bc_jupyter/output/89a1f51e-c11d-43c8-b786-ea07c46a9763|
yx240|COMPLETED|scavenger-gpu|2023-05-11T21:02:16|2023-05-12T05:57:14|08:54:58|dcc-gehmlab-gpu-58|1|19|2G||/work/yx240/project-martini/simutools/scripts|
yx240|CANCELLED by 1495323|scavenger-gpu|2023-05-11T21:02:16|2023-05-12T07:41:43|10:39:27|dcc-gehmlab-gpu-57|1|19|2G||/work/yx240/project-martini/simutools/scripts|
yx240|CANCELLED by 1495323|scavenger-gpu|2023-05-11T21:02:17|2023-05-12T07:41:43|10:39:26|dcc-gehmlab-gpu-55|1|19|2G||/work/yx240/project-martini/simutools/scripts|
yx240|CANCELLED by 1495323|scavenger-gpu|2023-05-11T21:02:17|2023-05-12T07:41:43|10:39:26|dcc-gehmlab-gpu-54|1|19|2G||/work/yx240/project-martini/simutools/scripts|
yx240|CANCELLED by 1495323|scavenger-gpu|2023-05-11T21:02:17|2023-05-12T07:41:43|10:39:26|dcc-gehmlab-gpu-53|1|19|2G||/work/yx240/project-martini/simutools/scripts|
yx240|CANCELLED by 1495323|scavenger-gpu|2023-05-11T21:02:47|2023-05-12T07:41:43|10:38:56|dcc-gehmlab-gpu-52|1|19|2G||/work/yx240/project-martini/simutools/scripts|
yx240|COMPLETED|scavenger-gpu|2023-05-11T21:02:48|2023-05-12T05:59:14|08:56:26|dcc-gehmlab-gpu-50|1|19|2G||/work/yx240/project-martini/simutools/scripts|
yx240|COMPLETED|scavenger-gpu|2023-05-11T21:02:48|2023-05-12T05:41:35|08:38:47|dcc-gehmlab-gpu-48|1|19|2G||/work/yx240/project-martini/simutools/scripts|
yk206|COMPLETED|scavenger-gpu|2023-05-11T21:09:48|2023-05-12T05:40:05|08:30:17|dcc-youlab-gpu-03|1|10|24G||/hpc/home/yk206/script/face_download|
lh342|PREEMPTED|scavenger-gpu|2023-05-11T21:36:39|2023-05-12T07:00:44|09:24:05|dcc-youlab-gpu-34|1|10|24G||/hpc/home/lh342/MMVAE|
lh342|FAILED|scavenger-gpu|2023-05-11T21:44:17|2023-05-12T09:41:12|11:56:55|dcc-pbenfeylab-gpu-01|1|10|24G||/hpc/home/lh342/MMVAE|
lh342|FAILED|scavenger-gpu|2023-05-11T21:46:38|2023-05-12T12:45:46|14:59:08|dcc-allenlab-gpu-02|1|10|24G||/hpc/home/lh342/MMVAE|
lh342|FAILED|scavenger-gpu|2023-05-11T21:49:07|2023-05-12T09:35:08|11:46:01|dcc-allenlab-gpu-03|1|10|24G||/hpc/home/lh342/MMVAE|
lh342|FAILED|scavenger-gpu|2023-05-11T21:58:21|2023-05-12T09:37:13|11:38:52|dcc-allenlab-gpu-04|1|10|24G||/hpc/home/lh342/MMVAE|
lh342|PREEMPTED|scavenger-gpu|2023-05-11T22:03:05|2023-05-12T07:46:00|09:42:55|dcc-youlab-gpu-05|1|10|24G||/hpc/home/lh342/MMVAE|
lh342|FAILED|scavenger-gpu|2023-05-11T23:31:24|2023-05-12T10:47:34|11:16:10|dcc-dhvi-gpu-08|1|10|24G||/hpc/home/lh342/MMVAE|
lh342|FAILED|scavenger-gpu|2023-05-11T23:40:41|2023-05-12T11:32:21|11:51:40|dcc-youlab-gpu-04|1|10|24G||/hpc/home/lh342/MMVAE|
yl407|COMPLETED|scavenger-gpu|2023-05-11T23:44:28|2023-05-12T22:03:45|22:19:17|dcc-brunellab-gpu-04|1|21|4G||/work/yl407/BIWAA|
yl407|COMPLETED|scavenger-gpu|2023-05-11T23:44:58|2023-05-12T21:57:16|22:12:18|dcc-chsi-gpu-01|1|6|4G||/work/yl407/BIWAA|
yl407|COMPLETED|scavenger-gpu|2023-05-11T23:45:44|2023-05-12T20:36:13|20:50:29|dcc-chsi-gpu-02|1|6|4G||/work/yl407/BIWAA|
lh342|FAILED|scavenger-gpu|2023-05-11T23:53:23|2023-05-12T11:11:20|11:17:57|dcc-dhvi-gpu-07|1|10|24G||/hpc/home/lh342/MMVAE|
lh342|FAILED|scavenger-gpu|2023-05-12T00:27:02|2023-05-12T12:32:59|12:05:57|dcc-youlab-gpu-06|1|10|24G||/hpc/home/lh342/MMVAE|
xz284|COMPLETED|scavenger-gpu|2023-05-12T00:57:30|2023-05-12T11:11:18|10:13:48|dcc-ece-gpu-04|1|8|64G||/hpc/group/motesa/Risk_Aware_SCUC_Model/Prelim/CT=0_RAT=1_New/RAS-EMS/beta=0.8/historical|
xz284|COMPLETED|scavenger-gpu|2023-05-12T01:44:44|2023-05-12T03:05:28|01:20:44|dcc-carlsonlab-gpu-14|1|4|32G||/hpc/group/motesa/Risk_Aware_SCUC_Model/Prelim/CT=0_RAT=1_New/DE-EMS/perfect/V6_1Realization_12Month_SolarDet_2RunPerDay_myopic_aware|
xz284|COMPLETED|scavenger-gpu|2023-05-12T02:06:12|2023-05-12T03:03:38|00:57:26|dcc-collinslab-gpu-01|1|4|32G||/hpc/group/motesa/Risk_Aware_SCUC_Model/Prelim/CT=0_RAT=1_New/DE-EMS/perfect/V6_1Realization_12Month_SolarDet_1RunPerDay_6h_aware|
xz284|COMPLETED|scavenger-gpu|2023-05-12T02:10:59|2023-05-12T03:32:44|01:21:45|dcc-brownlab-gpu-01|1|4|32G||/hpc/group/motesa/Risk_Aware_SCUC_Model/Prelim/CT=0_RAT=1_New/DE-EMS/extreme/V6_1Realization_12Month_SolarDet_1RunPerDay_myopic_aware|
xz284|COMPLETED|scavenger-gpu|2023-05-12T02:12:58|2023-05-12T03:40:46|01:27:48|dcc-brownlab-gpu-02|1|4|32G||/hpc/group/motesa/Risk_Aware_SCUC_Model/Prelim/CT=0_RAT=1_New/DE-EMS/extreme/V6_1Realization_12Month_SolarDet_1RunPerDay_myopic_aware|
xz284|COMPLETED|scavenger-gpu|2023-05-12T02:15:47|2023-05-12T03:22:01|01:06:14|dcc-gehmlab-gpu-49|1|4|32G||/hpc/group/motesa/Risk_Aware_SCUC_Model/Prelim/CT=0_RAT=1_New/DE-EMS/extreme/V6_1Realization_12Month_SolarDet_1RunPerDay_myopic_aware|
xz284|COMPLETED|scavenger-gpu|2023-05-12T02:17:07|2023-05-12T03:26:53|01:09:46|dcc-gehmlab-gpu-51|1|4|32G||/hpc/group/motesa/Risk_Aware_SCUC_Model/Prelim/CT=0_RAT=1_New/DE-EMS/extreme/V6_1Realization_12Month_SolarDet_1RunPerDay_myopic_aware|
xz284|COMPLETED|scavenger-gpu|2023-05-12T02:22:53|2023-05-12T04:01:24|01:38:31|dcc-gehmlab-gpu-59|1|4|32G||/hpc/group/motesa/Risk_Aware_SCUC_Model/Prelim/CT=0_RAT=1_New/DE-EMS/extreme/V6_1Realization_12Month_SolarDet_2RunPerDay_myopic_aware|
xz284|COMPLETED|scavenger-gpu|2023-05-12T02:26:55|2023-05-12T07:51:42|05:24:47|dcc-tdunn-gpu-02|1|4|32G||/hpc/group/motesa/Risk_Aware_SCUC_Model/Prelim/CT=0_RAT=1_New/DE-EMS/extreme/V6_1Realization_12Month_SolarDet_2RunPerDay_myopic_aware|
xz284|COMPLETED|scavenger-gpu|2023-05-12T02:27:31|2023-05-12T03:08:44|00:41:13|dcc-dhvi-gpu-03|1|4|32G||/hpc/group/motesa/Risk_Aware_SCUC_Model/Prelim/CT=0_RAT=1_New/DE-EMS/extreme/V6_1Realization_12Month_SolarDet_2RunPerDay_myopic_aware|
xz284|COMPLETED|scavenger-gpu|2023-05-12T02:27:42|2023-05-12T03:06:46|00:39:04|dcc-pbenfeylab-gpu-03|1|4|32G||/hpc/group/motesa/Risk_Aware_SCUC_Model/Prelim/CT=0_RAT=1_New/DE-EMS/extreme/V6_1Realization_12Month_SolarDet_2RunPerDay_myopic_aware|
xz284|COMPLETED|scavenger-gpu|2023-05-12T02:28:12|2023-05-12T03:12:30|00:44:18|dcc-dhvi-gpu-04|1|4|32G||/hpc/group/motesa/Risk_Aware_SCUC_Model/Prelim/CT=0_RAT=1_New/DE-EMS/extreme/V6_1Realization_12Month_SolarDet_2RunPerDay_myopic_aware|
xz284|COMPLETED|scavenger-gpu|2023-05-12T02:28:35|2023-05-12T03:08:09|00:39:34|dcc-youlab-gpu-20|1|4|32G||/hpc/group/motesa/Risk_Aware_SCUC_Model/Prelim/CT=0_RAT=1_New/DE-EMS/extreme/V6_1Realization_12Month_SolarDet_2RunPerDay_myopic_aware|
xz284|COMPLETED|scavenger-gpu|2023-05-12T02:29:49|2023-05-12T03:12:59|00:43:10|dcc-dhvi-gpu-05|1|4|32G||/hpc/group/motesa/Risk_Aware_SCUC_Model/Prelim/CT=0_RAT=1_New/DE-EMS/extreme/V6_1Realization_12Month_SolarDet_2RunPerDay_myopic_aware|
xz284|COMPLETED|scavenger-gpu|2023-05-12T02:31:02|2023-05-12T04:34:58|02:03:56|dcc-gehmlab-gpu-60|1|4|32G||/hpc/group/motesa/Risk_Aware_SCUC_Model/Prelim/CT=0_RAT=1_New/DE-EMS/extreme/V6_1Realization_12Month_SolarDet_2RunPerDay_myopic_aware|
xz284|COMPLETED|scavenger-gpu|2023-05-12T02:31:07|2023-05-12T03:12:30|00:41:23|dcc-dhvi-gpu-06|1|4|32G||/hpc/group/motesa/Risk_Aware_SCUC_Model/Prelim/CT=0_RAT=1_New/DE-EMS/extreme/V6_1Realization_12Month_SolarDet_2RunPerDay_myopic_aware|
xz284|COMPLETED|scavenger-gpu|2023-05-12T02:31:53|2023-05-12T03:33:13|01:01:20|dcc-ece-gpu-02|1|4|32G||/hpc/group/motesa/Risk_Aware_SCUC_Model/Prelim/CT=0_RAT=1_New/DE-EMS/extreme/V6_1Realization_12Month_SolarDet_2RunPerDay_myopic_aware|
xz284|COMPLETED|scavenger-gpu|2023-05-12T02:32:01|2023-05-12T03:13:19|00:41:18|dcc-dhvi-gpu-02|1|4|32G||/hpc/group/motesa/Risk_Aware_SCUC_Model/Prelim/CT=0_RAT=1_New/DE-EMS/extreme/V6_1Realization_12Month_SolarDet_2RunPerDay_myopic_aware|
xz284|COMPLETED|scavenger-gpu|2023-05-12T02:33:41|2023-05-12T03:32:59|00:59:18|dcc-ece-gpu-01|1|4|32G||/hpc/group/motesa/Risk_Aware_SCUC_Model/Prelim/CT=0_RAT=1_New/DE-EMS/extreme/V6_1Realization_12Month_SolarDet_2RunPerDay_myopic_aware|
xz284|COMPLETED|scavenger-gpu|2023-05-12T02:34:57|2023-05-12T03:01:32|00:26:35|dcc-pbenfeylab-gpu-02|1|4|32G||/hpc/group/motesa/Risk_Aware_SCUC_Model/Prelim/CT=0_RAT=1_New/DE-EMS/extreme/V6_1Realization_12Month_SolarDet_1RunPerDay_6h_aware|
xz284|COMPLETED|scavenger-gpu|2023-05-12T02:36:43|2023-05-12T03:30:52|00:54:09|dcc-biostat-gpu-01|1|4|32G||/hpc/group/motesa/Risk_Aware_SCUC_Model/Prelim/CT=0_RAT=1_New/DE-EMS/extreme/V6_1Realization_12Month_SolarDet_1RunPerDay_6h_aware|
xz284|COMPLETED|scavenger-gpu|2023-05-12T02:41:21|2023-05-12T03:43:58|01:02:37|dcc-brownlab-gpu-03|1|4|32G||/hpc/group/motesa/Risk_Aware_SCUC_Model/Prelim/CT=0_RAT=1_New/DE-EMS/extreme/V6_1Realization_12Month_SolarDet_1RunPerDay_6h_aware|
xz284|COMPLETED|scavenger-gpu|2023-05-12T02:47:33|2023-05-12T03:39:43|00:52:10|dcc-gehmlab-gpu-56|1|4|32G||/hpc/group/motesa/Risk_Aware_SCUC_Model/Prelim/CT=0_RAT=1_New/DE-EMS/extreme/V6_1Realization_12Month_SolarDet_1RunPerDay_6h_aware|
xz284|COMPLETED|scavenger-gpu|2023-05-12T02:53:32|2023-05-12T03:50:12|00:56:40|dcc-carlsonlab-gpu-13|1|4|32G||/hpc/group/motesa/Risk_Aware_SCUC_Model/Prelim/CT=0_RAT=1_New/DE-EMS/extreme/V6_1Realization_12Month_SolarDet_1RunPerDay_6h_aware|
xz284|COMPLETED|scavenger-gpu|2023-05-12T02:55:22|2023-05-12T03:30:29|00:35:07|dcc-ece-gpu-03|1|4|32G||/hpc/group/motesa/Risk_Aware_SCUC_Model/Prelim/CT=0_RAT=1_New/DE-EMS/extreme/V6_1Realization_12Month_SolarDet_1RunPerDay_6h_aware|
xz284|COMPLETED|scavenger-gpu|2023-05-12T02:55:22|2023-05-12T04:46:00|01:50:38|dcc-mastatlab-gpu-01|1|4|32G||/hpc/group/motesa/Risk_Aware_SCUC_Model/Prelim/CT=0_RAT=1_New/DE-EMS/extreme/V6_1Realization_12Month_SolarDet_1RunPerDay_6h_aware|
xz284|COMPLETED|scavenger-gpu|2023-05-12T02:56:52|2023-05-12T03:19:50|00:22:58|dcc-allenlab-gpu-01|1|4|32G||/hpc/group/motesa/Risk_Aware_SCUC_Model/Prelim/CT=0_RAT=1_New/DE-EMS/extreme/V6_1Realization_12Month_SolarDet_1RunPerDay_6h_aware|
xz284|COMPLETED|scavenger-gpu|2023-05-12T02:57:18|2023-05-12T03:21:14|00:23:56|dcc-pbenfeylab-gpu-04|1|4|32G||/hpc/group/motesa/Risk_Aware_SCUC_Model/Prelim/CT=0_RAT=1_New/DE-EMS/extreme/V6_1Realization_12Month_SolarDet_1RunPerDay_6h_aware|
xz284|COMPLETED|scavenger-gpu|2023-05-12T02:58:51|2023-05-12T03:52:06|00:53:15|dcc-carlsonlab-gpu-11|1|4|32G||/hpc/group/motesa/Risk_Aware_SCUC_Model/Prelim/CT=0_RAT=1_New/DE-EMS/extreme/V6_1Realization_12Month_SolarDet_1RunPerDay_6h_aware|
vk93|PREEMPTED|scavenger-gpu|2023-05-12T02:23:43|2023-05-15T16:09:27|3-13:45:44|dcc-tdunn-gpu-01|1|40|350109M||/hpc/home/vk93/ondemand/data/sys/dashboard/batch_connect/sys/bc_jupyter/output/23d4d6a9-4d03-429b-b1e0-2247cea267b4|
xz284|COMPLETED|scavenger-gpu|2023-05-12T02:58:52|2023-05-12T03:53:43|00:54:51|dcc-carlsonlab-gpu-12|1|4|32G||/hpc/group/motesa/Risk_Aware_SCUC_Model/Prelim/CT=0_RAT=1_New/DE-EMS/historical/V6_1Realization_12Month_SolarDet_1RunPerDay_myopic_aware|
xz284|COMPLETED|scavenger-gpu|2023-05-12T03:01:34|2023-05-12T03:23:55|00:22:21|dcc-pbenfeylab-gpu-02|1|4|32G||/hpc/group/motesa/Risk_Aware_SCUC_Model/Prelim/CT=0_RAT=1_New/DE-EMS/historical/V6_1Realization_12Month_SolarDet_1RunPerDay_myopic_aware|
xz284|COMPLETED|scavenger-gpu|2023-05-12T03:03:38|2023-05-12T04:05:30|01:01:52|dcc-collinslab-gpu-01|1|4|32G||/hpc/group/motesa/Risk_Aware_SCUC_Model/Prelim/CT=0_RAT=1_New/DE-EMS/historical/V6_1Realization_12Month_SolarDet_1RunPerDay_myopic_aware|
xz284|COMPLETED|scavenger-gpu|2023-05-12T03:05:28|2023-05-12T03:54:12|00:48:44|dcc-carlsonlab-gpu-14|1|4|32G||/hpc/group/motesa/Risk_Aware_SCUC_Model/Prelim/CT=0_RAT=1_New/DE-EMS/historical/V6_1Realization_12Month_SolarDet_1RunPerDay_myopic_aware|
xz284|COMPLETED|scavenger-gpu|2023-05-12T03:06:46|2023-05-12T03:30:18|00:23:32|dcc-pbenfeylab-gpu-03|1|4|32G||/hpc/group/motesa/Risk_Aware_SCUC_Model/Prelim/CT=0_RAT=1_New/DE-EMS/historical/V6_1Realization_12Month_SolarDet_1RunPerDay_myopic_aware|
xz284|COMPLETED|scavenger-gpu|2023-05-12T03:08:10|2023-05-12T03:28:36|00:20:26|dcc-youlab-gpu-20|1|4|32G||/hpc/group/motesa/Risk_Aware_SCUC_Model/Prelim/CT=0_RAT=1_New/DE-EMS/historical/V6_1Realization_12Month_SolarDet_1RunPerDay_myopic_aware|
xz284|COMPLETED|scavenger-gpu|2023-05-12T03:08:46|2023-05-12T03:30:12|00:21:26|dcc-dhvi-gpu-03|1|4|32G||/hpc/group/motesa/Risk_Aware_SCUC_Model/Prelim/CT=0_RAT=1_New/DE-EMS/historical/V6_1Realization_12Month_SolarDet_1RunPerDay_myopic_aware|
xz284|COMPLETED|scavenger-gpu|2023-05-12T03:10:12|2023-05-12T04:11:02|01:00:50|dcc-collinslab-gpu-03|1|4|32G||/hpc/group/motesa/Risk_Aware_SCUC_Model/Prelim/CT=0_RAT=1_New/DE-EMS/historical/V6_1Realization_12Month_SolarDet_1RunPerDay_myopic_aware|
xz284|COMPLETED|scavenger-gpu|2023-05-12T03:10:12|2023-05-12T03:30:25|00:20:13|dcc-vossenlab-gpu-01|1|4|32G||/hpc/group/motesa/Risk_Aware_SCUC_Model/Prelim/CT=0_RAT=1_New/DE-EMS/historical/V6_1Realization_12Month_SolarDet_1RunPerDay_myopic_aware|
xz284|COMPLETED|scavenger-gpu|2023-05-12T03:12:31|2023-05-12T03:33:11|00:20:40|dcc-dhvi-gpu-04|1|4|32G||/hpc/group/motesa/Risk_Aware_SCUC_Model/Prelim/CT=0_RAT=1_New/DE-EMS/historical/V6_1Realization_12Month_SolarDet_1RunPerDay_myopic_aware|
xz284|COMPLETED|scavenger-gpu|2023-05-12T03:12:31|2023-05-12T03:34:23|00:21:52|dcc-dhvi-gpu-06|1|4|32G||/hpc/group/motesa/Risk_Aware_SCUC_Model/Prelim/CT=0_RAT=1_New/DE-EMS/historical/V6_1Realization_12Month_SolarDet_1RunPerDay_myopic_aware|
xz284|COMPLETED|scavenger-gpu|2023-05-12T03:12:59|2023-05-12T03:31:42|00:18:43|dcc-dhvi-gpu-05|1|4|32G||/hpc/group/motesa/Risk_Aware_SCUC_Model/Prelim/CT=0_RAT=1_New/DE-EMS/historical/V6_1Realization_12Month_SolarDet_1RunPerDay_myopic_aware|
xz284|COMPLETED|scavenger-gpu|2023-05-12T03:13:20|2023-05-12T03:51:25|00:38:05|dcc-dhvi-gpu-02|1|4|32G||/hpc/group/motesa/Risk_Aware_SCUC_Model/Prelim/CT=0_RAT=1_New/DE-EMS/historical/V6_1Realization_12Month_SolarDet_2RunPerDay_myopic_aware|
xz284|COMPLETED|scavenger-gpu|2023-05-12T03:19:52|2023-05-12T03:58:13|00:38:21|dcc-allenlab-gpu-01|1|4|32G||/hpc/group/motesa/Risk_Aware_SCUC_Model/Prelim/CT=0_RAT=1_New/DE-EMS/historical/V6_1Realization_12Month_SolarDet_2RunPerDay_myopic_aware|
xz284|COMPLETED|scavenger-gpu|2023-05-12T03:21:14|2023-05-12T04:05:01|00:43:47|dcc-pbenfeylab-gpu-04|1|4|32G||/hpc/group/motesa/Risk_Aware_SCUC_Model/Prelim/CT=0_RAT=1_New/DE-EMS/historical/V6_1Realization_12Month_SolarDet_2RunPerDay_myopic_aware|
xz284|COMPLETED|scavenger-gpu|2023-05-12T03:22:03|2023-05-12T04:53:14|01:31:11|dcc-gehmlab-gpu-49|1|4|32G||/hpc/group/motesa/Risk_Aware_SCUC_Model/Prelim/CT=0_RAT=1_New/DE-EMS/historical/V6_1Realization_12Month_SolarDet_2RunPerDay_myopic_aware|
xz284|COMPLETED|scavenger-gpu|2023-05-12T03:23:58|2023-05-12T04:04:38|00:40:40|dcc-vossenlab-gpu-02|1|4|32G||/hpc/group/motesa/Risk_Aware_SCUC_Model/Prelim/CT=0_RAT=1_New/DE-EMS/historical/V6_1Realization_12Month_SolarDet_2RunPerDay_myopic_aware|
xz284|COMPLETED|scavenger-gpu|2023-05-12T03:26:53|2023-05-12T04:54:02|01:27:09|dcc-gehmlab-gpu-51|1|4|32G||/hpc/group/motesa/Risk_Aware_SCUC_Model/Prelim/CT=0_RAT=1_New/DE-EMS/historical/V6_1Realization_12Month_SolarDet_2RunPerDay_myopic_aware|
xz284|COMPLETED|scavenger-gpu|2023-05-12T03:28:38|2023-05-12T04:09:04|00:40:26|dcc-pbenfeylab-gpu-02|1|4|32G||/hpc/group/motesa/Risk_Aware_SCUC_Model/Prelim/CT=0_RAT=1_New/DE-EMS/historical/V6_1Realization_12Month_SolarDet_2RunPerDay_myopic_aware|
xz284|COMPLETED|scavenger-gpu|2023-05-12T03:30:14|2023-05-12T04:09:10|00:38:56|dcc-dhvi-gpu-03|1|4|32G||/hpc/group/motesa/Risk_Aware_SCUC_Model/Prelim/CT=0_RAT=1_New/DE-EMS/historical/V6_1Realization_12Month_SolarDet_2RunPerDay_myopic_aware|
xz284|COMPLETED|scavenger-gpu|2023-05-12T03:30:19|2023-05-12T04:08:56|00:38:37|dcc-pbenfeylab-gpu-03|1|4|32G||/hpc/group/motesa/Risk_Aware_SCUC_Model/Prelim/CT=0_RAT=1_New/DE-EMS/historical/V6_1Realization_12Month_SolarDet_2RunPerDay_myopic_aware|
xz284|COMPLETED|scavenger-gpu|2023-05-12T03:30:27|2023-05-12T04:07:50|00:37:23|dcc-vossenlab-gpu-01|1|4|32G||/hpc/group/motesa/Risk_Aware_SCUC_Model/Prelim/CT=0_RAT=1_New/DE-EMS/historical/V6_1Realization_12Month_SolarDet_2RunPerDay_myopic_aware|
xz284|COMPLETED|scavenger-gpu|2023-05-12T03:30:31|2023-05-12T04:33:04|01:02:33|dcc-ece-gpu-03|1|4|32G||/hpc/group/motesa/Risk_Aware_SCUC_Model/Prelim/CT=0_RAT=1_New/DE-EMS/historical/V6_1Realization_12Month_SolarDet_2RunPerDay_myopic_aware|
xz284|COMPLETED|scavenger-gpu|2023-05-12T03:30:53|2023-05-12T04:04:03|00:33:10|dcc-vossenlab-gpu-03|1|4|32G||/hpc/group/motesa/Risk_Aware_SCUC_Model/Prelim/CT=0_RAT=1_New/DE-EMS/historical/V6_1Realization_12Month_SolarDet_2RunPerDay_myopic_aware|
xz284|COMPLETED|scavenger-gpu|2023-05-12T03:31:43|2023-05-12T03:53:05|00:21:22|dcc-dhvi-gpu-05|1|4|32G||/hpc/group/motesa/Risk_Aware_SCUC_Model/Prelim/CT=0_RAT=1_New/DE-EMS/historical/V6_1Realization_12Month_SolarDet_1RunPerDay_6h_aware|
xz284|COMPLETED|scavenger-gpu|2023-05-12T03:32:34|2023-05-12T03:53:07|00:20:33|dcc-youlab-gpu-20|1|4|32G||/hpc/group/motesa/Risk_Aware_SCUC_Model/Prelim/CT=0_RAT=1_New/DE-EMS/historical/V6_1Realization_12Month_SolarDet_1RunPerDay_6h_aware|
xz284|COMPLETED|scavenger-gpu|2023-05-12T03:32:34|2023-05-12T04:33:17|01:00:43|dcc-collinslab-gpu-02|1|4|32G||/hpc/group/motesa/Risk_Aware_SCUC_Model/Prelim/CT=0_RAT=1_New/DE-EMS/historical/V6_1Realization_12Month_SolarDet_1RunPerDay_6h_aware|
xz284|COMPLETED|scavenger-gpu|2023-05-12T03:32:44|2023-05-12T04:16:41|00:43:57|dcc-brownlab-gpu-01|1|4|32G||/hpc/group/motesa/Risk_Aware_SCUC_Model/Prelim/CT=0_RAT=1_New/DE-EMS/historical/V6_1Realization_12Month_SolarDet_1RunPerDay_6h_aware|
xz284|COMPLETED|scavenger-gpu|2023-05-12T03:32:59|2023-05-12T04:08:51|00:35:52|dcc-ece-gpu-01|1|4|32G||/hpc/group/motesa/Risk_Aware_SCUC_Model/Prelim/CT=0_RAT=1_New/DE-EMS/historical/V6_1Realization_12Month_SolarDet_1RunPerDay_6h_aware|
xz284|COMPLETED|scavenger-gpu|2023-05-12T03:33:11|2023-05-12T03:55:41|00:22:30|dcc-dhvi-gpu-04|1|4|32G||/hpc/group/motesa/Risk_Aware_SCUC_Model/Prelim/CT=0_RAT=1_New/DE-EMS/historical/V6_1Realization_12Month_SolarDet_1RunPerDay_6h_aware|
xz284|COMPLETED|scavenger-gpu|2023-05-12T03:33:13|2023-05-12T04:06:58|00:33:45|dcc-ece-gpu-02|1|4|32G||/hpc/group/motesa/Risk_Aware_SCUC_Model/Prelim/CT=0_RAT=1_New/DE-EMS/historical/V6_1Realization_12Month_SolarDet_1RunPerDay_6h_aware|
xz284|COMPLETED|scavenger-gpu|2023-05-12T03:34:24|2023-05-12T03:57:47|00:23:23|dcc-dhvi-gpu-06|1|4|32G||/hpc/group/motesa/Risk_Aware_SCUC_Model/Prelim/CT=0_RAT=1_New/DE-EMS/historical/V6_1Realization_12Month_SolarDet_1RunPerDay_6h_aware|
xz284|COMPLETED|scavenger-gpu|2023-05-12T03:39:44|2023-05-12T04:28:29|00:48:45|dcc-gehmlab-gpu-56|1|4|32G||/hpc/group/motesa/Risk_Aware_SCUC_Model/Prelim/CT=0_RAT=1_New/DE-EMS/historical/V6_1Realization_12Month_SolarDet_1RunPerDay_6h_aware|
xz284|COMPLETED|scavenger-gpu|2023-05-12T03:40:46|2023-05-12T04:28:47|00:48:01|dcc-brownlab-gpu-02|1|4|32G||/hpc/group/motesa/Risk_Aware_SCUC_Model/Prelim/CT=0_RAT=1_New/DE-EMS/historical/V6_1Realization_12Month_SolarDet_1RunPerDay_6h_aware|
xz284|COMPLETED|scavenger-gpu|2023-05-12T03:43:58|2023-05-12T04:32:20|00:48:22|dcc-brownlab-gpu-03|1|4|32G||/hpc/group/motesa/Risk_Aware_SCUC_Model/Prelim/CT=0_RAT=1_New/DE-EMS/historical/V6_1Realization_12Month_SolarDet_1RunPerDay_6h_aware|
xz284|COMPLETED|scavenger-gpu|2023-05-12T03:44:22|2023-05-12T04:34:33|00:50:11|dcc-collinslab-gpu-04|1|4|32G||/hpc/group/motesa/Risk_Aware_SCUC_Model/Prelim/CT=0_RAT=1_New/DE-EMS/historical/V6_1Realization_12Month_SolarDet_1RunPerDay_6h_aware|
