yw564|TIMEOUT|scavenger-gpu|2023-05-04T17:26:37|2023-05-11T17:27:01|7-00:00:24|dcc-mastatlab-gpu-01|1|2|50G||/hpc/group/jilab/imaging/huimin/Inference_rebuttal|
yk206|TIMEOUT|scavenger-gpu|2023-05-07T13:08:05|2023-05-14T13:08:33|7-00:00:28|dcc-motesa-gpu-04|1|6|12G||/hpc/home/yk206/script|
yk206|TIMEOUT|scavenger-gpu|2023-05-07T13:08:05|2023-05-14T13:08:33|7-00:00:28|dcc-motesa-gpu-01|1|6|12G||/hpc/home/yk206/script|
kw297|CANCELLED by 1215097|scavenger-gpu|2023-05-08T11:15:47|2023-05-10T08:56:01|1-21:40:14|dcc-motesa-gpu-03|1|4|20G||/hpc/group/ychenlab/DA|
dl370|PREEMPTED|scavenger-gpu|2023-05-08T16:22:29|2023-05-10T21:17:59|2-04:55:30|dcc-youlab-gpu-53|1|10|2G||/work/dl370|
jrl78|COMPLETED|scavenger-gpu|2023-05-09T11:07:21|2023-05-10T08:35:31|21:28:10|dcc-youlab-gpu-40|1|10|2G||/work/jrl78/Nanoparticles/JawBreakers/Big Library/run2|
jrl78|COMPLETED|scavenger-gpu|2023-05-09T11:20:13|2023-05-10T05:16:03|17:55:50|dcc-youlab-gpu-11|1|10|2G||/work/jrl78/Nanoparticles/JawBreakers/Big Library/run2|
jrl78|COMPLETED|scavenger-gpu|2023-05-09T12:32:57|2023-05-10T07:47:59|19:15:02|dcc-youlab-gpu-54|1|10|2G||/work/jrl78/Nanoparticles/JawBreakers/Big Library/run2|
jrl78|COMPLETED|scavenger-gpu|2023-05-09T12:36:31|2023-05-10T17:20:40|1-04:44:09|dcc-youlab-gpu-37|1|10|2G||/work/jrl78/Nanoparticles/JawBreakers/Big Library/run2|
jrl78|COMPLETED|scavenger-gpu|2023-05-09T14:17:56|2023-05-10T11:35:11|21:17:15|dcc-pbenfeylab-gpu-01|1|10|2G||/work/jrl78/Nanoparticles/JawBreakers/Big Library/run2|
jrl78|COMPLETED|scavenger-gpu|2023-05-09T14:22:03|2023-05-10T10:44:36|20:22:33|dcc-youlab-gpu-52|1|10|2G||/work/jrl78/Nanoparticles/JawBreakers/Big Library/run2|
jrl78|COMPLETED|scavenger-gpu|2023-05-09T14:28:48|2023-05-10T05:05:47|14:36:59|dcc-pbenfeylab-gpu-04|1|10|2G||/work/jrl78/Nanoparticles/JawBreakers/Big Library/run2|
jrl78|COMPLETED|scavenger-gpu|2023-05-09T14:39:05|2023-05-10T09:10:48|18:31:43|dcc-youlab-gpu-48|1|10|2G||/work/jrl78/Nanoparticles/JawBreakers/Big Library/run2|
jrl78|COMPLETED|scavenger-gpu|2023-05-09T16:13:17|2023-05-10T08:48:29|16:35:12|dcc-chsi-gpu-01|1|6|2G||/work/jrl78/Nanoparticles/JawBreakers/Big Library/run2|
jrl78|COMPLETED|scavenger-gpu|2023-05-09T16:21:03|2023-05-10T15:41:03|23:20:00|dcc-dhvi-gpu-05|1|10|2G||/work/jrl78/Nanoparticles/JawBreakers/Big Library/run2|
jrl78|COMPLETED|scavenger-gpu|2023-05-09T22:31:58|2023-05-10T11:33:01|13:01:03|dcc-youlab-gpu-56|1|10|2G||/work/jrl78/Nanoparticles/JawBreakers/Big Library/run2|
jrl78|COMPLETED|scavenger-gpu|2023-05-10T00:14:54|2023-05-10T18:39:34|18:24:40|dcc-youlab-gpu-49|1|10|2G||/work/jrl78/Nanoparticles/JawBreakers/Big Library/run2|
jrl78|COMPLETED|scavenger-gpu|2023-05-10T02:09:08|2023-05-10T15:58:42|13:49:34|dcc-youlab-gpu-39|1|10|2G||/work/jrl78/Nanoparticles/JawBreakers/Big Library/run2|
jrl78|COMPLETED|scavenger-gpu|2023-05-10T03:21:12|2023-05-10T19:36:30|16:15:18|dcc-youlab-gpu-55|1|10|2G||/work/jrl78/Nanoparticles/JawBreakers/Big Library/run2|
jrl78|PREEMPTED|scavenger-gpu|2023-05-10T03:43:28|2023-05-10T21:18:01|17:34:33|dcc-youlab-gpu-51|1|10|2G||/work/jrl78/Nanoparticles/JawBreakers/Big Library/run2|
jrl78|PREEMPTED|scavenger-gpu|2023-05-10T03:56:47|2023-05-10T21:18:03|17:21:16|dcc-youlab-gpu-46|1|10|2G||/work/jrl78/Nanoparticles/JawBreakers/Big Library/run2|
jrl78|COMPLETED|scavenger-gpu|2023-05-10T04:06:57|2023-05-10T16:53:52|12:46:55|dcc-youlab-gpu-43|1|10|2G||/work/jrl78/Nanoparticles/JawBreakers/Big Library/run2|
jrl78|COMPLETED|scavenger-gpu|2023-05-10T04:10:37|2023-05-10T19:07:13|14:56:36|dcc-youlab-gpu-42|1|10|2G||/work/jrl78/Nanoparticles/JawBreakers/Big Library/run2|
jrl78|COMPLETED|scavenger-gpu|2023-05-10T04:12:33|2023-05-10T20:14:45|16:02:12|dcc-youlab-gpu-57|1|10|2G||/work/jrl78/Nanoparticles/JawBreakers/Big Library/run2|
jrl78|PREEMPTED|scavenger-gpu|2023-05-10T04:41:07|2023-05-10T21:18:05|16:36:58|dcc-youlab-gpu-50|1|10|2G||/work/jrl78/Nanoparticles/JawBreakers/Big Library/run2|
jrl78|PREEMPTED|scavenger-gpu|2023-05-10T05:05:50|2023-05-10T21:18:08|16:12:18|dcc-youlab-gpu-41|1|10|2G||/work/jrl78/Nanoparticles/JawBreakers/Big Library/run2|
jrl78|PREEMPTED|scavenger-gpu|2023-05-10T05:16:06|2023-05-10T21:18:10|16:02:04|dcc-youlab-gpu-27|1|10|2G||/work/jrl78/Nanoparticles/JawBreakers/Big Library/run2|
jrl78|PREEMPTED|scavenger-gpu|2023-05-10T07:48:02|2023-05-10T21:18:12|13:30:10|dcc-youlab-gpu-54|1|10|2G||/work/jrl78/Nanoparticles/JawBreakers/Big Library/run2|
jrl78|PREEMPTED|scavenger-gpu|2023-05-10T08:35:33|2023-05-10T21:18:14|12:42:41|dcc-youlab-gpu-40|1|10|2G||/work/jrl78/Nanoparticles/JawBreakers/Big Library/run2|
jrl78|OUT_OF_MEMORY|scavenger-gpu|2023-05-10T08:48:30|2023-05-10T08:49:13|00:00:43|dcc-youlab-gpu-14|1|10|2G||/work/jrl78/Nanoparticles/JawBreakers/Big Library/run2|
jrl78|COMPLETED|scavenger-gpu|2023-05-10T08:49:15|2023-05-11T03:18:51|18:29:36|dcc-youlab-gpu-14|1|10|2G||/work/jrl78/Nanoparticles/JawBreakers/Big Library/run2|
jrl78|OUT_OF_MEMORY|scavenger-gpu|2023-05-10T09:10:49|2023-05-10T09:11:56|00:01:07|dcc-youlab-gpu-35|1|10|2G||/work/jrl78/Nanoparticles/JawBreakers/Big Library/run2|
xz284|COMPLETED|scavenger-gpu|2023-05-09T10:15:57|2023-05-10T05:00:30|18:44:33|dcc-tdunn-gpu-02|1|8|64G||/hpc/group/motesa/Risk_Aware_SCUC_Model/Prelim/CT=0_RAT=1_New/RAS-EMS/beta=0.8/historical|
xz284|COMPLETED|scavenger-gpu|2023-05-09T14:01:36|2023-05-10T06:41:42|16:40:06|dcc-collinslab-gpu-02|1|8|64G||/hpc/group/motesa/Risk_Aware_SCUC_Model/Prelim/CT=0_RAT=1_New/RAS-EMS/beta=0.8/extreme|
cem125|COMPLETED|scavenger-gpu|2023-05-09T15:09:34|2023-05-11T02:10:25|1-11:00:51|dcc-youlab-gpu-36|1|10|50G||/hpc/group/rekerlab/cem125/OpenNMT-py|
cem125|COMPLETED|scavenger-gpu|2023-05-09T15:09:34|2023-05-11T02:03:22|1-10:53:48|dcc-youlab-gpu-34|1|10|50G||/hpc/group/rekerlab/cem125/OpenNMT-py|
cem125|COMPLETED|scavenger-gpu|2023-05-09T15:09:34|2023-05-11T07:49:38|1-16:40:04|dcc-youlab-gpu-16|1|10|50G||/hpc/group/rekerlab/cem125/OpenNMT-py|
cem125|COMPLETED|scavenger-gpu|2023-05-09T15:09:34|2023-05-11T08:08:01|1-16:58:27|dcc-youlab-gpu-15|1|10|50G||/hpc/group/rekerlab/cem125/OpenNMT-py|
cem125|COMPLETED|scavenger-gpu|2023-05-09T16:13:17|2023-05-10T22:32:26|1-06:19:09|dcc-carin-gpu-08|1|19|50G||/hpc/group/rekerlab/cem125/OpenNMT-py|
cem125|COMPLETED|scavenger-gpu|2023-05-09T16:13:17|2023-05-10T23:44:27|1-07:31:10|dcc-carin-gpu-07|1|19|50G||/hpc/group/rekerlab/cem125/OpenNMT-py|
cem125|COMPLETED|scavenger-gpu|2023-05-09T16:21:03|2023-05-11T02:21:24|1-10:00:21|dcc-dhvi-gpu-04|1|10|50G||/hpc/group/rekerlab/cem125/OpenNMT-py|
cem125|COMPLETED|scavenger-gpu|2023-05-09T16:14:23|2023-05-11T00:56:11|1-08:41:48|dcc-gehmlab-gpu-49|1|19|50G||/hpc/group/rekerlab/cem125/OpenNMT-py|
xz284|FAILED|scavenger-gpu|2023-05-09T18:59:43|2023-05-10T06:41:09|11:41:26|dcc-collinslab-gpu-01|1|8|64G||/hpc/group/motesa/Risk_Aware_SCUC_Model/Prelim/CT=0_RAT=1_New/RAS-EMS/beta=0.8/historical|
mk423|CANCELLED by 1192605|scavenger-gpu|2023-05-09T19:00:44|2023-05-10T10:05:14|15:04:30|dcc-collinslab-gpu-04|1|12|80G||/hpc/home/mk423/Anxiety/FullDataWork/Code/Training/MultiTask|
yk206|OUT_OF_MEMORY|scavenger-gpu|2023-05-10T01:38:37|2023-05-10T07:28:03|05:49:26|dcc-youlab-gpu-35|1|10|24G||/hpc/home/yk206/script/face_download|
yk206|COMPLETED|scavenger-gpu|2023-05-10T01:38:40|2023-05-10T11:02:49|09:24:09|dcc-dhvi-gpu-02|1|10|24G||/hpc/home/yk206/script/face_download|
yk206|OUT_OF_MEMORY|scavenger-gpu|2023-05-10T01:38:41|2023-05-10T08:36:55|06:58:14|dcc-allenlab-gpu-02|1|10|24G||/hpc/home/yk206/script/face_download|
yk206|COMPLETED|scavenger-gpu|2023-05-10T01:38:41|2023-05-10T09:31:32|07:52:51|dcc-biostat-gpu-01|1|22|24G||/hpc/home/yk206/script/face_download|
yk206|OUT_OF_MEMORY|scavenger-gpu|2023-05-10T05:15:06|2023-05-10T06:41:22|01:26:16|dcc-allenlab-gpu-01|1|10|24G||/hpc/home/yk206/script/face_download|
yk206|COMPLETED|scavenger-gpu|2023-05-10T05:15:06|2023-05-10T05:52:59|00:37:53|dcc-dhvi-gpu-01|1|10|24G||/hpc/home/yk206/script/face_download|
yk206|COMPLETED|scavenger-gpu|2023-05-10T05:15:07|2023-05-10T07:16:40|02:01:33|dcc-allenlab-gpu-03|1|10|24G||/hpc/home/yk206/script/face_download|
yk206|COMPLETED|scavenger-gpu|2023-05-10T05:15:13|2023-05-10T06:42:06|01:26:53|dcc-allenlab-gpu-04|1|10|24G||/hpc/home/yk206/script/face_download|
yk206|COMPLETED|scavenger-gpu|2023-05-10T05:15:13|2023-05-10T07:09:31|01:54:18|dcc-dhvi-gpu-03|1|10|24G||/hpc/home/yk206/script/face_download|
yk206|COMPLETED|scavenger-gpu|2023-05-10T05:15:13|2023-05-10T07:41:15|02:26:02|dcc-youlab-gpu-20|1|10|24G||/hpc/home/yk206/script/face_download|
yk206|OUT_OF_MEMORY|scavenger-gpu|2023-05-10T05:15:13|2023-05-10T06:11:03|00:55:50|dcc-youlab-gpu-38|1|10|24G||/hpc/home/yk206/script/face_download|
yk206|COMPLETED|scavenger-gpu|2023-05-10T05:15:13|2023-05-10T08:03:00|02:47:47|dcc-youlab-gpu-17|1|10|24G||/hpc/home/yk206/script/face_download|
yk206|COMPLETED|scavenger-gpu|2023-05-10T05:15:13|2023-05-10T05:56:33|00:41:20|dcc-youlab-gpu-18|1|10|24G||/hpc/home/yk206/script/face_download|
yk206|COMPLETED|scavenger-gpu|2023-05-10T05:15:13|2023-05-10T09:27:52|04:12:39|dcc-biostat-gpu-02|1|22|24G||/hpc/home/yk206/script/face_download|
yk206|COMPLETED|scavenger-gpu|2023-05-10T05:15:13|2023-05-10T06:45:35|01:30:22|dcc-dhvi-gpu-06|1|10|24G||/hpc/home/yk206/script/face_download|
yk206|COMPLETED|scavenger-gpu|2023-05-10T05:15:13|2023-05-10T08:02:30|02:47:17|dcc-dhvi-gpu-07|1|10|24G||/hpc/home/yk206/script/face_download|
yk206|OUT_OF_MEMORY|scavenger-gpu|2023-05-10T05:15:13|2023-05-10T05:45:46|00:30:33|dcc-dhvi-gpu-08|1|10|24G||/hpc/home/yk206/script/face_download|
yk206|OUT_OF_MEMORY|scavenger-gpu|2023-05-10T05:15:13|2023-05-10T06:19:58|01:04:45|dcc-pbenfeylab-gpu-02|1|10|24G||/hpc/home/yk206/script/face_download|
yk206|COMPLETED|scavenger-gpu|2023-05-10T05:15:13|2023-05-10T07:16:43|02:01:30|dcc-pbenfeylab-gpu-03|1|10|24G||/hpc/home/yk206/script/face_download|
yk206|OUT_OF_MEMORY|scavenger-gpu|2023-05-10T05:15:13|2023-05-10T07:22:01|02:06:48|dcc-pbenfeylab-gpu-04|1|10|24G||/hpc/home/yk206/script/face_download|
yk206|COMPLETED|scavenger-gpu|2023-05-10T05:15:13|2023-05-10T07:07:12|01:51:59|dcc-youlab-gpu-12|1|10|24G||/hpc/home/yk206/script/face_download|
yk206|COMPLETED|scavenger-gpu|2023-05-10T05:15:17|2023-05-10T06:55:27|01:40:10|dcc-youlab-gpu-13|1|10|24G||/hpc/home/yk206/script/face_download|
yk206|COMPLETED|scavenger-gpu|2023-05-10T05:15:17|2023-05-10T06:20:55|01:05:38|dcc-youlab-gpu-14|1|10|24G||/hpc/home/yk206/script/face_download|
yk206|OUT_OF_MEMORY|scavenger-gpu|2023-05-10T05:15:17|2023-05-10T06:39:26|01:24:09|dcc-youlab-gpu-31|1|10|24G||/hpc/home/yk206/script/face_download|
yk206|COMPLETED|scavenger-gpu|2023-05-10T05:15:17|2023-05-10T05:57:33|00:42:16|dcc-youlab-gpu-32|1|10|24G||/hpc/home/yk206/script/face_download|
yk206|OUT_OF_MEMORY|scavenger-gpu|2023-05-10T05:15:17|2023-05-10T07:18:35|02:03:18|dcc-youlab-gpu-33|1|10|24G||/hpc/home/yk206/script/face_download|
yk206|COMPLETED|scavenger-gpu|2023-05-10T05:15:17|2023-05-10T06:15:43|01:00:26|dcc-vossenlab-gpu-01|1|10|24G||/hpc/home/yk206/script/face_download|
yk206|COMPLETED|scavenger-gpu|2023-05-10T05:15:17|2023-05-10T05:47:17|00:32:00|dcc-vossenlab-gpu-02|1|10|24G||/hpc/home/yk206/script/face_download|
yk206|COMPLETED|scavenger-gpu|2023-05-10T05:15:17|2023-05-10T07:18:05|02:02:48|dcc-vossenlab-gpu-03|1|10|24G||/hpc/home/yk206/script/face_download|
yk206|COMPLETED|scavenger-gpu|2023-05-10T05:15:17|2023-05-10T07:02:21|01:47:04|dcc-vossenlab-gpu-04|1|10|24G||/hpc/home/yk206/script/face_download|
yk206|OUT_OF_MEMORY|scavenger-gpu|2023-05-10T05:15:17|2023-05-10T06:18:12|01:02:55|dcc-youlab-gpu-22|1|10|24G||/hpc/home/yk206/script/face_download|
yk206|COMPLETED|scavenger-gpu|2023-05-10T05:15:17|2023-05-10T08:10:46|02:55:29|dcc-youlab-gpu-23|1|10|24G||/hpc/home/yk206/script/face_download|
yk206|COMPLETED|scavenger-gpu|2023-05-10T05:15:17|2023-05-10T07:05:10|01:49:53|dcc-youlab-gpu-24|1|10|24G||/hpc/home/yk206/script/face_download|
yk206|COMPLETED|scavenger-gpu|2023-05-10T05:15:17|2023-05-10T07:00:07|01:44:50|dcc-youlab-gpu-25|1|10|24G||/hpc/home/yk206/script/face_download|
