yw564|FAILED|scavenger-gpu|2023-05-13T11:32:34|2023-05-18T03:15:49|4-15:43:15|dcc-mastatlab-gpu-01|1|2|50G||/hpc/group/jilab|
kw297|PREEMPTED|scavenger-gpu|2023-05-15T14:19:51|2023-05-17T13:49:35|1-23:29:44|dcc-allenlab-gpu-01|1|4|20G||/hpc/group/ychenlab/DA|
yw564|FAILED|scavenger-gpu|2023-05-15T14:43:02|2023-05-18T03:15:50|2-12:32:48|dcc-mastatlab-gpu-01|1|2|50G||/hpc/group/jilab|
yw564|FAILED|scavenger-gpu|2023-05-15T15:37:58|2023-05-18T03:15:50|2-11:37:52|dcc-tdunn-gpu-02|1|2|50G||/hpc/group/jilab|
vk93|TIMEOUT|scavenger-gpu|2023-05-15T16:11:33|2023-05-22T16:11:51|7-00:00:18|dcc-dsplus-gpu-02|1|40|350109M||/hpc/home/vk93/ondemand/data/sys/dashboard/batch_connect/sys/bc_jupyter/output/23d4d6a9-4d03-429b-b1e0-2247cea267b4|
yl407|TIMEOUT|scavenger-gpu|2023-05-15T16:43:38|2023-05-17T16:43:59|2-00:00:21|dcc-youlab-gpu-01|1|2|150G||/hpc/home/yl407/ondemand/data/sys/dashboard/batch_connect/sys/bc_jupyter/output/b10f5cef-69cb-443a-9296-6b6825e991d1|
yl407|CANCELLED by 1099244|scavenger-gpu|2023-05-15T17:28:36|2023-05-17T17:07:18|1-23:38:42|dcc-tdunn-gpu-01|1|2|160G||/hpc/home/yl407/ondemand/data/sys/dashboard/batch_connect/sys/bc_jupyter/output/bba069dd-0809-412a-9c2c-72df0a8129eb|
pkk16|TIMEOUT|scavenger-gpu|2023-05-16T10:52:32|2023-05-17T10:52:52|1-00:00:20|dcc-mastatlab-gpu-01|1|2|20G||/hpc/home/pkk16/ondemand/data/sys/dashboard/batch_connect/sys/bc_jupyter/output/43a37364-bacd-4992-bb0a-9816c17c3509|
lh342|FAILED|scavenger-gpu|2023-05-16T11:32:16|2023-05-16T21:07:38|09:35:22|dcc-youlab-gpu-30|1|10|24G||/hpc/home/lh342/MMVAE|
lh342|CANCELLED by 1397954|scavenger-gpu|2023-05-16T12:49:34|2023-05-16T21:19:00|08:29:26|dcc-allenlab-gpu-02|1|10|24G||/hpc/home/lh342/MMVAE|
bmajoros|COMPLETED|scavenger-gpu|2023-05-17T11:03:40|2023-05-17T11:42:35|00:38:55|dcc-gehmlab-gpu-60|1|19|20000M||/datacommons/igvf-pm/ENCODE/mutator-slurms|
bmajoros|COMPLETED|scavenger-gpu|2023-05-17T11:03:40|2023-05-17T12:17:53|01:14:13|dcc-gehmlab-gpu-49|1|19|20000M||/datacommons/igvf-pm/ENCODE/mutator-slurms|
bmajoros|COMPLETED|scavenger-gpu|2023-05-17T11:03:40|2023-05-17T12:09:19|01:05:39|dcc-gehmlab-gpu-48|1|19|20000M||/datacommons/igvf-pm/ENCODE/mutator-slurms|
bmajoros|COMPLETED|scavenger-gpu|2023-05-17T11:03:40|2023-05-17T12:08:49|01:05:09|dcc-gehmlab-gpu-47|1|19|20000M||/datacommons/igvf-pm/ENCODE/mutator-slurms|
bmajoros|COMPLETED|scavenger-gpu|2023-05-17T11:03:40|2023-05-17T12:03:07|00:59:27|dcc-gehmlab-gpu-46|1|19|20000M||/datacommons/igvf-pm/ENCODE/mutator-slurms|
bmajoros|COMPLETED|scavenger-gpu|2023-05-17T11:03:40|2023-05-17T12:08:02|01:04:22|dcc-gehmlab-gpu-45|1|19|20000M||/datacommons/igvf-pm/ENCODE/mutator-slurms|
bmajoros|COMPLETED|scavenger-gpu|2023-05-17T11:03:40|2023-05-17T12:12:42|01:09:02|dcc-gehmlab-gpu-44|1|19|20000M||/datacommons/igvf-pm/ENCODE/mutator-slurms|
bmajoros|COMPLETED|scavenger-gpu|2023-05-17T11:03:40|2023-05-17T12:10:13|01:06:33|dcc-gehmlab-gpu-43|1|19|20000M||/datacommons/igvf-pm/ENCODE/mutator-slurms|
bmajoros|COMPLETED|scavenger-gpu|2023-05-17T11:30:54|2023-05-17T12:34:51|01:03:57|dcc-gehmlab-gpu-42|1|19|20000M||/datacommons/igvf-pm/ENCODE/mutator-slurms|
bmajoros|COMPLETED|scavenger-gpu|2023-05-17T11:30:54|2023-05-17T12:35:10|01:04:16|dcc-gehmlab-gpu-41|1|19|20000M||/datacommons/igvf-pm/ENCODE/mutator-slurms|
bmajoros|COMPLETED|scavenger-gpu|2023-05-17T11:42:36|2023-05-17T12:21:01|00:38:25|dcc-gehmlab-gpu-60|1|19|20000M||/datacommons/igvf-pm/ENCODE/mutator-slurms|
bmajoros|COMPLETED|scavenger-gpu|2023-05-17T11:42:38|2023-05-17T12:48:31|01:05:53|dcc-gehmlab-gpu-40|1|19|20000M||/datacommons/igvf-pm/ENCODE/mutator-slurms|
bmajoros|COMPLETED|scavenger-gpu|2023-05-17T11:44:05|2023-05-17T12:48:28|01:04:23|dcc-gehmlab-gpu-39|1|19|20000M||/datacommons/igvf-pm/ENCODE/mutator-slurms|
bmajoros|COMPLETED|scavenger-gpu|2023-05-17T11:53:52|2023-05-17T14:54:27|03:00:35|dcc-vossenlab-gpu-03|1|10|20000M||/datacommons/igvf-pm/ENCODE/mutator-slurms|
bmajoros|COMPLETED|scavenger-gpu|2023-05-17T12:02:06|2023-05-17T13:05:32|01:03:26|dcc-gehmlab-gpu-26|1|19|20000M||/datacommons/igvf-pm/ENCODE/mutator-slurms|
bmajoros|COMPLETED|scavenger-gpu|2023-05-17T12:03:09|2023-05-17T13:04:26|01:01:17|dcc-gehmlab-gpu-46|1|19|20000M||/datacommons/igvf-pm/ENCODE/mutator-slurms|
bmajoros|COMPLETED|scavenger-gpu|2023-05-17T12:08:03|2023-05-17T13:08:06|01:00:03|dcc-gehmlab-gpu-45|1|19|20000M||/datacommons/igvf-pm/ENCODE/mutator-slurms|
bmajoros|COMPLETED|scavenger-gpu|2023-05-17T12:08:50|2023-05-17T13:13:03|01:04:13|dcc-gehmlab-gpu-47|1|19|20000M||/datacommons/igvf-pm/ENCODE/mutator-slurms|
bmajoros|COMPLETED|scavenger-gpu|2023-05-17T12:09:21|2023-05-17T13:13:41|01:04:20|dcc-gehmlab-gpu-48|1|19|20000M||/datacommons/igvf-pm/ENCODE/mutator-slurms|
bmajoros|COMPLETED|scavenger-gpu|2023-05-17T12:10:00|2023-05-17T15:12:56|03:02:56|dcc-youlab-gpu-28|1|10|20000M||/datacommons/igvf-pm/ENCODE/mutator-slurms|
bmajoros|COMPLETED|scavenger-gpu|2023-05-17T12:10:14|2023-05-17T13:13:22|01:03:08|dcc-gehmlab-gpu-43|1|19|20000M||/datacommons/igvf-pm/ENCODE/mutator-slurms|
bmajoros|COMPLETED|scavenger-gpu|2023-05-17T12:12:43|2023-05-17T13:16:14|01:03:31|dcc-gehmlab-gpu-44|1|19|20000M||/datacommons/igvf-pm/ENCODE/mutator-slurms|
bmajoros|COMPLETED|scavenger-gpu|2023-05-17T12:17:53|2023-05-17T13:32:19|01:14:26|dcc-gehmlab-gpu-49|1|19|20000M||/datacommons/igvf-pm/ENCODE/mutator-slurms|
bmajoros|COMPLETED|scavenger-gpu|2023-05-17T12:21:02|2023-05-17T12:58:56|00:37:54|dcc-gehmlab-gpu-60|1|19|20000M||/datacommons/igvf-pm/ENCODE/mutator-slurms|
bmajoros|COMPLETED|scavenger-gpu|2023-05-17T12:33:38|2023-05-17T15:40:59|03:07:21|dcc-youlab-gpu-37|1|10|20000M||/datacommons/igvf-pm/ENCODE/mutator-slurms|
bmajoros|COMPLETED|scavenger-gpu|2023-05-17T12:34:51|2023-05-17T15:39:04|03:04:13|dcc-youlab-gpu-53|1|10|20000M||/datacommons/igvf-pm/ENCODE/mutator-slurms|
bmajoros|COMPLETED|scavenger-gpu|2023-05-17T12:34:51|2023-05-17T15:39:46|03:04:55|dcc-youlab-gpu-35|1|10|20000M||/datacommons/igvf-pm/ENCODE/mutator-slurms|
bmajoros|COMPLETED|scavenger-gpu|2023-05-17T12:35:11|2023-05-17T15:36:33|03:01:22|dcc-youlab-gpu-16|1|10|20000M||/datacommons/igvf-pm/ENCODE/mutator-slurms|
bmajoros|COMPLETED|scavenger-gpu|2023-05-17T12:46:41|2023-05-17T13:53:58|01:07:17|dcc-gehmlab-gpu-42|1|19|20000M||/datacommons/igvf-pm/ENCODE/mutator-slurms|
bmajoros|COMPLETED|scavenger-gpu|2023-05-17T12:48:05|2023-05-17T16:03:51|03:15:46|dcc-youlab-gpu-14|1|10|20000M||/datacommons/igvf-pm/ENCODE/mutator-slurms|
bmajoros|COMPLETED|scavenger-gpu|2023-05-17T12:48:30|2023-05-17T15:56:12|03:07:42|dcc-youlab-gpu-31|1|10|20000M||/datacommons/igvf-pm/ENCODE/mutator-slurms|
bmajoros|COMPLETED|scavenger-gpu|2023-05-17T12:48:32|2023-05-17T13:50:48|01:02:16|dcc-gehmlab-gpu-41|1|19|20000M||/datacommons/igvf-pm/ENCODE/mutator-slurms|
bmajoros|COMPLETED|scavenger-gpu|2023-05-17T12:53:43|2023-05-17T13:56:28|01:02:45|dcc-gehmlab-gpu-09|1|19|20000M||/datacommons/igvf-pm/ENCODE/mutator-slurms|
bmajoros|COMPLETED|scavenger-gpu|2023-05-17T12:58:56|2023-05-17T16:14:03|03:15:07|dcc-youlab-gpu-38|1|10|20000M||/datacommons/igvf-pm/ENCODE/mutator-slurms|
bmajoros|COMPLETED|scavenger-gpu|2023-05-17T13:03:32|2023-05-17T15:42:58|02:39:26|dcc-ultrasound-gpu-03|1|19|20000M||/datacommons/igvf-pm/ENCODE/mutator-slurms|
bmajoros|COMPLETED|scavenger-gpu|2023-05-17T13:04:26|2023-05-17T13:46:17|00:41:51|dcc-gehmlab-gpu-60|1|19|20000M||/datacommons/igvf-pm/ENCODE/mutator-slurms|
bmajoros|COMPLETED|scavenger-gpu|2023-05-17T13:05:32|2023-05-17T14:07:48|01:02:16|dcc-gehmlab-gpu-46|1|19|20000M||/datacommons/igvf-pm/ENCODE/mutator-slurms|
bmajoros|COMPLETED|scavenger-gpu|2023-05-17T13:08:07|2023-05-17T14:08:58|01:00:51|dcc-gehmlab-gpu-45|1|19|20000M||/datacommons/igvf-pm/ENCODE/mutator-slurms|
bmajoros|COMPLETED|scavenger-gpu|2023-05-17T13:08:59|2023-05-17T14:18:23|01:09:24|dcc-gehmlab-gpu-26|1|19|20000M||/datacommons/igvf-pm/ENCODE/mutator-slurms|
bmajoros|COMPLETED|scavenger-gpu|2023-05-17T13:12:41|2023-05-17T16:19:13|03:06:32|dcc-youlab-gpu-15|1|10|20000M||/datacommons/igvf-pm/ENCODE/mutator-slurms|
bmajoros|COMPLETED|scavenger-gpu|2023-05-17T13:13:03|2023-05-17T14:15:12|01:02:09|dcc-gehmlab-gpu-47|1|19|20000M||/datacommons/igvf-pm/ENCODE/mutator-slurms|
bmajoros|COMPLETED|scavenger-gpu|2023-05-17T13:13:22|2023-05-17T14:21:28|01:08:06|dcc-gehmlab-gpu-43|1|19|20000M||/datacommons/igvf-pm/ENCODE/mutator-slurms|
bmajoros|COMPLETED|scavenger-gpu|2023-05-17T13:13:41|2023-05-17T14:22:14|01:08:33|dcc-gehmlab-gpu-48|1|19|20000M||/datacommons/igvf-pm/ENCODE/mutator-slurms|
bmajoros|COMPLETED|scavenger-gpu|2023-05-17T13:13:43|2023-05-17T14:15:38|01:01:55|dcc-gehmlab-gpu-08|1|19|20000M||/datacommons/igvf-pm/ENCODE/mutator-slurms|
bmajoros|COMPLETED|scavenger-gpu|2023-05-17T13:16:15|2023-05-17T14:17:02|01:00:47|dcc-gehmlab-gpu-44|1|19|20000M||/datacommons/igvf-pm/ENCODE/mutator-slurms|
bmajoros|COMPLETED|scavenger-gpu|2023-05-17T13:25:07|2023-05-17T14:32:41|01:07:34|dcc-gehmlab-gpu-19|1|19|20000M||/datacommons/igvf-pm/ENCODE/mutator-slurms|
bmajoros|COMPLETED|scavenger-gpu|2023-05-17T13:32:20|2023-05-17T14:43:05|01:10:45|dcc-gehmlab-gpu-49|1|19|20000M||/datacommons/igvf-pm/ENCODE/mutator-slurms|
bmajoros|COMPLETED|scavenger-gpu|2023-05-17T13:46:13|2023-05-17T16:47:46|03:01:33|dcc-youlab-gpu-21|1|10|20000M||/datacommons/igvf-pm/ENCODE/mutator-slurms|
bmajoros|COMPLETED|scavenger-gpu|2023-05-17T13:46:18|2023-05-17T16:48:02|03:01:44|dcc-youlab-gpu-19|1|10|20000M||/datacommons/igvf-pm/ENCODE/mutator-slurms|
bmajoros|COMPLETED|scavenger-gpu|2023-05-17T13:50:48|2023-05-17T14:26:01|00:35:13|dcc-gehmlab-gpu-60|1|19|20000M||/datacommons/igvf-pm/ENCODE/mutator-slurms|
bmajoros|COMPLETED|scavenger-gpu|2023-05-17T13:53:58|2023-05-17T15:00:46|01:06:48|dcc-gehmlab-gpu-42|1|19|20000M||/datacommons/igvf-pm/ENCODE/mutator-slurms|
bmajoros|COMPLETED|scavenger-gpu|2023-05-17T13:56:29|2023-05-17T15:03:55|01:07:26|dcc-gehmlab-gpu-41|1|19|20000M||/datacommons/igvf-pm/ENCODE/mutator-slurms|
bmajoros|COMPLETED|scavenger-gpu|2023-05-17T14:07:48|2023-05-17T15:08:49|01:01:01|dcc-gehmlab-gpu-46|1|19|20000M||/datacommons/igvf-pm/ENCODE/mutator-slurms|
bmajoros|COMPLETED|scavenger-gpu|2023-05-17T14:09:00|2023-05-17T15:06:26|00:57:26|dcc-gehmlab-gpu-45|1|19|20000M||/datacommons/igvf-pm/ENCODE/mutator-slurms|
bmajoros|COMPLETED|scavenger-gpu|2023-05-17T14:15:12|2023-05-17T15:17:26|01:02:14|dcc-gehmlab-gpu-47|1|19|20000M||/datacommons/igvf-pm/ENCODE/mutator-slurms|
bmajoros|COMPLETED|scavenger-gpu|2023-05-17T14:15:39|2023-05-17T15:26:22|01:10:43|dcc-gehmlab-gpu-24|1|19|20000M||/datacommons/igvf-pm/ENCODE/mutator-slurms|
bmajoros|COMPLETED|scavenger-gpu|2023-05-17T14:17:03|2023-05-17T15:20:24|01:03:21|dcc-gehmlab-gpu-44|1|19|20000M||/datacommons/igvf-pm/ENCODE/mutator-slurms|
bmajoros|COMPLETED|scavenger-gpu|2023-05-17T14:18:23|2023-05-17T15:19:18|01:00:55|dcc-gehmlab-gpu-26|1|19|20000M||/datacommons/igvf-pm/ENCODE/mutator-slurms|
bmajoros|COMPLETED|scavenger-gpu|2023-05-17T14:21:29|2023-05-17T15:27:26|01:05:57|dcc-gehmlab-gpu-43|1|19|20000M||/datacommons/igvf-pm/ENCODE/mutator-slurms|
bmajoros|COMPLETED|scavenger-gpu|2023-05-17T14:22:14|2023-05-17T15:25:07|01:02:53|dcc-gehmlab-gpu-48|1|19|20000M||/datacommons/igvf-pm/ENCODE/mutator-slurms|
bmajoros|COMPLETED|scavenger-gpu|2023-05-17T14:26:01|2023-05-17T15:02:12|00:36:11|dcc-gehmlab-gpu-60|1|19|20000M||/datacommons/igvf-pm/ENCODE/mutator-slurms|
bmajoros|COMPLETED|scavenger-gpu|2023-05-17T14:32:18|2023-05-17T17:41:15|03:08:57|dcc-youlab-gpu-12|1|10|20000M||/datacommons/igvf-pm/ENCODE/mutator-slurms|
bmajoros|COMPLETED|scavenger-gpu|2023-05-17T14:32:41|2023-05-17T15:34:59|01:02:18|dcc-gehmlab-gpu-39|1|19|20000M||/datacommons/igvf-pm/ENCODE/mutator-slurms|
bmajoros|COMPLETED|scavenger-gpu|2023-05-17T14:43:05|2023-05-17T17:46:35|03:03:30|dcc-youlab-gpu-11|1|10|20000M||/datacommons/igvf-pm/ENCODE/mutator-slurms|
bmajoros|COMPLETED|scavenger-gpu|2023-05-17T14:53:53|2023-05-17T17:53:00|02:59:07|dcc-motesa-gpu-04|1|6|20000M||/datacommons/igvf-pm/ENCODE/mutator-slurms|
bmajoros|PREEMPTED|scavenger-gpu|2023-05-17T14:54:27|2023-05-17T16:04:47|01:10:20|dcc-vossenlab-gpu-03|1|10|20000M||/datacommons/igvf-pm/ENCODE/mutator-slurms|
bmajoros|COMPLETED|scavenger-gpu|2023-05-17T14:57:24|2023-05-17T18:04:42|03:07:18|dcc-mainsahlab-gpu-04|1|6|20000M||/datacommons/igvf-pm/ENCODE/mutator-slurms|
bmajoros|CANCELLED by 26474|scavenger-gpu|2023-05-17T15:00:48|2023-05-18T14:38:04|23:37:16|dcc-gehmlab-gpu-42|1|19|20000M||/datacommons/igvf-pm/ENCODE/mutator-slurms|
bmajoros|COMPLETED|scavenger-gpu|2023-05-17T15:02:12|2023-05-17T15:39:30|00:37:18|dcc-gehmlab-gpu-60|1|19|20000M||/datacommons/igvf-pm/ENCODE/mutator-slurms|
bmajoros|COMPLETED|scavenger-gpu|2023-05-17T15:03:55|2023-05-17T16:07:55|01:04:00|dcc-gehmlab-gpu-41|1|19|20000M||/datacommons/igvf-pm/ENCODE/mutator-slurms|
bmajoros|COMPLETED|scavenger-gpu|2023-05-17T15:06:27|2023-05-17T16:03:53|00:57:26|dcc-gehmlab-gpu-45|1|19|20000M||/datacommons/igvf-pm/ENCODE/mutator-slurms|
bmajoros|COMPLETED|scavenger-gpu|2023-05-17T15:08:49|2023-05-17T16:06:59|00:58:10|dcc-gehmlab-gpu-46|1|19|20000M||/datacommons/igvf-pm/ENCODE/mutator-slurms|
bmajoros|COMPLETED|scavenger-gpu|2023-05-17T15:12:56|2023-05-17T18:06:07|02:53:11|dcc-youlab-gpu-28|1|10|20000M||/datacommons/igvf-pm/ENCODE/mutator-slurms|
bmajoros|COMPLETED|scavenger-gpu|2023-05-17T15:17:27|2023-05-17T16:17:26|00:59:59|dcc-gehmlab-gpu-47|1|19|20000M||/datacommons/igvf-pm/ENCODE/mutator-slurms|
bmajoros|COMPLETED|scavenger-gpu|2023-05-17T15:19:18|2023-05-17T16:22:27|01:03:09|dcc-gehmlab-gpu-40|1|19|20000M||/datacommons/igvf-pm/ENCODE/mutator-slurms|
bmajoros|COMPLETED|scavenger-gpu|2023-05-17T15:20:24|2023-05-17T16:22:54|01:02:30|dcc-gehmlab-gpu-44|1|19|20000M||/datacommons/igvf-pm/ENCODE/mutator-slurms|
bmajoros|COMPLETED|scavenger-gpu|2023-05-17T15:25:07|2023-05-17T16:25:41|01:00:34|dcc-gehmlab-gpu-48|1|19|20000M||/datacommons/igvf-pm/ENCODE/mutator-slurms|
bmajoros|COMPLETED|scavenger-gpu|2023-05-17T15:26:23|2023-05-17T16:27:50|01:01:27|dcc-gehmlab-gpu-26|1|19|20000M||/datacommons/igvf-pm/ENCODE/mutator-slurms|
bmajoros|COMPLETED|scavenger-gpu|2023-05-17T15:27:28|2023-05-17T16:32:15|01:04:47|dcc-gehmlab-gpu-43|1|19|20000M||/datacommons/igvf-pm/ENCODE/mutator-slurms|
bmajoros|COMPLETED|scavenger-gpu|2023-05-17T15:34:59|2023-05-17T16:39:58|01:04:59|dcc-gehmlab-gpu-39|1|19|20000M||/datacommons/igvf-pm/ENCODE/mutator-slurms|
bmajoros|COMPLETED|scavenger-gpu|2023-05-17T15:36:35|2023-05-17T18:31:33|02:54:58|dcc-youlab-gpu-16|1|10|20000M||/datacommons/igvf-pm/ENCODE/mutator-slurms|
bmajoros|COMPLETED|scavenger-gpu|2023-05-17T15:39:06|2023-05-17T18:53:20|03:14:14|dcc-youlab-gpu-53|1|10|20000M||/datacommons/igvf-pm/ENCODE/mutator-slurms|
bmajoros|COMPLETED|scavenger-gpu|2023-05-17T15:39:31|2023-05-17T16:16:25|00:36:54|dcc-gehmlab-gpu-60|1|19|20000M||/datacommons/igvf-pm/ENCODE/mutator-slurms|
bmajoros|COMPLETED|scavenger-gpu|2023-05-17T15:39:48|2023-05-17T18:42:19|03:02:31|dcc-youlab-gpu-35|1|10|20000M||/datacommons/igvf-pm/ENCODE/mutator-slurms|
bmajoros|COMPLETED|scavenger-gpu|2023-05-17T15:41:01|2023-05-17T18:44:47|03:03:46|dcc-youlab-gpu-37|1|10|20000M||/datacommons/igvf-pm/ENCODE/mutator-slurms|
bmajoros|COMPLETED|scavenger-gpu|2023-05-17T15:43:00|2023-05-17T16:50:00|01:07:00|dcc-gehmlab-gpu-24|1|19|20000M||/datacommons/igvf-pm/ENCODE/mutator-slurms|
bmajoros|COMPLETED|scavenger-gpu|2023-05-17T15:56:12|2023-05-17T19:02:49|03:06:37|dcc-youlab-gpu-31|1|10|20000M||/datacommons/igvf-pm/ENCODE/mutator-slurms|
bmajoros|COMPLETED|scavenger-gpu|2023-05-17T16:03:51|2023-05-17T19:14:05|03:10:14|dcc-youlab-gpu-14|1|10|20000M||/datacommons/igvf-pm/ENCODE/mutator-slurms|
bmajoros|COMPLETED|scavenger-gpu|2023-05-17T16:03:54|2023-05-17T18:34:27|02:30:33|dcc-ultrasound-gpu-03|1|19|20000M||/datacommons/igvf-pm/ENCODE/mutator-slurms|
bmajoros|COMPLETED|scavenger-gpu|2023-05-17T16:07:00|2023-05-17T17:08:23|01:01:23|dcc-gehmlab-gpu-46|1|19|20000M||/datacommons/igvf-pm/ENCODE/mutator-slurms|
bmajoros|COMPLETED|scavenger-gpu|2023-05-17T16:07:57|2023-05-17T17:08:18|01:00:21|dcc-gehmlab-gpu-45|1|19|20000M||/datacommons/igvf-pm/ENCODE/mutator-slurms|
bmajoros|PREEMPTED|scavenger-gpu|2023-05-17T16:12:37|2023-05-17T16:23:47|00:11:10|dcc-vossenlab-gpu-03|1|10|20000M||/datacommons/igvf-pm/ENCODE/mutator-slurms|
bmajoros|COMPLETED|scavenger-gpu|2023-05-17T16:14:03|2023-05-17T19:24:18|03:10:15|dcc-youlab-gpu-38|1|10|20000M||/datacommons/igvf-pm/ENCODE/mutator-slurms|
bmajoros|COMPLETED|scavenger-gpu|2023-05-17T16:16:25|2023-05-17T16:52:38|00:36:13|dcc-gehmlab-gpu-60|1|19|20000M||/datacommons/igvf-pm/ENCODE/mutator-slurms|
bmajoros|COMPLETED|scavenger-gpu|2023-05-17T16:17:27|2023-05-17T17:26:38|01:09:11|dcc-gehmlab-gpu-47|1|19|20000M||/datacommons/igvf-pm/ENCODE/mutator-slurms|
bmajoros|COMPLETED|scavenger-gpu|2023-05-17T16:19:14|2023-05-17T19:24:10|03:04:56|dcc-youlab-gpu-15|1|10|20000M||/datacommons/igvf-pm/ENCODE/mutator-slurms|
bmajoros|COMPLETED|scavenger-gpu|2023-05-17T16:22:29|2023-05-17T19:29:55|03:07:26|dcc-vossenlab-gpu-01|1|10|20000M||/datacommons/igvf-pm/ENCODE/mutator-slurms|
bmajoros|COMPLETED|scavenger-gpu|2023-05-17T16:22:54|2023-05-17T17:28:34|01:05:40|dcc-gehmlab-gpu-44|1|19|20000M||/datacommons/igvf-pm/ENCODE/mutator-slurms|
bmajoros|COMPLETED|scavenger-gpu|2023-05-17T16:23:47|2023-05-17T17:26:30|01:02:43|dcc-gehmlab-gpu-41|1|19|20000M||/datacommons/igvf-pm/ENCODE/mutator-slurms|
bmajoros|COMPLETED|scavenger-gpu|2023-05-17T16:25:42|2023-05-17T19:33:23|03:07:41|dcc-vossenlab-gpu-03|1|10|20000M||/datacommons/igvf-pm/ENCODE/mutator-slurms|
bmajoros|COMPLETED|scavenger-gpu|2023-05-17T16:27:51|2023-05-17T17:32:10|01:04:19|dcc-gehmlab-gpu-48|1|19|20000M||/datacommons/igvf-pm/ENCODE/mutator-slurms|
bmajoros|COMPLETED|scavenger-gpu|2023-05-17T16:28:17|2023-05-17T19:27:20|02:59:03|dcc-pbenfeylab-gpu-03|1|10|20000M||/datacommons/igvf-pm/ENCODE/mutator-slurms|
bmajoros|COMPLETED|scavenger-gpu|2023-05-17T16:32:15|2023-05-17T17:36:26|01:04:11|dcc-gehmlab-gpu-43|1|19|20000M||/datacommons/igvf-pm/ENCODE/mutator-slurms|
bmajoros|COMPLETED|scavenger-gpu|2023-05-17T16:40:00|2023-05-17T19:52:26|03:12:26|dcc-youlab-gpu-04|1|10|20000M||/datacommons/igvf-pm/ENCODE/mutator-slurms|
bmajoros|COMPLETED|scavenger-gpu|2023-05-17T16:48:02|2023-05-17T19:50:22|03:02:20|dcc-youlab-gpu-21|1|10|20000M||/datacommons/igvf-pm/ENCODE/mutator-slurms|
bmajoros|COMPLETED|scavenger-gpu|2023-05-17T16:48:03|2023-05-17T17:48:17|01:00:14|dcc-gehmlab-gpu-40|1|19|20000M||/datacommons/igvf-pm/ENCODE/mutator-slurms|
bmajoros|COMPLETED|scavenger-gpu|2023-05-17T16:50:16|2023-05-17T19:52:14|03:01:58|dcc-youlab-gpu-19|1|10|20000M||/datacommons/igvf-pm/ENCODE/mutator-slurms|
bmajoros|COMPLETED|scavenger-gpu|2023-05-17T16:52:38|2023-05-17T17:55:00|01:02:22|dcc-gehmlab-gpu-39|1|19|20000M||/datacommons/igvf-pm/ENCODE/mutator-slurms|
bmajoros|COMPLETED|scavenger-gpu|2023-05-17T17:08:23|2023-05-17T20:18:51|03:10:28|dcc-tdunn-gpu-01|1|44|20000M||/datacommons/igvf-pm/ENCODE/mutator-slurms|
bmajoros|COMPLETED|scavenger-gpu|2023-05-17T17:26:51|2023-05-17T20:39:39|03:12:48|dcc-youlab-gpu-18|1|10|20000M||/datacommons/igvf-pm/ENCODE/mutator-slurms|
bmajoros|COMPLETED|scavenger-gpu|2023-05-17T17:26:51|2023-05-17T20:34:13|03:07:22|dcc-youlab-gpu-03|1|10|20000M||/datacommons/igvf-pm/ENCODE/mutator-slurms|
bmajoros|COMPLETED|scavenger-gpu|2023-05-17T17:26:51|2023-05-17T18:04:11|00:37:20|dcc-gehmlab-gpu-60|1|19|20000M||/datacommons/igvf-pm/ENCODE/mutator-slurms|
bmajoros|COMPLETED|scavenger-gpu|2023-05-17T17:29:03|2023-05-17T20:36:38|03:07:35|dcc-pbenfeylab-gpu-02|1|10|20000M||/datacommons/igvf-pm/ENCODE/mutator-slurms|
bmajoros|COMPLETED|scavenger-gpu|2023-05-17T17:30:51|2023-05-17T20:39:39|03:08:48|dcc-vossenlab-gpu-04|1|10|20000M||/datacommons/igvf-pm/ENCODE/mutator-slurms|
bmajoros|COMPLETED|scavenger-gpu|2023-05-17T17:32:27|2023-05-17T18:38:57|01:06:30|dcc-gehmlab-gpu-48|1|19|20000M||/datacommons/igvf-pm/ENCODE/mutator-slurms|
bmajoros|COMPLETED|scavenger-gpu|2023-05-17T17:36:43|2023-05-17T18:44:48|01:08:05|dcc-gehmlab-gpu-47|1|19|20000M||/datacommons/igvf-pm/ENCODE/mutator-slurms|
bmajoros|COMPLETED|scavenger-gpu|2023-05-17T17:41:44|2023-05-17T20:47:46|03:06:02|dcc-youlab-gpu-12|1|10|20000M||/datacommons/igvf-pm/ENCODE/mutator-slurms|
bmajoros|COMPLETED|scavenger-gpu|2023-05-17T17:46:54|2023-05-17T20:42:44|02:55:50|dcc-youlab-gpu-11|1|10|20000M||/datacommons/igvf-pm/ENCODE/mutator-slurms|
bmajoros|COMPLETED|scavenger-gpu|2023-05-17T17:48:45|2023-05-17T18:50:32|01:01:47|dcc-gehmlab-gpu-46|1|19|20000M||/datacommons/igvf-pm/ENCODE/mutator-slurms|
bmajoros|COMPLETED|scavenger-gpu|2023-05-17T17:55:26|2023-05-17T21:08:57|03:13:31|dcc-pbenfeylab-gpu-01|1|10|20000M||/datacommons/igvf-pm/ENCODE/mutator-slurms|
bmajoros|COMPLETED|scavenger-gpu|2023-05-17T17:55:26|2023-05-17T20:56:01|03:00:35|dcc-motesa-gpu-04|1|6|20000M||/datacommons/igvf-pm/ENCODE/mutator-slurms|
bmajoros|COMPLETED|scavenger-gpu|2023-05-17T17:55:58|2023-05-17T21:09:58|03:14:00|dcc-youlab-gpu-02|1|10|20000M||/datacommons/igvf-pm/ENCODE/mutator-slurms|
bmajoros|COMPLETED|scavenger-gpu|2023-05-17T18:04:34|2023-05-17T18:42:03|00:37:29|dcc-gehmlab-gpu-60|1|19|20000M||/datacommons/igvf-pm/ENCODE/mutator-slurms|
bmajoros|COMPLETED|scavenger-gpu|2023-05-17T18:05:11|2023-05-17T21:17:19|03:12:08|dcc-mainsahlab-gpu-04|1|6|20000M||/datacommons/igvf-pm/ENCODE/mutator-slurms|
bmajoros|COMPLETED|scavenger-gpu|2023-05-17T18:06:25|2023-05-17T21:05:58|02:59:33|dcc-youlab-gpu-28|1|10|20000M||/datacommons/igvf-pm/ENCODE/mutator-slurms|
bmajoros|COMPLETED|scavenger-gpu|2023-05-17T18:32:09|2023-05-17T21:30:31|02:58:22|dcc-youlab-gpu-16|1|10|20000M||/datacommons/igvf-pm/ENCODE/mutator-slurms|
bmajoros|COMPLETED|scavenger-gpu|2023-05-17T18:34:39|2023-05-17T21:10:57|02:36:18|dcc-ultrasound-gpu-03|1|19|20000M||/datacommons/igvf-pm/ENCODE/mutator-slurms|
bmajoros|COMPLETED|scavenger-gpu|2023-05-17T18:39:13|2023-05-17T19:42:24|01:03:11|dcc-gehmlab-gpu-48|1|19|20000M||/datacommons/igvf-pm/ENCODE/mutator-slurms|
bmajoros|COMPLETED|scavenger-gpu|2023-05-17T18:42:08|2023-05-17T19:13:45|00:31:37|dcc-gehmlab-gpu-60|1|19|20000M||/datacommons/igvf-pm/ENCODE/mutator-slurms|
bmajoros|COMPLETED|scavenger-gpu|2023-05-17T18:42:41|2023-05-17T21:38:02|02:55:21|dcc-youlab-gpu-35|1|10|20000M||/datacommons/igvf-pm/ENCODE/mutator-slurms|
bmajoros|COMPLETED|scavenger-gpu|2023-05-17T18:44:49|2023-05-17T21:53:36|03:08:47|dcc-youlab-gpu-37|1|10|20000M||/datacommons/igvf-pm/ENCODE/mutator-slurms|
bmajoros|COMPLETED|scavenger-gpu|2023-05-17T18:44:49|2023-05-17T19:46:04|01:01:15|dcc-gehmlab-gpu-45|1|19|20000M||/datacommons/igvf-pm/ENCODE/mutator-slurms|
bmajoros|COMPLETED|scavenger-gpu|2023-05-17T18:50:48|2023-05-17T21:51:45|03:00:57|dcc-youlab-gpu-32|1|10|20000M||/datacommons/igvf-pm/ENCODE/mutator-slurms|
bmajoros|COMPLETED|scavenger-gpu|2023-05-17T18:53:35|2023-05-17T21:58:46|03:05:11|dcc-youlab-gpu-53|1|10|20000M||/datacommons/igvf-pm/ENCODE/mutator-slurms|
bmajoros|COMPLETED|scavenger-gpu|2023-05-17T19:03:05|2023-05-17T22:09:41|03:06:36|dcc-youlab-gpu-31|1|10|20000M||/datacommons/igvf-pm/ENCODE/mutator-slurms|
bmajoros|COMPLETED|scavenger-gpu|2023-05-17T19:14:17|2023-05-17T22:21:50|03:07:33|dcc-youlab-gpu-14|1|10|20000M||/datacommons/igvf-pm/ENCODE/mutator-slurms|
bmajoros|COMPLETED|scavenger-gpu|2023-05-17T19:14:17|2023-05-17T19:46:57|00:32:40|dcc-gehmlab-gpu-60|1|19|20000M||/datacommons/igvf-pm/ENCODE/mutator-slurms|
bmajoros|COMPLETED|scavenger-gpu|2023-05-17T19:24:31|2023-05-17T22:01:15|02:36:44|dcc-youlab-gpu-38|1|10|20000M||/datacommons/igvf-pm/ENCODE/mutator-slurms|
bmajoros|COMPLETED|scavenger-gpu|2023-05-17T19:24:31|2023-05-17T22:26:41|03:02:10|dcc-youlab-gpu-15|1|10|20000M||/datacommons/igvf-pm/ENCODE/mutator-slurms|
bmajoros|COMPLETED|scavenger-gpu|2023-05-17T19:27:28|2023-05-17T22:32:18|03:04:50|dcc-youlab-gpu-13|1|10|20000M||/datacommons/igvf-pm/ENCODE/mutator-slurms|
bmajoros|COMPLETED|scavenger-gpu|2023-05-17T19:30:17|2023-05-17T22:34:55|03:04:38|dcc-vossenlab-gpu-01|1|10|20000M||/datacommons/igvf-pm/ENCODE/mutator-slurms|
bmajoros|COMPLETED|scavenger-gpu|2023-05-17T19:33:37|2023-05-17T22:40:44|03:07:07|dcc-vossenlab-gpu-03|1|10|20000M||/datacommons/igvf-pm/ENCODE/mutator-slurms|
bmajoros|COMPLETED|scavenger-gpu|2023-05-17T19:42:45|2023-05-17T22:47:16|03:04:31|dcc-pbenfeylab-gpu-03|1|10|20000M||/datacommons/igvf-pm/ENCODE/mutator-slurms|
bmajoros|COMPLETED|scavenger-gpu|2023-05-17T19:46:29|2023-05-17T20:49:53|01:03:24|dcc-gehmlab-gpu-48|1|19|20000M||/datacommons/igvf-pm/ENCODE/mutator-slurms|
bmajoros|COMPLETED|scavenger-gpu|2023-05-17T19:47:01|2023-05-17T20:19:35|00:32:34|dcc-gehmlab-gpu-60|1|19|20000M||/datacommons/igvf-pm/ENCODE/mutator-slurms|
bmajoros|COMPLETED|scavenger-gpu|2023-05-17T19:50:48|2023-05-17T22:45:33|02:54:45|dcc-youlab-gpu-21|1|10|20000M||/datacommons/igvf-pm/ENCODE/mutator-slurms|
bmajoros|COMPLETED|scavenger-gpu|2023-05-17T19:52:23|2023-05-17T22:56:58|03:04:35|dcc-youlab-gpu-19|1|10|20000M||/datacommons/igvf-pm/ENCODE/mutator-slurms|
bmajoros|COMPLETED|scavenger-gpu|2023-05-17T19:52:56|2023-05-17T23:00:31|03:07:35|dcc-youlab-gpu-04|1|10|20000M||/datacommons/igvf-pm/ENCODE/mutator-slurms|
bmajoros|COMPLETED|scavenger-gpu|2023-05-17T20:16:11|2023-05-17T23:22:15|03:06:04|dcc-youlab-gpu-33|1|10|20000M||/datacommons/igvf-pm/ENCODE/mutator-slurms|
bmajoros|COMPLETED|scavenger-gpu|2023-05-17T20:18:52|2023-05-17T21:17:31|00:58:39|dcc-gehmlab-gpu-46|1|19|20000M||/datacommons/igvf-pm/ENCODE/mutator-slurms|
bmajoros|COMPLETED|scavenger-gpu|2023-05-17T20:18:52|2023-05-17T21:21:47|01:02:55|dcc-gehmlab-gpu-45|1|19|20000M||/datacommons/igvf-pm/ENCODE/mutator-slurms|
bmajoros|COMPLETED|scavenger-gpu|2023-05-17T20:19:55|2023-05-17T20:51:17|00:31:22|dcc-gehmlab-gpu-60|1|19|20000M||/datacommons/igvf-pm/ENCODE/mutator-slurms|
bmajoros|COMPLETED|scavenger-gpu|2023-05-17T20:34:21|2023-05-17T23:37:52|03:03:31|dcc-youlab-gpu-03|1|10|20000M||/datacommons/igvf-pm/ENCODE/mutator-slurms|
bmajoros|COMPLETED|scavenger-gpu|2023-05-17T20:37:03|2023-05-17T23:41:27|03:04:24|dcc-pbenfeylab-gpu-02|1|10|20000M||/datacommons/igvf-pm/ENCODE/mutator-slurms|
bmajoros|COMPLETED|scavenger-gpu|2023-05-17T20:39:43|2023-05-17T23:47:07|03:07:24|dcc-youlab-gpu-18|1|10|20000M||/datacommons/igvf-pm/ENCODE/mutator-slurms|
bmajoros|COMPLETED|scavenger-gpu|2023-05-17T20:39:43|2023-05-17T23:46:21|03:06:38|dcc-vossenlab-gpu-04|1|10|20000M||/datacommons/igvf-pm/ENCODE/mutator-slurms|
bmajoros|COMPLETED|scavenger-gpu|2023-05-17T20:42:57|2023-05-17T23:47:41|03:04:44|dcc-youlab-gpu-11|1|10|20000M||/datacommons/igvf-pm/ENCODE/mutator-slurms|
bmajoros|COMPLETED|scavenger-gpu|2023-05-17T20:47:46|2023-05-17T21:52:34|01:04:48|dcc-gehmlab-gpu-44|1|19|20000M||/datacommons/igvf-pm/ENCODE/mutator-slurms|
bmajoros|COMPLETED|scavenger-gpu|2023-05-17T20:49:58|2023-05-17T21:56:34|01:06:36|dcc-gehmlab-gpu-48|1|19|20000M||/datacommons/igvf-pm/ENCODE/mutator-slurms|
bmajoros|COMPLETED|scavenger-gpu|2023-05-17T20:51:34|2023-05-17T21:23:11|00:31:37|dcc-gehmlab-gpu-60|1|19|20000M||/datacommons/igvf-pm/ENCODE/mutator-slurms|
bmajoros|COMPLETED|scavenger-gpu|2023-05-17T20:56:21|2023-05-17T23:51:10|02:54:49|dcc-motesa-gpu-04|1|6|20000M||/datacommons/igvf-pm/ENCODE/mutator-slurms|
bmajoros|COMPLETED|scavenger-gpu|2023-05-17T21:06:32|2023-05-18T00:09:54|03:03:22|dcc-youlab-gpu-28|1|10|20000M||/datacommons/igvf-pm/ENCODE/mutator-slurms|
bmajoros|COMPLETED|scavenger-gpu|2023-05-17T21:09:13|2023-05-18T00:13:35|03:04:22|dcc-pbenfeylab-gpu-01|1|10|20000M||/datacommons/igvf-pm/ENCODE/mutator-slurms|
bmajoros|COMPLETED|scavenger-gpu|2023-05-17T21:10:18|2023-05-18T00:20:23|03:10:05|dcc-youlab-gpu-02|1|10|20000M||/datacommons/igvf-pm/ENCODE/mutator-slurms|
bmajoros|COMPLETED|scavenger-gpu|2023-05-17T21:11:22|2023-05-17T23:42:05|02:30:43|dcc-ultrasound-gpu-03|1|19|20000M||/datacommons/igvf-pm/ENCODE/mutator-slurms|
bmajoros|COMPLETED|scavenger-gpu|2023-05-17T21:17:48|2023-05-18T00:21:07|03:03:19|dcc-mainsahlab-gpu-04|1|6|20000M||/datacommons/igvf-pm/ENCODE/mutator-slurms|
bmajoros|COMPLETED|scavenger-gpu|2023-05-17T21:17:48|2023-05-17T22:15:11|00:57:23|dcc-gehmlab-gpu-46|1|19|20000M||/datacommons/igvf-pm/ENCODE/mutator-slurms|
bmajoros|COMPLETED|scavenger-gpu|2023-05-17T21:22:13|2023-05-17T22:22:07|00:59:54|dcc-gehmlab-gpu-45|1|19|20000M||/datacommons/igvf-pm/ENCODE/mutator-slurms|
bmajoros|COMPLETED|scavenger-gpu|2023-05-17T21:23:20|2023-05-17T21:55:57|00:32:37|dcc-gehmlab-gpu-60|1|19|20000M||/datacommons/igvf-pm/ENCODE/mutator-slurms|
bmajoros|COMPLETED|scavenger-gpu|2023-05-17T21:30:48|2023-05-18T00:35:56|03:05:08|dcc-youlab-gpu-16|1|10|20000M||/datacommons/igvf-pm/ENCODE/mutator-slurms|
bmajoros|COMPLETED|scavenger-gpu|2023-05-17T21:38:18|2023-05-18T00:36:29|02:58:11|dcc-youlab-gpu-35|1|10|20000M||/datacommons/igvf-pm/ENCODE/mutator-slurms|
bmajoros|COMPLETED|scavenger-gpu|2023-05-17T21:52:13|2023-05-18T00:53:25|03:01:12|dcc-youlab-gpu-32|1|10|20000M||/datacommons/igvf-pm/ENCODE/mutator-slurms|
bmajoros|COMPLETED|scavenger-gpu|2023-05-17T21:52:45|2023-05-17T22:59:50|01:07:05|dcc-gehmlab-gpu-44|1|19|20000M||/datacommons/igvf-pm/ENCODE/mutator-slurms|
bmajoros|COMPLETED|scavenger-gpu|2023-05-17T21:53:48|2023-05-18T00:59:10|03:05:22|dcc-youlab-gpu-37|1|10|20000M||/datacommons/igvf-pm/ENCODE/mutator-slurms|
bmajoros|COMPLETED|scavenger-gpu|2023-05-17T21:56:01|2023-05-17T23:02:09|01:06:08|dcc-gehmlab-gpu-43|1|19|20000M||/datacommons/igvf-pm/ENCODE/mutator-slurms|
bmajoros|COMPLETED|scavenger-gpu|2023-05-17T21:56:37|2023-05-17T22:29:12|00:32:35|dcc-gehmlab-gpu-60|1|19|20000M||/datacommons/igvf-pm/ENCODE/mutator-slurms|
bmajoros|COMPLETED|scavenger-gpu|2023-05-17T21:59:17|2023-05-18T00:59:05|02:59:48|dcc-youlab-gpu-53|1|10|20000M||/datacommons/igvf-pm/ENCODE/mutator-slurms|
bmajoros|COMPLETED|scavenger-gpu|2023-05-17T22:01:24|2023-05-18T01:16:32|03:15:08|dcc-youlab-gpu-38|1|10|20000M||/datacommons/igvf-pm/ENCODE/mutator-slurms|
bmajoros|COMPLETED|scavenger-gpu|2023-05-17T22:09:49|2023-05-18T01:11:20|03:01:31|dcc-youlab-gpu-31|1|10|20000M||/datacommons/igvf-pm/ENCODE/mutator-slurms|
bmajoros|COMPLETED|scavenger-gpu|2023-05-17T22:15:43|2023-05-17T23:20:23|01:04:40|dcc-gehmlab-gpu-48|1|19|20000M||/datacommons/igvf-pm/ENCODE/mutator-slurms|
bmajoros|COMPLETED|scavenger-gpu|2023-05-17T22:22:14|2023-05-18T01:29:01|03:06:47|dcc-youlab-gpu-14|1|10|20000M||/datacommons/igvf-pm/ENCODE/mutator-slurms|
bmajoros|COMPLETED|scavenger-gpu|2023-05-17T22:22:15|2023-05-17T23:21:40|00:59:25|dcc-gehmlab-gpu-46|1|19|20000M||/datacommons/igvf-pm/ENCODE/mutator-slurms|
bmajoros|COMPLETED|scavenger-gpu|2023-05-17T22:26:46|2023-05-18T01:29:03|03:02:17|dcc-youlab-gpu-15|1|10|20000M||/datacommons/igvf-pm/ENCODE/mutator-slurms|
bmajoros|COMPLETED|scavenger-gpu|2023-05-17T22:29:19|2023-05-17T23:00:42|00:31:23|dcc-gehmlab-gpu-60|1|19|20000M||/datacommons/igvf-pm/ENCODE/mutator-slurms|
bmajoros|COMPLETED|scavenger-gpu|2023-05-17T22:32:22|2023-05-18T01:41:23|03:09:01|dcc-youlab-gpu-13|1|10|20000M||/datacommons/igvf-pm/ENCODE/mutator-slurms|
bmajoros|COMPLETED|scavenger-gpu|2023-05-17T22:34:57|2023-05-18T01:34:02|02:59:05|dcc-vossenlab-gpu-01|1|10|20000M||/datacommons/igvf-pm/ENCODE/mutator-slurms|
bmajoros|COMPLETED|scavenger-gpu|2023-05-17T22:40:44|2023-05-18T01:47:23|03:06:39|dcc-vossenlab-gpu-03|1|10|20000M||/datacommons/igvf-pm/ENCODE/mutator-slurms|
bmajoros|COMPLETED|scavenger-gpu|2023-05-17T22:45:34|2023-05-18T01:46:22|03:00:48|dcc-youlab-gpu-21|1|10|20000M||/datacommons/igvf-pm/ENCODE/mutator-slurms|
bmajoros|COMPLETED|scavenger-gpu|2023-05-17T22:47:17|2023-05-18T01:47:20|03:00:03|dcc-pbenfeylab-gpu-03|1|10|20000M||/datacommons/igvf-pm/ENCODE/mutator-slurms|
bmajoros|COMPLETED|scavenger-gpu|2023-05-17T22:56:59|2023-05-18T01:57:18|03:00:19|dcc-youlab-gpu-19|1|10|20000M||/datacommons/igvf-pm/ENCODE/mutator-slurms|
bmajoros|COMPLETED|scavenger-gpu|2023-05-17T22:59:50|2023-05-18T00:03:42|01:03:52|dcc-gehmlab-gpu-44|1|19|20000M||/datacommons/igvf-pm/ENCODE/mutator-slurms|
bmajoros|COMPLETED|scavenger-gpu|2023-05-17T23:00:31|2023-05-18T02:05:20|03:04:49|dcc-youlab-gpu-04|1|10|20000M||/datacommons/igvf-pm/ENCODE/mutator-slurms|
bmajoros|COMPLETED|scavenger-gpu|2023-05-17T23:00:42|2023-05-17T23:33:33|00:32:51|dcc-gehmlab-gpu-60|1|19|20000M||/datacommons/igvf-pm/ENCODE/mutator-slurms|
bmajoros|COMPLETED|scavenger-gpu|2023-05-17T23:02:10|2023-05-18T00:03:28|01:01:18|dcc-gehmlab-gpu-43|1|19|20000M||/datacommons/igvf-pm/ENCODE/mutator-slurms|
bmajoros|COMPLETED|scavenger-gpu|2023-05-17T23:20:23|2023-05-18T00:24:38|01:04:15|dcc-gehmlab-gpu-48|1|19|20000M||/datacommons/igvf-pm/ENCODE/mutator-slurms|
bmajoros|COMPLETED|scavenger-gpu|2023-05-17T23:21:41|2023-05-18T00:25:16|01:03:35|dcc-gehmlab-gpu-46|1|19|20000M||/datacommons/igvf-pm/ENCODE/mutator-slurms|
bmajoros|COMPLETED|scavenger-gpu|2023-05-17T23:22:15|2023-05-18T02:25:56|03:03:41|dcc-youlab-gpu-33|1|10|20000M||/datacommons/igvf-pm/ENCODE/mutator-slurms|
bmajoros|COMPLETED|scavenger-gpu|2023-05-17T23:33:33|2023-05-18T00:06:04|00:32:31|dcc-gehmlab-gpu-60|1|19|20000M||/datacommons/igvf-pm/ENCODE/mutator-slurms|
bmajoros|COMPLETED|scavenger-gpu|2023-05-17T23:37:52|2023-05-18T02:38:37|03:00:45|dcc-youlab-gpu-03|1|10|20000M||/datacommons/igvf-pm/ENCODE/mutator-slurms|
bmajoros|COMPLETED|scavenger-gpu|2023-05-17T23:41:27|2023-05-18T02:48:16|03:06:49|dcc-pbenfeylab-gpu-02|1|10|20000M||/datacommons/igvf-pm/ENCODE/mutator-slurms|
bmajoros|COMPLETED|scavenger-gpu|2023-05-17T23:42:05|2023-05-18T02:16:08|02:34:03|dcc-ultrasound-gpu-03|1|19|20000M||/datacommons/igvf-pm/ENCODE/mutator-slurms|
bmajoros|COMPLETED|scavenger-gpu|2023-05-17T23:46:22|2023-05-18T02:53:40|03:07:18|dcc-vossenlab-gpu-04|1|10|20000M||/datacommons/igvf-pm/ENCODE/mutator-slurms|
bmajoros|COMPLETED|scavenger-gpu|2023-05-17T23:47:07|2023-05-18T02:58:11|03:11:04|dcc-youlab-gpu-18|1|10|20000M||/datacommons/igvf-pm/ENCODE/mutator-slurms|
bmajoros|COMPLETED|scavenger-gpu|2023-05-17T23:47:41|2023-05-18T02:39:20|02:51:39|dcc-youlab-gpu-11|1|10|20000M||/datacommons/igvf-pm/ENCODE/mutator-slurms|
bmajoros|COMPLETED|scavenger-gpu|2023-05-17T23:51:10|2023-05-18T02:55:31|03:04:21|dcc-motesa-gpu-04|1|6|20000M||/datacommons/igvf-pm/ENCODE/mutator-slurms|
bmajoros|COMPLETED|scavenger-gpu|2023-05-18T00:03:28|2023-05-18T01:02:02|00:58:34|dcc-gehmlab-gpu-45|1|19|20000M||/datacommons/igvf-pm/ENCODE/mutator-slurms|
bmajoros|COMPLETED|scavenger-gpu|2023-05-18T00:03:43|2023-05-18T01:08:43|01:05:00|dcc-gehmlab-gpu-43|1|19|20000M||/datacommons/igvf-pm/ENCODE/mutator-slurms|
bmajoros|COMPLETED|scavenger-gpu|2023-05-18T00:06:04|2023-05-18T00:38:57|00:32:53|dcc-gehmlab-gpu-60|1|19|20000M||/datacommons/igvf-pm/ENCODE/mutator-slurms|
bmajoros|COMPLETED|scavenger-gpu|2023-05-18T00:09:54|2023-05-18T03:11:58|03:02:04|dcc-youlab-gpu-28|1|10|20000M||/datacommons/igvf-pm/ENCODE/mutator-slurms|
bmajoros|COMPLETED|scavenger-gpu|2023-05-18T00:13:35|2023-05-18T03:22:03|03:08:28|dcc-pbenfeylab-gpu-01|1|10|20000M||/datacommons/igvf-pm/ENCODE/mutator-slurms|
bmajoros|COMPLETED|scavenger-gpu|2023-05-18T00:20:23|2023-05-18T03:27:00|03:06:37|dcc-youlab-gpu-02|1|10|20000M||/datacommons/igvf-pm/ENCODE/mutator-slurms|
bmajoros|COMPLETED|scavenger-gpu|2023-05-18T00:21:07|2023-05-18T03:24:57|03:03:50|dcc-mainsahlab-gpu-04|1|6|20000M||/datacommons/igvf-pm/ENCODE/mutator-slurms|
bmajoros|COMPLETED|scavenger-gpu|2023-05-18T00:24:39|2023-05-18T01:27:02|01:02:23|dcc-gehmlab-gpu-48|1|19|20000M||/datacommons/igvf-pm/ENCODE/mutator-slurms|
bmajoros|COMPLETED|scavenger-gpu|2023-05-18T00:25:16|2023-05-18T01:25:04|00:59:48|dcc-gehmlab-gpu-46|1|19|20000M||/datacommons/igvf-pm/ENCODE/mutator-slurms|
bmajoros|COMPLETED|scavenger-gpu|2023-05-18T00:35:56|2023-05-18T03:38:04|03:02:08|dcc-youlab-gpu-16|1|10|20000M||/datacommons/igvf-pm/ENCODE/mutator-slurms|
bmajoros|COMPLETED|scavenger-gpu|2023-05-18T00:36:29|2023-05-18T03:40:42|03:04:13|dcc-youlab-gpu-35|1|10|20000M||/datacommons/igvf-pm/ENCODE/mutator-slurms|
bmajoros|COMPLETED|scavenger-gpu|2023-05-18T00:38:57|2023-05-18T01:10:50|00:31:53|dcc-gehmlab-gpu-60|1|19|20000M||/datacommons/igvf-pm/ENCODE/mutator-slurms|
bmajoros|COMPLETED|scavenger-gpu|2023-05-18T00:53:27|2023-05-18T03:48:58|02:55:31|dcc-youlab-gpu-32|1|10|20000M||/datacommons/igvf-pm/ENCODE/mutator-slurms|
bmajoros|COMPLETED|scavenger-gpu|2023-05-18T00:59:06|2023-05-18T04:08:05|03:08:59|dcc-youlab-gpu-53|1|10|20000M||/datacommons/igvf-pm/ENCODE/mutator-slurms|
bmajoros|COMPLETED|scavenger-gpu|2023-05-18T00:59:10|2023-05-18T03:59:12|03:00:02|dcc-youlab-gpu-37|1|10|20000M||/datacommons/igvf-pm/ENCODE/mutator-slurms|
bmajoros|COMPLETED|scavenger-gpu|2023-05-18T01:02:02|2023-05-18T02:02:04|01:00:02|dcc-gehmlab-gpu-45|1|19|20000M||/datacommons/igvf-pm/ENCODE/mutator-slurms|
bmajoros|COMPLETED|scavenger-gpu|2023-05-18T01:08:43|2023-05-18T02:10:18|01:01:35|dcc-gehmlab-gpu-44|1|19|20000M||/datacommons/igvf-pm/ENCODE/mutator-slurms|
bmajoros|COMPLETED|scavenger-gpu|2023-05-18T01:10:50|2023-05-18T01:41:45|00:30:55|dcc-gehmlab-gpu-60|1|19|20000M||/datacommons/igvf-pm/ENCODE/mutator-slurms|
bmajoros|COMPLETED|scavenger-gpu|2023-05-18T01:11:20|2023-05-18T04:16:29|03:05:09|dcc-youlab-gpu-31|1|10|20000M||/datacommons/igvf-pm/ENCODE/mutator-slurms|
bmajoros|COMPLETED|scavenger-gpu|2023-05-18T01:16:33|2023-05-18T04:20:46|03:04:13|dcc-youlab-gpu-38|1|10|20000M||/datacommons/igvf-pm/ENCODE/mutator-slurms|
bmajoros|COMPLETED|scavenger-gpu|2023-05-18T01:25:04|2023-05-18T02:23:33|00:58:29|dcc-gehmlab-gpu-46|1|19|20000M||/datacommons/igvf-pm/ENCODE/mutator-slurms|
bmajoros|COMPLETED|scavenger-gpu|2023-05-18T01:27:02|2023-05-18T02:29:07|01:02:05|dcc-gehmlab-gpu-48|1|19|20000M||/datacommons/igvf-pm/ENCODE/mutator-slurms|
bmajoros|COMPLETED|scavenger-gpu|2023-05-18T01:29:01|2023-05-18T04:37:32|03:08:31|dcc-youlab-gpu-14|1|10|20000M||/datacommons/igvf-pm/ENCODE/mutator-slurms|
bmajoros|COMPLETED|scavenger-gpu|2023-05-18T01:29:05|2023-05-18T04:39:29|03:10:24|dcc-youlab-gpu-15|1|10|20000M||/datacommons/igvf-pm/ENCODE/mutator-slurms|
bmajoros|COMPLETED|scavenger-gpu|2023-05-18T01:34:02|2023-05-18T04:37:26|03:03:24|dcc-vossenlab-gpu-01|1|10|20000M||/datacommons/igvf-pm/ENCODE/mutator-slurms|
bmajoros|COMPLETED|scavenger-gpu|2023-05-18T01:41:25|2023-05-18T04:42:21|03:00:56|dcc-youlab-gpu-13|1|10|20000M||/datacommons/igvf-pm/ENCODE/mutator-slurms|
bmajoros|COMPLETED|scavenger-gpu|2023-05-18T01:41:45|2023-05-18T02:13:36|00:31:51|dcc-gehmlab-gpu-60|1|19|20000M||/datacommons/igvf-pm/ENCODE/mutator-slurms|
bmajoros|COMPLETED|scavenger-gpu|2023-05-18T01:46:22|2023-05-18T04:45:21|02:58:59|dcc-youlab-gpu-21|1|10|20000M||/datacommons/igvf-pm/ENCODE/mutator-slurms|
bmajoros|COMPLETED|scavenger-gpu|2023-05-18T01:47:20|2023-05-18T04:50:43|03:03:23|dcc-pbenfeylab-gpu-03|1|10|20000M||/datacommons/igvf-pm/ENCODE/mutator-slurms|
bmajoros|COMPLETED|scavenger-gpu|2023-05-18T01:47:25|2023-05-18T04:53:02|03:05:37|dcc-vossenlab-gpu-03|1|10|20000M||/datacommons/igvf-pm/ENCODE/mutator-slurms|
bmajoros|COMPLETED|scavenger-gpu|2023-05-18T01:57:18|2023-05-18T04:56:37|02:59:19|dcc-youlab-gpu-19|1|10|20000M||/datacommons/igvf-pm/ENCODE/mutator-slurms|
bmajoros|COMPLETED|scavenger-gpu|2023-05-18T02:02:05|2023-05-18T03:02:03|00:59:58|dcc-gehmlab-gpu-45|1|19|20000M||/datacommons/igvf-pm/ENCODE/mutator-slurms|
bmajoros|COMPLETED|scavenger-gpu|2023-05-18T02:05:20|2023-05-18T05:11:02|03:05:42|dcc-youlab-gpu-04|1|10|20000M||/datacommons/igvf-pm/ENCODE/mutator-slurms|
bmajoros|COMPLETED|scavenger-gpu|2023-05-18T02:10:18|2023-05-18T03:14:24|01:04:06|dcc-gehmlab-gpu-44|1|19|20000M||/datacommons/igvf-pm/ENCODE/mutator-slurms|
bmajoros|COMPLETED|scavenger-gpu|2023-05-18T02:13:36|2023-05-18T02:45:26|00:31:50|dcc-gehmlab-gpu-60|1|19|20000M||/datacommons/igvf-pm/ENCODE/mutator-slurms|
bmajoros|COMPLETED|scavenger-gpu|2023-05-18T02:16:08|2023-05-18T04:48:31|02:32:23|dcc-ultrasound-gpu-03|1|19|20000M||/datacommons/igvf-pm/ENCODE/mutator-slurms|
bmajoros|COMPLETED|scavenger-gpu|2023-05-18T02:23:35|2023-05-18T03:18:45|00:55:10|dcc-gehmlab-gpu-46|1|19|20000M||/datacommons/igvf-pm/ENCODE/mutator-slurms|
bmajoros|COMPLETED|scavenger-gpu|2023-05-18T02:25:56|2023-05-18T05:29:56|03:04:00|dcc-youlab-gpu-33|1|10|20000M||/datacommons/igvf-pm/ENCODE/mutator-slurms|
bmajoros|COMPLETED|scavenger-gpu|2023-05-18T02:29:07|2023-05-18T03:30:04|01:00:57|dcc-gehmlab-gpu-48|1|19|20000M||/datacommons/igvf-pm/ENCODE/mutator-slurms|
bmajoros|COMPLETED|scavenger-gpu|2023-05-18T02:38:37|2023-05-18T05:43:39|03:05:02|dcc-youlab-gpu-03|1|10|20000M||/datacommons/igvf-pm/ENCODE/mutator-slurms|
bmajoros|COMPLETED|scavenger-gpu|2023-05-18T02:39:20|2023-05-18T05:39:14|02:59:54|dcc-youlab-gpu-11|1|10|20000M||/datacommons/igvf-pm/ENCODE/mutator-slurms|
bmajoros|COMPLETED|scavenger-gpu|2023-05-18T02:45:26|2023-05-18T03:17:49|00:32:23|dcc-gehmlab-gpu-60|1|19|20000M||/datacommons/igvf-pm/ENCODE/mutator-slurms|
bmajoros|COMPLETED|scavenger-gpu|2023-05-18T02:48:16|2023-05-18T05:58:43|03:10:27|dcc-pbenfeylab-gpu-02|1|10|20000M||/datacommons/igvf-pm/ENCODE/mutator-slurms|
bmajoros|COMPLETED|scavenger-gpu|2023-05-18T02:53:40|2023-05-18T06:03:10|03:09:30|dcc-vossenlab-gpu-04|1|10|20000M||/datacommons/igvf-pm/ENCODE/mutator-slurms|
bmajoros|COMPLETED|scavenger-gpu|2023-05-18T02:55:31|2023-05-18T06:02:20|03:06:49|dcc-motesa-gpu-04|1|6|20000M||/datacommons/igvf-pm/ENCODE/mutator-slurms|
bmajoros|COMPLETED|scavenger-gpu|2023-05-18T02:58:11|2023-05-18T06:07:03|03:08:52|dcc-youlab-gpu-18|1|10|20000M||/datacommons/igvf-pm/ENCODE/mutator-slurms|
bmajoros|COMPLETED|scavenger-gpu|2023-05-18T03:02:03|2023-05-18T04:01:08|00:59:05|dcc-gehmlab-gpu-45|1|19|20000M||/datacommons/igvf-pm/ENCODE/mutator-slurms|
bmajoros|COMPLETED|scavenger-gpu|2023-05-18T03:11:58|2023-05-18T06:15:43|03:03:45|dcc-youlab-gpu-28|1|10|20000M||/datacommons/igvf-pm/ENCODE/mutator-slurms|
bmajoros|COMPLETED|scavenger-gpu|2023-05-18T03:14:24|2023-05-18T04:14:26|01:00:02|dcc-gehmlab-gpu-44|1|19|20000M||/datacommons/igvf-pm/ENCODE/mutator-slurms|
bmajoros|COMPLETED|scavenger-gpu|2023-05-18T03:17:49|2023-05-18T03:49:08|00:31:19|dcc-gehmlab-gpu-60|1|19|20000M||/datacommons/igvf-pm/ENCODE/mutator-slurms|
bmajoros|COMPLETED|scavenger-gpu|2023-05-18T03:18:45|2023-05-18T04:22:47|01:04:02|dcc-gehmlab-gpu-46|1|19|20000M||/datacommons/igvf-pm/ENCODE/mutator-slurms|
bmajoros|COMPLETED|scavenger-gpu|2023-05-18T03:22:03|2023-05-18T06:38:22|03:16:19|dcc-pbenfeylab-gpu-01|1|10|20000M||/datacommons/igvf-pm/ENCODE/mutator-slurms|
bmajoros|COMPLETED|scavenger-gpu|2023-05-18T03:24:57|2023-05-18T06:31:10|03:06:13|dcc-mainsahlab-gpu-04|1|6|20000M||/datacommons/igvf-pm/ENCODE/mutator-slurms|
bmajoros|COMPLETED|scavenger-gpu|2023-05-18T03:27:02|2023-05-18T06:27:05|03:00:03|dcc-youlab-gpu-02|1|10|20000M||/datacommons/igvf-pm/ENCODE/mutator-slurms|
bmajoros|COMPLETED|scavenger-gpu|2023-05-18T03:30:04|2023-05-18T04:30:34|01:00:30|dcc-gehmlab-gpu-48|1|19|20000M||/datacommons/igvf-pm/ENCODE/mutator-slurms|
bmajoros|COMPLETED|scavenger-gpu|2023-05-18T03:38:04|2023-05-18T06:44:50|03:06:46|dcc-youlab-gpu-16|1|10|20000M||/datacommons/igvf-pm/ENCODE/mutator-slurms|
bmajoros|COMPLETED|scavenger-gpu|2023-05-18T03:40:42|2023-05-18T06:40:40|02:59:58|dcc-youlab-gpu-35|1|10|20000M||/datacommons/igvf-pm/ENCODE/mutator-slurms|
bmajoros|COMPLETED|scavenger-gpu|2023-05-18T03:48:58|2023-05-18T06:52:34|03:03:36|dcc-youlab-gpu-32|1|10|20000M||/datacommons/igvf-pm/ENCODE/mutator-slurms|
bmajoros|COMPLETED|scavenger-gpu|2023-05-18T03:49:08|2023-05-18T04:21:05|00:31:57|dcc-gehmlab-gpu-60|1|19|20000M||/datacommons/igvf-pm/ENCODE/mutator-slurms|
bmajoros|COMPLETED|scavenger-gpu|2023-05-18T03:59:12|2023-05-18T07:04:14|03:05:02|dcc-youlab-gpu-37|1|10|20000M||/datacommons/igvf-pm/ENCODE/mutator-slurms|
bmajoros|COMPLETED|scavenger-gpu|2023-05-18T04:01:08|2023-05-18T04:59:56|00:58:48|dcc-gehmlab-gpu-45|1|19|20000M||/datacommons/igvf-pm/ENCODE/mutator-slurms|
bmajoros|COMPLETED|scavenger-gpu|2023-05-18T04:08:05|2023-05-18T07:17:23|03:09:18|dcc-youlab-gpu-53|1|10|20000M||/datacommons/igvf-pm/ENCODE/mutator-slurms|
bmajoros|COMPLETED|scavenger-gpu|2023-05-18T04:14:26|2023-05-18T05:21:17|01:06:51|dcc-gehmlab-gpu-44|1|19|20000M||/datacommons/igvf-pm/ENCODE/mutator-slurms|
bmajoros|COMPLETED|scavenger-gpu|2023-05-18T04:16:29|2023-05-18T07:24:24|03:07:55|dcc-youlab-gpu-31|1|10|20000M||/datacommons/igvf-pm/ENCODE/mutator-slurms|
bmajoros|COMPLETED|scavenger-gpu|2023-05-18T04:20:46|2023-05-18T07:30:58|03:10:12|dcc-youlab-gpu-38|1|10|20000M||/datacommons/igvf-pm/ENCODE/mutator-slurms|
bmajoros|COMPLETED|scavenger-gpu|2023-05-18T04:21:06|2023-05-18T07:23:47|03:02:41|dcc-mainsahlab-gpu-03|1|6|20000M||/datacommons/igvf-pm/ENCODE/mutator-slurms|
bmajoros|COMPLETED|scavenger-gpu|2023-05-18T04:21:06|2023-05-18T07:22:55|03:01:49|dcc-mainsahlab-gpu-02|1|6|20000M||/datacommons/igvf-pm/ENCODE/mutator-slurms|
bmajoros|COMPLETED|scavenger-gpu|2023-05-18T04:22:47|2023-05-18T05:21:23|00:58:36|dcc-gehmlab-gpu-46|1|19|20000M||/datacommons/igvf-pm/ENCODE/mutator-slurms|
bmajoros|COMPLETED|scavenger-gpu|2023-05-18T04:25:34|2023-05-18T07:26:14|03:00:40|dcc-youlab-gpu-05|1|10|20000M||/datacommons/igvf-pm/ENCODE/mutator-slurms|
bmajoros|COMPLETED|scavenger-gpu|2023-05-18T04:30:34|2023-05-18T07:37:42|03:07:08|dcc-motesa-gpu-01|1|6|20000M||/datacommons/igvf-pm/ENCODE/mutator-slurms|
bmajoros|COMPLETED|scavenger-gpu|2023-05-18T04:37:26|2023-05-18T07:43:00|03:05:34|dcc-vossenlab-gpu-01|1|10|20000M||/datacommons/igvf-pm/ENCODE/mutator-slurms|
bmajoros|COMPLETED|scavenger-gpu|2023-05-18T04:37:34|2023-05-18T07:45:30|03:07:56|dcc-youlab-gpu-14|1|10|20000M||/datacommons/igvf-pm/ENCODE/mutator-slurms|
bmajoros|COMPLETED|scavenger-gpu|2023-05-18T04:39:29|2023-05-18T07:40:34|03:01:05|dcc-youlab-gpu-15|1|10|20000M||/datacommons/igvf-pm/ENCODE/mutator-slurms|
bmajoros|COMPLETED|scavenger-gpu|2023-05-18T04:42:23|2023-05-18T07:42:12|02:59:49|dcc-youlab-gpu-13|1|10|20000M||/datacommons/igvf-pm/ENCODE/mutator-slurms|
bmajoros|COMPLETED|scavenger-gpu|2023-05-18T04:45:21|2023-05-18T07:49:33|03:04:12|dcc-youlab-gpu-21|1|10|20000M||/datacommons/igvf-pm/ENCODE/mutator-slurms|
bmajoros|COMPLETED|scavenger-gpu|2023-05-18T04:48:31|2023-05-18T07:20:27|02:31:56|dcc-ultrasound-gpu-03|1|19|20000M||/datacommons/igvf-pm/ENCODE/mutator-slurms|
bmajoros|COMPLETED|scavenger-gpu|2023-05-18T04:50:44|2023-05-18T07:56:56|03:06:12|dcc-pbenfeylab-gpu-03|1|10|20000M||/datacommons/igvf-pm/ENCODE/mutator-slurms|
bmajoros|COMPLETED|scavenger-gpu|2023-05-18T04:53:02|2023-05-18T07:49:33|02:56:31|dcc-vossenlab-gpu-03|1|10|20000M||/datacommons/igvf-pm/ENCODE/mutator-slurms|
bmajoros|COMPLETED|scavenger-gpu|2023-05-18T04:56:37|2023-05-18T07:56:49|03:00:12|dcc-youlab-gpu-19|1|10|20000M||/datacommons/igvf-pm/ENCODE/mutator-slurms|
bmajoros|COMPLETED|scavenger-gpu|2023-05-18T04:59:56|2023-05-18T05:32:19|00:32:23|dcc-gehmlab-gpu-60|1|19|20000M||/datacommons/igvf-pm/ENCODE/mutator-slurms|
bmajoros|COMPLETED|scavenger-gpu|2023-05-18T05:04:13|2023-05-18T08:10:42|03:06:29|dcc-youlab-gpu-23|1|10|20000M||/datacommons/igvf-pm/ENCODE/mutator-slurms|
bmajoros|COMPLETED|scavenger-gpu|2023-05-18T05:11:02|2023-05-18T08:15:39|03:04:37|dcc-youlab-gpu-04|1|10|20000M||/datacommons/igvf-pm/ENCODE/mutator-slurms|
bmajoros|COMPLETED|scavenger-gpu|2023-05-18T05:21:17|2023-05-18T06:24:28|01:03:11|dcc-gehmlab-gpu-48|1|19|20000M||/datacommons/igvf-pm/ENCODE/mutator-slurms|
bmajoros|COMPLETED|scavenger-gpu|2023-05-18T05:21:23|2023-05-18T06:21:50|01:00:27|dcc-gehmlab-gpu-46|1|19|20000M||/datacommons/igvf-pm/ENCODE/mutator-slurms|
bmajoros|COMPLETED|scavenger-gpu|2023-05-18T05:29:56|2023-05-18T08:29:10|02:59:14|dcc-youlab-gpu-33|1|10|20000M||/datacommons/igvf-pm/ENCODE/mutator-slurms|
bmajoros|COMPLETED|scavenger-gpu|2023-05-18T05:32:19|2023-05-18T06:04:39|00:32:20|dcc-gehmlab-gpu-60|1|19|20000M||/datacommons/igvf-pm/ENCODE/mutator-slurms|
bmajoros|COMPLETED|scavenger-gpu|2023-05-18T05:39:14|2023-05-18T08:42:35|03:03:21|dcc-youlab-gpu-11|1|10|20000M||/datacommons/igvf-pm/ENCODE/mutator-slurms|
bmajoros|COMPLETED|scavenger-gpu|2023-05-18T05:43:39|2023-05-18T08:43:58|03:00:19|dcc-youlab-gpu-03|1|10|20000M||/datacommons/igvf-pm/ENCODE/mutator-slurms|
bmajoros|COMPLETED|scavenger-gpu|2023-05-18T05:58:43|2023-05-18T09:11:39|03:12:56|dcc-pbenfeylab-gpu-02|1|10|20000M||/datacommons/igvf-pm/ENCODE/mutator-slurms|
bmajoros|COMPLETED|scavenger-gpu|2023-05-18T06:02:20|2023-05-18T09:09:46|03:07:26|dcc-motesa-gpu-04|1|6|20000M||/datacommons/igvf-pm/ENCODE/mutator-slurms|
bmajoros|COMPLETED|scavenger-gpu|2023-05-18T06:03:10|2023-05-18T09:10:36|03:07:26|dcc-vossenlab-gpu-04|1|10|20000M||/datacommons/igvf-pm/ENCODE/mutator-slurms|
bmajoros|COMPLETED|scavenger-gpu|2023-05-18T06:04:39|2023-05-18T06:33:17|00:28:38|dcc-gehmlab-gpu-60|1|19|20000M||/datacommons/igvf-pm/ENCODE/mutator-slurms|
bmajoros|COMPLETED|scavenger-gpu|2023-05-18T06:07:03|2023-05-18T09:09:40|03:02:37|dcc-youlab-gpu-18|1|10|20000M||/datacommons/igvf-pm/ENCODE/mutator-slurms|
bmajoros|COMPLETED|scavenger-gpu|2023-05-18T06:15:43|2023-05-18T09:18:49|03:03:06|dcc-youlab-gpu-28|1|10|20000M||/datacommons/igvf-pm/ENCODE/mutator-slurms|
bmajoros|COMPLETED|scavenger-gpu|2023-05-18T06:21:50|2023-05-18T07:18:39|00:56:49|dcc-gehmlab-gpu-46|1|19|20000M||/datacommons/igvf-pm/ENCODE/mutator-slurms|
bmajoros|COMPLETED|scavenger-gpu|2023-05-18T06:24:28|2023-05-18T07:23:34|00:59:06|dcc-gehmlab-gpu-57|1|19|20000M||/datacommons/igvf-pm/ENCODE/mutator-slurms|
bmajoros|COMPLETED|scavenger-gpu|2023-05-18T06:27:05|2023-05-18T09:31:29|03:04:24|dcc-youlab-gpu-02|1|10|20000M||/datacommons/igvf-pm/ENCODE/mutator-slurms|
bmajoros|COMPLETED|scavenger-gpu|2023-05-18T06:31:10|2023-05-18T09:41:32|03:10:22|dcc-mainsahlab-gpu-04|1|6|20000M||/datacommons/igvf-pm/ENCODE/mutator-slurms|
bmajoros|COMPLETED|scavenger-gpu|2023-05-18T06:33:17|2023-05-18T06:56:00|00:22:43|dcc-gehmlab-gpu-60|1|19|20000M||/datacommons/igvf-pm/ENCODE/mutator-slurms|
bmajoros|COMPLETED|scavenger-gpu|2023-05-18T06:38:22|2023-05-18T07:41:59|01:03:37|dcc-rekerlab-gpu-01|1|8|20000M||/datacommons/igvf-pm/ENCODE/mutator-slurms|
bmajoros|COMPLETED|scavenger-gpu|2023-05-18T06:40:40|2023-05-18T09:34:34|02:53:54|dcc-youlab-gpu-35|1|10|20000M||/datacommons/igvf-pm/ENCODE/mutator-slurms|
bmajoros|COMPLETED|scavenger-gpu|2023-05-18T06:44:50|2023-05-18T09:48:15|03:03:25|dcc-youlab-gpu-16|1|10|20000M||/datacommons/igvf-pm/ENCODE/mutator-slurms|
bmajoros|COMPLETED|scavenger-gpu|2023-05-18T06:52:34|2023-05-18T09:57:52|03:05:18|dcc-youlab-gpu-32|1|10|20000M||/datacommons/igvf-pm/ENCODE/mutator-slurms|
bmajoros|COMPLETED|scavenger-gpu|2023-05-18T06:56:00|2023-05-18T07:18:36|00:22:36|dcc-gehmlab-gpu-60|1|19|20000M||/datacommons/igvf-pm/ENCODE/mutator-slurms|
bmajoros|COMPLETED|scavenger-gpu|2023-05-18T07:04:14|2023-05-18T10:06:21|03:02:07|dcc-youlab-gpu-37|1|10|20000M||/datacommons/igvf-pm/ENCODE/mutator-slurms|
bmajoros|COMPLETED|scavenger-gpu|2023-05-18T07:17:23|2023-05-18T10:25:21|03:07:58|dcc-youlab-gpu-53|1|10|20000M||/datacommons/igvf-pm/ENCODE/mutator-slurms|
bmajoros|COMPLETED|scavenger-gpu|2023-05-18T07:18:36|2023-05-18T07:41:57|00:23:21|dcc-gehmlab-gpu-60|1|19|20000M||/datacommons/igvf-pm/ENCODE/mutator-slurms|
bmajoros|COMPLETED|scavenger-gpu|2023-05-18T07:18:39|2023-05-18T08:21:41|01:03:02|dcc-gehmlab-gpu-59|1|19|20000M||/datacommons/igvf-pm/ENCODE/mutator-slurms|
bmajoros|COMPLETED|scavenger-gpu|2023-05-18T07:20:27|2023-05-18T09:51:27|02:31:00|dcc-ultrasound-gpu-03|1|19|20000M||/datacommons/igvf-pm/ENCODE/mutator-slurms|
bmajoros|COMPLETED|scavenger-gpu|2023-05-18T07:22:55|2023-05-18T10:32:49|03:09:54|dcc-mainsahlab-gpu-02|1|6|20000M||/datacommons/igvf-pm/ENCODE/mutator-slurms|
bmajoros|COMPLETED|scavenger-gpu|2023-05-18T07:23:34|2023-05-18T08:25:29|01:01:55|dcc-gehmlab-gpu-58|1|19|20000M||/datacommons/igvf-pm/ENCODE/mutator-slurms|
bmajoros|COMPLETED|scavenger-gpu|2023-05-18T07:23:47|2023-05-18T10:33:11|03:09:24|dcc-mainsahlab-gpu-03|1|6|20000M||/datacommons/igvf-pm/ENCODE/mutator-slurms|
bmajoros|COMPLETED|scavenger-gpu|2023-05-18T07:24:24|2023-05-18T10:34:22|03:09:58|dcc-youlab-gpu-31|1|10|20000M||/datacommons/igvf-pm/ENCODE/mutator-slurms|
bmajoros|COMPLETED|scavenger-gpu|2023-05-18T07:26:15|2023-05-18T10:34:05|03:07:50|dcc-youlab-gpu-05|1|10|20000M||/datacommons/igvf-pm/ENCODE/mutator-slurms|
bmajoros|COMPLETED|scavenger-gpu|2023-05-18T07:30:58|2023-05-18T10:33:59|03:03:01|dcc-youlab-gpu-38|1|10|20000M||/datacommons/igvf-pm/ENCODE/mutator-slurms|
zms14|OUT_OF_MEMORY|scavenger-gpu|2023-05-16T15:43:34|2023-05-17T12:31:43|20:48:09|dcc-youlab-gpu-34|1|10|2G||/hpc/home/zms14/repos/RNN_phoneme_decoding_micro/phoneme_encoder_decoder/scripts/dcc_shell_scripts|
lh342|TIMEOUT|scavenger-gpu|2023-05-16T16:11:07|2023-05-23T16:11:07|7-00:00:00|dcc-motesa-gpu-02|1|6|16G||/hpc/home/lh342/MMVAE|
lh342|FAILED|scavenger-gpu|2023-05-16T16:24:18|2023-05-17T09:13:02|16:48:44|dcc-allenlab-gpu-04|1|10|24G||/hpc/home/lh342/MMVAE|
kw297|COMPLETED|scavenger-gpu|2023-05-16T16:47:51|2023-05-17T01:04:58|08:17:07|dcc-motesa-gpu-01|1|2|8G||/hpc/group/ychenlab/DA|
kw297|COMPLETED|scavenger-gpu|2023-05-16T16:47:55|2023-05-17T00:28:28|07:40:33|dcc-rekerlab-gpu-01|1|2|8G||/hpc/group/ychenlab/DA|
kw297|COMPLETED|scavenger-gpu|2023-05-16T16:47:55|2023-05-17T02:30:43|09:42:48|dcc-youlab-gpu-18|1|2|8G||/hpc/group/ychenlab/DA|
kw297|COMPLETED|scavenger-gpu|2023-05-16T16:47:55|2023-05-17T01:20:30|08:32:35|dcc-motesa-gpu-03|1|2|8G||/hpc/group/ychenlab/DA|
kw297|COMPLETED|scavenger-gpu|2023-05-16T16:47:55|2023-05-17T00:36:37|07:48:42|dcc-motesa-gpu-04|1|2|8G||/hpc/group/ychenlab/DA|
kw297|PREEMPTED|scavenger-gpu|2023-05-16T16:47:55|2023-05-16T23:03:08|06:15:13|dcc-mainsahlab-gpu-01|1|2|8G||/hpc/group/ychenlab/DA|
kw297|PREEMPTED|scavenger-gpu|2023-05-16T16:47:55|2023-05-16T23:43:02|06:55:07|dcc-mainsahlab-gpu-02|1|2|8G||/hpc/group/ychenlab/DA|
kw297|COMPLETED|scavenger-gpu|2023-05-16T16:47:55|2023-05-17T01:57:20|09:09:25|dcc-mainsahlab-gpu-03|1|2|8G||/hpc/group/ychenlab/DA|
kw297|COMPLETED|scavenger-gpu|2023-05-16T16:47:55|2023-05-17T00:24:44|07:36:49|dcc-brunellab-gpu-04|1|2|8G||/hpc/group/ychenlab/DA|
kw297|COMPLETED|scavenger-gpu|2023-05-16T16:47:55|2023-05-17T01:05:36|08:17:41|dcc-ultrasound-gpu-02|1|2|8G||/hpc/group/ychenlab/DA|
kw297|COMPLETED|scavenger-gpu|2023-05-16T16:47:55|2023-05-17T00:39:10|07:51:15|dcc-ultrasound-gpu-03|1|2|8G||/hpc/group/ychenlab/DA|
kw297|COMPLETED|scavenger-gpu|2023-05-16T16:47:55|2023-05-16T22:38:44|05:50:49|dcc-carlsonlab-gpu-15|1|2|8G||/hpc/group/ychenlab/DA|
kw297|COMPLETED|scavenger-gpu|2023-05-16T16:47:55|2023-05-17T00:41:32|07:53:37|dcc-carlsonlab-gpu-16|1|2|8G||/hpc/group/ychenlab/DA|
kw297|COMPLETED|scavenger-gpu|2023-05-16T16:47:55|2023-05-17T02:16:23|09:28:28|dcc-pbenfeylab-gpu-01|1|2|8G||/hpc/group/ychenlab/DA|
kw297|COMPLETED|scavenger-gpu|2023-05-16T16:47:55|2023-05-17T01:30:20|08:42:25|dcc-pbenfeylab-gpu-02|1|2|8G||/hpc/group/ychenlab/DA|
kw297|COMPLETED|scavenger-gpu|2023-05-16T16:47:55|2023-05-17T01:02:57|08:15:02|dcc-pbenfeylab-gpu-03|1|2|8G||/hpc/group/ychenlab/DA|
kw297|COMPLETED|scavenger-gpu|2023-05-16T16:47:55|2023-05-17T00:48:28|08:00:33|dcc-pbenfeylab-gpu-04|1|2|8G||/hpc/group/ychenlab/DA|
kw297|COMPLETED|scavenger-gpu|2023-05-16T16:47:55|2023-05-17T02:29:59|09:42:04|dcc-vossenlab-gpu-01|1|2|8G||/hpc/group/ychenlab/DA|
kw297|COMPLETED|scavenger-gpu|2023-05-16T16:47:55|2023-05-17T01:16:39|08:28:44|dcc-vossenlab-gpu-02|1|2|8G||/hpc/group/ychenlab/DA|
kw297|COMPLETED|scavenger-gpu|2023-05-16T16:47:55|2023-05-17T00:59:43|08:11:48|dcc-vossenlab-gpu-03|1|2|8G||/hpc/group/ychenlab/DA|
kw297|COMPLETED|scavenger-gpu|2023-05-16T16:47:55|2023-05-17T01:16:22|08:28:27|dcc-vossenlab-gpu-04|1|2|8G||/hpc/group/ychenlab/DA|
kw297|COMPLETED|scavenger-gpu|2023-05-16T16:47:55|2023-05-17T02:39:58|09:52:03|dcc-biostat-gpu-01|1|2|8G||/hpc/group/ychenlab/DA|
kw297|COMPLETED|scavenger-gpu|2023-05-16T16:47:55|2023-05-17T02:29:39|09:41:44|dcc-biostat-gpu-02|1|2|8G||/hpc/group/ychenlab/DA|
kw297|COMPLETED|scavenger-gpu|2023-05-16T16:47:55|2023-05-17T00:16:09|07:28:14|dcc-ece-gpu-01|1|2|8G||/hpc/group/ychenlab/DA|
kw297|COMPLETED|scavenger-gpu|2023-05-16T16:47:59|2023-05-17T00:23:30|07:35:31|dcc-ece-gpu-02|1|2|8G||/hpc/group/ychenlab/DA|
kw297|COMPLETED|scavenger-gpu|2023-05-16T16:47:59|2023-05-17T01:12:54|08:24:55|dcc-ece-gpu-03|1|2|8G||/hpc/group/ychenlab/DA|
kw297|COMPLETED|scavenger-gpu|2023-05-16T16:47:59|2023-05-17T00:41:57|07:53:58|dcc-ece-gpu-04|1|2|8G||/hpc/group/ychenlab/DA|
kw297|COMPLETED|scavenger-gpu|2023-05-16T16:47:59|2023-05-17T00:54:19|08:06:20|dcc-carlsonlab-gpu-03|1|2|8G||/hpc/group/ychenlab/DA|
kw297|COMPLETED|scavenger-gpu|2023-05-16T16:47:59|2023-05-17T00:43:42|07:55:43|dcc-carlsonlab-gpu-04|1|2|8G||/hpc/group/ychenlab/DA|
kw297|COMPLETED|scavenger-gpu|2023-05-16T16:47:59|2023-05-17T01:37:27|08:49:28|dcc-carlsonlab-gpu-05|1|2|8G||/hpc/group/ychenlab/DA|
kw297|COMPLETED|scavenger-gpu|2023-05-16T16:47:59|2023-05-17T00:47:36|07:59:37|dcc-carlsonlab-gpu-07|1|2|8G||/hpc/group/ychenlab/DA|
kw297|COMPLETED|scavenger-gpu|2023-05-16T16:47:59|2023-05-17T00:35:38|07:47:39|dcc-carlsonlab-gpu-08|1|2|8G||/hpc/group/ychenlab/DA|
kw297|COMPLETED|scavenger-gpu|2023-05-16T16:47:59|2023-05-17T01:04:54|08:16:55|dcc-carlsonlab-gpu-09|1|2|8G||/hpc/group/ychenlab/DA|
kw297|COMPLETED|scavenger-gpu|2023-05-16T16:47:59|2023-05-17T02:01:28|09:13:29|dcc-carlsonlab-gpu-10|1|2|8G||/hpc/group/ychenlab/DA|
kw297|COMPLETED|scavenger-gpu|2023-05-16T16:47:59|2023-05-17T02:32:08|09:44:09|dcc-dhvi-gpu-01|1|2|8G||/hpc/group/ychenlab/DA|
kw297|COMPLETED|scavenger-gpu|2023-05-16T16:47:59|2023-05-17T01:12:05|08:24:06|dcc-dhvi-gpu-02|1|2|8G||/hpc/group/ychenlab/DA|
kw297|COMPLETED|scavenger-gpu|2023-05-16T16:47:59|2023-05-17T00:56:05|08:08:06|dcc-dhvi-gpu-03|1|2|8G||/hpc/group/ychenlab/DA|
kw297|COMPLETED|scavenger-gpu|2023-05-16T16:47:59|2023-05-17T02:38:24|09:50:25|dcc-dhvi-gpu-04|1|2|8G||/hpc/group/ychenlab/DA|
kw297|COMPLETED|scavenger-gpu|2023-05-16T16:47:59|2023-05-17T01:16:14|08:28:15|dcc-dhvi-gpu-05|1|2|8G||/hpc/group/ychenlab/DA|
kw297|COMPLETED|scavenger-gpu|2023-05-16T16:47:59|2023-05-17T00:49:26|08:01:27|dcc-dhvi-gpu-06|1|2|8G||/hpc/group/ychenlab/DA|
kw297|COMPLETED|scavenger-gpu|2023-05-16T16:47:59|2023-05-17T00:41:40|07:53:41|dcc-dhvi-gpu-07|1|2|8G||/hpc/group/ychenlab/DA|
kw297|COMPLETED|scavenger-gpu|2023-05-16T16:47:59|2023-05-17T02:39:39|09:51:40|dcc-dhvi-gpu-08|1|2|8G||/hpc/group/ychenlab/DA|
kw297|COMPLETED|scavenger-gpu|2023-05-16T16:47:59|2023-05-17T01:25:14|08:37:15|dcc-youlab-gpu-02|1|2|8G||/hpc/group/ychenlab/DA|
kw297|COMPLETED|scavenger-gpu|2023-05-16T16:47:59|2023-05-17T01:21:13|08:33:14|dcc-youlab-gpu-03|1|2|8G||/hpc/group/ychenlab/DA|
kw297|COMPLETED|scavenger-gpu|2023-05-16T16:47:59|2023-05-17T01:12:14|08:24:15|dcc-youlab-gpu-04|1|2|8G||/hpc/group/ychenlab/DA|
kw297|COMPLETED|scavenger-gpu|2023-05-16T16:47:59|2023-05-17T03:11:50|10:23:51|dcc-youlab-gpu-05|1|2|8G||/hpc/group/ychenlab/DA|
kw297|COMPLETED|scavenger-gpu|2023-05-16T16:48:03|2023-05-17T02:04:44|09:16:41|dcc-youlab-gpu-01|1|2|8G||/hpc/group/ychenlab/DA|
zq43|COMPLETED|scavenger-gpu|2023-05-16T16:55:01|2023-05-16T23:02:19|06:07:18|dcc-gehmlab-gpu-06|1|19|2G||/hpc/group/renlab/zhuobiao/MC_kV_for_zhuobiao|
zq43|COMPLETED|scavenger-gpu|2023-05-16T16:55:07|2023-05-16T22:58:43|06:03:36|dcc-gehmlab-gpu-07|1|19|2G||/hpc/group/renlab/zhuobiao/MC_kV_for_zhuobiao|
zq43|COMPLETED|scavenger-gpu|2023-05-16T16:55:13|2023-05-16T23:30:47|06:35:34|dcc-gehmlab-gpu-08|1|19|2G||/hpc/group/renlab/zhuobiao/MC_kV_for_zhuobiao|
zq43|COMPLETED|scavenger-gpu|2023-05-16T16:55:16|2023-05-16T23:27:08|06:31:52|dcc-gehmlab-gpu-09|1|19|2G||/hpc/group/renlab/zhuobiao/MC_kV_for_zhuobiao|
zq43|COMPLETED|scavenger-gpu|2023-05-16T16:55:22|2023-05-16T23:09:14|06:13:52|dcc-gehmlab-gpu-10|1|19|2G||/hpc/group/renlab/zhuobiao/MC_kV_for_zhuobiao|
zq43|COMPLETED|scavenger-gpu|2023-05-16T16:55:25|2023-05-16T23:04:09|06:08:44|dcc-gehmlab-gpu-11|1|19|2G||/hpc/group/renlab/zhuobiao/MC_kV_for_zhuobiao|
zq43|COMPLETED|scavenger-gpu|2023-05-16T16:55:31|2023-05-16T23:03:25|06:07:54|dcc-gehmlab-gpu-12|1|19|2G||/hpc/group/renlab/zhuobiao/MC_kV_for_zhuobiao|
zq43|COMPLETED|scavenger-gpu|2023-05-16T16:55:34|2023-05-16T23:23:47|06:28:13|dcc-gehmlab-gpu-14|1|19|2G||/hpc/group/renlab/zhuobiao/MC_kV_for_zhuobiao|
jrl78|COMPLETED|scavenger-gpu|2023-05-16T17:22:22|2023-05-17T19:03:29|1-01:41:07|dcc-youlab-gpu-55|1|10|2G||/work/jrl78/Nanoparticles/JawBreakers/Water Box Size/temp_storage|
jrl78|COMPLETED|scavenger-gpu|2023-05-16T17:22:25|2023-05-17T19:05:01|1-01:42:36|dcc-youlab-gpu-33|1|10|2G||/work/jrl78/Nanoparticles/JawBreakers/Water Box Size/temp_storage|
jrl78|COMPLETED|scavenger-gpu|2023-05-16T17:22:27|2023-05-17T18:49:21|1-01:26:54|dcc-youlab-gpu-32|1|10|2G||/work/jrl78/Nanoparticles/JawBreakers/Water Box Size/temp_storage|
jrl78|COMPLETED|scavenger-gpu|2023-05-16T17:22:30|2023-05-17T12:48:05|19:25:35|dcc-youlab-gpu-31|1|10|2G||/work/jrl78/Nanoparticles/JawBreakers/Water Box Size/temp_storage|
jrl78|COMPLETED|scavenger-gpu|2023-05-16T17:22:33|2023-05-17T12:09:58|18:47:25|dcc-youlab-gpu-28|1|10|2G||/work/jrl78/Nanoparticles/JawBreakers/Water Box Size/temp_storage|
jrl78|COMPLETED|scavenger-gpu|2023-05-16T17:22:36|2023-05-17T12:33:52|19:11:16|dcc-youlab-gpu-16|1|10|2G||/work/jrl78/Nanoparticles/JawBreakers/Water Box Size/temp_storage|
jrl78|COMPLETED|scavenger-gpu|2023-05-16T17:22:47|2023-05-17T14:32:18|21:09:31|dcc-youlab-gpu-12|1|10|2G||/work/jrl78/Nanoparticles/JawBreakers/Water Box Size/temp_storage|
jrl78|COMPLETED|scavenger-gpu|2023-05-16T17:22:50|2023-05-17T14:34:33|21:11:43|dcc-youlab-gpu-11|1|10|2G||/work/jrl78/Nanoparticles/JawBreakers/Water Box Size/temp_storage|
jrl78|COMPLETED|scavenger-gpu|2023-05-16T17:22:53|2023-05-17T15:01:29|21:38:36|dcc-youlab-gpu-10|1|10|2G||/work/jrl78/Nanoparticles/JawBreakers/Water Box Size/temp_storage|
jrl78|COMPLETED|scavenger-gpu|2023-05-16T17:22:56|2023-05-17T19:01:46|1-01:38:50|dcc-youlab-gpu-09|1|10|2G||/work/jrl78/Nanoparticles/JawBreakers/Water Box Size/temp_storage|
jrl78|COMPLETED|scavenger-gpu|2023-05-16T17:22:59|2023-05-17T18:57:05|1-01:34:06|dcc-youlab-gpu-08|1|10|2G||/work/jrl78/Nanoparticles/JawBreakers/Water Box Size/temp_storage|
jrl78|COMPLETED|scavenger-gpu|2023-05-16T17:23:02|2023-05-17T19:09:16|1-01:46:14|dcc-youlab-gpu-07|1|10|2G||/work/jrl78/Nanoparticles/JawBreakers/Water Box Size/temp_storage|
jrl78|COMPLETED|scavenger-gpu|2023-05-16T20:19:21|2023-05-16T21:08:50|00:49:29|dcc-gehmlab-gpu-59|1|19|20G||/work/jrl78/Nanoparticles/JawBreakers/Different Partial Charges|
jrl78|COMPLETED|scavenger-gpu|2023-05-16T20:41:38|2023-05-16T21:04:40|00:23:02|dcc-mainsahlab-gpu-04|1|6|20G||/work/jrl78/Nanoparticles/JawBreakers/Different Partial Charges|
jrl78|COMPLETED|scavenger-gpu|2023-05-16T20:49:18|2023-05-16T21:46:37|00:57:19|dcc-gehmlab-gpu-60|1|19|20G||/work/jrl78/Nanoparticles/JawBreakers/Different Partial Charges|
jrl78|COMPLETED|scavenger-gpu|2023-05-16T21:04:48|2023-05-16T22:17:01|01:12:13|dcc-mainsahlab-gpu-04|1|6|20G||/work/jrl78/Nanoparticles/JawBreakers/Different Partial Charges|
jrl78|COMPLETED|scavenger-gpu|2023-05-16T21:08:54|2023-05-16T21:51:17|00:42:23|dcc-gehmlab-gpu-59|1|19|20G||/work/jrl78/Nanoparticles/JawBreakers/Different Partial Charges|
jrl78|COMPLETED|scavenger-gpu|2023-05-16T21:46:48|2023-05-16T22:53:18|01:06:30|dcc-gehmlab-gpu-60|1|19|20G||/work/jrl78/Nanoparticles/JawBreakers/Different Partial Charges|
jrl78|COMPLETED|scavenger-gpu|2023-05-16T21:51:31|2023-05-16T22:59:05|01:07:34|dcc-gehmlab-gpu-59|1|19|20G||/work/jrl78/Nanoparticles/JawBreakers/Different Partial Charges|
jrl78|COMPLETED|scavenger-gpu|2023-05-16T22:17:09|2023-05-16T23:10:42|00:53:33|dcc-mainsahlab-gpu-04|1|6|20G||/work/jrl78/Nanoparticles/JawBreakers/Different Partial Charges|
jrl78|COMPLETED|scavenger-gpu|2023-05-16T22:53:30|2023-05-16T23:31:40|00:38:10|dcc-gehmlab-gpu-60|1|19|20G||/work/jrl78/Nanoparticles/JawBreakers/Different Partial Charges|
jrl78|COMPLETED|scavenger-gpu|2023-05-16T22:59:07|2023-05-16T23:39:55|00:40:48|dcc-gehmlab-gpu-59|1|19|20G||/work/jrl78/Nanoparticles/JawBreakers/Different Partial Charges|
jrl78|COMPLETED|scavenger-gpu|2023-05-16T23:10:54|2023-05-17T00:27:30|01:16:36|dcc-mainsahlab-gpu-04|1|6|20G||/work/jrl78/Nanoparticles/JawBreakers/Different Partial Charges|
jrl78|COMPLETED|scavenger-gpu|2023-05-16T23:31:52|2023-05-16T23:46:03|00:14:11|dcc-mainsahlab-gpu-01|1|6|20G||/work/jrl78/Nanoparticles/JawBreakers/Different Partial Charges|
jrl78|COMPLETED|scavenger-gpu|2023-05-16T23:40:03|2023-05-17T00:02:51|00:22:48|dcc-gehmlab-gpu-59|1|19|20G||/work/jrl78/Nanoparticles/JawBreakers/Different Partial Charges|
jrl78|COMPLETED|scavenger-gpu|2023-05-16T23:46:11|2023-05-17T00:25:44|00:39:33|dcc-mainsahlab-gpu-01|1|6|20G||/work/jrl78/Nanoparticles/JawBreakers/Different Partial Charges|
jrl78|COMPLETED|scavenger-gpu|2023-05-17T00:03:03|2023-05-17T00:53:21|00:50:18|dcc-mainsahlab-gpu-02|1|6|20G||/work/jrl78/Nanoparticles/JawBreakers/Different Partial Charges|
jrl78|COMPLETED|scavenger-gpu|2023-05-17T00:26:05|2023-05-17T00:54:22|00:28:17|dcc-mainsahlab-gpu-01|1|6|20G||/work/jrl78/Nanoparticles/JawBreakers/Different Partial Charges|
jrl78|COMPLETED|scavenger-gpu|2023-05-17T00:27:36|2023-05-17T00:36:25|00:08:49|dcc-mainsahlab-gpu-04|1|6|20G||/work/jrl78/Nanoparticles/JawBreakers/Different Partial Charges|
jrl78|COMPLETED|scavenger-gpu|2023-05-17T00:36:48|2023-05-17T01:30:47|00:53:59|dcc-rekerlab-gpu-01|1|8|20G||/work/jrl78/Nanoparticles/JawBreakers/Different Partial Charges|
jrl78|COMPLETED|scavenger-gpu|2023-05-17T00:53:39|2023-05-17T01:01:21|00:07:42|dcc-ultrasound-gpu-03|1|19|20G||/work/jrl78/Nanoparticles/JawBreakers/Different Partial Charges|
jrl78|COMPLETED|scavenger-gpu|2023-05-17T00:54:40|2023-05-17T01:05:33|00:10:53|dcc-motesa-gpu-04|1|6|20G||/work/jrl78/Nanoparticles/JawBreakers/Different Partial Charges|
jrl78|COMPLETED|scavenger-gpu|2023-05-17T01:01:47|2023-05-17T01:10:20|00:08:33|dcc-ultrasound-gpu-03|1|19|20G||/work/jrl78/Nanoparticles/JawBreakers/Different Partial Charges|
jrl78|COMPLETED|scavenger-gpu|2023-05-17T01:05:51|2023-05-17T01:33:51|00:28:00|dcc-ultrasound-gpu-02|1|19|20G||/work/jrl78/Nanoparticles/JawBreakers/Different Partial Charges|
jrl78|COMPLETED|scavenger-gpu|2023-05-17T01:10:26|2023-05-17T01:17:42|00:07:16|dcc-ultrasound-gpu-03|1|19|20G||/work/jrl78/Nanoparticles/JawBreakers/Different Partial Charges|
jrl78|COMPLETED|scavenger-gpu|2023-05-17T01:18:03|2023-05-17T01:22:21|00:04:18|dcc-ultrasound-gpu-03|1|19|20G||/work/jrl78/Nanoparticles/JawBreakers/Different Partial Charges|
jrl78|COMPLETED|scavenger-gpu|2023-05-17T01:22:37|2023-05-17T02:12:04|00:49:27|dcc-ultrasound-gpu-03|1|19|20G||/work/jrl78/Nanoparticles/JawBreakers/Different Partial Charges|
jrl78|COMPLETED|scavenger-gpu|2023-05-17T01:31:14|2023-05-17T01:35:31|00:04:17|dcc-rekerlab-gpu-01|1|8|20G||/work/jrl78/Nanoparticles/JawBreakers/Different Partial Charges|
jrl78|COMPLETED|scavenger-gpu|2023-05-17T01:34:22|2023-05-17T01:39:30|00:05:08|dcc-ultrasound-gpu-02|1|19|20G||/work/jrl78/Nanoparticles/JawBreakers/Different Partial Charges|
jrl78|COMPLETED|scavenger-gpu|2023-05-17T01:36:02|2023-05-17T01:39:57|00:03:55|dcc-rekerlab-gpu-01|1|8|20G||/work/jrl78/Nanoparticles/JawBreakers/Different Partial Charges|
jrl78|COMPLETED|scavenger-gpu|2023-05-17T01:39:50|2023-05-17T02:10:35|00:30:45|dcc-ultrasound-gpu-02|1|19|20G||/work/jrl78/Nanoparticles/JawBreakers/Different Partial Charges|
jrl78|COMPLETED|scavenger-gpu|2023-05-17T01:40:24|2023-05-17T01:44:52|00:04:28|dcc-rekerlab-gpu-01|1|8|20G||/work/jrl78/Nanoparticles/JawBreakers/Different Partial Charges|
jrl78|COMPLETED|scavenger-gpu|2023-05-17T01:45:20|2023-05-17T01:55:06|00:09:46|dcc-rekerlab-gpu-01|1|8|20G||/work/jrl78/Nanoparticles/JawBreakers/Different Partial Charges|
jrl78|COMPLETED|scavenger-gpu|2023-05-17T01:55:29|2023-05-17T03:06:31|01:11:02|dcc-rekerlab-gpu-01|1|8|20G||/work/jrl78/Nanoparticles/JawBreakers/Different Partial Charges|
jrl78|COMPLETED|scavenger-gpu|2023-05-17T02:10:43|2023-05-17T02:21:03|00:10:20|dcc-ultrasound-gpu-02|1|19|20G||/work/jrl78/Nanoparticles/JawBreakers/Different Partial Charges|
jrl78|COMPLETED|scavenger-gpu|2023-05-17T02:12:15|2023-05-17T02:25:39|00:13:24|dcc-ultrasound-gpu-03|1|19|20G||/work/jrl78/Nanoparticles/JawBreakers/Different Partial Charges|
jrl78|COMPLETED|scavenger-gpu|2023-05-17T02:21:23|2023-05-17T02:31:54|00:10:31|dcc-ultrasound-gpu-02|1|19|20G||/work/jrl78/Nanoparticles/JawBreakers/Different Partial Charges|
jrl78|COMPLETED|scavenger-gpu|2023-05-17T02:25:57|2023-05-17T03:06:31|00:40:34|dcc-ultrasound-gpu-03|1|19|20G||/work/jrl78/Nanoparticles/JawBreakers/Different Partial Charges|
jrl78|COMPLETED|scavenger-gpu|2023-05-17T02:31:54|2023-05-17T02:40:46|00:08:52|dcc-ultrasound-gpu-02|1|19|20G||/work/jrl78/Nanoparticles/JawBreakers/Different Partial Charges|
yk206|OUT_OF_MEMORY|scavenger-gpu|2023-05-16T18:49:50|2023-05-17T02:20:11|07:30:21|dcc-allenlab-gpu-03|1|10|24G||/hpc/home/yk206/script/face_download|
yk206|COMPLETED|scavenger-gpu|2023-05-16T19:00:37|2023-05-17T02:45:55|07:45:18|dcc-youlab-gpu-13|1|10|24G||/hpc/home/yk206/script/face_download|
yk206|COMPLETED|scavenger-gpu|2023-05-16T19:02:56|2023-05-17T02:51:41|07:48:45|dcc-youlab-gpu-14|1|10|24G||/hpc/home/yk206/script/face_download|
yk206|COMPLETED|scavenger-gpu|2023-05-16T19:21:10|2023-05-17T03:06:57|07:45:47|dcc-youlab-gpu-35|1|10|24G||/hpc/home/yk206/script/face_download|
yk206|COMPLETED|scavenger-gpu|2023-05-16T19:36:01|2023-05-17T03:52:12|08:16:11|dcc-youlab-gpu-23|1|10|24G||/hpc/home/yk206/script/face_download|
yk206|COMPLETED|scavenger-gpu|2023-05-16T19:51:39|2023-05-17T03:10:44|07:19:05|dcc-youlab-gpu-38|1|10|24G||/hpc/home/yk206/script/face_download|
yk206|COMPLETED|scavenger-gpu|2023-05-16T19:52:55|2023-05-17T03:52:43|07:59:48|dcc-youlab-gpu-37|1|10|24G||/hpc/home/yk206/script/face_download|
yk206|COMPLETED|scavenger-gpu|2023-05-16T20:05:51|2023-05-17T03:38:44|07:32:53|dcc-youlab-gpu-53|1|10|24G||/hpc/home/yk206/script/face_download|
yk206|COMPLETED|scavenger-gpu|2023-05-16T21:07:38|2023-05-17T04:31:50|07:24:12|dcc-youlab-gpu-30|1|10|24G||/hpc/home/yk206/script/face_download|
yk206|COMPLETED|scavenger-gpu|2023-05-16T21:19:04|2023-05-17T04:56:27|07:37:23|dcc-allenlab-gpu-02|1|10|24G||/hpc/home/yk206/script/face_download|
yk206|COMPLETED|scavenger-gpu|2023-05-17T00:41:41|2023-05-17T08:28:35|07:46:54|dcc-dhvi-gpu-07|1|10|24G||/hpc/home/yk206/script/face_download|
yk206|COMPLETED|scavenger-gpu|2023-05-17T00:48:29|2023-05-17T08:41:17|07:52:48|dcc-pbenfeylab-gpu-04|1|10|24G||/hpc/home/yk206/script/face_download|
yk206|COMPLETED|scavenger-gpu|2023-05-17T00:49:27|2023-05-17T09:08:04|08:18:37|dcc-dhvi-gpu-06|1|10|24G||/hpc/home/yk206/script/face_download|
yk206|COMPLETED|scavenger-gpu|2023-05-17T00:56:06|2023-05-17T08:36:39|07:40:33|dcc-dhvi-gpu-03|1|10|24G||/hpc/home/yk206/script/face_download|
yk206|COMPLETED|scavenger-gpu|2023-05-16T19:06:42|2023-05-17T03:06:48|08:00:06|dcc-youlab-gpu-15|1|10|24G||/hpc/home/yk206/script/face_download|
yk206|COMPLETED|scavenger-gpu|2023-05-17T00:59:43|2023-05-17T09:06:36|08:06:53|dcc-vossenlab-gpu-03|1|10|24G||/hpc/home/yk206/script/face_download|
yk206|COMPLETED|scavenger-gpu|2023-05-17T01:12:15|2023-05-17T09:00:30|07:48:15|dcc-youlab-gpu-04|1|10|24G||/hpc/home/yk206/script/face_download|
yk206|COMPLETED|scavenger-gpu|2023-05-17T01:16:15|2023-05-17T09:27:30|08:11:15|dcc-dhvi-gpu-05|1|10|24G||/hpc/home/yk206/script/face_download|
yk206|COMPLETED|scavenger-gpu|2023-05-17T01:16:24|2023-05-17T09:02:41|07:46:17|dcc-vossenlab-gpu-04|1|10|24G||/hpc/home/yk206/script/face_download|
yk206|COMPLETED|scavenger-gpu|2023-05-17T01:16:39|2023-05-17T09:50:51|08:34:12|dcc-vossenlab-gpu-02|1|10|24G||/hpc/home/yk206/script/face_download|
yk206|COMPLETED|scavenger-gpu|2023-05-17T01:21:13|2023-05-17T09:30:13|08:09:00|dcc-youlab-gpu-03|1|10|24G||/hpc/home/yk206/script/face_download|
yk206|COMPLETED|scavenger-gpu|2023-05-17T01:25:14|2023-05-17T09:45:35|08:20:21|dcc-youlab-gpu-02|1|10|24G||/hpc/home/yk206/script/face_download|
yk206|COMPLETED|scavenger-gpu|2023-05-17T01:30:20|2023-05-17T09:45:15|08:14:55|dcc-pbenfeylab-gpu-02|1|10|24G||/hpc/home/yk206/script/face_download|
yk206|OUT_OF_MEMORY|scavenger-gpu|2023-05-17T01:02:57|2023-05-17T08:30:58|07:28:01|dcc-pbenfeylab-gpu-03|1|10|24G||/hpc/home/yk206/script/face_download|
yk206|OUT_OF_MEMORY|scavenger-gpu|2023-05-17T01:12:07|2023-05-17T08:12:18|07:00:11|dcc-dhvi-gpu-02|1|10|24G||/hpc/home/yk206/script/face_download|
yk206|OUT_OF_MEMORY|scavenger-gpu|2023-05-17T02:16:23|2023-05-17T09:37:38|07:21:15|dcc-pbenfeylab-gpu-01|1|10|24G||/hpc/home/yk206/script/face_download|
yk206|OUT_OF_MEMORY|scavenger-gpu|2023-05-17T02:20:11|2023-05-17T09:38:04|07:17:53|dcc-allenlab-gpu-03|1|10|24G||/hpc/home/yk206/script/face_download|
yk206|COMPLETED|scavenger-gpu|2023-05-17T02:29:40|2023-05-17T10:32:00|08:02:20|dcc-biostat-gpu-02|1|22|24G||/hpc/home/yk206/script/face_download|
yk206|OUT_OF_MEMORY|scavenger-gpu|2023-05-17T02:29:59|2023-05-17T10:17:32|07:47:33|dcc-vossenlab-gpu-01|1|10|24G||/hpc/home/yk206/script/face_download|
lh342|CANCELLED by 1397954|scavenger-gpu|2023-05-17T02:30:43|2023-05-17T10:23:58|07:53:15|dcc-youlab-gpu-18|1|10|24G||/hpc/home/lh342/MMVAE|
lh342|CANCELLED by 1397954|scavenger-gpu|None|2023-05-16T21:19:00|00:00:00|None assigned|1|6|24G||/hpc/home/lh342/MMVAE|
lh342|CANCELLED by 1397954|scavenger-gpu|None|2023-05-16T21:19:00|00:00:00|None assigned|1|6|24G||/hpc/home/lh342/MMVAE|
kw297|COMPLETED|scavenger-gpu|2023-05-16T20:42:39|2023-05-17T05:06:39|08:24:00|dcc-gehmlab-gpu-13|1|2|8G||/hpc/group/ychenlab/DA|
lh342|CANCELLED by 1397954|scavenger-gpu|None|2023-05-16T21:19:00|00:00:00|None assigned|1|6|24G||/hpc/home/lh342/MMVAE|
cem125|COMPLETED|scavenger-gpu|2023-05-16T21:12:59|2023-05-18T06:30:07|1-09:17:08|dcc-gehmlab-gpu-58|1|19|50G||/hpc/group/rekerlab/cem125/OpenNMT-py|
cem125|COMPLETED|scavenger-gpu|2023-05-16T21:12:59|2023-05-18T06:24:07|1-09:11:08|dcc-gehmlab-gpu-57|1|19|50G||/hpc/group/rekerlab/cem125/OpenNMT-py|
cem125|PREEMPTED|scavenger-gpu|2023-05-16T21:12:59|2023-05-18T14:47:12|1-17:34:13|dcc-gehmlab-gpu-56|1|19|50G||/hpc/group/rekerlab/cem125/OpenNMT-py|
cem125|PREEMPTED|scavenger-gpu|2023-05-16T21:12:59|2023-05-18T14:47:15|1-17:34:16|dcc-gehmlab-gpu-55|1|19|50G||/hpc/group/rekerlab/cem125/OpenNMT-py|
cem125|PREEMPTED|scavenger-gpu|2023-05-16T21:12:59|2023-05-18T14:47:18|1-17:34:19|dcc-gehmlab-gpu-54|1|19|50G||/hpc/group/rekerlab/cem125/OpenNMT-py|
cem125|PREEMPTED|scavenger-gpu|2023-05-16T21:12:59|2023-05-18T14:47:20|1-17:34:21|dcc-gehmlab-gpu-53|1|19|50G||/hpc/group/rekerlab/cem125/OpenNMT-py|
lh342|CANCELLED by 1397954|scavenger-gpu|None|2023-05-16T21:19:00|00:00:00|None assigned|1|6|24G||/hpc/home/lh342/MMVAE|
lh342|CANCELLED by 1397954|scavenger-gpu|None|2023-05-16T21:19:00|00:00:00|None assigned|1|6|24G||/hpc/home/lh342/MMVAE|
zms14|PREEMPTED|scavenger-gpu|2023-05-16T21:13:02|2023-05-18T14:47:23|1-17:34:21|dcc-gehmlab-gpu-52|1|19|2G||/hpc/home/zms14/repos/RNN_phoneme_decoding_micro/phoneme_encoder_decoder/scripts/dcc_shell_scripts|
zms14|COMPLETED|scavenger-gpu|2023-05-16T21:13:02|2023-05-18T14:14:13|1-17:01:11|dcc-gehmlab-gpu-51|1|19|2G||/hpc/home/zms14/repos/RNN_phoneme_decoding_micro/phoneme_encoder_decoder/scripts/dcc_shell_scripts|
zms14|COMPLETED|scavenger-gpu|2023-05-16T21:13:13|2023-05-18T13:27:51|1-16:14:38|dcc-gehmlab-gpu-50|1|19|2G||/hpc/home/zms14/repos/RNN_phoneme_decoding_micro/phoneme_encoder_decoder/scripts/dcc_shell_scripts|
lh342|CANCELLED by 1397954|scavenger-gpu|None|2023-05-16T21:19:00|00:00:00|None assigned|1|6|24G||/hpc/home/lh342/MMVAE|
