pz19|RUNNING|scavenger|2023-03-29T09:52:04|Unknown|77-04:30:57|dcc-fergusonlab-05|1|10|457000M||/work/pz19/Jiaqi/13e14o|
smokeauth2-tst|NODE_FAIL|scavenger|2023-04-18T10:56:00|2023-05-29T17:29:37|41-06:33:37|dcc-tunglab-02|1|1|2G||/hpc/home/smokeauth2-tst|
smokeauth2-tst|RUNNING|scavenger|2023-04-18T12:49:48|Unknown|57-01:33:13|dcc-noor-01|1|1|2G||/hpc/home/smokeauth2-tst|
fjm7|RUNNING|scavenger|2023-04-23T15:19:07|Unknown|51-23:03:54|dcc-noor-01|1|1|2G||/hpc/group/brownlab/fjm7/new-data-collection/slurm-runners|
fjm7|RUNNING|scavenger|2023-04-23T15:19:07|Unknown|51-23:03:54|dcc-noor-01|1|1|2G||/hpc/group/brownlab/fjm7/new-data-collection/slurm-runners|
fjm7|RUNNING|scavenger|2023-04-23T15:19:07|Unknown|51-23:03:54|dcc-noor-01|1|1|2G||/hpc/group/brownlab/fjm7/new-data-collection/slurm-runners|
fjm7|RUNNING|scavenger|2023-04-23T15:19:08|Unknown|51-23:03:53|dcc-noor-01|1|1|2G||/hpc/group/brownlab/fjm7/new-data-collection/slurm-runners|
fjm7|RUNNING|scavenger|2023-04-23T15:19:08|Unknown|51-23:03:53|dcc-noor-01|1|1|2G||/hpc/group/brownlab/fjm7/new-data-collection/slurm-runners|
lh342|TIMEOUT|scavenger|2023-05-02T03:05:50|2023-06-01T03:06:14|30-00:00:24|dcc-compeb-02|1|8|16G||/hpc/home/lh342/ondemand/data/sys/dashboard/batch_connect/sys/bc_desktop/dcc/output/702824cf-eb77-47a5-9f97-205f479dd2d4|
cw446|CANCELLED by 1401348|scavenger|2023-05-08T23:40:21|2023-05-30T10:48:58|21-11:08:37|dcc-fergusonlab-04|1|5|300G||/hpc/group/jilab/changxin|
smokeauth2-tst|RUNNING|scavenger|2023-05-09T00:51:37|Unknown|36-13:31:24|dcc-wychem-01|1|1|2G||/hpc/home/smokeauth2-tst|
pz19|TIMEOUT|scavenger|2023-05-15T19:38:05|2023-05-26T09:38:25|10-14:00:20|dcc-fergusonlab-01|1|16|25408M||/work/pz19/Wang/Copper/Silicon/TS_06_3Lig/M06L|
pz19|TIMEOUT|scavenger|2023-05-15T23:18:17|2023-05-26T13:18:19|10-14:00:02|dcc-compeb-01|1|16|25408M||/work/pz19/Wang/Copper/Silicon/TS_06_3Lig/MN15|
pz19|COMPLETED|scavenger|2023-05-15T23:21:42|2023-05-30T14:18:14|14-14:56:32|dcc-fergusonlab-01|1|16|32000M||/work/pz19/Dexter|
lh342|RUNNING|scavenger|2023-05-16T10:36:56|Unknown|29-03:46:05|dcc-carin-23|1|8|16G||/hpc/home/lh342/ondemand/data/sys/dashboard/batch_connect/sys/bc_desktop/dcc/output/594ab9c6-93bc-4698-ac53-905dbde8eef7|
hk288|CANCELLED by 1484570|scavenger|2023-05-16T14:31:16|2023-05-24T09:24:07|7-18:52:51|dcc-gcb-02|1|40|80G||/hpc/group/mastatlab/hk288/code_hp_paral|
hk288|CANCELLED by 1484570|scavenger|2023-05-16T14:33:02|2023-05-24T09:24:07|7-18:51:05|dcc-donglab-01|1|40|80G||/hpc/group/mastatlab/hk288/code_hp_paral|
pz19|PREEMPTED|scavenger|2023-05-17T12:31:28|2023-05-24T11:00:43|6-22:29:15|dcc-bragg-02|1|16|25408M||/work/pz19/Wang/Copper/Silicon/TS_06_3LigOAc/B3LYP|
ew198|COMPLETED|scavenger|2023-05-17T15:01:57|2023-05-30T13:18:19|12-22:16:22|dcc-youlab-01|1|1|125G||/cifs/hariri-long/Projects/Annchen/Scripts/ArealMSHBM|
ew198|COMPLETED|scavenger|2023-05-17T15:01:57|2023-05-30T13:18:47|12-22:16:50|dcc-wychem-01|1|1|16000M||/cifs/hariri-long/Projects/Annchen/Scripts/ArealMSHBM|
ew198|COMPLETED|scavenger|2023-05-17T15:01:57|2023-05-30T13:18:47|12-22:16:50|dcc-wychem-01|1|1|16000M||/cifs/hariri-long/Projects/Annchen/Scripts/ArealMSHBM|
ew198|COMPLETED|scavenger|2023-05-17T15:01:57|2023-05-30T13:18:47|12-22:16:50|dcc-wychem-01|1|1|16000M||/cifs/hariri-long/Projects/Annchen/Scripts/ArealMSHBM|
ew198|COMPLETED|scavenger|2023-05-17T15:01:57|2023-05-30T13:18:47|12-22:16:50|dcc-wychem-01|1|1|16000M||/cifs/hariri-long/Projects/Annchen/Scripts/ArealMSHBM|
ew198|COMPLETED|scavenger|2023-05-17T15:01:57|2023-05-30T13:18:47|12-22:16:50|dcc-wychem-01|1|1|16000M||/cifs/hariri-long/Projects/Annchen/Scripts/ArealMSHBM|
ew198|COMPLETED|scavenger|2023-05-17T15:01:57|2023-05-30T13:18:47|12-22:16:50|dcc-wychem-01|1|1|16000M||/cifs/hariri-long/Projects/Annchen/Scripts/ArealMSHBM|
ew198|COMPLETED|scavenger|2023-05-17T15:01:57|2023-05-30T13:18:47|12-22:16:50|dcc-wychem-01|1|1|16000M||/cifs/hariri-long/Projects/Annchen/Scripts/ArealMSHBM|
ew198|COMPLETED|scavenger|2023-05-17T15:01:57|2023-05-30T13:18:47|12-22:16:50|dcc-wychem-01|1|1|16000M||/cifs/hariri-long/Projects/Annchen/Scripts/ArealMSHBM|
ew198|COMPLETED|scavenger|2023-05-17T15:01:57|2023-05-30T13:18:47|12-22:16:50|dcc-wychem-01|1|1|16000M||/cifs/hariri-long/Projects/Annchen/Scripts/ArealMSHBM|
ew198|NODE_FAIL|scavenger|2023-05-17T15:01:57|2023-05-29T17:29:37|12-02:27:40|dcc-tunglab-02|1|1|16000M||/cifs/hariri-long/Projects/Annchen/Scripts/ArealMSHBM|
ew198|NODE_FAIL|scavenger|2023-05-17T15:01:57|2023-05-29T17:29:37|12-02:27:40|dcc-tunglab-02|1|1|16000M||/cifs/hariri-long/Projects/Annchen/Scripts/ArealMSHBM|
ew198|NODE_FAIL|scavenger|2023-05-17T15:01:57|2023-05-29T17:29:37|12-02:27:40|dcc-tunglab-02|1|1|16000M||/cifs/hariri-long/Projects/Annchen/Scripts/ArealMSHBM|
ew198|NODE_FAIL|scavenger|2023-05-17T15:01:57|2023-05-29T17:29:37|12-02:27:40|dcc-tunglab-02|1|1|16000M||/cifs/hariri-long/Projects/Annchen/Scripts/ArealMSHBM|
ew198|NODE_FAIL|scavenger|2023-05-17T15:01:58|2023-05-29T17:29:37|12-02:27:39|dcc-tunglab-02|1|1|16000M||/cifs/hariri-long/Projects/Annchen/Scripts/ArealMSHBM|
ew198|NODE_FAIL|scavenger|2023-05-17T15:01:58|2023-05-29T17:29:37|12-02:27:39|dcc-tunglab-02|1|1|16000M||/cifs/hariri-long/Projects/Annchen/Scripts/ArealMSHBM|
ew198|NODE_FAIL|scavenger|2023-05-17T15:01:58|2023-05-29T17:29:37|12-02:27:39|dcc-tunglab-02|1|1|125G||/cifs/hariri-long/Projects/Annchen/Scripts/ArealMSHBM|
ew198|NODE_FAIL|scavenger|2023-05-17T15:01:58|2023-05-29T17:29:37|12-02:27:39|dcc-tunglab-02|1|1|16000M||/cifs/hariri-long/Projects/Annchen/Scripts/ArealMSHBM|
ew198|NODE_FAIL|scavenger|2023-05-17T15:01:58|2023-05-29T17:29:37|12-02:27:39|dcc-tunglab-02|1|1|16000M||/cifs/hariri-long/Projects/Annchen/Scripts/ArealMSHBM|
ew198|NODE_FAIL|scavenger|2023-05-17T15:01:58|2023-05-29T17:29:37|12-02:27:39|dcc-tunglab-02|1|1|16000M||/cifs/hariri-long/Projects/Annchen/Scripts/ArealMSHBM|
ew198|NODE_FAIL|scavenger|2023-05-17T15:01:58|2023-05-29T17:29:37|12-02:27:39|dcc-tunglab-02|1|1|16000M||/cifs/hariri-long/Projects/Annchen/Scripts/ArealMSHBM|
ew198|NODE_FAIL|scavenger|2023-05-17T15:01:58|2023-05-29T17:29:37|12-02:27:39|dcc-tunglab-02|1|1|16000M||/cifs/hariri-long/Projects/Annchen/Scripts/ArealMSHBM|
ew198|COMPLETED|scavenger|2023-05-17T15:01:58|2023-05-30T13:18:33|12-22:16:35|dcc-tunglab-01|1|1|16000M||/cifs/hariri-long/Projects/Annchen/Scripts/ArealMSHBM|
ew198|PREEMPTED|scavenger|2023-05-17T15:01:58|2023-05-31T16:16:08|14-01:14:10|dcc-tunglab-01|1|1|16000M||/cifs/hariri-long/Projects/Annchen/Scripts/ArealMSHBM|
ew198|COMPLETED|scavenger|2023-05-17T15:01:58|2023-05-30T13:18:33|12-22:16:35|dcc-tunglab-01|1|1|16000M||/cifs/hariri-long/Projects/Annchen/Scripts/ArealMSHBM|
ew198|PREEMPTED|scavenger|2023-05-17T15:01:58|2023-05-31T16:35:14|14-01:33:16|dcc-tunglab-01|1|1|16000M||/cifs/hariri-long/Projects/Annchen/Scripts/ArealMSHBM|
ew198|COMPLETED|scavenger|2023-05-17T15:01:58|2023-05-30T13:18:33|12-22:16:35|dcc-tunglab-01|1|1|16000M||/cifs/hariri-long/Projects/Annchen/Scripts/ArealMSHBM|
ew198|PREEMPTED|scavenger|2023-05-17T15:01:58|2023-05-31T16:35:18|14-01:33:20|dcc-tunglab-01|1|1|16000M||/cifs/hariri-long/Projects/Annchen/Scripts/ArealMSHBM|
ew198|COMPLETED|scavenger|2023-05-17T15:01:58|2023-05-30T13:18:33|12-22:16:35|dcc-tunglab-01|1|1|16000M||/cifs/hariri-long/Projects/Annchen/Scripts/ArealMSHBM|
ew198|PREEMPTED|scavenger|2023-05-17T15:01:58|2023-05-31T16:35:25|14-01:33:27|dcc-tunglab-01|1|1|16000M||/cifs/hariri-long/Projects/Annchen/Scripts/ArealMSHBM|
ew198|COMPLETED|scavenger|2023-05-17T15:01:59|2023-05-30T13:18:33|12-22:16:34|dcc-tunglab-01|1|1|16000M||/cifs/hariri-long/Projects/Annchen/Scripts/ArealMSHBM|
ew198|PREEMPTED|scavenger|2023-05-17T15:01:59|2023-05-31T16:35:32|14-01:33:33|dcc-tunglab-01|1|1|16000M||/cifs/hariri-long/Projects/Annchen/Scripts/ArealMSHBM|
ew198|COMPLETED|scavenger|2023-05-17T15:01:59|2023-05-30T13:18:47|12-22:16:48|dcc-tmolab-02|1|1|16000M||/cifs/hariri-long/Projects/Annchen/Scripts/ArealMSHBM|
ew198|CANCELLED by 1455533|scavenger|2023-05-17T15:01:59|2023-06-02T11:18:52|15-20:16:53|dcc-tmolab-02|1|1|16000M||/cifs/hariri-long/Projects/Annchen/Scripts/ArealMSHBM|
ew198|COMPLETED|scavenger|2023-05-17T15:01:59|2023-05-30T13:18:47|12-22:16:48|dcc-tmolab-02|1|1|16000M||/cifs/hariri-long/Projects/Annchen/Scripts/ArealMSHBM|
ew198|CANCELLED by 1455533|scavenger|2023-05-17T15:01:59|2023-06-02T11:18:52|15-20:16:53|dcc-tmolab-02|1|1|16000M||/cifs/hariri-long/Projects/Annchen/Scripts/ArealMSHBM|
ew198|COMPLETED|scavenger|2023-05-17T15:01:59|2023-05-30T13:18:47|12-22:16:48|dcc-tmolab-02|1|1|16000M||/cifs/hariri-long/Projects/Annchen/Scripts/ArealMSHBM|
ew198|CANCELLED by 1455533|scavenger|2023-05-17T15:01:59|2023-06-02T11:18:52|15-20:16:53|dcc-tmolab-02|1|1|16000M||/cifs/hariri-long/Projects/Annchen/Scripts/ArealMSHBM|
ew198|COMPLETED|scavenger|2023-05-17T15:01:59|2023-05-30T13:18:47|12-22:16:48|dcc-tmolab-02|1|1|16000M||/cifs/hariri-long/Projects/Annchen/Scripts/ArealMSHBM|
ew198|CANCELLED by 1455533|scavenger|2023-05-17T15:01:59|2023-06-02T11:18:52|15-20:16:53|dcc-tmolab-02|1|1|16000M||/cifs/hariri-long/Projects/Annchen/Scripts/ArealMSHBM|
ew198|COMPLETED|scavenger|2023-05-17T15:01:59|2023-05-30T13:18:44|12-22:16:45|dcc-tmolab-01|1|1|16000M||/cifs/hariri-long/Projects/Annchen/Scripts/ArealMSHBM|
ew198|CANCELLED by 1455533|scavenger|2023-05-17T15:01:59|2023-06-02T11:18:52|15-20:16:53|dcc-tmolab-01|1|1|16000M||/cifs/hariri-long/Projects/Annchen/Scripts/ArealMSHBM|
ew198|COMPLETED|scavenger|2023-05-17T15:01:59|2023-05-30T13:18:44|12-22:16:45|dcc-tmolab-01|1|1|16000M||/cifs/hariri-long/Projects/Annchen/Scripts/ArealMSHBM|
ew198|CANCELLED by 1455533|scavenger|2023-05-17T15:01:59|2023-06-02T11:18:52|15-20:16:53|dcc-tmolab-01|1|1|16000M||/cifs/hariri-long/Projects/Annchen/Scripts/ArealMSHBM|
ew198|COMPLETED|scavenger|2023-05-17T15:01:59|2023-05-30T13:18:44|12-22:16:45|dcc-tmolab-01|1|1|16000M||/cifs/hariri-long/Projects/Annchen/Scripts/ArealMSHBM|
ew198|CANCELLED by 1455533|scavenger|2023-05-17T15:01:59|2023-06-02T11:18:52|15-20:16:53|dcc-tmolab-01|1|1|16000M||/cifs/hariri-long/Projects/Annchen/Scripts/ArealMSHBM|
ew198|CANCELLED by 1455533|scavenger|2023-05-17T15:01:59|2023-06-02T11:18:52|15-20:16:53|dcc-tmolab-01|1|1|16000M||/cifs/hariri-long/Projects/Annchen/Scripts/ArealMSHBM|
ew198|PREEMPTED|scavenger|2023-05-17T15:01:59|2023-05-26T08:21:05|8-17:19:06|dcc-statdept-01|1|1|16000M||/cifs/hariri-long/Projects/Annchen/Scripts/ArealMSHBM|
ew198|PREEMPTED|scavenger|2023-05-17T15:01:59|2023-05-26T08:21:05|8-17:19:06|dcc-statdept-01|1|1|16000M||/cifs/hariri-long/Projects/Annchen/Scripts/ArealMSHBM|
ew198|PREEMPTED|scavenger|2023-05-17T15:01:59|2023-05-27T14:07:00|9-23:05:01|dcc-statdept-01|1|1|16000M||/cifs/hariri-long/Projects/Annchen/Scripts/ArealMSHBM|
ew198|PREEMPTED|scavenger|2023-05-17T15:01:59|2023-05-27T14:07:00|9-23:05:01|dcc-statdept-01|1|1|16000M||/cifs/hariri-long/Projects/Annchen/Scripts/ArealMSHBM|
ew198|PREEMPTED|scavenger|2023-05-17T15:01:59|2023-05-27T14:07:00|9-23:05:01|dcc-statdept-01|1|1|16000M||/cifs/hariri-long/Projects/Annchen/Scripts/ArealMSHBM|
ew198|PREEMPTED|scavenger|2023-05-17T15:01:59|2023-05-27T14:07:00|9-23:05:01|dcc-statdept-01|1|1|16000M||/cifs/hariri-long/Projects/Annchen/Scripts/ArealMSHBM|
ew198|PREEMPTED|scavenger|2023-05-17T15:01:59|2023-05-27T14:07:00|9-23:05:01|dcc-statdept-01|1|1|16000M||/cifs/hariri-long/Projects/Annchen/Scripts/ArealMSHBM|
ew198|PREEMPTED|scavenger|2023-05-17T15:01:59|2023-05-27T14:07:00|9-23:05:01|dcc-statdept-01|1|1|16000M||/cifs/hariri-long/Projects/Annchen/Scripts/ArealMSHBM|
ew198|PREEMPTED|scavenger|2023-05-17T15:01:59|2023-05-27T14:07:00|9-23:05:01|dcc-statdept-01|1|1|16000M||/cifs/hariri-long/Projects/Annchen/Scripts/ArealMSHBM|
ew198|PREEMPTED|scavenger|2023-05-17T15:01:59|2023-05-27T14:07:00|9-23:05:01|dcc-statdept-01|1|1|16000M||/cifs/hariri-long/Projects/Annchen/Scripts/ArealMSHBM|
ew198|PREEMPTED|scavenger|2023-05-17T15:02:00|2023-05-27T14:07:00|9-23:05:00|dcc-statdept-01|1|1|16000M||/cifs/hariri-long/Projects/Annchen/Scripts/ArealMSHBM|
ew198|COMPLETED|scavenger|2023-05-17T15:02:00|2023-05-30T13:19:00|12-22:17:00|dcc-statdept-01|1|1|16000M||/cifs/hariri-long/Projects/Annchen/Scripts/ArealMSHBM|
ew198|CANCELLED by 1455533|scavenger|2023-05-17T15:02:00|2023-06-02T11:18:52|15-20:16:52|dcc-statdept-01|1|1|16000M||/cifs/hariri-long/Projects/Annchen/Scripts/ArealMSHBM|
ew198|COMPLETED|scavenger|2023-05-17T15:02:30|2023-05-30T13:19:00|12-22:16:30|dcc-statdept-01|1|1|16000M||/cifs/hariri-long/Projects/Annchen/Scripts/ArealMSHBM|
ew198|CANCELLED by 1455533|scavenger|2023-05-17T15:02:30|2023-06-02T11:18:52|15-20:16:22|dcc-savageresearch-02|1|1|16000M||/cifs/hariri-long/Projects/Annchen/Scripts/ArealMSHBM|
ew198|COMPLETED|scavenger|2023-05-17T15:02:30|2023-05-30T13:18:35|12-22:16:05|dcc-savageresearch-02|1|1|16000M||/cifs/hariri-long/Projects/Annchen/Scripts/ArealMSHBM|
ew198|COMPLETED|scavenger|2023-05-17T15:02:30|2023-05-30T13:18:35|12-22:16:05|dcc-savageresearch-02|1|1|16000M||/cifs/hariri-long/Projects/Annchen/Scripts/ArealMSHBM|
ew198|CANCELLED by 1455533|scavenger|2023-05-17T15:02:30|2023-06-02T11:18:52|15-20:16:22|dcc-savageresearch-02|1|1|16000M||/cifs/hariri-long/Projects/Annchen/Scripts/ArealMSHBM|
ew198|CANCELLED by 1455533|scavenger|2023-05-17T15:02:30|2023-06-02T11:18:52|15-20:16:22|dcc-savageresearch-02|1|1|16000M||/cifs/hariri-long/Projects/Annchen/Scripts/ArealMSHBM|
ew198|COMPLETED|scavenger|2023-05-17T15:02:30|2023-05-30T13:18:35|12-22:16:05|dcc-savageresearch-02|1|1|16000M||/cifs/hariri-long/Projects/Annchen/Scripts/ArealMSHBM|
ew198|COMPLETED|scavenger|2023-05-17T15:02:31|2023-05-30T13:18:35|12-22:16:04|dcc-savageresearch-02|1|1|16000M||/cifs/hariri-long/Projects/Annchen/Scripts/ArealMSHBM|
ew198|CANCELLED by 1455533|scavenger|2023-05-17T15:02:31|2023-06-02T11:18:52|15-20:16:21|dcc-savageresearch-02|1|1|16000M||/cifs/hariri-long/Projects/Annchen/Scripts/ArealMSHBM|
ew198|COMPLETED|scavenger|2023-05-17T15:02:31|2023-05-30T13:18:35|12-22:16:04|dcc-savageresearch-02|1|1|16000M||/cifs/hariri-long/Projects/Annchen/Scripts/ArealMSHBM|
ew198|CANCELLED by 1455533|scavenger|2023-05-17T15:02:31|2023-06-02T11:18:52|15-20:16:21|dcc-savageresearch-02|1|1|16000M||/cifs/hariri-long/Projects/Annchen/Scripts/ArealMSHBM|
ew198|CANCELLED by 1455533|scavenger|2023-05-17T15:02:31|2023-06-02T11:18:52|15-20:16:21|dcc-savageresearch-02|1|1|16000M||/cifs/hariri-long/Projects/Annchen/Scripts/ArealMSHBM|
ew198|COMPLETED|scavenger|2023-05-17T15:02:31|2023-05-30T13:18:35|12-22:16:04|dcc-savageresearch-02|1|1|16000M||/cifs/hariri-long/Projects/Annchen/Scripts/ArealMSHBM|
ew198|COMPLETED|scavenger|2023-05-17T15:02:31|2023-05-30T13:18:35|12-22:16:04|dcc-savageresearch-01|1|1|16000M||/cifs/hariri-long/Projects/Annchen/Scripts/ArealMSHBM|
ew198|CANCELLED by 1455533|scavenger|2023-05-17T15:02:31|2023-06-02T11:18:52|15-20:16:21|dcc-savageresearch-01|1|1|16000M||/cifs/hariri-long/Projects/Annchen/Scripts/ArealMSHBM|
ew198|CANCELLED by 1455533|scavenger|2023-05-17T15:02:31|2023-06-02T11:18:52|15-20:16:21|dcc-savageresearch-01|1|1|16000M||/cifs/hariri-long/Projects/Annchen/Scripts/ArealMSHBM|
ew198|COMPLETED|scavenger|2023-05-17T15:02:31|2023-05-30T13:18:35|12-22:16:04|dcc-savageresearch-01|1|1|16000M||/cifs/hariri-long/Projects/Annchen/Scripts/ArealMSHBM|
ew198|CANCELLED by 1455533|scavenger|2023-05-17T15:02:31|2023-06-02T11:18:52|15-20:16:21|dcc-savageresearch-01|1|1|16000M||/cifs/hariri-long/Projects/Annchen/Scripts/ArealMSHBM|
ew198|COMPLETED|scavenger|2023-05-17T15:02:31|2023-05-30T13:18:35|12-22:16:04|dcc-savageresearch-01|1|1|16000M||/cifs/hariri-long/Projects/Annchen/Scripts/ArealMSHBM|
ew198|CANCELLED by 1455533|scavenger|2023-05-17T15:02:31|2023-06-02T11:18:52|15-20:16:21|dcc-rausherlab-02|1|1|16000M||/cifs/hariri-long/Projects/Annchen/Scripts/ArealMSHBM|
ew198|COMPLETED|scavenger|2023-05-17T15:02:31|2023-05-30T13:18:52|12-22:16:21|dcc-rausherlab-02|1|1|16000M||/cifs/hariri-long/Projects/Annchen/Scripts/ArealMSHBM|
ew198|CANCELLED by 1455533|scavenger|2023-05-17T15:02:31|2023-06-02T11:18:52|15-20:16:21|dcc-rausherlab-01|1|1|16000M||/cifs/hariri-long/Projects/Annchen/Scripts/ArealMSHBM|
ew198|COMPLETED|scavenger|2023-05-17T15:02:31|2023-05-30T13:18:42|12-22:16:11|dcc-rausherlab-01|1|1|16000M||/cifs/hariri-long/Projects/Annchen/Scripts/ArealMSHBM|
ew198|CANCELLED by 1455533|scavenger|2023-05-17T15:02:31|2023-06-02T11:18:52|15-20:16:21|dcc-rausherlab-01|1|1|16000M||/cifs/hariri-long/Projects/Annchen/Scripts/ArealMSHBM|
ew198|COMPLETED|scavenger|2023-05-17T15:02:32|2023-05-30T13:18:42|12-22:16:10|dcc-rausherlab-01|1|1|16000M||/cifs/hariri-long/Projects/Annchen/Scripts/ArealMSHBM|
ew198|CANCELLED by 1455533|scavenger|2023-05-17T15:02:32|2023-06-02T11:18:52|15-20:16:20|dcc-rausherlab-01|1|1|16000M||/cifs/hariri-long/Projects/Annchen/Scripts/ArealMSHBM|
ew198|COMPLETED|scavenger|2023-05-17T15:02:32|2023-05-30T13:18:44|12-22:16:12|dcc-rausherlab-01|1|1|16000M||/cifs/hariri-long/Projects/Annchen/Scripts/ArealMSHBM|
ew198|CANCELLED by 1455533|scavenger|2023-05-17T15:02:32|2023-06-02T11:18:52|15-20:16:20|dcc-rausherlab-01|1|1|16000M||/cifs/hariri-long/Projects/Annchen/Scripts/ArealMSHBM|
ew198|COMPLETED|scavenger|2023-05-17T15:02:32|2023-05-30T13:18:44|12-22:16:12|dcc-rausherlab-01|1|1|16000M||/cifs/hariri-long/Projects/Annchen/Scripts/ArealMSHBM|
ew198|CANCELLED by 1455533|scavenger|2023-05-17T15:02:32|2023-06-02T11:18:52|15-20:16:20|dcc-pfister-01|1|1|16000M||/cifs/hariri-long/Projects/Annchen/Scripts/ArealMSHBM|
ew198|CANCELLED by 1455533|scavenger|2023-05-17T15:02:32|2023-06-02T11:18:52|15-20:16:20|dcc-pfister-01|1|1|16000M||/cifs/hariri-long/Projects/Annchen/Scripts/ArealMSHBM|
ew198|CANCELLED by 1455533|scavenger|2023-05-17T15:02:32|2023-06-02T11:18:52|15-20:16:20|dcc-pfister-01|1|1|16000M||/cifs/hariri-long/Projects/Annchen/Scripts/ArealMSHBM|
ew198|CANCELLED by 1455533|scavenger|2023-05-17T15:02:32|2023-06-02T11:18:52|15-20:16:20|dcc-pfister-01|1|1|16000M||/cifs/hariri-long/Projects/Annchen/Scripts/ArealMSHBM|
ew198|CANCELLED by 1455533|scavenger|2023-05-17T15:02:32|2023-06-02T11:18:52|15-20:16:20|dcc-pfister-01|1|1|16000M||/cifs/hariri-long/Projects/Annchen/Scripts/ArealMSHBM|
ew198|CANCELLED by 1455533|scavenger|2023-05-17T15:02:32|2023-06-02T11:18:52|15-20:16:20|dcc-pfister-01|1|1|16000M||/cifs/hariri-long/Projects/Annchen/Scripts/ArealMSHBM|
ew198|CANCELLED by 1455533|scavenger|2023-05-17T15:02:32|2023-06-02T11:18:52|15-20:16:20|dcc-pfister-01|1|1|16000M||/cifs/hariri-long/Projects/Annchen/Scripts/ArealMSHBM|
ew198|CANCELLED by 1455533|scavenger|2023-05-17T15:02:32|2023-06-02T11:18:52|15-20:16:20|dcc-pfister-01|1|1|16000M||/cifs/hariri-long/Projects/Annchen/Scripts/ArealMSHBM|
ew198|CANCELLED by 1455533|scavenger|2023-05-17T15:02:32|2023-06-02T11:18:52|15-20:16:20|dcc-pfister-01|1|1|16000M||/cifs/hariri-long/Projects/Annchen/Scripts/ArealMSHBM|
ew198|CANCELLED by 1455533|scavenger|2023-05-17T15:02:32|2023-06-02T11:18:52|15-20:16:20|dcc-pfister-01|1|1|16000M||/cifs/hariri-long/Projects/Annchen/Scripts/ArealMSHBM|
ew198|CANCELLED by 1455533|scavenger|2023-05-17T15:02:32|2023-06-02T11:18:52|15-20:16:20|dcc-pfister-01|1|1|16000M||/cifs/hariri-long/Projects/Annchen/Scripts/ArealMSHBM|
ew198|CANCELLED by 1455533|scavenger|2023-05-17T15:02:32|2023-06-02T11:18:52|15-20:16:20|dcc-pfister-01|1|1|16000M||/cifs/hariri-long/Projects/Annchen/Scripts/ArealMSHBM|
ew198|CANCELLED by 1455533|scavenger|2023-05-17T15:02:32|2023-06-02T11:18:52|15-20:16:20|dcc-pfister-01|1|1|16000M||/cifs/hariri-long/Projects/Annchen/Scripts/ArealMSHBM|
hk288|OUT_OF_MEMORY|scavenger|2023-05-18T16:21:20|2023-05-24T06:08:14|5-13:46:54|dcc-cagpm-01|1|40|80G||/hpc/group/mastatlab/hk288/code_hp_paral|
pz19|TIMEOUT|scavenger|2023-05-19T15:41:44|2023-05-30T05:41:54|10-14:00:10|dcc-adrc-01|1|16|25408M||/work/pz19/Wang/Copper/Silicon/TS_06_3Lig/M06L|
pz19|PREEMPTED|scavenger|2023-05-19T15:49:57|2023-05-25T16:43:21|6-00:53:24|dcc-adrc-01|1|16|25408M||/work/pz19/Wang/Copper/Silicon/TS_06_3Lig/MN15|
pz19|TIMEOUT|scavenger|2023-05-19T15:57:29|2023-05-30T05:57:54|10-14:00:25|dcc-adrc-01|1|16|25408M||/work/pz19/Wang/Copper/Silicon/TS_06_3Lig/MN15|
yl708|CANCELLED by 1382854|scavenger|2023-05-20T08:39:29|2023-05-25T10:49:22|5-02:09:53|dcc-tunglab-02|1|1|2500M||/hpc/group/donald/yl708/TopologyNet-2017/perturbations|
yl708|CANCELLED by 1382854|scavenger|2023-05-20T08:39:29|2023-05-25T10:49:22|5-02:09:53|dcc-tunglab-02|1|1|2500M||/hpc/group/donald/yl708/TopologyNet-2017/perturbations|
pz19|PREEMPTED|scavenger|2023-05-19T19:54:27|2023-05-24T15:01:14|4-19:06:47|dcc-bragg-05|1|16|25408M||/work/pz19/Wang/Copper/Silicon/TS_06_3LigOAc/MN15|
yl708|CANCELLED by 1382854|scavenger|2023-05-21T12:30:32|2023-05-25T10:49:22|3-22:18:50|dcc-tunglab-02|1|1|2500M||/hpc/group/donald/yl708/TopologyNet-2017/perturbations|
yl708|CANCELLED by 1382854|scavenger|2023-05-22T00:20:08|2023-05-25T10:49:22|3-10:29:14|dcc-tunglab-02|1|1|2500M||/hpc/group/donald/yl708/TopologyNet-2017/perturbations|
yl708|CANCELLED by 1382854|scavenger|2023-05-22T00:20:08|2023-05-25T10:49:22|3-10:29:14|dcc-tunglab-02|1|1|2500M||/hpc/group/donald/yl708/TopologyNet-2017/perturbations|
pz19|PREEMPTED|scavenger|2023-05-20T11:22:20|2023-05-24T15:01:14|4-03:38:54|dcc-bragg-05|1|16|25408M||/work/pz19/Wang/Copper/Silicon/TS_06_3LigOAc/B3LYP|
pz19|PREEMPTED|scavenger|2023-05-20T12:02:40|2023-05-24T15:01:14|4-02:58:34|dcc-bragg-05|1|16|25408M||/work/pz19/Wang/Copper/Silicon/TS_06_3Lig/MN15|
pz19|CANCELLED by 1050403|scavenger|2023-05-21T11:48:01|2023-05-30T10:18:10|8-22:30:09|dcc-compeb-01|1|16|25408M||/work/pz19/Wang/Copper/Silicon/TS_06_3LigOAc/B3LYP|
pz19|TIMEOUT|scavenger|2023-05-21T11:52:32|2023-06-01T01:52:58|10-14:00:26|dcc-adrc-01|1|16|25408M||/work/pz19/Wang/Copper/Silicon/TS_06_3LigOAc/B3LYP|
mea54|CANCELLED by 1496219|scavenger|2023-05-21T15:52:28|2023-05-25T11:58:03|3-20:05:35|dcc-fergusonlab-02|1|64|600G||/hpc/home/mea54/ondemand/data/sys/dashboard/batch_connect/sys/bc_microbiome_rstudio/output/7fce3810-d3da-4cc3-b087-ed2a673502bf|
sw582|COMPLETED|scavenger|2023-05-22T00:48:28|2023-05-30T12:48:46|8-12:00:18|dcc-youlab-01|1|1|2G||/hpc/group/dbergerlab/sw582/empty_dir|
cjp47|RUNNING|scavenger|2023-05-22T09:27:11|Unknown|23-04:55:50|dcc-tmolab-01|1|1|64G||/hpc/group/bio1/cyanolichen_holobiome|
cjp47|PREEMPTED|scavenger|2023-05-22T09:27:11|2023-05-27T13:59:21|5-04:32:10|dcc-statdept-01|1|1|64G||/hpc/group/bio1/cyanolichen_holobiome|
cjp47|PREEMPTED|scavenger|2023-05-22T09:27:11|2023-05-27T13:59:21|5-04:32:10|dcc-statdept-01|1|1|64G||/hpc/group/bio1/cyanolichen_holobiome|
cjp47|PREEMPTED|scavenger|2023-05-22T09:27:11|2023-05-27T13:59:21|5-04:32:10|dcc-statdept-01|1|1|64G||/hpc/group/bio1/cyanolichen_holobiome|
cjp47|PREEMPTED|scavenger|2023-05-22T09:27:12|2023-05-27T13:59:21|5-04:32:09|dcc-statdept-01|1|1|64G||/hpc/group/bio1/cyanolichen_holobiome|
cjp47|PREEMPTED|scavenger|2023-05-22T09:27:12|2023-05-27T13:59:21|5-04:32:09|dcc-statdept-01|1|1|64G||/hpc/group/bio1/cyanolichen_holobiome|
pz19|CANCELLED by 1050403|scavenger|2023-05-22T10:31:54|2023-05-25T20:49:45|3-10:17:51|dcc-bragg-01|1|16|25408M||/work/pz19/Wang/Copper/Silicon/TS_06_3Lig/MN15|
af206|TIMEOUT|scavenger|2023-05-22T11:14:32|2023-05-25T11:14:44|3-00:00:12|dcc-cagpm-02|1|40|200G||/hpc/home/af206/ondemand/data/sys/dashboard/batch_connect/sys/bc_rstudio_singularity/output/1f21bc81-a0a4-431e-9d8f-673bc2ce33d1|
kw297|COMPLETED|scavenger|2023-05-22T21:28:07|2023-05-24T13:11:28|1-15:43:21|dcc-compeb-01|1|2|8G||/hpc/group/ychenlab/DA|
kw297|COMPLETED|scavenger|2023-05-22T21:28:07|2023-05-24T13:42:06|1-16:13:59|dcc-compeb-01|1|2|8G||/hpc/group/ychenlab/DA|
kw297|COMPLETED|scavenger|2023-05-22T21:28:07|2023-05-24T13:27:25|1-15:59:18|dcc-compeb-01|1|2|8G||/hpc/group/ychenlab/DA|
kw297|COMPLETED|scavenger|2023-05-22T21:28:07|2023-05-24T13:55:51|1-16:27:44|dcc-compeb-01|1|2|8G||/hpc/group/ychenlab/DA|
kw297|COMPLETED|scavenger|2023-05-22T21:28:07|2023-05-24T13:26:17|1-15:58:10|dcc-compeb-01|1|2|8G||/hpc/group/ychenlab/DA|
kw297|COMPLETED|scavenger|2023-05-22T21:28:07|2023-05-24T13:25:34|1-15:57:27|dcc-compeb-01|1|2|8G||/hpc/group/ychenlab/DA|
hk288|OUT_OF_MEMORY|scavenger|2023-05-23T06:28:20|2023-06-01T05:31:10|8-23:02:50|dcc-bragg-03|1|40|80G||/hpc/group/mastatlab/hk288/code_hp_paral|
hk288|COMPLETED|scavenger|2023-05-23T06:28:20|2023-05-29T02:59:32|5-20:31:12|dcc-compeb-04|1|40|80G||/hpc/group/mastatlab/hk288/code_hp_paral|
hk288|PREEMPTED|scavenger|2023-05-23T06:28:20|2023-05-25T20:17:11|2-13:48:51|dcc-delairelab-01|1|40|80G||/hpc/group/mastatlab/hk288/code_hp_paral|
hk288|OUT_OF_MEMORY|scavenger|2023-05-23T06:28:20|2023-06-01T15:42:06|9-09:13:46|dcc-donglab-01|1|40|80G||/hpc/group/mastatlab/hk288/code_hp_paral|
ark19|CANCELLED by 1027614|scavenger|2023-05-23T12:53:05|2023-05-24T11:16:16|22:23:11|dcc-youlab-01|1|1|125G||/cifs/hariri-long/Studies/DNS/Imaging/pipeline1.0/DTI/FSL/20100125_10274/FA_averaged|
ark19|CANCELLED by 1027614|scavenger|2023-05-23T12:53:05|2023-05-24T11:16:16|22:23:11|dcc-youlab-01|1|1|16000M||/cifs/hariri-long/Studies/DNS/Imaging/pipeline1.0/DTI/FSL/20100125_10274/FA_averaged|
ark19|CANCELLED by 1027614|scavenger|2023-05-23T12:53:05|2023-05-24T11:16:15|22:23:10|dcc-youlab-01|1|1|16000M||/cifs/hariri-long/Studies/DNS/Imaging/pipeline1.0/DTI/FSL/20100125_10274/FA_averaged|
ark19|CANCELLED by 1027614|scavenger|2023-05-23T12:53:05|2023-05-24T11:16:15|22:23:10|dcc-youlab-01|1|1|16000M||/cifs/hariri-long/Studies/DNS/Imaging/pipeline1.0/DTI/FSL/20100125_10274/FA_averaged|
ark19|CANCELLED by 1027614|scavenger|2023-05-23T12:53:05|2023-05-24T11:16:15|22:23:10|dcc-youlab-01|1|1|16000M||/cifs/hariri-long/Studies/DNS/Imaging/pipeline1.0/DTI/FSL/20100125_10274/FA_averaged|
ark19|CANCELLED by 1027614|scavenger|2023-05-23T12:53:05|2023-05-24T11:16:16|22:23:11|dcc-youlab-01|1|1|16000M||/cifs/hariri-long/Studies/DNS/Imaging/pipeline1.0/DTI/FSL/20100125_10274/FA_averaged|
ark19|CANCELLED by 1027614|scavenger|2023-05-23T12:53:05|2023-05-24T11:16:15|22:23:10|dcc-youlab-01|1|1|16000M||/cifs/hariri-long/Studies/DNS/Imaging/pipeline1.0/DTI/FSL/20100125_10274/FA_averaged|
ark19|CANCELLED by 1027614|scavenger|2023-05-23T12:53:05|2023-05-24T11:16:15|22:23:10|dcc-youlab-01|1|1|16000M||/cifs/hariri-long/Studies/DNS/Imaging/pipeline1.0/DTI/FSL/20100125_10274/FA_averaged|
ark19|CANCELLED by 1027614|scavenger|2023-05-23T12:53:05|2023-05-24T11:16:16|22:23:11|dcc-youlab-01|1|1|16000M||/cifs/hariri-long/Studies/DNS/Imaging/pipeline1.0/DTI/FSL/20100125_10274/FA_averaged|
ark19|CANCELLED by 1027614|scavenger|2023-05-23T12:53:06|2023-05-24T11:16:15|22:23:09|dcc-youlab-01|1|1|16000M||/cifs/hariri-long/Studies/DNS/Imaging/pipeline1.0/DTI/FSL/20100125_10274/FA_averaged|
ark19|CANCELLED by 1027614|scavenger|2023-05-23T12:53:06|2023-05-24T11:16:16|22:23:10|dcc-youlab-01|1|1|16000M||/cifs/hariri-long/Studies/DNS/Imaging/pipeline1.0/DTI/FSL/20100125_10274/FA_averaged|
ark19|CANCELLED by 1027614|scavenger|2023-05-23T12:53:06|2023-05-24T11:16:19|22:23:13|dcc-wychem-01|1|1|16000M||/cifs/hariri-long/Studies/DNS/Imaging/pipeline1.0/DTI/FSL/20100125_10274/FA_averaged|
ark19|CANCELLED by 1027614|scavenger|2023-05-23T12:53:07|2023-05-24T11:16:18|22:23:11|dcc-wychem-01|1|1|16000M||/cifs/hariri-long/Studies/DNS/Imaging/pipeline1.0/DTI/FSL/20100125_10274/FA_averaged|
ark19|CANCELLED by 1027614|scavenger|2023-05-23T12:53:11|2023-05-24T11:16:18|22:23:07|dcc-tunglab-01|1|1|16000M||/cifs/hariri-long/Studies/DNS/Imaging/pipeline1.0/DTI/FSL/20100125_10274/FA_averaged|
ark19|CANCELLED by 1027614|scavenger|2023-05-23T12:53:11|2023-05-24T11:16:17|22:23:06|dcc-tunglab-01|1|1|16000M||/cifs/hariri-long/Studies/DNS/Imaging/pipeline1.0/DTI/FSL/20100125_10274/FA_averaged|
ark19|CANCELLED by 1027614|scavenger|2023-05-23T12:53:11|2023-05-24T11:16:17|22:23:06|dcc-tunglab-01|1|1|16000M||/cifs/hariri-long/Studies/DNS/Imaging/pipeline1.0/DTI/FSL/20100125_10274/FA_averaged|
ark19|CANCELLED by 1027614|scavenger|2023-05-23T12:53:11|2023-05-24T11:16:18|22:23:07|dcc-tunglab-01|1|1|16000M||/cifs/hariri-long/Studies/DNS/Imaging/pipeline1.0/DTI/FSL/20100125_10274/FA_averaged|
ark19|CANCELLED by 1027614|scavenger|2023-05-23T12:53:11|2023-05-24T11:16:17|22:23:06|dcc-tunglab-01|1|1|16000M||/cifs/hariri-long/Studies/DNS/Imaging/pipeline1.0/DTI/FSL/20100125_10274/FA_averaged|
ark19|CANCELLED by 1027614|scavenger|2023-05-23T12:53:11|2023-05-24T11:16:17|22:23:06|dcc-tunglab-01|1|1|16000M||/cifs/hariri-long/Studies/DNS/Imaging/pipeline1.0/DTI/FSL/20100125_10274/FA_averaged|
ark19|CANCELLED by 1027614|scavenger|2023-05-23T12:53:11|2023-05-24T11:16:18|22:23:07|dcc-tunglab-01|1|1|16000M||/cifs/hariri-long/Studies/DNS/Imaging/pipeline1.0/DTI/FSL/20100125_10274/FA_averaged|
ark19|CANCELLED by 1027614|scavenger|2023-05-23T12:53:11|2023-05-24T11:16:17|22:23:06|dcc-tunglab-01|1|1|16000M||/cifs/hariri-long/Studies/DNS/Imaging/pipeline1.0/DTI/FSL/20100125_10274/FA_averaged|
ark19|CANCELLED by 1027614|scavenger|2023-05-23T12:53:11|2023-05-24T11:16:18|22:23:07|dcc-tunglab-01|1|1|16000M||/cifs/hariri-long/Studies/DNS/Imaging/pipeline1.0/DTI/FSL/20100125_10274/FA_averaged|
ark19|CANCELLED by 1027614|scavenger|2023-05-23T12:53:11|2023-05-24T11:16:17|22:23:06|dcc-tunglab-01|1|1|16000M||/cifs/hariri-long/Studies/DNS/Imaging/pipeline1.0/DTI/FSL/20100125_10274/FA_averaged|
ark19|CANCELLED by 1027614|scavenger|2023-05-23T12:53:11|2023-05-24T11:16:18|22:23:07|dcc-tunglab-01|1|1|16000M||/cifs/hariri-long/Studies/DNS/Imaging/pipeline1.0/DTI/FSL/20100125_10274/FA_averaged|
ark19|CANCELLED by 1027614|scavenger|2023-05-23T12:53:11|2023-05-24T11:16:17|22:23:06|dcc-tunglab-01|1|1|16000M||/cifs/hariri-long/Studies/DNS/Imaging/pipeline1.0/DTI/FSL/20100125_10274/FA_averaged|
ark19|CANCELLED by 1027614|scavenger|2023-05-23T12:53:13|2023-05-24T11:16:16|22:23:03|dcc-tunglab-01|1|1|16000M||/cifs/hariri-long/Studies/DNS/Imaging/pipeline1.0/DTI/FSL/20100125_10274/FA_averaged|
ark19|CANCELLED by 1027614|scavenger|2023-05-23T12:53:13|2023-05-24T11:16:17|22:23:04|dcc-tunglab-01|1|1|16000M||/cifs/hariri-long/Studies/DNS/Imaging/pipeline1.0/DTI/FSL/20100125_10274/FA_averaged|
ark19|COMPLETED|scavenger|2023-05-23T12:53:21|2023-05-27T15:19:27|4-02:26:06|dcc-pfister-01|1|1|125G||/cifs/hariri-long/Studies/DNS/Imaging/pipeline1.0/DTI/FSL/20100125_10274/FA_averaged|
ark19|CANCELLED by 1027614|scavenger|2023-05-23T12:53:21|2023-05-27T16:31:54|4-03:38:33|dcc-tunglab-01|1|1|16000M||/cifs/hariri-long/Studies/DNS/Imaging/pipeline1.0/DTI/FSL/20100125_10274/FA_averaged|
ark19|CANCELLED by 1027614|scavenger|2023-05-23T12:53:21|2023-05-27T16:31:54|4-03:38:33|dcc-tunglab-01|1|1|16000M||/cifs/hariri-long/Studies/DNS/Imaging/pipeline1.0/DTI/FSL/20100125_10274/FA_averaged|
ark19|CANCELLED by 1027614|scavenger|2023-05-23T12:53:21|2023-05-27T16:31:54|4-03:38:33|dcc-tunglab-01|1|1|16000M||/cifs/hariri-long/Studies/DNS/Imaging/pipeline1.0/DTI/FSL/20100125_10274/FA_averaged|
ark19|CANCELLED by 1027614|scavenger|2023-05-23T12:53:21|2023-05-27T16:31:54|4-03:38:33|dcc-tunglab-01|1|1|16000M||/cifs/hariri-long/Studies/DNS/Imaging/pipeline1.0/DTI/FSL/20100125_10274/FA_averaged|
ark19|CANCELLED by 1027614|scavenger|2023-05-23T12:53:21|2023-05-27T16:31:54|4-03:38:33|dcc-tunglab-01|1|1|16000M||/cifs/hariri-long/Studies/DNS/Imaging/pipeline1.0/DTI/FSL/20100125_10274/FA_averaged|
ark19|CANCELLED by 1027614|scavenger|2023-05-23T12:53:21|2023-05-27T16:31:54|4-03:38:33|dcc-tunglab-01|1|1|16000M||/cifs/hariri-long/Studies/DNS/Imaging/pipeline1.0/DTI/FSL/20100125_10274/FA_averaged|
ark19|CANCELLED by 1027614|scavenger|2023-05-23T12:53:21|2023-05-27T16:31:54|4-03:38:33|dcc-tmolab-02|1|1|16000M||/cifs/hariri-long/Studies/DNS/Imaging/pipeline1.0/DTI/FSL/20100125_10274/FA_averaged|
ark19|CANCELLED by 1027614|scavenger|2023-05-23T12:53:21|2023-05-27T16:31:54|4-03:38:33|dcc-tmolab-02|1|1|16000M||/cifs/hariri-long/Studies/DNS/Imaging/pipeline1.0/DTI/FSL/20100125_10274/FA_averaged|
ark19|CANCELLED by 1027614|scavenger|2023-05-23T12:53:21|2023-05-27T16:31:54|4-03:38:33|dcc-tmolab-02|1|1|16000M||/cifs/hariri-long/Studies/DNS/Imaging/pipeline1.0/DTI/FSL/20100125_10274/FA_averaged|
ark19|CANCELLED by 1027614|scavenger|2023-05-23T12:53:21|2023-05-27T16:31:55|4-03:38:34|dcc-tmolab-02|1|1|16000M||/cifs/hariri-long/Studies/DNS/Imaging/pipeline1.0/DTI/FSL/20100125_10274/FA_averaged|
ark19|CANCELLED by 1027614|scavenger|2023-05-23T12:53:21|2023-05-27T16:31:55|4-03:38:34|dcc-tmolab-02|1|1|16000M||/cifs/hariri-long/Studies/DNS/Imaging/pipeline1.0/DTI/FSL/20100125_10274/FA_averaged|
ark19|CANCELLED by 1027614|scavenger|2023-05-23T12:53:21|2023-05-27T16:31:55|4-03:38:34|dcc-tmolab-01|1|1|16000M||/cifs/hariri-long/Studies/DNS/Imaging/pipeline1.0/DTI/FSL/20100125_10274/FA_averaged|
ark19|CANCELLED by 1027614|scavenger|2023-05-23T12:53:21|2023-05-27T16:31:55|4-03:38:34|dcc-tmolab-01|1|1|16000M||/cifs/hariri-long/Studies/DNS/Imaging/pipeline1.0/DTI/FSL/20100125_10274/FA_averaged|
ark19|PREEMPTED|scavenger|2023-05-23T12:53:21|2023-05-27T13:59:21|4-01:06:00|dcc-statdept-01|1|1|16000M||/cifs/hariri-long/Studies/DNS/Imaging/pipeline1.0/DTI/FSL/20100125_10274/FA_averaged|
ark19|PREEMPTED|scavenger|2023-05-23T12:53:21|2023-05-27T14:05:22|4-01:12:01|dcc-statdept-01|1|1|16000M||/cifs/hariri-long/Studies/DNS/Imaging/pipeline1.0/DTI/FSL/20100125_10274/FA_averaged|
ark19|PREEMPTED|scavenger|2023-05-23T12:53:21|2023-05-27T14:05:22|4-01:12:01|dcc-statdept-01|1|1|16000M||/cifs/hariri-long/Studies/DNS/Imaging/pipeline1.0/DTI/FSL/20100125_10274/FA_averaged|
ark19|PREEMPTED|scavenger|2023-05-23T12:53:21|2023-05-27T14:05:22|4-01:12:01|dcc-statdept-01|1|1|16000M||/cifs/hariri-long/Studies/DNS/Imaging/pipeline1.0/DTI/FSL/20100125_10274/FA_averaged|
ark19|PREEMPTED|scavenger|2023-05-23T12:53:23|2023-05-27T14:05:22|4-01:11:59|dcc-statdept-01|1|1|16000M||/cifs/hariri-long/Studies/DNS/Imaging/pipeline1.0/DTI/FSL/20100125_10274/FA_averaged|
ark19|PREEMPTED|scavenger|2023-05-23T12:53:23|2023-05-27T14:05:22|4-01:11:59|dcc-statdept-01|1|1|16000M||/cifs/hariri-long/Studies/DNS/Imaging/pipeline1.0/DTI/FSL/20100125_10274/FA_averaged|
ark19|CANCELLED by 1027614|scavenger|2023-05-23T12:53:23|2023-05-27T16:31:51|4-03:38:28|dcc-savageresearch-02|1|1|16000M||/cifs/hariri-long/Studies/DNS/Imaging/pipeline1.0/DTI/FSL/20100125_10274/FA_averaged|
ark19|CANCELLED by 1027614|scavenger|2023-05-23T12:53:23|2023-05-27T16:31:51|4-03:38:28|dcc-savageresearch-01|1|1|16000M||/cifs/hariri-long/Studies/DNS/Imaging/pipeline1.0/DTI/FSL/20100125_10274/FA_averaged|
ark19|CANCELLED by 1027614|scavenger|2023-05-23T12:53:23|2023-05-27T16:31:51|4-03:38:28|dcc-savageresearch-01|1|1|16000M||/cifs/hariri-long/Studies/DNS/Imaging/pipeline1.0/DTI/FSL/20100125_10274/FA_averaged|
ark19|CANCELLED by 1027614|scavenger|2023-05-23T12:53:23|2023-05-27T16:31:51|4-03:38:28|dcc-savageresearch-01|1|1|16000M||/cifs/hariri-long/Studies/DNS/Imaging/pipeline1.0/DTI/FSL/20100125_10274/FA_averaged|
ark19|CANCELLED by 1027614|scavenger|2023-05-23T12:53:23|2023-05-27T16:31:51|4-03:38:28|dcc-savageresearch-01|1|1|16000M||/cifs/hariri-long/Studies/DNS/Imaging/pipeline1.0/DTI/FSL/20100125_10274/FA_averaged|
ark19|CANCELLED by 1027614|scavenger|2023-05-23T12:53:23|2023-05-27T16:31:52|4-03:38:29|dcc-savageresearch-01|1|1|16000M||/cifs/hariri-long/Studies/DNS/Imaging/pipeline1.0/DTI/FSL/20100125_10274/FA_averaged|
ark19|CANCELLED by 1027614|scavenger|2023-05-23T12:53:23|2023-05-27T16:31:52|4-03:38:29|dcc-savageresearch-01|1|1|16000M||/cifs/hariri-long/Studies/DNS/Imaging/pipeline1.0/DTI/FSL/20100125_10274/FA_averaged|
ark19|CANCELLED by 1027614|scavenger|2023-05-23T12:53:23|2023-05-27T16:31:52|4-03:38:29|dcc-savageresearch-01|1|1|16000M||/cifs/hariri-long/Studies/DNS/Imaging/pipeline1.0/DTI/FSL/20100125_10274/FA_averaged|
ark19|CANCELLED by 1027614|scavenger|2023-05-23T12:53:23|2023-05-27T16:31:52|4-03:38:29|dcc-pfister-01|1|1|16000M||/cifs/hariri-long/Studies/DNS/Imaging/pipeline1.0/DTI/FSL/20100125_10274/FA_averaged|
ark19|CANCELLED by 1027614|scavenger|2023-05-23T12:53:23|2023-05-27T16:31:52|4-03:38:29|dcc-pfister-01|1|1|16000M||/cifs/hariri-long/Studies/DNS/Imaging/pipeline1.0/DTI/FSL/20100125_10274/FA_averaged|
ark19|CANCELLED by 1027614|scavenger|2023-05-23T12:53:23|2023-05-27T16:31:52|4-03:38:29|dcc-pfister-01|1|1|16000M||/cifs/hariri-long/Studies/DNS/Imaging/pipeline1.0/DTI/FSL/20100125_10274/FA_averaged|
ark19|CANCELLED by 1027614|scavenger|2023-05-23T12:53:23|2023-05-27T16:31:52|4-03:38:29|dcc-pfister-01|1|1|16000M||/cifs/hariri-long/Studies/DNS/Imaging/pipeline1.0/DTI/FSL/20100125_10274/FA_averaged|
ark19|CANCELLED by 1027614|scavenger|2023-05-23T12:53:23|2023-05-27T16:31:53|4-03:38:30|dcc-pfister-01|1|1|16000M||/cifs/hariri-long/Studies/DNS/Imaging/pipeline1.0/DTI/FSL/20100125_10274/FA_averaged|
ark19|CANCELLED by 1027614|scavenger|2023-05-23T12:53:23|2023-05-27T16:31:53|4-03:38:30|dcc-pfister-01|1|1|16000M||/cifs/hariri-long/Studies/DNS/Imaging/pipeline1.0/DTI/FSL/20100125_10274/FA_averaged|
ark19|CANCELLED by 1027614|scavenger|2023-05-23T12:53:23|2023-05-27T16:31:53|4-03:38:30|dcc-pfister-01|1|1|16000M||/cifs/hariri-long/Studies/DNS/Imaging/pipeline1.0/DTI/FSL/20100125_10274/FA_averaged|
ark19|CANCELLED by 1027614|scavenger|2023-05-23T12:53:23|2023-05-27T16:31:54|4-03:38:31|dcc-pbenfeylab-02|1|1|16000M||/cifs/hariri-long/Studies/DNS/Imaging/pipeline1.0/DTI/FSL/20100125_10274/FA_averaged|
ark19|CANCELLED by 1027614|scavenger|2023-05-23T12:53:24|2023-05-27T16:31:50|4-03:38:26|dcc-pbenfeylab-02|1|1|16000M||/cifs/hariri-long/Studies/DNS/Imaging/pipeline1.0/DTI/FSL/20100125_10274/FA_averaged|
ark19|CANCELLED by 1027614|scavenger|2023-05-23T12:53:24|2023-05-27T16:31:50|4-03:38:26|dcc-pbenfeylab-02|1|1|16000M||/cifs/hariri-long/Studies/DNS/Imaging/pipeline1.0/DTI/FSL/20100125_10274/FA_averaged|
ark19|CANCELLED by 1027614|scavenger|2023-05-23T12:53:24|2023-05-27T16:31:51|4-03:38:27|dcc-pbenfeylab-02|1|1|16000M||/cifs/hariri-long/Studies/DNS/Imaging/pipeline1.0/DTI/FSL/20100125_10274/FA_averaged|
ark19|CANCELLED by 1027614|scavenger|2023-05-23T12:53:24|2023-05-27T16:31:51|4-03:38:27|dcc-pbenfeylab-02|1|1|16000M||/cifs/hariri-long/Studies/DNS/Imaging/pipeline1.0/DTI/FSL/20100125_10274/FA_averaged|
ark19|CANCELLED by 1027614|scavenger|2023-05-23T12:53:24|2023-05-27T16:31:51|4-03:38:27|dcc-pbenfeylab-02|1|1|16000M||/cifs/hariri-long/Studies/DNS/Imaging/pipeline1.0/DTI/FSL/20100125_10274/FA_averaged|
ark19|CANCELLED by 1027614|scavenger|2023-05-23T12:53:24|2023-05-27T16:31:51|4-03:38:27|dcc-pbenfeylab-02|1|1|16000M||/cifs/hariri-long/Studies/DNS/Imaging/pipeline1.0/DTI/FSL/20100125_10274/FA_averaged|
ark19|CANCELLED by 1027614|scavenger|2023-05-23T12:53:26|2023-05-27T16:31:48|4-03:38:22|dcc-pbenfeylab-02|1|1|16000M||/cifs/hariri-long/Studies/DNS/Imaging/pipeline1.0/DTI/FSL/20100125_10274/FA_averaged|
ark19|CANCELLED by 1027614|scavenger|2023-05-23T12:53:26|2023-05-27T16:31:48|4-03:38:22|dcc-pbenfeylab-02|1|1|16000M||/cifs/hariri-long/Studies/DNS/Imaging/pipeline1.0/DTI/FSL/20100125_10274/FA_averaged|
ark19|CANCELLED by 1027614|scavenger|2023-05-23T12:53:26|2023-05-27T16:31:49|4-03:38:23|dcc-pbenfeylab-02|1|1|16000M||/cifs/hariri-long/Studies/DNS/Imaging/pipeline1.0/DTI/FSL/20100125_10274/FA_averaged|
ark19|CANCELLED by 1027614|scavenger|2023-05-23T12:53:26|2023-05-27T16:31:49|4-03:38:23|dcc-pbenfeylab-02|1|1|16000M||/cifs/hariri-long/Studies/DNS/Imaging/pipeline1.0/DTI/FSL/20100125_10274/FA_averaged|
ark19|CANCELLED by 1027614|scavenger|2023-05-23T12:53:26|2023-05-27T16:31:49|4-03:38:23|dcc-pbenfeylab-02|1|1|16000M||/cifs/hariri-long/Studies/DNS/Imaging/pipeline1.0/DTI/FSL/20100125_10274/FA_averaged|
ark19|CANCELLED by 1027614|scavenger|2023-05-23T12:53:26|2023-05-27T16:31:49|4-03:38:23|dcc-pbenfeylab-02|1|1|16000M||/cifs/hariri-long/Studies/DNS/Imaging/pipeline1.0/DTI/FSL/20100125_10274/FA_averaged|
ark19|CANCELLED by 1027614|scavenger|2023-05-23T12:53:26|2023-05-27T16:31:49|4-03:38:23|dcc-pbenfeylab-02|1|1|16000M||/cifs/hariri-long/Studies/DNS/Imaging/pipeline1.0/DTI/FSL/20100125_10274/FA_averaged|
ark19|CANCELLED by 1027614|scavenger|2023-05-23T12:53:26|2023-05-27T16:31:49|4-03:38:23|dcc-pbenfeylab-02|1|1|16000M||/cifs/hariri-long/Studies/DNS/Imaging/pipeline1.0/DTI/FSL/20100125_10274/FA_averaged|
ark19|CANCELLED by 1027614|scavenger|2023-05-23T12:53:26|2023-05-27T16:31:49|4-03:38:23|dcc-pbenfeylab-02|1|1|16000M||/cifs/hariri-long/Studies/DNS/Imaging/pipeline1.0/DTI/FSL/20100125_10274/FA_averaged|
xw171|CANCELLED by 1206691|scavenger|2023-05-23T14:42:40|2023-05-24T17:59:41|1-03:17:01|dcc-tunglab-02|1|29|100G||/work/xw171/sciHiCAR-ATAC-2|
ly171|OUT_OF_MEMORY|scavenger|2023-05-23T15:03:21|2023-05-25T21:36:03|2-06:32:42|dcc-carin-25|1|4|30000M||/datacommons/ydiaolab/diaolab_group/lizhi/dCas12/YC12KIN|
ly171|OUT_OF_MEMORY|scavenger|2023-05-23T15:04:50|2023-05-26T03:26:46|2-12:21:56|dcc-compeb-02|1|4|30000M||/datacommons/ydiaolab/diaolab_group/lizhi/dCas12/YC12KF2|
ly171|OUT_OF_MEMORY|scavenger|2023-05-23T15:05:51|2023-05-25T04:58:15|1-13:52:24|dcc-compeb-02|1|4|30000M||/datacommons/ydiaolab/diaolab_group/lizhi/dCas12/YC12KF1|
ly171|COMPLETED|scavenger|2023-05-23T15:20:03|2023-05-24T15:18:07|23:58:04|dcc-carin-25|1|4|30000M||/work/ly171/CARTAR/h1_ATAC_tongyu|
kdm65|FAILED|scavenger|2023-05-23T15:31:16|2023-05-24T21:34:16|1-06:03:00|dcc-nsoe-it-01|1|1|32G||/work/kdm65/validation|
sa400|CANCELLED by 1221744|scavenger|2023-05-23T17:11:03|2023-05-24T12:38:29|19:27:26|dcc-youlab-01|1|1|24G||/hpc/home/sa400|
ark19|CANCELLED by 1027614|scavenger|2023-05-23T17:11:03|2023-05-24T11:16:19|18:05:16|dcc-youlab-01|1|1|16000M||/cifs/hariri-long/Studies/DNS/Imaging/pipeline1.0/DTI/FSL/20100125_10274/FA_averaged|
ark19|CANCELLED by 1027614|scavenger|2023-05-23T17:11:03|2023-05-24T11:16:19|18:05:16|dcc-youlab-01|1|1|16000M||/cifs/hariri-long/Studies/DNS/Imaging/pipeline1.0/DTI/FSL/20100125_10274/FA_averaged|
ark19|CANCELLED by 1027614|scavenger|2023-05-23T17:11:03|2023-05-24T11:16:19|18:05:16|dcc-tunglab-02|1|1|16000M||/cifs/hariri-long/Studies/DNS/Imaging/pipeline1.0/DTI/FSL/20100125_10274/FA_averaged|
cjp47|PREEMPTED|scavenger|2023-05-23T17:11:03|2023-05-27T13:59:21|3-20:48:18|dcc-statdept-01|1|1|64G||/hpc/group/bio1/cyanolichen_holobiome|
ark19|CANCELLED by 1027614|scavenger|2023-05-23T17:55:37|2023-05-24T11:16:19|17:20:42|dcc-tunglab-02|1|1|16000M||/cifs/hariri-long/Studies/DNS/Imaging/pipeline1.0/DTI/FSL/20100125_10274/FA_averaged|
ark19|CANCELLED by 1027614|scavenger|2023-05-23T17:55:37|2023-05-24T11:16:19|17:20:42|dcc-tunglab-02|1|1|16000M||/cifs/hariri-long/Studies/DNS/Imaging/pipeline1.0/DTI/FSL/20100125_10274/FA_averaged|
ark19|CANCELLED by 1027614|scavenger|2023-05-23T17:55:37|2023-05-24T11:16:19|17:20:42|dcc-statdept-01|1|1|16000M||/cifs/hariri-long/Studies/DNS/Imaging/pipeline1.0/DTI/FSL/20100125_10274/FA_averaged|
ark19|CANCELLED by 1027614|scavenger|2023-05-23T17:55:37|2023-05-24T11:16:19|17:20:42|dcc-pbenfeylab-02|1|1|16000M||/cifs/hariri-long/Studies/DNS/Imaging/pipeline1.0/DTI/FSL/20100125_10274/FA_averaged|
ark19|CANCELLED by 1027614|scavenger|2023-05-23T18:04:59|2023-05-24T11:16:21|17:11:22|dcc-pbenfeylab-02|1|1|16000M||/cifs/hariri-long/Studies/DNS/Imaging/pipeline1.0/DTI/FSL/20100125_10274/FA_averaged|
ark19|CANCELLED by 1027614|scavenger|2023-05-23T18:04:59|2023-05-24T11:16:21|17:11:22|dcc-pbenfeylab-02|1|1|16000M||/cifs/hariri-long/Studies/DNS/Imaging/pipeline1.0/DTI/FSL/20100125_10274/FA_averaged|
ark19|CANCELLED by 1027614|scavenger|2023-05-23T18:04:59|2023-05-24T11:16:20|17:11:21|dcc-pbenfeylab-02|1|1|16000M||/cifs/hariri-long/Studies/DNS/Imaging/pipeline1.0/DTI/FSL/20100125_10274/FA_averaged|
ark19|CANCELLED by 1027614|scavenger|2023-05-23T18:04:59|2023-05-24T11:16:20|17:11:21|dcc-pbenfeylab-02|1|1|16000M||/cifs/hariri-long/Studies/DNS/Imaging/pipeline1.0/DTI/FSL/20100125_10274/FA_averaged|
ark19|CANCELLED by 1027614|scavenger|2023-05-23T18:04:59|2023-05-24T11:16:21|17:11:22|dcc-pbenfeylab-02|1|1|16000M||/cifs/hariri-long/Studies/DNS/Imaging/pipeline1.0/DTI/FSL/20100125_10274/FA_averaged|
ark19|CANCELLED by 1027614|scavenger|2023-05-23T18:04:59|2023-05-24T11:16:21|17:11:22|dcc-pbenfeylab-02|1|1|16000M||/cifs/hariri-long/Studies/DNS/Imaging/pipeline1.0/DTI/FSL/20100125_10274/FA_averaged|
ark19|CANCELLED by 1027614|scavenger|2023-05-23T18:04:59|2023-05-24T11:16:20|17:11:21|dcc-pbenfeylab-02|1|1|16000M||/cifs/hariri-long/Studies/DNS/Imaging/pipeline1.0/DTI/FSL/20100125_10274/FA_averaged|
ark19|CANCELLED by 1027614|scavenger|2023-05-23T18:04:59|2023-05-24T11:16:21|17:11:22|dcc-pbenfeylab-02|1|1|16000M||/cifs/hariri-long/Studies/DNS/Imaging/pipeline1.0/DTI/FSL/20100125_10274/FA_averaged|
ark19|CANCELLED by 1027614|scavenger|2023-05-23T18:05:00|2023-05-24T11:16:20|17:11:20|dcc-pbenfeylab-02|1|1|16000M||/cifs/hariri-long/Studies/DNS/Imaging/pipeline1.0/DTI/FSL/20100125_10274/FA_averaged|
ark19|CANCELLED by 1027614|scavenger|2023-05-23T18:05:00|2023-05-24T11:16:20|17:11:20|dcc-pbenfeylab-02|1|1|16000M||/cifs/hariri-long/Studies/DNS/Imaging/pipeline1.0/DTI/FSL/20100125_10274/FA_averaged|
ark19|CANCELLED by 1027614|scavenger|2023-05-23T18:05:00|2023-05-24T11:16:20|17:11:20|dcc-pbenfeylab-02|1|1|16000M||/cifs/hariri-long/Studies/DNS/Imaging/pipeline1.0/DTI/FSL/20100125_10274/FA_averaged|
ark19|CANCELLED by 1027614|scavenger|2023-05-23T18:05:00|2023-05-24T11:16:20|17:11:20|dcc-pbenfeylab-02|1|1|16000M||/cifs/hariri-long/Studies/DNS/Imaging/pipeline1.0/DTI/FSL/20100125_10274/FA_averaged|
ark19|CANCELLED by 1027614|scavenger|2023-05-23T18:05:00|2023-05-24T11:16:21|17:11:21|dcc-pbenfeylab-02|1|1|16000M||/cifs/hariri-long/Studies/DNS/Imaging/pipeline1.0/DTI/FSL/20100125_10274/FA_averaged|
jo117|COMPLETED|scavenger|2023-05-23T18:06:44|2023-05-24T14:52:18|20:45:34|dcc-hashimilab-01|1|12|120G||/work/jo117/DiaoLab/hicar_v2/human/work/f3/9400968f67a247a751480e0a8bc1c0|
jo117|COMPLETED|scavenger|2023-05-23T18:07:25|2023-05-24T12:51:57|18:44:32|dcc-dunsonlab-01|1|12|120G||/work/jo117/DiaoLab/hicar_v2/human/work/7d/c64cc165a6c0a1be54969750f91b58|
jo117|FAILED|scavenger|2023-05-23T22:01:25|2023-05-24T14:00:40|15:59:15|dcc-motesa-01|1|12|72G||/work/jo117/DiaoLab/hicar_v2/human/work/d1/5239d6b319009f442e3530b4693fe3|
ark19|CANCELLED by 1027614|scavenger|2023-05-23T22:17:34|2023-05-24T11:16:21|12:58:47|dcc-rausherlab-02|1|1|16000M||/cifs/hariri-long/Studies/DNS/Imaging/pipeline1.0/DTI/FSL/20100125_10274/FA_averaged|
ark19|CANCELLED by 1027614|scavenger|2023-05-23T22:17:34|2023-05-24T11:16:22|12:58:48|dcc-rausherlab-02|1|1|16000M||/cifs/hariri-long/Studies/DNS/Imaging/pipeline1.0/DTI/FSL/20100125_10274/FA_averaged|
ark19|CANCELLED by 1027614|scavenger|2023-05-23T22:17:34|2023-05-24T11:16:56|12:59:22|dcc-rausherlab-02|1|1|16000M||/cifs/hariri-long/Studies/DNS/Imaging/pipeline1.0/DTI/FSL/20100125_10274/FA_averaged|
ark19|CANCELLED by 1027614|scavenger|2023-05-23T22:17:34|2023-05-24T11:16:22|12:58:48|dcc-rausherlab-02|1|1|16000M||/cifs/hariri-long/Studies/DNS/Imaging/pipeline1.0/DTI/FSL/20100125_10274/FA_averaged|
dg304|COMPLETED|scavenger|2023-05-24T04:00:11|2023-05-24T06:39:29|02:39:18|dcc-fergusonlab-01|1|24|384G||/work/dg304/dala/cyanolichen_holobiome|
sw582|COMPLETED|scavenger|2023-05-24T00:16:12|2023-05-24T21:33:46|21:17:34|dcc-youlab-01|1|1|2G||/hpc/group/dbergerlab/sw582/empty_dir|
ts349|FAILED|scavenger|2023-05-24T05:47:28|2023-05-25T13:46:40|1-07:59:12|dcc-fergusonlab-01|1|12|100G||/work/ts349/stm2457_hicar/work/fd/115f4ff6e8cb8c4f6c0a867c52a763|
ts349|FAILED|scavenger|2023-05-24T05:47:48|2023-05-25T13:47:10|1-07:59:22|dcc-adrc-01|1|12|100G||/work/ts349/stm2457_hicar/work/68/9ca7b718c82e1f2241189f978062c2|
ts349|FAILED|scavenger|2023-05-24T06:51:59|2023-05-31T13:27:41|7-06:35:42|dcc-bragg-04|1|30|72G||/work/ts349/stm2457_hicar/endoderm_RNA|
ts349|COMPLETED|scavenger|2023-05-24T06:56:22|2023-05-30T09:10:17|6-02:13:55|dcc-compeb-03|1|30|72G||/hpc/home/ts349|
