pz19|RUNNING|scavenger|2023-03-29T09:52:04|Unknown|77-04:34:22|dcc-fergusonlab-05|1|10|457000M||/work/pz19/Jiaqi/13e14o|
smokeauth2-tst|NODE_FAIL|scavenger|2023-04-18T10:56:00|2023-05-29T17:29:37|41-06:33:37|dcc-tunglab-02|1|1|2G||/hpc/home/smokeauth2-tst|
smokeauth2-tst|RUNNING|scavenger|2023-04-18T12:49:48|Unknown|57-01:36:38|dcc-noor-01|1|1|2G||/hpc/home/smokeauth2-tst|
fjm7|RUNNING|scavenger|2023-04-23T15:19:07|Unknown|51-23:07:19|dcc-noor-01|1|1|2G||/hpc/group/brownlab/fjm7/new-data-collection/slurm-runners|
fjm7|RUNNING|scavenger|2023-04-23T15:19:07|Unknown|51-23:07:19|dcc-noor-01|1|1|2G||/hpc/group/brownlab/fjm7/new-data-collection/slurm-runners|
fjm7|RUNNING|scavenger|2023-04-23T15:19:07|Unknown|51-23:07:19|dcc-noor-01|1|1|2G||/hpc/group/brownlab/fjm7/new-data-collection/slurm-runners|
fjm7|RUNNING|scavenger|2023-04-23T15:19:08|Unknown|51-23:07:18|dcc-noor-01|1|1|2G||/hpc/group/brownlab/fjm7/new-data-collection/slurm-runners|
fjm7|RUNNING|scavenger|2023-04-23T15:19:08|Unknown|51-23:07:18|dcc-noor-01|1|1|2G||/hpc/group/brownlab/fjm7/new-data-collection/slurm-runners|
lh342|TIMEOUT|scavenger|2023-05-02T03:05:50|2023-06-01T03:06:14|30-00:00:24|dcc-compeb-02|1|8|16G||/hpc/home/lh342/ondemand/data/sys/dashboard/batch_connect/sys/bc_desktop/dcc/output/702824cf-eb77-47a5-9f97-205f479dd2d4|
cw446|CANCELLED by 1401348|scavenger|2023-05-08T23:40:21|2023-05-30T10:48:58|21-11:08:37|dcc-fergusonlab-04|1|5|300G||/hpc/group/jilab/changxin|
smokeauth2-tst|RUNNING|scavenger|2023-05-09T00:51:37|Unknown|36-13:34:49|dcc-wychem-01|1|1|2G||/hpc/home/smokeauth2-tst|
pz19|COMPLETED|scavenger|2023-05-15T23:21:42|2023-05-30T14:18:14|14-14:56:32|dcc-fergusonlab-01|1|16|32000M||/work/pz19/Dexter|
lh342|RUNNING|scavenger|2023-05-16T10:36:56|Unknown|29-03:49:30|dcc-carin-23|1|8|16G||/hpc/home/lh342/ondemand/data/sys/dashboard/batch_connect/sys/bc_desktop/dcc/output/594ab9c6-93bc-4698-ac53-905dbde8eef7|
ew198|COMPLETED|scavenger|2023-05-17T15:01:57|2023-05-30T13:18:19|12-22:16:22|dcc-youlab-01|1|1|125G||/cifs/hariri-long/Projects/Annchen/Scripts/ArealMSHBM|
ew198|COMPLETED|scavenger|2023-05-17T15:01:57|2023-05-30T13:18:47|12-22:16:50|dcc-wychem-01|1|1|16000M||/cifs/hariri-long/Projects/Annchen/Scripts/ArealMSHBM|
ew198|COMPLETED|scavenger|2023-05-17T15:01:57|2023-05-30T13:18:47|12-22:16:50|dcc-wychem-01|1|1|16000M||/cifs/hariri-long/Projects/Annchen/Scripts/ArealMSHBM|
ew198|COMPLETED|scavenger|2023-05-17T15:01:57|2023-05-30T13:18:47|12-22:16:50|dcc-wychem-01|1|1|16000M||/cifs/hariri-long/Projects/Annchen/Scripts/ArealMSHBM|
ew198|COMPLETED|scavenger|2023-05-17T15:01:57|2023-05-30T13:18:47|12-22:16:50|dcc-wychem-01|1|1|16000M||/cifs/hariri-long/Projects/Annchen/Scripts/ArealMSHBM|
ew198|COMPLETED|scavenger|2023-05-17T15:01:57|2023-05-30T13:18:47|12-22:16:50|dcc-wychem-01|1|1|16000M||/cifs/hariri-long/Projects/Annchen/Scripts/ArealMSHBM|
ew198|COMPLETED|scavenger|2023-05-17T15:01:57|2023-05-30T13:18:47|12-22:16:50|dcc-wychem-01|1|1|16000M||/cifs/hariri-long/Projects/Annchen/Scripts/ArealMSHBM|
ew198|COMPLETED|scavenger|2023-05-17T15:01:57|2023-05-30T13:18:47|12-22:16:50|dcc-wychem-01|1|1|16000M||/cifs/hariri-long/Projects/Annchen/Scripts/ArealMSHBM|
ew198|COMPLETED|scavenger|2023-05-17T15:01:57|2023-05-30T13:18:47|12-22:16:50|dcc-wychem-01|1|1|16000M||/cifs/hariri-long/Projects/Annchen/Scripts/ArealMSHBM|
ew198|COMPLETED|scavenger|2023-05-17T15:01:57|2023-05-30T13:18:47|12-22:16:50|dcc-wychem-01|1|1|16000M||/cifs/hariri-long/Projects/Annchen/Scripts/ArealMSHBM|
ew198|NODE_FAIL|scavenger|2023-05-17T15:01:57|2023-05-29T17:29:37|12-02:27:40|dcc-tunglab-02|1|1|16000M||/cifs/hariri-long/Projects/Annchen/Scripts/ArealMSHBM|
ew198|NODE_FAIL|scavenger|2023-05-17T15:01:57|2023-05-29T17:29:37|12-02:27:40|dcc-tunglab-02|1|1|16000M||/cifs/hariri-long/Projects/Annchen/Scripts/ArealMSHBM|
ew198|NODE_FAIL|scavenger|2023-05-17T15:01:57|2023-05-29T17:29:37|12-02:27:40|dcc-tunglab-02|1|1|16000M||/cifs/hariri-long/Projects/Annchen/Scripts/ArealMSHBM|
ew198|NODE_FAIL|scavenger|2023-05-17T15:01:57|2023-05-29T17:29:37|12-02:27:40|dcc-tunglab-02|1|1|16000M||/cifs/hariri-long/Projects/Annchen/Scripts/ArealMSHBM|
ew198|NODE_FAIL|scavenger|2023-05-17T15:01:58|2023-05-29T17:29:37|12-02:27:39|dcc-tunglab-02|1|1|16000M||/cifs/hariri-long/Projects/Annchen/Scripts/ArealMSHBM|
ew198|NODE_FAIL|scavenger|2023-05-17T15:01:58|2023-05-29T17:29:37|12-02:27:39|dcc-tunglab-02|1|1|16000M||/cifs/hariri-long/Projects/Annchen/Scripts/ArealMSHBM|
ew198|NODE_FAIL|scavenger|2023-05-17T15:01:58|2023-05-29T17:29:37|12-02:27:39|dcc-tunglab-02|1|1|125G||/cifs/hariri-long/Projects/Annchen/Scripts/ArealMSHBM|
ew198|NODE_FAIL|scavenger|2023-05-17T15:01:58|2023-05-29T17:29:37|12-02:27:39|dcc-tunglab-02|1|1|16000M||/cifs/hariri-long/Projects/Annchen/Scripts/ArealMSHBM|
ew198|NODE_FAIL|scavenger|2023-05-17T15:01:58|2023-05-29T17:29:37|12-02:27:39|dcc-tunglab-02|1|1|16000M||/cifs/hariri-long/Projects/Annchen/Scripts/ArealMSHBM|
ew198|NODE_FAIL|scavenger|2023-05-17T15:01:58|2023-05-29T17:29:37|12-02:27:39|dcc-tunglab-02|1|1|16000M||/cifs/hariri-long/Projects/Annchen/Scripts/ArealMSHBM|
ew198|NODE_FAIL|scavenger|2023-05-17T15:01:58|2023-05-29T17:29:37|12-02:27:39|dcc-tunglab-02|1|1|16000M||/cifs/hariri-long/Projects/Annchen/Scripts/ArealMSHBM|
ew198|NODE_FAIL|scavenger|2023-05-17T15:01:58|2023-05-29T17:29:37|12-02:27:39|dcc-tunglab-02|1|1|16000M||/cifs/hariri-long/Projects/Annchen/Scripts/ArealMSHBM|
ew198|COMPLETED|scavenger|2023-05-17T15:01:58|2023-05-30T13:18:33|12-22:16:35|dcc-tunglab-01|1|1|16000M||/cifs/hariri-long/Projects/Annchen/Scripts/ArealMSHBM|
ew198|PREEMPTED|scavenger|2023-05-17T15:01:58|2023-05-31T16:16:08|14-01:14:10|dcc-tunglab-01|1|1|16000M||/cifs/hariri-long/Projects/Annchen/Scripts/ArealMSHBM|
ew198|COMPLETED|scavenger|2023-05-17T15:01:58|2023-05-30T13:18:33|12-22:16:35|dcc-tunglab-01|1|1|16000M||/cifs/hariri-long/Projects/Annchen/Scripts/ArealMSHBM|
ew198|PREEMPTED|scavenger|2023-05-17T15:01:58|2023-05-31T16:35:14|14-01:33:16|dcc-tunglab-01|1|1|16000M||/cifs/hariri-long/Projects/Annchen/Scripts/ArealMSHBM|
ew198|COMPLETED|scavenger|2023-05-17T15:01:58|2023-05-30T13:18:33|12-22:16:35|dcc-tunglab-01|1|1|16000M||/cifs/hariri-long/Projects/Annchen/Scripts/ArealMSHBM|
ew198|PREEMPTED|scavenger|2023-05-17T15:01:58|2023-05-31T16:35:18|14-01:33:20|dcc-tunglab-01|1|1|16000M||/cifs/hariri-long/Projects/Annchen/Scripts/ArealMSHBM|
ew198|COMPLETED|scavenger|2023-05-17T15:01:58|2023-05-30T13:18:33|12-22:16:35|dcc-tunglab-01|1|1|16000M||/cifs/hariri-long/Projects/Annchen/Scripts/ArealMSHBM|
ew198|PREEMPTED|scavenger|2023-05-17T15:01:58|2023-05-31T16:35:25|14-01:33:27|dcc-tunglab-01|1|1|16000M||/cifs/hariri-long/Projects/Annchen/Scripts/ArealMSHBM|
ew198|COMPLETED|scavenger|2023-05-17T15:01:59|2023-05-30T13:18:33|12-22:16:34|dcc-tunglab-01|1|1|16000M||/cifs/hariri-long/Projects/Annchen/Scripts/ArealMSHBM|
ew198|PREEMPTED|scavenger|2023-05-17T15:01:59|2023-05-31T16:35:32|14-01:33:33|dcc-tunglab-01|1|1|16000M||/cifs/hariri-long/Projects/Annchen/Scripts/ArealMSHBM|
ew198|COMPLETED|scavenger|2023-05-17T15:01:59|2023-05-30T13:18:47|12-22:16:48|dcc-tmolab-02|1|1|16000M||/cifs/hariri-long/Projects/Annchen/Scripts/ArealMSHBM|
ew198|CANCELLED by 1455533|scavenger|2023-05-17T15:01:59|2023-06-02T11:18:52|15-20:16:53|dcc-tmolab-02|1|1|16000M||/cifs/hariri-long/Projects/Annchen/Scripts/ArealMSHBM|
ew198|COMPLETED|scavenger|2023-05-17T15:01:59|2023-05-30T13:18:47|12-22:16:48|dcc-tmolab-02|1|1|16000M||/cifs/hariri-long/Projects/Annchen/Scripts/ArealMSHBM|
ew198|CANCELLED by 1455533|scavenger|2023-05-17T15:01:59|2023-06-02T11:18:52|15-20:16:53|dcc-tmolab-02|1|1|16000M||/cifs/hariri-long/Projects/Annchen/Scripts/ArealMSHBM|
ew198|COMPLETED|scavenger|2023-05-17T15:01:59|2023-05-30T13:18:47|12-22:16:48|dcc-tmolab-02|1|1|16000M||/cifs/hariri-long/Projects/Annchen/Scripts/ArealMSHBM|
ew198|CANCELLED by 1455533|scavenger|2023-05-17T15:01:59|2023-06-02T11:18:52|15-20:16:53|dcc-tmolab-02|1|1|16000M||/cifs/hariri-long/Projects/Annchen/Scripts/ArealMSHBM|
ew198|COMPLETED|scavenger|2023-05-17T15:01:59|2023-05-30T13:18:47|12-22:16:48|dcc-tmolab-02|1|1|16000M||/cifs/hariri-long/Projects/Annchen/Scripts/ArealMSHBM|
ew198|CANCELLED by 1455533|scavenger|2023-05-17T15:01:59|2023-06-02T11:18:52|15-20:16:53|dcc-tmolab-02|1|1|16000M||/cifs/hariri-long/Projects/Annchen/Scripts/ArealMSHBM|
ew198|COMPLETED|scavenger|2023-05-17T15:01:59|2023-05-30T13:18:44|12-22:16:45|dcc-tmolab-01|1|1|16000M||/cifs/hariri-long/Projects/Annchen/Scripts/ArealMSHBM|
ew198|CANCELLED by 1455533|scavenger|2023-05-17T15:01:59|2023-06-02T11:18:52|15-20:16:53|dcc-tmolab-01|1|1|16000M||/cifs/hariri-long/Projects/Annchen/Scripts/ArealMSHBM|
ew198|COMPLETED|scavenger|2023-05-17T15:01:59|2023-05-30T13:18:44|12-22:16:45|dcc-tmolab-01|1|1|16000M||/cifs/hariri-long/Projects/Annchen/Scripts/ArealMSHBM|
ew198|CANCELLED by 1455533|scavenger|2023-05-17T15:01:59|2023-06-02T11:18:52|15-20:16:53|dcc-tmolab-01|1|1|16000M||/cifs/hariri-long/Projects/Annchen/Scripts/ArealMSHBM|
ew198|COMPLETED|scavenger|2023-05-17T15:01:59|2023-05-30T13:18:44|12-22:16:45|dcc-tmolab-01|1|1|16000M||/cifs/hariri-long/Projects/Annchen/Scripts/ArealMSHBM|
ew198|CANCELLED by 1455533|scavenger|2023-05-17T15:01:59|2023-06-02T11:18:52|15-20:16:53|dcc-tmolab-01|1|1|16000M||/cifs/hariri-long/Projects/Annchen/Scripts/ArealMSHBM|
ew198|CANCELLED by 1455533|scavenger|2023-05-17T15:01:59|2023-06-02T11:18:52|15-20:16:53|dcc-tmolab-01|1|1|16000M||/cifs/hariri-long/Projects/Annchen/Scripts/ArealMSHBM|
ew198|PREEMPTED|scavenger|2023-05-17T15:01:59|2023-05-27T14:07:00|9-23:05:01|dcc-statdept-01|1|1|16000M||/cifs/hariri-long/Projects/Annchen/Scripts/ArealMSHBM|
ew198|PREEMPTED|scavenger|2023-05-17T15:01:59|2023-05-27T14:07:00|9-23:05:01|dcc-statdept-01|1|1|16000M||/cifs/hariri-long/Projects/Annchen/Scripts/ArealMSHBM|
ew198|PREEMPTED|scavenger|2023-05-17T15:01:59|2023-05-27T14:07:00|9-23:05:01|dcc-statdept-01|1|1|16000M||/cifs/hariri-long/Projects/Annchen/Scripts/ArealMSHBM|
ew198|PREEMPTED|scavenger|2023-05-17T15:01:59|2023-05-27T14:07:00|9-23:05:01|dcc-statdept-01|1|1|16000M||/cifs/hariri-long/Projects/Annchen/Scripts/ArealMSHBM|
ew198|PREEMPTED|scavenger|2023-05-17T15:01:59|2023-05-27T14:07:00|9-23:05:01|dcc-statdept-01|1|1|16000M||/cifs/hariri-long/Projects/Annchen/Scripts/ArealMSHBM|
ew198|PREEMPTED|scavenger|2023-05-17T15:01:59|2023-05-27T14:07:00|9-23:05:01|dcc-statdept-01|1|1|16000M||/cifs/hariri-long/Projects/Annchen/Scripts/ArealMSHBM|
ew198|PREEMPTED|scavenger|2023-05-17T15:01:59|2023-05-27T14:07:00|9-23:05:01|dcc-statdept-01|1|1|16000M||/cifs/hariri-long/Projects/Annchen/Scripts/ArealMSHBM|
ew198|PREEMPTED|scavenger|2023-05-17T15:01:59|2023-05-27T14:07:00|9-23:05:01|dcc-statdept-01|1|1|16000M||/cifs/hariri-long/Projects/Annchen/Scripts/ArealMSHBM|
ew198|PREEMPTED|scavenger|2023-05-17T15:02:00|2023-05-27T14:07:00|9-23:05:00|dcc-statdept-01|1|1|16000M||/cifs/hariri-long/Projects/Annchen/Scripts/ArealMSHBM|
ew198|COMPLETED|scavenger|2023-05-17T15:02:00|2023-05-30T13:19:00|12-22:17:00|dcc-statdept-01|1|1|16000M||/cifs/hariri-long/Projects/Annchen/Scripts/ArealMSHBM|
ew198|CANCELLED by 1455533|scavenger|2023-05-17T15:02:00|2023-06-02T11:18:52|15-20:16:52|dcc-statdept-01|1|1|16000M||/cifs/hariri-long/Projects/Annchen/Scripts/ArealMSHBM|
ew198|COMPLETED|scavenger|2023-05-17T15:02:30|2023-05-30T13:19:00|12-22:16:30|dcc-statdept-01|1|1|16000M||/cifs/hariri-long/Projects/Annchen/Scripts/ArealMSHBM|
ew198|CANCELLED by 1455533|scavenger|2023-05-17T15:02:30|2023-06-02T11:18:52|15-20:16:22|dcc-savageresearch-02|1|1|16000M||/cifs/hariri-long/Projects/Annchen/Scripts/ArealMSHBM|
ew198|COMPLETED|scavenger|2023-05-17T15:02:30|2023-05-30T13:18:35|12-22:16:05|dcc-savageresearch-02|1|1|16000M||/cifs/hariri-long/Projects/Annchen/Scripts/ArealMSHBM|
ew198|COMPLETED|scavenger|2023-05-17T15:02:30|2023-05-30T13:18:35|12-22:16:05|dcc-savageresearch-02|1|1|16000M||/cifs/hariri-long/Projects/Annchen/Scripts/ArealMSHBM|
ew198|CANCELLED by 1455533|scavenger|2023-05-17T15:02:30|2023-06-02T11:18:52|15-20:16:22|dcc-savageresearch-02|1|1|16000M||/cifs/hariri-long/Projects/Annchen/Scripts/ArealMSHBM|
ew198|CANCELLED by 1455533|scavenger|2023-05-17T15:02:30|2023-06-02T11:18:52|15-20:16:22|dcc-savageresearch-02|1|1|16000M||/cifs/hariri-long/Projects/Annchen/Scripts/ArealMSHBM|
ew198|COMPLETED|scavenger|2023-05-17T15:02:30|2023-05-30T13:18:35|12-22:16:05|dcc-savageresearch-02|1|1|16000M||/cifs/hariri-long/Projects/Annchen/Scripts/ArealMSHBM|
ew198|COMPLETED|scavenger|2023-05-17T15:02:31|2023-05-30T13:18:35|12-22:16:04|dcc-savageresearch-02|1|1|16000M||/cifs/hariri-long/Projects/Annchen/Scripts/ArealMSHBM|
ew198|CANCELLED by 1455533|scavenger|2023-05-17T15:02:31|2023-06-02T11:18:52|15-20:16:21|dcc-savageresearch-02|1|1|16000M||/cifs/hariri-long/Projects/Annchen/Scripts/ArealMSHBM|
ew198|COMPLETED|scavenger|2023-05-17T15:02:31|2023-05-30T13:18:35|12-22:16:04|dcc-savageresearch-02|1|1|16000M||/cifs/hariri-long/Projects/Annchen/Scripts/ArealMSHBM|
ew198|CANCELLED by 1455533|scavenger|2023-05-17T15:02:31|2023-06-02T11:18:52|15-20:16:21|dcc-savageresearch-02|1|1|16000M||/cifs/hariri-long/Projects/Annchen/Scripts/ArealMSHBM|
ew198|CANCELLED by 1455533|scavenger|2023-05-17T15:02:31|2023-06-02T11:18:52|15-20:16:21|dcc-savageresearch-02|1|1|16000M||/cifs/hariri-long/Projects/Annchen/Scripts/ArealMSHBM|
ew198|COMPLETED|scavenger|2023-05-17T15:02:31|2023-05-30T13:18:35|12-22:16:04|dcc-savageresearch-02|1|1|16000M||/cifs/hariri-long/Projects/Annchen/Scripts/ArealMSHBM|
ew198|COMPLETED|scavenger|2023-05-17T15:02:31|2023-05-30T13:18:35|12-22:16:04|dcc-savageresearch-01|1|1|16000M||/cifs/hariri-long/Projects/Annchen/Scripts/ArealMSHBM|
ew198|CANCELLED by 1455533|scavenger|2023-05-17T15:02:31|2023-06-02T11:18:52|15-20:16:21|dcc-savageresearch-01|1|1|16000M||/cifs/hariri-long/Projects/Annchen/Scripts/ArealMSHBM|
ew198|CANCELLED by 1455533|scavenger|2023-05-17T15:02:31|2023-06-02T11:18:52|15-20:16:21|dcc-savageresearch-01|1|1|16000M||/cifs/hariri-long/Projects/Annchen/Scripts/ArealMSHBM|
ew198|COMPLETED|scavenger|2023-05-17T15:02:31|2023-05-30T13:18:35|12-22:16:04|dcc-savageresearch-01|1|1|16000M||/cifs/hariri-long/Projects/Annchen/Scripts/ArealMSHBM|
ew198|CANCELLED by 1455533|scavenger|2023-05-17T15:02:31|2023-06-02T11:18:52|15-20:16:21|dcc-savageresearch-01|1|1|16000M||/cifs/hariri-long/Projects/Annchen/Scripts/ArealMSHBM|
ew198|COMPLETED|scavenger|2023-05-17T15:02:31|2023-05-30T13:18:35|12-22:16:04|dcc-savageresearch-01|1|1|16000M||/cifs/hariri-long/Projects/Annchen/Scripts/ArealMSHBM|
ew198|CANCELLED by 1455533|scavenger|2023-05-17T15:02:31|2023-06-02T11:18:52|15-20:16:21|dcc-rausherlab-02|1|1|16000M||/cifs/hariri-long/Projects/Annchen/Scripts/ArealMSHBM|
ew198|COMPLETED|scavenger|2023-05-17T15:02:31|2023-05-30T13:18:52|12-22:16:21|dcc-rausherlab-02|1|1|16000M||/cifs/hariri-long/Projects/Annchen/Scripts/ArealMSHBM|
ew198|CANCELLED by 1455533|scavenger|2023-05-17T15:02:31|2023-06-02T11:18:52|15-20:16:21|dcc-rausherlab-01|1|1|16000M||/cifs/hariri-long/Projects/Annchen/Scripts/ArealMSHBM|
ew198|COMPLETED|scavenger|2023-05-17T15:02:31|2023-05-30T13:18:42|12-22:16:11|dcc-rausherlab-01|1|1|16000M||/cifs/hariri-long/Projects/Annchen/Scripts/ArealMSHBM|
ew198|CANCELLED by 1455533|scavenger|2023-05-17T15:02:31|2023-06-02T11:18:52|15-20:16:21|dcc-rausherlab-01|1|1|16000M||/cifs/hariri-long/Projects/Annchen/Scripts/ArealMSHBM|
ew198|COMPLETED|scavenger|2023-05-17T15:02:32|2023-05-30T13:18:42|12-22:16:10|dcc-rausherlab-01|1|1|16000M||/cifs/hariri-long/Projects/Annchen/Scripts/ArealMSHBM|
ew198|CANCELLED by 1455533|scavenger|2023-05-17T15:02:32|2023-06-02T11:18:52|15-20:16:20|dcc-rausherlab-01|1|1|16000M||/cifs/hariri-long/Projects/Annchen/Scripts/ArealMSHBM|
ew198|COMPLETED|scavenger|2023-05-17T15:02:32|2023-05-30T13:18:44|12-22:16:12|dcc-rausherlab-01|1|1|16000M||/cifs/hariri-long/Projects/Annchen/Scripts/ArealMSHBM|
ew198|CANCELLED by 1455533|scavenger|2023-05-17T15:02:32|2023-06-02T11:18:52|15-20:16:20|dcc-rausherlab-01|1|1|16000M||/cifs/hariri-long/Projects/Annchen/Scripts/ArealMSHBM|
ew198|COMPLETED|scavenger|2023-05-17T15:02:32|2023-05-30T13:18:44|12-22:16:12|dcc-rausherlab-01|1|1|16000M||/cifs/hariri-long/Projects/Annchen/Scripts/ArealMSHBM|
ew198|CANCELLED by 1455533|scavenger|2023-05-17T15:02:32|2023-06-02T11:18:52|15-20:16:20|dcc-pfister-01|1|1|16000M||/cifs/hariri-long/Projects/Annchen/Scripts/ArealMSHBM|
ew198|CANCELLED by 1455533|scavenger|2023-05-17T15:02:32|2023-06-02T11:18:52|15-20:16:20|dcc-pfister-01|1|1|16000M||/cifs/hariri-long/Projects/Annchen/Scripts/ArealMSHBM|
ew198|CANCELLED by 1455533|scavenger|2023-05-17T15:02:32|2023-06-02T11:18:52|15-20:16:20|dcc-pfister-01|1|1|16000M||/cifs/hariri-long/Projects/Annchen/Scripts/ArealMSHBM|
ew198|CANCELLED by 1455533|scavenger|2023-05-17T15:02:32|2023-06-02T11:18:52|15-20:16:20|dcc-pfister-01|1|1|16000M||/cifs/hariri-long/Projects/Annchen/Scripts/ArealMSHBM|
ew198|CANCELLED by 1455533|scavenger|2023-05-17T15:02:32|2023-06-02T11:18:52|15-20:16:20|dcc-pfister-01|1|1|16000M||/cifs/hariri-long/Projects/Annchen/Scripts/ArealMSHBM|
ew198|CANCELLED by 1455533|scavenger|2023-05-17T15:02:32|2023-06-02T11:18:52|15-20:16:20|dcc-pfister-01|1|1|16000M||/cifs/hariri-long/Projects/Annchen/Scripts/ArealMSHBM|
ew198|CANCELLED by 1455533|scavenger|2023-05-17T15:02:32|2023-06-02T11:18:52|15-20:16:20|dcc-pfister-01|1|1|16000M||/cifs/hariri-long/Projects/Annchen/Scripts/ArealMSHBM|
ew198|CANCELLED by 1455533|scavenger|2023-05-17T15:02:32|2023-06-02T11:18:52|15-20:16:20|dcc-pfister-01|1|1|16000M||/cifs/hariri-long/Projects/Annchen/Scripts/ArealMSHBM|
ew198|CANCELLED by 1455533|scavenger|2023-05-17T15:02:32|2023-06-02T11:18:52|15-20:16:20|dcc-pfister-01|1|1|16000M||/cifs/hariri-long/Projects/Annchen/Scripts/ArealMSHBM|
ew198|CANCELLED by 1455533|scavenger|2023-05-17T15:02:32|2023-06-02T11:18:52|15-20:16:20|dcc-pfister-01|1|1|16000M||/cifs/hariri-long/Projects/Annchen/Scripts/ArealMSHBM|
ew198|CANCELLED by 1455533|scavenger|2023-05-17T15:02:32|2023-06-02T11:18:52|15-20:16:20|dcc-pfister-01|1|1|16000M||/cifs/hariri-long/Projects/Annchen/Scripts/ArealMSHBM|
ew198|CANCELLED by 1455533|scavenger|2023-05-17T15:02:32|2023-06-02T11:18:52|15-20:16:20|dcc-pfister-01|1|1|16000M||/cifs/hariri-long/Projects/Annchen/Scripts/ArealMSHBM|
ew198|CANCELLED by 1455533|scavenger|2023-05-17T15:02:32|2023-06-02T11:18:52|15-20:16:20|dcc-pfister-01|1|1|16000M||/cifs/hariri-long/Projects/Annchen/Scripts/ArealMSHBM|
pz19|TIMEOUT|scavenger|2023-05-19T15:41:44|2023-05-30T05:41:54|10-14:00:10|dcc-adrc-01|1|16|25408M||/work/pz19/Wang/Copper/Silicon/TS_06_3Lig/M06L|
pz19|TIMEOUT|scavenger|2023-05-19T15:57:29|2023-05-30T05:57:54|10-14:00:25|dcc-adrc-01|1|16|25408M||/work/pz19/Wang/Copper/Silicon/TS_06_3Lig/MN15|
pz19|CANCELLED by 1050403|scavenger|2023-05-21T11:48:01|2023-05-30T10:18:10|8-22:30:09|dcc-compeb-01|1|16|25408M||/work/pz19/Wang/Copper/Silicon/TS_06_3LigOAc/B3LYP|
pz19|TIMEOUT|scavenger|2023-05-21T11:52:32|2023-06-01T01:52:58|10-14:00:26|dcc-adrc-01|1|16|25408M||/work/pz19/Wang/Copper/Silicon/TS_06_3LigOAc/B3LYP|
sw582|COMPLETED|scavenger|2023-05-22T00:48:28|2023-05-30T12:48:46|8-12:00:18|dcc-youlab-01|1|1|2G||/hpc/group/dbergerlab/sw582/empty_dir|
cjp47|RUNNING|scavenger|2023-05-22T09:27:11|Unknown|23-04:59:15|dcc-tmolab-01|1|1|64G||/hpc/group/bio1/cyanolichen_holobiome|
cjp47|PREEMPTED|scavenger|2023-05-22T09:27:11|2023-05-27T13:59:21|5-04:32:10|dcc-statdept-01|1|1|64G||/hpc/group/bio1/cyanolichen_holobiome|
cjp47|PREEMPTED|scavenger|2023-05-22T09:27:11|2023-05-27T13:59:21|5-04:32:10|dcc-statdept-01|1|1|64G||/hpc/group/bio1/cyanolichen_holobiome|
cjp47|PREEMPTED|scavenger|2023-05-22T09:27:11|2023-05-27T13:59:21|5-04:32:10|dcc-statdept-01|1|1|64G||/hpc/group/bio1/cyanolichen_holobiome|
cjp47|PREEMPTED|scavenger|2023-05-22T09:27:12|2023-05-27T13:59:21|5-04:32:09|dcc-statdept-01|1|1|64G||/hpc/group/bio1/cyanolichen_holobiome|
cjp47|PREEMPTED|scavenger|2023-05-22T09:27:12|2023-05-27T13:59:21|5-04:32:09|dcc-statdept-01|1|1|64G||/hpc/group/bio1/cyanolichen_holobiome|
hk288|OUT_OF_MEMORY|scavenger|2023-05-23T06:28:20|2023-06-01T05:31:10|8-23:02:50|dcc-bragg-03|1|40|80G||/hpc/group/mastatlab/hk288/code_hp_paral|
hk288|COMPLETED|scavenger|2023-05-23T06:28:20|2023-05-29T02:59:32|5-20:31:12|dcc-compeb-04|1|40|80G||/hpc/group/mastatlab/hk288/code_hp_paral|
hk288|OUT_OF_MEMORY|scavenger|2023-05-23T06:28:20|2023-06-01T15:42:06|9-09:13:46|dcc-donglab-01|1|40|80G||/hpc/group/mastatlab/hk288/code_hp_paral|
ark19|COMPLETED|scavenger|2023-05-23T12:53:21|2023-05-27T15:19:27|4-02:26:06|dcc-pfister-01|1|1|125G||/cifs/hariri-long/Studies/DNS/Imaging/pipeline1.0/DTI/FSL/20100125_10274/FA_averaged|
ark19|CANCELLED by 1027614|scavenger|2023-05-23T12:53:21|2023-05-27T16:31:54|4-03:38:33|dcc-tunglab-01|1|1|16000M||/cifs/hariri-long/Studies/DNS/Imaging/pipeline1.0/DTI/FSL/20100125_10274/FA_averaged|
ark19|CANCELLED by 1027614|scavenger|2023-05-23T12:53:21|2023-05-27T16:31:54|4-03:38:33|dcc-tunglab-01|1|1|16000M||/cifs/hariri-long/Studies/DNS/Imaging/pipeline1.0/DTI/FSL/20100125_10274/FA_averaged|
ark19|CANCELLED by 1027614|scavenger|2023-05-23T12:53:21|2023-05-27T16:31:54|4-03:38:33|dcc-tunglab-01|1|1|16000M||/cifs/hariri-long/Studies/DNS/Imaging/pipeline1.0/DTI/FSL/20100125_10274/FA_averaged|
ark19|CANCELLED by 1027614|scavenger|2023-05-23T12:53:21|2023-05-27T16:31:54|4-03:38:33|dcc-tunglab-01|1|1|16000M||/cifs/hariri-long/Studies/DNS/Imaging/pipeline1.0/DTI/FSL/20100125_10274/FA_averaged|
ark19|CANCELLED by 1027614|scavenger|2023-05-23T12:53:21|2023-05-27T16:31:54|4-03:38:33|dcc-tunglab-01|1|1|16000M||/cifs/hariri-long/Studies/DNS/Imaging/pipeline1.0/DTI/FSL/20100125_10274/FA_averaged|
ark19|CANCELLED by 1027614|scavenger|2023-05-23T12:53:21|2023-05-27T16:31:54|4-03:38:33|dcc-tunglab-01|1|1|16000M||/cifs/hariri-long/Studies/DNS/Imaging/pipeline1.0/DTI/FSL/20100125_10274/FA_averaged|
ark19|CANCELLED by 1027614|scavenger|2023-05-23T12:53:21|2023-05-27T16:31:54|4-03:38:33|dcc-tmolab-02|1|1|16000M||/cifs/hariri-long/Studies/DNS/Imaging/pipeline1.0/DTI/FSL/20100125_10274/FA_averaged|
ark19|CANCELLED by 1027614|scavenger|2023-05-23T12:53:21|2023-05-27T16:31:54|4-03:38:33|dcc-tmolab-02|1|1|16000M||/cifs/hariri-long/Studies/DNS/Imaging/pipeline1.0/DTI/FSL/20100125_10274/FA_averaged|
ark19|CANCELLED by 1027614|scavenger|2023-05-23T12:53:21|2023-05-27T16:31:54|4-03:38:33|dcc-tmolab-02|1|1|16000M||/cifs/hariri-long/Studies/DNS/Imaging/pipeline1.0/DTI/FSL/20100125_10274/FA_averaged|
ark19|CANCELLED by 1027614|scavenger|2023-05-23T12:53:21|2023-05-27T16:31:55|4-03:38:34|dcc-tmolab-02|1|1|16000M||/cifs/hariri-long/Studies/DNS/Imaging/pipeline1.0/DTI/FSL/20100125_10274/FA_averaged|
ark19|CANCELLED by 1027614|scavenger|2023-05-23T12:53:21|2023-05-27T16:31:55|4-03:38:34|dcc-tmolab-02|1|1|16000M||/cifs/hariri-long/Studies/DNS/Imaging/pipeline1.0/DTI/FSL/20100125_10274/FA_averaged|
ark19|CANCELLED by 1027614|scavenger|2023-05-23T12:53:21|2023-05-27T16:31:55|4-03:38:34|dcc-tmolab-01|1|1|16000M||/cifs/hariri-long/Studies/DNS/Imaging/pipeline1.0/DTI/FSL/20100125_10274/FA_averaged|
ark19|CANCELLED by 1027614|scavenger|2023-05-23T12:53:21|2023-05-27T16:31:55|4-03:38:34|dcc-tmolab-01|1|1|16000M||/cifs/hariri-long/Studies/DNS/Imaging/pipeline1.0/DTI/FSL/20100125_10274/FA_averaged|
ark19|PREEMPTED|scavenger|2023-05-23T12:53:21|2023-05-27T13:59:21|4-01:06:00|dcc-statdept-01|1|1|16000M||/cifs/hariri-long/Studies/DNS/Imaging/pipeline1.0/DTI/FSL/20100125_10274/FA_averaged|
ark19|PREEMPTED|scavenger|2023-05-23T12:53:21|2023-05-27T14:05:22|4-01:12:01|dcc-statdept-01|1|1|16000M||/cifs/hariri-long/Studies/DNS/Imaging/pipeline1.0/DTI/FSL/20100125_10274/FA_averaged|
ark19|PREEMPTED|scavenger|2023-05-23T12:53:21|2023-05-27T14:05:22|4-01:12:01|dcc-statdept-01|1|1|16000M||/cifs/hariri-long/Studies/DNS/Imaging/pipeline1.0/DTI/FSL/20100125_10274/FA_averaged|
ark19|PREEMPTED|scavenger|2023-05-23T12:53:21|2023-05-27T14:05:22|4-01:12:01|dcc-statdept-01|1|1|16000M||/cifs/hariri-long/Studies/DNS/Imaging/pipeline1.0/DTI/FSL/20100125_10274/FA_averaged|
ark19|PREEMPTED|scavenger|2023-05-23T12:53:23|2023-05-27T14:05:22|4-01:11:59|dcc-statdept-01|1|1|16000M||/cifs/hariri-long/Studies/DNS/Imaging/pipeline1.0/DTI/FSL/20100125_10274/FA_averaged|
ark19|PREEMPTED|scavenger|2023-05-23T12:53:23|2023-05-27T14:05:22|4-01:11:59|dcc-statdept-01|1|1|16000M||/cifs/hariri-long/Studies/DNS/Imaging/pipeline1.0/DTI/FSL/20100125_10274/FA_averaged|
ark19|CANCELLED by 1027614|scavenger|2023-05-23T12:53:23|2023-05-27T16:31:51|4-03:38:28|dcc-savageresearch-02|1|1|16000M||/cifs/hariri-long/Studies/DNS/Imaging/pipeline1.0/DTI/FSL/20100125_10274/FA_averaged|
ark19|CANCELLED by 1027614|scavenger|2023-05-23T12:53:23|2023-05-27T16:31:51|4-03:38:28|dcc-savageresearch-01|1|1|16000M||/cifs/hariri-long/Studies/DNS/Imaging/pipeline1.0/DTI/FSL/20100125_10274/FA_averaged|
ark19|CANCELLED by 1027614|scavenger|2023-05-23T12:53:23|2023-05-27T16:31:51|4-03:38:28|dcc-savageresearch-01|1|1|16000M||/cifs/hariri-long/Studies/DNS/Imaging/pipeline1.0/DTI/FSL/20100125_10274/FA_averaged|
ark19|CANCELLED by 1027614|scavenger|2023-05-23T12:53:23|2023-05-27T16:31:51|4-03:38:28|dcc-savageresearch-01|1|1|16000M||/cifs/hariri-long/Studies/DNS/Imaging/pipeline1.0/DTI/FSL/20100125_10274/FA_averaged|
ark19|CANCELLED by 1027614|scavenger|2023-05-23T12:53:23|2023-05-27T16:31:51|4-03:38:28|dcc-savageresearch-01|1|1|16000M||/cifs/hariri-long/Studies/DNS/Imaging/pipeline1.0/DTI/FSL/20100125_10274/FA_averaged|
ark19|CANCELLED by 1027614|scavenger|2023-05-23T12:53:23|2023-05-27T16:31:52|4-03:38:29|dcc-savageresearch-01|1|1|16000M||/cifs/hariri-long/Studies/DNS/Imaging/pipeline1.0/DTI/FSL/20100125_10274/FA_averaged|
ark19|CANCELLED by 1027614|scavenger|2023-05-23T12:53:23|2023-05-27T16:31:52|4-03:38:29|dcc-savageresearch-01|1|1|16000M||/cifs/hariri-long/Studies/DNS/Imaging/pipeline1.0/DTI/FSL/20100125_10274/FA_averaged|
ark19|CANCELLED by 1027614|scavenger|2023-05-23T12:53:23|2023-05-27T16:31:52|4-03:38:29|dcc-savageresearch-01|1|1|16000M||/cifs/hariri-long/Studies/DNS/Imaging/pipeline1.0/DTI/FSL/20100125_10274/FA_averaged|
ark19|CANCELLED by 1027614|scavenger|2023-05-23T12:53:23|2023-05-27T16:31:52|4-03:38:29|dcc-pfister-01|1|1|16000M||/cifs/hariri-long/Studies/DNS/Imaging/pipeline1.0/DTI/FSL/20100125_10274/FA_averaged|
ark19|CANCELLED by 1027614|scavenger|2023-05-23T12:53:23|2023-05-27T16:31:52|4-03:38:29|dcc-pfister-01|1|1|16000M||/cifs/hariri-long/Studies/DNS/Imaging/pipeline1.0/DTI/FSL/20100125_10274/FA_averaged|
ark19|CANCELLED by 1027614|scavenger|2023-05-23T12:53:23|2023-05-27T16:31:52|4-03:38:29|dcc-pfister-01|1|1|16000M||/cifs/hariri-long/Studies/DNS/Imaging/pipeline1.0/DTI/FSL/20100125_10274/FA_averaged|
ark19|CANCELLED by 1027614|scavenger|2023-05-23T12:53:23|2023-05-27T16:31:52|4-03:38:29|dcc-pfister-01|1|1|16000M||/cifs/hariri-long/Studies/DNS/Imaging/pipeline1.0/DTI/FSL/20100125_10274/FA_averaged|
ark19|CANCELLED by 1027614|scavenger|2023-05-23T12:53:23|2023-05-27T16:31:53|4-03:38:30|dcc-pfister-01|1|1|16000M||/cifs/hariri-long/Studies/DNS/Imaging/pipeline1.0/DTI/FSL/20100125_10274/FA_averaged|
ark19|CANCELLED by 1027614|scavenger|2023-05-23T12:53:23|2023-05-27T16:31:53|4-03:38:30|dcc-pfister-01|1|1|16000M||/cifs/hariri-long/Studies/DNS/Imaging/pipeline1.0/DTI/FSL/20100125_10274/FA_averaged|
ark19|CANCELLED by 1027614|scavenger|2023-05-23T12:53:23|2023-05-27T16:31:53|4-03:38:30|dcc-pfister-01|1|1|16000M||/cifs/hariri-long/Studies/DNS/Imaging/pipeline1.0/DTI/FSL/20100125_10274/FA_averaged|
ark19|CANCELLED by 1027614|scavenger|2023-05-23T12:53:23|2023-05-27T16:31:54|4-03:38:31|dcc-pbenfeylab-02|1|1|16000M||/cifs/hariri-long/Studies/DNS/Imaging/pipeline1.0/DTI/FSL/20100125_10274/FA_averaged|
ark19|CANCELLED by 1027614|scavenger|2023-05-23T12:53:24|2023-05-27T16:31:50|4-03:38:26|dcc-pbenfeylab-02|1|1|16000M||/cifs/hariri-long/Studies/DNS/Imaging/pipeline1.0/DTI/FSL/20100125_10274/FA_averaged|
ark19|CANCELLED by 1027614|scavenger|2023-05-23T12:53:24|2023-05-27T16:31:50|4-03:38:26|dcc-pbenfeylab-02|1|1|16000M||/cifs/hariri-long/Studies/DNS/Imaging/pipeline1.0/DTI/FSL/20100125_10274/FA_averaged|
ark19|CANCELLED by 1027614|scavenger|2023-05-23T12:53:24|2023-05-27T16:31:51|4-03:38:27|dcc-pbenfeylab-02|1|1|16000M||/cifs/hariri-long/Studies/DNS/Imaging/pipeline1.0/DTI/FSL/20100125_10274/FA_averaged|
ark19|CANCELLED by 1027614|scavenger|2023-05-23T12:53:24|2023-05-27T16:31:51|4-03:38:27|dcc-pbenfeylab-02|1|1|16000M||/cifs/hariri-long/Studies/DNS/Imaging/pipeline1.0/DTI/FSL/20100125_10274/FA_averaged|
ark19|CANCELLED by 1027614|scavenger|2023-05-23T12:53:24|2023-05-27T16:31:51|4-03:38:27|dcc-pbenfeylab-02|1|1|16000M||/cifs/hariri-long/Studies/DNS/Imaging/pipeline1.0/DTI/FSL/20100125_10274/FA_averaged|
ark19|CANCELLED by 1027614|scavenger|2023-05-23T12:53:24|2023-05-27T16:31:51|4-03:38:27|dcc-pbenfeylab-02|1|1|16000M||/cifs/hariri-long/Studies/DNS/Imaging/pipeline1.0/DTI/FSL/20100125_10274/FA_averaged|
ark19|CANCELLED by 1027614|scavenger|2023-05-23T12:53:26|2023-05-27T16:31:48|4-03:38:22|dcc-pbenfeylab-02|1|1|16000M||/cifs/hariri-long/Studies/DNS/Imaging/pipeline1.0/DTI/FSL/20100125_10274/FA_averaged|
ark19|CANCELLED by 1027614|scavenger|2023-05-23T12:53:26|2023-05-27T16:31:48|4-03:38:22|dcc-pbenfeylab-02|1|1|16000M||/cifs/hariri-long/Studies/DNS/Imaging/pipeline1.0/DTI/FSL/20100125_10274/FA_averaged|
ark19|CANCELLED by 1027614|scavenger|2023-05-23T12:53:26|2023-05-27T16:31:49|4-03:38:23|dcc-pbenfeylab-02|1|1|16000M||/cifs/hariri-long/Studies/DNS/Imaging/pipeline1.0/DTI/FSL/20100125_10274/FA_averaged|
ark19|CANCELLED by 1027614|scavenger|2023-05-23T12:53:26|2023-05-27T16:31:49|4-03:38:23|dcc-pbenfeylab-02|1|1|16000M||/cifs/hariri-long/Studies/DNS/Imaging/pipeline1.0/DTI/FSL/20100125_10274/FA_averaged|
ark19|CANCELLED by 1027614|scavenger|2023-05-23T12:53:26|2023-05-27T16:31:49|4-03:38:23|dcc-pbenfeylab-02|1|1|16000M||/cifs/hariri-long/Studies/DNS/Imaging/pipeline1.0/DTI/FSL/20100125_10274/FA_averaged|
ark19|CANCELLED by 1027614|scavenger|2023-05-23T12:53:26|2023-05-27T16:31:49|4-03:38:23|dcc-pbenfeylab-02|1|1|16000M||/cifs/hariri-long/Studies/DNS/Imaging/pipeline1.0/DTI/FSL/20100125_10274/FA_averaged|
ark19|CANCELLED by 1027614|scavenger|2023-05-23T12:53:26|2023-05-27T16:31:49|4-03:38:23|dcc-pbenfeylab-02|1|1|16000M||/cifs/hariri-long/Studies/DNS/Imaging/pipeline1.0/DTI/FSL/20100125_10274/FA_averaged|
ark19|CANCELLED by 1027614|scavenger|2023-05-23T12:53:26|2023-05-27T16:31:49|4-03:38:23|dcc-pbenfeylab-02|1|1|16000M||/cifs/hariri-long/Studies/DNS/Imaging/pipeline1.0/DTI/FSL/20100125_10274/FA_averaged|
ark19|CANCELLED by 1027614|scavenger|2023-05-23T12:53:26|2023-05-27T16:31:49|4-03:38:23|dcc-pbenfeylab-02|1|1|16000M||/cifs/hariri-long/Studies/DNS/Imaging/pipeline1.0/DTI/FSL/20100125_10274/FA_averaged|
cjp47|PREEMPTED|scavenger|2023-05-23T17:11:03|2023-05-27T13:59:21|3-20:48:18|dcc-statdept-01|1|1|64G||/hpc/group/bio1/cyanolichen_holobiome|
ts349|FAILED|scavenger|2023-05-24T06:51:59|2023-05-31T13:27:41|7-06:35:42|dcc-bragg-04|1|30|72G||/work/ts349/stm2457_hicar/endoderm_RNA|
ts349|COMPLETED|scavenger|2023-05-24T06:56:22|2023-05-30T09:10:17|6-02:13:55|dcc-compeb-03|1|30|72G||/hpc/home/ts349|
hk288|CANCELLED by 1484570|scavenger|2023-05-24T09:25:01|2023-06-04T12:17:20|11-02:52:19|dcc-cagpm-01|1|40|200G||/hpc/group/mastatlab/hk288/code_hp_paral|
hk288|CANCELLED by 1484570|scavenger|2023-05-24T09:25:01|2023-06-04T12:17:20|11-02:52:19|dcc-nicolab-01|1|40|200G||/hpc/group/mastatlab/hk288/code_hp_paral|
hk288|PREEMPTED|scavenger|2023-05-24T09:25:01|2023-05-30T13:41:32|6-04:16:31|dcc-dunsonlab-01|1|40|200G||/hpc/group/mastatlab/hk288/code_hp_paral|
hk288|PREEMPTED|scavenger|2023-05-24T09:25:01|2023-05-30T13:41:28|6-04:16:27|dcc-dunsonlab-02|1|40|200G||/hpc/group/mastatlab/hk288/code_hp_paral|
pz19|CANCELLED by 1050403|scavenger|2023-05-24T11:02:46|2023-05-26T18:31:22|2-07:28:36|dcc-adrc-01|1|16|25408M||/work/pz19/Wang/Copper/Silicon/TS_06_3LigOAc/B3LYP|
pz19|TIMEOUT|scavenger|2023-05-24T15:03:18|2023-06-04T05:03:21|10-14:00:03|dcc-fergusonlab-04|1|16|25408M||/work/pz19/Wang/Copper/Silicon/TS_06_3LigOAc/MN15|
pz19|TIMEOUT|scavenger|2023-05-24T15:03:18|2023-06-04T05:03:21|10-14:00:03|dcc-fergusonlab-04|1|16|25408M||/work/pz19/Wang/Copper/Silicon/TS_06_3LigOAc/B3LYP|
pz19|CANCELLED by 1050403|scavenger|2023-05-24T15:03:18|2023-06-02T20:51:37|9-05:48:19|dcc-fergusonlab-05|1|16|25408M||/work/pz19/Wang/Copper/Silicon/TS_06_3Lig/MN15|
bc276|COMPLETED|scavenger|2023-05-24T17:04:45|2023-05-27T07:08:18|2-14:03:33|dcc-motesa-01|1|1|100G||/hpc/group/goldberg/bc276/phylogeny|
pz19|TIMEOUT|scavenger|2023-05-24T20:45:35|2023-06-04T10:45:59|10-14:00:24|dcc-bragg-01|1|16|25408M||/work/pz19/Wang/Copper/Silicon/TS_06_3LigOAc/MN15|
kdm65|FAILED|scavenger|2023-05-25T09:55:29|2023-05-26T22:38:04|1-12:42:35|dcc-rausherlab-02|1|1|32G||/work/kdm65/validation|
mea54|TIMEOUT|scavenger|2023-05-25T11:58:25|2023-05-29T11:58:47|4-00:00:22|dcc-fergusonlab-02|1|64|600G||/hpc/home/mea54/ondemand/data/sys/dashboard/batch_connect/sys/bc_microbiome_rstudio/output/4a6c0af0-0699-44f1-981c-f8fa4abf7ba5|
ts349|FAILED|scavenger|2023-05-25T13:47:14|2023-05-26T21:46:38|1-07:59:24|dcc-adrc-01|1|12|100G||/work/ts349/stm2457_hicar/work/0b/04ceb6acdf4c398cb8d2654da101f5|
ts349|FAILED|scavenger|2023-05-25T13:47:38|2023-05-26T21:46:38|1-07:59:00|dcc-bragg-01|1|12|100G||/work/ts349/stm2457_hicar/work/f5/1df1da2b0951d15d9ace893c1e8ff2|
jo117|FAILED|scavenger|2023-05-25T14:00:56|2023-05-26T22:00:04|1-07:59:08|dcc-mainsahlab-01|1|16|144G||/work/jo117/DiaoLab/hicar_v2/human/work/00/c56604fcf3e0abb29bd42e99292433|
ark19|CANCELLED by 1027614|scavenger|2023-05-25T14:31:37|2023-05-27T08:37:32|1-18:05:55|dcc-tunglab-02|1|1|24000M||/hpc/home/ark19|
ark19|CANCELLED by 1027614|scavenger|2023-05-25T14:31:37|2023-05-27T08:37:32|1-18:05:55|dcc-tunglab-02|1|1|24000M||/hpc/home/ark19|
ark19|CANCELLED by 1027614|scavenger|2023-05-25T14:31:37|2023-05-27T08:37:32|1-18:05:55|dcc-tunglab-02|1|1|24000M||/hpc/home/ark19|
ark19|CANCELLED by 1027614|scavenger|2023-05-25T14:31:37|2023-05-27T08:37:32|1-18:05:55|dcc-tunglab-02|1|1|24000M||/hpc/home/ark19|
ark19|CANCELLED by 1027614|scavenger|2023-05-25T14:31:37|2023-05-27T08:37:32|1-18:05:55|dcc-tunglab-02|1|1|24000M||/hpc/home/ark19|
ark19|CANCELLED by 1027614|scavenger|2023-05-25T14:31:37|2023-05-27T08:37:34|1-18:05:57|dcc-tunglab-02|1|1|24000M||/hpc/home/ark19|
ark19|COMPLETED|scavenger|2023-05-25T14:31:41|2023-05-26T19:32:47|1-05:01:06|dcc-pbenfeylab-01|1|1|24000M||/hpc/home/ark19|
ark19|COMPLETED|scavenger|2023-05-25T14:31:41|2023-05-26T19:35:58|1-05:04:17|dcc-pbenfeylab-01|1|1|24000M||/hpc/home/ark19|
ark19|COMPLETED|scavenger|2023-05-25T14:31:44|2023-05-26T19:30:54|1-04:59:10|dcc-pbenfeylab-01|1|1|24000M||/hpc/home/ark19|
ark19|COMPLETED|scavenger|2023-05-25T14:31:44|2023-05-26T19:20:10|1-04:48:26|dcc-pbenfeylab-01|1|1|24000M||/hpc/home/ark19|
ark19|COMPLETED|scavenger|2023-05-25T14:31:44|2023-05-26T18:48:35|1-04:16:51|dcc-pbenfeylab-01|1|1|24000M||/hpc/home/ark19|
ark19|COMPLETED|scavenger|2023-05-25T14:31:44|2023-05-26T17:36:02|1-03:04:18|dcc-pbenfeylab-01|1|1|24000M||/hpc/home/ark19|
ark19|COMPLETED|scavenger|2023-05-25T14:31:44|2023-05-26T17:34:11|1-03:02:27|dcc-pbenfeylab-01|1|1|24000M||/hpc/home/ark19|
ark19|COMPLETED|scavenger|2023-05-25T14:31:44|2023-05-26T17:23:27|1-02:51:43|dcc-pbenfeylab-01|1|1|24000M||/hpc/home/ark19|
ark19|COMPLETED|scavenger|2023-05-25T14:31:44|2023-05-26T17:33:55|1-03:02:11|dcc-pbenfeylab-01|1|1|24000M||/hpc/home/ark19|
ark19|COMPLETED|scavenger|2023-05-25T14:31:44|2023-05-26T17:27:42|1-02:55:58|dcc-pbenfeylab-01|1|1|24000M||/hpc/home/ark19|
ark19|COMPLETED|scavenger|2023-05-25T14:31:44|2023-05-26T18:29:53|1-03:58:09|dcc-pbenfeylab-01|1|1|24000M||/hpc/home/ark19|
ark19|COMPLETED|scavenger|2023-05-25T14:31:44|2023-05-26T18:57:27|1-04:25:43|dcc-pbenfeylab-01|1|1|24000M||/hpc/home/ark19|
ark19|COMPLETED|scavenger|2023-05-25T14:31:44|2023-05-26T18:54:04|1-04:22:20|dcc-pbenfeylab-01|1|1|24000M||/hpc/home/ark19|
ark19|COMPLETED|scavenger|2023-05-25T14:31:44|2023-05-26T19:11:20|1-04:39:36|dcc-pbenfeylab-01|1|1|24000M||/hpc/home/ark19|
ark19|COMPLETED|scavenger|2023-05-25T14:31:44|2023-05-26T18:57:12|1-04:25:28|dcc-pbenfeylab-01|1|1|24000M||/hpc/home/ark19|
ark19|COMPLETED|scavenger|2023-05-25T14:31:44|2023-05-26T19:37:35|1-05:05:51|dcc-pbenfeylab-01|1|1|24000M||/hpc/home/ark19|
ark19|COMPLETED|scavenger|2023-05-25T14:31:44|2023-05-26T19:41:43|1-05:09:59|dcc-pbenfeylab-01|1|1|24000M||/hpc/home/ark19|
ark19|COMPLETED|scavenger|2023-05-25T14:31:44|2023-05-26T19:43:48|1-05:12:04|dcc-pbenfeylab-01|1|1|24000M||/hpc/home/ark19|
ark19|COMPLETED|scavenger|2023-05-25T14:31:44|2023-05-26T19:29:25|1-04:57:41|dcc-pbenfeylab-01|1|1|24000M||/hpc/home/ark19|
ark19|COMPLETED|scavenger|2023-05-25T14:31:47|2023-05-26T16:04:38|1-01:32:51|dcc-noor-02|1|1|24000M||/hpc/home/ark19|
ark19|COMPLETED|scavenger|2023-05-25T14:31:47|2023-05-26T16:38:35|1-02:06:48|dcc-noor-02|1|1|24000M||/hpc/home/ark19|
ark19|COMPLETED|scavenger|2023-05-25T14:31:49|2023-05-26T16:06:50|1-01:35:01|dcc-noor-02|1|1|24000M||/hpc/home/ark19|
ark19|COMPLETED|scavenger|2023-05-25T14:31:49|2023-05-26T16:13:40|1-01:41:51|dcc-noor-02|1|1|24000M||/hpc/home/ark19|
ark19|COMPLETED|scavenger|2023-05-25T14:31:49|2023-05-26T18:02:06|1-03:30:17|dcc-noor-02|1|1|24000M||/hpc/home/ark19|
ark19|COMPLETED|scavenger|2023-05-25T14:31:49|2023-05-26T18:06:57|1-03:35:08|dcc-noor-02|1|1|24000M||/hpc/home/ark19|
ark19|COMPLETED|scavenger|2023-05-25T14:31:49|2023-05-26T17:59:57|1-03:28:08|dcc-noor-02|1|1|24000M||/hpc/home/ark19|
ark19|COMPLETED|scavenger|2023-05-25T20:41:12|2023-05-26T21:10:20|1-00:29:08|dcc-velmeshevlab-01|1|1|24000M||/hpc/home/ark19|
ark19|COMPLETED|scavenger|2023-05-25T20:41:44|2023-05-26T17:03:55|20:22:11|dcc-statdept-01|1|1|24000M||/hpc/home/ark19|
ark19|COMPLETED|scavenger|2023-05-25T20:42:37|2023-05-26T19:40:42|22:58:05|dcc-rausherlab-02|1|1|24000M||/hpc/home/ark19|
ark19|COMPLETED|scavenger|2023-05-25T20:45:51|2023-05-26T19:54:03|23:08:12|dcc-rausherlab-02|1|1|24000M||/hpc/home/ark19|
ark19|COMPLETED|scavenger|2023-05-25T20:58:01|2023-05-26T19:53:14|22:55:13|dcc-rausherlab-02|1|1|24000M||/hpc/home/ark19|
ark19|COMPLETED|scavenger|2023-05-25T21:02:43|2023-05-26T20:19:48|23:17:05|dcc-wychem-01|1|1|24000M||/hpc/home/ark19|
ark19|COMPLETED|scavenger|2023-05-25T21:02:50|2023-05-26T19:40:58|22:38:08|dcc-rausherlab-01|1|1|24000M||/hpc/home/ark19|
ark19|COMPLETED|scavenger|2023-05-25T21:13:22|2023-05-26T22:48:55|1-01:35:33|dcc-wychem-01|1|1|24000M||/hpc/home/ark19|
ark19|COMPLETED|scavenger|2023-05-25T21:13:49|2023-05-26T20:02:53|22:49:04|dcc-rausherlab-01|1|1|24000M||/hpc/home/ark19|
ark19|COMPLETED|scavenger|2023-05-25T21:15:49|2023-05-26T19:33:16|22:17:27|dcc-youlab-01|1|1|24000M||/hpc/home/ark19|
ark19|COMPLETED|scavenger|2023-05-25T21:18:46|2023-05-26T19:25:43|22:06:57|dcc-youlab-01|1|1|24000M||/hpc/home/ark19|
ark19|COMPLETED|scavenger|2023-05-25T21:24:02|2023-05-26T19:46:18|22:22:16|dcc-youlab-01|1|1|24000M||/hpc/home/ark19|
ark19|COMPLETED|scavenger|2023-05-25T21:26:11|2023-05-26T23:41:45|1-02:15:34|dcc-velmeshevlab-01|1|1|24000M||/hpc/home/ark19|
ark19|COMPLETED|scavenger|2023-05-25T21:28:29|2023-05-26T20:51:53|23:23:24|dcc-youlab-01|1|1|24000M||/hpc/home/ark19|
ark19|COMPLETED|scavenger|2023-05-25T21:28:57|2023-05-26T22:56:51|1-01:27:54|dcc-tunglab-01|1|1|24000M||/hpc/home/ark19|
ark19|COMPLETED|scavenger|2023-05-25T21:30:07|2023-05-26T22:24:18|1-00:54:11|dcc-rausherlab-02|1|1|24000M||/hpc/home/ark19|
ark19|COMPLETED|scavenger|2023-05-25T21:31:07|2023-05-26T23:27:27|1-01:56:20|dcc-velmeshevlab-01|1|1|24000M||/hpc/home/ark19|
ark19|COMPLETED|scavenger|2023-05-25T21:33:04|2023-05-26T19:25:36|21:52:32|dcc-youlab-01|1|1|24000M||/hpc/home/ark19|
ark19|COMPLETED|scavenger|2023-05-25T21:34:22|2023-05-26T20:57:26|23:23:04|dcc-rausherlab-02|1|1|24000M||/hpc/home/ark19|
ark19|COMPLETED|scavenger|2023-05-25T21:35:25|2023-05-26T21:33:49|23:58:24|dcc-tunglab-01|1|1|24000M||/hpc/home/ark19|
ark19|COMPLETED|scavenger|2023-05-25T21:36:54|2023-05-26T21:08:37|23:31:43|dcc-rausherlab-02|1|1|24000M||/hpc/home/ark19|
ark19|COMPLETED|scavenger|2023-05-25T21:41:37|2023-05-26T19:31:18|21:49:41|dcc-youlab-01|1|1|24000M||/hpc/home/ark19|
ark19|COMPLETED|scavenger|2023-05-25T21:46:47|2023-05-26T20:51:40|23:04:53|dcc-tunglab-01|1|1|24000M||/hpc/home/ark19|
ark19|COMPLETED|scavenger|2023-05-25T21:47:59|2023-05-26T21:00:41|23:12:42|dcc-velmeshevlab-01|1|1|24000M||/hpc/home/ark19|
ark19|COMPLETED|scavenger|2023-05-25T21:48:55|2023-05-26T18:57:03|21:08:08|dcc-youlab-01|1|1|24000M||/hpc/home/ark19|
ark19|COMPLETED|scavenger|2023-05-25T21:50:04|2023-05-26T19:20:27|21:30:23|dcc-youlab-01|1|1|24000M||/hpc/home/ark19|
ark19|COMPLETED|scavenger|2023-05-25T21:50:08|2023-05-26T21:18:44|23:28:36|dcc-velmeshevlab-01|1|1|24000M||/hpc/home/ark19|
ark19|COMPLETED|scavenger|2023-05-25T21:50:32|2023-05-26T22:20:04|1-00:29:32|dcc-tunglab-01|1|1|24000M||/hpc/home/ark19|
ark19|COMPLETED|scavenger|2023-05-25T21:51:16|2023-05-26T22:30:59|1-00:39:43|dcc-velmeshevlab-01|1|1|24000M||/hpc/home/ark19|
ark19|COMPLETED|scavenger|2023-05-25T21:53:18|2023-05-26T22:10:23|1-00:17:05|dcc-tunglab-01|1|1|24000M||/hpc/home/ark19|
ark19|COMPLETED|scavenger|2023-05-25T21:53:54|2023-05-26T20:01:28|22:07:34|dcc-youlab-01|1|1|24000M||/hpc/home/ark19|
ark19|COMPLETED|scavenger|2023-05-25T21:56:26|2023-05-26T21:38:54|23:42:28|dcc-rausherlab-02|1|1|24000M||/hpc/home/ark19|
ark19|COMPLETED|scavenger|2023-05-25T21:56:38|2023-05-26T22:55:47|1-00:59:09|dcc-velmeshevlab-01|1|1|24000M||/hpc/home/ark19|
ark19|COMPLETED|scavenger|2023-05-25T21:56:42|2023-05-26T22:36:34|1-00:39:52|dcc-velmeshevlab-01|1|1|24000M||/hpc/home/ark19|
ark19|COMPLETED|scavenger|2023-05-25T21:58:26|2023-05-26T22:22:38|1-00:24:12|dcc-velmeshevlab-01|1|1|24000M||/hpc/home/ark19|
ark19|COMPLETED|scavenger|2023-05-25T22:03:01|2023-05-26T21:40:50|23:37:49|dcc-tunglab-01|1|1|24000M||/hpc/home/ark19|
ark19|COMPLETED|scavenger|2023-05-25T22:03:39|2023-05-26T19:47:57|21:44:18|dcc-youlab-01|1|1|24000M||/hpc/home/ark19|
ark19|COMPLETED|scavenger|2023-05-25T22:06:12|2023-05-26T23:30:22|1-01:24:10|dcc-velmeshevlab-01|1|1|24000M||/hpc/home/ark19|
ark19|COMPLETED|scavenger|2023-05-25T22:06:33|2023-05-26T22:53:07|1-00:46:34|dcc-tunglab-01|1|1|24000M||/hpc/home/ark19|
ark19|COMPLETED|scavenger|2023-05-25T22:07:15|2023-05-26T23:21:02|1-01:13:47|dcc-velmeshevlab-01|1|1|24000M||/hpc/home/ark19|
ark19|COMPLETED|scavenger|2023-05-25T22:09:38|2023-05-26T23:32:48|1-01:23:10|dcc-velmeshevlab-01|1|1|24000M||/hpc/home/ark19|
ark19|COMPLETED|scavenger|2023-05-25T22:10:46|2023-05-26T23:36:55|1-01:26:09|dcc-velmeshevlab-01|1|1|24000M||/hpc/home/ark19|
ark19|COMPLETED|scavenger|2023-05-25T22:15:59|2023-05-26T22:05:33|23:49:34|dcc-velmeshevlab-01|1|1|24000M||/hpc/home/ark19|
ark19|COMPLETED|scavenger|2023-05-25T22:16:33|2023-05-26T22:06:06|23:49:33|dcc-velmeshevlab-01|1|1|24000M||/hpc/home/ark19|
ark19|COMPLETED|scavenger|2023-05-25T22:17:29|2023-05-26T22:44:02|1-00:26:33|dcc-velmeshevlab-01|1|1|24000M||/hpc/home/ark19|
ark19|COMPLETED|scavenger|2023-05-25T22:18:17|2023-05-26T21:20:28|23:02:11|dcc-tunglab-01|1|1|24000M||/hpc/home/ark19|
ark19|COMPLETED|scavenger|2023-05-25T22:22:20|2023-05-26T22:34:33|1-00:12:13|dcc-velmeshevlab-01|1|1|24000M||/hpc/home/ark19|
ark19|COMPLETED|scavenger|2023-05-25T22:24:03|2023-05-26T22:45:46|1-00:21:43|dcc-velmeshevlab-01|1|1|24000M||/hpc/home/ark19|
ark19|COMPLETED|scavenger|2023-05-25T22:24:35|2023-05-26T22:49:59|1-00:25:24|dcc-velmeshevlab-01|1|1|24000M||/hpc/home/ark19|
ark19|COMPLETED|scavenger|2023-05-25T22:24:51|2023-05-26T22:48:46|1-00:23:55|dcc-velmeshevlab-01|1|1|24000M||/hpc/home/ark19|
ark19|COMPLETED|scavenger|2023-05-25T22:27:42|2023-05-26T21:55:52|23:28:10|dcc-tunglab-01|1|1|24000M||/hpc/home/ark19|
ark19|COMPLETED|scavenger|2023-05-25T23:13:41|2023-05-26T21:51:24|22:37:43|dcc-pbenfeylab-02|1|1|24000M||/hpc/home/ark19|
ark19|COMPLETED|scavenger|2023-05-25T23:26:51|2023-05-26T21:59:05|22:32:14|dcc-pbenfeylab-02|1|1|24000M||/hpc/home/ark19|
ark19|COMPLETED|scavenger|2023-05-25T23:43:08|2023-05-26T22:32:56|22:49:48|dcc-pbenfeylab-02|1|1|24000M||/hpc/home/ark19|
ark19|COMPLETED|scavenger|2023-05-25T23:43:12|2023-05-26T22:33:04|22:49:52|dcc-pbenfeylab-02|1|1|24000M||/hpc/home/ark19|
ark19|COMPLETED|scavenger|2023-05-25T23:52:03|2023-05-26T22:41:32|22:49:29|dcc-pbenfeylab-02|1|1|24000M||/hpc/home/ark19|
ark19|COMPLETED|scavenger|2023-05-25T23:57:21|2023-05-26T22:54:37|22:57:16|dcc-pbenfeylab-02|1|1|24000M||/hpc/home/ark19|
yl708|NODE_FAIL|scavenger|2023-05-25T15:59:44|2023-05-29T17:29:37|4-01:29:53|dcc-tunglab-02|1|1|2500M||/hpc/group/donald/yl708/TopologyNet-2017/svm|
yl708|NODE_FAIL|scavenger|2023-05-25T16:23:12|2023-05-29T17:29:37|4-01:06:25|dcc-tunglab-02|1|1|2500M||/hpc/group/donald/yl708/TopologyNet-2017/svm|
yl708|NODE_FAIL|scavenger|2023-05-25T16:25:20|2023-05-29T17:29:37|4-01:04:17|dcc-tunglab-02|1|1|2500M||/hpc/group/donald/yl708/TopologyNet-2017/svm|
yl708|NODE_FAIL|scavenger|2023-05-25T16:28:32|2023-05-29T17:29:37|4-01:01:05|dcc-tunglab-02|1|1|2500M||/hpc/group/donald/yl708/TopologyNet-2017/svm|
yl708|NODE_FAIL|scavenger|2023-05-25T16:32:16|2023-05-29T17:29:37|4-00:57:21|dcc-tunglab-02|1|1|2500M||/hpc/group/donald/yl708/TopologyNet-2017/svm|
yl708|NODE_FAIL|scavenger|2023-05-25T16:32:16|2023-05-29T17:29:37|4-00:57:21|dcc-tunglab-02|1|1|2500M||/hpc/group/donald/yl708/TopologyNet-2017/svm|
yl708|NODE_FAIL|scavenger|2023-05-25T16:36:31|2023-05-29T17:29:37|4-00:53:06|dcc-tunglab-02|1|1|2500M||/hpc/group/donald/yl708/TopologyNet-2017/svm|
yl708|NODE_FAIL|scavenger|2023-05-25T16:36:31|2023-05-29T17:29:37|4-00:53:06|dcc-tunglab-02|1|1|2500M||/hpc/group/donald/yl708/TopologyNet-2017/svm|
yl708|NODE_FAIL|scavenger|2023-05-25T16:39:43|2023-05-29T17:29:37|4-00:49:54|dcc-tunglab-02|1|1|2500M||/hpc/group/donald/yl708/TopologyNet-2017/svm|
yl708|NODE_FAIL|scavenger|2023-05-25T16:41:51|2023-05-29T17:29:37|4-00:47:46|dcc-tunglab-02|1|1|2500M||/hpc/group/donald/yl708/TopologyNet-2017/svm|
yl708|NODE_FAIL|scavenger|2023-05-25T16:41:51|2023-05-29T17:29:37|4-00:47:46|dcc-tunglab-02|1|1|2500M||/hpc/group/donald/yl708/TopologyNet-2017/svm|
jb621|COMPLETED|scavenger|2023-05-25T16:11:38|2023-05-27T08:13:47|1-16:02:09|dcc-fergusonlab-01|1|4|400G||/hpc/group/baughlab/jb621/MIPseq_map_reads|
pz19|CANCELLED by 1050403|scavenger|2023-05-25T16:45:31|2023-05-30T10:09:22|4-17:23:51|dcc-bragg-05|1|16|25408M||/work/pz19/Wang/Copper/Silicon/TS_06_3Lig/MN15|
hk288|COMPLETED|scavenger|2023-05-25T20:19:14|2023-05-31T15:46:23|5-19:27:09|dcc-cagpm-02|1|40|80G||/hpc/group/mastatlab/hk288/code_hp_paral|
kw297|COMPLETED|scavenger|2023-05-25T22:57:18|2023-05-26T17:08:30|18:11:12|dcc-motesa-01|1|2|8G||/hpc/group/ychenlab/DA|
kw297|COMPLETED|scavenger|2023-05-25T22:57:18|2023-05-26T17:08:58|18:11:40|dcc-motesa-01|1|2|8G||/hpc/group/ychenlab/DA|
kw297|CANCELLED by 1215097|scavenger|2023-05-25T22:57:18|2023-05-26T17:13:23|18:16:05|dcc-motesa-01|1|2|8G||/hpc/group/ychenlab/DA|
kw297|CANCELLED by 1215097|scavenger|2023-05-25T22:57:18|2023-05-26T17:13:23|18:16:05|dcc-adrc-01|1|2|8G||/hpc/group/ychenlab/DA|
kw297|CANCELLED by 1215097|scavenger|2023-05-25T22:57:18|2023-05-26T17:13:23|18:16:05|dcc-adrc-01|1|2|8G||/hpc/group/ychenlab/DA|
kw297|CANCELLED by 1215097|scavenger|2023-05-25T22:57:18|2023-05-26T17:13:23|18:16:05|dcc-adrc-01|1|2|8G||/hpc/group/ychenlab/DA|
kw297|CANCELLED by 1215097|scavenger|2023-05-25T22:57:18|2023-05-26T17:13:23|18:16:05|dcc-adrc-01|1|2|8G||/hpc/group/ychenlab/DA|
kw297|CANCELLED by 1215097|scavenger|2023-05-25T22:57:18|2023-05-26T17:13:23|18:16:05|dcc-adrc-01|1|2|8G||/hpc/group/ychenlab/DA|
kw297|CANCELLED by 1215097|scavenger|2023-05-25T22:57:18|2023-05-26T17:13:23|18:16:05|dcc-adrc-01|1|2|8G||/hpc/group/ychenlab/DA|
kw297|CANCELLED by 1215097|scavenger|2023-05-25T22:57:18|2023-05-26T17:13:23|18:16:05|dcc-adrc-01|1|2|8G||/hpc/group/ychenlab/DA|
kw297|CANCELLED by 1215097|scavenger|2023-05-25T22:57:18|2023-05-26T17:13:23|18:16:05|dcc-youlab-01|1|2|8G||/hpc/group/ychenlab/DA|
kw297|CANCELLED by 1215097|scavenger|2023-05-25T22:57:22|2023-05-26T17:13:23|18:16:01|dcc-delairelab-01|1|2|8G||/hpc/group/ychenlab/DA|
kw297|CANCELLED by 1215097|scavenger|2023-05-25T22:57:22|2023-05-26T17:13:23|18:16:01|dcc-delairelab-01|1|2|8G||/hpc/group/ychenlab/DA|
kw297|CANCELLED by 1215097|scavenger|2023-05-25T22:57:22|2023-05-26T17:13:23|18:16:01|dcc-delairelab-01|1|2|8G||/hpc/group/ychenlab/DA|
kw297|CANCELLED by 1215097|scavenger|2023-05-25T22:57:22|2023-05-26T17:13:23|18:16:01|dcc-delairelab-01|1|2|8G||/hpc/group/ychenlab/DA|
kw297|CANCELLED by 1215097|scavenger|2023-05-25T22:57:22|2023-05-26T17:13:23|18:16:01|dcc-delairelab-01|1|2|8G||/hpc/group/ychenlab/DA|
kw297|CANCELLED by 1215097|scavenger|2023-05-25T22:57:22|2023-05-26T17:13:23|18:16:01|dcc-delairelab-01|1|2|8G||/hpc/group/ychenlab/DA|
kw297|CANCELLED by 1215097|scavenger|2023-05-25T22:57:22|2023-05-26T17:13:23|18:16:01|dcc-delairelab-01|1|2|8G||/hpc/group/ychenlab/DA|
kw297|CANCELLED by 1215097|scavenger|2023-05-25T22:57:22|2023-05-26T17:13:23|18:16:01|dcc-delairelab-01|1|2|8G||/hpc/group/ychenlab/DA|
kw297|CANCELLED by 1215097|scavenger|2023-05-25T22:57:22|2023-05-26T17:13:23|18:16:01|dcc-delairelab-01|1|2|8G||/hpc/group/ychenlab/DA|
kw297|CANCELLED by 1215097|scavenger|2023-05-25T22:57:22|2023-05-26T17:13:23|18:16:01|dcc-delairelab-01|1|2|8G||/hpc/group/ychenlab/DA|
kw297|CANCELLED by 1215097|scavenger|2023-05-25T22:57:22|2023-05-26T17:13:23|18:16:01|dcc-delairelab-01|1|2|8G||/hpc/group/ychenlab/DA|
kw297|CANCELLED by 1215097|scavenger|2023-05-26T07:23:06|2023-05-26T17:13:23|09:50:17|dcc-motesa-01|1|2|8G||/hpc/group/ychenlab/DA|
ew198|PREEMPTED|scavenger|2023-05-26T08:26:30|2023-05-30T13:18:46|4-04:52:16|dcc-pbenfeylab-02|1|1|16000M||/cifs/hariri-long/Projects/Annchen/Scripts/ArealMSHBM|
ew198|PREEMPTED|scavenger|2023-05-26T08:26:30|2023-05-30T13:18:46|4-04:52:16|dcc-pbenfeylab-02|1|1|16000M||/cifs/hariri-long/Projects/Annchen/Scripts/ArealMSHBM|
yw522|FAILED|scavenger|2023-05-26T09:35:15|2023-05-26T18:53:29|09:18:14|dcc-delairelab-01|1|16|120G||/datacommons/ydiaolab/diaolab_group/YuanWang|
xz195|COMPLETED|scavenger|2023-05-26T09:44:51|2023-05-27T18:55:59|1-09:11:08|dcc-youlab-01|1|1|512M||/hpc/group/allenlab/scarlett/pipeline_working|
xz195|COMPLETED|scavenger|2023-05-26T09:49:42|2023-05-27T15:23:01|1-05:33:19|dcc-youlab-01|1|1|512M||/hpc/group/allenlab/scarlett/pipeline_working|
xz195|COMPLETED|scavenger|2023-05-26T09:49:52|2023-05-27T14:06:13|1-04:16:21|dcc-youlab-01|1|1|512M||/hpc/group/allenlab/scarlett/pipeline_working|
xz195|COMPLETED|scavenger|2023-05-26T09:50:02|2023-05-27T15:42:10|1-05:52:08|dcc-youlab-01|1|1|512M||/hpc/group/allenlab/scarlett/pipeline_working|
xz195|COMPLETED|scavenger|2023-05-26T09:50:16|2023-05-27T17:01:07|1-07:10:51|dcc-youlab-01|1|1|512M||/hpc/group/allenlab/scarlett/pipeline_working|
schen|TIMEOUT|scavenger|2023-05-26T10:34:27|2023-05-26T22:34:33|12:00:06|dcc-donglab-01|1|8|208G||/hpc/home/schen/ondemand/data/sys/dashboard/batch_connect/sys/bc_rstudio_singularity/output/55d4cf0d-5bda-458f-97e0-1ac826561526|
yw522|FAILED|scavenger|2023-05-26T11:23:20|2023-05-26T18:53:29|07:30:09|dcc-fergusonlab-01|1|16|120G||/datacommons/ydiaolab/diaolab_group/YuanWang|
msk37|TIMEOUT|scavenger|2023-05-26T12:36:45|2023-05-26T16:36:46|04:00:01|dcc-dunsonlab-01|1|4|450G||/hpc/home/msk37/ondemand/data/sys/dashboard/batch_connect/sys/bc_desktop/dcc/output/64039fc4-95ed-49ae-ac4c-eb8498c14d7e|
nd140|FAILED|scavenger|2023-05-26T13:57:55|2023-05-26T16:43:36|02:45:41|dcc-hulab-05|1|72|144G||/hpc/home/nd140/DebtDuration_matchoice|
hk288|COMPLETED|scavenger|2023-05-26T14:18:25|2023-05-26T16:23:09|02:04:44|dcc-bragg-02|1|32|64G||/hpc/group/mastatlab/hk288/code_paired_ntaxa_bfam|
hk288|COMPLETED|scavenger|2023-05-26T14:18:25|2023-05-26T22:10:43|07:52:18|dcc-bragg-05|1|32|64G||/hpc/group/mastatlab/hk288/code_paired_ntaxa_bfam|
hk288|COMPLETED|scavenger|2023-05-26T14:18:25|2023-05-27T11:34:05|21:15:40|dcc-cagpm-01|1|32|64G||/hpc/group/mastatlab/hk288/code_paired_ntaxa_bfam|
hk288|COMPLETED|scavenger|2023-05-26T14:18:25|2023-05-26T16:09:25|01:51:00|dcc-compeb-02|1|32|64G||/hpc/group/mastatlab/hk288/code_paired_ntaxa_bfam|
hk288|COMPLETED|scavenger|2023-05-26T14:18:25|2023-05-26T21:47:42|07:29:17|dcc-donglab-01|1|32|64G||/hpc/group/mastatlab/hk288/code_paired_ntaxa_bfam|
hk288|COMPLETED|scavenger|2023-05-26T14:18:25|2023-05-27T07:12:25|16:54:00|dcc-fergusonlab-01|1|32|64G||/hpc/group/mastatlab/hk288/code_paired_ntaxa_bfam|
hk288|COMPLETED|scavenger|2023-05-26T14:22:32|2023-05-26T16:14:33|01:52:01|dcc-mainsahlab-01|1|32|64G||/hpc/group/mastatlab/hk288/code_paired_ntaxa_bfam|
hk288|COMPLETED|scavenger|2023-05-26T14:22:32|2023-05-26T21:46:31|07:23:59|dcc-noor-01|1|32|64G||/hpc/group/mastatlab/hk288/code_paired_ntaxa_bfam|
hk288|COMPLETED|scavenger|2023-05-26T14:22:32|2023-05-27T03:43:55|13:21:23|dcc-nsoe-it-01|1|32|64G||/hpc/group/mastatlab/hk288/code_paired_ntaxa_bfam|
hk288|COMPLETED|scavenger|2023-05-26T14:22:44|2023-05-26T17:20:43|02:57:59|dcc-fergusonlab-03|1|32|64G||/hpc/group/mastatlab/hk288/code_paired_ntaxa_bfam|
hk288|COMPLETED|scavenger|2023-05-26T14:22:44|2023-05-27T09:46:54|19:24:10|dcc-katzlab-01|1|32|64G||/hpc/group/mastatlab/hk288/code_paired_ntaxa_bfam|
jb621|COMPLETED|scavenger|2023-05-26T14:25:35|2023-05-26T17:12:30|02:46:55|dcc-dunsonlab-02|1|4|400G||/work/jb621/MIPfastqs/fastqs|
hk288|COMPLETED|scavenger|2023-05-26T14:29:07|2023-05-26T20:53:23|06:24:16|dcc-fergusonlab-03|1|32|64G||/hpc/group/mastatlab/hk288/code_paired_ntaxa_bfam|
hk288|COMPLETED|scavenger|2023-05-26T14:30:22|2023-05-26T16:21:23|01:51:01|dcc-katzlab-01|1|32|64G||/hpc/group/mastatlab/hk288/code_paired_ntaxa_bfam|
hk288|COMPLETED|scavenger|2023-05-26T14:30:22|2023-05-27T01:28:34|10:58:12|dcc-kirschlab-01|1|32|64G||/hpc/group/mastatlab/hk288/code_paired_ntaxa_bfam|
hk288|COMPLETED|scavenger|2023-05-26T14:30:22|2023-05-26T17:09:46|02:39:24|dcc-pbenfeylab-01|1|32|64G||/hpc/group/mastatlab/hk288/code_paired_ntaxa_bfam|
hk288|COMPLETED|scavenger|2023-05-26T14:30:22|2023-05-26T21:38:03|07:07:41|dcc-pbenfeylab-01|1|32|64G||/hpc/group/mastatlab/hk288/code_paired_ntaxa_bfam|
hk288|COMPLETED|scavenger|2023-05-26T14:30:22|2023-05-27T05:07:24|14:37:02|dcc-pbenfeylab-02|1|32|64G||/hpc/group/mastatlab/hk288/code_paired_ntaxa_bfam|
hk288|COMPLETED|scavenger|2023-05-26T14:30:42|2023-05-27T13:13:11|22:42:29|dcc-kirschlab-01|1|32|64G||/hpc/group/mastatlab/hk288/code_paired_ntaxa_bfam|
hk288|COMPLETED|scavenger|2023-05-26T14:31:06|2023-05-26T17:13:03|02:41:57|dcc-pbenfeylab-02|1|32|64G||/hpc/group/mastatlab/hk288/code_paired_ntaxa_bfam|
hk288|COMPLETED|scavenger|2023-05-26T14:31:06|2023-05-26T23:26:43|08:55:37|dcc-hashimilab-01|1|32|64G||/hpc/group/mastatlab/hk288/code_paired_ntaxa_bfam|
hk288|COMPLETED|scavenger|2023-05-26T14:31:06|2023-05-27T07:47:01|17:15:55|dcc-hulab-01|1|32|64G||/hpc/group/mastatlab/hk288/code_paired_ntaxa_bfam|
hk288|COMPLETED|scavenger|2023-05-26T14:31:06|2023-05-26T21:49:28|07:18:22|dcc-herringlab-01|1|32|64G||/hpc/group/mastatlab/hk288/code_paired_ntaxa_bfam|
hk288|COMPLETED|scavenger|2023-05-26T14:31:06|2023-05-27T11:04:41|20:33:35|dcc-hulab-02|1|32|64G||/hpc/group/mastatlab/hk288/code_paired_ntaxa_bfam|
hk288|COMPLETED|scavenger|2023-05-26T14:31:26|2023-05-26T17:14:53|02:43:27|dcc-herringlab-01|1|32|64G||/hpc/group/mastatlab/hk288/code_paired_ntaxa_bfam|
xz195|COMPLETED|scavenger|2023-05-26T15:44:27|2023-05-26T16:01:37|00:17:10|dcc-pbenfeylab-01|1|4|8G||/hpc/group/allenlab/scarlett/pipeline_working|
xz195|COMPLETED|scavenger|2023-05-26T15:45:26|2023-05-26T16:01:01|00:15:35|dcc-pbenfeylab-01|1|4|8G||/hpc/group/allenlab/scarlett/pipeline_working|
xz195|COMPLETED|scavenger|2023-05-26T15:52:30|2023-05-26T16:03:56|00:11:26|dcc-aryalab-01|1|4|8G||/hpc/group/allenlab/scarlett/pipeline_working|
xz195|COMPLETED|scavenger|2023-05-26T15:52:30|2023-05-26T16:01:25|00:08:55|dcc-donglab-01|1|4|8G||/hpc/group/allenlab/scarlett/pipeline_working|
xz195|COMPLETED|scavenger|2023-05-26T15:53:33|2023-05-26T16:03:32|00:09:59|dcc-delairelab-01|1|4|8G||/hpc/group/allenlab/scarlett/pipeline_working|
dg304|COMPLETED|scavenger|2023-05-26T15:55:28|2023-05-27T02:49:19|10:53:51|dcc-hulab-02|1|24|384G||/hpc/group/bio1/diego/lmicrobiome/scripts|
xz195|COMPLETED|scavenger|2023-05-26T16:01:31|2023-05-26T16:01:33|00:00:02|dcc-donglab-01|1|4|8G||/hpc/group/allenlab/scarlett/pipeline_working|
xz195|COMPLETED|scavenger|2023-05-26T16:01:35|2023-05-26T16:11:23|00:09:48|dcc-donglab-01|1|4|8G||/hpc/group/allenlab/scarlett/pipeline_working|
xz195|COMPLETED|scavenger|2023-05-26T16:02:32|2023-05-26T16:02:34|00:00:02|dcc-pbenfeylab-01|1|4|8G||/hpc/group/allenlab/scarlett/pipeline_working|
xz195|COMPLETED|scavenger|2023-05-26T16:02:36|2023-05-26T16:21:54|00:19:18|dcc-pbenfeylab-01|1|4|8G||/hpc/group/allenlab/scarlett/pipeline_working|
xz195|COMPLETED|scavenger|2023-05-26T16:02:32|2023-05-26T16:02:34|00:00:02|dcc-pbenfeylab-01|1|4|8G||/hpc/group/allenlab/scarlett/pipeline_working|
xz195|COMPLETED|scavenger|2023-05-26T16:02:36|2023-05-26T16:15:04|00:12:28|dcc-pbenfeylab-01|1|4|8G||/hpc/group/allenlab/scarlett/pipeline_working|
xz195|COMPLETED|scavenger|2023-05-26T16:04:32|2023-05-26T16:04:34|00:00:02|dcc-aryalab-01|1|4|8G||/hpc/group/allenlab/scarlett/pipeline_working|
xz195|COMPLETED|scavenger|2023-05-26T16:04:36|2023-05-26T16:15:16|00:10:40|dcc-aryalab-01|1|4|8G||/hpc/group/allenlab/scarlett/pipeline_working|
xz195|COMPLETED|scavenger|2023-05-26T16:04:36|2023-05-26T16:04:38|00:00:02|dcc-delairelab-01|1|4|8G||/hpc/group/allenlab/scarlett/pipeline_working|
xz195|COMPLETED|scavenger|2023-05-26T16:04:40|2023-05-26T16:14:23|00:09:43|dcc-delairelab-01|1|4|8G||/hpc/group/allenlab/scarlett/pipeline_working|
tc298|CANCELLED by 1383354|scavenger|2023-05-26T16:09:11|2023-05-26T16:17:40|00:08:29|dcc-youlab-01|1|1|8G||/hpc/group/dbergerlab/tcTest/fthb-model|
sms198|CANCELLED by 1395164|scavenger|2023-05-26T16:10:57|2023-05-26T16:12:39|00:01:42|dcc-adrc-01|1|2|10G||/hpc/group/bio1/sskarha/databases/UNITE|
xz195|COMPLETED|scavenger|2023-05-26T16:11:37|2023-05-26T16:11:40|00:00:03|dcc-donglab-01|1|4|8G||/hpc/group/allenlab/scarlett/pipeline_working|
xz195|COMPLETED|scavenger|2023-05-26T16:11:41|2023-05-26T16:21:18|00:09:37|dcc-donglab-01|1|4|8G||/hpc/group/allenlab/scarlett/pipeline_working|
sms198|OUT_OF_MEMORY|scavenger|2023-05-26T16:12:49|2023-05-27T02:07:22|09:54:33|dcc-adrc-01|1|2|10G||/hpc/group/bio1/sskarha/databases/UNITE|
xz195|COMPLETED|scavenger|2023-05-26T16:14:39|2023-05-26T16:14:41|00:00:02|dcc-delairelab-01|1|4|8G||/hpc/group/allenlab/scarlett/pipeline_working|
xz195|COMPLETED|scavenger|2023-05-26T16:14:43|2023-05-26T16:24:33|00:09:50|dcc-delairelab-01|1|4|8G||/hpc/group/allenlab/scarlett/pipeline_working|
xz195|COMPLETED|scavenger|2023-05-26T16:15:42|2023-05-26T16:28:13|00:12:31|dcc-aryalab-01|1|4|8G||/hpc/group/allenlab/scarlett/pipeline_working|
xz195|COMPLETED|scavenger|2023-05-26T16:15:42|2023-05-26T16:15:47|00:00:05|dcc-pbenfeylab-01|1|4|8G||/hpc/group/allenlab/scarlett/pipeline_working|
xz195|COMPLETED|scavenger|2023-05-26T16:28:15|2023-05-26T16:40:15|00:12:00|dcc-aryalab-01|1|4|8G||/hpc/group/allenlab/scarlett/pipeline_working|
xz195|COMPLETED|scavenger|2023-05-26T16:15:47|2023-05-26T16:34:20|00:18:33|dcc-pbenfeylab-01|1|4|8G||/hpc/group/allenlab/scarlett/pipeline_working|
tc298|CANCELLED by 1383354|scavenger|2023-05-26T16:17:49|2023-05-26T17:41:45|01:23:56|dcc-youlab-01|1|1|8G||/hpc/group/dbergerlab/tcTest/fthb-model|
xz195|COMPLETED|scavenger|2023-05-26T16:21:44|2023-05-26T16:21:46|00:00:02|dcc-donglab-01|1|4|8G||/hpc/group/allenlab/scarlett/pipeline_working|
xz195|COMPLETED|scavenger|2023-05-26T16:21:48|2023-05-26T16:32:23|00:10:35|dcc-donglab-01|1|4|8G||/hpc/group/allenlab/scarlett/pipeline_working|
xz195|COMPLETED|scavenger|2023-05-26T16:22:47|2023-05-26T16:22:49|00:00:02|dcc-pbenfeylab-01|1|4|8G||/hpc/group/allenlab/scarlett/pipeline_working|
xz195|COMPLETED|scavenger|2023-05-26T16:22:51|2023-05-26T16:40:47|00:17:56|dcc-pbenfeylab-01|1|4|8G||/hpc/group/allenlab/scarlett/pipeline_working|
xz195|COMPLETED|scavenger|2023-05-26T16:24:47|2023-05-26T16:24:49|00:00:02|dcc-delairelab-01|1|4|8G||/hpc/group/allenlab/scarlett/pipeline_working|
xz195|COMPLETED|scavenger|2023-05-26T16:24:51|2023-05-26T16:34:00|00:09:09|dcc-delairelab-01|1|4|8G||/hpc/group/allenlab/scarlett/pipeline_working|
xz195|COMPLETED|scavenger|2023-05-26T16:32:49|2023-05-26T16:32:51|00:00:02|dcc-donglab-01|1|4|8G||/hpc/group/allenlab/scarlett/pipeline_working|
xz195|COMPLETED|scavenger|2023-05-26T16:32:53|2023-05-26T16:43:04|00:10:11|dcc-donglab-01|1|4|8G||/hpc/group/allenlab/scarlett/pipeline_working|
xz195|COMPLETED|scavenger|2023-05-26T16:34:51|2023-05-26T16:34:53|00:00:02|dcc-delairelab-01|1|4|8G||/hpc/group/allenlab/scarlett/pipeline_working|
xz195|COMPLETED|scavenger|2023-05-26T16:34:51|2023-05-26T16:34:57|00:00:06|dcc-pbenfeylab-01|1|4|8G||/hpc/group/allenlab/scarlett/pipeline_working|
xz195|COMPLETED|scavenger|2023-05-26T16:34:55|2023-05-26T16:43:24|00:08:29|dcc-delairelab-01|1|4|8G||/hpc/group/allenlab/scarlett/pipeline_working|
xz195|COMPLETED|scavenger|2023-05-26T16:34:59|2023-05-26T16:54:07|00:19:08|dcc-pbenfeylab-01|1|4|8G||/hpc/group/allenlab/scarlett/pipeline_working|
xz195|COMPLETED|scavenger|2023-05-26T16:40:53|2023-05-26T16:40:55|00:00:02|dcc-aryalab-01|1|4|8G||/hpc/group/allenlab/scarlett/pipeline_working|
xz195|COMPLETED|scavenger|2023-05-26T16:40:57|2023-05-26T16:53:35|00:12:38|dcc-aryalab-01|1|4|8G||/hpc/group/allenlab/scarlett/pipeline_working|
xz195|COMPLETED|scavenger|2023-05-26T16:41:54|2023-05-26T16:41:56|00:00:02|dcc-pbenfeylab-01|1|4|8G||/hpc/group/allenlab/scarlett/pipeline_working|
xz195|COMPLETED|scavenger|2023-05-26T16:41:58|2023-05-26T17:00:12|00:18:14|dcc-pbenfeylab-01|1|4|8G||/hpc/group/allenlab/scarlett/pipeline_working|
xz195|COMPLETED|scavenger|2023-05-26T16:43:54|2023-05-26T16:43:56|00:00:02|dcc-delairelab-01|1|4|8G||/hpc/group/allenlab/scarlett/pipeline_working|
xz195|COMPLETED|scavenger|2023-05-26T16:43:54|2023-05-26T16:43:56|00:00:02|dcc-donglab-01|1|4|8G||/hpc/group/allenlab/scarlett/pipeline_working|
xz195|COMPLETED|scavenger|2023-05-26T16:43:58|2023-05-26T16:52:15|00:08:17|dcc-delairelab-01|1|4|8G||/hpc/group/allenlab/scarlett/pipeline_working|
xz195|COMPLETED|scavenger|2023-05-26T16:43:58|2023-05-26T16:54:15|00:10:17|dcc-donglab-01|1|4|8G||/hpc/group/allenlab/scarlett/pipeline_working|
xw171|COMPLETED|scavenger|2023-05-26T16:51:53|2023-05-26T17:07:31|00:15:38|dcc-dunsonlab-01|1|12|160G||/work/xw171/sciHiCAR-RNA|
xw171|COMPLETED|scavenger|2023-05-26T16:51:53|2023-05-26T16:53:55|00:02:02|dcc-dunsonlab-01|1|12|160G||/work/xw171/sciHiCAR-RNA|
xw171|COMPLETED|scavenger|2023-05-26T16:51:53|2023-05-26T17:23:08|00:31:15|dcc-hulab-01|1|12|160G||/work/xw171/sciHiCAR-RNA|
xw171|COMPLETED|scavenger|2023-05-26T16:51:53|2023-05-26T16:58:28|00:06:35|dcc-bragg-02|1|12|160G||/work/xw171/sciHiCAR-RNA|
xz195|COMPLETED|scavenger|2023-05-26T16:52:29|2023-05-26T16:52:31|00:00:02|dcc-delairelab-01|1|4|8G||/hpc/group/allenlab/scarlett/pipeline_working|
xz195|COMPLETED|scavenger|2023-05-26T16:52:33|2023-05-26T17:00:39|00:08:06|dcc-delairelab-01|1|4|8G||/hpc/group/allenlab/scarlett/pipeline_working|
xz195|COMPLETED|scavenger|2023-05-26T16:54:33|2023-05-26T16:54:35|00:00:02|dcc-aryalab-01|1|4|8G||/hpc/group/allenlab/scarlett/pipeline_working|
xz195|COMPLETED|scavenger|2023-05-26T16:54:33|2023-05-26T16:54:35|00:00:02|dcc-donglab-01|1|4|8G||/hpc/group/allenlab/scarlett/pipeline_working|
xz195|COMPLETED|scavenger|2023-05-26T16:54:33|2023-05-26T16:54:36|00:00:03|dcc-pbenfeylab-01|1|4|8G||/hpc/group/allenlab/scarlett/pipeline_working|
xz195|COMPLETED|scavenger|2023-05-26T16:54:37|2023-05-26T17:03:08|00:08:31|dcc-aryalab-01|1|4|8G||/hpc/group/allenlab/scarlett/pipeline_working|
xz195|COMPLETED|scavenger|2023-05-26T16:54:37|2023-05-26T17:07:47|00:13:10|dcc-donglab-01|1|4|8G||/hpc/group/allenlab/scarlett/pipeline_working|
xz195|COMPLETED|scavenger|2023-05-26T16:54:37|2023-05-26T17:15:19|00:20:42|dcc-pbenfeylab-01|1|4|8G||/hpc/group/allenlab/scarlett/pipeline_working|
mp508|FAILED|scavenger|2023-05-26T16:58:07|2023-05-26T16:58:07|00:00:00|None assigned|1|128|256G||/hpc/home/mp508/hyp-eval-paper/code-microfinance|
mp508|FAILED|scavenger|2023-05-26T16:58:20|2023-05-26T16:58:20|00:00:00|None assigned|1|96|192G||/hpc/home/mp508/hyp-eval-paper/code-microfinance|
mp508|CANCELLED by 1493355|scavenger|2023-05-26T16:58:49|2023-05-26T17:00:47|00:01:58|dcc-hulab-03|1|92|164G||/hpc/home/mp508/hyp-eval-paper/code-microfinance|
mp508|CANCELLED by 1493355|scavenger|2023-05-26T17:00:37|2023-05-26T17:01:19|00:00:42|dcc-hulab-04|1|92|184G||/hpc/home/mp508/hyp-eval-paper/code-microfinance|
