pz19|RUNNING|scavenger|2023-03-29T09:52:04|Unknown|77-04:22:30|dcc-fergusonlab-05|1|10|457000M||/work/pz19/Jiaqi/13e14o|
smokeauth2-tst|NODE_FAIL|scavenger|2023-04-18T10:56:00|2023-05-29T17:29:37|41-06:33:37|dcc-tunglab-02|1|1|2G||/hpc/home/smokeauth2-tst|
smokeauth2-tst|RUNNING|scavenger|2023-04-18T12:49:48|Unknown|57-01:24:46|dcc-noor-01|1|1|2G||/hpc/home/smokeauth2-tst|
fjm7|COMPLETED|scavenger|2023-04-23T15:19:04|2023-05-18T23:19:00|25-07:59:56|dcc-noor-02|1|1|2G||/hpc/group/brownlab/fjm7/new-data-collection/slurm-runners|
fjm7|COMPLETED|scavenger|2023-04-23T15:19:04|2023-05-18T23:01:43|25-07:42:39|dcc-noor-02|1|1|2G||/hpc/group/brownlab/fjm7/new-data-collection/slurm-runners|
fjm7|RUNNING|scavenger|2023-04-23T15:19:07|Unknown|51-22:55:27|dcc-noor-01|1|1|2G||/hpc/group/brownlab/fjm7/new-data-collection/slurm-runners|
fjm7|RUNNING|scavenger|2023-04-23T15:19:07|Unknown|51-22:55:27|dcc-noor-01|1|1|2G||/hpc/group/brownlab/fjm7/new-data-collection/slurm-runners|
fjm7|RUNNING|scavenger|2023-04-23T15:19:07|Unknown|51-22:55:27|dcc-noor-01|1|1|2G||/hpc/group/brownlab/fjm7/new-data-collection/slurm-runners|
fjm7|RUNNING|scavenger|2023-04-23T15:19:08|Unknown|51-22:55:26|dcc-noor-01|1|1|2G||/hpc/group/brownlab/fjm7/new-data-collection/slurm-runners|
fjm7|RUNNING|scavenger|2023-04-23T15:19:08|Unknown|51-22:55:26|dcc-noor-01|1|1|2G||/hpc/group/brownlab/fjm7/new-data-collection/slurm-runners|
bc276|CANCELLED by 1467409|scavenger|2023-04-26T20:52:10|2023-05-19T21:28:42|23-00:36:32|dcc-tunglab-01|1|1|100G||/hpc/group/goldberg/bc276/P.vavax_Recombination/admixture/pong|
lh342|TIMEOUT|scavenger|2023-05-02T03:05:50|2023-06-01T03:06:14|30-00:00:24|dcc-compeb-02|1|8|16G||/hpc/home/lh342/ondemand/data/sys/dashboard/batch_connect/sys/bc_desktop/dcc/output/702824cf-eb77-47a5-9f97-205f479dd2d4|
pz19|TIMEOUT|scavenger|2023-05-07T22:50:59|2023-05-18T12:51:17|10-14:00:18|dcc-compeb-01|1|16|25584M||/work/pz19/Wang/Copper/Silicon/TS_06_3Lig/B3LYP|
cw446|CANCELLED by 1401348|scavenger|2023-05-08T23:40:21|2023-05-30T10:48:58|21-11:08:37|dcc-fergusonlab-04|1|5|300G||/hpc/group/jilab/changxin|
smokeauth2-tst|RUNNING|scavenger|2023-05-09T00:51:37|Unknown|36-13:22:57|dcc-wychem-01|1|1|2G||/hpc/home/smokeauth2-tst|
pz19|COMPLETED|scavenger|2023-05-10T09:53:22|2023-05-22T13:35:04|12-03:41:42|dcc-adrc-01|1|16|32000M||/work/pz19/Dexter|
ts349|FAILED|scavenger|2023-05-12T09:30:33|2023-05-20T03:20:04|7-17:49:31|dcc-fergusonlab-03|1|30|72G||/hpc/home/ts349|
ts349|FAILED|scavenger|2023-05-12T10:39:18|2023-05-20T03:20:06|7-16:40:48|dcc-bragg-05|1|30|72G||/datacommons/ydiaolab/sun/YAPandTEAD/H1_CTCF/H1_CTCF_mapping/MACS2|
ts349|FAILED|scavenger|2023-05-12T11:28:31|2023-05-20T03:20:07|7-15:51:36|dcc-bragg-02|1|30|72G||/hpc/home/ts349|
ts349|FAILED|scavenger|2023-05-12T13:52:46|2023-05-20T03:20:04|7-13:27:18|dcc-gcb-11|1|30|72G||/datacommons/ydiaolab/sun/YAPandTEAD/BRD4_cut_H1/brd4_cut_h1_mapping/filtered_bam|
pz19|CANCELLED by 1050403|scavenger|2023-05-13T11:14:48|2023-05-21T11:51:07|8-00:36:19|dcc-adrc-01|1|16|25408M||/work/pz19/Wang/Copper/Silicon/TS_06_3LigOAc/B3LYP|
pz19|CANCELLED by 1050403|scavenger|2023-05-14T11:43:00|2023-05-19T15:49:18|5-04:06:18|dcc-adrc-01|1|16|25408M||/work/pz19/Wang/Copper/Silicon/TS_06_3Lig/MN15|
ark19|COMPLETED|scavenger|2023-05-15T09:58:33|2023-05-18T11:55:34|3-01:57:01|dcc-statdept-01|1|1|125G||/cifs/hariri-long/Projects/Annchen/3Dbrain|
ark19|COMPLETED|scavenger|2023-05-15T09:58:33|2023-05-18T11:55:45|3-01:57:12|dcc-statdept-01|1|1|16000M||/cifs/hariri-long/Projects/Annchen/3Dbrain|
ark19|COMPLETED|scavenger|2023-05-15T09:58:33|2023-05-18T11:55:45|3-01:57:12|dcc-statdept-01|1|1|16000M||/cifs/hariri-long/Projects/Annchen/3Dbrain|
ark19|COMPLETED|scavenger|2023-05-15T09:58:33|2023-05-18T11:55:45|3-01:57:12|dcc-statdept-01|1|1|16000M||/cifs/hariri-long/Projects/Annchen/3Dbrain|
ark19|COMPLETED|scavenger|2023-05-15T09:58:33|2023-05-18T11:55:45|3-01:57:12|dcc-statdept-01|1|1|16000M||/cifs/hariri-long/Projects/Annchen/3Dbrain|
ark19|COMPLETED|scavenger|2023-05-15T09:58:33|2023-05-18T11:55:45|3-01:57:12|dcc-statdept-01|1|1|16000M||/cifs/hariri-long/Projects/Annchen/3Dbrain|
ark19|COMPLETED|scavenger|2023-05-15T09:58:34|2023-05-18T11:55:45|3-01:57:11|dcc-statdept-01|1|1|16000M||/cifs/hariri-long/Projects/Annchen/3Dbrain|
ark19|COMPLETED|scavenger|2023-05-15T09:58:34|2023-05-18T11:55:44|3-01:57:10|dcc-statdept-01|1|1|16000M||/cifs/hariri-long/Projects/Annchen/3Dbrain|
ark19|COMPLETED|scavenger|2023-05-15T09:58:34|2023-05-18T11:55:45|3-01:57:11|dcc-statdept-01|1|1|16000M||/cifs/hariri-long/Projects/Annchen/3Dbrain|
ark19|COMPLETED|scavenger|2023-05-15T09:58:34|2023-05-18T11:55:44|3-01:57:10|dcc-statdept-01|1|1|16000M||/cifs/hariri-long/Projects/Annchen/3Dbrain|
ark19|COMPLETED|scavenger|2023-05-15T09:58:34|2023-05-18T11:55:45|3-01:57:11|dcc-statdept-01|1|1|16000M||/cifs/hariri-long/Projects/Annchen/3Dbrain|
ark19|COMPLETED|scavenger|2023-05-15T09:58:34|2023-05-18T11:55:44|3-01:57:10|dcc-statdept-01|1|1|16000M||/cifs/hariri-long/Projects/Annchen/3Dbrain|
ark19|COMPLETED|scavenger|2023-05-15T09:58:34|2023-05-18T11:55:45|3-01:57:11|dcc-statdept-01|1|1|16000M||/cifs/hariri-long/Projects/Annchen/3Dbrain|
ark19|COMPLETED|scavenger|2023-05-15T09:58:34|2023-05-18T11:55:44|3-01:57:10|dcc-statdept-01|1|1|16000M||/cifs/hariri-long/Projects/Annchen/3Dbrain|
ark19|COMPLETED|scavenger|2023-05-15T09:58:34|2023-05-18T11:55:45|3-01:57:11|dcc-statdept-01|1|1|16000M||/cifs/hariri-long/Projects/Annchen/3Dbrain|
ark19|COMPLETED|scavenger|2023-05-15T09:58:34|2023-05-18T11:55:45|3-01:57:11|dcc-statdept-01|1|1|16000M||/cifs/hariri-long/Projects/Annchen/3Dbrain|
ark19|COMPLETED|scavenger|2023-05-15T09:58:34|2023-05-18T11:55:45|3-01:57:11|dcc-statdept-01|1|1|16000M||/cifs/hariri-long/Projects/Annchen/3Dbrain|
ark19|COMPLETED|scavenger|2023-05-15T09:58:34|2023-05-18T11:55:45|3-01:57:11|dcc-statdept-01|1|1|16000M||/cifs/hariri-long/Projects/Annchen/3Dbrain|
ark19|COMPLETED|scavenger|2023-05-15T09:58:35|2023-05-18T11:56:07|3-01:57:32|dcc-savageresearch-02|1|1|16000M||/cifs/hariri-long/Projects/Annchen/3Dbrain|
ark19|COMPLETED|scavenger|2023-05-15T09:58:35|2023-05-18T11:56:28|3-01:57:53|dcc-savageresearch-01|1|1|16000M||/cifs/hariri-long/Projects/Annchen/3Dbrain|
ark19|COMPLETED|scavenger|2023-05-15T09:58:35|2023-05-18T11:56:28|3-01:57:53|dcc-savageresearch-01|1|1|16000M||/cifs/hariri-long/Projects/Annchen/3Dbrain|
ark19|COMPLETED|scavenger|2023-05-15T09:58:35|2023-05-18T11:56:28|3-01:57:53|dcc-savageresearch-01|1|1|16000M||/cifs/hariri-long/Projects/Annchen/3Dbrain|
ark19|COMPLETED|scavenger|2023-05-15T09:58:35|2023-05-18T11:56:28|3-01:57:53|dcc-savageresearch-01|1|1|16000M||/cifs/hariri-long/Projects/Annchen/3Dbrain|
ark19|COMPLETED|scavenger|2023-05-15T09:58:35|2023-05-18T11:56:28|3-01:57:53|dcc-savageresearch-01|1|1|16000M||/cifs/hariri-long/Projects/Annchen/3Dbrain|
ark19|COMPLETED|scavenger|2023-05-15T09:58:35|2023-05-18T11:56:28|3-01:57:53|dcc-savageresearch-01|1|1|16000M||/cifs/hariri-long/Projects/Annchen/3Dbrain|
ark19|COMPLETED|scavenger|2023-05-15T09:58:35|2023-05-18T11:56:28|3-01:57:53|dcc-savageresearch-01|1|1|16000M||/cifs/hariri-long/Projects/Annchen/3Dbrain|
ark19|COMPLETED|scavenger|2023-05-15T09:58:35|2023-05-18T11:56:30|3-01:57:55|dcc-rausherlab-02|1|1|16000M||/cifs/hariri-long/Projects/Annchen/3Dbrain|
ark19|COMPLETED|scavenger|2023-05-15T09:58:35|2023-05-18T11:56:30|3-01:57:55|dcc-rausherlab-02|1|1|16000M||/cifs/hariri-long/Projects/Annchen/3Dbrain|
ark19|COMPLETED|scavenger|2023-05-15T09:58:35|2023-05-18T11:56:30|3-01:57:55|dcc-rausherlab-02|1|1|16000M||/cifs/hariri-long/Projects/Annchen/3Dbrain|
ark19|COMPLETED|scavenger|2023-05-15T09:58:35|2023-05-18T11:56:30|3-01:57:55|dcc-rausherlab-02|1|1|16000M||/cifs/hariri-long/Projects/Annchen/3Dbrain|
ark19|COMPLETED|scavenger|2023-05-15T09:58:35|2023-05-18T11:56:30|3-01:57:55|dcc-rausherlab-02|1|1|16000M||/cifs/hariri-long/Projects/Annchen/3Dbrain|
ark19|COMPLETED|scavenger|2023-05-15T09:58:37|2023-05-18T11:56:30|3-01:57:53|dcc-rausherlab-02|1|1|16000M||/cifs/hariri-long/Projects/Annchen/3Dbrain|
ark19|COMPLETED|scavenger|2023-05-15T09:58:37|2023-05-18T11:56:07|3-01:57:30|dcc-pfister-01|1|1|16000M||/cifs/hariri-long/Projects/Annchen/3Dbrain|
ark19|COMPLETED|scavenger|2023-05-15T09:58:37|2023-05-18T11:55:51|3-01:57:14|dcc-nsoe-it-01|1|1|16000M||/cifs/hariri-long/Projects/Annchen/3Dbrain|
ark19|COMPLETED|scavenger|2023-05-15T09:58:37|2023-05-18T11:55:51|3-01:57:14|dcc-nsoe-it-01|1|1|16000M||/cifs/hariri-long/Projects/Annchen/3Dbrain|
ark19|COMPLETED|scavenger|2023-05-15T09:58:37|2023-05-18T11:55:51|3-01:57:14|dcc-nsoe-it-01|1|1|16000M||/cifs/hariri-long/Projects/Annchen/3Dbrain|
ark19|COMPLETED|scavenger|2023-05-15T09:58:37|2023-05-18T11:55:51|3-01:57:14|dcc-nsoe-it-01|1|1|16000M||/cifs/hariri-long/Projects/Annchen/3Dbrain|
ark19|COMPLETED|scavenger|2023-05-15T09:58:37|2023-05-18T11:55:51|3-01:57:14|dcc-nsoe-it-01|1|1|16000M||/cifs/hariri-long/Projects/Annchen/3Dbrain|
ark19|COMPLETED|scavenger|2023-05-15T09:58:37|2023-05-18T11:55:51|3-01:57:14|dcc-nsoe-it-01|1|1|16000M||/cifs/hariri-long/Projects/Annchen/3Dbrain|
ark19|COMPLETED|scavenger|2023-05-15T09:58:37|2023-05-18T11:55:52|3-01:57:15|dcc-noor-02|1|1|16000M||/cifs/hariri-long/Projects/Annchen/3Dbrain|
ark19|COMPLETED|scavenger|2023-05-15T09:58:37|2023-05-18T11:55:47|3-01:57:10|dcc-noor-01|1|1|16000M||/cifs/hariri-long/Projects/Annchen/3Dbrain|
ark19|COMPLETED|scavenger|2023-05-15T09:58:37|2023-05-18T11:55:52|3-01:57:15|dcc-nicolab-01|1|1|16000M||/cifs/hariri-long/Projects/Annchen/3Dbrain|
ark19|COMPLETED|scavenger|2023-05-15T09:58:37|2023-05-18T11:56:07|3-01:57:30|dcc-motesa-01|1|1|16000M||/cifs/hariri-long/Projects/Annchen/3Dbrain|
ark19|COMPLETED|scavenger|2023-05-15T09:58:37|2023-05-18T11:56:07|3-01:57:30|dcc-motesa-01|1|1|16000M||/cifs/hariri-long/Projects/Annchen/3Dbrain|
ark19|COMPLETED|scavenger|2023-05-15T09:58:37|2023-05-18T11:56:06|3-01:57:29|dcc-motesa-01|1|1|16000M||/cifs/hariri-long/Projects/Annchen/3Dbrain|
ark19|COMPLETED|scavenger|2023-05-15T09:58:37|2023-05-18T11:56:06|3-01:57:29|dcc-motesa-01|1|1|16000M||/cifs/hariri-long/Projects/Annchen/3Dbrain|
ark19|COMPLETED|scavenger|2023-05-15T09:58:37|2023-05-18T11:56:07|3-01:57:30|dcc-motesa-01|1|1|16000M||/cifs/hariri-long/Projects/Annchen/3Dbrain|
ark19|COMPLETED|scavenger|2023-05-15T09:58:37|2023-05-18T11:56:06|3-01:57:29|dcc-motesa-01|1|1|16000M||/cifs/hariri-long/Projects/Annchen/3Dbrain|
ark19|COMPLETED|scavenger|2023-05-15T09:58:37|2023-05-18T11:56:06|3-01:57:29|dcc-motesa-01|1|1|16000M||/cifs/hariri-long/Projects/Annchen/3Dbrain|
ark19|COMPLETED|scavenger|2023-05-15T09:58:37|2023-05-18T11:56:06|3-01:57:29|dcc-motesa-01|1|1|16000M||/cifs/hariri-long/Projects/Annchen/3Dbrain|
ark19|COMPLETED|scavenger|2023-05-15T09:58:37|2023-05-18T11:56:06|3-01:57:29|dcc-motesa-01|1|1|16000M||/cifs/hariri-long/Projects/Annchen/3Dbrain|
pz19|PREEMPTED|scavenger|2023-05-15T10:19:00|2023-05-18T16:12:09|3-05:53:09|dcc-delairelab-01|1|16|25408M||/work/pz19/Wang/Copper/Silicon/TS_06_3LigOAc/B3LYP|
pz19|CANCELLED by 1050403|scavenger|2023-05-15T10:19:00|2023-05-21T11:45:48|6-01:26:48|dcc-dunsonlab-01|1|16|25408M||/work/pz19/Wang/Copper/Silicon/TS_06_3LigOAc/B3LYP|
hz215|COMPLETED|scavenger|2023-05-15T15:58:50|2023-05-18T12:24:37|2-20:25:47|dcc-fergusonlab-01|1|8|300G||/hpc/group/jilab/hz/covid|
pz19|TIMEOUT|scavenger|2023-05-15T19:38:05|2023-05-26T09:38:25|10-14:00:20|dcc-fergusonlab-01|1|16|25408M||/work/pz19/Wang/Copper/Silicon/TS_06_3Lig/M06L|
pz19|TIMEOUT|scavenger|2023-05-15T23:18:17|2023-05-26T13:18:19|10-14:00:02|dcc-compeb-01|1|16|25408M||/work/pz19/Wang/Copper/Silicon/TS_06_3Lig/MN15|
pz19|COMPLETED|scavenger|2023-05-15T23:21:42|2023-05-30T14:18:14|14-14:56:32|dcc-fergusonlab-01|1|16|32000M||/work/pz19/Dexter|
pz19|CANCELLED by 1050403|scavenger|2023-05-16T09:53:46|2023-05-19T15:56:18|3-06:02:32|dcc-adrc-01|1|16|25408M||/work/pz19/Wang/Copper/Silicon/TS_06_3Lig/MN15|
lh342|RUNNING|scavenger|2023-05-16T10:36:56|Unknown|29-03:37:38|dcc-carin-23|1|8|16G||/hpc/home/lh342/ondemand/data/sys/dashboard/batch_connect/sys/bc_desktop/dcc/output/594ab9c6-93bc-4698-ac53-905dbde8eef7|
pz19|PREEMPTED|scavenger|2023-05-16T12:50:38|2023-05-19T15:20:26|3-02:29:48|dcc-bragg-01|1|16|25408M||/work/pz19/Wang/Copper/Silicon/TS_06_3Lig/M06L|
pz19|PREEMPTED|scavenger|2023-05-16T13:19:36|2023-05-19T15:20:27|3-02:00:51|dcc-bragg-01|1|16|25408M||/work/pz19/Wang/Copper/Silicon/TS_06_3LigOAc/PBE0|
hk288|FAILED|scavenger|2023-05-16T14:24:29|2023-05-22T14:44:14|6-00:19:45|dcc-gcb-06|1|40|80G||/hpc/group/mastatlab/hk288/code_hp_paral|
hk288|FAILED|scavenger|2023-05-16T14:24:29|2023-05-22T17:02:01|6-02:37:32|dcc-pfister-01|1|40|80G||/hpc/group/mastatlab/hk288/code_hp_paral|
hk288|CANCELLED by 1484570|scavenger|2023-05-16T14:31:16|2023-05-24T09:24:07|7-18:52:51|dcc-gcb-02|1|40|80G||/hpc/group/mastatlab/hk288/code_hp_paral|
hk288|CANCELLED by 1484570|scavenger|2023-05-16T14:33:02|2023-05-24T09:24:07|7-18:51:05|dcc-donglab-01|1|40|80G||/hpc/group/mastatlab/hk288/code_hp_paral|
hk288|COMPLETED|scavenger|2023-05-16T19:29:46|2023-05-18T23:59:34|2-04:29:48|dcc-bragg-03|1|32|40G||/hpc/group/mastatlab/hk288/code_paired_ntaxa_bfam|
mae63|TIMEOUT|scavenger|2023-05-17T05:30:00|2023-05-18T10:30:19|1-05:00:19|dcc-nsoe-it-01|1|4|208G||/hpc/home/mae63/ondemand/data/sys/dashboard/batch_connect/sys/bc_rstudio_singularity/output/bf5eca78-b71a-4e13-a5be-dda7801f4541|
ark19|PREEMPTED|scavenger|2023-05-17T08:42:03|2023-05-19T10:19:05|2-01:37:02|dcc-youlab-01|1|1|125G||/hpc/home/ark19|
ark19|CANCELLED by 1027614|scavenger|2023-05-17T08:42:03|2023-05-19T17:03:20|2-08:21:17|dcc-youlab-01|1|1|16000M||/hpc/home/ark19|
ark19|CANCELLED by 1027614|scavenger|2023-05-17T08:42:03|2023-05-19T17:03:20|2-08:21:17|dcc-youlab-01|1|1|16000M||/hpc/home/ark19|
ark19|CANCELLED by 1027614|scavenger|2023-05-17T08:42:03|2023-05-19T17:03:21|2-08:21:18|dcc-youlab-01|1|1|16000M||/hpc/home/ark19|
ark19|CANCELLED by 1027614|scavenger|2023-05-17T08:42:03|2023-05-19T17:03:21|2-08:21:18|dcc-youlab-01|1|1|16000M||/hpc/home/ark19|
ark19|CANCELLED by 1027614|scavenger|2023-05-17T08:42:06|2023-05-19T17:03:15|2-08:21:09|dcc-youlab-01|1|1|16000M||/hpc/home/ark19|
ark19|CANCELLED by 1027614|scavenger|2023-05-17T08:42:06|2023-05-19T17:03:16|2-08:21:10|dcc-youlab-01|1|1|16000M||/hpc/home/ark19|
ark19|CANCELLED by 1027614|scavenger|2023-05-17T08:42:06|2023-05-19T17:03:17|2-08:21:11|dcc-youlab-01|1|1|16000M||/hpc/home/ark19|
ark19|CANCELLED by 1027614|scavenger|2023-05-17T08:42:06|2023-05-19T17:03:17|2-08:21:11|dcc-youlab-01|1|1|16000M||/hpc/home/ark19|
ark19|CANCELLED by 1027614|scavenger|2023-05-17T08:42:06|2023-05-19T17:03:17|2-08:21:11|dcc-youlab-01|1|1|16000M||/hpc/home/ark19|
ark19|CANCELLED by 1027614|scavenger|2023-05-17T08:42:06|2023-05-19T17:03:17|2-08:21:11|dcc-youlab-01|1|1|16000M||/hpc/home/ark19|
ark19|CANCELLED by 1027614|scavenger|2023-05-17T08:42:06|2023-05-19T17:03:17|2-08:21:11|dcc-youlab-01|1|1|16000M||/hpc/home/ark19|
ark19|CANCELLED by 1027614|scavenger|2023-05-17T08:42:06|2023-05-19T17:03:17|2-08:21:11|dcc-youlab-01|1|1|16000M||/hpc/home/ark19|
ark19|CANCELLED by 1027614|scavenger|2023-05-17T08:42:06|2023-05-19T17:03:17|2-08:21:11|dcc-youlab-01|1|1|16000M||/hpc/home/ark19|
ark19|CANCELLED by 1027614|scavenger|2023-05-17T08:42:06|2023-05-19T17:03:17|2-08:21:11|dcc-youlab-01|1|1|16000M||/hpc/home/ark19|
ark19|CANCELLED by 1027614|scavenger|2023-05-17T08:42:06|2023-05-19T17:03:17|2-08:21:11|dcc-wychem-01|1|1|16000M||/hpc/home/ark19|
ark19|CANCELLED by 1027614|scavenger|2023-05-17T08:42:06|2023-05-19T17:03:18|2-08:21:12|dcc-tunglab-02|1|1|16000M||/hpc/home/ark19|
ark19|CANCELLED by 1027614|scavenger|2023-05-17T08:42:06|2023-05-19T17:03:18|2-08:21:12|dcc-tunglab-02|1|1|16000M||/hpc/home/ark19|
ark19|CANCELLED by 1027614|scavenger|2023-05-17T08:42:06|2023-05-19T17:03:18|2-08:21:12|dcc-tunglab-02|1|1|16000M||/hpc/home/ark19|
ark19|CANCELLED by 1027614|scavenger|2023-05-17T08:42:06|2023-05-19T17:03:18|2-08:21:12|dcc-tunglab-02|1|1|16000M||/hpc/home/ark19|
ark19|CANCELLED by 1027614|scavenger|2023-05-17T08:42:06|2023-05-19T17:03:18|2-08:21:12|dcc-tunglab-02|1|1|16000M||/hpc/home/ark19|
ark19|CANCELLED by 1027614|scavenger|2023-05-17T08:42:06|2023-05-19T17:03:18|2-08:21:12|dcc-tunglab-02|1|1|16000M||/hpc/home/ark19|
ark19|CANCELLED by 1027614|scavenger|2023-05-17T08:42:06|2023-05-19T17:03:18|2-08:21:12|dcc-tunglab-02|1|1|16000M||/hpc/home/ark19|
ark19|CANCELLED by 1027614|scavenger|2023-05-17T08:42:06|2023-05-19T17:03:20|2-08:21:14|dcc-tunglab-02|1|1|16000M||/hpc/home/ark19|
ark19|CANCELLED by 1027614|scavenger|2023-05-17T08:42:06|2023-05-19T17:03:20|2-08:21:14|dcc-tunglab-02|1|1|16000M||/hpc/home/ark19|
ark19|CANCELLED by 1027614|scavenger|2023-05-17T08:42:06|2023-05-19T17:03:20|2-08:21:14|dcc-tunglab-02|1|1|16000M||/hpc/home/ark19|
ark19|CANCELLED by 1027614|scavenger|2023-05-17T08:42:06|2023-05-19T17:03:20|2-08:21:14|dcc-tunglab-01|1|1|16000M||/hpc/home/ark19|
ark19|CANCELLED by 1027614|scavenger|2023-05-17T08:42:06|2023-05-19T17:03:20|2-08:21:14|dcc-tunglab-01|1|1|16000M||/hpc/home/ark19|
ark19|CANCELLED by 1027614|scavenger|2023-05-17T08:42:06|2023-05-19T17:03:20|2-08:21:14|dcc-tunglab-01|1|1|16000M||/hpc/home/ark19|
ark19|CANCELLED by 1027614|scavenger|2023-05-17T08:42:08|2023-05-19T17:03:14|2-08:21:06|dcc-tunglab-01|1|1|16000M||/hpc/home/ark19|
ark19|CANCELLED by 1027614|scavenger|2023-05-17T08:42:08|2023-05-19T17:03:14|2-08:21:06|dcc-tunglab-01|1|1|16000M||/hpc/home/ark19|
ark19|CANCELLED by 1027614|scavenger|2023-05-17T08:42:08|2023-05-19T17:03:14|2-08:21:06|dcc-tunglab-01|1|1|16000M||/hpc/home/ark19|
ark19|CANCELLED by 1027614|scavenger|2023-05-17T08:42:08|2023-05-19T17:03:14|2-08:21:06|dcc-tunglab-01|1|1|16000M||/hpc/home/ark19|
ark19|CANCELLED by 1027614|scavenger|2023-05-17T08:42:08|2023-05-19T17:03:14|2-08:21:06|dcc-tunglab-01|1|1|16000M||/hpc/home/ark19|
ark19|CANCELLED by 1027614|scavenger|2023-05-17T08:42:08|2023-05-19T17:03:15|2-08:21:07|dcc-tunglab-01|1|1|16000M||/hpc/home/ark19|
ark19|CANCELLED by 1027614|scavenger|2023-05-17T08:42:08|2023-05-19T17:03:15|2-08:21:07|dcc-tunglab-01|1|1|16000M||/hpc/home/ark19|
ark19|CANCELLED by 1027614|scavenger|2023-05-17T08:42:08|2023-05-19T17:03:15|2-08:21:07|dcc-tunglab-01|1|1|16000M||/hpc/home/ark19|
ark19|CANCELLED by 1027614|scavenger|2023-05-17T08:42:09|2023-05-19T17:03:13|2-08:21:04|dcc-tunglab-01|1|1|16000M||/hpc/home/ark19|
ark19|CANCELLED by 1027614|scavenger|2023-05-17T08:42:09|2023-05-19T17:03:13|2-08:21:04|dcc-tunglab-01|1|1|16000M||/hpc/home/ark19|
ark19|CANCELLED by 1027614|scavenger|2023-05-17T08:42:09|2023-05-19T17:03:13|2-08:21:04|dcc-tmolab-02|1|1|16000M||/hpc/home/ark19|
ark19|CANCELLED by 1027614|scavenger|2023-05-17T08:42:09|2023-05-19T17:03:13|2-08:21:04|dcc-tmolab-02|1|1|16000M||/hpc/home/ark19|
ark19|CANCELLED by 1027614|scavenger|2023-05-17T08:42:09|2023-05-19T17:03:14|2-08:21:05|dcc-tmolab-02|1|1|16000M||/hpc/home/ark19|
ark19|CANCELLED by 1027614|scavenger|2023-05-17T08:42:09|2023-05-19T17:03:14|2-08:21:05|dcc-tmolab-02|1|1|16000M||/hpc/home/ark19|
ark19|CANCELLED by 1027614|scavenger|2023-05-17T08:42:09|2023-05-19T17:03:14|2-08:21:05|dcc-tmolab-02|1|1|16000M||/hpc/home/ark19|
ark19|CANCELLED by 1027614|scavenger|2023-05-17T08:42:09|2023-05-19T17:03:14|2-08:21:05|dcc-tmolab-01|1|1|16000M||/hpc/home/ark19|
ark19|CANCELLED by 1027614|scavenger|2023-05-17T08:42:09|2023-05-19T17:03:14|2-08:21:05|dcc-statdept-01|1|1|16000M||/hpc/home/ark19|
ark19|CANCELLED by 1027614|scavenger|2023-05-17T08:42:09|2023-05-19T17:03:14|2-08:21:05|dcc-statdept-01|1|1|16000M||/hpc/home/ark19|
kdm65|FAILED|scavenger|2023-05-17T10:26:59|2023-05-19T03:42:58|1-17:15:59|dcc-tmolab-01|1|1|32G||/work/kdm65/validation|
jz316|COMPLETED|scavenger|2023-05-17T10:58:19|2023-05-22T04:41:57|4-17:43:38|dcc-carin-25|1|10|31G||/work/jz316/fenhc-pdi/tpssh|
jz316|COMPLETED|scavenger|2023-05-17T10:59:23|2023-05-23T13:56:56|6-02:57:33|dcc-dunsonlab-02|1|10|31G||/work/jz316/fenhc-pdi/mn15l|
pz19|PREEMPTED|scavenger|2023-05-17T12:31:28|2023-05-24T11:00:43|6-22:29:15|dcc-bragg-02|1|16|25408M||/work/pz19/Wang/Copper/Silicon/TS_06_3LigOAc/B3LYP|
pkk16|TIMEOUT|scavenger|2023-05-17T13:12:52|2023-05-18T13:13:20|1-00:00:28|dcc-donglab-01|1|2|20G||/hpc/home/pkk16/ondemand/data/sys/dashboard/batch_connect/sys/bc_jupyter/output/f8e99a28-ce39-4a74-8fe6-9d19ce054ab3|
mea54|CANCELLED by 1496219|scavenger|2023-05-17T20:17:45|2023-05-21T15:51:47|3-19:34:02|dcc-fergusonlab-02|1|64|600G||/hpc/home/mea54/ondemand/data/sys/dashboard/batch_connect/sys/bc_microbiome_rstudio/output/e2ed638a-bdcf-4c7e-95e7-0b09e60db3f4|
ew198|COMPLETED|scavenger|2023-05-17T15:01:57|2023-05-30T13:18:19|12-22:16:22|dcc-youlab-01|1|1|125G||/cifs/hariri-long/Projects/Annchen/Scripts/ArealMSHBM|
ew198|COMPLETED|scavenger|2023-05-17T15:01:57|2023-05-30T13:18:47|12-22:16:50|dcc-wychem-01|1|1|16000M||/cifs/hariri-long/Projects/Annchen/Scripts/ArealMSHBM|
ew198|COMPLETED|scavenger|2023-05-17T15:01:57|2023-05-30T13:18:47|12-22:16:50|dcc-wychem-01|1|1|16000M||/cifs/hariri-long/Projects/Annchen/Scripts/ArealMSHBM|
ew198|COMPLETED|scavenger|2023-05-17T15:01:57|2023-05-30T13:18:47|12-22:16:50|dcc-wychem-01|1|1|16000M||/cifs/hariri-long/Projects/Annchen/Scripts/ArealMSHBM|
ew198|COMPLETED|scavenger|2023-05-17T15:01:57|2023-05-30T13:18:47|12-22:16:50|dcc-wychem-01|1|1|16000M||/cifs/hariri-long/Projects/Annchen/Scripts/ArealMSHBM|
ew198|COMPLETED|scavenger|2023-05-17T15:01:57|2023-05-30T13:18:47|12-22:16:50|dcc-wychem-01|1|1|16000M||/cifs/hariri-long/Projects/Annchen/Scripts/ArealMSHBM|
ew198|COMPLETED|scavenger|2023-05-17T15:01:57|2023-05-30T13:18:47|12-22:16:50|dcc-wychem-01|1|1|16000M||/cifs/hariri-long/Projects/Annchen/Scripts/ArealMSHBM|
ew198|COMPLETED|scavenger|2023-05-17T15:01:57|2023-05-30T13:18:47|12-22:16:50|dcc-wychem-01|1|1|16000M||/cifs/hariri-long/Projects/Annchen/Scripts/ArealMSHBM|
ew198|COMPLETED|scavenger|2023-05-17T15:01:57|2023-05-30T13:18:47|12-22:16:50|dcc-wychem-01|1|1|16000M||/cifs/hariri-long/Projects/Annchen/Scripts/ArealMSHBM|
ew198|COMPLETED|scavenger|2023-05-17T15:01:57|2023-05-30T13:18:47|12-22:16:50|dcc-wychem-01|1|1|16000M||/cifs/hariri-long/Projects/Annchen/Scripts/ArealMSHBM|
ew198|NODE_FAIL|scavenger|2023-05-17T15:01:57|2023-05-29T17:29:37|12-02:27:40|dcc-tunglab-02|1|1|16000M||/cifs/hariri-long/Projects/Annchen/Scripts/ArealMSHBM|
ew198|NODE_FAIL|scavenger|2023-05-17T15:01:57|2023-05-29T17:29:37|12-02:27:40|dcc-tunglab-02|1|1|16000M||/cifs/hariri-long/Projects/Annchen/Scripts/ArealMSHBM|
ew198|NODE_FAIL|scavenger|2023-05-17T15:01:57|2023-05-29T17:29:37|12-02:27:40|dcc-tunglab-02|1|1|16000M||/cifs/hariri-long/Projects/Annchen/Scripts/ArealMSHBM|
ew198|NODE_FAIL|scavenger|2023-05-17T15:01:57|2023-05-29T17:29:37|12-02:27:40|dcc-tunglab-02|1|1|16000M||/cifs/hariri-long/Projects/Annchen/Scripts/ArealMSHBM|
ew198|NODE_FAIL|scavenger|2023-05-17T15:01:58|2023-05-29T17:29:37|12-02:27:39|dcc-tunglab-02|1|1|16000M||/cifs/hariri-long/Projects/Annchen/Scripts/ArealMSHBM|
ew198|NODE_FAIL|scavenger|2023-05-17T15:01:58|2023-05-29T17:29:37|12-02:27:39|dcc-tunglab-02|1|1|16000M||/cifs/hariri-long/Projects/Annchen/Scripts/ArealMSHBM|
ew198|NODE_FAIL|scavenger|2023-05-17T15:01:58|2023-05-29T17:29:37|12-02:27:39|dcc-tunglab-02|1|1|125G||/cifs/hariri-long/Projects/Annchen/Scripts/ArealMSHBM|
ew198|NODE_FAIL|scavenger|2023-05-17T15:01:58|2023-05-29T17:29:37|12-02:27:39|dcc-tunglab-02|1|1|16000M||/cifs/hariri-long/Projects/Annchen/Scripts/ArealMSHBM|
ew198|NODE_FAIL|scavenger|2023-05-17T15:01:58|2023-05-29T17:29:37|12-02:27:39|dcc-tunglab-02|1|1|16000M||/cifs/hariri-long/Projects/Annchen/Scripts/ArealMSHBM|
ew198|NODE_FAIL|scavenger|2023-05-17T15:01:58|2023-05-29T17:29:37|12-02:27:39|dcc-tunglab-02|1|1|16000M||/cifs/hariri-long/Projects/Annchen/Scripts/ArealMSHBM|
ew198|NODE_FAIL|scavenger|2023-05-17T15:01:58|2023-05-29T17:29:37|12-02:27:39|dcc-tunglab-02|1|1|16000M||/cifs/hariri-long/Projects/Annchen/Scripts/ArealMSHBM|
ew198|NODE_FAIL|scavenger|2023-05-17T15:01:58|2023-05-29T17:29:37|12-02:27:39|dcc-tunglab-02|1|1|16000M||/cifs/hariri-long/Projects/Annchen/Scripts/ArealMSHBM|
ew198|COMPLETED|scavenger|2023-05-17T15:01:58|2023-05-30T13:18:33|12-22:16:35|dcc-tunglab-01|1|1|16000M||/cifs/hariri-long/Projects/Annchen/Scripts/ArealMSHBM|
ew198|PREEMPTED|scavenger|2023-05-17T15:01:58|2023-05-31T16:16:08|14-01:14:10|dcc-tunglab-01|1|1|16000M||/cifs/hariri-long/Projects/Annchen/Scripts/ArealMSHBM|
ew198|COMPLETED|scavenger|2023-05-17T15:01:58|2023-05-30T13:18:33|12-22:16:35|dcc-tunglab-01|1|1|16000M||/cifs/hariri-long/Projects/Annchen/Scripts/ArealMSHBM|
ew198|PREEMPTED|scavenger|2023-05-17T15:01:58|2023-05-31T16:35:14|14-01:33:16|dcc-tunglab-01|1|1|16000M||/cifs/hariri-long/Projects/Annchen/Scripts/ArealMSHBM|
ew198|COMPLETED|scavenger|2023-05-17T15:01:58|2023-05-30T13:18:33|12-22:16:35|dcc-tunglab-01|1|1|16000M||/cifs/hariri-long/Projects/Annchen/Scripts/ArealMSHBM|
ew198|PREEMPTED|scavenger|2023-05-17T15:01:58|2023-05-31T16:35:18|14-01:33:20|dcc-tunglab-01|1|1|16000M||/cifs/hariri-long/Projects/Annchen/Scripts/ArealMSHBM|
ew198|COMPLETED|scavenger|2023-05-17T15:01:58|2023-05-30T13:18:33|12-22:16:35|dcc-tunglab-01|1|1|16000M||/cifs/hariri-long/Projects/Annchen/Scripts/ArealMSHBM|
ew198|PREEMPTED|scavenger|2023-05-17T15:01:58|2023-05-31T16:35:25|14-01:33:27|dcc-tunglab-01|1|1|16000M||/cifs/hariri-long/Projects/Annchen/Scripts/ArealMSHBM|
ew198|COMPLETED|scavenger|2023-05-17T15:01:59|2023-05-30T13:18:33|12-22:16:34|dcc-tunglab-01|1|1|16000M||/cifs/hariri-long/Projects/Annchen/Scripts/ArealMSHBM|
ew198|PREEMPTED|scavenger|2023-05-17T15:01:59|2023-05-31T16:35:32|14-01:33:33|dcc-tunglab-01|1|1|16000M||/cifs/hariri-long/Projects/Annchen/Scripts/ArealMSHBM|
ew198|COMPLETED|scavenger|2023-05-17T15:01:59|2023-05-30T13:18:47|12-22:16:48|dcc-tmolab-02|1|1|16000M||/cifs/hariri-long/Projects/Annchen/Scripts/ArealMSHBM|
ew198|CANCELLED by 1455533|scavenger|2023-05-17T15:01:59|2023-06-02T11:18:52|15-20:16:53|dcc-tmolab-02|1|1|16000M||/cifs/hariri-long/Projects/Annchen/Scripts/ArealMSHBM|
ew198|COMPLETED|scavenger|2023-05-17T15:01:59|2023-05-30T13:18:47|12-22:16:48|dcc-tmolab-02|1|1|16000M||/cifs/hariri-long/Projects/Annchen/Scripts/ArealMSHBM|
ew198|CANCELLED by 1455533|scavenger|2023-05-17T15:01:59|2023-06-02T11:18:52|15-20:16:53|dcc-tmolab-02|1|1|16000M||/cifs/hariri-long/Projects/Annchen/Scripts/ArealMSHBM|
ew198|COMPLETED|scavenger|2023-05-17T15:01:59|2023-05-30T13:18:47|12-22:16:48|dcc-tmolab-02|1|1|16000M||/cifs/hariri-long/Projects/Annchen/Scripts/ArealMSHBM|
ew198|CANCELLED by 1455533|scavenger|2023-05-17T15:01:59|2023-06-02T11:18:52|15-20:16:53|dcc-tmolab-02|1|1|16000M||/cifs/hariri-long/Projects/Annchen/Scripts/ArealMSHBM|
ew198|COMPLETED|scavenger|2023-05-17T15:01:59|2023-05-30T13:18:47|12-22:16:48|dcc-tmolab-02|1|1|16000M||/cifs/hariri-long/Projects/Annchen/Scripts/ArealMSHBM|
ew198|CANCELLED by 1455533|scavenger|2023-05-17T15:01:59|2023-06-02T11:18:52|15-20:16:53|dcc-tmolab-02|1|1|16000M||/cifs/hariri-long/Projects/Annchen/Scripts/ArealMSHBM|
ew198|COMPLETED|scavenger|2023-05-17T15:01:59|2023-05-30T13:18:44|12-22:16:45|dcc-tmolab-01|1|1|16000M||/cifs/hariri-long/Projects/Annchen/Scripts/ArealMSHBM|
ew198|CANCELLED by 1455533|scavenger|2023-05-17T15:01:59|2023-06-02T11:18:52|15-20:16:53|dcc-tmolab-01|1|1|16000M||/cifs/hariri-long/Projects/Annchen/Scripts/ArealMSHBM|
ew198|COMPLETED|scavenger|2023-05-17T15:01:59|2023-05-30T13:18:44|12-22:16:45|dcc-tmolab-01|1|1|16000M||/cifs/hariri-long/Projects/Annchen/Scripts/ArealMSHBM|
ew198|CANCELLED by 1455533|scavenger|2023-05-17T15:01:59|2023-06-02T11:18:52|15-20:16:53|dcc-tmolab-01|1|1|16000M||/cifs/hariri-long/Projects/Annchen/Scripts/ArealMSHBM|
ew198|COMPLETED|scavenger|2023-05-17T15:01:59|2023-05-30T13:18:44|12-22:16:45|dcc-tmolab-01|1|1|16000M||/cifs/hariri-long/Projects/Annchen/Scripts/ArealMSHBM|
ew198|CANCELLED by 1455533|scavenger|2023-05-17T15:01:59|2023-06-02T11:18:52|15-20:16:53|dcc-tmolab-01|1|1|16000M||/cifs/hariri-long/Projects/Annchen/Scripts/ArealMSHBM|
ew198|CANCELLED by 1455533|scavenger|2023-05-17T15:01:59|2023-06-02T11:18:52|15-20:16:53|dcc-tmolab-01|1|1|16000M||/cifs/hariri-long/Projects/Annchen/Scripts/ArealMSHBM|
ew198|PREEMPTED|scavenger|2023-05-17T15:01:59|2023-05-26T08:21:05|8-17:19:06|dcc-statdept-01|1|1|16000M||/cifs/hariri-long/Projects/Annchen/Scripts/ArealMSHBM|
ew198|PREEMPTED|scavenger|2023-05-17T15:01:59|2023-05-26T08:21:05|8-17:19:06|dcc-statdept-01|1|1|16000M||/cifs/hariri-long/Projects/Annchen/Scripts/ArealMSHBM|
ew198|PREEMPTED|scavenger|2023-05-17T15:01:59|2023-05-27T14:07:00|9-23:05:01|dcc-statdept-01|1|1|16000M||/cifs/hariri-long/Projects/Annchen/Scripts/ArealMSHBM|
ew198|PREEMPTED|scavenger|2023-05-17T15:01:59|2023-05-27T14:07:00|9-23:05:01|dcc-statdept-01|1|1|16000M||/cifs/hariri-long/Projects/Annchen/Scripts/ArealMSHBM|
ew198|PREEMPTED|scavenger|2023-05-17T15:01:59|2023-05-27T14:07:00|9-23:05:01|dcc-statdept-01|1|1|16000M||/cifs/hariri-long/Projects/Annchen/Scripts/ArealMSHBM|
ew198|PREEMPTED|scavenger|2023-05-17T15:01:59|2023-05-27T14:07:00|9-23:05:01|dcc-statdept-01|1|1|16000M||/cifs/hariri-long/Projects/Annchen/Scripts/ArealMSHBM|
ew198|PREEMPTED|scavenger|2023-05-17T15:01:59|2023-05-27T14:07:00|9-23:05:01|dcc-statdept-01|1|1|16000M||/cifs/hariri-long/Projects/Annchen/Scripts/ArealMSHBM|
ew198|PREEMPTED|scavenger|2023-05-17T15:01:59|2023-05-27T14:07:00|9-23:05:01|dcc-statdept-01|1|1|16000M||/cifs/hariri-long/Projects/Annchen/Scripts/ArealMSHBM|
ew198|PREEMPTED|scavenger|2023-05-17T15:01:59|2023-05-27T14:07:00|9-23:05:01|dcc-statdept-01|1|1|16000M||/cifs/hariri-long/Projects/Annchen/Scripts/ArealMSHBM|
ew198|PREEMPTED|scavenger|2023-05-17T15:01:59|2023-05-27T14:07:00|9-23:05:01|dcc-statdept-01|1|1|16000M||/cifs/hariri-long/Projects/Annchen/Scripts/ArealMSHBM|
ew198|PREEMPTED|scavenger|2023-05-17T15:02:00|2023-05-27T14:07:00|9-23:05:00|dcc-statdept-01|1|1|16000M||/cifs/hariri-long/Projects/Annchen/Scripts/ArealMSHBM|
ew198|COMPLETED|scavenger|2023-05-17T15:02:00|2023-05-30T13:19:00|12-22:17:00|dcc-statdept-01|1|1|16000M||/cifs/hariri-long/Projects/Annchen/Scripts/ArealMSHBM|
ew198|CANCELLED by 1455533|scavenger|2023-05-17T15:02:00|2023-06-02T11:18:52|15-20:16:52|dcc-statdept-01|1|1|16000M||/cifs/hariri-long/Projects/Annchen/Scripts/ArealMSHBM|
ew198|COMPLETED|scavenger|2023-05-17T15:02:30|2023-05-30T13:19:00|12-22:16:30|dcc-statdept-01|1|1|16000M||/cifs/hariri-long/Projects/Annchen/Scripts/ArealMSHBM|
ew198|CANCELLED by 1455533|scavenger|2023-05-17T15:02:30|2023-06-02T11:18:52|15-20:16:22|dcc-savageresearch-02|1|1|16000M||/cifs/hariri-long/Projects/Annchen/Scripts/ArealMSHBM|
ew198|COMPLETED|scavenger|2023-05-17T15:02:30|2023-05-30T13:18:35|12-22:16:05|dcc-savageresearch-02|1|1|16000M||/cifs/hariri-long/Projects/Annchen/Scripts/ArealMSHBM|
ew198|COMPLETED|scavenger|2023-05-17T15:02:30|2023-05-30T13:18:35|12-22:16:05|dcc-savageresearch-02|1|1|16000M||/cifs/hariri-long/Projects/Annchen/Scripts/ArealMSHBM|
ew198|CANCELLED by 1455533|scavenger|2023-05-17T15:02:30|2023-06-02T11:18:52|15-20:16:22|dcc-savageresearch-02|1|1|16000M||/cifs/hariri-long/Projects/Annchen/Scripts/ArealMSHBM|
ew198|CANCELLED by 1455533|scavenger|2023-05-17T15:02:30|2023-06-02T11:18:52|15-20:16:22|dcc-savageresearch-02|1|1|16000M||/cifs/hariri-long/Projects/Annchen/Scripts/ArealMSHBM|
ew198|COMPLETED|scavenger|2023-05-17T15:02:30|2023-05-30T13:18:35|12-22:16:05|dcc-savageresearch-02|1|1|16000M||/cifs/hariri-long/Projects/Annchen/Scripts/ArealMSHBM|
ew198|COMPLETED|scavenger|2023-05-17T15:02:31|2023-05-30T13:18:35|12-22:16:04|dcc-savageresearch-02|1|1|16000M||/cifs/hariri-long/Projects/Annchen/Scripts/ArealMSHBM|
ew198|CANCELLED by 1455533|scavenger|2023-05-17T15:02:31|2023-06-02T11:18:52|15-20:16:21|dcc-savageresearch-02|1|1|16000M||/cifs/hariri-long/Projects/Annchen/Scripts/ArealMSHBM|
ew198|COMPLETED|scavenger|2023-05-17T15:02:31|2023-05-30T13:18:35|12-22:16:04|dcc-savageresearch-02|1|1|16000M||/cifs/hariri-long/Projects/Annchen/Scripts/ArealMSHBM|
ew198|CANCELLED by 1455533|scavenger|2023-05-17T15:02:31|2023-06-02T11:18:52|15-20:16:21|dcc-savageresearch-02|1|1|16000M||/cifs/hariri-long/Projects/Annchen/Scripts/ArealMSHBM|
ew198|CANCELLED by 1455533|scavenger|2023-05-17T15:02:31|2023-06-02T11:18:52|15-20:16:21|dcc-savageresearch-02|1|1|16000M||/cifs/hariri-long/Projects/Annchen/Scripts/ArealMSHBM|
ew198|COMPLETED|scavenger|2023-05-17T15:02:31|2023-05-30T13:18:35|12-22:16:04|dcc-savageresearch-02|1|1|16000M||/cifs/hariri-long/Projects/Annchen/Scripts/ArealMSHBM|
ew198|COMPLETED|scavenger|2023-05-17T15:02:31|2023-05-30T13:18:35|12-22:16:04|dcc-savageresearch-01|1|1|16000M||/cifs/hariri-long/Projects/Annchen/Scripts/ArealMSHBM|
ew198|CANCELLED by 1455533|scavenger|2023-05-17T15:02:31|2023-06-02T11:18:52|15-20:16:21|dcc-savageresearch-01|1|1|16000M||/cifs/hariri-long/Projects/Annchen/Scripts/ArealMSHBM|
ew198|CANCELLED by 1455533|scavenger|2023-05-17T15:02:31|2023-06-02T11:18:52|15-20:16:21|dcc-savageresearch-01|1|1|16000M||/cifs/hariri-long/Projects/Annchen/Scripts/ArealMSHBM|
ew198|COMPLETED|scavenger|2023-05-17T15:02:31|2023-05-30T13:18:35|12-22:16:04|dcc-savageresearch-01|1|1|16000M||/cifs/hariri-long/Projects/Annchen/Scripts/ArealMSHBM|
ew198|CANCELLED by 1455533|scavenger|2023-05-17T15:02:31|2023-06-02T11:18:52|15-20:16:21|dcc-savageresearch-01|1|1|16000M||/cifs/hariri-long/Projects/Annchen/Scripts/ArealMSHBM|
ew198|COMPLETED|scavenger|2023-05-17T15:02:31|2023-05-30T13:18:35|12-22:16:04|dcc-savageresearch-01|1|1|16000M||/cifs/hariri-long/Projects/Annchen/Scripts/ArealMSHBM|
ew198|CANCELLED by 1455533|scavenger|2023-05-17T15:02:31|2023-06-02T11:18:52|15-20:16:21|dcc-rausherlab-02|1|1|16000M||/cifs/hariri-long/Projects/Annchen/Scripts/ArealMSHBM|
ew198|COMPLETED|scavenger|2023-05-17T15:02:31|2023-05-30T13:18:52|12-22:16:21|dcc-rausherlab-02|1|1|16000M||/cifs/hariri-long/Projects/Annchen/Scripts/ArealMSHBM|
ew198|CANCELLED by 1455533|scavenger|2023-05-17T15:02:31|2023-06-02T11:18:52|15-20:16:21|dcc-rausherlab-01|1|1|16000M||/cifs/hariri-long/Projects/Annchen/Scripts/ArealMSHBM|
ew198|COMPLETED|scavenger|2023-05-17T15:02:31|2023-05-30T13:18:42|12-22:16:11|dcc-rausherlab-01|1|1|16000M||/cifs/hariri-long/Projects/Annchen/Scripts/ArealMSHBM|
ew198|CANCELLED by 1455533|scavenger|2023-05-17T15:02:31|2023-06-02T11:18:52|15-20:16:21|dcc-rausherlab-01|1|1|16000M||/cifs/hariri-long/Projects/Annchen/Scripts/ArealMSHBM|
ew198|COMPLETED|scavenger|2023-05-17T15:02:32|2023-05-30T13:18:42|12-22:16:10|dcc-rausherlab-01|1|1|16000M||/cifs/hariri-long/Projects/Annchen/Scripts/ArealMSHBM|
ew198|CANCELLED by 1455533|scavenger|2023-05-17T15:02:32|2023-06-02T11:18:52|15-20:16:20|dcc-rausherlab-01|1|1|16000M||/cifs/hariri-long/Projects/Annchen/Scripts/ArealMSHBM|
ew198|COMPLETED|scavenger|2023-05-17T15:02:32|2023-05-30T13:18:44|12-22:16:12|dcc-rausherlab-01|1|1|16000M||/cifs/hariri-long/Projects/Annchen/Scripts/ArealMSHBM|
ew198|CANCELLED by 1455533|scavenger|2023-05-17T15:02:32|2023-06-02T11:18:52|15-20:16:20|dcc-rausherlab-01|1|1|16000M||/cifs/hariri-long/Projects/Annchen/Scripts/ArealMSHBM|
ew198|COMPLETED|scavenger|2023-05-17T15:02:32|2023-05-30T13:18:44|12-22:16:12|dcc-rausherlab-01|1|1|16000M||/cifs/hariri-long/Projects/Annchen/Scripts/ArealMSHBM|
ew198|CANCELLED by 1455533|scavenger|2023-05-17T15:02:32|2023-06-02T11:18:52|15-20:16:20|dcc-pfister-01|1|1|16000M||/cifs/hariri-long/Projects/Annchen/Scripts/ArealMSHBM|
ew198|CANCELLED by 1455533|scavenger|2023-05-17T15:02:32|2023-06-02T11:18:52|15-20:16:20|dcc-pfister-01|1|1|16000M||/cifs/hariri-long/Projects/Annchen/Scripts/ArealMSHBM|
ew198|CANCELLED by 1455533|scavenger|2023-05-17T15:02:32|2023-06-02T11:18:52|15-20:16:20|dcc-pfister-01|1|1|16000M||/cifs/hariri-long/Projects/Annchen/Scripts/ArealMSHBM|
ew198|CANCELLED by 1455533|scavenger|2023-05-17T15:02:32|2023-06-02T11:18:52|15-20:16:20|dcc-pfister-01|1|1|16000M||/cifs/hariri-long/Projects/Annchen/Scripts/ArealMSHBM|
ew198|CANCELLED by 1455533|scavenger|2023-05-17T15:02:32|2023-06-02T11:18:52|15-20:16:20|dcc-pfister-01|1|1|16000M||/cifs/hariri-long/Projects/Annchen/Scripts/ArealMSHBM|
ew198|CANCELLED by 1455533|scavenger|2023-05-17T15:02:32|2023-06-02T11:18:52|15-20:16:20|dcc-pfister-01|1|1|16000M||/cifs/hariri-long/Projects/Annchen/Scripts/ArealMSHBM|
ew198|CANCELLED by 1455533|scavenger|2023-05-17T15:02:32|2023-06-02T11:18:52|15-20:16:20|dcc-pfister-01|1|1|16000M||/cifs/hariri-long/Projects/Annchen/Scripts/ArealMSHBM|
ew198|CANCELLED by 1455533|scavenger|2023-05-17T15:02:32|2023-06-02T11:18:52|15-20:16:20|dcc-pfister-01|1|1|16000M||/cifs/hariri-long/Projects/Annchen/Scripts/ArealMSHBM|
ew198|CANCELLED by 1455533|scavenger|2023-05-17T15:02:32|2023-06-02T11:18:52|15-20:16:20|dcc-pfister-01|1|1|16000M||/cifs/hariri-long/Projects/Annchen/Scripts/ArealMSHBM|
ew198|CANCELLED by 1455533|scavenger|2023-05-17T15:02:32|2023-06-02T11:18:52|15-20:16:20|dcc-pfister-01|1|1|16000M||/cifs/hariri-long/Projects/Annchen/Scripts/ArealMSHBM|
ew198|CANCELLED by 1455533|scavenger|2023-05-17T15:02:32|2023-06-02T11:18:52|15-20:16:20|dcc-pfister-01|1|1|16000M||/cifs/hariri-long/Projects/Annchen/Scripts/ArealMSHBM|
ew198|CANCELLED by 1455533|scavenger|2023-05-17T15:02:32|2023-06-02T11:18:52|15-20:16:20|dcc-pfister-01|1|1|16000M||/cifs/hariri-long/Projects/Annchen/Scripts/ArealMSHBM|
ew198|CANCELLED by 1455533|scavenger|2023-05-17T15:02:32|2023-06-02T11:18:52|15-20:16:20|dcc-pfister-01|1|1|16000M||/cifs/hariri-long/Projects/Annchen/Scripts/ArealMSHBM|
ark19|CANCELLED by 1027614|scavenger|2023-05-17T15:26:41|2023-05-19T17:03:21|2-01:36:40|dcc-wychem-01|1|1|16000M||/hpc/home/ark19|
ark19|CANCELLED by 1027614|scavenger|2023-05-17T15:26:41|2023-05-19T17:03:21|2-01:36:40|dcc-tmolab-01|1|1|16000M||/hpc/home/ark19|
ark19|CANCELLED by 1027614|scavenger|2023-05-17T15:26:41|2023-05-19T17:03:21|2-01:36:40|dcc-rausherlab-02|1|1|16000M||/hpc/home/ark19|
ark19|CANCELLED by 1027614|scavenger|2023-05-17T15:26:41|2023-05-19T17:03:21|2-01:36:40|dcc-rausherlab-02|1|1|16000M||/hpc/home/ark19|
gk139|CANCELLED by 1494276|scavenger|2023-05-17T15:55:17|2023-05-18T13:48:44|21:53:27|dcc-tunglab-02|1|1|5G||/hpc/group/goldberg/gk139/assort_mate/scripts/sbatches/r_sbatches|
gk139|CANCELLED by 1494276|scavenger|2023-05-17T15:55:17|2023-05-18T13:48:44|21:53:27|dcc-tunglab-02|1|1|5G||/hpc/group/goldberg/gk139/assort_mate/scripts/sbatches/r_sbatches|
bl242|PREEMPTED|scavenger|2023-05-17T16:46:52|2023-05-18T14:32:27|21:45:35|dcc-herringlab-01,dcc-hulab-[01-03]|4|200|400G||/hpc/home/bl242|
kw297|CANCELLED by 1215097|scavenger|2023-05-17T17:33:42|2023-05-18T16:50:34|23:16:52|dcc-motesa-01|1|2|8G||/hpc/group/ychenlab/DA|
kw297|CANCELLED by 1215097|scavenger|2023-05-17T17:33:42|2023-05-18T16:50:34|23:16:52|dcc-adrc-01|1|2|8G||/hpc/group/ychenlab/DA|
kw297|CANCELLED by 1215097|scavenger|2023-05-17T17:33:42|2023-05-18T16:50:34|23:16:52|dcc-adrc-01|1|2|8G||/hpc/group/ychenlab/DA|
kw297|CANCELLED by 1215097|scavenger|2023-05-17T17:33:42|2023-05-18T16:50:34|23:16:52|dcc-adrc-01|1|2|8G||/hpc/group/ychenlab/DA|
kw297|CANCELLED by 1215097|scavenger|2023-05-17T17:33:42|2023-05-18T16:50:34|23:16:52|dcc-aryalab-01|1|2|8G||/hpc/group/ychenlab/DA|
kw297|CANCELLED by 1215097|scavenger|2023-05-17T17:33:43|2023-05-18T16:50:34|23:16:51|dcc-aryalab-01|1|2|8G||/hpc/group/ychenlab/DA|
kw297|CANCELLED by 1215097|scavenger|2023-05-17T17:33:43|2023-05-18T16:50:34|23:16:51|dcc-aryalab-01|1|2|8G||/hpc/group/ychenlab/DA|
kw297|CANCELLED by 1215097|scavenger|2023-05-17T17:33:43|2023-05-18T16:50:34|23:16:51|dcc-donglab-01|1|2|8G||/hpc/group/ychenlab/DA|
kw297|CANCELLED by 1215097|scavenger|2023-05-17T17:33:43|2023-05-18T16:50:34|23:16:51|dcc-donglab-01|1|2|8G||/hpc/group/ychenlab/DA|
kw297|CANCELLED by 1215097|scavenger|2023-05-17T17:33:43|2023-05-18T16:50:34|23:16:51|dcc-donglab-01|1|2|8G||/hpc/group/ychenlab/DA|
kw297|CANCELLED by 1215097|scavenger|2023-05-17T17:33:43|2023-05-18T16:50:34|23:16:51|dcc-donglab-01|1|2|8G||/hpc/group/ychenlab/DA|
kw297|CANCELLED by 1215097|scavenger|2023-05-17T17:33:43|2023-05-18T16:50:34|23:16:51|dcc-donglab-01|1|2|8G||/hpc/group/ychenlab/DA|
kw297|CANCELLED by 1215097|scavenger|2023-05-17T17:33:43|2023-05-18T16:50:34|23:16:51|dcc-donglab-01|1|2|8G||/hpc/group/ychenlab/DA|
kw297|CANCELLED by 1215097|scavenger|2023-05-17T17:33:43|2023-05-18T16:50:34|23:16:51|dcc-donglab-01|1|2|8G||/hpc/group/ychenlab/DA|
kw297|CANCELLED by 1215097|scavenger|2023-05-17T17:33:43|2023-05-18T16:50:34|23:16:51|dcc-donglab-01|1|2|8G||/hpc/group/ychenlab/DA|
kw297|CANCELLED by 1215097|scavenger|2023-05-17T17:33:43|2023-05-18T16:50:34|23:16:51|dcc-donglab-01|1|2|8G||/hpc/group/ychenlab/DA|
kw297|CANCELLED by 1215097|scavenger|2023-05-17T17:33:43|2023-05-18T16:50:34|23:16:51|dcc-donglab-01|1|2|8G||/hpc/group/ychenlab/DA|
kw297|CANCELLED by 1215097|scavenger|2023-05-17T17:33:43|2023-05-18T16:50:34|23:16:51|dcc-donglab-01|1|2|8G||/hpc/group/ychenlab/DA|
kw297|CANCELLED by 1215097|scavenger|2023-05-17T17:33:43|2023-05-18T16:50:34|23:16:51|dcc-donglab-01|1|2|8G||/hpc/group/ychenlab/DA|
kw297|CANCELLED by 1215097|scavenger|2023-05-17T17:33:44|2023-05-18T16:50:34|23:16:50|dcc-donglab-01|1|2|8G||/hpc/group/ychenlab/DA|
kw297|CANCELLED by 1215097|scavenger|2023-05-17T17:33:44|2023-05-18T16:50:34|23:16:50|dcc-donglab-01|1|2|8G||/hpc/group/ychenlab/DA|
kw297|CANCELLED by 1215097|scavenger|2023-05-17T17:33:44|2023-05-18T16:50:34|23:16:50|dcc-donglab-01|1|2|8G||/hpc/group/ychenlab/DA|
kw297|CANCELLED by 1215097|scavenger|2023-05-17T17:33:44|2023-05-18T16:50:34|23:16:50|dcc-donglab-01|1|2|8G||/hpc/group/ychenlab/DA|
kw297|CANCELLED by 1215097|scavenger|2023-05-17T17:33:44|2023-05-18T16:50:34|23:16:50|dcc-donglab-01|1|2|8G||/hpc/group/ychenlab/DA|
kw297|CANCELLED by 1215097|scavenger|2023-05-17T17:33:44|2023-05-18T16:50:34|23:16:50|dcc-donglab-01|1|2|8G||/hpc/group/ychenlab/DA|
kw297|CANCELLED by 1215097|scavenger|2023-05-17T17:33:44|2023-05-18T16:50:34|23:16:50|dcc-nicolab-01|1|2|8G||/hpc/group/ychenlab/DA|
kw297|CANCELLED by 1215097|scavenger|2023-05-17T17:33:44|2023-05-18T16:50:34|23:16:50|dcc-nicolab-01|1|2|8G||/hpc/group/ychenlab/DA|
kw297|CANCELLED by 1215097|scavenger|2023-05-17T17:33:44|2023-05-18T16:50:34|23:16:50|dcc-nicolab-01|1|2|8G||/hpc/group/ychenlab/DA|
kw297|CANCELLED by 1215097|scavenger|2023-05-17T17:33:44|2023-05-18T16:50:34|23:16:50|dcc-nicolab-01|1|2|8G||/hpc/group/ychenlab/DA|
kw297|CANCELLED by 1215097|scavenger|2023-05-17T17:33:44|2023-05-18T16:50:34|23:16:50|dcc-nicolab-01|1|2|8G||/hpc/group/ychenlab/DA|
kw297|CANCELLED by 1215097|scavenger|2023-05-17T17:33:44|2023-05-18T16:50:34|23:16:50|dcc-nicolab-01|1|2|8G||/hpc/group/ychenlab/DA|
kw297|CANCELLED by 1215097|scavenger|2023-05-17T17:33:44|2023-05-18T16:50:34|23:16:50|dcc-nicolab-01|1|2|8G||/hpc/group/ychenlab/DA|
kw297|CANCELLED by 1215097|scavenger|2023-05-17T17:33:44|2023-05-18T16:50:34|23:16:50|dcc-nicolab-01|1|2|8G||/hpc/group/ychenlab/DA|
kw297|CANCELLED by 1215097|scavenger|2023-05-17T17:33:44|2023-05-18T16:50:34|23:16:50|dcc-nicolab-01|1|2|8G||/hpc/group/ychenlab/DA|
kw297|PREEMPTED|scavenger|2023-05-17T17:34:18|2023-05-18T12:36:56|19:02:38|dcc-velmeshevlab-01|1|2|8G||/hpc/group/ychenlab/DA|
kw297|PREEMPTED|scavenger|2023-05-17T17:34:18|2023-05-18T12:36:56|19:02:38|dcc-velmeshevlab-01|1|2|8G||/hpc/group/ychenlab/DA|
kw297|PREEMPTED|scavenger|2023-05-17T17:34:18|2023-05-18T12:36:56|19:02:38|dcc-velmeshevlab-01|1|2|8G||/hpc/group/ychenlab/DA|
kw297|PREEMPTED|scavenger|2023-05-17T17:34:18|2023-05-18T12:36:56|19:02:38|dcc-velmeshevlab-01|1|2|8G||/hpc/group/ychenlab/DA|
kw297|PREEMPTED|scavenger|2023-05-17T17:34:18|2023-05-18T12:36:56|19:02:38|dcc-velmeshevlab-01|1|2|8G||/hpc/group/ychenlab/DA|
kw297|PREEMPTED|scavenger|2023-05-17T17:34:18|2023-05-18T12:45:10|19:10:52|dcc-velmeshevlab-01|1|2|8G||/hpc/group/ychenlab/DA|
kw297|PREEMPTED|scavenger|2023-05-17T17:34:19|2023-05-18T12:45:10|19:10:51|dcc-velmeshevlab-01|1|2|8G||/hpc/group/ychenlab/DA|
kw297|PREEMPTED|scavenger|2023-05-17T17:34:19|2023-05-18T12:45:10|19:10:51|dcc-velmeshevlab-01|1|2|8G||/hpc/group/ychenlab/DA|
kw297|PREEMPTED|scavenger|2023-05-17T17:34:19|2023-05-18T12:45:10|19:10:51|dcc-velmeshevlab-01|1|2|8G||/hpc/group/ychenlab/DA|
kw297|PREEMPTED|scavenger|2023-05-17T17:34:19|2023-05-18T12:45:10|19:10:51|dcc-velmeshevlab-01|1|2|8G||/hpc/group/ychenlab/DA|
kw297|PREEMPTED|scavenger|2023-05-17T17:34:19|2023-05-18T12:45:10|19:10:51|dcc-velmeshevlab-01|1|2|8G||/hpc/group/ychenlab/DA|
kw297|CANCELLED by 1215097|scavenger|2023-05-17T17:34:19|2023-05-18T16:50:34|23:16:15|dcc-pbenfeylab-01|1|2|8G||/hpc/group/ychenlab/DA|
rgh2|CANCELLED by 1005100|scavenger|2023-05-17T17:52:54|2023-05-18T11:04:20|17:11:26|dcc-pbenfeylab-02|1|1|50G||/work/rgh2/helix.coil/helix-coil-prediction/build|
rgh2|CANCELLED by 1005100|scavenger|2023-05-17T17:57:18|2023-05-18T11:04:20|17:07:02|dcc-pbenfeylab-02|1|1|50G||/hpc/group/schmidler/rgh2/cmake|
dg304|CANCELLED by 1492774|scavenger|2023-05-17T19:27:59|2023-05-22T14:33:03|4-19:05:04|dcc-tunglab-02|1|1|2G||/work/dg304/dala/peltigera_phylogenomics|
jo117|COMPLETED|scavenger|2023-05-17T19:06:59|2023-05-18T08:36:32|13:29:33|dcc-compeb-01|1|12|120G||/work/jo117/DiaoLab/hicar_v2/human/work/d1/2bfcf2eff27850dfef2b94fde62c3b|
jo117|COMPLETED|scavenger|2023-05-17T20:09:35|2023-05-19T01:28:09|1-05:18:34|dcc-bragg-01|1|12|120G||/work/jo117/DiaoLab/hicar_v2/human/work/67/535850e5a19c545e3de5c01e54dc5e|
jo117|COMPLETED|scavenger|2023-05-17T20:32:46|2023-05-18T14:17:28|17:44:42|dcc-pfister-01|1|12|120G||/work/jo117/DiaoLab/hicar_v2/human/work/a2/74c317473c5df495407853df263df1|
rgh2|CANCELLED by 1005100|scavenger|2023-05-17T20:54:55|2023-05-18T11:04:20|14:09:25|dcc-velmeshevlab-01|1|1|50G||/work/rgh2/helix.coil/helix-coil-prediction|
hk288|OUT_OF_MEMORY|scavenger|2023-05-17T22:39:19|2023-05-23T09:00:38|5-10:21:19|dcc-bragg-04|1|40|80G||/hpc/group/mastatlab/hk288/code_hp_paral|
hk288|OUT_OF_MEMORY|scavenger|2023-05-17T22:39:19|2023-05-24T05:21:14|6-06:41:55|dcc-compeb-03|1|40|80G||/hpc/group/mastatlab/hk288/code_hp_paral|
hk288|OUT_OF_MEMORY|scavenger|2023-05-17T22:39:19|2023-05-23T12:28:43|5-13:49:24|dcc-hashimilab-01|1|40|80G||/hpc/group/mastatlab/hk288/code_hp_paral|
hk288|PREEMPTED|scavenger|2023-05-17T22:39:19|2023-05-18T16:19:17|17:39:58|dcc-kirschlab-01|1|40|80G||/hpc/group/mastatlab/hk288/code_hp_paral|
smokeauth2-tst|COMPLETED|scavenger|2023-05-18T06:01:30|2023-05-18T06:01:31|00:00:01|dcc-wychem-01|1|1|2G||/hpc/home/smokeauth2-tst|
smokeauth2-tst|COMPLETED|scavenger|2023-05-18T06:01:32|2023-05-18T06:01:33|00:00:01|dcc-wychem-01|1|1|2G||/hpc/home/smokeauth2-tst|
smokeauth2-tst|COMPLETED|scavenger|2023-05-18T06:01:35|2023-05-18T06:01:35|00:00:00|dcc-wychem-01|1|1|2G||/hpc/home/smokeauth2-tst|
smokeauth2-tst|COMPLETED|scavenger|2023-05-18T06:01:37|2023-05-18T06:01:37|00:00:00|dcc-wychem-01|1|1|2G||/hpc/home/smokeauth2-tst|
smokeauth2-tst|COMPLETED|scavenger|2023-05-18T06:01:39|2023-05-18T06:01:39|00:00:00|dcc-wychem-01|1|1|2G||/hpc/home/smokeauth2-tst|
smokeauth2-tst|COMPLETED|scavenger|2023-05-18T06:11:31|2023-05-18T06:11:31|00:00:00|dcc-wychem-01|1|1|2G||/hpc/home/smokeauth2-tst|
smokeauth2-tst|COMPLETED|scavenger|2023-05-18T06:11:33|2023-05-18T06:11:33|00:00:00|dcc-wychem-01|1|1|2G||/hpc/home/smokeauth2-tst|
smokeauth2-tst|COMPLETED|scavenger|2023-05-18T06:11:35|2023-05-18T06:11:35|00:00:00|dcc-wychem-01|1|1|2G||/hpc/home/smokeauth2-tst|
smokeauth2-tst|COMPLETED|scavenger|2023-05-18T06:11:37|2023-05-18T06:11:37|00:00:00|dcc-wychem-01|1|1|2G||/hpc/home/smokeauth2-tst|
smokeauth2-tst|COMPLETED|scavenger|2023-05-18T06:11:39|2023-05-18T06:11:39|00:00:00|dcc-wychem-01|1|1|2G||/hpc/home/smokeauth2-tst|
smokeauth2-tst|COMPLETED|scavenger|2023-05-18T06:21:31|2023-05-18T06:21:31|00:00:00|dcc-wychem-01|1|1|2G||/hpc/home/smokeauth2-tst|
smokeauth2-tst|COMPLETED|scavenger|2023-05-18T06:21:33|2023-05-18T06:21:33|00:00:00|dcc-wychem-01|1|1|2G||/hpc/home/smokeauth2-tst|
smokeauth2-tst|COMPLETED|scavenger|2023-05-18T06:21:35|2023-05-18T06:21:35|00:00:00|dcc-wychem-01|1|1|2G||/hpc/home/smokeauth2-tst|
smokeauth2-tst|COMPLETED|scavenger|2023-05-18T06:21:37|2023-05-18T06:21:38|00:00:01|dcc-wychem-01|1|1|2G||/hpc/home/smokeauth2-tst|
smokeauth2-tst|COMPLETED|scavenger|2023-05-18T06:21:39|2023-05-18T06:21:40|00:00:01|dcc-wychem-01|1|1|2G||/hpc/home/smokeauth2-tst|
smokeauth2-tst|COMPLETED|scavenger|2023-05-18T06:31:30|2023-05-18T06:31:30|00:00:00|dcc-wychem-01|1|1|2G||/hpc/home/smokeauth2-tst|
smokeauth2-tst|COMPLETED|scavenger|2023-05-18T06:31:32|2023-05-18T06:31:32|00:00:00|dcc-wychem-01|1|1|2G||/hpc/home/smokeauth2-tst|
smokeauth2-tst|COMPLETED|scavenger|2023-05-18T06:31:34|2023-05-18T06:31:34|00:00:00|dcc-wychem-01|1|1|2G||/hpc/home/smokeauth2-tst|
smokeauth2-tst|COMPLETED|scavenger|2023-05-18T06:31:36|2023-05-18T06:31:36|00:00:00|dcc-wychem-01|1|1|2G||/hpc/home/smokeauth2-tst|
smokeauth2-tst|COMPLETED|scavenger|2023-05-18T06:31:38|2023-05-18T06:31:39|00:00:01|dcc-wychem-01|1|1|2G||/hpc/home/smokeauth2-tst|
smokeauth2-tst|COMPLETED|scavenger|2023-05-18T06:41:31|2023-05-18T06:41:31|00:00:00|dcc-wychem-01|1|1|2G||/hpc/home/smokeauth2-tst|
smokeauth2-tst|COMPLETED|scavenger|2023-05-18T06:41:33|2023-05-18T06:41:33|00:00:00|dcc-wychem-01|1|1|2G||/hpc/home/smokeauth2-tst|
smokeauth2-tst|COMPLETED|scavenger|2023-05-18T06:41:35|2023-05-18T06:41:35|00:00:00|dcc-wychem-01|1|1|2G||/hpc/home/smokeauth2-tst|
smokeauth2-tst|COMPLETED|scavenger|2023-05-18T06:41:37|2023-05-18T06:41:37|00:00:00|dcc-wychem-01|1|1|2G||/hpc/home/smokeauth2-tst|
smokeauth2-tst|COMPLETED|scavenger|2023-05-18T06:41:39|2023-05-18T06:41:39|00:00:00|dcc-wychem-01|1|1|2G||/hpc/home/smokeauth2-tst|
smokeauth2-tst|COMPLETED|scavenger|2023-05-18T06:51:30|2023-05-18T06:51:30|00:00:00|dcc-wychem-01|1|1|2G||/hpc/home/smokeauth2-tst|
smokeauth2-tst|COMPLETED|scavenger|2023-05-18T06:51:32|2023-05-18T06:51:32|00:00:00|dcc-wychem-01|1|1|2G||/hpc/home/smokeauth2-tst|
smokeauth2-tst|COMPLETED|scavenger|2023-05-18T06:51:34|2023-05-18T06:51:35|00:00:01|dcc-wychem-01|1|1|2G||/hpc/home/smokeauth2-tst|
smokeauth2-tst|COMPLETED|scavenger|2023-05-18T06:51:36|2023-05-18T06:51:36|00:00:00|dcc-wychem-01|1|1|2G||/hpc/home/smokeauth2-tst|
smokeauth2-tst|COMPLETED|scavenger|2023-05-18T06:51:38|2023-05-18T06:51:38|00:00:00|dcc-wychem-01|1|1|2G||/hpc/home/smokeauth2-tst|
