pz19|RUNNING|scavenger|2023-03-29T09:52:04|Unknown|77-04:19:47|dcc-fergusonlab-05|1|10|457000M||/work/pz19/Jiaqi/13e14o|
xz195|CANCELLED by 1160658|scavenger|2023-04-13T22:58:30|2023-05-16T17:48:06|32-18:49:36|dcc-tmolab-01|1|1|50G||/hpc/group/allenlab/scarlett/pipeline_working|
xz195|CANCELLED by 1160658|scavenger|2023-04-13T22:59:00|2023-05-16T17:48:06|32-18:49:06|dcc-nsoe-it-01|1|1|50G||/hpc/group/allenlab/scarlett/pipeline_working|
smokeauth2-tst|NODE_FAIL|scavenger|2023-04-18T10:56:00|2023-05-29T17:29:37|41-06:33:37|dcc-tunglab-02|1|1|2G||/hpc/home/smokeauth2-tst|
smokeauth2-tst|RUNNING|scavenger|2023-04-18T12:49:48|Unknown|57-01:22:03|dcc-noor-01|1|1|2G||/hpc/home/smokeauth2-tst|
fjm7|COMPLETED|scavenger|2023-04-23T15:19:04|2023-05-18T23:19:00|25-07:59:56|dcc-noor-02|1|1|2G||/hpc/group/brownlab/fjm7/new-data-collection/slurm-runners|
fjm7|COMPLETED|scavenger|2023-04-23T15:19:04|2023-05-18T23:01:43|25-07:42:39|dcc-noor-02|1|1|2G||/hpc/group/brownlab/fjm7/new-data-collection/slurm-runners|
fjm7|RUNNING|scavenger|2023-04-23T15:19:07|Unknown|51-22:52:44|dcc-noor-01|1|1|2G||/hpc/group/brownlab/fjm7/new-data-collection/slurm-runners|
fjm7|RUNNING|scavenger|2023-04-23T15:19:07|Unknown|51-22:52:44|dcc-noor-01|1|1|2G||/hpc/group/brownlab/fjm7/new-data-collection/slurm-runners|
fjm7|RUNNING|scavenger|2023-04-23T15:19:07|Unknown|51-22:52:44|dcc-noor-01|1|1|2G||/hpc/group/brownlab/fjm7/new-data-collection/slurm-runners|
fjm7|RUNNING|scavenger|2023-04-23T15:19:08|Unknown|51-22:52:43|dcc-noor-01|1|1|2G||/hpc/group/brownlab/fjm7/new-data-collection/slurm-runners|
fjm7|RUNNING|scavenger|2023-04-23T15:19:08|Unknown|51-22:52:43|dcc-noor-01|1|1|2G||/hpc/group/brownlab/fjm7/new-data-collection/slurm-runners|
xz195|CANCELLED by 1160658|scavenger|2023-04-24T08:29:18|2023-05-16T17:48:21|22-09:19:03|dcc-carin-25|1|1|50G||/hpc/group/allenlab/scarlett/pipeline_working|
xz195|CANCELLED by 1160658|scavenger|2023-04-24T08:29:18|2023-05-16T17:48:21|22-09:19:03|dcc-carin-24|1|1|50G||/hpc/group/allenlab/scarlett/pipeline_working|
xz195|CANCELLED by 1160658|scavenger|2023-04-24T08:29:18|2023-05-16T17:48:06|22-09:18:48|dcc-carin-22|1|1|50G||/hpc/group/allenlab/scarlett/pipeline_working|
xz195|CANCELLED by 1160658|scavenger|2023-04-24T08:29:18|2023-05-16T17:48:06|22-09:18:48|dcc-carin-21|1|1|50G||/hpc/group/allenlab/scarlett/pipeline_working|
xz195|CANCELLED by 1160658|scavenger|2023-04-24T08:29:18|2023-05-16T17:48:06|22-09:18:48|dcc-carin-20|1|1|50G||/hpc/group/allenlab/scarlett/pipeline_working|
xz195|CANCELLED by 1160658|scavenger|2023-04-24T08:29:18|2023-05-16T17:48:06|22-09:18:48|dcc-carin-19|1|1|50G||/hpc/group/allenlab/scarlett/pipeline_working|
bc276|CANCELLED by 1467409|scavenger|2023-04-26T20:52:10|2023-05-19T21:28:42|23-00:36:32|dcc-tunglab-01|1|1|100G||/hpc/group/goldberg/bc276/P.vavax_Recombination/admixture/pong|
lh342|TIMEOUT|scavenger|2023-05-02T03:05:50|2023-06-01T03:06:14|30-00:00:24|dcc-compeb-02|1|8|16G||/hpc/home/lh342/ondemand/data/sys/dashboard/batch_connect/sys/bc_desktop/dcc/output/702824cf-eb77-47a5-9f97-205f479dd2d4|
pietr007|CANCELLED by 0|scavenger|2023-05-02T16:44:24|2023-05-16T10:10:26|13-17:26:02|dcc-pbenfeylab-02|1|1|128G||/hpc/home/pietr007|
pz19|TIMEOUT|scavenger|2023-05-07T22:50:59|2023-05-18T12:51:17|10-14:00:18|dcc-compeb-01|1|16|25584M||/work/pz19/Wang/Copper/Silicon/TS_06_3Lig/B3LYP|
cw446|CANCELLED by 1401348|scavenger|2023-05-08T23:40:21|2023-05-30T10:48:58|21-11:08:37|dcc-fergusonlab-04|1|5|300G||/hpc/group/jilab/changxin|
smokeauth2-tst|RUNNING|scavenger|2023-05-09T00:51:37|Unknown|36-13:20:14|dcc-wychem-01|1|1|2G||/hpc/home/smokeauth2-tst|
pz19|COMPLETED|scavenger|2023-05-10T09:53:22|2023-05-22T13:35:04|12-03:41:42|dcc-adrc-01|1|16|32000M||/work/pz19/Dexter|
cw446|OUT_OF_MEMORY|scavenger|2023-05-11T08:16:08|2023-05-17T08:07:06|5-23:50:58|dcc-dunsonlab-01|1|32|500G||/hpc/group/jilab/changxin/project/Bag3_muscle_injury/vcam1_fap/scenic|
ew198|CANCELLED by 1455533|scavenger|2023-05-11T13:26:07|2023-05-17T14:59:19|6-01:33:12|dcc-tunglab-02|1|1|125G||/cifs/hariri-long/Projects/Annchen/Scripts/ArealMSHBM|
ew198|PREEMPTED|scavenger|2023-05-11T13:26:07|2023-05-16T18:21:44|5-04:55:37|dcc-youlab-01|1|1|16000M||/cifs/hariri-long/Projects/Annchen/Scripts/ArealMSHBM|
ew198|CANCELLED by 1455533|scavenger|2023-05-11T13:26:07|2023-05-17T14:59:19|6-01:33:12|dcc-youlab-01|1|1|16000M||/cifs/hariri-long/Projects/Annchen/Scripts/ArealMSHBM|
ew198|CANCELLED by 1455533|scavenger|2023-05-11T13:26:07|2023-05-17T14:59:19|6-01:33:12|dcc-tunglab-02|1|1|125G||/cifs/hariri-long/Projects/Annchen/Scripts/ArealMSHBM|
ew198|CANCELLED by 1455533|scavenger|2023-05-11T13:26:07|2023-05-17T14:59:19|6-01:33:12|dcc-youlab-01|1|1|16000M||/cifs/hariri-long/Projects/Annchen/Scripts/ArealMSHBM|
ew198|CANCELLED by 1455533|scavenger|2023-05-11T13:26:07|2023-05-17T14:59:19|6-01:33:12|dcc-wychem-01|1|1|16000M||/cifs/hariri-long/Projects/Annchen/Scripts/ArealMSHBM|
ew198|CANCELLED by 1455533|scavenger|2023-05-11T13:26:07|2023-05-17T14:59:19|6-01:33:12|dcc-wychem-01|1|1|16000M||/cifs/hariri-long/Projects/Annchen/Scripts/ArealMSHBM|
ew198|CANCELLED by 1455533|scavenger|2023-05-11T13:26:07|2023-05-17T14:59:19|6-01:33:12|dcc-wychem-01|1|1|16000M||/cifs/hariri-long/Projects/Annchen/Scripts/ArealMSHBM|
ew198|CANCELLED by 1455533|scavenger|2023-05-11T13:26:07|2023-05-17T14:59:19|6-01:33:12|dcc-wychem-01|1|1|16000M||/cifs/hariri-long/Projects/Annchen/Scripts/ArealMSHBM|
ew198|CANCELLED by 1455533|scavenger|2023-05-11T13:26:07|2023-05-17T14:59:19|6-01:33:12|dcc-wychem-01|1|1|16000M||/cifs/hariri-long/Projects/Annchen/Scripts/ArealMSHBM|
ew198|CANCELLED by 1455533|scavenger|2023-05-11T13:26:07|2023-05-17T14:59:19|6-01:33:12|dcc-tunglab-02|1|1|16000M||/cifs/hariri-long/Projects/Annchen/Scripts/ArealMSHBM|
ew198|CANCELLED by 1455533|scavenger|2023-05-11T13:26:07|2023-05-17T14:59:19|6-01:33:12|dcc-tunglab-02|1|1|16000M||/cifs/hariri-long/Projects/Annchen/Scripts/ArealMSHBM|
ew198|CANCELLED by 1455533|scavenger|2023-05-11T13:26:07|2023-05-17T14:59:19|6-01:33:12|dcc-tunglab-02|1|1|16000M||/cifs/hariri-long/Projects/Annchen/Scripts/ArealMSHBM|
ew198|CANCELLED by 1455533|scavenger|2023-05-11T13:26:07|2023-05-17T14:59:19|6-01:33:12|dcc-tunglab-01|1|1|16000M||/cifs/hariri-long/Projects/Annchen/Scripts/ArealMSHBM|
ew198|CANCELLED by 1455533|scavenger|2023-05-11T13:26:08|2023-05-17T14:59:19|6-01:33:11|dcc-tunglab-01|1|1|16000M||/cifs/hariri-long/Projects/Annchen/Scripts/ArealMSHBM|
ew198|CANCELLED by 1455533|scavenger|2023-05-11T13:26:08|2023-05-17T14:59:19|6-01:33:11|dcc-tunglab-01|1|1|16000M||/cifs/hariri-long/Projects/Annchen/Scripts/ArealMSHBM|
ew198|CANCELLED by 1455533|scavenger|2023-05-11T13:26:08|2023-05-17T14:59:19|6-01:33:11|dcc-tunglab-01|1|1|16000M||/cifs/hariri-long/Projects/Annchen/Scripts/ArealMSHBM|
ew198|CANCELLED by 1455533|scavenger|2023-05-11T13:26:08|2023-05-17T14:59:19|6-01:33:11|dcc-tunglab-01|1|1|16000M||/cifs/hariri-long/Projects/Annchen/Scripts/ArealMSHBM|
ew198|CANCELLED by 1455533|scavenger|2023-05-11T13:26:08|2023-05-17T14:59:19|6-01:33:11|dcc-tunglab-01|1|1|16000M||/cifs/hariri-long/Projects/Annchen/Scripts/ArealMSHBM|
ew198|CANCELLED by 1455533|scavenger|2023-05-11T13:26:08|2023-05-17T14:59:19|6-01:33:11|dcc-tunglab-01|1|1|16000M||/cifs/hariri-long/Projects/Annchen/Scripts/ArealMSHBM|
ew198|CANCELLED by 1455533|scavenger|2023-05-11T13:26:08|2023-05-17T14:59:19|6-01:33:11|dcc-tunglab-01|1|1|16000M||/cifs/hariri-long/Projects/Annchen/Scripts/ArealMSHBM|
ew198|CANCELLED by 1455533|scavenger|2023-05-11T13:26:08|2023-05-17T14:59:19|6-01:33:11|dcc-tunglab-01|1|1|16000M||/cifs/hariri-long/Projects/Annchen/Scripts/ArealMSHBM|
ew198|CANCELLED by 1455533|scavenger|2023-05-11T13:26:08|2023-05-17T14:59:19|6-01:33:11|dcc-tunglab-01|1|1|16000M||/cifs/hariri-long/Projects/Annchen/Scripts/ArealMSHBM|
ew198|CANCELLED by 1455533|scavenger|2023-05-11T13:26:09|2023-05-17T14:59:19|6-01:33:10|dcc-tmolab-02|1|1|16000M||/cifs/hariri-long/Projects/Annchen/Scripts/ArealMSHBM|
ew198|CANCELLED by 1455533|scavenger|2023-05-11T13:26:09|2023-05-17T14:59:19|6-01:33:10|dcc-tmolab-02|1|1|16000M||/cifs/hariri-long/Projects/Annchen/Scripts/ArealMSHBM|
ew198|CANCELLED by 1455533|scavenger|2023-05-11T13:26:09|2023-05-17T14:59:19|6-01:33:10|dcc-tmolab-02|1|1|16000M||/cifs/hariri-long/Projects/Annchen/Scripts/ArealMSHBM|
ew198|CANCELLED by 1455533|scavenger|2023-05-11T13:26:09|2023-05-17T14:59:19|6-01:33:10|dcc-tmolab-02|1|1|16000M||/cifs/hariri-long/Projects/Annchen/Scripts/ArealMSHBM|
ew198|CANCELLED by 1455533|scavenger|2023-05-11T13:26:09|2023-05-17T14:59:19|6-01:33:10|dcc-tmolab-02|1|1|16000M||/cifs/hariri-long/Projects/Annchen/Scripts/ArealMSHBM|
ew198|CANCELLED by 1455533|scavenger|2023-05-11T13:26:09|2023-05-17T14:59:19|6-01:33:10|dcc-tmolab-02|1|1|16000M||/cifs/hariri-long/Projects/Annchen/Scripts/ArealMSHBM|
ew198|CANCELLED by 1455533|scavenger|2023-05-11T13:26:09|2023-05-17T14:59:19|6-01:33:10|dcc-tmolab-02|1|1|16000M||/cifs/hariri-long/Projects/Annchen/Scripts/ArealMSHBM|
ew198|CANCELLED by 1455533|scavenger|2023-05-11T13:26:10|2023-05-17T14:59:19|6-01:33:09|dcc-tmolab-02|1|1|16000M||/cifs/hariri-long/Projects/Annchen/Scripts/ArealMSHBM|
ew198|CANCELLED by 1455533|scavenger|2023-05-11T13:26:10|2023-05-17T14:59:19|6-01:33:09|dcc-statdept-01|1|1|16000M||/cifs/hariri-long/Projects/Annchen/Scripts/ArealMSHBM|
ew198|CANCELLED by 1455533|scavenger|2023-05-11T13:26:10|2023-05-17T14:59:19|6-01:33:09|dcc-statdept-01|1|1|16000M||/cifs/hariri-long/Projects/Annchen/Scripts/ArealMSHBM|
ew198|CANCELLED by 1455533|scavenger|2023-05-11T13:26:10|2023-05-17T14:59:19|6-01:33:09|dcc-statdept-01|1|1|16000M||/cifs/hariri-long/Projects/Annchen/Scripts/ArealMSHBM|
ew198|CANCELLED by 1455533|scavenger|2023-05-11T13:26:10|2023-05-17T14:59:19|6-01:33:09|dcc-statdept-01|1|1|16000M||/cifs/hariri-long/Projects/Annchen/Scripts/ArealMSHBM|
ew198|CANCELLED by 1455533|scavenger|2023-05-11T13:26:10|2023-05-17T14:59:19|6-01:33:09|dcc-statdept-01|1|1|16000M||/cifs/hariri-long/Projects/Annchen/Scripts/ArealMSHBM|
ew198|CANCELLED by 1455533|scavenger|2023-05-11T13:26:10|2023-05-17T14:59:19|6-01:33:09|dcc-statdept-01|1|1|16000M||/cifs/hariri-long/Projects/Annchen/Scripts/ArealMSHBM|
ew198|CANCELLED by 1455533|scavenger|2023-05-11T13:26:10|2023-05-17T14:59:19|6-01:33:09|dcc-statdept-01|1|1|16000M||/cifs/hariri-long/Projects/Annchen/Scripts/ArealMSHBM|
ew198|CANCELLED by 1455533|scavenger|2023-05-11T13:26:10|2023-05-17T14:59:19|6-01:33:09|dcc-statdept-01|1|1|16000M||/cifs/hariri-long/Projects/Annchen/Scripts/ArealMSHBM|
ew198|CANCELLED by 1455533|scavenger|2023-05-11T13:26:10|2023-05-17T14:59:19|6-01:33:09|dcc-statdept-01|1|1|16000M||/cifs/hariri-long/Projects/Annchen/Scripts/ArealMSHBM|
ew198|CANCELLED by 1455533|scavenger|2023-05-11T13:26:10|2023-05-17T14:59:19|6-01:33:09|dcc-statdept-01|1|1|16000M||/cifs/hariri-long/Projects/Annchen/Scripts/ArealMSHBM|
ew198|CANCELLED by 1455533|scavenger|2023-05-11T13:26:10|2023-05-17T14:59:19|6-01:33:09|dcc-statdept-01|1|1|16000M||/cifs/hariri-long/Projects/Annchen/Scripts/ArealMSHBM|
ew198|CANCELLED by 1455533|scavenger|2023-05-11T13:26:10|2023-05-17T14:59:19|6-01:33:09|dcc-savageresearch-02|1|1|16000M||/cifs/hariri-long/Projects/Annchen/Scripts/ArealMSHBM|
ew198|CANCELLED by 1455533|scavenger|2023-05-11T13:26:10|2023-05-17T14:59:19|6-01:33:09|dcc-savageresearch-02|1|1|16000M||/cifs/hariri-long/Projects/Annchen/Scripts/ArealMSHBM|
ew198|CANCELLED by 1455533|scavenger|2023-05-11T13:26:10|2023-05-17T14:59:19|6-01:33:09|dcc-savageresearch-02|1|1|16000M||/cifs/hariri-long/Projects/Annchen/Scripts/ArealMSHBM|
ew198|CANCELLED by 1455533|scavenger|2023-05-11T13:26:11|2023-05-17T14:59:19|6-01:33:08|dcc-savageresearch-02|1|1|16000M||/cifs/hariri-long/Projects/Annchen/Scripts/ArealMSHBM|
ew198|CANCELLED by 1455533|scavenger|2023-05-11T13:26:11|2023-05-17T14:59:19|6-01:33:08|dcc-savageresearch-02|1|1|16000M||/cifs/hariri-long/Projects/Annchen/Scripts/ArealMSHBM|
ew198|CANCELLED by 1455533|scavenger|2023-05-11T13:26:11|2023-05-17T14:59:19|6-01:33:08|dcc-savageresearch-02|1|1|16000M||/cifs/hariri-long/Projects/Annchen/Scripts/ArealMSHBM|
ew198|CANCELLED by 1455533|scavenger|2023-05-11T13:26:11|2023-05-17T14:59:19|6-01:33:08|dcc-savageresearch-02|1|1|16000M||/cifs/hariri-long/Projects/Annchen/Scripts/ArealMSHBM|
ew198|CANCELLED by 1455533|scavenger|2023-05-11T13:26:11|2023-05-17T14:59:19|6-01:33:08|dcc-savageresearch-02|1|1|16000M||/cifs/hariri-long/Projects/Annchen/Scripts/ArealMSHBM|
ew198|CANCELLED by 1455533|scavenger|2023-05-11T13:26:11|2023-05-17T14:59:19|6-01:33:08|dcc-savageresearch-01|1|1|16000M||/cifs/hariri-long/Projects/Annchen/Scripts/ArealMSHBM|
ew198|CANCELLED by 1455533|scavenger|2023-05-11T13:26:11|2023-05-17T14:59:19|6-01:33:08|dcc-rausherlab-01|1|1|16000M||/cifs/hariri-long/Projects/Annchen/Scripts/ArealMSHBM|
ew198|CANCELLED by 1455533|scavenger|2023-05-11T13:26:12|2023-05-17T14:59:19|6-01:33:07|dcc-rausherlab-01|1|1|16000M||/cifs/hariri-long/Projects/Annchen/Scripts/ArealMSHBM|
ew198|CANCELLED by 1455533|scavenger|2023-05-11T13:26:12|2023-05-17T14:59:19|6-01:33:07|dcc-pfister-01|1|1|16000M||/cifs/hariri-long/Projects/Annchen/Scripts/ArealMSHBM|
ew198|CANCELLED by 1455533|scavenger|2023-05-11T13:26:12|2023-05-17T14:59:19|6-01:33:07|dcc-pfister-01|1|1|16000M||/cifs/hariri-long/Projects/Annchen/Scripts/ArealMSHBM|
ew198|CANCELLED by 1455533|scavenger|2023-05-11T13:26:12|2023-05-17T14:59:19|6-01:33:07|dcc-pfister-01|1|1|16000M||/cifs/hariri-long/Projects/Annchen/Scripts/ArealMSHBM|
ew198|CANCELLED by 1455533|scavenger|2023-05-11T13:26:12|2023-05-17T14:59:19|6-01:33:07|dcc-pfister-01|1|1|16000M||/cifs/hariri-long/Projects/Annchen/Scripts/ArealMSHBM|
ew198|CANCELLED by 1455533|scavenger|2023-05-11T13:26:12|2023-05-17T14:59:19|6-01:33:07|dcc-pfister-01|1|1|16000M||/cifs/hariri-long/Projects/Annchen/Scripts/ArealMSHBM|
ew198|CANCELLED by 1455533|scavenger|2023-05-11T13:26:12|2023-05-17T14:59:19|6-01:33:07|dcc-pfister-01|1|1|16000M||/cifs/hariri-long/Projects/Annchen/Scripts/ArealMSHBM|
ew198|CANCELLED by 1455533|scavenger|2023-05-11T13:26:12|2023-05-17T14:59:19|6-01:33:07|dcc-pfister-01|1|1|16000M||/cifs/hariri-long/Projects/Annchen/Scripts/ArealMSHBM|
ew198|CANCELLED by 1455533|scavenger|2023-05-11T13:26:44|2023-05-17T14:59:19|6-01:32:35|dcc-youlab-01|1|1|16000M||/cifs/hariri-long/Projects/Annchen/Scripts/ArealMSHBM|
ew198|CANCELLED by 1455533|scavenger|2023-05-11T13:26:44|2023-05-17T14:59:19|6-01:32:35|dcc-pfister-01|1|1|16000M||/cifs/hariri-long/Projects/Annchen/Scripts/ArealMSHBM|
ew198|CANCELLED by 1455533|scavenger|2023-05-11T13:26:44|2023-05-17T14:59:19|6-01:32:35|dcc-pfister-01|1|1|16000M||/cifs/hariri-long/Projects/Annchen/Scripts/ArealMSHBM|
ew198|CANCELLED by 1455533|scavenger|2023-05-11T13:26:44|2023-05-17T14:59:19|6-01:32:35|dcc-pfister-01|1|1|16000M||/cifs/hariri-long/Projects/Annchen/Scripts/ArealMSHBM|
ew198|CANCELLED by 1455533|scavenger|2023-05-11T13:26:44|2023-05-17T14:59:19|6-01:32:35|dcc-pfister-01|1|1|16000M||/cifs/hariri-long/Projects/Annchen/Scripts/ArealMSHBM|
ew198|CANCELLED by 1455533|scavenger|2023-05-11T13:26:44|2023-05-17T14:59:19|6-01:32:35|dcc-pfister-01|1|1|16000M||/cifs/hariri-long/Projects/Annchen/Scripts/ArealMSHBM|
ew198|CANCELLED by 1455533|scavenger|2023-05-11T13:26:44|2023-05-17T14:59:19|6-01:32:35|dcc-pfister-01|1|1|16000M||/cifs/hariri-long/Projects/Annchen/Scripts/ArealMSHBM|
ew198|CANCELLED by 1455533|scavenger|2023-05-11T13:26:44|2023-05-17T14:59:19|6-01:32:35|dcc-pfister-01|1|1|16000M||/cifs/hariri-long/Projects/Annchen/Scripts/ArealMSHBM|
ew198|CANCELLED by 1455533|scavenger|2023-05-11T13:26:44|2023-05-17T14:59:19|6-01:32:35|dcc-pfister-01|1|1|16000M||/cifs/hariri-long/Projects/Annchen/Scripts/ArealMSHBM|
ew198|CANCELLED by 1455533|scavenger|2023-05-11T13:26:44|2023-05-17T14:59:19|6-01:32:35|dcc-pfister-01|1|1|16000M||/cifs/hariri-long/Projects/Annchen/Scripts/ArealMSHBM|
ew198|CANCELLED by 1455533|scavenger|2023-05-11T13:26:44|2023-05-17T14:59:19|6-01:32:35|dcc-pfister-01|1|1|16000M||/cifs/hariri-long/Projects/Annchen/Scripts/ArealMSHBM|
ew198|CANCELLED by 1455533|scavenger|2023-05-11T13:26:44|2023-05-17T14:59:19|6-01:32:35|dcc-pfister-01|1|1|16000M||/cifs/hariri-long/Projects/Annchen/Scripts/ArealMSHBM|
ew198|CANCELLED by 1455533|scavenger|2023-05-11T13:26:44|2023-05-17T14:59:19|6-01:32:35|dcc-pfister-01|1|1|16000M||/cifs/hariri-long/Projects/Annchen/Scripts/ArealMSHBM|
ew198|PREEMPTED|scavenger|2023-05-11T13:26:46|2023-05-16T14:22:10|5-00:55:24|dcc-pbenfeylab-01|1|1|16000M||/cifs/hariri-long/Projects/Annchen/Scripts/ArealMSHBM|
ew198|PREEMPTED|scavenger|2023-05-11T13:26:46|2023-05-16T14:22:10|5-00:55:24|dcc-pbenfeylab-01|1|1|16000M||/cifs/hariri-long/Projects/Annchen/Scripts/ArealMSHBM|
ew198|PREEMPTED|scavenger|2023-05-11T13:26:46|2023-05-16T14:22:10|5-00:55:24|dcc-pbenfeylab-01|1|1|16000M||/cifs/hariri-long/Projects/Annchen/Scripts/ArealMSHBM|
ew198|PREEMPTED|scavenger|2023-05-11T13:26:46|2023-05-16T14:22:10|5-00:55:24|dcc-pbenfeylab-01|1|1|16000M||/cifs/hariri-long/Projects/Annchen/Scripts/ArealMSHBM|
ew198|PREEMPTED|scavenger|2023-05-11T13:26:46|2023-05-16T14:22:10|5-00:55:24|dcc-pbenfeylab-01|1|1|16000M||/cifs/hariri-long/Projects/Annchen/Scripts/ArealMSHBM|
ew198|PREEMPTED|scavenger|2023-05-11T13:26:46|2023-05-16T14:22:10|5-00:55:24|dcc-pbenfeylab-01|1|1|16000M||/cifs/hariri-long/Projects/Annchen/Scripts/ArealMSHBM|
ew198|PREEMPTED|scavenger|2023-05-11T13:26:46|2023-05-16T14:22:10|5-00:55:24|dcc-pbenfeylab-01|1|1|16000M||/cifs/hariri-long/Projects/Annchen/Scripts/ArealMSHBM|
ew198|PREEMPTED|scavenger|2023-05-11T13:26:46|2023-05-16T14:22:10|5-00:55:24|dcc-pbenfeylab-01|1|1|16000M||/cifs/hariri-long/Projects/Annchen/Scripts/ArealMSHBM|
ew198|CANCELLED by 1455533|scavenger|2023-05-11T13:26:46|2023-05-17T14:59:19|6-01:32:33|dcc-pbenfeylab-01|1|1|16000M||/cifs/hariri-long/Projects/Annchen/Scripts/ArealMSHBM|
ew198|CANCELLED by 1455533|scavenger|2023-05-11T13:26:47|2023-05-17T14:59:19|6-01:32:32|dcc-pbenfeylab-01|1|1|16000M||/cifs/hariri-long/Projects/Annchen/Scripts/ArealMSHBM|
ew198|CANCELLED by 1455533|scavenger|2023-05-11T13:26:47|2023-05-17T14:59:19|6-01:32:32|dcc-pbenfeylab-01|1|1|16000M||/cifs/hariri-long/Projects/Annchen/Scripts/ArealMSHBM|
ew198|CANCELLED by 1455533|scavenger|2023-05-11T13:26:47|2023-05-17T14:59:19|6-01:32:32|dcc-pbenfeylab-01|1|1|16000M||/cifs/hariri-long/Projects/Annchen/Scripts/ArealMSHBM|
ew198|CANCELLED by 1455533|scavenger|2023-05-11T13:26:47|2023-05-17T14:59:19|6-01:32:32|dcc-pbenfeylab-01|1|1|16000M||/cifs/hariri-long/Projects/Annchen/Scripts/ArealMSHBM|
ew198|CANCELLED by 1455533|scavenger|2023-05-11T13:26:47|2023-05-17T14:59:19|6-01:32:32|dcc-noor-02|1|1|16000M||/cifs/hariri-long/Projects/Annchen/Scripts/ArealMSHBM|
ew198|CANCELLED by 1455533|scavenger|2023-05-11T13:26:47|2023-05-17T14:59:19|6-01:32:32|dcc-motesa-01|1|1|16000M||/cifs/hariri-long/Projects/Annchen/Scripts/ArealMSHBM|
ew198|CANCELLED by 1455533|scavenger|2023-05-11T13:26:47|2023-05-17T14:59:19|6-01:32:32|dcc-mainsahlab-01|1|1|16000M||/cifs/hariri-long/Projects/Annchen/Scripts/ArealMSHBM|
ew198|CANCELLED by 1455533|scavenger|2023-05-11T13:26:47|2023-05-17T14:59:19|6-01:32:32|dcc-mainsahlab-01|1|1|16000M||/cifs/hariri-long/Projects/Annchen/Scripts/ArealMSHBM|
ew198|CANCELLED by 1455533|scavenger|2023-05-11T13:26:47|2023-05-17T14:59:19|6-01:32:32|dcc-mainsahlab-01|1|1|16000M||/cifs/hariri-long/Projects/Annchen/Scripts/ArealMSHBM|
ew198|CANCELLED by 1455533|scavenger|2023-05-11T13:26:47|2023-05-17T14:59:19|6-01:32:32|dcc-mainsahlab-01|1|1|16000M||/cifs/hariri-long/Projects/Annchen/Scripts/ArealMSHBM|
ew198|CANCELLED by 1455533|scavenger|2023-05-11T13:26:47|2023-05-17T14:59:19|6-01:32:32|dcc-mainsahlab-01|1|1|16000M||/cifs/hariri-long/Projects/Annchen/Scripts/ArealMSHBM|
ts349|FAILED|scavenger|2023-05-12T09:30:33|2023-05-20T03:20:04|7-17:49:31|dcc-fergusonlab-03|1|30|72G||/hpc/home/ts349|
pz19|CANCELLED by 1050403|scavenger|2023-05-12T10:32:03|2023-05-16T09:57:07|3-23:25:04|dcc-fergusonlab-01|1|16|25408M||/work/pz19/Wang/Copper/Silicon/TS_06_3Lig/B3LYP|
ts349|FAILED|scavenger|2023-05-12T10:39:18|2023-05-20T03:20:06|7-16:40:48|dcc-bragg-05|1|30|72G||/datacommons/ydiaolab/sun/YAPandTEAD/H1_CTCF/H1_CTCF_mapping/MACS2|
ts349|FAILED|scavenger|2023-05-12T11:28:31|2023-05-20T03:20:07|7-15:51:36|dcc-bragg-02|1|30|72G||/hpc/home/ts349|
hk288|CANCELLED by 1484570|scavenger|2023-05-12T13:22:29|2023-05-16T14:32:58|4-01:10:29|dcc-donglab-01|1|2|80G||/hpc/group/mastatlab/hk288/code_hp|
hk288|CANCELLED by 1484570|scavenger|2023-05-12T13:22:31|2023-05-16T14:32:58|4-01:10:27|dcc-donglab-01|1|2|80G||/hpc/group/mastatlab/hk288/code_hp|
ts349|FAILED|scavenger|2023-05-12T13:52:46|2023-05-20T03:20:04|7-13:27:18|dcc-gcb-11|1|30|72G||/datacommons/ydiaolab/sun/YAPandTEAD/BRD4_cut_H1/brd4_cut_h1_mapping/filtered_bam|
pz19|CANCELLED by 1050403|scavenger|2023-05-13T10:54:01|2023-05-17T10:56:56|4-00:02:55|dcc-adrc-01|1|16|25408M||/work/pz19/Wang/Copper/Silicon/TS_06_3Lig/MN15|
ew198|CANCELLED by 1455533|scavenger|2023-05-13T11:05:38|2023-05-17T14:59:19|4-03:53:41|dcc-savageresearch-02|1|1|16000M||/cifs/hariri-long/Projects/Annchen/Scripts/ArealMSHBM|
ew198|CANCELLED by 1455533|scavenger|2023-05-13T11:05:38|2023-05-17T14:59:19|4-03:53:41|dcc-savageresearch-01|1|1|16000M||/cifs/hariri-long/Projects/Annchen/Scripts/ArealMSHBM|
ew198|CANCELLED by 1455533|scavenger|2023-05-13T11:05:38|2023-05-17T14:59:19|4-03:53:41|dcc-rausherlab-01|1|1|16000M||/cifs/hariri-long/Projects/Annchen/Scripts/ArealMSHBM|
ew198|CANCELLED by 1455533|scavenger|2023-05-13T11:05:38|2023-05-17T14:59:19|4-03:53:41|dcc-rausherlab-01|1|1|16000M||/cifs/hariri-long/Projects/Annchen/Scripts/ArealMSHBM|
ew198|CANCELLED by 1455533|scavenger|2023-05-13T11:05:38|2023-05-17T14:59:19|4-03:53:41|dcc-rausherlab-01|1|1|16000M||/cifs/hariri-long/Projects/Annchen/Scripts/ArealMSHBM|
ew198|CANCELLED by 1455533|scavenger|2023-05-13T11:05:38|2023-05-17T14:59:19|4-03:53:41|dcc-rausherlab-01|1|1|16000M||/cifs/hariri-long/Projects/Annchen/Scripts/ArealMSHBM|
ew198|CANCELLED by 1455533|scavenger|2023-05-13T11:05:39|2023-05-17T14:59:19|4-03:53:40|dcc-rausherlab-01|1|1|16000M||/cifs/hariri-long/Projects/Annchen/Scripts/ArealMSHBM|
pz19|CANCELLED by 1050403|scavenger|2023-05-13T11:14:48|2023-05-21T11:51:07|8-00:36:19|dcc-adrc-01|1|16|25408M||/work/pz19/Wang/Copper/Silicon/TS_06_3LigOAc/B3LYP|
pz19|CANCELLED by 1050403|scavenger|2023-05-13T11:35:59|2023-05-17T10:47:29|3-23:11:30|dcc-bragg-02|1|16|25408M||/work/pz19/Wang/Copper/Silicon/TS_06_3Lig/B3LYP|
pz19|CANCELLED by 1050403|scavenger|2023-05-14T11:43:00|2023-05-19T15:49:18|5-04:06:18|dcc-adrc-01|1|16|25408M||/work/pz19/Wang/Copper/Silicon/TS_06_3Lig/MN15|
ew198|PREEMPTED|scavenger|2023-05-14T22:16:06|2023-05-16T17:48:57|1-19:32:51|dcc-hulab-02|1|1|16000M||/cifs/hariri-long/Projects/Annchen/Scripts/ArealMSHBM|
ew198|PREEMPTED|scavenger|2023-05-14T22:16:06|2023-05-16T17:48:57|1-19:32:51|dcc-hulab-02|1|1|16000M||/cifs/hariri-long/Projects/Annchen/Scripts/ArealMSHBM|
ark19|CANCELLED by 1027614|scavenger|2023-05-15T09:55:28|2023-05-16T09:21:36|23:26:08|dcc-youlab-01|1|1|125G||/cifs/hariri-long/Projects/Annchen/3Dbrain|
ark19|CANCELLED by 1027614|scavenger|2023-05-15T09:55:28|2023-05-16T09:21:36|23:26:08|dcc-youlab-01|1|1|16000M||/cifs/hariri-long/Projects/Annchen/3Dbrain|
ark19|CANCELLED by 1027614|scavenger|2023-05-15T09:55:28|2023-05-16T09:21:36|23:26:08|dcc-youlab-01|1|1|16000M||/cifs/hariri-long/Projects/Annchen/3Dbrain|
ark19|CANCELLED by 1027614|scavenger|2023-05-15T09:55:28|2023-05-16T09:21:37|23:26:09|dcc-youlab-01|1|1|16000M||/cifs/hariri-long/Projects/Annchen/3Dbrain|
ark19|CANCELLED by 1027614|scavenger|2023-05-15T09:55:28|2023-05-16T09:21:37|23:26:09|dcc-youlab-01|1|1|16000M||/cifs/hariri-long/Projects/Annchen/3Dbrain|
ark19|CANCELLED by 1027614|scavenger|2023-05-15T09:55:28|2023-05-16T09:21:37|23:26:09|dcc-youlab-01|1|1|16000M||/cifs/hariri-long/Projects/Annchen/3Dbrain|
ark19|CANCELLED by 1027614|scavenger|2023-05-15T09:55:28|2023-05-16T09:21:37|23:26:09|dcc-youlab-01|1|1|16000M||/cifs/hariri-long/Projects/Annchen/3Dbrain|
ark19|CANCELLED by 1027614|scavenger|2023-05-15T09:55:28|2023-05-16T09:21:37|23:26:09|dcc-youlab-01|1|1|16000M||/cifs/hariri-long/Projects/Annchen/3Dbrain|
ark19|CANCELLED by 1027614|scavenger|2023-05-15T09:55:28|2023-05-16T09:21:37|23:26:09|dcc-youlab-01|1|1|16000M||/cifs/hariri-long/Projects/Annchen/3Dbrain|
ark19|CANCELLED by 1027614|scavenger|2023-05-15T09:55:28|2023-05-16T09:21:37|23:26:09|dcc-youlab-01|1|1|16000M||/cifs/hariri-long/Projects/Annchen/3Dbrain|
ark19|CANCELLED by 1027614|scavenger|2023-05-15T09:55:28|2023-05-16T09:21:37|23:26:09|dcc-youlab-01|1|1|16000M||/cifs/hariri-long/Projects/Annchen/3Dbrain|
ark19|CANCELLED by 1027614|scavenger|2023-05-15T09:55:28|2023-05-16T09:21:37|23:26:09|dcc-youlab-01|1|1|16000M||/cifs/hariri-long/Projects/Annchen/3Dbrain|
ark19|CANCELLED by 1027614|scavenger|2023-05-15T09:55:29|2023-05-16T09:21:35|23:26:06|dcc-youlab-01|1|1|16000M||/cifs/hariri-long/Projects/Annchen/3Dbrain|
ark19|CANCELLED by 1027614|scavenger|2023-05-15T09:55:29|2023-05-16T09:21:35|23:26:06|dcc-wychem-01|1|1|16000M||/cifs/hariri-long/Projects/Annchen/3Dbrain|
ark19|CANCELLED by 1027614|scavenger|2023-05-15T09:55:29|2023-05-16T09:21:35|23:26:06|dcc-wychem-01|1|1|16000M||/cifs/hariri-long/Projects/Annchen/3Dbrain|
ark19|CANCELLED by 1027614|scavenger|2023-05-15T09:55:29|2023-05-16T09:21:35|23:26:06|dcc-wychem-01|1|1|16000M||/cifs/hariri-long/Projects/Annchen/3Dbrain|
ark19|CANCELLED by 1027614|scavenger|2023-05-15T09:55:29|2023-05-16T09:21:36|23:26:07|dcc-wychem-01|1|1|16000M||/cifs/hariri-long/Projects/Annchen/3Dbrain|
ark19|CANCELLED by 1027614|scavenger|2023-05-15T09:55:29|2023-05-16T09:21:36|23:26:07|dcc-tunglab-02|1|1|16000M||/cifs/hariri-long/Projects/Annchen/3Dbrain|
ark19|CANCELLED by 1027614|scavenger|2023-05-15T09:55:29|2023-05-16T09:21:36|23:26:07|dcc-tunglab-02|1|1|16000M||/cifs/hariri-long/Projects/Annchen/3Dbrain|
ark19|CANCELLED by 1027614|scavenger|2023-05-15T09:55:29|2023-05-16T09:21:36|23:26:07|dcc-tunglab-02|1|1|16000M||/cifs/hariri-long/Projects/Annchen/3Dbrain|
ark19|CANCELLED by 1027614|scavenger|2023-05-15T09:55:29|2023-05-16T09:21:36|23:26:07|dcc-tunglab-02|1|1|16000M||/cifs/hariri-long/Projects/Annchen/3Dbrain|
ark19|CANCELLED by 1027614|scavenger|2023-05-15T09:55:29|2023-05-16T09:21:36|23:26:07|dcc-tunglab-02|1|1|16000M||/cifs/hariri-long/Projects/Annchen/3Dbrain|
ark19|CANCELLED by 1027614|scavenger|2023-05-15T09:55:32|2023-05-16T09:21:32|23:26:00|dcc-tunglab-02|1|1|16000M||/cifs/hariri-long/Projects/Annchen/3Dbrain|
ark19|CANCELLED by 1027614|scavenger|2023-05-15T09:55:32|2023-05-16T09:21:32|23:26:00|dcc-tunglab-01|1|1|16000M||/cifs/hariri-long/Projects/Annchen/3Dbrain|
ark19|CANCELLED by 1027614|scavenger|2023-05-15T09:55:32|2023-05-16T09:21:33|23:26:01|dcc-tunglab-01|1|1|16000M||/cifs/hariri-long/Projects/Annchen/3Dbrain|
ark19|CANCELLED by 1027614|scavenger|2023-05-15T09:55:32|2023-05-16T09:21:33|23:26:01|dcc-tunglab-01|1|1|16000M||/cifs/hariri-long/Projects/Annchen/3Dbrain|
ark19|CANCELLED by 1027614|scavenger|2023-05-15T09:55:32|2023-05-16T09:21:33|23:26:01|dcc-tunglab-01|1|1|16000M||/cifs/hariri-long/Projects/Annchen/3Dbrain|
ark19|CANCELLED by 1027614|scavenger|2023-05-15T09:55:32|2023-05-16T09:21:33|23:26:01|dcc-tunglab-01|1|1|16000M||/cifs/hariri-long/Projects/Annchen/3Dbrain|
ark19|CANCELLED by 1027614|scavenger|2023-05-15T09:55:32|2023-05-16T09:21:33|23:26:01|dcc-tunglab-01|1|1|16000M||/cifs/hariri-long/Projects/Annchen/3Dbrain|
ark19|CANCELLED by 1027614|scavenger|2023-05-15T09:55:32|2023-05-16T09:21:33|23:26:01|dcc-tunglab-01|1|1|16000M||/cifs/hariri-long/Projects/Annchen/3Dbrain|
ark19|CANCELLED by 1027614|scavenger|2023-05-15T09:55:32|2023-05-16T09:21:33|23:26:01|dcc-tunglab-01|1|1|16000M||/cifs/hariri-long/Projects/Annchen/3Dbrain|
ark19|CANCELLED by 1027614|scavenger|2023-05-15T09:55:32|2023-05-16T09:21:33|23:26:01|dcc-tunglab-01|1|1|16000M||/cifs/hariri-long/Projects/Annchen/3Dbrain|
ark19|CANCELLED by 1027614|scavenger|2023-05-15T09:55:32|2023-05-16T09:21:33|23:26:01|dcc-tunglab-01|1|1|16000M||/cifs/hariri-long/Projects/Annchen/3Dbrain|
ark19|CANCELLED by 1027614|scavenger|2023-05-15T09:55:32|2023-05-16T09:21:34|23:26:02|dcc-tunglab-01|1|1|16000M||/cifs/hariri-long/Projects/Annchen/3Dbrain|
ark19|CANCELLED by 1027614|scavenger|2023-05-15T09:55:32|2023-05-16T09:21:34|23:26:02|dcc-tunglab-01|1|1|16000M||/cifs/hariri-long/Projects/Annchen/3Dbrain|
ark19|CANCELLED by 1027614|scavenger|2023-05-15T09:55:32|2023-05-16T09:21:34|23:26:02|dcc-tunglab-01|1|1|16000M||/cifs/hariri-long/Projects/Annchen/3Dbrain|
ark19|CANCELLED by 1027614|scavenger|2023-05-15T09:55:32|2023-05-16T09:21:34|23:26:02|dcc-tmolab-02|1|1|16000M||/cifs/hariri-long/Projects/Annchen/3Dbrain|
ark19|CANCELLED by 1027614|scavenger|2023-05-15T09:55:32|2023-05-16T09:21:34|23:26:02|dcc-tmolab-02|1|1|16000M||/cifs/hariri-long/Projects/Annchen/3Dbrain|
ark19|CANCELLED by 1027614|scavenger|2023-05-15T09:55:32|2023-05-16T09:21:34|23:26:02|dcc-tmolab-02|1|1|16000M||/cifs/hariri-long/Projects/Annchen/3Dbrain|
ark19|CANCELLED by 1027614|scavenger|2023-05-15T09:55:32|2023-05-16T09:21:34|23:26:02|dcc-tmolab-01|1|1|16000M||/cifs/hariri-long/Projects/Annchen/3Dbrain|
ark19|CANCELLED by 1027614|scavenger|2023-05-15T09:55:32|2023-05-16T09:21:34|23:26:02|dcc-tmolab-01|1|1|16000M||/cifs/hariri-long/Projects/Annchen/3Dbrain|
ark19|CANCELLED by 1027614|scavenger|2023-05-15T09:55:32|2023-05-16T09:21:34|23:26:02|dcc-tmolab-01|1|1|16000M||/cifs/hariri-long/Projects/Annchen/3Dbrain|
ark19|CANCELLED by 1027614|scavenger|2023-05-15T09:55:32|2023-05-16T09:21:34|23:26:02|dcc-tmolab-01|1|1|16000M||/cifs/hariri-long/Projects/Annchen/3Dbrain|
ark19|CANCELLED by 1027614|scavenger|2023-05-15T09:55:32|2023-05-16T09:21:35|23:26:03|dcc-tmolab-01|1|1|16000M||/cifs/hariri-long/Projects/Annchen/3Dbrain|
ark19|CANCELLED by 1027614|scavenger|2023-05-15T09:55:32|2023-05-16T09:21:35|23:26:03|dcc-tmolab-01|1|1|16000M||/cifs/hariri-long/Projects/Annchen/3Dbrain|
ark19|CANCELLED by 1027614|scavenger|2023-05-15T09:55:32|2023-05-16T09:21:35|23:26:03|dcc-tmolab-01|1|1|16000M||/cifs/hariri-long/Projects/Annchen/3Dbrain|
ark19|CANCELLED by 1027614|scavenger|2023-05-15T09:55:32|2023-05-16T09:21:35|23:26:03|dcc-tmolab-01|1|1|16000M||/cifs/hariri-long/Projects/Annchen/3Dbrain|
ark19|CANCELLED by 1027614|scavenger|2023-05-15T09:55:32|2023-05-16T09:21:35|23:26:03|dcc-statdept-01|1|1|16000M||/cifs/hariri-long/Projects/Annchen/3Dbrain|
ark19|CANCELLED by 1027614|scavenger|2023-05-15T09:55:33|2023-05-16T09:21:32|23:25:59|dcc-statdept-01|1|1|16000M||/cifs/hariri-long/Projects/Annchen/3Dbrain|
ark19|CANCELLED by 1027614|scavenger|2023-05-15T09:55:33|2023-05-16T09:21:32|23:25:59|dcc-statdept-01|1|1|16000M||/cifs/hariri-long/Projects/Annchen/3Dbrain|
ark19|CANCELLED by 1027614|scavenger|2023-05-15T09:55:33|2023-05-16T09:21:32|23:25:59|dcc-statdept-01|1|1|16000M||/cifs/hariri-long/Projects/Annchen/3Dbrain|
hk288|FAILED|scavenger|2023-05-15T09:57:56|2023-05-17T21:36:21|2-11:38:25|dcc-compeb-03|1|40|80G||/hpc/group/mastatlab/hk288/code_hp_paral|
hk288|FAILED|scavenger|2023-05-15T09:57:56|2023-05-17T10:24:44|2-00:26:48|dcc-dunsonlab-02|1|40|80G||/hpc/group/mastatlab/hk288/code_hp_paral|
ark19|COMPLETED|scavenger|2023-05-15T09:58:33|2023-05-18T11:55:34|3-01:57:01|dcc-statdept-01|1|1|125G||/cifs/hariri-long/Projects/Annchen/3Dbrain|
ark19|COMPLETED|scavenger|2023-05-15T09:58:33|2023-05-18T11:55:45|3-01:57:12|dcc-statdept-01|1|1|16000M||/cifs/hariri-long/Projects/Annchen/3Dbrain|
ark19|COMPLETED|scavenger|2023-05-15T09:58:33|2023-05-18T11:55:45|3-01:57:12|dcc-statdept-01|1|1|16000M||/cifs/hariri-long/Projects/Annchen/3Dbrain|
ark19|COMPLETED|scavenger|2023-05-15T09:58:33|2023-05-18T11:55:45|3-01:57:12|dcc-statdept-01|1|1|16000M||/cifs/hariri-long/Projects/Annchen/3Dbrain|
ark19|COMPLETED|scavenger|2023-05-15T09:58:33|2023-05-18T11:55:45|3-01:57:12|dcc-statdept-01|1|1|16000M||/cifs/hariri-long/Projects/Annchen/3Dbrain|
ark19|COMPLETED|scavenger|2023-05-15T09:58:33|2023-05-18T11:55:45|3-01:57:12|dcc-statdept-01|1|1|16000M||/cifs/hariri-long/Projects/Annchen/3Dbrain|
ark19|COMPLETED|scavenger|2023-05-15T09:58:34|2023-05-18T11:55:45|3-01:57:11|dcc-statdept-01|1|1|16000M||/cifs/hariri-long/Projects/Annchen/3Dbrain|
ark19|COMPLETED|scavenger|2023-05-15T09:58:34|2023-05-18T11:55:44|3-01:57:10|dcc-statdept-01|1|1|16000M||/cifs/hariri-long/Projects/Annchen/3Dbrain|
ark19|COMPLETED|scavenger|2023-05-15T09:58:34|2023-05-18T11:55:45|3-01:57:11|dcc-statdept-01|1|1|16000M||/cifs/hariri-long/Projects/Annchen/3Dbrain|
ark19|COMPLETED|scavenger|2023-05-15T09:58:34|2023-05-18T11:55:44|3-01:57:10|dcc-statdept-01|1|1|16000M||/cifs/hariri-long/Projects/Annchen/3Dbrain|
ark19|COMPLETED|scavenger|2023-05-15T09:58:34|2023-05-18T11:55:45|3-01:57:11|dcc-statdept-01|1|1|16000M||/cifs/hariri-long/Projects/Annchen/3Dbrain|
ark19|COMPLETED|scavenger|2023-05-15T09:58:34|2023-05-18T11:55:44|3-01:57:10|dcc-statdept-01|1|1|16000M||/cifs/hariri-long/Projects/Annchen/3Dbrain|
ark19|COMPLETED|scavenger|2023-05-15T09:58:34|2023-05-18T11:55:45|3-01:57:11|dcc-statdept-01|1|1|16000M||/cifs/hariri-long/Projects/Annchen/3Dbrain|
ark19|COMPLETED|scavenger|2023-05-15T09:58:34|2023-05-18T11:55:44|3-01:57:10|dcc-statdept-01|1|1|16000M||/cifs/hariri-long/Projects/Annchen/3Dbrain|
ark19|COMPLETED|scavenger|2023-05-15T09:58:34|2023-05-18T11:55:45|3-01:57:11|dcc-statdept-01|1|1|16000M||/cifs/hariri-long/Projects/Annchen/3Dbrain|
ark19|COMPLETED|scavenger|2023-05-15T09:58:34|2023-05-18T11:55:45|3-01:57:11|dcc-statdept-01|1|1|16000M||/cifs/hariri-long/Projects/Annchen/3Dbrain|
ark19|COMPLETED|scavenger|2023-05-15T09:58:34|2023-05-18T11:55:45|3-01:57:11|dcc-statdept-01|1|1|16000M||/cifs/hariri-long/Projects/Annchen/3Dbrain|
ark19|COMPLETED|scavenger|2023-05-15T09:58:34|2023-05-18T11:55:45|3-01:57:11|dcc-statdept-01|1|1|16000M||/cifs/hariri-long/Projects/Annchen/3Dbrain|
ark19|COMPLETED|scavenger|2023-05-15T09:58:35|2023-05-18T11:56:07|3-01:57:32|dcc-savageresearch-02|1|1|16000M||/cifs/hariri-long/Projects/Annchen/3Dbrain|
ark19|COMPLETED|scavenger|2023-05-15T09:58:35|2023-05-18T11:56:28|3-01:57:53|dcc-savageresearch-01|1|1|16000M||/cifs/hariri-long/Projects/Annchen/3Dbrain|
ark19|COMPLETED|scavenger|2023-05-15T09:58:35|2023-05-18T11:56:28|3-01:57:53|dcc-savageresearch-01|1|1|16000M||/cifs/hariri-long/Projects/Annchen/3Dbrain|
ark19|COMPLETED|scavenger|2023-05-15T09:58:35|2023-05-18T11:56:28|3-01:57:53|dcc-savageresearch-01|1|1|16000M||/cifs/hariri-long/Projects/Annchen/3Dbrain|
ark19|COMPLETED|scavenger|2023-05-15T09:58:35|2023-05-18T11:56:28|3-01:57:53|dcc-savageresearch-01|1|1|16000M||/cifs/hariri-long/Projects/Annchen/3Dbrain|
ark19|COMPLETED|scavenger|2023-05-15T09:58:35|2023-05-18T11:56:28|3-01:57:53|dcc-savageresearch-01|1|1|16000M||/cifs/hariri-long/Projects/Annchen/3Dbrain|
ark19|COMPLETED|scavenger|2023-05-15T09:58:35|2023-05-18T11:56:28|3-01:57:53|dcc-savageresearch-01|1|1|16000M||/cifs/hariri-long/Projects/Annchen/3Dbrain|
ark19|COMPLETED|scavenger|2023-05-15T09:58:35|2023-05-18T11:56:28|3-01:57:53|dcc-savageresearch-01|1|1|16000M||/cifs/hariri-long/Projects/Annchen/3Dbrain|
ark19|COMPLETED|scavenger|2023-05-15T09:58:35|2023-05-18T11:56:30|3-01:57:55|dcc-rausherlab-02|1|1|16000M||/cifs/hariri-long/Projects/Annchen/3Dbrain|
ark19|COMPLETED|scavenger|2023-05-15T09:58:35|2023-05-18T11:56:30|3-01:57:55|dcc-rausherlab-02|1|1|16000M||/cifs/hariri-long/Projects/Annchen/3Dbrain|
ark19|COMPLETED|scavenger|2023-05-15T09:58:35|2023-05-18T11:56:30|3-01:57:55|dcc-rausherlab-02|1|1|16000M||/cifs/hariri-long/Projects/Annchen/3Dbrain|
ark19|COMPLETED|scavenger|2023-05-15T09:58:35|2023-05-18T11:56:30|3-01:57:55|dcc-rausherlab-02|1|1|16000M||/cifs/hariri-long/Projects/Annchen/3Dbrain|
ark19|COMPLETED|scavenger|2023-05-15T09:58:35|2023-05-18T11:56:30|3-01:57:55|dcc-rausherlab-02|1|1|16000M||/cifs/hariri-long/Projects/Annchen/3Dbrain|
ark19|COMPLETED|scavenger|2023-05-15T09:58:37|2023-05-18T11:56:30|3-01:57:53|dcc-rausherlab-02|1|1|16000M||/cifs/hariri-long/Projects/Annchen/3Dbrain|
ark19|COMPLETED|scavenger|2023-05-15T09:58:37|2023-05-18T11:56:07|3-01:57:30|dcc-pfister-01|1|1|16000M||/cifs/hariri-long/Projects/Annchen/3Dbrain|
ark19|COMPLETED|scavenger|2023-05-15T09:58:37|2023-05-18T11:55:51|3-01:57:14|dcc-nsoe-it-01|1|1|16000M||/cifs/hariri-long/Projects/Annchen/3Dbrain|
ark19|COMPLETED|scavenger|2023-05-15T09:58:37|2023-05-18T11:55:51|3-01:57:14|dcc-nsoe-it-01|1|1|16000M||/cifs/hariri-long/Projects/Annchen/3Dbrain|
ark19|COMPLETED|scavenger|2023-05-15T09:58:37|2023-05-18T11:55:51|3-01:57:14|dcc-nsoe-it-01|1|1|16000M||/cifs/hariri-long/Projects/Annchen/3Dbrain|
ark19|COMPLETED|scavenger|2023-05-15T09:58:37|2023-05-18T11:55:51|3-01:57:14|dcc-nsoe-it-01|1|1|16000M||/cifs/hariri-long/Projects/Annchen/3Dbrain|
ark19|COMPLETED|scavenger|2023-05-15T09:58:37|2023-05-18T11:55:51|3-01:57:14|dcc-nsoe-it-01|1|1|16000M||/cifs/hariri-long/Projects/Annchen/3Dbrain|
ark19|COMPLETED|scavenger|2023-05-15T09:58:37|2023-05-18T11:55:51|3-01:57:14|dcc-nsoe-it-01|1|1|16000M||/cifs/hariri-long/Projects/Annchen/3Dbrain|
ark19|COMPLETED|scavenger|2023-05-15T09:58:37|2023-05-18T11:55:52|3-01:57:15|dcc-noor-02|1|1|16000M||/cifs/hariri-long/Projects/Annchen/3Dbrain|
ark19|COMPLETED|scavenger|2023-05-15T09:58:37|2023-05-18T11:55:47|3-01:57:10|dcc-noor-01|1|1|16000M||/cifs/hariri-long/Projects/Annchen/3Dbrain|
ark19|COMPLETED|scavenger|2023-05-15T09:58:37|2023-05-18T11:55:52|3-01:57:15|dcc-nicolab-01|1|1|16000M||/cifs/hariri-long/Projects/Annchen/3Dbrain|
ark19|COMPLETED|scavenger|2023-05-15T09:58:37|2023-05-18T11:56:07|3-01:57:30|dcc-motesa-01|1|1|16000M||/cifs/hariri-long/Projects/Annchen/3Dbrain|
ark19|COMPLETED|scavenger|2023-05-15T09:58:37|2023-05-18T11:56:07|3-01:57:30|dcc-motesa-01|1|1|16000M||/cifs/hariri-long/Projects/Annchen/3Dbrain|
ark19|COMPLETED|scavenger|2023-05-15T09:58:37|2023-05-18T11:56:06|3-01:57:29|dcc-motesa-01|1|1|16000M||/cifs/hariri-long/Projects/Annchen/3Dbrain|
ark19|COMPLETED|scavenger|2023-05-15T09:58:37|2023-05-18T11:56:06|3-01:57:29|dcc-motesa-01|1|1|16000M||/cifs/hariri-long/Projects/Annchen/3Dbrain|
ark19|COMPLETED|scavenger|2023-05-15T09:58:37|2023-05-18T11:56:07|3-01:57:30|dcc-motesa-01|1|1|16000M||/cifs/hariri-long/Projects/Annchen/3Dbrain|
ark19|COMPLETED|scavenger|2023-05-15T09:58:37|2023-05-18T11:56:06|3-01:57:29|dcc-motesa-01|1|1|16000M||/cifs/hariri-long/Projects/Annchen/3Dbrain|
ark19|COMPLETED|scavenger|2023-05-15T09:58:37|2023-05-18T11:56:06|3-01:57:29|dcc-motesa-01|1|1|16000M||/cifs/hariri-long/Projects/Annchen/3Dbrain|
ark19|COMPLETED|scavenger|2023-05-15T09:58:37|2023-05-18T11:56:06|3-01:57:29|dcc-motesa-01|1|1|16000M||/cifs/hariri-long/Projects/Annchen/3Dbrain|
ark19|COMPLETED|scavenger|2023-05-15T09:58:37|2023-05-18T11:56:06|3-01:57:29|dcc-motesa-01|1|1|16000M||/cifs/hariri-long/Projects/Annchen/3Dbrain|
pz19|PREEMPTED|scavenger|2023-05-15T10:19:00|2023-05-18T16:12:09|3-05:53:09|dcc-delairelab-01|1|16|25408M||/work/pz19/Wang/Copper/Silicon/TS_06_3LigOAc/B3LYP|
pz19|CANCELLED by 1050403|scavenger|2023-05-15T10:19:00|2023-05-21T11:45:48|6-01:26:48|dcc-dunsonlab-01|1|16|25408M||/work/pz19/Wang/Copper/Silicon/TS_06_3LigOAc/B3LYP|
pz19|CANCELLED by 1050403|scavenger|2023-05-15T12:24:49|2023-05-16T13:17:58|1-00:53:09|dcc-dunsonlab-02|1|16|25408M||/work/pz19/Wang/Copper/Silicon/TS_06_3LigOAc/PBE0|
hz215|COMPLETED|scavenger|2023-05-15T15:58:50|2023-05-18T12:24:37|2-20:25:47|dcc-fergusonlab-01|1|8|300G||/hpc/group/jilab/hz/covid|
kw297|COMPLETED|scavenger|2023-05-15T17:02:20|2023-05-16T19:33:36|1-02:31:16|dcc-gcb-09|1|2|8G||/hpc/group/ychenlab/DA|
kw297|COMPLETED|scavenger|2023-05-15T17:02:20|2023-05-16T16:05:37|23:03:17|dcc-aryalab-01|1|2|8G||/hpc/group/ychenlab/DA|
kw297|COMPLETED|scavenger|2023-05-15T17:02:21|2023-05-16T14:12:38|21:10:17|dcc-aryalab-01|1|2|8G||/hpc/group/ychenlab/DA|
kw297|COMPLETED|scavenger|2023-05-15T17:02:21|2023-05-16T15:48:59|22:46:38|dcc-aryalab-01|1|2|8G||/hpc/group/ychenlab/DA|
kw297|COMPLETED|scavenger|2023-05-15T17:02:21|2023-05-16T14:14:56|21:12:35|dcc-rausherlab-01|1|2|8G||/hpc/group/ychenlab/DA|
kw297|COMPLETED|scavenger|2023-05-15T17:02:21|2023-05-16T13:17:00|20:14:39|dcc-rausherlab-02|1|2|8G||/hpc/group/ychenlab/DA|
kw297|COMPLETED|scavenger|2023-05-15T17:02:21|2023-05-16T13:20:01|20:17:40|dcc-rausherlab-02|1|2|8G||/hpc/group/ychenlab/DA|
kw297|COMPLETED|scavenger|2023-05-15T17:02:21|2023-05-17T00:31:00|1-07:28:39|dcc-dunsonlab-01|1|2|8G||/hpc/group/ychenlab/DA|
kw297|COMPLETED|scavenger|2023-05-15T17:02:21|2023-05-16T23:05:59|1-06:03:38|dcc-dunsonlab-01|1|2|8G||/hpc/group/ychenlab/DA|
kw297|COMPLETED|scavenger|2023-05-15T17:02:24|2023-05-16T16:29:57|23:27:33|dcc-dunsonlab-01|1|2|8G||/hpc/group/ychenlab/DA|
kw297|COMPLETED|scavenger|2023-05-15T17:02:24|2023-05-16T15:52:18|22:49:54|dcc-dunsonlab-01|1|2|8G||/hpc/group/ychenlab/DA|
kw297|COMPLETED|scavenger|2023-05-15T17:02:24|2023-05-16T13:59:48|20:57:24|dcc-dunsonlab-01|1|2|8G||/hpc/group/ychenlab/DA|
kw297|COMPLETED|scavenger|2023-05-15T17:02:24|2023-05-16T15:21:50|22:19:26|dcc-gcb-11|1|2|8G||/hpc/group/ychenlab/DA|
kw297|COMPLETED|scavenger|2023-05-15T17:02:24|2023-05-16T15:43:12|22:40:48|dcc-gcb-11|1|2|8G||/hpc/group/ychenlab/DA|
kw297|COMPLETED|scavenger|2023-05-15T17:02:24|2023-05-16T14:58:14|21:55:50|dcc-gcb-11|1|2|8G||/hpc/group/ychenlab/DA|
kw297|COMPLETED|scavenger|2023-05-15T17:02:24|2023-05-16T15:55:48|22:53:24|dcc-gcb-11|1|2|8G||/hpc/group/ychenlab/DA|
kw297|COMPLETED|scavenger|2023-05-15T17:02:24|2023-05-16T14:58:51|21:56:27|dcc-gcb-11|1|2|8G||/hpc/group/ychenlab/DA|
kw297|COMPLETED|scavenger|2023-05-15T17:02:24|2023-05-17T07:54:35|1-14:52:11|dcc-adrc-01|1|2|8G||/hpc/group/ychenlab/DA|
kw297|COMPLETED|scavenger|2023-05-15T17:02:24|2023-05-17T07:33:15|1-14:30:51|dcc-adrc-01|1|2|8G||/hpc/group/ychenlab/DA|
kw297|COMPLETED|scavenger|2023-05-15T17:02:24|2023-05-17T10:08:04|1-17:05:40|dcc-adrc-01|1|2|8G||/hpc/group/ychenlab/DA|
kw297|COMPLETED|scavenger|2023-05-15T17:02:24|2023-05-17T08:51:28|1-15:49:04|dcc-adrc-01|1|2|8G||/hpc/group/ychenlab/DA|
kw297|COMPLETED|scavenger|2023-05-15T17:02:24|2023-05-17T10:04:07|1-17:01:43|dcc-adrc-01|1|2|8G||/hpc/group/ychenlab/DA|
kw297|COMPLETED|scavenger|2023-05-15T17:02:24|2023-05-17T13:40:05|1-20:37:41|dcc-adrc-01|1|2|8G||/hpc/group/ychenlab/DA|
kw297|COMPLETED|scavenger|2023-05-15T17:02:27|2023-05-16T20:06:56|1-03:04:29|dcc-delairelab-01|1|2|8G||/hpc/group/ychenlab/DA|
kw297|COMPLETED|scavenger|2023-05-15T17:02:27|2023-05-16T21:45:34|1-04:43:07|dcc-delairelab-01|1|2|8G||/hpc/group/ychenlab/DA|
kw297|COMPLETED|scavenger|2023-05-15T17:02:27|2023-05-16T20:55:31|1-03:53:04|dcc-delairelab-01|1|2|8G||/hpc/group/ychenlab/DA|
kw297|COMPLETED|scavenger|2023-05-15T17:02:27|2023-05-16T21:44:41|1-04:42:14|dcc-delairelab-01|1|2|8G||/hpc/group/ychenlab/DA|
kw297|COMPLETED|scavenger|2023-05-15T17:02:27|2023-05-16T21:07:29|1-04:05:02|dcc-delairelab-01|1|2|8G||/hpc/group/ychenlab/DA|
kw297|COMPLETED|scavenger|2023-05-15T17:02:27|2023-05-16T20:14:49|1-03:12:22|dcc-delairelab-01|1|2|8G||/hpc/group/ychenlab/DA|
kw297|COMPLETED|scavenger|2023-05-15T17:02:27|2023-05-16T20:20:40|1-03:18:13|dcc-delairelab-01|1|2|8G||/hpc/group/ychenlab/DA|
kw297|COMPLETED|scavenger|2023-05-15T17:02:28|2023-05-16T21:52:23|1-04:49:55|dcc-delairelab-01|1|2|8G||/hpc/group/ychenlab/DA|
kw297|COMPLETED|scavenger|2023-05-15T17:02:28|2023-05-16T21:38:22|1-04:35:54|dcc-delairelab-01|1|2|8G||/hpc/group/ychenlab/DA|
kw297|COMPLETED|scavenger|2023-05-15T17:02:28|2023-05-16T22:13:09|1-05:10:41|dcc-delairelab-01|1|2|8G||/hpc/group/ychenlab/DA|
kw297|COMPLETED|scavenger|2023-05-15T17:02:30|2023-05-16T15:39:16|22:36:46|dcc-wychem-01|1|2|8G||/hpc/group/ychenlab/DA|
kw297|COMPLETED|scavenger|2023-05-15T17:02:30|2023-05-16T14:39:36|21:37:06|dcc-wychem-01|1|2|8G||/hpc/group/ychenlab/DA|
kw297|COMPLETED|scavenger|2023-05-15T17:02:30|2023-05-16T14:35:09|21:32:39|dcc-wychem-01|1|2|8G||/hpc/group/ychenlab/DA|
kw297|COMPLETED|scavenger|2023-05-15T17:02:30|2023-05-16T16:44:23|23:41:53|dcc-wychem-01|1|2|8G||/hpc/group/ychenlab/DA|
kw297|COMPLETED|scavenger|2023-05-15T17:02:31|2023-05-16T15:09:54|22:07:23|dcc-wychem-01|1|2|8G||/hpc/group/ychenlab/DA|
kw297|COMPLETED|scavenger|2023-05-15T17:02:31|2023-05-16T16:42:55|23:40:24|dcc-wychem-01|1|2|8G||/hpc/group/ychenlab/DA|
kw297|COMPLETED|scavenger|2023-05-15T17:02:31|2023-05-16T15:07:53|22:05:22|dcc-wychem-01|1|2|8G||/hpc/group/ychenlab/DA|
kw297|COMPLETED|scavenger|2023-05-15T17:02:31|2023-05-16T09:22:49|16:20:18|dcc-youlab-01|1|2|8G||/hpc/group/ychenlab/DA|
kw297|COMPLETED|scavenger|2023-05-15T17:02:31|2023-05-16T09:08:12|16:05:41|dcc-youlab-01|1|2|8G||/hpc/group/ychenlab/DA|
kw297|COMPLETED|scavenger|2023-05-15T17:02:31|2023-05-16T12:35:41|19:33:10|dcc-youlab-01|1|2|8G||/hpc/group/ychenlab/DA|
kw297|COMPLETED|scavenger|2023-05-15T17:02:31|2023-05-16T11:13:27|18:10:56|dcc-youlab-01|1|2|8G||/hpc/group/ychenlab/DA|
kw297|COMPLETED|scavenger|2023-05-15T17:02:31|2023-05-16T14:53:48|21:51:17|dcc-youlab-01|1|2|8G||/hpc/group/ychenlab/DA|
kw297|COMPLETED|scavenger|2023-05-15T17:02:31|2023-05-16T12:13:38|19:11:07|dcc-youlab-01|1|2|8G||/hpc/group/ychenlab/DA|
kw297|COMPLETED|scavenger|2023-05-15T17:02:31|2023-05-16T11:10:18|18:07:47|dcc-youlab-01|1|2|8G||/hpc/group/ychenlab/DA|
kw297|COMPLETED|scavenger|2023-05-15T17:02:31|2023-05-16T11:21:55|18:19:24|dcc-youlab-01|1|2|8G||/hpc/group/ychenlab/DA|
kw297|COMPLETED|scavenger|2023-05-15T17:02:34|2023-05-16T15:02:15|21:59:41|dcc-youlab-01|1|2|8G||/hpc/group/ychenlab/DA|
kw297|COMPLETED|scavenger|2023-05-15T17:02:34|2023-05-16T12:45:36|19:43:02|dcc-youlab-01|1|2|8G||/hpc/group/ychenlab/DA|
kw297|COMPLETED|scavenger|2023-05-15T17:02:34|2023-05-16T14:37:09|21:34:35|dcc-youlab-01|1|2|8G||/hpc/group/ychenlab/DA|
kw297|COMPLETED|scavenger|2023-05-15T17:02:34|2023-05-16T08:55:38|15:53:04|dcc-statdept-01|1|2|8G||/hpc/group/ychenlab/DA|
kw297|COMPLETED|scavenger|2023-05-15T17:02:34|2023-05-16T13:05:21|20:02:47|dcc-hulab-03|1|2|8G||/hpc/group/ychenlab/DA|
kw297|COMPLETED|scavenger|2023-05-15T17:02:34|2023-05-16T20:54:23|1-03:51:49|dcc-hulab-05|1|2|8G||/hpc/group/ychenlab/DA|
kw297|COMPLETED|scavenger|2023-05-15T17:02:34|2023-05-16T18:40:50|1-01:38:16|dcc-hulab-04|1|2|8G||/hpc/group/ychenlab/DA|
kw297|COMPLETED|scavenger|2023-05-15T17:02:34|2023-05-16T19:52:01|1-02:49:27|dcc-hulab-04|1|2|8G||/hpc/group/ychenlab/DA|
kw297|PREEMPTED|scavenger|2023-05-15T17:02:34|2023-05-16T12:30:21|19:27:47|dcc-herringlab-01|1|2|8G||/hpc/group/ychenlab/DA|
kw297|COMPLETED|scavenger|2023-05-15T17:02:34|2023-05-16T15:23:35|22:21:01|dcc-herringlab-01|1|2|8G||/hpc/group/ychenlab/DA|
kw297|COMPLETED|scavenger|2023-05-15T17:02:34|2023-05-16T17:55:42|1-00:53:08|dcc-herringlab-01|1|2|8G||/hpc/group/ychenlab/DA|
kw297|COMPLETED|scavenger|2023-05-15T17:02:34|2023-05-16T18:01:46|1-00:59:12|dcc-herringlab-01|1|2|8G||/hpc/group/ychenlab/DA|
kw297|PREEMPTED|scavenger|2023-05-15T17:02:34|2023-05-16T17:48:57|1-00:46:23|dcc-hulab-01|1|2|8G||/hpc/group/ychenlab/DA|
kw297|PREEMPTED|scavenger|2023-05-15T17:02:37|2023-05-16T17:48:57|1-00:46:20|dcc-hulab-01|1|2|8G||/hpc/group/ychenlab/DA|
kw297|PREEMPTED|scavenger|2023-05-15T17:02:37|2023-05-16T17:48:57|1-00:46:20|dcc-hulab-01|1|2|8G||/hpc/group/ychenlab/DA|
kw297|PREEMPTED|scavenger|2023-05-15T17:02:37|2023-05-16T17:48:57|1-00:46:20|dcc-hulab-01|1|2|8G||/hpc/group/ychenlab/DA|
kw297|PREEMPTED|scavenger|2023-05-15T17:02:37|2023-05-16T17:48:57|1-00:46:20|dcc-hulab-01|1|2|8G||/hpc/group/ychenlab/DA|
kw297|PREEMPTED|scavenger|2023-05-15T17:02:37|2023-05-16T17:48:57|1-00:46:20|dcc-hulab-02|1|2|8G||/hpc/group/ychenlab/DA|
kw297|COMPLETED|scavenger|2023-05-15T17:02:37|2023-05-16T19:01:34|1-01:58:57|dcc-hulab-02|1|2|8G||/hpc/group/ychenlab/DA|
kw297|COMPLETED|scavenger|2023-05-15T17:02:37|2023-05-16T21:28:27|1-04:25:50|dcc-hulab-02|1|2|8G||/hpc/group/ychenlab/DA|
kw297|COMPLETED|scavenger|2023-05-15T17:02:37|2023-05-16T20:04:49|1-03:02:12|dcc-hulab-02|1|2|8G||/hpc/group/ychenlab/DA|
kw297|COMPLETED|scavenger|2023-05-15T17:02:37|2023-05-16T18:56:24|1-01:53:47|dcc-hulab-02|1|2|8G||/hpc/group/ychenlab/DA|
kw297|COMPLETED|scavenger|2023-05-15T17:02:37|2023-05-16T14:06:02|21:03:25|dcc-donglab-01|1|2|8G||/hpc/group/ychenlab/DA|
kw297|COMPLETED|scavenger|2023-05-15T17:02:37|2023-05-16T20:06:34|1-03:03:57|dcc-donglab-01|1|2|8G||/hpc/group/ychenlab/DA|
kw297|COMPLETED|scavenger|2023-05-15T17:02:37|2023-05-16T19:22:18|1-02:19:41|dcc-donglab-01|1|2|8G||/hpc/group/ychenlab/DA|
kw297|COMPLETED|scavenger|2023-05-15T17:02:37|2023-05-16T20:39:31|1-03:36:54|dcc-donglab-01|1|2|8G||/hpc/group/ychenlab/DA|
kw297|COMPLETED|scavenger|2023-05-15T17:02:40|2023-05-16T19:10:11|1-02:07:31|dcc-donglab-01|1|2|8G||/hpc/group/ychenlab/DA|
kw297|COMPLETED|scavenger|2023-05-15T17:02:40|2023-05-16T18:46:22|1-01:43:42|dcc-donglab-01|1|2|8G||/hpc/group/ychenlab/DA|
kw297|COMPLETED|scavenger|2023-05-15T17:02:40|2023-05-16T18:31:56|1-01:29:16|dcc-donglab-01|1|2|8G||/hpc/group/ychenlab/DA|
kw297|COMPLETED|scavenger|2023-05-15T17:02:40|2023-05-16T21:44:26|1-04:41:46|dcc-donglab-01|1|2|8G||/hpc/group/ychenlab/DA|
kw297|COMPLETED|scavenger|2023-05-15T17:02:40|2023-05-16T19:06:57|1-02:04:17|dcc-donglab-01|1|2|8G||/hpc/group/ychenlab/DA|
kw297|COMPLETED|scavenger|2023-05-15T17:02:40|2023-05-16T21:09:06|1-04:06:26|dcc-donglab-01|1|2|8G||/hpc/group/ychenlab/DA|
kw297|COMPLETED|scavenger|2023-05-15T17:02:40|2023-05-16T19:20:23|1-02:17:43|dcc-donglab-01|1|2|8G||/hpc/group/ychenlab/DA|
kw297|COMPLETED|scavenger|2023-05-15T17:02:40|2023-05-16T18:36:05|1-01:33:25|dcc-donglab-01|1|2|8G||/hpc/group/ychenlab/DA|
kw297|COMPLETED|scavenger|2023-05-15T17:02:40|2023-05-16T18:11:37|1-01:08:57|dcc-donglab-01|1|2|8G||/hpc/group/ychenlab/DA|
kw297|COMPLETED|scavenger|2023-05-15T17:02:41|2023-05-16T21:43:59|1-04:41:18|dcc-donglab-01|1|2|8G||/hpc/group/ychenlab/DA|
kw297|COMPLETED|scavenger|2023-05-15T17:02:41|2023-05-16T19:05:35|1-02:02:54|dcc-donglab-01|1|2|8G||/hpc/group/ychenlab/DA|
kw297|COMPLETED|scavenger|2023-05-15T17:02:41|2023-05-16T21:08:27|1-04:05:46|dcc-donglab-01|1|2|8G||/hpc/group/ychenlab/DA|
kw297|COMPLETED|scavenger|2023-05-15T17:02:41|2023-05-16T19:32:02|1-02:29:21|dcc-donglab-01|1|2|8G||/hpc/group/ychenlab/DA|
pz19|TIMEOUT|scavenger|2023-05-15T19:38:05|2023-05-26T09:38:25|10-14:00:20|dcc-fergusonlab-01|1|16|25408M||/work/pz19/Wang/Copper/Silicon/TS_06_3Lig/M06L|
hk288|COMPLETED|scavenger|2023-05-15T20:15:33|2023-05-16T15:31:10|19:15:37|dcc-cagpm-02|1|32|80G||/hpc/group/mastatlab/hk288/code_paired_ntaxa9|
hk288|COMPLETED|scavenger|2023-05-15T20:15:35|2023-05-16T12:38:25|16:22:50|dcc-pbenfeylab-01|1|32|80G||/hpc/group/mastatlab/hk288/code_paired_ntaxa9|
hk288|COMPLETED|scavenger|2023-05-15T20:15:37|2023-05-16T23:36:19|1-03:20:42|dcc-pbenfeylab-01|1|32|80G||/hpc/group/mastatlab/hk288/code_paired_ntaxa9|
hk288|COMPLETED|scavenger|2023-05-15T20:15:45|2023-05-17T03:38:52|1-07:23:07|dcc-gcb-07|1|32|80G||/hpc/group/mastatlab/hk288/code_paired_ntaxa9|
hk288|COMPLETED|scavenger|2023-05-15T20:17:33|2023-05-16T15:56:34|19:39:01|dcc-gcb-08|1|32|80G||/hpc/group/mastatlab/hk288/code_paired_ntaxa9|
hk288|COMPLETED|scavenger|2023-05-15T20:28:34|2023-05-17T08:02:12|1-11:33:38|dcc-gcb-04|1|32|80G||/hpc/group/mastatlab/hk288/code_paired_ntaxa12|
hk288|COMPLETED|scavenger|2023-05-15T20:28:41|2023-05-17T02:17:50|1-05:49:09|dcc-fergusonlab-04|1|32|80G||/hpc/group/mastatlab/hk288/code_paired_ntaxa12|
hk288|COMPLETED|scavenger|2023-05-15T20:28:41|2023-05-17T08:24:52|1-11:56:11|dcc-fergusonlab-05|1|32|80G||/hpc/group/mastatlab/hk288/code_paired_ntaxa12|
hk288|COMPLETED|scavenger|2023-05-15T20:28:49|2023-05-17T10:04:15|1-13:35:26|dcc-gcb-05|1|32|80G||/hpc/group/mastatlab/hk288/code_paired_ntaxa12|
hk288|COMPLETED|scavenger|2023-05-15T20:29:11|2023-05-17T08:42:55|1-12:13:44|dcc-gcb-03|1|32|80G||/hpc/group/mastatlab/hk288/code_paired_ntaxa12|
hk288|COMPLETED|scavenger|2023-05-15T20:29:22|2023-05-17T10:26:08|1-13:56:46|dcc-gcb-02|1|32|80G||/hpc/group/mastatlab/hk288/code_paired_ntaxa12|
hk288|COMPLETED|scavenger|2023-05-15T20:30:53|2023-05-16T14:08:14|17:37:21|dcc-fergusonlab-03|1|32|80G||/hpc/group/mastatlab/hk288/code_paired_ntaxa9|
lw157|COMPLETED|scavenger|2023-05-15T21:10:48|2023-05-16T09:17:04|12:06:16|dcc-hulab-03|1|1|150000M||/hpc/group/kolab/lw157/TobinTB|
lw157|COMPLETED|scavenger|2023-05-15T21:14:59|2023-05-16T11:07:31|13:52:32|dcc-hulab-03|1|1|150000M||/hpc/group/kolab/lw157/TobinTB|
lw157|COMPLETED|scavenger|2023-05-15T21:15:24|2023-05-16T08:45:03|11:29:39|dcc-gcb-14|1|1|150000M||/hpc/group/kolab/lw157/TobinTB|
pz19|TIMEOUT|scavenger|2023-05-15T23:18:17|2023-05-26T13:18:19|10-14:00:02|dcc-compeb-01|1|16|25408M||/work/pz19/Wang/Copper/Silicon/TS_06_3Lig/MN15|
kw297|COMPLETED|scavenger|2023-05-15T23:18:17|2023-05-17T01:54:09|1-02:35:52|dcc-donglab-01|1|2|8G||/hpc/group/ychenlab/DA|
pz19|COMPLETED|scavenger|2023-05-15T23:21:42|2023-05-30T14:18:14|14-14:56:32|dcc-fergusonlab-01|1|16|32000M||/work/pz19/Dexter|
pz19|CANCELLED by 1050403|scavenger|2023-05-15T23:21:42|2023-05-16T09:58:29|10:36:47|dcc-hulab-05|1|16|25408M||/work/pz19/Wang/Copper/Silicon/TS_06_3Lig/B3LYP|
hz215|COMPLETED|scavenger|2023-05-15T23:23:57|2023-05-16T17:34:39|18:10:42|dcc-gcb-06|1|1|300G||/hpc/group/jilab/hz/olfactory|
jml165|COMPLETED|scavenger|2023-05-15T23:34:09|2023-05-16T08:05:35|08:31:26|dcc-gcb-01|1|1|2000M||/hpc/home/jml165/rl/lawson-bandits|
jml165|COMPLETED|scavenger|2023-05-15T23:45:24|2023-05-16T10:00:22|10:14:58|dcc-hulab-01|1|1|2000M||/hpc/home/jml165/rl/lawson-bandits|
smokeauth2-tst|COMPLETED|scavenger|2023-05-16T08:01:32|2023-05-16T08:01:32|00:00:00|dcc-youlab-01|1|1|2G||/hpc/home/smokeauth2-tst|
smokeauth2-tst|COMPLETED|scavenger|2023-05-16T08:01:34|2023-05-16T08:01:34|00:00:00|dcc-youlab-01|1|1|2G||/hpc/home/smokeauth2-tst|
smokeauth2-tst|COMPLETED|scavenger|2023-05-16T08:01:36|2023-05-16T08:01:37|00:00:01|dcc-youlab-01|1|1|2G||/hpc/home/smokeauth2-tst|
smokeauth2-tst|COMPLETED|scavenger|2023-05-16T08:01:38|2023-05-16T08:01:38|00:00:00|dcc-youlab-01|1|1|2G||/hpc/home/smokeauth2-tst|
smokeauth2-tst|COMPLETED|scavenger|2023-05-16T08:01:40|2023-05-16T08:01:41|00:00:01|dcc-youlab-01|1|1|2G||/hpc/home/smokeauth2-tst|
smokeauth2-tst|COMPLETED|scavenger|2023-05-16T08:11:31|2023-05-16T08:11:31|00:00:00|dcc-youlab-01|1|1|2G||/hpc/home/smokeauth2-tst|
smokeauth2-tst|COMPLETED|scavenger|2023-05-16T08:11:33|2023-05-16T08:11:33|00:00:00|dcc-youlab-01|1|1|2G||/hpc/home/smokeauth2-tst|
smokeauth2-tst|COMPLETED|scavenger|2023-05-16T08:11:35|2023-05-16T08:11:35|00:00:00|dcc-youlab-01|1|1|2G||/hpc/home/smokeauth2-tst|
smokeauth2-tst|COMPLETED|scavenger|2023-05-16T08:11:37|2023-05-16T08:11:37|00:00:00|dcc-youlab-01|1|1|2G||/hpc/home/smokeauth2-tst|
smokeauth2-tst|COMPLETED|scavenger|2023-05-16T08:11:39|2023-05-16T08:11:39|00:00:00|dcc-youlab-01|1|1|2G||/hpc/home/smokeauth2-tst|
smokeauth2-tst|COMPLETED|scavenger|2023-05-16T08:21:31|2023-05-16T08:21:32|00:00:01|dcc-youlab-01|1|1|2G||/hpc/home/smokeauth2-tst|
smokeauth2-tst|COMPLETED|scavenger|2023-05-16T08:21:33|2023-05-16T08:21:33|00:00:00|dcc-youlab-01|1|1|2G||/hpc/home/smokeauth2-tst|
smokeauth2-tst|COMPLETED|scavenger|2023-05-16T08:21:35|2023-05-16T08:21:36|00:00:01|dcc-youlab-01|1|1|2G||/hpc/home/smokeauth2-tst|
smokeauth2-tst|COMPLETED|scavenger|2023-05-16T08:21:37|2023-05-16T08:21:38|00:00:01|dcc-youlab-01|1|1|2G||/hpc/home/smokeauth2-tst|
smokeauth2-tst|COMPLETED|scavenger|2023-05-16T08:21:39|2023-05-16T08:21:40|00:00:01|dcc-youlab-01|1|1|2G||/hpc/home/smokeauth2-tst|
smokeauth2-tst|COMPLETED|scavenger|2023-05-16T08:31:31|2023-05-16T08:31:32|00:00:01|dcc-youlab-01|1|1|2G||/hpc/home/smokeauth2-tst|
smokeauth2-tst|COMPLETED|scavenger|2023-05-16T08:31:33|2023-05-16T08:31:34|00:00:01|dcc-youlab-01|1|1|2G||/hpc/home/smokeauth2-tst|
smokeauth2-tst|COMPLETED|scavenger|2023-05-16T08:31:36|2023-05-16T08:31:36|00:00:00|dcc-youlab-01|1|1|2G||/hpc/home/smokeauth2-tst|
smokeauth2-tst|COMPLETED|scavenger|2023-05-16T08:31:38|2023-05-16T08:31:38|00:00:00|dcc-youlab-01|1|1|2G||/hpc/home/smokeauth2-tst|
smokeauth2-tst|COMPLETED|scavenger|2023-05-16T08:31:40|2023-05-16T08:31:40|00:00:00|dcc-youlab-01|1|1|2G||/hpc/home/smokeauth2-tst|
smokeauth2-tst|COMPLETED|scavenger|2023-05-16T08:41:31|2023-05-16T08:41:32|00:00:01|dcc-youlab-01|1|1|2G||/hpc/home/smokeauth2-tst|
smokeauth2-tst|COMPLETED|scavenger|2023-05-16T08:41:33|2023-05-16T08:41:34|00:00:01|dcc-youlab-01|1|1|2G||/hpc/home/smokeauth2-tst|
smokeauth2-tst|COMPLETED|scavenger|2023-05-16T08:41:35|2023-05-16T08:41:36|00:00:01|dcc-youlab-01|1|1|2G||/hpc/home/smokeauth2-tst|
smokeauth2-tst|COMPLETED|scavenger|2023-05-16T08:41:37|2023-05-16T08:41:38|00:00:01|dcc-youlab-01|1|1|2G||/hpc/home/smokeauth2-tst|
smokeauth2-tst|COMPLETED|scavenger|2023-05-16T08:41:39|2023-05-16T08:41:40|00:00:01|dcc-youlab-01|1|1|2G||/hpc/home/smokeauth2-tst|
smokeauth2-tst|COMPLETED|scavenger|2023-05-16T08:51:31|2023-05-16T08:51:32|00:00:01|dcc-youlab-01|1|1|2G||/hpc/home/smokeauth2-tst|
smokeauth2-tst|COMPLETED|scavenger|2023-05-16T08:51:33|2023-05-16T08:51:34|00:00:01|dcc-youlab-01|1|1|2G||/hpc/home/smokeauth2-tst|
smokeauth2-tst|COMPLETED|scavenger|2023-05-16T08:51:35|2023-05-16T08:51:36|00:00:01|dcc-youlab-01|1|1|2G||/hpc/home/smokeauth2-tst|
smokeauth2-tst|COMPLETED|scavenger|2023-05-16T08:51:37|2023-05-16T08:51:38|00:00:01|dcc-youlab-01|1|1|2G||/hpc/home/smokeauth2-tst|
smokeauth2-tst|COMPLETED|scavenger|2023-05-16T08:51:39|2023-05-16T08:51:40|00:00:01|dcc-youlab-01|1|1|2G||/hpc/home/smokeauth2-tst|
