pz19|RUNNING|scavenger|2023-03-29T09:52:04|Unknown|77-04:29:01|dcc-fergusonlab-05|1|10|457000M||/work/pz19/Jiaqi/13e14o|
smokeauth2-tst|NODE_FAIL|scavenger|2023-04-18T10:56:00|2023-05-29T17:29:37|41-06:33:37|dcc-tunglab-02|1|1|2G||/hpc/home/smokeauth2-tst|
smokeauth2-tst|RUNNING|scavenger|2023-04-18T12:49:48|Unknown|57-01:31:17|dcc-noor-01|1|1|2G||/hpc/home/smokeauth2-tst|
fjm7|RUNNING|scavenger|2023-04-23T15:19:07|Unknown|51-23:01:58|dcc-noor-01|1|1|2G||/hpc/group/brownlab/fjm7/new-data-collection/slurm-runners|
fjm7|RUNNING|scavenger|2023-04-23T15:19:07|Unknown|51-23:01:58|dcc-noor-01|1|1|2G||/hpc/group/brownlab/fjm7/new-data-collection/slurm-runners|
fjm7|RUNNING|scavenger|2023-04-23T15:19:07|Unknown|51-23:01:58|dcc-noor-01|1|1|2G||/hpc/group/brownlab/fjm7/new-data-collection/slurm-runners|
fjm7|RUNNING|scavenger|2023-04-23T15:19:08|Unknown|51-23:01:57|dcc-noor-01|1|1|2G||/hpc/group/brownlab/fjm7/new-data-collection/slurm-runners|
fjm7|RUNNING|scavenger|2023-04-23T15:19:08|Unknown|51-23:01:57|dcc-noor-01|1|1|2G||/hpc/group/brownlab/fjm7/new-data-collection/slurm-runners|
lh342|TIMEOUT|scavenger|2023-05-02T03:05:50|2023-06-01T03:06:14|30-00:00:24|dcc-compeb-02|1|8|16G||/hpc/home/lh342/ondemand/data/sys/dashboard/batch_connect/sys/bc_desktop/dcc/output/702824cf-eb77-47a5-9f97-205f479dd2d4|
cw446|CANCELLED by 1401348|scavenger|2023-05-08T23:40:21|2023-05-30T10:48:58|21-11:08:37|dcc-fergusonlab-04|1|5|300G||/hpc/group/jilab/changxin|
smokeauth2-tst|RUNNING|scavenger|2023-05-09T00:51:37|Unknown|36-13:29:28|dcc-wychem-01|1|1|2G||/hpc/home/smokeauth2-tst|
pz19|TIMEOUT|scavenger|2023-05-15T19:38:05|2023-05-26T09:38:25|10-14:00:20|dcc-fergusonlab-01|1|16|25408M||/work/pz19/Wang/Copper/Silicon/TS_06_3Lig/M06L|
pz19|TIMEOUT|scavenger|2023-05-15T23:18:17|2023-05-26T13:18:19|10-14:00:02|dcc-compeb-01|1|16|25408M||/work/pz19/Wang/Copper/Silicon/TS_06_3Lig/MN15|
pz19|COMPLETED|scavenger|2023-05-15T23:21:42|2023-05-30T14:18:14|14-14:56:32|dcc-fergusonlab-01|1|16|32000M||/work/pz19/Dexter|
lh342|RUNNING|scavenger|2023-05-16T10:36:56|Unknown|29-03:44:09|dcc-carin-23|1|8|16G||/hpc/home/lh342/ondemand/data/sys/dashboard/batch_connect/sys/bc_desktop/dcc/output/594ab9c6-93bc-4698-ac53-905dbde8eef7|
hk288|CANCELLED by 1484570|scavenger|2023-05-16T14:31:16|2023-05-24T09:24:07|7-18:52:51|dcc-gcb-02|1|40|80G||/hpc/group/mastatlab/hk288/code_hp_paral|
hk288|CANCELLED by 1484570|scavenger|2023-05-16T14:33:02|2023-05-24T09:24:07|7-18:51:05|dcc-donglab-01|1|40|80G||/hpc/group/mastatlab/hk288/code_hp_paral|
jz316|COMPLETED|scavenger|2023-05-17T10:59:23|2023-05-23T13:56:56|6-02:57:33|dcc-dunsonlab-02|1|10|31G||/work/jz316/fenhc-pdi/mn15l|
pz19|PREEMPTED|scavenger|2023-05-17T12:31:28|2023-05-24T11:00:43|6-22:29:15|dcc-bragg-02|1|16|25408M||/work/pz19/Wang/Copper/Silicon/TS_06_3LigOAc/B3LYP|
ew198|COMPLETED|scavenger|2023-05-17T15:01:57|2023-05-30T13:18:19|12-22:16:22|dcc-youlab-01|1|1|125G||/cifs/hariri-long/Projects/Annchen/Scripts/ArealMSHBM|
ew198|COMPLETED|scavenger|2023-05-17T15:01:57|2023-05-30T13:18:47|12-22:16:50|dcc-wychem-01|1|1|16000M||/cifs/hariri-long/Projects/Annchen/Scripts/ArealMSHBM|
ew198|COMPLETED|scavenger|2023-05-17T15:01:57|2023-05-30T13:18:47|12-22:16:50|dcc-wychem-01|1|1|16000M||/cifs/hariri-long/Projects/Annchen/Scripts/ArealMSHBM|
ew198|COMPLETED|scavenger|2023-05-17T15:01:57|2023-05-30T13:18:47|12-22:16:50|dcc-wychem-01|1|1|16000M||/cifs/hariri-long/Projects/Annchen/Scripts/ArealMSHBM|
ew198|COMPLETED|scavenger|2023-05-17T15:01:57|2023-05-30T13:18:47|12-22:16:50|dcc-wychem-01|1|1|16000M||/cifs/hariri-long/Projects/Annchen/Scripts/ArealMSHBM|
ew198|COMPLETED|scavenger|2023-05-17T15:01:57|2023-05-30T13:18:47|12-22:16:50|dcc-wychem-01|1|1|16000M||/cifs/hariri-long/Projects/Annchen/Scripts/ArealMSHBM|
ew198|COMPLETED|scavenger|2023-05-17T15:01:57|2023-05-30T13:18:47|12-22:16:50|dcc-wychem-01|1|1|16000M||/cifs/hariri-long/Projects/Annchen/Scripts/ArealMSHBM|
ew198|COMPLETED|scavenger|2023-05-17T15:01:57|2023-05-30T13:18:47|12-22:16:50|dcc-wychem-01|1|1|16000M||/cifs/hariri-long/Projects/Annchen/Scripts/ArealMSHBM|
ew198|COMPLETED|scavenger|2023-05-17T15:01:57|2023-05-30T13:18:47|12-22:16:50|dcc-wychem-01|1|1|16000M||/cifs/hariri-long/Projects/Annchen/Scripts/ArealMSHBM|
ew198|COMPLETED|scavenger|2023-05-17T15:01:57|2023-05-30T13:18:47|12-22:16:50|dcc-wychem-01|1|1|16000M||/cifs/hariri-long/Projects/Annchen/Scripts/ArealMSHBM|
ew198|NODE_FAIL|scavenger|2023-05-17T15:01:57|2023-05-29T17:29:37|12-02:27:40|dcc-tunglab-02|1|1|16000M||/cifs/hariri-long/Projects/Annchen/Scripts/ArealMSHBM|
ew198|NODE_FAIL|scavenger|2023-05-17T15:01:57|2023-05-29T17:29:37|12-02:27:40|dcc-tunglab-02|1|1|16000M||/cifs/hariri-long/Projects/Annchen/Scripts/ArealMSHBM|
ew198|NODE_FAIL|scavenger|2023-05-17T15:01:57|2023-05-29T17:29:37|12-02:27:40|dcc-tunglab-02|1|1|16000M||/cifs/hariri-long/Projects/Annchen/Scripts/ArealMSHBM|
ew198|NODE_FAIL|scavenger|2023-05-17T15:01:57|2023-05-29T17:29:37|12-02:27:40|dcc-tunglab-02|1|1|16000M||/cifs/hariri-long/Projects/Annchen/Scripts/ArealMSHBM|
ew198|NODE_FAIL|scavenger|2023-05-17T15:01:58|2023-05-29T17:29:37|12-02:27:39|dcc-tunglab-02|1|1|16000M||/cifs/hariri-long/Projects/Annchen/Scripts/ArealMSHBM|
ew198|NODE_FAIL|scavenger|2023-05-17T15:01:58|2023-05-29T17:29:37|12-02:27:39|dcc-tunglab-02|1|1|16000M||/cifs/hariri-long/Projects/Annchen/Scripts/ArealMSHBM|
ew198|NODE_FAIL|scavenger|2023-05-17T15:01:58|2023-05-29T17:29:37|12-02:27:39|dcc-tunglab-02|1|1|125G||/cifs/hariri-long/Projects/Annchen/Scripts/ArealMSHBM|
ew198|NODE_FAIL|scavenger|2023-05-17T15:01:58|2023-05-29T17:29:37|12-02:27:39|dcc-tunglab-02|1|1|16000M||/cifs/hariri-long/Projects/Annchen/Scripts/ArealMSHBM|
ew198|NODE_FAIL|scavenger|2023-05-17T15:01:58|2023-05-29T17:29:37|12-02:27:39|dcc-tunglab-02|1|1|16000M||/cifs/hariri-long/Projects/Annchen/Scripts/ArealMSHBM|
ew198|NODE_FAIL|scavenger|2023-05-17T15:01:58|2023-05-29T17:29:37|12-02:27:39|dcc-tunglab-02|1|1|16000M||/cifs/hariri-long/Projects/Annchen/Scripts/ArealMSHBM|
ew198|NODE_FAIL|scavenger|2023-05-17T15:01:58|2023-05-29T17:29:37|12-02:27:39|dcc-tunglab-02|1|1|16000M||/cifs/hariri-long/Projects/Annchen/Scripts/ArealMSHBM|
ew198|NODE_FAIL|scavenger|2023-05-17T15:01:58|2023-05-29T17:29:37|12-02:27:39|dcc-tunglab-02|1|1|16000M||/cifs/hariri-long/Projects/Annchen/Scripts/ArealMSHBM|
ew198|COMPLETED|scavenger|2023-05-17T15:01:58|2023-05-30T13:18:33|12-22:16:35|dcc-tunglab-01|1|1|16000M||/cifs/hariri-long/Projects/Annchen/Scripts/ArealMSHBM|
ew198|PREEMPTED|scavenger|2023-05-17T15:01:58|2023-05-31T16:16:08|14-01:14:10|dcc-tunglab-01|1|1|16000M||/cifs/hariri-long/Projects/Annchen/Scripts/ArealMSHBM|
ew198|COMPLETED|scavenger|2023-05-17T15:01:58|2023-05-30T13:18:33|12-22:16:35|dcc-tunglab-01|1|1|16000M||/cifs/hariri-long/Projects/Annchen/Scripts/ArealMSHBM|
ew198|PREEMPTED|scavenger|2023-05-17T15:01:58|2023-05-31T16:35:14|14-01:33:16|dcc-tunglab-01|1|1|16000M||/cifs/hariri-long/Projects/Annchen/Scripts/ArealMSHBM|
ew198|COMPLETED|scavenger|2023-05-17T15:01:58|2023-05-30T13:18:33|12-22:16:35|dcc-tunglab-01|1|1|16000M||/cifs/hariri-long/Projects/Annchen/Scripts/ArealMSHBM|
ew198|PREEMPTED|scavenger|2023-05-17T15:01:58|2023-05-31T16:35:18|14-01:33:20|dcc-tunglab-01|1|1|16000M||/cifs/hariri-long/Projects/Annchen/Scripts/ArealMSHBM|
ew198|COMPLETED|scavenger|2023-05-17T15:01:58|2023-05-30T13:18:33|12-22:16:35|dcc-tunglab-01|1|1|16000M||/cifs/hariri-long/Projects/Annchen/Scripts/ArealMSHBM|
ew198|PREEMPTED|scavenger|2023-05-17T15:01:58|2023-05-31T16:35:25|14-01:33:27|dcc-tunglab-01|1|1|16000M||/cifs/hariri-long/Projects/Annchen/Scripts/ArealMSHBM|
ew198|COMPLETED|scavenger|2023-05-17T15:01:59|2023-05-30T13:18:33|12-22:16:34|dcc-tunglab-01|1|1|16000M||/cifs/hariri-long/Projects/Annchen/Scripts/ArealMSHBM|
ew198|PREEMPTED|scavenger|2023-05-17T15:01:59|2023-05-31T16:35:32|14-01:33:33|dcc-tunglab-01|1|1|16000M||/cifs/hariri-long/Projects/Annchen/Scripts/ArealMSHBM|
ew198|COMPLETED|scavenger|2023-05-17T15:01:59|2023-05-30T13:18:47|12-22:16:48|dcc-tmolab-02|1|1|16000M||/cifs/hariri-long/Projects/Annchen/Scripts/ArealMSHBM|
ew198|CANCELLED by 1455533|scavenger|2023-05-17T15:01:59|2023-06-02T11:18:52|15-20:16:53|dcc-tmolab-02|1|1|16000M||/cifs/hariri-long/Projects/Annchen/Scripts/ArealMSHBM|
ew198|COMPLETED|scavenger|2023-05-17T15:01:59|2023-05-30T13:18:47|12-22:16:48|dcc-tmolab-02|1|1|16000M||/cifs/hariri-long/Projects/Annchen/Scripts/ArealMSHBM|
ew198|CANCELLED by 1455533|scavenger|2023-05-17T15:01:59|2023-06-02T11:18:52|15-20:16:53|dcc-tmolab-02|1|1|16000M||/cifs/hariri-long/Projects/Annchen/Scripts/ArealMSHBM|
ew198|COMPLETED|scavenger|2023-05-17T15:01:59|2023-05-30T13:18:47|12-22:16:48|dcc-tmolab-02|1|1|16000M||/cifs/hariri-long/Projects/Annchen/Scripts/ArealMSHBM|
ew198|CANCELLED by 1455533|scavenger|2023-05-17T15:01:59|2023-06-02T11:18:52|15-20:16:53|dcc-tmolab-02|1|1|16000M||/cifs/hariri-long/Projects/Annchen/Scripts/ArealMSHBM|
ew198|COMPLETED|scavenger|2023-05-17T15:01:59|2023-05-30T13:18:47|12-22:16:48|dcc-tmolab-02|1|1|16000M||/cifs/hariri-long/Projects/Annchen/Scripts/ArealMSHBM|
ew198|CANCELLED by 1455533|scavenger|2023-05-17T15:01:59|2023-06-02T11:18:52|15-20:16:53|dcc-tmolab-02|1|1|16000M||/cifs/hariri-long/Projects/Annchen/Scripts/ArealMSHBM|
ew198|COMPLETED|scavenger|2023-05-17T15:01:59|2023-05-30T13:18:44|12-22:16:45|dcc-tmolab-01|1|1|16000M||/cifs/hariri-long/Projects/Annchen/Scripts/ArealMSHBM|
ew198|CANCELLED by 1455533|scavenger|2023-05-17T15:01:59|2023-06-02T11:18:52|15-20:16:53|dcc-tmolab-01|1|1|16000M||/cifs/hariri-long/Projects/Annchen/Scripts/ArealMSHBM|
ew198|COMPLETED|scavenger|2023-05-17T15:01:59|2023-05-30T13:18:44|12-22:16:45|dcc-tmolab-01|1|1|16000M||/cifs/hariri-long/Projects/Annchen/Scripts/ArealMSHBM|
ew198|CANCELLED by 1455533|scavenger|2023-05-17T15:01:59|2023-06-02T11:18:52|15-20:16:53|dcc-tmolab-01|1|1|16000M||/cifs/hariri-long/Projects/Annchen/Scripts/ArealMSHBM|
ew198|COMPLETED|scavenger|2023-05-17T15:01:59|2023-05-30T13:18:44|12-22:16:45|dcc-tmolab-01|1|1|16000M||/cifs/hariri-long/Projects/Annchen/Scripts/ArealMSHBM|
ew198|CANCELLED by 1455533|scavenger|2023-05-17T15:01:59|2023-06-02T11:18:52|15-20:16:53|dcc-tmolab-01|1|1|16000M||/cifs/hariri-long/Projects/Annchen/Scripts/ArealMSHBM|
ew198|CANCELLED by 1455533|scavenger|2023-05-17T15:01:59|2023-06-02T11:18:52|15-20:16:53|dcc-tmolab-01|1|1|16000M||/cifs/hariri-long/Projects/Annchen/Scripts/ArealMSHBM|
ew198|PREEMPTED|scavenger|2023-05-17T15:01:59|2023-05-26T08:21:05|8-17:19:06|dcc-statdept-01|1|1|16000M||/cifs/hariri-long/Projects/Annchen/Scripts/ArealMSHBM|
ew198|PREEMPTED|scavenger|2023-05-17T15:01:59|2023-05-26T08:21:05|8-17:19:06|dcc-statdept-01|1|1|16000M||/cifs/hariri-long/Projects/Annchen/Scripts/ArealMSHBM|
ew198|PREEMPTED|scavenger|2023-05-17T15:01:59|2023-05-27T14:07:00|9-23:05:01|dcc-statdept-01|1|1|16000M||/cifs/hariri-long/Projects/Annchen/Scripts/ArealMSHBM|
ew198|PREEMPTED|scavenger|2023-05-17T15:01:59|2023-05-27T14:07:00|9-23:05:01|dcc-statdept-01|1|1|16000M||/cifs/hariri-long/Projects/Annchen/Scripts/ArealMSHBM|
ew198|PREEMPTED|scavenger|2023-05-17T15:01:59|2023-05-27T14:07:00|9-23:05:01|dcc-statdept-01|1|1|16000M||/cifs/hariri-long/Projects/Annchen/Scripts/ArealMSHBM|
ew198|PREEMPTED|scavenger|2023-05-17T15:01:59|2023-05-27T14:07:00|9-23:05:01|dcc-statdept-01|1|1|16000M||/cifs/hariri-long/Projects/Annchen/Scripts/ArealMSHBM|
ew198|PREEMPTED|scavenger|2023-05-17T15:01:59|2023-05-27T14:07:00|9-23:05:01|dcc-statdept-01|1|1|16000M||/cifs/hariri-long/Projects/Annchen/Scripts/ArealMSHBM|
ew198|PREEMPTED|scavenger|2023-05-17T15:01:59|2023-05-27T14:07:00|9-23:05:01|dcc-statdept-01|1|1|16000M||/cifs/hariri-long/Projects/Annchen/Scripts/ArealMSHBM|
ew198|PREEMPTED|scavenger|2023-05-17T15:01:59|2023-05-27T14:07:00|9-23:05:01|dcc-statdept-01|1|1|16000M||/cifs/hariri-long/Projects/Annchen/Scripts/ArealMSHBM|
ew198|PREEMPTED|scavenger|2023-05-17T15:01:59|2023-05-27T14:07:00|9-23:05:01|dcc-statdept-01|1|1|16000M||/cifs/hariri-long/Projects/Annchen/Scripts/ArealMSHBM|
ew198|PREEMPTED|scavenger|2023-05-17T15:02:00|2023-05-27T14:07:00|9-23:05:00|dcc-statdept-01|1|1|16000M||/cifs/hariri-long/Projects/Annchen/Scripts/ArealMSHBM|
ew198|COMPLETED|scavenger|2023-05-17T15:02:00|2023-05-30T13:19:00|12-22:17:00|dcc-statdept-01|1|1|16000M||/cifs/hariri-long/Projects/Annchen/Scripts/ArealMSHBM|
ew198|CANCELLED by 1455533|scavenger|2023-05-17T15:02:00|2023-06-02T11:18:52|15-20:16:52|dcc-statdept-01|1|1|16000M||/cifs/hariri-long/Projects/Annchen/Scripts/ArealMSHBM|
ew198|COMPLETED|scavenger|2023-05-17T15:02:30|2023-05-30T13:19:00|12-22:16:30|dcc-statdept-01|1|1|16000M||/cifs/hariri-long/Projects/Annchen/Scripts/ArealMSHBM|
ew198|CANCELLED by 1455533|scavenger|2023-05-17T15:02:30|2023-06-02T11:18:52|15-20:16:22|dcc-savageresearch-02|1|1|16000M||/cifs/hariri-long/Projects/Annchen/Scripts/ArealMSHBM|
ew198|COMPLETED|scavenger|2023-05-17T15:02:30|2023-05-30T13:18:35|12-22:16:05|dcc-savageresearch-02|1|1|16000M||/cifs/hariri-long/Projects/Annchen/Scripts/ArealMSHBM|
ew198|COMPLETED|scavenger|2023-05-17T15:02:30|2023-05-30T13:18:35|12-22:16:05|dcc-savageresearch-02|1|1|16000M||/cifs/hariri-long/Projects/Annchen/Scripts/ArealMSHBM|
ew198|CANCELLED by 1455533|scavenger|2023-05-17T15:02:30|2023-06-02T11:18:52|15-20:16:22|dcc-savageresearch-02|1|1|16000M||/cifs/hariri-long/Projects/Annchen/Scripts/ArealMSHBM|
ew198|CANCELLED by 1455533|scavenger|2023-05-17T15:02:30|2023-06-02T11:18:52|15-20:16:22|dcc-savageresearch-02|1|1|16000M||/cifs/hariri-long/Projects/Annchen/Scripts/ArealMSHBM|
ew198|COMPLETED|scavenger|2023-05-17T15:02:30|2023-05-30T13:18:35|12-22:16:05|dcc-savageresearch-02|1|1|16000M||/cifs/hariri-long/Projects/Annchen/Scripts/ArealMSHBM|
ew198|COMPLETED|scavenger|2023-05-17T15:02:31|2023-05-30T13:18:35|12-22:16:04|dcc-savageresearch-02|1|1|16000M||/cifs/hariri-long/Projects/Annchen/Scripts/ArealMSHBM|
ew198|CANCELLED by 1455533|scavenger|2023-05-17T15:02:31|2023-06-02T11:18:52|15-20:16:21|dcc-savageresearch-02|1|1|16000M||/cifs/hariri-long/Projects/Annchen/Scripts/ArealMSHBM|
ew198|COMPLETED|scavenger|2023-05-17T15:02:31|2023-05-30T13:18:35|12-22:16:04|dcc-savageresearch-02|1|1|16000M||/cifs/hariri-long/Projects/Annchen/Scripts/ArealMSHBM|
ew198|CANCELLED by 1455533|scavenger|2023-05-17T15:02:31|2023-06-02T11:18:52|15-20:16:21|dcc-savageresearch-02|1|1|16000M||/cifs/hariri-long/Projects/Annchen/Scripts/ArealMSHBM|
ew198|CANCELLED by 1455533|scavenger|2023-05-17T15:02:31|2023-06-02T11:18:52|15-20:16:21|dcc-savageresearch-02|1|1|16000M||/cifs/hariri-long/Projects/Annchen/Scripts/ArealMSHBM|
ew198|COMPLETED|scavenger|2023-05-17T15:02:31|2023-05-30T13:18:35|12-22:16:04|dcc-savageresearch-02|1|1|16000M||/cifs/hariri-long/Projects/Annchen/Scripts/ArealMSHBM|
ew198|COMPLETED|scavenger|2023-05-17T15:02:31|2023-05-30T13:18:35|12-22:16:04|dcc-savageresearch-01|1|1|16000M||/cifs/hariri-long/Projects/Annchen/Scripts/ArealMSHBM|
ew198|CANCELLED by 1455533|scavenger|2023-05-17T15:02:31|2023-06-02T11:18:52|15-20:16:21|dcc-savageresearch-01|1|1|16000M||/cifs/hariri-long/Projects/Annchen/Scripts/ArealMSHBM|
ew198|CANCELLED by 1455533|scavenger|2023-05-17T15:02:31|2023-06-02T11:18:52|15-20:16:21|dcc-savageresearch-01|1|1|16000M||/cifs/hariri-long/Projects/Annchen/Scripts/ArealMSHBM|
ew198|COMPLETED|scavenger|2023-05-17T15:02:31|2023-05-30T13:18:35|12-22:16:04|dcc-savageresearch-01|1|1|16000M||/cifs/hariri-long/Projects/Annchen/Scripts/ArealMSHBM|
ew198|CANCELLED by 1455533|scavenger|2023-05-17T15:02:31|2023-06-02T11:18:52|15-20:16:21|dcc-savageresearch-01|1|1|16000M||/cifs/hariri-long/Projects/Annchen/Scripts/ArealMSHBM|
ew198|COMPLETED|scavenger|2023-05-17T15:02:31|2023-05-30T13:18:35|12-22:16:04|dcc-savageresearch-01|1|1|16000M||/cifs/hariri-long/Projects/Annchen/Scripts/ArealMSHBM|
ew198|CANCELLED by 1455533|scavenger|2023-05-17T15:02:31|2023-06-02T11:18:52|15-20:16:21|dcc-rausherlab-02|1|1|16000M||/cifs/hariri-long/Projects/Annchen/Scripts/ArealMSHBM|
ew198|COMPLETED|scavenger|2023-05-17T15:02:31|2023-05-30T13:18:52|12-22:16:21|dcc-rausherlab-02|1|1|16000M||/cifs/hariri-long/Projects/Annchen/Scripts/ArealMSHBM|
ew198|CANCELLED by 1455533|scavenger|2023-05-17T15:02:31|2023-06-02T11:18:52|15-20:16:21|dcc-rausherlab-01|1|1|16000M||/cifs/hariri-long/Projects/Annchen/Scripts/ArealMSHBM|
ew198|COMPLETED|scavenger|2023-05-17T15:02:31|2023-05-30T13:18:42|12-22:16:11|dcc-rausherlab-01|1|1|16000M||/cifs/hariri-long/Projects/Annchen/Scripts/ArealMSHBM|
ew198|CANCELLED by 1455533|scavenger|2023-05-17T15:02:31|2023-06-02T11:18:52|15-20:16:21|dcc-rausherlab-01|1|1|16000M||/cifs/hariri-long/Projects/Annchen/Scripts/ArealMSHBM|
ew198|COMPLETED|scavenger|2023-05-17T15:02:32|2023-05-30T13:18:42|12-22:16:10|dcc-rausherlab-01|1|1|16000M||/cifs/hariri-long/Projects/Annchen/Scripts/ArealMSHBM|
ew198|CANCELLED by 1455533|scavenger|2023-05-17T15:02:32|2023-06-02T11:18:52|15-20:16:20|dcc-rausherlab-01|1|1|16000M||/cifs/hariri-long/Projects/Annchen/Scripts/ArealMSHBM|
ew198|COMPLETED|scavenger|2023-05-17T15:02:32|2023-05-30T13:18:44|12-22:16:12|dcc-rausherlab-01|1|1|16000M||/cifs/hariri-long/Projects/Annchen/Scripts/ArealMSHBM|
ew198|CANCELLED by 1455533|scavenger|2023-05-17T15:02:32|2023-06-02T11:18:52|15-20:16:20|dcc-rausherlab-01|1|1|16000M||/cifs/hariri-long/Projects/Annchen/Scripts/ArealMSHBM|
ew198|COMPLETED|scavenger|2023-05-17T15:02:32|2023-05-30T13:18:44|12-22:16:12|dcc-rausherlab-01|1|1|16000M||/cifs/hariri-long/Projects/Annchen/Scripts/ArealMSHBM|
ew198|CANCELLED by 1455533|scavenger|2023-05-17T15:02:32|2023-06-02T11:18:52|15-20:16:20|dcc-pfister-01|1|1|16000M||/cifs/hariri-long/Projects/Annchen/Scripts/ArealMSHBM|
ew198|CANCELLED by 1455533|scavenger|2023-05-17T15:02:32|2023-06-02T11:18:52|15-20:16:20|dcc-pfister-01|1|1|16000M||/cifs/hariri-long/Projects/Annchen/Scripts/ArealMSHBM|
ew198|CANCELLED by 1455533|scavenger|2023-05-17T15:02:32|2023-06-02T11:18:52|15-20:16:20|dcc-pfister-01|1|1|16000M||/cifs/hariri-long/Projects/Annchen/Scripts/ArealMSHBM|
ew198|CANCELLED by 1455533|scavenger|2023-05-17T15:02:32|2023-06-02T11:18:52|15-20:16:20|dcc-pfister-01|1|1|16000M||/cifs/hariri-long/Projects/Annchen/Scripts/ArealMSHBM|
ew198|CANCELLED by 1455533|scavenger|2023-05-17T15:02:32|2023-06-02T11:18:52|15-20:16:20|dcc-pfister-01|1|1|16000M||/cifs/hariri-long/Projects/Annchen/Scripts/ArealMSHBM|
ew198|CANCELLED by 1455533|scavenger|2023-05-17T15:02:32|2023-06-02T11:18:52|15-20:16:20|dcc-pfister-01|1|1|16000M||/cifs/hariri-long/Projects/Annchen/Scripts/ArealMSHBM|
ew198|CANCELLED by 1455533|scavenger|2023-05-17T15:02:32|2023-06-02T11:18:52|15-20:16:20|dcc-pfister-01|1|1|16000M||/cifs/hariri-long/Projects/Annchen/Scripts/ArealMSHBM|
ew198|CANCELLED by 1455533|scavenger|2023-05-17T15:02:32|2023-06-02T11:18:52|15-20:16:20|dcc-pfister-01|1|1|16000M||/cifs/hariri-long/Projects/Annchen/Scripts/ArealMSHBM|
ew198|CANCELLED by 1455533|scavenger|2023-05-17T15:02:32|2023-06-02T11:18:52|15-20:16:20|dcc-pfister-01|1|1|16000M||/cifs/hariri-long/Projects/Annchen/Scripts/ArealMSHBM|
ew198|CANCELLED by 1455533|scavenger|2023-05-17T15:02:32|2023-06-02T11:18:52|15-20:16:20|dcc-pfister-01|1|1|16000M||/cifs/hariri-long/Projects/Annchen/Scripts/ArealMSHBM|
ew198|CANCELLED by 1455533|scavenger|2023-05-17T15:02:32|2023-06-02T11:18:52|15-20:16:20|dcc-pfister-01|1|1|16000M||/cifs/hariri-long/Projects/Annchen/Scripts/ArealMSHBM|
ew198|CANCELLED by 1455533|scavenger|2023-05-17T15:02:32|2023-06-02T11:18:52|15-20:16:20|dcc-pfister-01|1|1|16000M||/cifs/hariri-long/Projects/Annchen/Scripts/ArealMSHBM|
ew198|CANCELLED by 1455533|scavenger|2023-05-17T15:02:32|2023-06-02T11:18:52|15-20:16:20|dcc-pfister-01|1|1|16000M||/cifs/hariri-long/Projects/Annchen/Scripts/ArealMSHBM|
hk288|OUT_OF_MEMORY|scavenger|2023-05-17T22:39:19|2023-05-23T09:00:38|5-10:21:19|dcc-bragg-04|1|40|80G||/hpc/group/mastatlab/hk288/code_hp_paral|
hk288|OUT_OF_MEMORY|scavenger|2023-05-17T22:39:19|2023-05-24T05:21:14|6-06:41:55|dcc-compeb-03|1|40|80G||/hpc/group/mastatlab/hk288/code_hp_paral|
hk288|OUT_OF_MEMORY|scavenger|2023-05-17T22:39:19|2023-05-23T12:28:43|5-13:49:24|dcc-hashimilab-01|1|40|80G||/hpc/group/mastatlab/hk288/code_hp_paral|
hk288|OUT_OF_MEMORY|scavenger|2023-05-18T16:21:20|2023-05-24T06:08:14|5-13:46:54|dcc-cagpm-01|1|40|80G||/hpc/group/mastatlab/hk288/code_hp_paral|
sw582|CANCELLED by 1498075|scavenger|2023-05-19T00:41:58|2023-05-24T00:14:09|4-23:32:11|dcc-wychem-01|1|1|2G||/hpc/group/dbergerlab/sw582/empty_dir|
jo117|CANCELLED by 1171683|scavenger|2023-05-19T12:47:44|2023-05-23T16:35:05|4-03:47:21|dcc-pbenfeylab-01|1|1|200G||/work/jo117/RoperLab/Babak/HTAN_VUMC|
pz19|TIMEOUT|scavenger|2023-05-19T15:41:44|2023-05-30T05:41:54|10-14:00:10|dcc-adrc-01|1|16|25408M||/work/pz19/Wang/Copper/Silicon/TS_06_3Lig/M06L|
pz19|PREEMPTED|scavenger|2023-05-19T15:49:57|2023-05-25T16:43:21|6-00:53:24|dcc-adrc-01|1|16|25408M||/work/pz19/Wang/Copper/Silicon/TS_06_3Lig/MN15|
pz19|TIMEOUT|scavenger|2023-05-19T15:57:29|2023-05-30T05:57:54|10-14:00:25|dcc-adrc-01|1|16|25408M||/work/pz19/Wang/Copper/Silicon/TS_06_3Lig/MN15|
yl708|CANCELLED by 1382854|scavenger|2023-05-20T08:39:29|2023-05-25T10:49:22|5-02:09:53|dcc-tunglab-02|1|1|2500M||/hpc/group/donald/yl708/TopologyNet-2017/perturbations|
yl708|CANCELLED by 1382854|scavenger|2023-05-20T08:39:29|2023-05-25T10:49:22|5-02:09:53|dcc-tunglab-02|1|1|2500M||/hpc/group/donald/yl708/TopologyNet-2017/perturbations|
ark19|CANCELLED by 1027614|scavenger|2023-05-19T17:05:48|2023-05-23T12:51:55|3-19:46:07|dcc-youlab-01|1|1|125G||/hpc/home/ark19|
ark19|CANCELLED by 1027614|scavenger|2023-05-19T17:05:48|2023-05-23T12:51:55|3-19:46:07|dcc-youlab-01|1|1|16000M||/hpc/home/ark19|
ark19|CANCELLED by 1027614|scavenger|2023-05-19T17:05:48|2023-05-23T12:51:55|3-19:46:07|dcc-youlab-01|1|1|16000M||/hpc/home/ark19|
ark19|CANCELLED by 1027614|scavenger|2023-05-19T17:05:48|2023-05-23T12:51:55|3-19:46:07|dcc-youlab-01|1|1|16000M||/hpc/home/ark19|
ark19|CANCELLED by 1027614|scavenger|2023-05-19T17:05:48|2023-05-23T12:51:55|3-19:46:07|dcc-youlab-01|1|1|16000M||/hpc/home/ark19|
ark19|CANCELLED by 1027614|scavenger|2023-05-19T17:05:48|2023-05-23T12:51:56|3-19:46:08|dcc-youlab-01|1|1|16000M||/hpc/home/ark19|
ark19|CANCELLED by 1027614|scavenger|2023-05-19T17:05:48|2023-05-23T12:51:56|3-19:46:08|dcc-youlab-01|1|1|16000M||/hpc/home/ark19|
ark19|CANCELLED by 1027614|scavenger|2023-05-19T17:05:48|2023-05-23T12:51:56|3-19:46:08|dcc-youlab-01|1|1|16000M||/hpc/home/ark19|
ark19|CANCELLED by 1027614|scavenger|2023-05-19T17:05:48|2023-05-23T12:51:56|3-19:46:08|dcc-youlab-01|1|1|16000M||/hpc/home/ark19|
ark19|CANCELLED by 1027614|scavenger|2023-05-19T17:05:48|2023-05-23T12:51:56|3-19:46:08|dcc-youlab-01|1|1|16000M||/hpc/home/ark19|
ark19|CANCELLED by 1027614|scavenger|2023-05-19T17:05:48|2023-05-23T12:51:56|3-19:46:08|dcc-youlab-01|1|1|16000M||/hpc/home/ark19|
ark19|CANCELLED by 1027614|scavenger|2023-05-19T17:05:48|2023-05-23T12:51:56|3-19:46:08|dcc-wychem-01|1|1|16000M||/hpc/home/ark19|
ark19|CANCELLED by 1027614|scavenger|2023-05-19T17:05:48|2023-05-23T12:51:56|3-19:46:08|dcc-wychem-01|1|1|16000M||/hpc/home/ark19|
ark19|CANCELLED by 1027614|scavenger|2023-05-19T17:05:52|2023-05-23T12:51:54|3-19:46:02|dcc-velmeshevlab-01|1|1|16000M||/hpc/home/ark19|
ark19|CANCELLED by 1027614|scavenger|2023-05-19T17:05:52|2023-05-23T12:51:54|3-19:46:02|dcc-velmeshevlab-01|1|1|16000M||/hpc/home/ark19|
ark19|CANCELLED by 1027614|scavenger|2023-05-19T17:05:52|2023-05-23T12:51:54|3-19:46:02|dcc-velmeshevlab-01|1|1|16000M||/hpc/home/ark19|
ark19|CANCELLED by 1027614|scavenger|2023-05-19T17:05:52|2023-05-23T12:51:54|3-19:46:02|dcc-velmeshevlab-01|1|1|16000M||/hpc/home/ark19|
ark19|CANCELLED by 1027614|scavenger|2023-05-19T17:05:52|2023-05-23T12:51:54|3-19:46:02|dcc-velmeshevlab-01|1|1|16000M||/hpc/home/ark19|
ark19|CANCELLED by 1027614|scavenger|2023-05-19T17:05:52|2023-05-23T12:51:54|3-19:46:02|dcc-velmeshevlab-01|1|1|16000M||/hpc/home/ark19|
ark19|CANCELLED by 1027614|scavenger|2023-05-19T17:05:52|2023-05-23T12:51:55|3-19:46:03|dcc-velmeshevlab-01|1|1|16000M||/hpc/home/ark19|
ark19|CANCELLED by 1027614|scavenger|2023-05-19T17:05:52|2023-05-23T12:51:55|3-19:46:03|dcc-tunglab-02|1|1|16000M||/hpc/home/ark19|
ark19|CANCELLED by 1027614|scavenger|2023-05-19T17:05:52|2023-05-23T12:51:55|3-19:46:03|dcc-tunglab-02|1|1|16000M||/hpc/home/ark19|
ark19|CANCELLED by 1027614|scavenger|2023-05-19T17:05:52|2023-05-23T12:51:55|3-19:46:03|dcc-tunglab-02|1|1|16000M||/hpc/home/ark19|
ark19|CANCELLED by 1027614|scavenger|2023-05-19T17:05:55|2023-05-23T12:51:53|3-19:45:58|dcc-tunglab-02|1|1|16000M||/hpc/home/ark19|
ark19|CANCELLED by 1027614|scavenger|2023-05-19T17:05:55|2023-05-23T12:51:54|3-19:45:59|dcc-tunglab-02|1|1|16000M||/hpc/home/ark19|
ark19|CANCELLED by 1027614|scavenger|2023-05-19T17:05:55|2023-05-23T12:51:54|3-19:45:59|dcc-tunglab-02|1|1|16000M||/hpc/home/ark19|
ark19|CANCELLED by 1027614|scavenger|2023-05-19T17:05:55|2023-05-23T12:51:54|3-19:45:59|dcc-tunglab-02|1|1|16000M||/hpc/home/ark19|
ark19|CANCELLED by 1027614|scavenger|2023-05-19T17:05:56|2023-05-23T12:51:52|3-19:45:56|dcc-tunglab-02|1|1|16000M||/hpc/home/ark19|
ark19|CANCELLED by 1027614|scavenger|2023-05-19T17:05:56|2023-05-23T12:51:53|3-19:45:57|dcc-tunglab-02|1|1|16000M||/hpc/home/ark19|
ark19|CANCELLED by 1027614|scavenger|2023-05-19T17:05:56|2023-05-23T12:51:53|3-19:45:57|dcc-tunglab-02|1|1|16000M||/hpc/home/ark19|
ark19|CANCELLED by 1027614|scavenger|2023-05-19T17:05:56|2023-05-23T12:51:53|3-19:45:57|dcc-tunglab-01|1|1|16000M||/hpc/home/ark19|
ark19|CANCELLED by 1027614|scavenger|2023-05-19T17:05:56|2023-05-23T12:51:53|3-19:45:57|dcc-tunglab-01|1|1|16000M||/hpc/home/ark19|
ark19|CANCELLED by 1027614|scavenger|2023-05-19T17:05:56|2023-05-23T12:51:53|3-19:45:57|dcc-tunglab-01|1|1|16000M||/hpc/home/ark19|
ark19|CANCELLED by 1027614|scavenger|2023-05-19T17:05:56|2023-05-23T12:51:53|3-19:45:57|dcc-tunglab-01|1|1|16000M||/hpc/home/ark19|
ark19|CANCELLED by 1027614|scavenger|2023-05-19T17:05:56|2023-05-23T12:51:53|3-19:45:57|dcc-tunglab-01|1|1|16000M||/hpc/home/ark19|
ark19|CANCELLED by 1027614|scavenger|2023-05-19T17:05:56|2023-05-23T12:51:53|3-19:45:57|dcc-tunglab-01|1|1|16000M||/hpc/home/ark19|
ark19|CANCELLED by 1027614|scavenger|2023-05-19T17:05:59|2023-05-23T12:51:52|3-19:45:53|dcc-tunglab-01|1|1|16000M||/hpc/home/ark19|
ark19|CANCELLED by 1027614|scavenger|2023-05-19T17:05:59|2023-05-23T12:51:52|3-19:45:53|dcc-tunglab-01|1|1|16000M||/hpc/home/ark19|
ark19|CANCELLED by 1027614|scavenger|2023-05-19T17:05:59|2023-05-23T12:51:52|3-19:45:53|dcc-tunglab-01|1|1|16000M||/hpc/home/ark19|
ark19|CANCELLED by 1027614|scavenger|2023-05-19T17:05:59|2023-05-23T12:51:52|3-19:45:53|dcc-tunglab-01|1|1|16000M||/hpc/home/ark19|
ark19|CANCELLED by 1027614|scavenger|2023-05-19T17:05:59|2023-05-23T12:51:52|3-19:45:53|dcc-tunglab-01|1|1|16000M||/hpc/home/ark19|
ark19|CANCELLED by 1027614|scavenger|2023-05-19T17:05:59|2023-05-23T12:51:52|3-19:45:53|dcc-tunglab-01|1|1|16000M||/hpc/home/ark19|
ark19|CANCELLED by 1027614|scavenger|2023-05-19T17:05:59|2023-05-23T12:51:52|3-19:45:53|dcc-tunglab-01|1|1|16000M||/hpc/home/ark19|
ark19|CANCELLED by 1027614|scavenger|2023-05-19T17:05:59|2023-05-23T12:51:52|3-19:45:53|dcc-tmolab-02|1|1|16000M||/hpc/home/ark19|
ark19|CANCELLED by 1027614|scavenger|2023-05-19T17:06:03|2023-05-23T12:51:51|3-19:45:48|dcc-tmolab-02|1|1|16000M||/hpc/home/ark19|
ark19|CANCELLED by 1027614|scavenger|2023-05-19T17:06:03|2023-05-23T12:51:51|3-19:45:48|dcc-tmolab-02|1|1|16000M||/hpc/home/ark19|
ark19|CANCELLED by 1027614|scavenger|2023-05-19T17:06:03|2023-05-23T12:51:51|3-19:45:48|dcc-tmolab-02|1|1|16000M||/hpc/home/ark19|
pz19|PREEMPTED|scavenger|2023-05-19T19:54:27|2023-05-24T15:01:14|4-19:06:47|dcc-bragg-05|1|16|25408M||/work/pz19/Wang/Copper/Silicon/TS_06_3LigOAc/MN15|
yl708|CANCELLED by 1382854|scavenger|2023-05-21T12:30:32|2023-05-25T10:49:22|3-22:18:50|dcc-tunglab-02|1|1|2500M||/hpc/group/donald/yl708/TopologyNet-2017/perturbations|
yl708|CANCELLED by 1382854|scavenger|2023-05-22T00:20:08|2023-05-25T10:49:22|3-10:29:14|dcc-tunglab-02|1|1|2500M||/hpc/group/donald/yl708/TopologyNet-2017/perturbations|
yl708|CANCELLED by 1382854|scavenger|2023-05-22T00:20:08|2023-05-25T10:49:22|3-10:29:14|dcc-tunglab-02|1|1|2500M||/hpc/group/donald/yl708/TopologyNet-2017/perturbations|
pz19|PREEMPTED|scavenger|2023-05-20T11:22:20|2023-05-24T15:01:14|4-03:38:54|dcc-bragg-05|1|16|25408M||/work/pz19/Wang/Copper/Silicon/TS_06_3LigOAc/B3LYP|
pz19|PREEMPTED|scavenger|2023-05-20T12:02:40|2023-05-24T15:01:14|4-02:58:34|dcc-bragg-05|1|16|25408M||/work/pz19/Wang/Copper/Silicon/TS_06_3Lig/MN15|
pz19|CANCELLED by 1050403|scavenger|2023-05-21T11:48:01|2023-05-30T10:18:10|8-22:30:09|dcc-compeb-01|1|16|25408M||/work/pz19/Wang/Copper/Silicon/TS_06_3LigOAc/B3LYP|
pz19|TIMEOUT|scavenger|2023-05-21T11:52:32|2023-06-01T01:52:58|10-14:00:26|dcc-adrc-01|1|16|25408M||/work/pz19/Wang/Copper/Silicon/TS_06_3LigOAc/B3LYP|
mea54|CANCELLED by 1496219|scavenger|2023-05-21T15:52:28|2023-05-25T11:58:03|3-20:05:35|dcc-fergusonlab-02|1|64|600G||/hpc/home/mea54/ondemand/data/sys/dashboard/batch_connect/sys/bc_microbiome_rstudio/output/7fce3810-d3da-4cc3-b087-ed2a673502bf|
cjp47|CANCELLED by 1179873|scavenger|2023-05-21T22:19:39|2023-05-22T21:26:58|23:07:19|dcc-fergusonlab-01|1|32|512G||/work/dg304/dala/cyanolichen_holobiome|
sw582|COMPLETED|scavenger|2023-05-22T00:48:28|2023-05-30T12:48:46|8-12:00:18|dcc-youlab-01|1|1|2G||/hpc/group/dbergerlab/sw582/empty_dir|
hk288|COMPLETED|scavenger|2023-05-22T07:33:07|2023-05-23T02:11:07|18:38:00|dcc-compeb-02|1|32|40G||/hpc/group/mastatlab/hk288/code_paired_ntaxa_bfam|
kdm65|FAILED|scavenger|2023-05-22T09:08:16|2023-05-23T14:27:59|1-05:19:43|dcc-youlab-01|1|1|32G||/work/kdm65/validation|
cjp47|COMPLETED|scavenger|2023-05-22T09:27:11|2023-05-23T03:12:16|17:45:05|dcc-velmeshevlab-01|1|1|64G||/hpc/group/bio1/cyanolichen_holobiome|
cjp47|PREEMPTED|scavenger|2023-05-22T09:27:11|2023-05-23T17:08:59|1-07:41:48|dcc-velmeshevlab-01|1|1|64G||/hpc/group/bio1/cyanolichen_holobiome|
cjp47|COMPLETED|scavenger|2023-05-22T09:27:11|2023-05-22T23:34:14|14:07:03|dcc-tunglab-01|1|1|64G||/hpc/group/bio1/cyanolichen_holobiome|
cjp47|RUNNING|scavenger|2023-05-22T09:27:11|Unknown|23-04:53:54|dcc-tmolab-01|1|1|64G||/hpc/group/bio1/cyanolichen_holobiome|
cjp47|PREEMPTED|scavenger|2023-05-22T09:27:11|2023-05-27T13:59:21|5-04:32:10|dcc-statdept-01|1|1|64G||/hpc/group/bio1/cyanolichen_holobiome|
cjp47|COMPLETED|scavenger|2023-05-22T09:27:11|2023-05-23T15:57:21|1-06:30:10|dcc-statdept-01|1|1|64G||/hpc/group/bio1/cyanolichen_holobiome|
cjp47|PREEMPTED|scavenger|2023-05-22T09:27:11|2023-05-27T13:59:21|5-04:32:10|dcc-statdept-01|1|1|64G||/hpc/group/bio1/cyanolichen_holobiome|
cjp47|PREEMPTED|scavenger|2023-05-22T09:27:11|2023-05-27T13:59:21|5-04:32:10|dcc-statdept-01|1|1|64G||/hpc/group/bio1/cyanolichen_holobiome|
cjp47|COMPLETED|scavenger|2023-05-22T09:27:11|2023-05-23T04:50:28|19:23:17|dcc-statdept-01|1|1|64G||/hpc/group/bio1/cyanolichen_holobiome|
cjp47|PREEMPTED|scavenger|2023-05-22T09:27:12|2023-05-27T13:59:21|5-04:32:09|dcc-statdept-01|1|1|64G||/hpc/group/bio1/cyanolichen_holobiome|
cjp47|PREEMPTED|scavenger|2023-05-22T09:27:12|2023-05-27T13:59:21|5-04:32:09|dcc-statdept-01|1|1|64G||/hpc/group/bio1/cyanolichen_holobiome|
pz19|CANCELLED by 1050403|scavenger|2023-05-22T10:31:54|2023-05-25T20:49:45|3-10:17:51|dcc-bragg-01|1|16|25408M||/work/pz19/Wang/Copper/Silicon/TS_06_3Lig/MN15|
ts349|FAILED|scavenger|2023-05-22T10:35:32|2023-05-23T22:49:48|1-12:14:16|dcc-kirschlab-01|1|30|72G||/datacommons/ydiaolab/sun/YAPandTEAD|
af206|TIMEOUT|scavenger|2023-05-22T11:14:32|2023-05-25T11:14:44|3-00:00:12|dcc-cagpm-02|1|40|200G||/hpc/home/af206/ondemand/data/sys/dashboard/batch_connect/sys/bc_rstudio_singularity/output/1f21bc81-a0a4-431e-9d8f-673bc2ce33d1|
dg304|COMPLETED|scavenger|2023-05-22T20:10:12|2023-05-22T21:15:45|01:05:33|dcc-fergusonlab-04|1|24|384G||/work/dg304/dala/cyanolichen_holobiome|
dg304|COMPLETED|scavenger|2023-05-22T20:16:01|2023-05-22T22:28:21|02:12:20|dcc-dunsonlab-02|1|24|384G||/work/dg304/dala/cyanolichen_holobiome|
dg304|COMPLETED|scavenger|2023-05-22T20:27:49|2023-05-22T22:42:21|02:14:32|dcc-donglab-01|1|24|384G||/work/dg304/dala/cyanolichen_holobiome|
ts349|FAILED|scavenger|2023-05-22T16:03:08|2023-05-23T22:49:57|1-06:46:49|dcc-dunsonlab-02|1|16|32G||/hpc/home/ts349|
dg304|COMPLETED|scavenger|2023-05-22T21:15:46|2023-05-22T22:38:15|01:22:29|dcc-dunsonlab-01|1|24|384G||/work/dg304/dala/cyanolichen_holobiome|
dg304|COMPLETED|scavenger|2023-05-22T22:28:21|2023-05-23T00:12:31|01:44:10|dcc-dunsonlab-02|1|24|384G||/work/dg304/dala/cyanolichen_holobiome|
dg304|COMPLETED|scavenger|2023-05-22T22:38:15|2023-05-23T01:20:35|02:42:20|dcc-dunsonlab-01|1|24|384G||/work/dg304/dala/cyanolichen_holobiome|
dg304|COMPLETED|scavenger|2023-05-22T22:42:21|2023-05-23T00:32:44|01:50:23|dcc-donglab-01|1|24|384G||/work/dg304/dala/cyanolichen_holobiome|
dg304|COMPLETED|scavenger|2023-05-23T00:12:31|2023-05-23T01:57:26|01:44:55|dcc-dunsonlab-02|1|24|384G||/work/dg304/dala/cyanolichen_holobiome|
dg304|COMPLETED|scavenger|2023-05-23T00:32:44|2023-05-23T02:18:07|01:45:23|dcc-donglab-01|1|24|384G||/work/dg304/dala/cyanolichen_holobiome|
dg304|COMPLETED|scavenger|2023-05-23T01:20:35|2023-05-23T03:41:32|02:20:57|dcc-dunsonlab-01|1|24|384G||/work/dg304/dala/cyanolichen_holobiome|
dg304|COMPLETED|scavenger|2023-05-23T01:57:26|2023-05-23T03:27:20|01:29:54|dcc-dunsonlab-02|1|24|384G||/work/dg304/dala/cyanolichen_holobiome|
dg304|COMPLETED|scavenger|2023-05-23T02:18:07|2023-05-23T03:40:06|01:21:59|dcc-donglab-01|1|24|384G||/work/dg304/dala/cyanolichen_holobiome|
dg304|COMPLETED|scavenger|2023-05-23T03:27:20|2023-05-23T05:01:58|01:34:38|dcc-dunsonlab-02|1|24|384G||/work/dg304/dala/cyanolichen_holobiome|
dg304|COMPLETED|scavenger|2023-05-23T03:40:06|2023-05-23T05:44:59|02:04:53|dcc-donglab-01|1|24|384G||/work/dg304/dala/cyanolichen_holobiome|
dg304|COMPLETED|scavenger|2023-05-23T03:41:34|2023-05-23T06:56:47|03:15:13|dcc-dunsonlab-01|1|24|384G||/work/dg304/dala/cyanolichen_holobiome|
ark19|CANCELLED by 1027614|scavenger|2023-05-22T16:54:32|2023-05-23T12:51:51|19:57:19|dcc-tunglab-01|1|1|16000M||/hpc/home/ark19|
ark19|CANCELLED by 1027614|scavenger|2023-05-22T16:54:32|2023-05-23T12:51:51|19:57:19|dcc-tunglab-01|1|1|16000M||/hpc/home/ark19|
ark19|CANCELLED by 1027614|scavenger|2023-05-22T16:54:32|2023-05-23T12:51:51|19:57:19|dcc-tmolab-02|1|1|16000M||/hpc/home/ark19|
ark19|CANCELLED by 1027614|scavenger|2023-05-22T16:54:32|2023-05-23T12:51:51|19:57:19|dcc-tmolab-01|1|1|16000M||/hpc/home/ark19|
hk288|CANCELLED by 1484570|scavenger|2023-05-22T18:15:08|2023-05-23T06:27:50|12:12:42|dcc-bragg-03|1|40|80G||/hpc/group/mastatlab/hk288/code_hp_paral|
hk288|CANCELLED by 1484570|scavenger|2023-05-22T18:15:08|2023-05-23T06:27:50|12:12:42|dcc-compeb-04|1|40|80G||/hpc/group/mastatlab/hk288/code_hp_paral|
hk288|CANCELLED by 1484570|scavenger|2023-05-22T18:15:08|2023-05-23T06:27:50|12:12:42|dcc-delairelab-01|1|40|80G||/hpc/group/mastatlab/hk288/code_hp_paral|
hk288|CANCELLED by 1484570|scavenger|2023-05-22T18:15:08|2023-05-23T06:27:50|12:12:42|dcc-fergusonlab-03|1|40|80G||/hpc/group/mastatlab/hk288/code_hp_paral|
ts349|FAILED|scavenger|2023-05-22T20:23:29|2023-05-23T22:51:57|1-02:28:28|dcc-adrc-01|1|16|32G||/hpc/home/ts349|
ts349|FAILED|scavenger|2023-05-22T20:24:50|2023-05-23T22:49:33|1-02:24:43|dcc-cagpm-01|1|30|72G||/datacommons/ydiaolab/diaolab_group/sun|
ts349|FAILED|scavenger|2023-05-22T20:41:33|2023-05-23T22:50:06|1-02:08:33|dcc-fergusonlab-03|1|30|72G||/datacommons/ydiaolab/diaolab_group/sun|
ts349|COMPLETED|scavenger|2023-05-22T20:56:03|2023-05-22T21:03:06|00:07:03|dcc-youlab-01|1|1|1G||/datacommons/ydiaolab/sun/m6A3D/rip/cohesin/cohesin_RIP_mapping|
ts349|COMPLETED|scavenger|2023-05-22T20:59:34|2023-05-22T21:00:19|00:00:45|dcc-adrc-01|1|10|60G||/datacommons/ydiaolab/sun/m6A3D/rip/cohesin/cohesin_RIP_mapping|
ts349|COMPLETED|scavenger|2023-05-22T20:59:34|2023-05-22T21:00:26|00:00:52|dcc-compeb-01|1|10|10G||/datacommons/ydiaolab/sun/m6A3D/rip/cohesin/cohesin_RIP_mapping|
sjw59|COMPLETED|scavenger|2023-05-22T20:59:38|2023-05-22T21:00:20|00:00:42|dcc-delairelab-01|1|4|8G||/hpc/group/rekerlab/sjw59/ActiveLearningBenchmark-forget|
sjw59|COMPLETED|scavenger|2023-05-22T20:59:38|2023-05-22T21:00:28|00:00:50|dcc-aryalab-01|1|4|8G||/hpc/group/rekerlab/sjw59/ActiveLearningBenchmark-forget|
sjw59|COMPLETED|scavenger|2023-05-22T20:59:38|2023-05-22T21:00:29|00:00:51|dcc-rausherlab-02|1|4|8G||/hpc/group/rekerlab/sjw59/ActiveLearningBenchmark-forget|
sjw59|COMPLETED|scavenger|2023-05-22T20:59:38|2023-05-22T21:00:29|00:00:51|dcc-rausherlab-02|1|4|8G||/hpc/group/rekerlab/sjw59/ActiveLearningBenchmark-forget|
sjw59|COMPLETED|scavenger|2023-05-22T20:59:38|2023-05-22T21:00:20|00:00:42|dcc-motesa-01|1|4|8G||/hpc/group/rekerlab/sjw59/ActiveLearningBenchmark-forget|
sjw59|COMPLETED|scavenger|2023-05-22T20:59:38|2023-05-22T21:00:20|00:00:42|dcc-motesa-01|1|4|8G||/hpc/group/rekerlab/sjw59/ActiveLearningBenchmark-forget|
sjw59|COMPLETED|scavenger|2023-05-22T20:59:38|2023-05-22T21:00:20|00:00:42|dcc-motesa-01|1|4|8G||/hpc/group/rekerlab/sjw59/ActiveLearningBenchmark-forget|
sjw59|COMPLETED|scavenger|2023-05-22T20:59:38|2023-05-22T21:01:03|00:01:25|dcc-compeb-02|1|4|8G||/hpc/group/rekerlab/sjw59/ActiveLearningBenchmark-forget|
sjw59|COMPLETED|scavenger|2023-05-22T20:59:38|2023-05-22T21:00:30|00:00:52|dcc-compeb-03|1|4|8G||/hpc/group/rekerlab/sjw59/ActiveLearningBenchmark-forget|
sjw59|COMPLETED|scavenger|2023-05-22T20:59:38|2023-05-22T21:00:31|00:00:53|dcc-compeb-04|1|4|8G||/hpc/group/rekerlab/sjw59/ActiveLearningBenchmark-forget|
sjw59|COMPLETED|scavenger|2023-05-22T20:59:38|2023-05-22T21:00:13|00:00:35|dcc-youlab-01|1|4|8G||/hpc/group/rekerlab/sjw59/ActiveLearningBenchmark-forget|
sjw59|COMPLETED|scavenger|2023-05-22T20:59:38|2023-05-22T21:00:13|00:00:35|dcc-youlab-01|1|4|8G||/hpc/group/rekerlab/sjw59/ActiveLearningBenchmark-forget|
sjw59|COMPLETED|scavenger|2023-05-22T20:59:38|2023-05-22T21:00:14|00:00:36|dcc-youlab-01|1|4|8G||/hpc/group/rekerlab/sjw59/ActiveLearningBenchmark-forget|
sjw59|COMPLETED|scavenger|2023-05-22T20:59:39|2023-05-22T21:00:34|00:00:55|dcc-wychem-01|1|4|8G||/hpc/group/rekerlab/sjw59/ActiveLearningBenchmark-forget|
sjw59|COMPLETED|scavenger|2023-05-22T20:59:39|2023-05-22T21:00:34|00:00:55|dcc-wychem-01|1|4|8G||/hpc/group/rekerlab/sjw59/ActiveLearningBenchmark-forget|
sjw59|COMPLETED|scavenger|2023-05-22T20:59:39|2023-05-22T21:00:34|00:00:55|dcc-wychem-01|1|4|8G||/hpc/group/rekerlab/sjw59/ActiveLearningBenchmark-forget|
sjw59|COMPLETED|scavenger|2023-05-22T20:59:39|2023-05-22T21:00:31|00:00:52|dcc-wychem-01|1|4|8G||/hpc/group/rekerlab/sjw59/ActiveLearningBenchmark-forget|
sjw59|COMPLETED|scavenger|2023-05-22T20:59:39|2023-05-22T21:00:31|00:00:52|dcc-wychem-01|1|4|8G||/hpc/group/rekerlab/sjw59/ActiveLearningBenchmark-forget|
sjw59|COMPLETED|scavenger|2023-05-22T20:59:41|2023-05-22T21:00:31|00:00:50|dcc-statdept-01|1|4|8G||/hpc/group/rekerlab/sjw59/ActiveLearningBenchmark-forget|
sjw59|COMPLETED|scavenger|2023-05-22T20:59:41|2023-05-22T21:00:31|00:00:50|dcc-statdept-01|1|4|8G||/hpc/group/rekerlab/sjw59/ActiveLearningBenchmark-forget|
ts349|COMPLETED|scavenger|2023-05-22T21:00:06|2023-05-22T21:00:07|00:00:01|dcc-youlab-01|1|1|1G||/datacommons/ydiaolab/sun/m6A3D/rip/cohesin/cohesin_RIP_mapping|
ts349|COMPLETED|scavenger|2023-05-22T21:00:15|2023-05-22T21:00:16|00:00:01|dcc-youlab-01|1|1|1G||/datacommons/ydiaolab/sun/m6A3D/rip/cohesin/cohesin_RIP_mapping|
ts349|COMPLETED|scavenger|2023-05-22T21:00:35|2023-05-22T21:00:56|00:00:21|dcc-adrc-01|1|8|8G||/datacommons/ydiaolab/sun/m6A3D/rip/cohesin/cohesin_RIP_mapping|
ts349|COMPLETED|scavenger|2023-05-22T21:00:45|2023-05-22T21:00:55|00:00:10|dcc-youlab-01|1|1|1G||/datacommons/ydiaolab/sun/m6A3D/rip/cohesin/cohesin_RIP_mapping|
ts349|COMPLETED|scavenger|2023-05-22T21:00:45|2023-05-22T21:00:46|00:00:01|dcc-youlab-01|1|1|1G||/datacommons/ydiaolab/sun/m6A3D/rip/cohesin/cohesin_RIP_mapping|
ts349|COMPLETED|scavenger|2023-05-22T21:00:45|2023-05-22T21:01:21|00:00:36|dcc-compeb-01|1|10|10G||/datacommons/ydiaolab/sun/m6A3D/rip/cohesin/cohesin_RIP_mapping|
ts349|COMPLETED|scavenger|2023-05-22T21:01:05|2023-05-22T21:01:26|00:00:21|dcc-adrc-01|1|8|8G||/datacommons/ydiaolab/sun/m6A3D/rip/cohesin/cohesin_RIP_mapping|
ts349|COMPLETED|scavenger|2023-05-22T21:01:16|2023-05-22T21:01:29|00:00:13|dcc-youlab-01|1|1|1G||/datacommons/ydiaolab/sun/m6A3D/rip/cohesin/cohesin_RIP_mapping|
ts349|COMPLETED|scavenger|2023-05-22T21:01:16|2023-05-22T21:01:33|00:00:17|dcc-youlab-01|1|1|1G||/datacommons/ydiaolab/sun/m6A3D/rip/cohesin/cohesin_RIP_mapping|
sjw59|COMPLETED|scavenger|2023-05-22T21:01:28|2023-05-22T21:02:10|00:00:42|dcc-delairelab-01|1|4|8G||/hpc/group/rekerlab/sjw59/ActiveLearningBenchmark-forget|
sjw59|COMPLETED|scavenger|2023-05-22T21:01:28|2023-05-22T21:02:17|00:00:49|dcc-aryalab-01|1|4|8G||/hpc/group/rekerlab/sjw59/ActiveLearningBenchmark-forget|
sjw59|COMPLETED|scavenger|2023-05-22T21:01:28|2023-05-22T21:02:20|00:00:52|dcc-rausherlab-02|1|4|8G||/hpc/group/rekerlab/sjw59/ActiveLearningBenchmark-forget|
sjw59|COMPLETED|scavenger|2023-05-22T21:01:28|2023-05-22T21:02:19|00:00:51|dcc-rausherlab-02|1|4|8G||/hpc/group/rekerlab/sjw59/ActiveLearningBenchmark-forget|
sjw59|COMPLETED|scavenger|2023-05-22T21:01:28|2023-05-22T21:02:16|00:00:48|dcc-adrc-01|1|4|8G||/hpc/group/rekerlab/sjw59/ActiveLearningBenchmark-forget|
sjw59|COMPLETED|scavenger|2023-05-22T21:01:28|2023-05-22T21:02:16|00:00:48|dcc-adrc-01|1|4|8G||/hpc/group/rekerlab/sjw59/ActiveLearningBenchmark-forget|
sjw59|COMPLETED|scavenger|2023-05-22T21:01:28|2023-05-22T21:02:16|00:00:48|dcc-adrc-01|1|4|8G||/hpc/group/rekerlab/sjw59/ActiveLearningBenchmark-forget|
sjw59|COMPLETED|scavenger|2023-05-22T21:01:28|2023-05-22T21:02:08|00:00:40|dcc-motesa-01|1|4|8G||/hpc/group/rekerlab/sjw59/ActiveLearningBenchmark-forget|
sjw59|COMPLETED|scavenger|2023-05-22T21:01:31|2023-05-22T21:02:11|00:00:40|dcc-motesa-01|1|4|8G||/hpc/group/rekerlab/sjw59/ActiveLearningBenchmark-forget|
sjw59|COMPLETED|scavenger|2023-05-22T21:01:31|2023-05-22T21:02:11|00:00:40|dcc-motesa-01|1|4|8G||/hpc/group/rekerlab/sjw59/ActiveLearningBenchmark-forget|
sjw59|COMPLETED|scavenger|2023-05-22T21:01:31|2023-05-22T21:02:54|00:01:23|dcc-compeb-02|1|4|8G||/hpc/group/rekerlab/sjw59/ActiveLearningBenchmark-forget|
sjw59|COMPLETED|scavenger|2023-05-22T21:01:31|2023-05-22T21:02:22|00:00:51|dcc-compeb-03|1|4|8G||/hpc/group/rekerlab/sjw59/ActiveLearningBenchmark-forget|
sjw59|COMPLETED|scavenger|2023-05-22T21:01:31|2023-05-22T21:02:23|00:00:52|dcc-compeb-04|1|4|8G||/hpc/group/rekerlab/sjw59/ActiveLearningBenchmark-forget|
sjw59|COMPLETED|scavenger|2023-05-22T21:01:31|2023-05-22T21:02:45|00:01:14|dcc-compeb-01|1|4|8G||/hpc/group/rekerlab/sjw59/ActiveLearningBenchmark-forget|
sjw59|COMPLETED|scavenger|2023-05-22T21:01:31|2023-05-22T21:02:46|00:01:15|dcc-compeb-01|1|4|8G||/hpc/group/rekerlab/sjw59/ActiveLearningBenchmark-forget|
sjw59|COMPLETED|scavenger|2023-05-22T21:01:31|2023-05-22T21:02:46|00:01:15|dcc-compeb-01|1|4|8G||/hpc/group/rekerlab/sjw59/ActiveLearningBenchmark-forget|
sjw59|COMPLETED|scavenger|2023-05-22T21:01:31|2023-05-22T21:02:04|00:00:33|dcc-youlab-01|1|4|8G||/hpc/group/rekerlab/sjw59/ActiveLearningBenchmark-forget|
sjw59|COMPLETED|scavenger|2023-05-22T21:01:31|2023-05-22T21:02:07|00:00:36|dcc-youlab-01|1|4|8G||/hpc/group/rekerlab/sjw59/ActiveLearningBenchmark-forget|
sjw59|COMPLETED|scavenger|2023-05-22T21:01:31|2023-05-22T21:02:07|00:00:36|dcc-youlab-01|1|4|8G||/hpc/group/rekerlab/sjw59/ActiveLearningBenchmark-forget|
sjw59|COMPLETED|scavenger|2023-05-22T21:01:31|2023-05-22T21:02:26|00:00:55|dcc-wychem-01|1|4|8G||/hpc/group/rekerlab/sjw59/ActiveLearningBenchmark-forget|
smokeauth2-tst|COMPLETED|scavenger|2023-05-22T21:01:31|2023-05-22T21:01:31|00:00:00|dcc-youlab-01|1|1|2G||/hpc/home/smokeauth2-tst|
smokeauth2-tst|COMPLETED|scavenger|2023-05-22T21:01:33|2023-05-22T21:01:34|00:00:01|dcc-youlab-01|1|1|2G||/hpc/home/smokeauth2-tst|
ts349|COMPLETED|scavenger|2023-05-22T21:01:35|2023-05-22T21:02:17|00:00:42|dcc-dunsonlab-01|1|8|40G||/datacommons/ydiaolab/sun/m6A3D/rip/cohesin/cohesin_RIP_mapping|
smokeauth2-tst|COMPLETED|scavenger|2023-05-22T21:01:35|2023-05-22T21:01:36|00:00:01|dcc-youlab-01|1|1|2G||/hpc/home/smokeauth2-tst|
smokeauth2-tst|COMPLETED|scavenger|2023-05-22T21:01:38|2023-05-22T21:01:38|00:00:00|dcc-youlab-01|1|1|2G||/hpc/home/smokeauth2-tst|
smokeauth2-tst|COMPLETED|scavenger|2023-05-22T21:01:40|2023-05-22T21:01:40|00:00:00|dcc-youlab-01|1|1|2G||/hpc/home/smokeauth2-tst|
ts349|COMPLETED|scavenger|2023-05-22T21:02:15|2023-05-22T21:02:54|00:00:39|dcc-dunsonlab-01|1|8|40G||/datacommons/ydiaolab/sun/m6A3D/rip/cohesin/cohesin_RIP_mapping|
ts349|COMPLETED|scavenger|2023-05-22T21:02:15|2023-05-22T21:02:55|00:00:40|dcc-youlab-01|1|1|1G||/datacommons/ydiaolab/sun/m6A3D/rip/cohesin/cohesin_RIP_mapping|
ts349|COMPLETED|scavenger|2023-05-22T21:02:15|2023-05-22T21:03:00|00:00:45|dcc-dunsonlab-01|1|8|40G||/datacommons/ydiaolab/sun/m6A3D/rip/cohesin/cohesin_RIP_mapping|
ts349|COMPLETED|scavenger|2023-05-22T21:02:35|2023-05-22T21:03:46|00:01:11|dcc-adrc-01|1|8|40G||/datacommons/ydiaolab/sun/m6A3D/rip/cohesin/cohesin_RIP_mapping|
ts349|COMPLETED|scavenger|2023-05-22T21:03:06|2023-05-22T21:04:09|00:01:03|dcc-compeb-01|1|8|40G||/datacommons/ydiaolab/sun/m6A3D/rip/cohesin/cohesin_RIP_mapping|
ts349|COMPLETED|scavenger|2023-05-22T21:03:06|2023-05-22T21:04:03|00:00:57|dcc-youlab-01|1|1|1G||/datacommons/ydiaolab/sun/m6A3D/rip/cohesin/cohesin_RIP_mapping|
ts349|COMPLETED|scavenger|2023-05-22T21:03:06|2023-05-22T21:04:06|00:01:00|dcc-dunsonlab-01|1|8|40G||/datacommons/ydiaolab/sun/m6A3D/rip/cohesin/cohesin_RIP_mapping|
ts349|COMPLETED|scavenger|2023-05-22T21:03:15|2023-05-22T21:03:16|00:00:01|dcc-youlab-01|1|1|1G||/datacommons/ydiaolab/sun/m6A3D/rip/cohesin/cohesin_RIP_mapping|
sjw59|COMPLETED|scavenger|2023-05-22T21:03:19|2023-05-22T21:13:09|00:09:50|dcc-adrc-01|1|4|8G||/hpc/group/rekerlab/sjw59/ActiveLearningBenchmark-forget|
sjw59|COMPLETED|scavenger|2023-05-22T21:03:19|2023-05-22T21:10:22|00:07:03|dcc-delairelab-01|1|4|8G||/hpc/group/rekerlab/sjw59/ActiveLearningBenchmark-forget|
sjw59|COMPLETED|scavenger|2023-05-22T21:03:19|2023-05-22T21:11:36|00:08:17|dcc-aryalab-01|1|4|8G||/hpc/group/rekerlab/sjw59/ActiveLearningBenchmark-forget|
sjw59|COMPLETED|scavenger|2023-05-22T21:03:19|2023-05-22T21:11:53|00:08:34|dcc-rausherlab-02|1|4|8G||/hpc/group/rekerlab/sjw59/ActiveLearningBenchmark-forget|
sjw59|COMPLETED|scavenger|2023-05-22T21:03:19|2023-05-22T21:11:56|00:08:37|dcc-rausherlab-02|1|4|8G||/hpc/group/rekerlab/sjw59/ActiveLearningBenchmark-forget|
sjw59|COMPLETED|scavenger|2023-05-22T21:03:19|2023-05-22T21:10:03|00:06:44|dcc-motesa-01|1|4|8G||/hpc/group/rekerlab/sjw59/ActiveLearningBenchmark-forget|
sjw59|COMPLETED|scavenger|2023-05-22T21:03:19|2023-05-22T21:10:00|00:06:41|dcc-motesa-01|1|4|8G||/hpc/group/rekerlab/sjw59/ActiveLearningBenchmark-forget|
sjw59|COMPLETED|scavenger|2023-05-22T21:03:22|2023-05-22T21:10:27|00:07:05|dcc-motesa-01|1|4|8G||/hpc/group/rekerlab/sjw59/ActiveLearningBenchmark-forget|
sjw59|COMPLETED|scavenger|2023-05-22T21:03:22|2023-05-22T21:15:48|00:12:26|dcc-compeb-01|1|4|8G||/hpc/group/rekerlab/sjw59/ActiveLearningBenchmark-forget|
sjw59|COMPLETED|scavenger|2023-05-22T21:03:22|2023-05-22T21:17:37|00:14:15|dcc-compeb-02|1|4|8G||/hpc/group/rekerlab/sjw59/ActiveLearningBenchmark-forget|
sjw59|COMPLETED|scavenger|2023-05-22T21:03:22|2023-05-22T21:11:35|00:08:13|dcc-compeb-03|1|4|8G||/hpc/group/rekerlab/sjw59/ActiveLearningBenchmark-forget|
sjw59|COMPLETED|scavenger|2023-05-22T21:03:22|2023-05-22T21:11:40|00:08:18|dcc-compeb-04|1|4|8G||/hpc/group/rekerlab/sjw59/ActiveLearningBenchmark-forget|
sjw59|COMPLETED|scavenger|2023-05-22T21:03:22|2023-05-22T21:08:52|00:05:30|dcc-youlab-01|1|4|8G||/hpc/group/rekerlab/sjw59/ActiveLearningBenchmark-forget|
sjw59|COMPLETED|scavenger|2023-05-22T21:03:22|2023-05-22T21:09:04|00:05:42|dcc-youlab-01|1|4|8G||/hpc/group/rekerlab/sjw59/ActiveLearningBenchmark-forget|
sjw59|COMPLETED|scavenger|2023-05-22T21:03:22|2023-05-22T21:09:24|00:06:02|dcc-youlab-01|1|4|8G||/hpc/group/rekerlab/sjw59/ActiveLearningBenchmark-forget|
sjw59|COMPLETED|scavenger|2023-05-22T21:03:22|2023-05-22T21:12:55|00:09:33|dcc-wychem-01|1|4|8G||/hpc/group/rekerlab/sjw59/ActiveLearningBenchmark-forget|
sjw59|COMPLETED|scavenger|2023-05-22T21:03:22|2023-05-22T21:12:30|00:09:08|dcc-wychem-01|1|4|8G||/hpc/group/rekerlab/sjw59/ActiveLearningBenchmark-forget|
sjw59|COMPLETED|scavenger|2023-05-22T21:03:22|2023-05-22T21:12:41|00:09:19|dcc-wychem-01|1|4|8G||/hpc/group/rekerlab/sjw59/ActiveLearningBenchmark-forget|
sjw59|COMPLETED|scavenger|2023-05-22T21:03:22|2023-05-22T21:11:37|00:08:15|dcc-wychem-01|1|4|8G||/hpc/group/rekerlab/sjw59/ActiveLearningBenchmark-forget|
sjw59|COMPLETED|scavenger|2023-05-22T21:03:22|2023-05-22T21:11:55|00:08:33|dcc-wychem-01|1|4|8G||/hpc/group/rekerlab/sjw59/ActiveLearningBenchmark-forget|
ts349|FAILED|scavenger|2023-05-22T21:03:41|2023-05-22T22:02:01|00:58:20|dcc-savageresearch-01|1|16|32G||/hpc/home/ts349|
ts349|COMPLETED|scavenger|2023-05-22T21:04:15|2023-05-22T21:04:37|00:00:22|dcc-adrc-01|1|8|8G||/datacommons/ydiaolab/sun/m6A3D/rip/cohesin/cohesin_RIP_mapping|
ts349|COMPLETED|scavenger|2023-05-22T21:04:25|2023-05-22T21:04:38|00:00:13|dcc-youlab-01|1|1|1G||/datacommons/ydiaolab/sun/m6A3D/rip/cohesin/cohesin_RIP_mapping|
ts349|COMPLETED|scavenger|2023-05-22T21:04:25|2023-05-22T21:04:27|00:00:02|dcc-youlab-01|1|1|1G||/datacommons/ydiaolab/sun/m6A3D/rip/cohesin/cohesin_RIP_mapping|
ts349|COMPLETED|scavenger|2023-05-22T21:04:25|2023-05-22T21:04:26|00:00:01|dcc-youlab-01|1|1|1G||/datacommons/ydiaolab/sun/m6A3D/rip/cohesin/cohesin_RIP_mapping|
ts349|COMPLETED|scavenger|2023-05-22T21:04:27|2023-05-22T21:04:43|00:00:16|dcc-youlab-01|1|1|1G||/datacommons/ydiaolab/sun/m6A3D/rip/cohesin/cohesin_RIP_mapping|
ts349|COMPLETED|scavenger|2023-05-22T21:05:25|2023-05-22T21:05:26|00:00:01|dcc-youlab-01|1|1|1G||/datacommons/ydiaolab/sun/m6A3D/rip/cohesin/cohesin_RIP_mapping|
ts349|COMPLETED|scavenger|2023-05-22T21:05:27|2023-05-22T21:05:29|00:00:02|dcc-youlab-01|1|1|1G||/datacommons/ydiaolab/sun/m6A3D/rip/cohesin/cohesin_RIP_mapping|
ts349|COMPLETED|scavenger|2023-05-22T21:05:27|2023-05-22T21:05:29|00:00:02|dcc-youlab-01|1|1|1G||/datacommons/ydiaolab/sun/m6A3D/rip/cohesin/cohesin_RIP_mapping|
ts349|COMPLETED|scavenger|2023-05-22T21:06:25|2023-05-22T21:06:56|00:00:31|dcc-adrc-01|1|8|8G||/datacommons/ydiaolab/sun/m6A3D/rip/cohesin/cohesin_RIP_mapping|
ts349|COMPLETED|scavenger|2023-05-22T21:06:25|2023-05-22T21:07:31|00:01:06|dcc-compeb-01|1|8|40G||/datacommons/ydiaolab/sun/m6A3D/rip/cohesin/cohesin_RIP_mapping|
ts349|COMPLETED|scavenger|2023-05-22T21:06:26|2023-05-22T21:07:10|00:00:44|dcc-youlab-01|1|1|1G||/datacommons/ydiaolab/sun/m6A3D/rip/cohesin/cohesin_RIP_mapping|
ts349|COMPLETED|scavenger|2023-05-22T21:06:26|2023-05-22T21:07:02|00:00:36|dcc-dunsonlab-01|1|8|40G||/datacommons/ydiaolab/sun/m6A3D/rip/cohesin/cohesin_RIP_mapping|
ts349|COMPLETED|scavenger|2023-05-22T21:06:26|2023-05-22T21:07:23|00:00:57|dcc-dunsonlab-01|1|8|40G||/datacommons/ydiaolab/sun/m6A3D/rip/cohesin/cohesin_RIP_mapping|
ts349|COMPLETED|scavenger|2023-05-22T21:07:27|2023-05-22T21:07:56|00:00:29|dcc-adrc-01|1|8|8G||/datacommons/ydiaolab/sun/m6A3D/rip/cohesin/cohesin_RIP_mapping|
ts349|COMPLETED|scavenger|2023-05-22T21:07:27|2023-05-22T21:08:10|00:00:43|dcc-dunsonlab-01|1|10|60G||/datacommons/ydiaolab/sun/m6A3D/rip/cohesin/cohesin_RIP_mapping|
ts349|COMPLETED|scavenger|2023-05-22T21:07:27|2023-05-22T21:07:29|00:00:02|dcc-youlab-01|1|1|1G||/datacommons/ydiaolab/sun/m6A3D/rip/cohesin/cohesin_RIP_mapping|
ts349|COMPLETED|scavenger|2023-05-22T21:07:27|2023-05-22T21:07:29|00:00:02|dcc-youlab-01|1|1|1G||/datacommons/ydiaolab/sun/m6A3D/rip/cohesin/cohesin_RIP_mapping|
ts349|COMPLETED|scavenger|2023-05-22T21:07:37|2023-05-22T21:07:38|00:00:01|dcc-youlab-01|1|1|1G||/datacommons/ydiaolab/sun/m6A3D/rip/cohesin/cohesin_RIP_mapping|
ts349|COMPLETED|scavenger|2023-05-22T21:08:27|2023-05-22T21:08:28|00:00:01|dcc-youlab-01|1|1|1G||/datacommons/ydiaolab/sun/m6A3D/rip/cohesin/cohesin_RIP_mapping|
ts349|COMPLETED|scavenger|2023-05-22T21:08:29|2023-05-22T21:08:58|00:00:29|dcc-adrc-01|1|8|8G||/datacommons/ydiaolab/sun/m6A3D/rip/cohesin/cohesin_RIP_mapping|
ts349|COMPLETED|scavenger|2023-05-22T21:08:38|2023-05-22T21:08:40|00:00:02|dcc-youlab-01|1|1|1G||/datacommons/ydiaolab/sun/m6A3D/rip/cohesin/cohesin_RIP_mapping|
ts349|COMPLETED|scavenger|2023-05-22T21:08:38|2023-05-22T21:09:01|00:00:23|dcc-dunsonlab-01|1|10|10G||/datacommons/ydiaolab/sun/m6A3D/rip/cohesin/cohesin_RIP_mapping|
ts349|COMPLETED|scavenger|2023-05-22T21:08:38|2023-05-22T21:08:40|00:00:02|dcc-youlab-01|1|1|1G||/datacommons/ydiaolab/sun/m6A3D/rip/cohesin/cohesin_RIP_mapping|
ts349|COMPLETED|scavenger|2023-05-22T21:08:38|2023-05-22T21:09:13|00:00:35|dcc-dunsonlab-01|1|10|60G||/datacommons/ydiaolab/sun/m6A3D/rip/cohesin/cohesin_RIP_mapping|
ts349|COMPLETED|scavenger|2023-05-22T21:08:58|2023-05-22T21:09:24|00:00:26|dcc-adrc-01|1|8|8G||/datacommons/ydiaolab/sun/m6A3D/rip/cohesin/cohesin_RIP_mapping|
ts349|COMPLETED|scavenger|2023-05-22T21:08:58|2023-05-22T21:08:59|00:00:01|dcc-youlab-01|1|1|1G||/datacommons/ydiaolab/sun/m6A3D/rip/cohesin/cohesin_RIP_mapping|
ts349|COMPLETED|scavenger|2023-05-22T21:09:08|2023-05-22T21:09:38|00:00:30|dcc-dunsonlab-01|1|10|60G||/datacommons/ydiaolab/sun/m6A3D/rip/cohesin/cohesin_RIP_mapping|
ts349|COMPLETED|scavenger|2023-05-22T21:09:28|2023-05-22T21:09:29|00:00:01|dcc-youlab-01|1|1|1G||/datacommons/ydiaolab/sun/m6A3D/rip/cohesin/cohesin_RIP_mapping|
ts349|COMPLETED|scavenger|2023-05-22T21:09:28|2023-05-22T21:09:40|00:00:12|dcc-youlab-01|1|1|1G||/datacommons/ydiaolab/sun/m6A3D/rip/cohesin/cohesin_RIP_mapping|
ts349|COMPLETED|scavenger|2023-05-22T21:09:38|2023-05-22T21:09:57|00:00:19|dcc-dunsonlab-01|1|10|10G||/datacommons/ydiaolab/sun/m6A3D/rip/cohesin/cohesin_RIP_mapping|
ts349|COMPLETED|scavenger|2023-05-22T21:10:29|2023-05-22T21:10:39|00:00:10|dcc-youlab-01|1|1|1G||/datacommons/ydiaolab/sun/m6A3D/rip/cohesin/cohesin_RIP_mapping|
ts349|COMPLETED|scavenger|2023-05-22T21:10:29|2023-05-22T21:10:50|00:00:21|dcc-adrc-01|1|8|8G||/datacommons/ydiaolab/sun/m6A3D/rip/cohesin/cohesin_RIP_mapping|
ts349|COMPLETED|scavenger|2023-05-22T21:10:29|2023-05-22T21:11:03|00:00:34|dcc-dunsonlab-01|1|10|60G||/datacommons/ydiaolab/sun/m6A3D/rip/cohesin/cohesin_RIP_mapping|
ts349|COMPLETED|scavenger|2023-05-22T21:10:38|2023-05-22T21:10:40|00:00:02|dcc-youlab-01|1|1|1G||/datacommons/ydiaolab/sun/m6A3D/rip/cohesin/cohesin_RIP_mapping|
ts349|COMPLETED|scavenger|2023-05-22T21:10:38|2023-05-22T21:11:00|00:00:22|dcc-dunsonlab-01|1|10|10G||/datacommons/ydiaolab/sun/m6A3D/rip/cohesin/cohesin_RIP_mapping|
ts349|COMPLETED|scavenger|2023-05-22T21:10:58|2023-05-22T21:11:34|00:00:36|dcc-youlab-01|1|1|1G||/datacommons/ydiaolab/sun/m6A3D/rip/cohesin/cohesin_RIP_mapping|
ts349|COMPLETED|scavenger|2023-05-22T21:11:29|2023-05-22T21:12:07|00:00:38|dcc-adrc-01|1|8|40G||/datacommons/ydiaolab/sun/m6A3D/rip/cohesin/cohesin_RIP_mapping|
ts349|COMPLETED|scavenger|2023-05-22T21:11:29|2023-05-22T21:11:55|00:00:26|dcc-dunsonlab-01|1|10|10G||/datacommons/ydiaolab/sun/m6A3D/rip/cohesin/cohesin_RIP_mapping|
ts349|COMPLETED|scavenger|2023-05-22T21:11:29|2023-05-22T21:11:42|00:00:13|dcc-youlab-01|1|1|1G||/datacommons/ydiaolab/sun/m6A3D/rip/cohesin/cohesin_RIP_mapping|
ts349|COMPLETED|scavenger|2023-05-22T21:11:29|2023-05-22T21:12:00|00:00:31|dcc-compeb-01|1|8|8G||/datacommons/ydiaolab/sun/m6A3D/rip/cohesin/cohesin_RIP_mapping|
smokeauth2-tst|COMPLETED|scavenger|2023-05-22T21:11:31|2023-05-22T21:11:31|00:00:00|dcc-youlab-01|1|1|2G||/hpc/home/smokeauth2-tst|
smokeauth2-tst|COMPLETED|scavenger|2023-05-22T21:11:33|2023-05-22T21:11:33|00:00:00|dcc-youlab-01|1|1|2G||/hpc/home/smokeauth2-tst|
smokeauth2-tst|COMPLETED|scavenger|2023-05-22T21:11:35|2023-05-22T21:11:36|00:00:01|dcc-youlab-01|1|1|2G||/hpc/home/smokeauth2-tst|
smokeauth2-tst|COMPLETED|scavenger|2023-05-22T21:11:37|2023-05-22T21:11:38|00:00:01|dcc-youlab-01|1|1|2G||/hpc/home/smokeauth2-tst|
smokeauth2-tst|COMPLETED|scavenger|2023-05-22T21:11:40|2023-05-22T21:11:40|00:00:00|dcc-youlab-01|1|1|2G||/hpc/home/smokeauth2-tst|
ts349|COMPLETED|scavenger|2023-05-22T21:12:00|2023-05-22T21:12:01|00:00:01|dcc-youlab-01|1|1|1G||/datacommons/ydiaolab/sun/m6A3D/rip/cohesin/cohesin_RIP_mapping|
ts349|COMPLETED|scavenger|2023-05-22T21:12:30|2023-05-22T21:12:43|00:00:13|dcc-youlab-01|1|1|1G||/datacommons/ydiaolab/sun/m6A3D/rip/cohesin/cohesin_RIP_mapping|
ts349|COMPLETED|scavenger|2023-05-22T21:12:30|2023-05-22T21:12:31|00:00:01|dcc-youlab-01|1|1|1G||/datacommons/ydiaolab/sun/m6A3D/rip/cohesin/cohesin_RIP_mapping|
ts349|COMPLETED|scavenger|2023-05-22T21:12:30|2023-05-22T21:13:11|00:00:41|dcc-adrc-01|1|8|40G||/datacommons/ydiaolab/sun/m6A3D/rip/cohesin/cohesin_RIP_mapping|
ts349|COMPLETED|scavenger|2023-05-22T21:12:41|2023-05-22T21:13:04|00:00:23|dcc-compeb-01|1|8|8G||/datacommons/ydiaolab/sun/m6A3D/rip/cohesin/cohesin_RIP_mapping|
ts349|COMPLETED|scavenger|2023-05-22T21:13:01|2023-05-22T21:13:26|00:00:25|dcc-dunsonlab-01|1|8|8G||/datacommons/ydiaolab/sun/m6A3D/rip/cohesin/cohesin_RIP_mapping|
ts349|COMPLETED|scavenger|2023-05-22T21:13:01|2023-05-22T21:13:10|00:00:09|dcc-youlab-01|1|1|1G||/datacommons/ydiaolab/sun/m6A3D/rip/cohesin/cohesin_RIP_mapping|
ts349|COMPLETED|scavenger|2023-05-22T21:14:01|2023-05-22T21:14:17|00:00:16|dcc-youlab-01|1|1|1G||/datacommons/ydiaolab/sun/m6A3D/rip/cohesin/cohesin_RIP_mapping|
ts349|COMPLETED|scavenger|2023-05-22T21:14:01|2023-05-22T21:15:12|00:01:11|dcc-adrc-01|1|8|40G||/datacommons/ydiaolab/sun/m6A3D/rip/cohesin/cohesin_RIP_mapping|
ts349|COMPLETED|scavenger|2023-05-22T21:14:01|2023-05-22T21:15:14|00:01:13|dcc-compeb-01|1|8|40G||/datacommons/ydiaolab/sun/m6A3D/rip/cohesin/cohesin_RIP_mapping|
ts349|COMPLETED|scavenger|2023-05-22T21:14:01|2023-05-22T21:14:48|00:00:47|dcc-youlab-01|1|1|1G||/datacommons/ydiaolab/sun/m6A3D/rip/cohesin/cohesin_RIP_mapping|
ts349|COMPLETED|scavenger|2023-05-22T21:14:01|2023-05-22T21:14:40|00:00:39|dcc-dunsonlab-01|1|8|40G||/datacommons/ydiaolab/sun/m6A3D/rip/cohesin/cohesin_RIP_mapping|
ts349|COMPLETED|scavenger|2023-05-22T21:14:43|2023-05-22T21:15:38|00:00:55|dcc-dunsonlab-01|1|8|40G||/datacommons/ydiaolab/sun/m6A3D/rip/cohesin/cohesin_RIP_mapping|
ts349|COMPLETED|scavenger|2023-05-22T21:14:43|2023-05-22T21:15:17|00:00:34|dcc-dunsonlab-01|1|8|40G||/datacommons/ydiaolab/sun/m6A3D/rip/cohesin/cohesin_RIP_mapping|
ts349|COMPLETED|scavenger|2023-05-22T21:15:02|2023-05-22T21:15:40|00:00:38|dcc-youlab-01|1|1|1G||/datacommons/ydiaolab/sun/m6A3D/rip/cohesin/cohesin_RIP_mapping|
ts349|COMPLETED|scavenger|2023-05-22T21:15:33|2023-05-22T21:16:10|00:00:37|dcc-adrc-01|1|8|40G||/datacommons/ydiaolab/sun/m6A3D/rip/cohesin/cohesin_RIP_mapping|
ts349|COMPLETED|scavenger|2023-05-22T21:15:33|2023-05-22T21:15:43|00:00:10|dcc-youlab-01|1|1|1G||/datacommons/ydiaolab/sun/m6A3D/rip/cohesin/cohesin_RIP_mapping|
ts349|COMPLETED|scavenger|2023-05-22T21:15:33|2023-05-22T21:17:20|00:01:47|dcc-compeb-01|1|8|40G||/datacommons/ydiaolab/sun/m6A3D/rip/cohesin/cohesin_RIP_mapping|
ts349|COMPLETED|scavenger|2023-05-22T21:15:43|2023-05-22T21:15:54|00:00:11|dcc-youlab-01|1|1|1G||/datacommons/ydiaolab/sun/m6A3D/rip/cohesin/cohesin_RIP_mapping|
ts349|COMPLETED|scavenger|2023-05-22T21:15:43|2023-05-22T21:15:44|00:00:01|dcc-youlab-01|1|1|1G||/datacommons/ydiaolab/sun/m6A3D/rip/cohesin/cohesin_RIP_mapping|
ts349|COMPLETED|scavenger|2023-05-22T21:16:33|2023-05-22T21:17:11|00:00:38|dcc-youlab-01|1|1|1G||/datacommons/ydiaolab/sun/m6A3D/rip/cohesin/cohesin_RIP_mapping|
ts349|COMPLETED|scavenger|2023-05-22T21:16:43|2023-05-22T21:17:22|00:00:39|dcc-adrc-01|1|8|40G||/datacommons/ydiaolab/sun/m6A3D/rip/cohesin/cohesin_RIP_mapping|
ts349|COMPLETED|scavenger|2023-05-22T21:16:43|2023-05-22T21:17:26|00:00:43|dcc-dunsonlab-01|1|8|40G||/datacommons/ydiaolab/sun/m6A3D/rip/cohesin/cohesin_RIP_mapping|
ts349|COMPLETED|scavenger|2023-05-22T21:16:52|2023-05-22T21:17:51|00:00:59|dcc-dunsonlab-01|1|8|40G||/datacommons/ydiaolab/sun/m6A3D/rip/cohesin/cohesin_RIP_mapping|
ts349|COMPLETED|scavenger|2023-05-22T21:17:33|2023-05-22T21:17:35|00:00:02|dcc-youlab-01|1|1|1G||/datacommons/ydiaolab/sun/m6A3D/rip/cohesin/cohesin_RIP_mapping|
ts349|COMPLETED|scavenger|2023-05-22T21:17:33|2023-05-22T21:17:35|00:00:02|dcc-youlab-01|1|1|1G||/datacommons/ydiaolab/sun/m6A3D/rip/cohesin/cohesin_RIP_mapping|
ts349|COMPLETED|scavenger|2023-05-22T21:17:33|2023-05-22T21:17:35|00:00:02|dcc-youlab-01|1|1|1G||/datacommons/ydiaolab/sun/m6A3D/rip/cohesin/cohesin_RIP_mapping|
ts349|COMPLETED|scavenger|2023-05-22T21:17:33|2023-05-22T21:17:35|00:00:02|dcc-youlab-01|1|1|1G||/datacommons/ydiaolab/sun/m6A3D/rip/cohesin/cohesin_RIP_mapping|
ts349|COMPLETED|scavenger|2023-05-22T21:18:34|2023-05-22T21:19:00|00:00:26|dcc-adrc-01|1|8|8G||/datacommons/ydiaolab/sun/m6A3D/rip/cohesin/cohesin_RIP_mapping|
ts349|COMPLETED|scavenger|2023-05-22T21:18:34|2023-05-22T21:18:36|00:00:02|dcc-youlab-01|1|1|1G||/datacommons/ydiaolab/sun/m6A3D/rip/cohesin/cohesin_RIP_mapping|
ts349|COMPLETED|scavenger|2023-05-22T21:18:34|2023-05-22T21:18:36|00:00:02|dcc-youlab-01|1|1|1G||/datacommons/ydiaolab/sun/m6A3D/rip/cohesin/cohesin_RIP_mapping|
ts349|COMPLETED|scavenger|2023-05-22T21:18:34|2023-05-22T21:18:36|00:00:02|dcc-youlab-01|1|1|1G||/datacommons/ydiaolab/sun/m6A3D/rip/cohesin/cohesin_RIP_mapping|
ts349|COMPLETED|scavenger|2023-05-22T21:18:43|2023-05-22T21:18:44|00:00:01|dcc-youlab-01|1|1|1G||/datacommons/ydiaolab/sun/m6A3D/rip/cohesin/cohesin_RIP_mapping|
ts349|COMPLETED|scavenger|2023-05-22T21:19:34|2023-05-22T21:20:07|00:00:33|dcc-adrc-01|1|10|60G||/datacommons/ydiaolab/sun/m6A3D/rip/cohesin/cohesin_RIP_mapping|
ts349|COMPLETED|scavenger|2023-05-22T21:21:04|2023-05-22T21:21:26|00:00:22|dcc-adrc-01|1|10|10G||/datacommons/ydiaolab/sun/m6A3D/rip/cohesin/cohesin_RIP_mapping|
smokeauth2-tst|COMPLETED|scavenger|2023-05-22T21:21:32|2023-05-22T21:21:32|00:00:00|dcc-youlab-01|1|1|2G||/hpc/home/smokeauth2-tst|
smokeauth2-tst|COMPLETED|scavenger|2023-05-22T21:21:34|2023-05-22T21:21:34|00:00:00|dcc-youlab-01|1|1|2G||/hpc/home/smokeauth2-tst|
ts349|COMPLETED|scavenger|2023-05-22T21:21:34|2023-05-22T21:21:35|00:00:01|dcc-youlab-01|1|1|1G||/datacommons/ydiaolab/sun/m6A3D/rip/cohesin/cohesin_RIP_mapping|
ts349|COMPLETED|scavenger|2023-05-22T21:21:34|2023-05-22T21:21:45|00:00:11|dcc-youlab-01|1|1|1G||/datacommons/ydiaolab/sun/m6A3D/rip/cohesin/cohesin_RIP_mapping|
smokeauth2-tst|COMPLETED|scavenger|2023-05-22T21:21:36|2023-05-22T21:21:37|00:00:01|dcc-youlab-01|1|1|2G||/hpc/home/smokeauth2-tst|
smokeauth2-tst|COMPLETED|scavenger|2023-05-22T21:21:38|2023-05-22T21:21:39|00:00:01|dcc-youlab-01|1|1|2G||/hpc/home/smokeauth2-tst|
smokeauth2-tst|COMPLETED|scavenger|2023-05-22T21:21:41|2023-05-22T21:21:41|00:00:00|dcc-youlab-01|1|1|2G||/hpc/home/smokeauth2-tst|
ts349|COMPLETED|scavenger|2023-05-22T21:22:35|2023-05-22T21:22:44|00:00:09|dcc-youlab-01|1|1|1G||/datacommons/ydiaolab/sun/m6A3D/rip/cohesin/cohesin_RIP_mapping|
ts349|COMPLETED|scavenger|2023-05-22T21:22:35|2023-05-22T21:22:55|00:00:20|dcc-adrc-01|1|8|8G||/datacommons/ydiaolab/sun/m6A3D/rip/cohesin/cohesin_RIP_mapping|
ts349|COMPLETED|scavenger|2023-05-22T21:22:35|2023-05-22T21:22:36|00:00:01|dcc-youlab-01|1|1|1G||/datacommons/ydiaolab/sun/m6A3D/rip/cohesin/cohesin_RIP_mapping|
ts349|COMPLETED|scavenger|2023-05-22T21:23:04|2023-05-22T21:23:05|00:00:01|dcc-youlab-01|1|1|1G||/datacommons/ydiaolab/sun/m6A3D/rip/cohesin/cohesin_RIP_mapping|
ts349|COMPLETED|scavenger|2023-05-22T21:23:35|2023-05-22T21:24:30|00:00:55|dcc-dunsonlab-01|1|24|24G||/datacommons/ydiaolab/sun/m6A3D/rip/cohesin/cohesin_RIP_mapping|
ts349|COMPLETED|scavenger|2023-05-22T21:23:35|2023-05-22T21:24:11|00:00:36|dcc-adrc-01|1|8|40G||/datacommons/ydiaolab/sun/m6A3D/rip/cohesin/cohesin_RIP_mapping|
ts349|COMPLETED|scavenger|2023-05-22T21:23:35|2023-05-22T21:24:58|00:01:23|dcc-nsoe-it-01|1|24|240G||/datacommons/ydiaolab/sun/m6A3D/rip/cohesin/cohesin_RIP_mapping|
ts349|COMPLETED|scavenger|2023-05-22T21:23:35|2023-05-22T21:24:17|00:00:42|dcc-youlab-01|1|1|1G||/datacommons/ydiaolab/sun/m6A3D/rip/cohesin/cohesin_RIP_mapping|
ts349|COMPLETED|scavenger|2023-05-22T21:23:35|2023-05-22T21:24:11|00:00:36|dcc-youlab-01|1|1|1G||/datacommons/ydiaolab/sun/m6A3D/rip/cohesin/cohesin_RIP_mapping|
ts349|COMPLETED|scavenger|2023-05-22T21:24:35|2023-05-22T21:25:39|00:01:04|dcc-adrc-01|1|8|40G||/datacommons/ydiaolab/sun/m6A3D/rip/cohesin/cohesin_RIP_mapping|
ts349|COMPLETED|scavenger|2023-05-22T21:24:35|2023-05-22T21:26:15|00:01:40|dcc-youlab-01|1|1|1G||/datacommons/ydiaolab/sun/m6A3D/rip/cohesin/cohesin_RIP_mapping|
ts349|COMPLETED|scavenger|2023-05-22T21:24:35|2023-05-22T21:25:35|00:01:00|dcc-compeb-01|1|8|40G||/datacommons/ydiaolab/sun/m6A3D/rip/cohesin/cohesin_RIP_mapping|
ts349|COMPLETED|scavenger|2023-05-22T21:24:45|2023-05-22T21:26:10|00:01:25|dcc-dunsonlab-01|1|8|8G||/datacommons/ydiaolab/sun/m6A3D/rip/cohesin/cohesin_RIP_mapping|
ts349|COMPLETED|scavenger|2023-05-22T21:25:15|2023-05-22T21:25:16|00:00:01|dcc-youlab-01|1|1|1G||/datacommons/ydiaolab/sun/m6A3D/rip/cohesin/cohesin_RIP_mapping|
kw297|COMPLETED|scavenger|2023-05-22T21:26:18|2023-05-23T14:31:56|17:05:38|dcc-delairelab-01|1|2|8G||/hpc/group/ychenlab/DA|
kw297|COMPLETED|scavenger|2023-05-22T21:26:18|2023-05-23T14:37:44|17:11:26|dcc-delairelab-01|1|2|8G||/hpc/group/ychenlab/DA|
kw297|COMPLETED|scavenger|2023-05-22T21:26:18|2023-05-23T19:46:44|22:20:26|dcc-aryalab-01|1|2|8G||/hpc/group/ychenlab/DA|
kw297|COMPLETED|scavenger|2023-05-22T21:26:18|2023-05-23T19:53:26|22:27:08|dcc-aryalab-01|1|2|8G||/hpc/group/ychenlab/DA|
kw297|COMPLETED|scavenger|2023-05-22T21:26:18|2023-05-23T19:47:18|22:21:00|dcc-aryalab-01|1|2|8G||/hpc/group/ychenlab/DA|
kw297|COMPLETED|scavenger|2023-05-22T21:26:18|2023-05-23T19:38:14|22:11:56|dcc-rausherlab-01|1|2|8G||/hpc/group/ychenlab/DA|
kw297|COMPLETED|scavenger|2023-05-22T21:26:18|2023-05-23T19:45:16|22:18:58|dcc-rausherlab-02|1|2|8G||/hpc/group/ychenlab/DA|
kw297|COMPLETED|scavenger|2023-05-22T21:26:18|2023-05-23T19:53:47|22:27:29|dcc-rausherlab-02|1|2|8G||/hpc/group/ychenlab/DA|
kw297|COMPLETED|scavenger|2023-05-22T21:26:21|2023-05-23T19:52:08|22:25:47|dcc-rausherlab-02|1|2|8G||/hpc/group/ychenlab/DA|
kw297|COMPLETED|scavenger|2023-05-22T21:26:21|2023-05-23T19:42:15|22:15:54|dcc-rausherlab-02|1|2|8G||/hpc/group/ychenlab/DA|
kw297|COMPLETED|scavenger|2023-05-22T21:26:21|2023-05-24T00:42:36|1-03:16:15|dcc-adrc-01|1|2|8G||/hpc/group/ychenlab/DA|
kw297|COMPLETED|scavenger|2023-05-22T21:26:21|2023-05-24T00:23:59|1-02:57:38|dcc-adrc-01|1|2|8G||/hpc/group/ychenlab/DA|
kw297|COMPLETED|scavenger|2023-05-22T21:26:21|2023-05-24T00:37:24|1-03:11:03|dcc-adrc-01|1|2|8G||/hpc/group/ychenlab/DA|
kw297|COMPLETED|scavenger|2023-05-22T21:26:21|2023-05-24T00:24:32|1-02:58:11|dcc-adrc-01|1|2|8G||/hpc/group/ychenlab/DA|
kw297|COMPLETED|scavenger|2023-05-22T21:26:21|2023-05-24T00:31:39|1-03:05:18|dcc-adrc-01|1|2|8G||/hpc/group/ychenlab/DA|
kw297|COMPLETED|scavenger|2023-05-22T21:26:21|2023-05-24T00:32:56|1-03:06:35|dcc-adrc-01|1|2|8G||/hpc/group/ychenlab/DA|
kw297|COMPLETED|scavenger|2023-05-22T21:26:21|2023-05-23T14:17:53|16:51:32|dcc-motesa-01|1|2|8G||/hpc/group/ychenlab/DA|
kw297|COMPLETED|scavenger|2023-05-22T21:26:21|2023-05-23T14:23:45|16:57:24|dcc-motesa-01|1|2|8G||/hpc/group/ychenlab/DA|
kw297|COMPLETED|scavenger|2023-05-22T21:26:21|2023-05-23T14:28:34|17:02:13|dcc-motesa-01|1|2|8G||/hpc/group/ychenlab/DA|
kw297|COMPLETED|scavenger|2023-05-22T21:26:21|2023-05-23T15:05:46|17:39:25|dcc-motesa-01|1|2|8G||/hpc/group/ychenlab/DA|
ts349|COMPLETED|scavenger|2023-05-22T21:26:25|2023-05-22T21:26:49|00:00:24|dcc-youlab-01|1|1|1G||/datacommons/ydiaolab/sun/m6A3D/rip/cohesin/cohesin_RIP_mapping|
kw297|COMPLETED|scavenger|2023-05-22T21:28:04|2023-05-23T14:45:55|17:17:51|dcc-motesa-01|1|2|8G||/hpc/group/ychenlab/DA|
kw297|COMPLETED|scavenger|2023-05-22T21:28:04|2023-05-23T14:24:57|16:56:53|dcc-motesa-01|1|2|8G||/hpc/group/ychenlab/DA|
kw297|COMPLETED|scavenger|2023-05-22T21:28:04|2023-05-23T23:21:53|1-01:53:49|dcc-compeb-02|1|2|8G||/hpc/group/ychenlab/DA|
kw297|COMPLETED|scavenger|2023-05-22T21:28:07|2023-05-23T23:30:24|1-02:02:17|dcc-compeb-02|1|2|8G||/hpc/group/ychenlab/DA|
kw297|COMPLETED|scavenger|2023-05-22T21:28:07|2023-05-23T20:35:00|23:06:53|dcc-compeb-03|1|2|8G||/hpc/group/ychenlab/DA|
kw297|COMPLETED|scavenger|2023-05-22T21:28:07|2023-05-23T20:33:38|23:05:31|dcc-compeb-03|1|2|8G||/hpc/group/ychenlab/DA|
kw297|COMPLETED|scavenger|2023-05-22T21:28:07|2023-05-23T20:37:14|23:09:07|dcc-compeb-04|1|2|8G||/hpc/group/ychenlab/DA|
kw297|COMPLETED|scavenger|2023-05-22T21:28:07|2023-05-23T20:37:49|23:09:42|dcc-compeb-04|1|2|8G||/hpc/group/ychenlab/DA|
kw297|COMPLETED|scavenger|2023-05-22T21:28:07|2023-05-24T13:11:28|1-15:43:21|dcc-compeb-01|1|2|8G||/hpc/group/ychenlab/DA|
kw297|COMPLETED|scavenger|2023-05-22T21:28:07|2023-05-24T13:42:06|1-16:13:59|dcc-compeb-01|1|2|8G||/hpc/group/ychenlab/DA|
kw297|COMPLETED|scavenger|2023-05-22T21:28:07|2023-05-24T13:27:25|1-15:59:18|dcc-compeb-01|1|2|8G||/hpc/group/ychenlab/DA|
kw297|COMPLETED|scavenger|2023-05-22T21:28:07|2023-05-24T13:55:51|1-16:27:44|dcc-compeb-01|1|2|8G||/hpc/group/ychenlab/DA|
kw297|COMPLETED|scavenger|2023-05-22T21:28:07|2023-05-24T13:26:17|1-15:58:10|dcc-compeb-01|1|2|8G||/hpc/group/ychenlab/DA|
kw297|COMPLETED|scavenger|2023-05-22T21:28:07|2023-05-24T13:25:34|1-15:57:27|dcc-compeb-01|1|2|8G||/hpc/group/ychenlab/DA|
kw297|COMPLETED|scavenger|2023-05-22T21:28:07|2023-05-23T23:28:19|1-02:00:12|dcc-wychem-01|1|2|8G||/hpc/group/ychenlab/DA|
kw297|COMPLETED|scavenger|2023-05-22T21:28:07|2023-05-24T01:07:36|1-03:39:29|dcc-wychem-01|1|2|8G||/hpc/group/ychenlab/DA|
kw297|COMPLETED|scavenger|2023-05-22T21:28:07|2023-05-23T23:34:19|1-02:06:12|dcc-wychem-01|1|2|8G||/hpc/group/ychenlab/DA|
kw297|COMPLETED|scavenger|2023-05-22T21:28:07|2023-05-23T23:25:22|1-01:57:15|dcc-wychem-01|1|2|8G||/hpc/group/ychenlab/DA|
kw297|COMPLETED|scavenger|2023-05-22T21:28:07|2023-05-23T23:27:44|1-01:59:37|dcc-wychem-01|1|2|8G||/hpc/group/ychenlab/DA|
kw297|COMPLETED|scavenger|2023-05-22T21:28:07|2023-05-23T12:48:25|15:20:18|dcc-youlab-01|1|2|8G||/hpc/group/ychenlab/DA|
smokeauth2-tst|COMPLETED|scavenger|2023-05-22T21:31:31|2023-05-22T21:31:32|00:00:01|dcc-youlab-01|1|1|2G||/hpc/home/smokeauth2-tst|
smokeauth2-tst|COMPLETED|scavenger|2023-05-22T21:31:34|2023-05-22T21:31:34|00:00:00|dcc-youlab-01|1|1|2G||/hpc/home/smokeauth2-tst|
smokeauth2-tst|COMPLETED|scavenger|2023-05-22T21:31:36|2023-05-22T21:31:36|00:00:00|dcc-youlab-01|1|1|2G||/hpc/home/smokeauth2-tst|
smokeauth2-tst|COMPLETED|scavenger|2023-05-22T21:31:38|2023-05-22T21:31:38|00:00:00|dcc-youlab-01|1|1|2G||/hpc/home/smokeauth2-tst|
smokeauth2-tst|COMPLETED|scavenger|2023-05-22T21:31:40|2023-05-22T21:31:41|00:00:01|dcc-youlab-01|1|1|2G||/hpc/home/smokeauth2-tst|
yx222|COMPLETED|scavenger|2023-05-22T21:33:38|2023-05-22T21:59:56|00:26:18|dcc-youlab-01|1|14|20G||/datacommons/ydiaolab/bgi_data/scATAC_demutiplex|
sjw59|COMPLETED|scavenger|2023-05-22T21:35:25|2023-05-22T21:42:28|00:07:03|dcc-dunsonlab-02|1|4|8G||/hpc/group/rekerlab/sjw59/ActiveLearningBenchmark-forget|
sjw59|COMPLETED|scavenger|2023-05-22T21:35:25|2023-05-22T21:44:04|00:08:39|dcc-dunsonlab-01|1|4|8G||/hpc/group/rekerlab/sjw59/ActiveLearningBenchmark-forget|
sjw59|COMPLETED|scavenger|2023-05-22T21:35:25|2023-05-22T21:43:08|00:07:43|dcc-dunsonlab-01|1|4|8G||/hpc/group/rekerlab/sjw59/ActiveLearningBenchmark-forget|
sjw59|COMPLETED|scavenger|2023-05-22T21:35:25|2023-05-22T21:43:08|00:07:43|dcc-dunsonlab-01|1|4|8G||/hpc/group/rekerlab/sjw59/ActiveLearningBenchmark-forget|
sjw59|COMPLETED|scavenger|2023-05-22T21:35:25|2023-05-22T21:43:10|00:07:45|dcc-dunsonlab-01|1|4|8G||/hpc/group/rekerlab/sjw59/ActiveLearningBenchmark-forget|
sjw59|COMPLETED|scavenger|2023-05-22T21:35:28|2023-05-22T21:42:51|00:07:23|dcc-dunsonlab-01|1|4|8G||/hpc/group/rekerlab/sjw59/ActiveLearningBenchmark-forget|
sjw59|COMPLETED|scavenger|2023-05-22T21:35:28|2023-05-22T21:43:03|00:07:35|dcc-dunsonlab-01|1|4|8G||/hpc/group/rekerlab/sjw59/ActiveLearningBenchmark-forget|
sjw59|COMPLETED|scavenger|2023-05-22T21:35:28|2023-05-22T21:42:54|00:07:26|dcc-dunsonlab-01|1|4|8G||/hpc/group/rekerlab/sjw59/ActiveLearningBenchmark-forget|
sjw59|COMPLETED|scavenger|2023-05-22T21:35:28|2023-05-22T21:43:07|00:07:39|dcc-dunsonlab-01|1|4|8G||/hpc/group/rekerlab/sjw59/ActiveLearningBenchmark-forget|
sjw59|COMPLETED|scavenger|2023-05-22T21:35:28|2023-05-22T21:43:13|00:07:45|dcc-dunsonlab-01|1|4|8G||/hpc/group/rekerlab/sjw59/ActiveLearningBenchmark-forget|
sjw59|COMPLETED|scavenger|2023-05-22T21:35:28|2023-05-22T21:42:51|00:07:23|dcc-dunsonlab-01|1|4|8G||/hpc/group/rekerlab/sjw59/ActiveLearningBenchmark-forget|
sjw59|COMPLETED|scavenger|2023-05-22T21:35:28|2023-05-22T21:42:54|00:07:26|dcc-statdept-01|1|4|8G||/hpc/group/rekerlab/sjw59/ActiveLearningBenchmark-forget|
sjw59|COMPLETED|scavenger|2023-05-22T21:35:28|2023-05-22T21:42:54|00:07:26|dcc-statdept-01|1|4|8G||/hpc/group/rekerlab/sjw59/ActiveLearningBenchmark-forget|
sjw59|COMPLETED|scavenger|2023-05-22T21:35:28|2023-05-22T21:42:48|00:07:20|dcc-statdept-01|1|4|8G||/hpc/group/rekerlab/sjw59/ActiveLearningBenchmark-forget|
sjw59|COMPLETED|scavenger|2023-05-22T21:35:28|2023-05-22T21:43:47|00:08:19|dcc-statdept-01|1|4|8G||/hpc/group/rekerlab/sjw59/ActiveLearningBenchmark-forget|
sjw59|COMPLETED|scavenger|2023-05-22T21:35:28|2023-05-22T21:42:47|00:07:19|dcc-statdept-01|1|4|8G||/hpc/group/rekerlab/sjw59/ActiveLearningBenchmark-forget|
sjw59|COMPLETED|scavenger|2023-05-22T21:35:28|2023-05-22T21:42:28|00:07:00|dcc-statdept-01|1|4|8G||/hpc/group/rekerlab/sjw59/ActiveLearningBenchmark-forget|
sjw59|COMPLETED|scavenger|2023-05-22T21:35:28|2023-05-22T21:44:12|00:08:44|dcc-dailabs-01|1|4|8G||/hpc/group/rekerlab/sjw59/ActiveLearningBenchmark-forget|
sjw59|COMPLETED|scavenger|2023-05-22T21:35:28|2023-05-22T21:44:15|00:08:47|dcc-dailabs-01|1|4|8G||/hpc/group/rekerlab/sjw59/ActiveLearningBenchmark-forget|
sjw59|COMPLETED|scavenger|2023-05-22T21:35:28|2023-05-22T21:43:08|00:07:40|dcc-dailabs-02|1|4|8G||/hpc/group/rekerlab/sjw59/ActiveLearningBenchmark-forget|
ts349|COMPLETED|scavenger|2023-05-22T21:36:31|2023-05-22T21:48:29|00:11:58|dcc-fergusonlab-01|1|10|10G||/datacommons/ydiaolab/sun/m6A3D/cut/RAD21/data_mapping|
ts349|COMPLETED|scavenger|2023-05-22T21:37:01|2023-05-22T21:44:25|00:07:24|dcc-fergusonlab-01|1|10|10G||/datacommons/ydiaolab/sun/m6A3D/cut/RAD21/data_mapping|
ts349|COMPLETED|scavenger|2023-05-22T21:38:35|2023-05-22T21:48:41|00:10:06|dcc-fergusonlab-01|1|10|10G||/datacommons/ydiaolab/sun/m6A3D/cut/CTCF/data_mapping|
smokeauth2-tst|COMPLETED|scavenger|2023-05-22T21:41:31|2023-05-22T21:41:32|00:00:01|dcc-wychem-01|1|1|2G||/hpc/home/smokeauth2-tst|
smokeauth2-tst|COMPLETED|scavenger|2023-05-22T21:41:33|2023-05-22T21:41:34|00:00:01|dcc-wychem-01|1|1|2G||/hpc/home/smokeauth2-tst|
smokeauth2-tst|COMPLETED|scavenger|2023-05-22T21:41:36|2023-05-22T21:41:36|00:00:00|dcc-wychem-01|1|1|2G||/hpc/home/smokeauth2-tst|
smokeauth2-tst|COMPLETED|scavenger|2023-05-22T21:41:38|2023-05-22T21:41:38|00:00:00|dcc-wychem-01|1|1|2G||/hpc/home/smokeauth2-tst|
smokeauth2-tst|COMPLETED|scavenger|2023-05-22T21:41:40|2023-05-22T21:41:40|00:00:00|dcc-wychem-01|1|1|2G||/hpc/home/smokeauth2-tst|
ts349|COMPLETED|scavenger|2023-05-22T21:48:05|2023-05-22T22:17:32|00:29:27|dcc-fergusonlab-01|1|12|72G||/work/ts349/stm2457_hicar/work/19/e54d3a039d5c6d17819cbd1800fc22|
ts349|COMPLETED|scavenger|2023-05-22T21:48:05|2023-05-22T22:57:52|01:09:47|dcc-savageresearch-01|1|12|72G||/work/ts349/stm2457_hicar/work/9a/1c21aaa0f97764b76f01c9b2e16e55|
ts349|COMPLETED|scavenger|2023-05-22T21:48:08|2023-05-22T21:48:28|00:00:20|dcc-savageresearch-01|1|2|12G||/work/ts349/stm2457_hicar/work/4b/b2c997230b7734c5c269aca4b7f6f5|
ts349|FAILED|scavenger|2023-05-22T21:48:08|2023-05-24T05:47:15|1-07:59:07|dcc-dunsonlab-01|1|12|100G||/work/ts349/stm2457_hicar/work/0a/ae52a892db4e876c67d04fa2d8d344|
ts349|COMPLETED|scavenger|2023-05-22T21:48:08|2023-05-22T21:48:10|00:00:02|dcc-velmeshevlab-01|1|1|6G||/work/ts349/stm2457_hicar/work/8d/dbf63eab053a0830a3d0b94c317e51|
ts349|FAILED|scavenger|2023-05-22T21:48:08|2023-05-24T05:47:15|1-07:59:07|dcc-dunsonlab-01|1|12|100G||/work/ts349/stm2457_hicar/work/59/e1ba3b6a899e58d0b097af6323ed04|
ts349|COMPLETED|scavenger|2023-05-22T21:48:08|2023-05-22T21:48:17|00:00:09|dcc-dunsonlab-02|1|2|12G||/work/ts349/stm2457_hicar/work/53/34c621187829cbdf1967241b50db00|
ts349|COMPLETED|scavenger|2023-05-22T21:48:45|2023-05-22T21:48:46|00:00:01|dcc-dunsonlab-02|1|2|12G||/work/ts349/stm2457_hicar/work/21/95f5f44f5a82e09247305a0a6477af|
ts349|COMPLETED|scavenger|2023-05-22T21:48:45|2023-05-22T21:52:21|00:03:36|dcc-cagpm-01|1|6|36G||/work/ts349/stm2457_hicar/work/b1/6743aaa5cde18ab9409386d95862a5|
ts349|COMPLETED|scavenger|2023-05-22T21:48:48|2023-05-22T22:01:48|00:13:00|dcc-carin-24|1|6|36G||/work/ts349/stm2457_hicar/work/21/c3c433f459f4a109c13962b15ae9c8|
ts349|COMPLETED|scavenger|2023-05-22T21:48:48|2023-05-22T22:03:56|00:15:08|dcc-carin-25|1|6|36G||/work/ts349/stm2457_hicar/work/12/77bf37414ab156528a3a9001acdf4f|
ts349|COMPLETED|scavenger|2023-05-22T21:48:48|2023-05-22T22:03:36|00:14:48|dcc-dunsonlab-02|1|2|12G||/work/ts349/stm2457_hicar/work/d6/f9bc00dfc5fe069040e35a84f17fe3|
ts349|COMPLETED|scavenger|2023-05-22T21:48:48|2023-05-22T22:01:42|00:12:54|dcc-dunsonlab-02|1|2|12G||/work/ts349/stm2457_hicar/work/45/5e61935e778321690408f11488c436|
ts349|COMPLETED|scavenger|2023-05-22T21:48:48|2023-05-22T22:02:07|00:13:19|dcc-dunsonlab-02|1|2|12G||/work/ts349/stm2457_hicar/work/fd/46e0559f17ab76158bad61551b5ffe|
ts349|COMPLETED|scavenger|2023-05-22T21:48:48|2023-05-22T22:05:40|00:16:52|dcc-dunsonlab-02|1|2|12G||/work/ts349/stm2457_hicar/work/a1/ff0586be62abc247c789295b8914d6|
ts349|COMPLETED|scavenger|2023-05-22T21:48:48|2023-05-22T22:06:38|00:17:50|dcc-dunsonlab-01|1|6|36G||/work/ts349/stm2457_hicar/work/c0/70c794dfef1af7f4f300961ef32ebf|
ts349|COMPLETED|scavenger|2023-05-22T21:48:50|2023-05-22T22:08:35|00:19:45|dcc-dunsonlab-01|1|6|36G||/work/ts349/stm2457_hicar/work/66/14e38eb2a155bce4ff29a4ecc92654|
smokeauth2-tst|COMPLETED|scavenger|2023-05-22T21:51:30|2023-05-22T21:51:31|00:00:01|dcc-wychem-01|1|1|2G||/hpc/home/smokeauth2-tst|
smokeauth2-tst|COMPLETED|scavenger|2023-05-22T21:51:32|2023-05-22T21:51:33|00:00:01|dcc-wychem-01|1|1|2G||/hpc/home/smokeauth2-tst|
smokeauth2-tst|COMPLETED|scavenger|2023-05-22T21:51:34|2023-05-22T21:51:35|00:00:01|dcc-wychem-01|1|1|2G||/hpc/home/smokeauth2-tst|
smokeauth2-tst|COMPLETED|scavenger|2023-05-22T21:51:37|2023-05-22T21:51:37|00:00:00|dcc-wychem-01|1|1|2G||/hpc/home/smokeauth2-tst|
smokeauth2-tst|COMPLETED|scavenger|2023-05-22T21:51:39|2023-05-22T21:51:39|00:00:00|dcc-wychem-01|1|1|2G||/hpc/home/smokeauth2-tst|
