pz19|RUNNING|scavenger|2023-03-29T09:52:04|Unknown|77-04:32:26|dcc-fergusonlab-05|1|10|457000M||/work/pz19/Jiaqi/13e14o|
smokeauth2-tst|NODE_FAIL|scavenger|2023-04-18T10:56:00|2023-05-29T17:29:37|41-06:33:37|dcc-tunglab-02|1|1|2G||/hpc/home/smokeauth2-tst|
smokeauth2-tst|RUNNING|scavenger|2023-04-18T12:49:48|Unknown|57-01:34:42|dcc-noor-01|1|1|2G||/hpc/home/smokeauth2-tst|
fjm7|RUNNING|scavenger|2023-04-23T15:19:07|Unknown|51-23:05:23|dcc-noor-01|1|1|2G||/hpc/group/brownlab/fjm7/new-data-collection/slurm-runners|
fjm7|RUNNING|scavenger|2023-04-23T15:19:07|Unknown|51-23:05:23|dcc-noor-01|1|1|2G||/hpc/group/brownlab/fjm7/new-data-collection/slurm-runners|
fjm7|RUNNING|scavenger|2023-04-23T15:19:07|Unknown|51-23:05:23|dcc-noor-01|1|1|2G||/hpc/group/brownlab/fjm7/new-data-collection/slurm-runners|
fjm7|RUNNING|scavenger|2023-04-23T15:19:08|Unknown|51-23:05:22|dcc-noor-01|1|1|2G||/hpc/group/brownlab/fjm7/new-data-collection/slurm-runners|
fjm7|RUNNING|scavenger|2023-04-23T15:19:08|Unknown|51-23:05:22|dcc-noor-01|1|1|2G||/hpc/group/brownlab/fjm7/new-data-collection/slurm-runners|
lh342|TIMEOUT|scavenger|2023-05-02T03:05:50|2023-06-01T03:06:14|30-00:00:24|dcc-compeb-02|1|8|16G||/hpc/home/lh342/ondemand/data/sys/dashboard/batch_connect/sys/bc_desktop/dcc/output/702824cf-eb77-47a5-9f97-205f479dd2d4|
cw446|CANCELLED by 1401348|scavenger|2023-05-08T23:40:21|2023-05-30T10:48:58|21-11:08:37|dcc-fergusonlab-04|1|5|300G||/hpc/group/jilab/changxin|
smokeauth2-tst|RUNNING|scavenger|2023-05-09T00:51:37|Unknown|36-13:32:53|dcc-wychem-01|1|1|2G||/hpc/home/smokeauth2-tst|
pz19|TIMEOUT|scavenger|2023-05-15T19:38:05|2023-05-26T09:38:25|10-14:00:20|dcc-fergusonlab-01|1|16|25408M||/work/pz19/Wang/Copper/Silicon/TS_06_3Lig/M06L|
pz19|TIMEOUT|scavenger|2023-05-15T23:18:17|2023-05-26T13:18:19|10-14:00:02|dcc-compeb-01|1|16|25408M||/work/pz19/Wang/Copper/Silicon/TS_06_3Lig/MN15|
pz19|COMPLETED|scavenger|2023-05-15T23:21:42|2023-05-30T14:18:14|14-14:56:32|dcc-fergusonlab-01|1|16|32000M||/work/pz19/Dexter|
lh342|RUNNING|scavenger|2023-05-16T10:36:56|Unknown|29-03:47:34|dcc-carin-23|1|8|16G||/hpc/home/lh342/ondemand/data/sys/dashboard/batch_connect/sys/bc_desktop/dcc/output/594ab9c6-93bc-4698-ac53-905dbde8eef7|
ew198|COMPLETED|scavenger|2023-05-17T15:01:57|2023-05-30T13:18:19|12-22:16:22|dcc-youlab-01|1|1|125G||/cifs/hariri-long/Projects/Annchen/Scripts/ArealMSHBM|
ew198|COMPLETED|scavenger|2023-05-17T15:01:57|2023-05-30T13:18:47|12-22:16:50|dcc-wychem-01|1|1|16000M||/cifs/hariri-long/Projects/Annchen/Scripts/ArealMSHBM|
ew198|COMPLETED|scavenger|2023-05-17T15:01:57|2023-05-30T13:18:47|12-22:16:50|dcc-wychem-01|1|1|16000M||/cifs/hariri-long/Projects/Annchen/Scripts/ArealMSHBM|
ew198|COMPLETED|scavenger|2023-05-17T15:01:57|2023-05-30T13:18:47|12-22:16:50|dcc-wychem-01|1|1|16000M||/cifs/hariri-long/Projects/Annchen/Scripts/ArealMSHBM|
ew198|COMPLETED|scavenger|2023-05-17T15:01:57|2023-05-30T13:18:47|12-22:16:50|dcc-wychem-01|1|1|16000M||/cifs/hariri-long/Projects/Annchen/Scripts/ArealMSHBM|
ew198|COMPLETED|scavenger|2023-05-17T15:01:57|2023-05-30T13:18:47|12-22:16:50|dcc-wychem-01|1|1|16000M||/cifs/hariri-long/Projects/Annchen/Scripts/ArealMSHBM|
ew198|COMPLETED|scavenger|2023-05-17T15:01:57|2023-05-30T13:18:47|12-22:16:50|dcc-wychem-01|1|1|16000M||/cifs/hariri-long/Projects/Annchen/Scripts/ArealMSHBM|
ew198|COMPLETED|scavenger|2023-05-17T15:01:57|2023-05-30T13:18:47|12-22:16:50|dcc-wychem-01|1|1|16000M||/cifs/hariri-long/Projects/Annchen/Scripts/ArealMSHBM|
ew198|COMPLETED|scavenger|2023-05-17T15:01:57|2023-05-30T13:18:47|12-22:16:50|dcc-wychem-01|1|1|16000M||/cifs/hariri-long/Projects/Annchen/Scripts/ArealMSHBM|
ew198|COMPLETED|scavenger|2023-05-17T15:01:57|2023-05-30T13:18:47|12-22:16:50|dcc-wychem-01|1|1|16000M||/cifs/hariri-long/Projects/Annchen/Scripts/ArealMSHBM|
ew198|NODE_FAIL|scavenger|2023-05-17T15:01:57|2023-05-29T17:29:37|12-02:27:40|dcc-tunglab-02|1|1|16000M||/cifs/hariri-long/Projects/Annchen/Scripts/ArealMSHBM|
ew198|NODE_FAIL|scavenger|2023-05-17T15:01:57|2023-05-29T17:29:37|12-02:27:40|dcc-tunglab-02|1|1|16000M||/cifs/hariri-long/Projects/Annchen/Scripts/ArealMSHBM|
ew198|NODE_FAIL|scavenger|2023-05-17T15:01:57|2023-05-29T17:29:37|12-02:27:40|dcc-tunglab-02|1|1|16000M||/cifs/hariri-long/Projects/Annchen/Scripts/ArealMSHBM|
ew198|NODE_FAIL|scavenger|2023-05-17T15:01:57|2023-05-29T17:29:37|12-02:27:40|dcc-tunglab-02|1|1|16000M||/cifs/hariri-long/Projects/Annchen/Scripts/ArealMSHBM|
ew198|NODE_FAIL|scavenger|2023-05-17T15:01:58|2023-05-29T17:29:37|12-02:27:39|dcc-tunglab-02|1|1|16000M||/cifs/hariri-long/Projects/Annchen/Scripts/ArealMSHBM|
ew198|NODE_FAIL|scavenger|2023-05-17T15:01:58|2023-05-29T17:29:37|12-02:27:39|dcc-tunglab-02|1|1|16000M||/cifs/hariri-long/Projects/Annchen/Scripts/ArealMSHBM|
ew198|NODE_FAIL|scavenger|2023-05-17T15:01:58|2023-05-29T17:29:37|12-02:27:39|dcc-tunglab-02|1|1|125G||/cifs/hariri-long/Projects/Annchen/Scripts/ArealMSHBM|
ew198|NODE_FAIL|scavenger|2023-05-17T15:01:58|2023-05-29T17:29:37|12-02:27:39|dcc-tunglab-02|1|1|16000M||/cifs/hariri-long/Projects/Annchen/Scripts/ArealMSHBM|
ew198|NODE_FAIL|scavenger|2023-05-17T15:01:58|2023-05-29T17:29:37|12-02:27:39|dcc-tunglab-02|1|1|16000M||/cifs/hariri-long/Projects/Annchen/Scripts/ArealMSHBM|
ew198|NODE_FAIL|scavenger|2023-05-17T15:01:58|2023-05-29T17:29:37|12-02:27:39|dcc-tunglab-02|1|1|16000M||/cifs/hariri-long/Projects/Annchen/Scripts/ArealMSHBM|
ew198|NODE_FAIL|scavenger|2023-05-17T15:01:58|2023-05-29T17:29:37|12-02:27:39|dcc-tunglab-02|1|1|16000M||/cifs/hariri-long/Projects/Annchen/Scripts/ArealMSHBM|
ew198|NODE_FAIL|scavenger|2023-05-17T15:01:58|2023-05-29T17:29:37|12-02:27:39|dcc-tunglab-02|1|1|16000M||/cifs/hariri-long/Projects/Annchen/Scripts/ArealMSHBM|
ew198|COMPLETED|scavenger|2023-05-17T15:01:58|2023-05-30T13:18:33|12-22:16:35|dcc-tunglab-01|1|1|16000M||/cifs/hariri-long/Projects/Annchen/Scripts/ArealMSHBM|
ew198|PREEMPTED|scavenger|2023-05-17T15:01:58|2023-05-31T16:16:08|14-01:14:10|dcc-tunglab-01|1|1|16000M||/cifs/hariri-long/Projects/Annchen/Scripts/ArealMSHBM|
ew198|COMPLETED|scavenger|2023-05-17T15:01:58|2023-05-30T13:18:33|12-22:16:35|dcc-tunglab-01|1|1|16000M||/cifs/hariri-long/Projects/Annchen/Scripts/ArealMSHBM|
ew198|PREEMPTED|scavenger|2023-05-17T15:01:58|2023-05-31T16:35:14|14-01:33:16|dcc-tunglab-01|1|1|16000M||/cifs/hariri-long/Projects/Annchen/Scripts/ArealMSHBM|
ew198|COMPLETED|scavenger|2023-05-17T15:01:58|2023-05-30T13:18:33|12-22:16:35|dcc-tunglab-01|1|1|16000M||/cifs/hariri-long/Projects/Annchen/Scripts/ArealMSHBM|
ew198|PREEMPTED|scavenger|2023-05-17T15:01:58|2023-05-31T16:35:18|14-01:33:20|dcc-tunglab-01|1|1|16000M||/cifs/hariri-long/Projects/Annchen/Scripts/ArealMSHBM|
ew198|COMPLETED|scavenger|2023-05-17T15:01:58|2023-05-30T13:18:33|12-22:16:35|dcc-tunglab-01|1|1|16000M||/cifs/hariri-long/Projects/Annchen/Scripts/ArealMSHBM|
ew198|PREEMPTED|scavenger|2023-05-17T15:01:58|2023-05-31T16:35:25|14-01:33:27|dcc-tunglab-01|1|1|16000M||/cifs/hariri-long/Projects/Annchen/Scripts/ArealMSHBM|
ew198|COMPLETED|scavenger|2023-05-17T15:01:59|2023-05-30T13:18:33|12-22:16:34|dcc-tunglab-01|1|1|16000M||/cifs/hariri-long/Projects/Annchen/Scripts/ArealMSHBM|
ew198|PREEMPTED|scavenger|2023-05-17T15:01:59|2023-05-31T16:35:32|14-01:33:33|dcc-tunglab-01|1|1|16000M||/cifs/hariri-long/Projects/Annchen/Scripts/ArealMSHBM|
ew198|COMPLETED|scavenger|2023-05-17T15:01:59|2023-05-30T13:18:47|12-22:16:48|dcc-tmolab-02|1|1|16000M||/cifs/hariri-long/Projects/Annchen/Scripts/ArealMSHBM|
ew198|CANCELLED by 1455533|scavenger|2023-05-17T15:01:59|2023-06-02T11:18:52|15-20:16:53|dcc-tmolab-02|1|1|16000M||/cifs/hariri-long/Projects/Annchen/Scripts/ArealMSHBM|
ew198|COMPLETED|scavenger|2023-05-17T15:01:59|2023-05-30T13:18:47|12-22:16:48|dcc-tmolab-02|1|1|16000M||/cifs/hariri-long/Projects/Annchen/Scripts/ArealMSHBM|
ew198|CANCELLED by 1455533|scavenger|2023-05-17T15:01:59|2023-06-02T11:18:52|15-20:16:53|dcc-tmolab-02|1|1|16000M||/cifs/hariri-long/Projects/Annchen/Scripts/ArealMSHBM|
ew198|COMPLETED|scavenger|2023-05-17T15:01:59|2023-05-30T13:18:47|12-22:16:48|dcc-tmolab-02|1|1|16000M||/cifs/hariri-long/Projects/Annchen/Scripts/ArealMSHBM|
ew198|CANCELLED by 1455533|scavenger|2023-05-17T15:01:59|2023-06-02T11:18:52|15-20:16:53|dcc-tmolab-02|1|1|16000M||/cifs/hariri-long/Projects/Annchen/Scripts/ArealMSHBM|
ew198|COMPLETED|scavenger|2023-05-17T15:01:59|2023-05-30T13:18:47|12-22:16:48|dcc-tmolab-02|1|1|16000M||/cifs/hariri-long/Projects/Annchen/Scripts/ArealMSHBM|
ew198|CANCELLED by 1455533|scavenger|2023-05-17T15:01:59|2023-06-02T11:18:52|15-20:16:53|dcc-tmolab-02|1|1|16000M||/cifs/hariri-long/Projects/Annchen/Scripts/ArealMSHBM|
ew198|COMPLETED|scavenger|2023-05-17T15:01:59|2023-05-30T13:18:44|12-22:16:45|dcc-tmolab-01|1|1|16000M||/cifs/hariri-long/Projects/Annchen/Scripts/ArealMSHBM|
ew198|CANCELLED by 1455533|scavenger|2023-05-17T15:01:59|2023-06-02T11:18:52|15-20:16:53|dcc-tmolab-01|1|1|16000M||/cifs/hariri-long/Projects/Annchen/Scripts/ArealMSHBM|
ew198|COMPLETED|scavenger|2023-05-17T15:01:59|2023-05-30T13:18:44|12-22:16:45|dcc-tmolab-01|1|1|16000M||/cifs/hariri-long/Projects/Annchen/Scripts/ArealMSHBM|
ew198|CANCELLED by 1455533|scavenger|2023-05-17T15:01:59|2023-06-02T11:18:52|15-20:16:53|dcc-tmolab-01|1|1|16000M||/cifs/hariri-long/Projects/Annchen/Scripts/ArealMSHBM|
ew198|COMPLETED|scavenger|2023-05-17T15:01:59|2023-05-30T13:18:44|12-22:16:45|dcc-tmolab-01|1|1|16000M||/cifs/hariri-long/Projects/Annchen/Scripts/ArealMSHBM|
ew198|CANCELLED by 1455533|scavenger|2023-05-17T15:01:59|2023-06-02T11:18:52|15-20:16:53|dcc-tmolab-01|1|1|16000M||/cifs/hariri-long/Projects/Annchen/Scripts/ArealMSHBM|
ew198|CANCELLED by 1455533|scavenger|2023-05-17T15:01:59|2023-06-02T11:18:52|15-20:16:53|dcc-tmolab-01|1|1|16000M||/cifs/hariri-long/Projects/Annchen/Scripts/ArealMSHBM|
ew198|PREEMPTED|scavenger|2023-05-17T15:01:59|2023-05-26T08:21:05|8-17:19:06|dcc-statdept-01|1|1|16000M||/cifs/hariri-long/Projects/Annchen/Scripts/ArealMSHBM|
ew198|PREEMPTED|scavenger|2023-05-17T15:01:59|2023-05-26T08:21:05|8-17:19:06|dcc-statdept-01|1|1|16000M||/cifs/hariri-long/Projects/Annchen/Scripts/ArealMSHBM|
ew198|PREEMPTED|scavenger|2023-05-17T15:01:59|2023-05-27T14:07:00|9-23:05:01|dcc-statdept-01|1|1|16000M||/cifs/hariri-long/Projects/Annchen/Scripts/ArealMSHBM|
ew198|PREEMPTED|scavenger|2023-05-17T15:01:59|2023-05-27T14:07:00|9-23:05:01|dcc-statdept-01|1|1|16000M||/cifs/hariri-long/Projects/Annchen/Scripts/ArealMSHBM|
ew198|PREEMPTED|scavenger|2023-05-17T15:01:59|2023-05-27T14:07:00|9-23:05:01|dcc-statdept-01|1|1|16000M||/cifs/hariri-long/Projects/Annchen/Scripts/ArealMSHBM|
ew198|PREEMPTED|scavenger|2023-05-17T15:01:59|2023-05-27T14:07:00|9-23:05:01|dcc-statdept-01|1|1|16000M||/cifs/hariri-long/Projects/Annchen/Scripts/ArealMSHBM|
ew198|PREEMPTED|scavenger|2023-05-17T15:01:59|2023-05-27T14:07:00|9-23:05:01|dcc-statdept-01|1|1|16000M||/cifs/hariri-long/Projects/Annchen/Scripts/ArealMSHBM|
ew198|PREEMPTED|scavenger|2023-05-17T15:01:59|2023-05-27T14:07:00|9-23:05:01|dcc-statdept-01|1|1|16000M||/cifs/hariri-long/Projects/Annchen/Scripts/ArealMSHBM|
ew198|PREEMPTED|scavenger|2023-05-17T15:01:59|2023-05-27T14:07:00|9-23:05:01|dcc-statdept-01|1|1|16000M||/cifs/hariri-long/Projects/Annchen/Scripts/ArealMSHBM|
ew198|PREEMPTED|scavenger|2023-05-17T15:01:59|2023-05-27T14:07:00|9-23:05:01|dcc-statdept-01|1|1|16000M||/cifs/hariri-long/Projects/Annchen/Scripts/ArealMSHBM|
ew198|PREEMPTED|scavenger|2023-05-17T15:02:00|2023-05-27T14:07:00|9-23:05:00|dcc-statdept-01|1|1|16000M||/cifs/hariri-long/Projects/Annchen/Scripts/ArealMSHBM|
ew198|COMPLETED|scavenger|2023-05-17T15:02:00|2023-05-30T13:19:00|12-22:17:00|dcc-statdept-01|1|1|16000M||/cifs/hariri-long/Projects/Annchen/Scripts/ArealMSHBM|
ew198|CANCELLED by 1455533|scavenger|2023-05-17T15:02:00|2023-06-02T11:18:52|15-20:16:52|dcc-statdept-01|1|1|16000M||/cifs/hariri-long/Projects/Annchen/Scripts/ArealMSHBM|
ew198|COMPLETED|scavenger|2023-05-17T15:02:30|2023-05-30T13:19:00|12-22:16:30|dcc-statdept-01|1|1|16000M||/cifs/hariri-long/Projects/Annchen/Scripts/ArealMSHBM|
ew198|CANCELLED by 1455533|scavenger|2023-05-17T15:02:30|2023-06-02T11:18:52|15-20:16:22|dcc-savageresearch-02|1|1|16000M||/cifs/hariri-long/Projects/Annchen/Scripts/ArealMSHBM|
ew198|COMPLETED|scavenger|2023-05-17T15:02:30|2023-05-30T13:18:35|12-22:16:05|dcc-savageresearch-02|1|1|16000M||/cifs/hariri-long/Projects/Annchen/Scripts/ArealMSHBM|
ew198|COMPLETED|scavenger|2023-05-17T15:02:30|2023-05-30T13:18:35|12-22:16:05|dcc-savageresearch-02|1|1|16000M||/cifs/hariri-long/Projects/Annchen/Scripts/ArealMSHBM|
ew198|CANCELLED by 1455533|scavenger|2023-05-17T15:02:30|2023-06-02T11:18:52|15-20:16:22|dcc-savageresearch-02|1|1|16000M||/cifs/hariri-long/Projects/Annchen/Scripts/ArealMSHBM|
ew198|CANCELLED by 1455533|scavenger|2023-05-17T15:02:30|2023-06-02T11:18:52|15-20:16:22|dcc-savageresearch-02|1|1|16000M||/cifs/hariri-long/Projects/Annchen/Scripts/ArealMSHBM|
ew198|COMPLETED|scavenger|2023-05-17T15:02:30|2023-05-30T13:18:35|12-22:16:05|dcc-savageresearch-02|1|1|16000M||/cifs/hariri-long/Projects/Annchen/Scripts/ArealMSHBM|
ew198|COMPLETED|scavenger|2023-05-17T15:02:31|2023-05-30T13:18:35|12-22:16:04|dcc-savageresearch-02|1|1|16000M||/cifs/hariri-long/Projects/Annchen/Scripts/ArealMSHBM|
ew198|CANCELLED by 1455533|scavenger|2023-05-17T15:02:31|2023-06-02T11:18:52|15-20:16:21|dcc-savageresearch-02|1|1|16000M||/cifs/hariri-long/Projects/Annchen/Scripts/ArealMSHBM|
ew198|COMPLETED|scavenger|2023-05-17T15:02:31|2023-05-30T13:18:35|12-22:16:04|dcc-savageresearch-02|1|1|16000M||/cifs/hariri-long/Projects/Annchen/Scripts/ArealMSHBM|
ew198|CANCELLED by 1455533|scavenger|2023-05-17T15:02:31|2023-06-02T11:18:52|15-20:16:21|dcc-savageresearch-02|1|1|16000M||/cifs/hariri-long/Projects/Annchen/Scripts/ArealMSHBM|
ew198|CANCELLED by 1455533|scavenger|2023-05-17T15:02:31|2023-06-02T11:18:52|15-20:16:21|dcc-savageresearch-02|1|1|16000M||/cifs/hariri-long/Projects/Annchen/Scripts/ArealMSHBM|
ew198|COMPLETED|scavenger|2023-05-17T15:02:31|2023-05-30T13:18:35|12-22:16:04|dcc-savageresearch-02|1|1|16000M||/cifs/hariri-long/Projects/Annchen/Scripts/ArealMSHBM|
ew198|COMPLETED|scavenger|2023-05-17T15:02:31|2023-05-30T13:18:35|12-22:16:04|dcc-savageresearch-01|1|1|16000M||/cifs/hariri-long/Projects/Annchen/Scripts/ArealMSHBM|
ew198|CANCELLED by 1455533|scavenger|2023-05-17T15:02:31|2023-06-02T11:18:52|15-20:16:21|dcc-savageresearch-01|1|1|16000M||/cifs/hariri-long/Projects/Annchen/Scripts/ArealMSHBM|
ew198|CANCELLED by 1455533|scavenger|2023-05-17T15:02:31|2023-06-02T11:18:52|15-20:16:21|dcc-savageresearch-01|1|1|16000M||/cifs/hariri-long/Projects/Annchen/Scripts/ArealMSHBM|
ew198|COMPLETED|scavenger|2023-05-17T15:02:31|2023-05-30T13:18:35|12-22:16:04|dcc-savageresearch-01|1|1|16000M||/cifs/hariri-long/Projects/Annchen/Scripts/ArealMSHBM|
ew198|CANCELLED by 1455533|scavenger|2023-05-17T15:02:31|2023-06-02T11:18:52|15-20:16:21|dcc-savageresearch-01|1|1|16000M||/cifs/hariri-long/Projects/Annchen/Scripts/ArealMSHBM|
ew198|COMPLETED|scavenger|2023-05-17T15:02:31|2023-05-30T13:18:35|12-22:16:04|dcc-savageresearch-01|1|1|16000M||/cifs/hariri-long/Projects/Annchen/Scripts/ArealMSHBM|
ew198|CANCELLED by 1455533|scavenger|2023-05-17T15:02:31|2023-06-02T11:18:52|15-20:16:21|dcc-rausherlab-02|1|1|16000M||/cifs/hariri-long/Projects/Annchen/Scripts/ArealMSHBM|
ew198|COMPLETED|scavenger|2023-05-17T15:02:31|2023-05-30T13:18:52|12-22:16:21|dcc-rausherlab-02|1|1|16000M||/cifs/hariri-long/Projects/Annchen/Scripts/ArealMSHBM|
ew198|CANCELLED by 1455533|scavenger|2023-05-17T15:02:31|2023-06-02T11:18:52|15-20:16:21|dcc-rausherlab-01|1|1|16000M||/cifs/hariri-long/Projects/Annchen/Scripts/ArealMSHBM|
ew198|COMPLETED|scavenger|2023-05-17T15:02:31|2023-05-30T13:18:42|12-22:16:11|dcc-rausherlab-01|1|1|16000M||/cifs/hariri-long/Projects/Annchen/Scripts/ArealMSHBM|
ew198|CANCELLED by 1455533|scavenger|2023-05-17T15:02:31|2023-06-02T11:18:52|15-20:16:21|dcc-rausherlab-01|1|1|16000M||/cifs/hariri-long/Projects/Annchen/Scripts/ArealMSHBM|
ew198|COMPLETED|scavenger|2023-05-17T15:02:32|2023-05-30T13:18:42|12-22:16:10|dcc-rausherlab-01|1|1|16000M||/cifs/hariri-long/Projects/Annchen/Scripts/ArealMSHBM|
ew198|CANCELLED by 1455533|scavenger|2023-05-17T15:02:32|2023-06-02T11:18:52|15-20:16:20|dcc-rausherlab-01|1|1|16000M||/cifs/hariri-long/Projects/Annchen/Scripts/ArealMSHBM|
ew198|COMPLETED|scavenger|2023-05-17T15:02:32|2023-05-30T13:18:44|12-22:16:12|dcc-rausherlab-01|1|1|16000M||/cifs/hariri-long/Projects/Annchen/Scripts/ArealMSHBM|
ew198|CANCELLED by 1455533|scavenger|2023-05-17T15:02:32|2023-06-02T11:18:52|15-20:16:20|dcc-rausherlab-01|1|1|16000M||/cifs/hariri-long/Projects/Annchen/Scripts/ArealMSHBM|
ew198|COMPLETED|scavenger|2023-05-17T15:02:32|2023-05-30T13:18:44|12-22:16:12|dcc-rausherlab-01|1|1|16000M||/cifs/hariri-long/Projects/Annchen/Scripts/ArealMSHBM|
ew198|CANCELLED by 1455533|scavenger|2023-05-17T15:02:32|2023-06-02T11:18:52|15-20:16:20|dcc-pfister-01|1|1|16000M||/cifs/hariri-long/Projects/Annchen/Scripts/ArealMSHBM|
ew198|CANCELLED by 1455533|scavenger|2023-05-17T15:02:32|2023-06-02T11:18:52|15-20:16:20|dcc-pfister-01|1|1|16000M||/cifs/hariri-long/Projects/Annchen/Scripts/ArealMSHBM|
ew198|CANCELLED by 1455533|scavenger|2023-05-17T15:02:32|2023-06-02T11:18:52|15-20:16:20|dcc-pfister-01|1|1|16000M||/cifs/hariri-long/Projects/Annchen/Scripts/ArealMSHBM|
ew198|CANCELLED by 1455533|scavenger|2023-05-17T15:02:32|2023-06-02T11:18:52|15-20:16:20|dcc-pfister-01|1|1|16000M||/cifs/hariri-long/Projects/Annchen/Scripts/ArealMSHBM|
ew198|CANCELLED by 1455533|scavenger|2023-05-17T15:02:32|2023-06-02T11:18:52|15-20:16:20|dcc-pfister-01|1|1|16000M||/cifs/hariri-long/Projects/Annchen/Scripts/ArealMSHBM|
ew198|CANCELLED by 1455533|scavenger|2023-05-17T15:02:32|2023-06-02T11:18:52|15-20:16:20|dcc-pfister-01|1|1|16000M||/cifs/hariri-long/Projects/Annchen/Scripts/ArealMSHBM|
ew198|CANCELLED by 1455533|scavenger|2023-05-17T15:02:32|2023-06-02T11:18:52|15-20:16:20|dcc-pfister-01|1|1|16000M||/cifs/hariri-long/Projects/Annchen/Scripts/ArealMSHBM|
ew198|CANCELLED by 1455533|scavenger|2023-05-17T15:02:32|2023-06-02T11:18:52|15-20:16:20|dcc-pfister-01|1|1|16000M||/cifs/hariri-long/Projects/Annchen/Scripts/ArealMSHBM|
ew198|CANCELLED by 1455533|scavenger|2023-05-17T15:02:32|2023-06-02T11:18:52|15-20:16:20|dcc-pfister-01|1|1|16000M||/cifs/hariri-long/Projects/Annchen/Scripts/ArealMSHBM|
ew198|CANCELLED by 1455533|scavenger|2023-05-17T15:02:32|2023-06-02T11:18:52|15-20:16:20|dcc-pfister-01|1|1|16000M||/cifs/hariri-long/Projects/Annchen/Scripts/ArealMSHBM|
ew198|CANCELLED by 1455533|scavenger|2023-05-17T15:02:32|2023-06-02T11:18:52|15-20:16:20|dcc-pfister-01|1|1|16000M||/cifs/hariri-long/Projects/Annchen/Scripts/ArealMSHBM|
ew198|CANCELLED by 1455533|scavenger|2023-05-17T15:02:32|2023-06-02T11:18:52|15-20:16:20|dcc-pfister-01|1|1|16000M||/cifs/hariri-long/Projects/Annchen/Scripts/ArealMSHBM|
ew198|CANCELLED by 1455533|scavenger|2023-05-17T15:02:32|2023-06-02T11:18:52|15-20:16:20|dcc-pfister-01|1|1|16000M||/cifs/hariri-long/Projects/Annchen/Scripts/ArealMSHBM|
pz19|TIMEOUT|scavenger|2023-05-19T15:41:44|2023-05-30T05:41:54|10-14:00:10|dcc-adrc-01|1|16|25408M||/work/pz19/Wang/Copper/Silicon/TS_06_3Lig/M06L|
pz19|PREEMPTED|scavenger|2023-05-19T15:49:57|2023-05-25T16:43:21|6-00:53:24|dcc-adrc-01|1|16|25408M||/work/pz19/Wang/Copper/Silicon/TS_06_3Lig/MN15|
pz19|TIMEOUT|scavenger|2023-05-19T15:57:29|2023-05-30T05:57:54|10-14:00:25|dcc-adrc-01|1|16|25408M||/work/pz19/Wang/Copper/Silicon/TS_06_3Lig/MN15|
yl708|CANCELLED by 1382854|scavenger|2023-05-20T08:39:29|2023-05-25T10:49:22|5-02:09:53|dcc-tunglab-02|1|1|2500M||/hpc/group/donald/yl708/TopologyNet-2017/perturbations|
yl708|CANCELLED by 1382854|scavenger|2023-05-20T08:39:29|2023-05-25T10:49:22|5-02:09:53|dcc-tunglab-02|1|1|2500M||/hpc/group/donald/yl708/TopologyNet-2017/perturbations|
yl708|CANCELLED by 1382854|scavenger|2023-05-21T12:30:32|2023-05-25T10:49:22|3-22:18:50|dcc-tunglab-02|1|1|2500M||/hpc/group/donald/yl708/TopologyNet-2017/perturbations|
yl708|CANCELLED by 1382854|scavenger|2023-05-22T00:20:08|2023-05-25T10:49:22|3-10:29:14|dcc-tunglab-02|1|1|2500M||/hpc/group/donald/yl708/TopologyNet-2017/perturbations|
yl708|CANCELLED by 1382854|scavenger|2023-05-22T00:20:08|2023-05-25T10:49:22|3-10:29:14|dcc-tunglab-02|1|1|2500M||/hpc/group/donald/yl708/TopologyNet-2017/perturbations|
pz19|CANCELLED by 1050403|scavenger|2023-05-21T11:48:01|2023-05-30T10:18:10|8-22:30:09|dcc-compeb-01|1|16|25408M||/work/pz19/Wang/Copper/Silicon/TS_06_3LigOAc/B3LYP|
pz19|TIMEOUT|scavenger|2023-05-21T11:52:32|2023-06-01T01:52:58|10-14:00:26|dcc-adrc-01|1|16|25408M||/work/pz19/Wang/Copper/Silicon/TS_06_3LigOAc/B3LYP|
mea54|CANCELLED by 1496219|scavenger|2023-05-21T15:52:28|2023-05-25T11:58:03|3-20:05:35|dcc-fergusonlab-02|1|64|600G||/hpc/home/mea54/ondemand/data/sys/dashboard/batch_connect/sys/bc_microbiome_rstudio/output/7fce3810-d3da-4cc3-b087-ed2a673502bf|
sw582|COMPLETED|scavenger|2023-05-22T00:48:28|2023-05-30T12:48:46|8-12:00:18|dcc-youlab-01|1|1|2G||/hpc/group/dbergerlab/sw582/empty_dir|
cjp47|RUNNING|scavenger|2023-05-22T09:27:11|Unknown|23-04:57:19|dcc-tmolab-01|1|1|64G||/hpc/group/bio1/cyanolichen_holobiome|
cjp47|PREEMPTED|scavenger|2023-05-22T09:27:11|2023-05-27T13:59:21|5-04:32:10|dcc-statdept-01|1|1|64G||/hpc/group/bio1/cyanolichen_holobiome|
cjp47|PREEMPTED|scavenger|2023-05-22T09:27:11|2023-05-27T13:59:21|5-04:32:10|dcc-statdept-01|1|1|64G||/hpc/group/bio1/cyanolichen_holobiome|
cjp47|PREEMPTED|scavenger|2023-05-22T09:27:11|2023-05-27T13:59:21|5-04:32:10|dcc-statdept-01|1|1|64G||/hpc/group/bio1/cyanolichen_holobiome|
cjp47|PREEMPTED|scavenger|2023-05-22T09:27:12|2023-05-27T13:59:21|5-04:32:09|dcc-statdept-01|1|1|64G||/hpc/group/bio1/cyanolichen_holobiome|
cjp47|PREEMPTED|scavenger|2023-05-22T09:27:12|2023-05-27T13:59:21|5-04:32:09|dcc-statdept-01|1|1|64G||/hpc/group/bio1/cyanolichen_holobiome|
pz19|CANCELLED by 1050403|scavenger|2023-05-22T10:31:54|2023-05-25T20:49:45|3-10:17:51|dcc-bragg-01|1|16|25408M||/work/pz19/Wang/Copper/Silicon/TS_06_3Lig/MN15|
af206|TIMEOUT|scavenger|2023-05-22T11:14:32|2023-05-25T11:14:44|3-00:00:12|dcc-cagpm-02|1|40|200G||/hpc/home/af206/ondemand/data/sys/dashboard/batch_connect/sys/bc_rstudio_singularity/output/1f21bc81-a0a4-431e-9d8f-673bc2ce33d1|
hk288|OUT_OF_MEMORY|scavenger|2023-05-23T06:28:20|2023-06-01T05:31:10|8-23:02:50|dcc-bragg-03|1|40|80G||/hpc/group/mastatlab/hk288/code_hp_paral|
hk288|COMPLETED|scavenger|2023-05-23T06:28:20|2023-05-29T02:59:32|5-20:31:12|dcc-compeb-04|1|40|80G||/hpc/group/mastatlab/hk288/code_hp_paral|
hk288|PREEMPTED|scavenger|2023-05-23T06:28:20|2023-05-25T20:17:11|2-13:48:51|dcc-delairelab-01|1|40|80G||/hpc/group/mastatlab/hk288/code_hp_paral|
hk288|OUT_OF_MEMORY|scavenger|2023-05-23T06:28:20|2023-06-01T15:42:06|9-09:13:46|dcc-donglab-01|1|40|80G||/hpc/group/mastatlab/hk288/code_hp_paral|
ark19|COMPLETED|scavenger|2023-05-23T12:53:21|2023-05-27T15:19:27|4-02:26:06|dcc-pfister-01|1|1|125G||/cifs/hariri-long/Studies/DNS/Imaging/pipeline1.0/DTI/FSL/20100125_10274/FA_averaged|
ark19|CANCELLED by 1027614|scavenger|2023-05-23T12:53:21|2023-05-27T16:31:54|4-03:38:33|dcc-tunglab-01|1|1|16000M||/cifs/hariri-long/Studies/DNS/Imaging/pipeline1.0/DTI/FSL/20100125_10274/FA_averaged|
ark19|CANCELLED by 1027614|scavenger|2023-05-23T12:53:21|2023-05-27T16:31:54|4-03:38:33|dcc-tunglab-01|1|1|16000M||/cifs/hariri-long/Studies/DNS/Imaging/pipeline1.0/DTI/FSL/20100125_10274/FA_averaged|
ark19|CANCELLED by 1027614|scavenger|2023-05-23T12:53:21|2023-05-27T16:31:54|4-03:38:33|dcc-tunglab-01|1|1|16000M||/cifs/hariri-long/Studies/DNS/Imaging/pipeline1.0/DTI/FSL/20100125_10274/FA_averaged|
ark19|CANCELLED by 1027614|scavenger|2023-05-23T12:53:21|2023-05-27T16:31:54|4-03:38:33|dcc-tunglab-01|1|1|16000M||/cifs/hariri-long/Studies/DNS/Imaging/pipeline1.0/DTI/FSL/20100125_10274/FA_averaged|
ark19|CANCELLED by 1027614|scavenger|2023-05-23T12:53:21|2023-05-27T16:31:54|4-03:38:33|dcc-tunglab-01|1|1|16000M||/cifs/hariri-long/Studies/DNS/Imaging/pipeline1.0/DTI/FSL/20100125_10274/FA_averaged|
ark19|CANCELLED by 1027614|scavenger|2023-05-23T12:53:21|2023-05-27T16:31:54|4-03:38:33|dcc-tunglab-01|1|1|16000M||/cifs/hariri-long/Studies/DNS/Imaging/pipeline1.0/DTI/FSL/20100125_10274/FA_averaged|
ark19|CANCELLED by 1027614|scavenger|2023-05-23T12:53:21|2023-05-27T16:31:54|4-03:38:33|dcc-tmolab-02|1|1|16000M||/cifs/hariri-long/Studies/DNS/Imaging/pipeline1.0/DTI/FSL/20100125_10274/FA_averaged|
ark19|CANCELLED by 1027614|scavenger|2023-05-23T12:53:21|2023-05-27T16:31:54|4-03:38:33|dcc-tmolab-02|1|1|16000M||/cifs/hariri-long/Studies/DNS/Imaging/pipeline1.0/DTI/FSL/20100125_10274/FA_averaged|
ark19|CANCELLED by 1027614|scavenger|2023-05-23T12:53:21|2023-05-27T16:31:54|4-03:38:33|dcc-tmolab-02|1|1|16000M||/cifs/hariri-long/Studies/DNS/Imaging/pipeline1.0/DTI/FSL/20100125_10274/FA_averaged|
ark19|CANCELLED by 1027614|scavenger|2023-05-23T12:53:21|2023-05-27T16:31:55|4-03:38:34|dcc-tmolab-02|1|1|16000M||/cifs/hariri-long/Studies/DNS/Imaging/pipeline1.0/DTI/FSL/20100125_10274/FA_averaged|
ark19|CANCELLED by 1027614|scavenger|2023-05-23T12:53:21|2023-05-27T16:31:55|4-03:38:34|dcc-tmolab-02|1|1|16000M||/cifs/hariri-long/Studies/DNS/Imaging/pipeline1.0/DTI/FSL/20100125_10274/FA_averaged|
ark19|CANCELLED by 1027614|scavenger|2023-05-23T12:53:21|2023-05-27T16:31:55|4-03:38:34|dcc-tmolab-01|1|1|16000M||/cifs/hariri-long/Studies/DNS/Imaging/pipeline1.0/DTI/FSL/20100125_10274/FA_averaged|
ark19|CANCELLED by 1027614|scavenger|2023-05-23T12:53:21|2023-05-27T16:31:55|4-03:38:34|dcc-tmolab-01|1|1|16000M||/cifs/hariri-long/Studies/DNS/Imaging/pipeline1.0/DTI/FSL/20100125_10274/FA_averaged|
ark19|PREEMPTED|scavenger|2023-05-23T12:53:21|2023-05-27T13:59:21|4-01:06:00|dcc-statdept-01|1|1|16000M||/cifs/hariri-long/Studies/DNS/Imaging/pipeline1.0/DTI/FSL/20100125_10274/FA_averaged|
ark19|PREEMPTED|scavenger|2023-05-23T12:53:21|2023-05-27T14:05:22|4-01:12:01|dcc-statdept-01|1|1|16000M||/cifs/hariri-long/Studies/DNS/Imaging/pipeline1.0/DTI/FSL/20100125_10274/FA_averaged|
ark19|PREEMPTED|scavenger|2023-05-23T12:53:21|2023-05-27T14:05:22|4-01:12:01|dcc-statdept-01|1|1|16000M||/cifs/hariri-long/Studies/DNS/Imaging/pipeline1.0/DTI/FSL/20100125_10274/FA_averaged|
ark19|PREEMPTED|scavenger|2023-05-23T12:53:21|2023-05-27T14:05:22|4-01:12:01|dcc-statdept-01|1|1|16000M||/cifs/hariri-long/Studies/DNS/Imaging/pipeline1.0/DTI/FSL/20100125_10274/FA_averaged|
ark19|PREEMPTED|scavenger|2023-05-23T12:53:23|2023-05-27T14:05:22|4-01:11:59|dcc-statdept-01|1|1|16000M||/cifs/hariri-long/Studies/DNS/Imaging/pipeline1.0/DTI/FSL/20100125_10274/FA_averaged|
ark19|PREEMPTED|scavenger|2023-05-23T12:53:23|2023-05-27T14:05:22|4-01:11:59|dcc-statdept-01|1|1|16000M||/cifs/hariri-long/Studies/DNS/Imaging/pipeline1.0/DTI/FSL/20100125_10274/FA_averaged|
ark19|CANCELLED by 1027614|scavenger|2023-05-23T12:53:23|2023-05-27T16:31:51|4-03:38:28|dcc-savageresearch-02|1|1|16000M||/cifs/hariri-long/Studies/DNS/Imaging/pipeline1.0/DTI/FSL/20100125_10274/FA_averaged|
ark19|CANCELLED by 1027614|scavenger|2023-05-23T12:53:23|2023-05-27T16:31:51|4-03:38:28|dcc-savageresearch-01|1|1|16000M||/cifs/hariri-long/Studies/DNS/Imaging/pipeline1.0/DTI/FSL/20100125_10274/FA_averaged|
ark19|CANCELLED by 1027614|scavenger|2023-05-23T12:53:23|2023-05-27T16:31:51|4-03:38:28|dcc-savageresearch-01|1|1|16000M||/cifs/hariri-long/Studies/DNS/Imaging/pipeline1.0/DTI/FSL/20100125_10274/FA_averaged|
ark19|CANCELLED by 1027614|scavenger|2023-05-23T12:53:23|2023-05-27T16:31:51|4-03:38:28|dcc-savageresearch-01|1|1|16000M||/cifs/hariri-long/Studies/DNS/Imaging/pipeline1.0/DTI/FSL/20100125_10274/FA_averaged|
ark19|CANCELLED by 1027614|scavenger|2023-05-23T12:53:23|2023-05-27T16:31:51|4-03:38:28|dcc-savageresearch-01|1|1|16000M||/cifs/hariri-long/Studies/DNS/Imaging/pipeline1.0/DTI/FSL/20100125_10274/FA_averaged|
ark19|CANCELLED by 1027614|scavenger|2023-05-23T12:53:23|2023-05-27T16:31:52|4-03:38:29|dcc-savageresearch-01|1|1|16000M||/cifs/hariri-long/Studies/DNS/Imaging/pipeline1.0/DTI/FSL/20100125_10274/FA_averaged|
ark19|CANCELLED by 1027614|scavenger|2023-05-23T12:53:23|2023-05-27T16:31:52|4-03:38:29|dcc-savageresearch-01|1|1|16000M||/cifs/hariri-long/Studies/DNS/Imaging/pipeline1.0/DTI/FSL/20100125_10274/FA_averaged|
ark19|CANCELLED by 1027614|scavenger|2023-05-23T12:53:23|2023-05-27T16:31:52|4-03:38:29|dcc-savageresearch-01|1|1|16000M||/cifs/hariri-long/Studies/DNS/Imaging/pipeline1.0/DTI/FSL/20100125_10274/FA_averaged|
ark19|CANCELLED by 1027614|scavenger|2023-05-23T12:53:23|2023-05-27T16:31:52|4-03:38:29|dcc-pfister-01|1|1|16000M||/cifs/hariri-long/Studies/DNS/Imaging/pipeline1.0/DTI/FSL/20100125_10274/FA_averaged|
ark19|CANCELLED by 1027614|scavenger|2023-05-23T12:53:23|2023-05-27T16:31:52|4-03:38:29|dcc-pfister-01|1|1|16000M||/cifs/hariri-long/Studies/DNS/Imaging/pipeline1.0/DTI/FSL/20100125_10274/FA_averaged|
ark19|CANCELLED by 1027614|scavenger|2023-05-23T12:53:23|2023-05-27T16:31:52|4-03:38:29|dcc-pfister-01|1|1|16000M||/cifs/hariri-long/Studies/DNS/Imaging/pipeline1.0/DTI/FSL/20100125_10274/FA_averaged|
ark19|CANCELLED by 1027614|scavenger|2023-05-23T12:53:23|2023-05-27T16:31:52|4-03:38:29|dcc-pfister-01|1|1|16000M||/cifs/hariri-long/Studies/DNS/Imaging/pipeline1.0/DTI/FSL/20100125_10274/FA_averaged|
ark19|CANCELLED by 1027614|scavenger|2023-05-23T12:53:23|2023-05-27T16:31:53|4-03:38:30|dcc-pfister-01|1|1|16000M||/cifs/hariri-long/Studies/DNS/Imaging/pipeline1.0/DTI/FSL/20100125_10274/FA_averaged|
ark19|CANCELLED by 1027614|scavenger|2023-05-23T12:53:23|2023-05-27T16:31:53|4-03:38:30|dcc-pfister-01|1|1|16000M||/cifs/hariri-long/Studies/DNS/Imaging/pipeline1.0/DTI/FSL/20100125_10274/FA_averaged|
ark19|CANCELLED by 1027614|scavenger|2023-05-23T12:53:23|2023-05-27T16:31:53|4-03:38:30|dcc-pfister-01|1|1|16000M||/cifs/hariri-long/Studies/DNS/Imaging/pipeline1.0/DTI/FSL/20100125_10274/FA_averaged|
ark19|CANCELLED by 1027614|scavenger|2023-05-23T12:53:23|2023-05-27T16:31:54|4-03:38:31|dcc-pbenfeylab-02|1|1|16000M||/cifs/hariri-long/Studies/DNS/Imaging/pipeline1.0/DTI/FSL/20100125_10274/FA_averaged|
ark19|CANCELLED by 1027614|scavenger|2023-05-23T12:53:24|2023-05-27T16:31:50|4-03:38:26|dcc-pbenfeylab-02|1|1|16000M||/cifs/hariri-long/Studies/DNS/Imaging/pipeline1.0/DTI/FSL/20100125_10274/FA_averaged|
ark19|CANCELLED by 1027614|scavenger|2023-05-23T12:53:24|2023-05-27T16:31:50|4-03:38:26|dcc-pbenfeylab-02|1|1|16000M||/cifs/hariri-long/Studies/DNS/Imaging/pipeline1.0/DTI/FSL/20100125_10274/FA_averaged|
ark19|CANCELLED by 1027614|scavenger|2023-05-23T12:53:24|2023-05-27T16:31:51|4-03:38:27|dcc-pbenfeylab-02|1|1|16000M||/cifs/hariri-long/Studies/DNS/Imaging/pipeline1.0/DTI/FSL/20100125_10274/FA_averaged|
ark19|CANCELLED by 1027614|scavenger|2023-05-23T12:53:24|2023-05-27T16:31:51|4-03:38:27|dcc-pbenfeylab-02|1|1|16000M||/cifs/hariri-long/Studies/DNS/Imaging/pipeline1.0/DTI/FSL/20100125_10274/FA_averaged|
ark19|CANCELLED by 1027614|scavenger|2023-05-23T12:53:24|2023-05-27T16:31:51|4-03:38:27|dcc-pbenfeylab-02|1|1|16000M||/cifs/hariri-long/Studies/DNS/Imaging/pipeline1.0/DTI/FSL/20100125_10274/FA_averaged|
ark19|CANCELLED by 1027614|scavenger|2023-05-23T12:53:24|2023-05-27T16:31:51|4-03:38:27|dcc-pbenfeylab-02|1|1|16000M||/cifs/hariri-long/Studies/DNS/Imaging/pipeline1.0/DTI/FSL/20100125_10274/FA_averaged|
ark19|CANCELLED by 1027614|scavenger|2023-05-23T12:53:26|2023-05-27T16:31:48|4-03:38:22|dcc-pbenfeylab-02|1|1|16000M||/cifs/hariri-long/Studies/DNS/Imaging/pipeline1.0/DTI/FSL/20100125_10274/FA_averaged|
ark19|CANCELLED by 1027614|scavenger|2023-05-23T12:53:26|2023-05-27T16:31:48|4-03:38:22|dcc-pbenfeylab-02|1|1|16000M||/cifs/hariri-long/Studies/DNS/Imaging/pipeline1.0/DTI/FSL/20100125_10274/FA_averaged|
ark19|CANCELLED by 1027614|scavenger|2023-05-23T12:53:26|2023-05-27T16:31:49|4-03:38:23|dcc-pbenfeylab-02|1|1|16000M||/cifs/hariri-long/Studies/DNS/Imaging/pipeline1.0/DTI/FSL/20100125_10274/FA_averaged|
ark19|CANCELLED by 1027614|scavenger|2023-05-23T12:53:26|2023-05-27T16:31:49|4-03:38:23|dcc-pbenfeylab-02|1|1|16000M||/cifs/hariri-long/Studies/DNS/Imaging/pipeline1.0/DTI/FSL/20100125_10274/FA_averaged|
ark19|CANCELLED by 1027614|scavenger|2023-05-23T12:53:26|2023-05-27T16:31:49|4-03:38:23|dcc-pbenfeylab-02|1|1|16000M||/cifs/hariri-long/Studies/DNS/Imaging/pipeline1.0/DTI/FSL/20100125_10274/FA_averaged|
ark19|CANCELLED by 1027614|scavenger|2023-05-23T12:53:26|2023-05-27T16:31:49|4-03:38:23|dcc-pbenfeylab-02|1|1|16000M||/cifs/hariri-long/Studies/DNS/Imaging/pipeline1.0/DTI/FSL/20100125_10274/FA_averaged|
ark19|CANCELLED by 1027614|scavenger|2023-05-23T12:53:26|2023-05-27T16:31:49|4-03:38:23|dcc-pbenfeylab-02|1|1|16000M||/cifs/hariri-long/Studies/DNS/Imaging/pipeline1.0/DTI/FSL/20100125_10274/FA_averaged|
ark19|CANCELLED by 1027614|scavenger|2023-05-23T12:53:26|2023-05-27T16:31:49|4-03:38:23|dcc-pbenfeylab-02|1|1|16000M||/cifs/hariri-long/Studies/DNS/Imaging/pipeline1.0/DTI/FSL/20100125_10274/FA_averaged|
ark19|CANCELLED by 1027614|scavenger|2023-05-23T12:53:26|2023-05-27T16:31:49|4-03:38:23|dcc-pbenfeylab-02|1|1|16000M||/cifs/hariri-long/Studies/DNS/Imaging/pipeline1.0/DTI/FSL/20100125_10274/FA_averaged|
ly171|OUT_OF_MEMORY|scavenger|2023-05-23T15:03:21|2023-05-25T21:36:03|2-06:32:42|dcc-carin-25|1|4|30000M||/datacommons/ydiaolab/diaolab_group/lizhi/dCas12/YC12KIN|
ly171|OUT_OF_MEMORY|scavenger|2023-05-23T15:04:50|2023-05-26T03:26:46|2-12:21:56|dcc-compeb-02|1|4|30000M||/datacommons/ydiaolab/diaolab_group/lizhi/dCas12/YC12KF2|
cjp47|PREEMPTED|scavenger|2023-05-23T17:11:03|2023-05-27T13:59:21|3-20:48:18|dcc-statdept-01|1|1|64G||/hpc/group/bio1/cyanolichen_holobiome|
ts349|FAILED|scavenger|2023-05-24T05:47:28|2023-05-25T13:46:40|1-07:59:12|dcc-fergusonlab-01|1|12|100G||/work/ts349/stm2457_hicar/work/fd/115f4ff6e8cb8c4f6c0a867c52a763|
ts349|FAILED|scavenger|2023-05-24T05:47:48|2023-05-25T13:47:10|1-07:59:22|dcc-adrc-01|1|12|100G||/work/ts349/stm2457_hicar/work/68/9ca7b718c82e1f2241189f978062c2|
ts349|FAILED|scavenger|2023-05-24T06:51:59|2023-05-31T13:27:41|7-06:35:42|dcc-bragg-04|1|30|72G||/work/ts349/stm2457_hicar/endoderm_RNA|
ts349|COMPLETED|scavenger|2023-05-24T06:56:22|2023-05-30T09:10:17|6-02:13:55|dcc-compeb-03|1|30|72G||/hpc/home/ts349|
hk288|CANCELLED by 1484570|scavenger|2023-05-24T09:25:01|2023-06-04T12:17:20|11-02:52:19|dcc-cagpm-01|1|40|200G||/hpc/group/mastatlab/hk288/code_hp_paral|
hk288|CANCELLED by 1484570|scavenger|2023-05-24T09:25:01|2023-06-04T12:17:20|11-02:52:19|dcc-nicolab-01|1|40|200G||/hpc/group/mastatlab/hk288/code_hp_paral|
hk288|PREEMPTED|scavenger|2023-05-24T09:25:01|2023-05-30T13:41:32|6-04:16:31|dcc-dunsonlab-01|1|40|200G||/hpc/group/mastatlab/hk288/code_hp_paral|
hk288|PREEMPTED|scavenger|2023-05-24T09:25:01|2023-05-30T13:41:28|6-04:16:27|dcc-dunsonlab-02|1|40|200G||/hpc/group/mastatlab/hk288/code_hp_paral|
pz19|CANCELLED by 1050403|scavenger|2023-05-24T11:02:46|2023-05-26T18:31:22|2-07:28:36|dcc-adrc-01|1|16|25408M||/work/pz19/Wang/Copper/Silicon/TS_06_3LigOAc/B3LYP|
ark19|CANCELLED by 1027614|scavenger|2023-05-24T11:18:41|2023-05-25T14:08:01|1-02:49:20|dcc-youlab-01|1|1|125G||/cifs/hariri-long/Studies/DNS/Imaging/pipeline1.0/DTI/FSL/20100125_10274/FA_averaged|
ark19|CANCELLED by 1027614|scavenger|2023-05-24T11:18:41|2023-05-25T14:08:02|1-02:49:21|dcc-youlab-01|1|1|16000M||/cifs/hariri-long/Studies/DNS/Imaging/pipeline1.0/DTI/FSL/20100125_10274/FA_averaged|
ark19|CANCELLED by 1027614|scavenger|2023-05-24T11:18:44|2023-05-25T14:08:04|1-02:49:20|dcc-youlab-01|1|1|16000M||/cifs/hariri-long/Studies/DNS/Imaging/pipeline1.0/DTI/FSL/20100125_10274/FA_averaged|
ark19|CANCELLED by 1027614|scavenger|2023-05-24T11:18:44|2023-05-25T14:08:04|1-02:49:20|dcc-youlab-01|1|1|16000M||/cifs/hariri-long/Studies/DNS/Imaging/pipeline1.0/DTI/FSL/20100125_10274/FA_averaged|
ark19|CANCELLED by 1027614|scavenger|2023-05-24T11:18:44|2023-05-25T14:08:02|1-02:49:18|dcc-youlab-01|1|1|16000M||/cifs/hariri-long/Studies/DNS/Imaging/pipeline1.0/DTI/FSL/20100125_10274/FA_averaged|
ark19|CANCELLED by 1027614|scavenger|2023-05-24T11:18:44|2023-05-25T14:08:02|1-02:49:18|dcc-youlab-01|1|1|16000M||/cifs/hariri-long/Studies/DNS/Imaging/pipeline1.0/DTI/FSL/20100125_10274/FA_averaged|
ark19|CANCELLED by 1027614|scavenger|2023-05-24T11:18:44|2023-05-25T14:08:03|1-02:49:19|dcc-youlab-01|1|1|16000M||/cifs/hariri-long/Studies/DNS/Imaging/pipeline1.0/DTI/FSL/20100125_10274/FA_averaged|
ark19|CANCELLED by 1027614|scavenger|2023-05-24T11:18:44|2023-05-25T14:08:04|1-02:49:20|dcc-youlab-01|1|1|16000M||/cifs/hariri-long/Studies/DNS/Imaging/pipeline1.0/DTI/FSL/20100125_10274/FA_averaged|
ark19|CANCELLED by 1027614|scavenger|2023-05-24T11:18:44|2023-05-25T14:08:03|1-02:49:19|dcc-youlab-01|1|1|16000M||/cifs/hariri-long/Studies/DNS/Imaging/pipeline1.0/DTI/FSL/20100125_10274/FA_averaged|
ark19|CANCELLED by 1027614|scavenger|2023-05-24T11:18:44|2023-05-25T14:08:02|1-02:49:18|dcc-youlab-01|1|1|16000M||/cifs/hariri-long/Studies/DNS/Imaging/pipeline1.0/DTI/FSL/20100125_10274/FA_averaged|
ark19|CANCELLED by 1027614|scavenger|2023-05-24T11:18:44|2023-05-25T14:08:03|1-02:49:19|dcc-youlab-01|1|1|16000M||/cifs/hariri-long/Studies/DNS/Imaging/pipeline1.0/DTI/FSL/20100125_10274/FA_averaged|
ark19|CANCELLED by 1027614|scavenger|2023-05-24T11:18:44|2023-05-25T14:08:02|1-02:49:18|dcc-youlab-01|1|1|16000M||/cifs/hariri-long/Studies/DNS/Imaging/pipeline1.0/DTI/FSL/20100125_10274/FA_averaged|
ark19|CANCELLED by 1027614|scavenger|2023-05-24T11:18:44|2023-05-25T14:08:03|1-02:49:19|dcc-youlab-01|1|1|16000M||/cifs/hariri-long/Studies/DNS/Imaging/pipeline1.0/DTI/FSL/20100125_10274/FA_averaged|
ark19|CANCELLED by 1027614|scavenger|2023-05-24T11:18:44|2023-05-25T14:08:01|1-02:49:17|dcc-wychem-01|1|1|16000M||/cifs/hariri-long/Studies/DNS/Imaging/pipeline1.0/DTI/FSL/20100125_10274/FA_averaged|
ark19|CANCELLED by 1027614|scavenger|2023-05-24T11:18:44|2023-05-25T14:08:02|1-02:49:18|dcc-wychem-01|1|1|16000M||/cifs/hariri-long/Studies/DNS/Imaging/pipeline1.0/DTI/FSL/20100125_10274/FA_averaged|
ark19|CANCELLED by 1027614|scavenger|2023-05-24T11:18:44|2023-05-25T14:08:02|1-02:49:18|dcc-wychem-01|1|1|16000M||/cifs/hariri-long/Studies/DNS/Imaging/pipeline1.0/DTI/FSL/20100125_10274/FA_averaged|
ark19|CANCELLED by 1027614|scavenger|2023-05-24T11:18:44|2023-05-25T14:08:02|1-02:49:18|dcc-wychem-01|1|1|16000M||/cifs/hariri-long/Studies/DNS/Imaging/pipeline1.0/DTI/FSL/20100125_10274/FA_averaged|
ark19|CANCELLED by 1027614|scavenger|2023-05-24T11:18:44|2023-05-25T14:08:04|1-02:49:20|dcc-velmeshevlab-01|1|1|16000M||/cifs/hariri-long/Studies/DNS/Imaging/pipeline1.0/DTI/FSL/20100125_10274/FA_averaged|
ark19|CANCELLED by 1027614|scavenger|2023-05-24T11:18:44|2023-05-25T14:08:05|1-02:49:21|dcc-velmeshevlab-01|1|1|16000M||/cifs/hariri-long/Studies/DNS/Imaging/pipeline1.0/DTI/FSL/20100125_10274/FA_averaged|
ark19|CANCELLED by 1027614|scavenger|2023-05-24T11:18:44|2023-05-25T14:08:05|1-02:49:21|dcc-velmeshevlab-01|1|1|16000M||/cifs/hariri-long/Studies/DNS/Imaging/pipeline1.0/DTI/FSL/20100125_10274/FA_averaged|
ark19|CANCELLED by 1027614|scavenger|2023-05-24T11:18:44|2023-05-25T14:08:04|1-02:49:20|dcc-velmeshevlab-01|1|1|16000M||/cifs/hariri-long/Studies/DNS/Imaging/pipeline1.0/DTI/FSL/20100125_10274/FA_averaged|
ark19|CANCELLED by 1027614|scavenger|2023-05-24T11:18:44|2023-05-25T14:08:06|1-02:49:22|dcc-velmeshevlab-01|1|1|16000M||/cifs/hariri-long/Studies/DNS/Imaging/pipeline1.0/DTI/FSL/20100125_10274/FA_averaged|
ark19|CANCELLED by 1027614|scavenger|2023-05-24T11:18:44|2023-05-25T14:08:04|1-02:49:20|dcc-velmeshevlab-01|1|1|16000M||/cifs/hariri-long/Studies/DNS/Imaging/pipeline1.0/DTI/FSL/20100125_10274/FA_averaged|
ark19|CANCELLED by 1027614|scavenger|2023-05-24T11:18:44|2023-05-25T14:08:06|1-02:49:22|dcc-velmeshevlab-01|1|1|16000M||/cifs/hariri-long/Studies/DNS/Imaging/pipeline1.0/DTI/FSL/20100125_10274/FA_averaged|
ark19|CANCELLED by 1027614|scavenger|2023-05-24T11:18:44|2023-05-25T14:08:05|1-02:49:21|dcc-velmeshevlab-01|1|1|16000M||/cifs/hariri-long/Studies/DNS/Imaging/pipeline1.0/DTI/FSL/20100125_10274/FA_averaged|
ark19|CANCELLED by 1027614|scavenger|2023-05-24T11:18:44|2023-05-25T14:08:09|1-02:49:25|dcc-velmeshevlab-01|1|1|16000M||/cifs/hariri-long/Studies/DNS/Imaging/pipeline1.0/DTI/FSL/20100125_10274/FA_averaged|
ark19|CANCELLED by 1027614|scavenger|2023-05-24T11:18:44|2023-05-25T14:08:05|1-02:49:21|dcc-velmeshevlab-01|1|1|16000M||/cifs/hariri-long/Studies/DNS/Imaging/pipeline1.0/DTI/FSL/20100125_10274/FA_averaged|
ark19|CANCELLED by 1027614|scavenger|2023-05-24T11:18:44|2023-05-25T14:08:05|1-02:49:21|dcc-velmeshevlab-01|1|1|16000M||/cifs/hariri-long/Studies/DNS/Imaging/pipeline1.0/DTI/FSL/20100125_10274/FA_averaged|
ark19|CANCELLED by 1027614|scavenger|2023-05-24T11:18:44|2023-05-25T14:08:04|1-02:49:20|dcc-velmeshevlab-01|1|1|16000M||/cifs/hariri-long/Studies/DNS/Imaging/pipeline1.0/DTI/FSL/20100125_10274/FA_averaged|
ark19|CANCELLED by 1027614|scavenger|2023-05-24T11:18:44|2023-05-25T14:08:06|1-02:49:22|dcc-velmeshevlab-01|1|1|16000M||/cifs/hariri-long/Studies/DNS/Imaging/pipeline1.0/DTI/FSL/20100125_10274/FA_averaged|
ark19|CANCELLED by 1027614|scavenger|2023-05-24T11:18:44|2023-05-25T14:08:05|1-02:49:21|dcc-velmeshevlab-01|1|1|16000M||/cifs/hariri-long/Studies/DNS/Imaging/pipeline1.0/DTI/FSL/20100125_10274/FA_averaged|
ark19|CANCELLED by 1027614|scavenger|2023-05-24T11:18:44|2023-05-25T14:08:05|1-02:49:21|dcc-velmeshevlab-01|1|1|16000M||/cifs/hariri-long/Studies/DNS/Imaging/pipeline1.0/DTI/FSL/20100125_10274/FA_averaged|
ark19|CANCELLED by 1027614|scavenger|2023-05-24T11:18:44|2023-05-25T14:08:04|1-02:49:20|dcc-velmeshevlab-01|1|1|16000M||/cifs/hariri-long/Studies/DNS/Imaging/pipeline1.0/DTI/FSL/20100125_10274/FA_averaged|
ark19|CANCELLED by 1027614|scavenger|2023-05-24T11:18:44|2023-05-25T14:08:05|1-02:49:21|dcc-velmeshevlab-01|1|1|16000M||/cifs/hariri-long/Studies/DNS/Imaging/pipeline1.0/DTI/FSL/20100125_10274/FA_averaged|
ark19|CANCELLED by 1027614|scavenger|2023-05-24T11:18:44|2023-05-25T14:08:01|1-02:49:17|dcc-tunglab-02|1|1|16000M||/cifs/hariri-long/Studies/DNS/Imaging/pipeline1.0/DTI/FSL/20100125_10274/FA_averaged|
ark19|CANCELLED by 1027614|scavenger|2023-05-24T11:18:46|2023-05-25T14:08:01|1-02:49:15|dcc-tunglab-02|1|1|16000M||/cifs/hariri-long/Studies/DNS/Imaging/pipeline1.0/DTI/FSL/20100125_10274/FA_averaged|
ark19|CANCELLED by 1027614|scavenger|2023-05-24T11:18:46|2023-05-25T14:08:01|1-02:49:15|dcc-tunglab-02|1|1|16000M||/cifs/hariri-long/Studies/DNS/Imaging/pipeline1.0/DTI/FSL/20100125_10274/FA_averaged|
ark19|CANCELLED by 1027614|scavenger|2023-05-24T11:18:46|2023-05-25T14:08:08|1-02:49:22|dcc-tunglab-01|1|1|16000M||/cifs/hariri-long/Studies/DNS/Imaging/pipeline1.0/DTI/FSL/20100125_10274/FA_averaged|
ark19|CANCELLED by 1027614|scavenger|2023-05-24T11:18:46|2023-05-25T14:08:08|1-02:49:22|dcc-tunglab-01|1|1|16000M||/cifs/hariri-long/Studies/DNS/Imaging/pipeline1.0/DTI/FSL/20100125_10274/FA_averaged|
ark19|CANCELLED by 1027614|scavenger|2023-05-24T11:18:46|2023-05-25T14:08:07|1-02:49:21|dcc-tunglab-01|1|1|16000M||/cifs/hariri-long/Studies/DNS/Imaging/pipeline1.0/DTI/FSL/20100125_10274/FA_averaged|
ark19|CANCELLED by 1027614|scavenger|2023-05-24T11:18:47|2023-05-25T14:08:07|1-02:49:20|dcc-tunglab-01|1|1|16000M||/cifs/hariri-long/Studies/DNS/Imaging/pipeline1.0/DTI/FSL/20100125_10274/FA_averaged|
ark19|CANCELLED by 1027614|scavenger|2023-05-24T11:18:47|2023-05-25T14:08:06|1-02:49:19|dcc-tunglab-01|1|1|16000M||/cifs/hariri-long/Studies/DNS/Imaging/pipeline1.0/DTI/FSL/20100125_10274/FA_averaged|
ark19|CANCELLED by 1027614|scavenger|2023-05-24T11:18:47|2023-05-25T14:08:07|1-02:49:20|dcc-tunglab-01|1|1|16000M||/cifs/hariri-long/Studies/DNS/Imaging/pipeline1.0/DTI/FSL/20100125_10274/FA_averaged|
ark19|CANCELLED by 1027614|scavenger|2023-05-24T11:18:47|2023-05-25T14:08:07|1-02:49:20|dcc-tunglab-01|1|1|16000M||/cifs/hariri-long/Studies/DNS/Imaging/pipeline1.0/DTI/FSL/20100125_10274/FA_averaged|
ark19|CANCELLED by 1027614|scavenger|2023-05-24T11:18:47|2023-05-25T14:08:07|1-02:49:20|dcc-tunglab-01|1|1|16000M||/cifs/hariri-long/Studies/DNS/Imaging/pipeline1.0/DTI/FSL/20100125_10274/FA_averaged|
ark19|CANCELLED by 1027614|scavenger|2023-05-24T11:18:47|2023-05-25T14:08:07|1-02:49:20|dcc-tunglab-01|1|1|16000M||/cifs/hariri-long/Studies/DNS/Imaging/pipeline1.0/DTI/FSL/20100125_10274/FA_averaged|
ark19|CANCELLED by 1027614|scavenger|2023-05-24T11:18:47|2023-05-25T14:08:09|1-02:49:22|dcc-tunglab-01|1|1|16000M||/cifs/hariri-long/Studies/DNS/Imaging/pipeline1.0/DTI/FSL/20100125_10274/FA_averaged|
ark19|CANCELLED by 1027614|scavenger|2023-05-24T11:18:47|2023-05-25T14:08:08|1-02:49:21|dcc-tunglab-01|1|1|16000M||/cifs/hariri-long/Studies/DNS/Imaging/pipeline1.0/DTI/FSL/20100125_10274/FA_averaged|
ark19|CANCELLED by 1027614|scavenger|2023-05-24T11:18:47|2023-05-25T14:08:08|1-02:49:21|dcc-tunglab-01|1|1|16000M||/cifs/hariri-long/Studies/DNS/Imaging/pipeline1.0/DTI/FSL/20100125_10274/FA_averaged|
ark19|CANCELLED by 1027614|scavenger|2023-05-24T11:18:47|2023-05-25T14:08:07|1-02:49:20|dcc-tunglab-01|1|1|16000M||/cifs/hariri-long/Studies/DNS/Imaging/pipeline1.0/DTI/FSL/20100125_10274/FA_averaged|
ark19|CANCELLED by 1027614|scavenger|2023-05-24T11:18:47|2023-05-25T14:08:07|1-02:49:20|dcc-tunglab-01|1|1|16000M||/cifs/hariri-long/Studies/DNS/Imaging/pipeline1.0/DTI/FSL/20100125_10274/FA_averaged|
hl419|COMPLETED|scavenger|2023-05-24T13:59:39|2023-05-25T17:48:19|1-03:48:40|dcc-dailabs-[01-05]|5|48|96G||/hpc/group/delairelab/hl419/Na3SbS4_Train|
jo117|FAILED|scavenger|2023-05-24T14:01:10|2023-05-25T14:00:40|23:59:30|dcc-bragg-04|1|16|108G||/work/jo117/DiaoLab/hicar_v2/human/work/e0/f8de5ca674298b96edf830fc52f093|
pz19|TIMEOUT|scavenger|2023-05-24T15:03:18|2023-06-04T05:03:21|10-14:00:03|dcc-fergusonlab-04|1|16|25408M||/work/pz19/Wang/Copper/Silicon/TS_06_3LigOAc/MN15|
pz19|TIMEOUT|scavenger|2023-05-24T15:03:18|2023-06-04T05:03:21|10-14:00:03|dcc-fergusonlab-04|1|16|25408M||/work/pz19/Wang/Copper/Silicon/TS_06_3LigOAc/B3LYP|
pz19|CANCELLED by 1050403|scavenger|2023-05-24T15:03:18|2023-06-02T20:51:37|9-05:48:19|dcc-fergusonlab-05|1|16|25408M||/work/pz19/Wang/Copper/Silicon/TS_06_3Lig/MN15|
ark19|CANCELLED by 1027614|scavenger|2023-05-24T16:28:40|2023-05-25T14:08:17|21:39:37|dcc-rausherlab-02|1|1|24000M||/hpc/home/ark19|
ark19|CANCELLED by 1027614|scavenger|2023-05-24T16:28:43|2023-05-25T14:08:14|21:39:31|dcc-rausherlab-02|1|1|24000M||/hpc/home/ark19|
ark19|CANCELLED by 1027614|scavenger|2023-05-24T16:28:43|2023-05-25T14:08:12|21:39:29|dcc-rausherlab-02|1|1|24000M||/hpc/home/ark19|
ark19|CANCELLED by 1027614|scavenger|2023-05-24T16:28:43|2023-05-25T14:08:10|21:39:27|dcc-rausherlab-01|1|1|24000M||/hpc/home/ark19|
ark19|CANCELLED by 1027614|scavenger|2023-05-24T16:28:43|2023-05-25T14:08:10|21:39:27|dcc-rausherlab-01|1|1|24000M||/hpc/home/ark19|
ark19|COMPLETED|scavenger|2023-05-24T16:28:43|2023-05-25T13:45:42|21:16:59|dcc-pbenfeylab-02|1|1|24000M||/hpc/home/ark19|
ark19|COMPLETED|scavenger|2023-05-24T16:28:43|2023-05-25T13:58:27|21:29:44|dcc-pbenfeylab-02|1|1|24000M||/hpc/home/ark19|
ark19|CANCELLED by 1027614|scavenger|2023-05-24T16:28:43|2023-05-25T14:08:19|21:39:36|dcc-pbenfeylab-02|1|1|24000M||/hpc/home/ark19|
ark19|COMPLETED|scavenger|2023-05-24T16:28:43|2023-05-25T13:57:39|21:28:56|dcc-pbenfeylab-02|1|1|24000M||/hpc/home/ark19|
ark19|COMPLETED|scavenger|2023-05-24T16:28:43|2023-05-25T14:06:43|21:38:00|dcc-pbenfeylab-02|1|1|24000M||/hpc/home/ark19|
ark19|COMPLETED|scavenger|2023-05-24T16:28:43|2023-05-25T14:08:10|21:39:27|dcc-pbenfeylab-02|1|1|24000M||/hpc/home/ark19|
ark19|CANCELLED by 1027614|scavenger|2023-05-24T16:28:43|2023-05-25T14:08:19|21:39:36|dcc-pbenfeylab-02|1|1|24000M||/hpc/home/ark19|
ark19|CANCELLED by 1027614|scavenger|2023-05-24T16:28:43|2023-05-25T14:08:11|21:39:28|dcc-pbenfeylab-02|1|1|24000M||/hpc/home/ark19|
ark19|CANCELLED by 1027614|scavenger|2023-05-24T16:28:44|2023-05-25T14:08:17|21:39:33|dcc-pbenfeylab-02|1|1|24000M||/hpc/home/ark19|
ark19|CANCELLED by 1027614|scavenger|2023-05-24T16:28:44|2023-05-25T14:08:19|21:39:35|dcc-pbenfeylab-02|1|1|24000M||/hpc/home/ark19|
ark19|COMPLETED|scavenger|2023-05-24T16:28:44|2023-05-25T13:45:24|21:16:40|dcc-pbenfeylab-02|1|1|24000M||/hpc/home/ark19|
ark19|CANCELLED by 1027614|scavenger|2023-05-24T16:28:44|2023-05-25T14:08:12|21:39:28|dcc-pbenfeylab-01|1|1|24000M||/hpc/home/ark19|
ark19|CANCELLED by 1027614|scavenger|2023-05-24T16:28:44|2023-05-25T14:08:15|21:39:31|dcc-pbenfeylab-01|1|1|24000M||/hpc/home/ark19|
ark19|CANCELLED by 1027614|scavenger|2023-05-24T16:28:44|2023-05-25T14:08:12|21:39:28|dcc-pbenfeylab-01|1|1|24000M||/hpc/home/ark19|
ark19|CANCELLED by 1027614|scavenger|2023-05-24T16:28:44|2023-05-25T14:08:15|21:39:31|dcc-pbenfeylab-01|1|1|24000M||/hpc/home/ark19|
ark19|CANCELLED by 1027614|scavenger|2023-05-24T16:28:44|2023-05-25T14:08:15|21:39:31|dcc-pbenfeylab-01|1|1|24000M||/hpc/home/ark19|
ark19|CANCELLED by 1027614|scavenger|2023-05-24T16:28:44|2023-05-25T14:08:13|21:39:29|dcc-pbenfeylab-01|1|1|24000M||/hpc/home/ark19|
ark19|CANCELLED by 1027614|scavenger|2023-05-24T16:28:44|2023-05-25T14:08:12|21:39:28|dcc-pbenfeylab-01|1|1|24000M||/hpc/home/ark19|
ark19|CANCELLED by 1027614|scavenger|2023-05-24T16:28:44|2023-05-25T14:08:12|21:39:28|dcc-pbenfeylab-01|1|1|24000M||/hpc/home/ark19|
ark19|CANCELLED by 1027614|scavenger|2023-05-24T16:28:44|2023-05-25T14:08:18|21:39:34|dcc-pbenfeylab-01|1|1|24000M||/hpc/home/ark19|
ark19|CANCELLED by 1027614|scavenger|2023-05-24T16:28:46|2023-05-25T14:08:14|21:39:28|dcc-pbenfeylab-01|1|1|24000M||/hpc/home/ark19|
ark19|CANCELLED by 1027614|scavenger|2023-05-24T16:28:46|2023-05-25T14:08:14|21:39:28|dcc-pbenfeylab-01|1|1|24000M||/hpc/home/ark19|
ark19|CANCELLED by 1027614|scavenger|2023-05-24T16:28:46|2023-05-25T14:08:15|21:39:29|dcc-pbenfeylab-01|1|1|24000M||/hpc/home/ark19|
ark19|CANCELLED by 1027614|scavenger|2023-05-24T16:28:46|2023-05-25T14:08:12|21:39:26|dcc-pbenfeylab-01|1|1|24000M||/hpc/home/ark19|
ark19|CANCELLED by 1027614|scavenger|2023-05-24T16:28:46|2023-05-25T14:08:18|21:39:32|dcc-pbenfeylab-01|1|1|24000M||/hpc/home/ark19|
ark19|CANCELLED by 1027614|scavenger|2023-05-24T16:28:46|2023-05-25T14:08:16|21:39:30|dcc-pbenfeylab-01|1|1|24000M||/hpc/home/ark19|
ark19|CANCELLED by 1027614|scavenger|2023-05-24T16:28:46|2023-05-25T14:08:12|21:39:26|dcc-pbenfeylab-01|1|1|24000M||/hpc/home/ark19|
ark19|CANCELLED by 1027614|scavenger|2023-05-24T16:28:46|2023-05-25T14:08:18|21:39:32|dcc-pbenfeylab-01|1|1|24000M||/hpc/home/ark19|
ark19|CANCELLED by 1027614|scavenger|2023-05-24T16:28:46|2023-05-25T14:08:12|21:39:26|dcc-pbenfeylab-01|1|1|24000M||/hpc/home/ark19|
ark19|CANCELLED by 1027614|scavenger|2023-05-24T16:28:46|2023-05-25T14:08:16|21:39:30|dcc-pbenfeylab-01|1|1|24000M||/hpc/home/ark19|
ark19|CANCELLED by 1027614|scavenger|2023-05-24T16:28:46|2023-05-25T14:08:18|21:39:32|dcc-pbenfeylab-01|1|1|24000M||/hpc/home/ark19|
ark19|CANCELLED by 1027614|scavenger|2023-05-24T16:28:46|2023-05-25T14:08:12|21:39:26|dcc-pbenfeylab-01|1|1|24000M||/hpc/home/ark19|
ark19|CANCELLED by 1027614|scavenger|2023-05-24T16:28:47|2023-05-25T14:08:17|21:39:30|dcc-pbenfeylab-01|1|1|24000M||/hpc/home/ark19|
ark19|CANCELLED by 1027614|scavenger|2023-05-24T16:28:47|2023-05-25T14:08:17|21:39:30|dcc-pbenfeylab-01|1|1|24000M||/hpc/home/ark19|
ark19|CANCELLED by 1027614|scavenger|2023-05-24T16:28:47|2023-05-25T14:08:14|21:39:27|dcc-pbenfeylab-01|1|1|24000M||/hpc/home/ark19|
ark19|CANCELLED by 1027614|scavenger|2023-05-24T16:28:47|2023-05-25T14:08:13|21:39:26|dcc-pbenfeylab-01|1|1|24000M||/hpc/home/ark19|
ark19|CANCELLED by 1027614|scavenger|2023-05-24T16:28:47|2023-05-25T14:08:16|21:39:29|dcc-pbenfeylab-01|1|1|24000M||/hpc/home/ark19|
ark19|CANCELLED by 1027614|scavenger|2023-05-24T16:28:47|2023-05-25T14:08:16|21:39:29|dcc-pbenfeylab-01|1|1|24000M||/hpc/home/ark19|
ark19|CANCELLED by 1027614|scavenger|2023-05-24T16:28:47|2023-05-25T14:08:11|21:39:24|dcc-pbenfeylab-01|1|1|24000M||/hpc/home/ark19|
ark19|CANCELLED by 1027614|scavenger|2023-05-24T16:28:47|2023-05-25T14:08:11|21:39:24|dcc-pbenfeylab-01|1|1|24000M||/hpc/home/ark19|
ark19|CANCELLED by 1027614|scavenger|2023-05-24T16:28:49|2023-05-25T14:08:14|21:39:25|dcc-pbenfeylab-01|1|1|24000M||/hpc/home/ark19|
ark19|COMPLETED|scavenger|2023-05-24T16:28:49|2023-05-25T12:45:56|20:17:07|dcc-nsoe-it-01|1|1|24000M||/hpc/home/ark19|
ark19|COMPLETED|scavenger|2023-05-24T16:28:49|2023-05-25T13:01:45|20:32:56|dcc-nsoe-it-01|1|1|24000M||/hpc/home/ark19|
ark19|COMPLETED|scavenger|2023-05-24T16:28:49|2023-05-25T12:20:38|19:51:49|dcc-nsoe-it-01|1|1|24000M||/hpc/home/ark19|
ark19|COMPLETED|scavenger|2023-05-24T16:28:49|2023-05-25T12:52:59|20:24:10|dcc-nsoe-it-01|1|1|24000M||/hpc/home/ark19|
ark19|COMPLETED|scavenger|2023-05-24T16:28:49|2023-05-25T12:09:20|19:40:31|dcc-nsoe-it-01|1|1|24000M||/hpc/home/ark19|
ark19|COMPLETED|scavenger|2023-05-24T16:28:49|2023-05-25T11:50:44|19:21:55|dcc-nsoe-it-01|1|1|24000M||/hpc/home/ark19|
ark19|COMPLETED|scavenger|2023-05-24T16:28:49|2023-05-25T11:54:59|19:26:10|dcc-nsoe-it-01|1|1|24000M||/hpc/home/ark19|
ark19|COMPLETED|scavenger|2023-05-24T16:28:49|2023-05-25T12:02:26|19:33:37|dcc-nsoe-it-01|1|1|24000M||/hpc/home/ark19|
ark19|COMPLETED|scavenger|2023-05-24T16:28:49|2023-05-25T11:53:00|19:24:11|dcc-nsoe-it-01|1|1|24000M||/hpc/home/ark19|
ark19|COMPLETED|scavenger|2023-05-24T16:28:49|2023-05-25T13:37:13|21:08:24|dcc-nsoe-it-01|1|1|24000M||/hpc/home/ark19|
ark19|CANCELLED by 1027614|scavenger|2023-05-24T16:28:49|2023-05-25T14:08:10|21:39:21|dcc-noor-02|1|1|24000M||/hpc/home/ark19|
ark19|CANCELLED by 1027614|scavenger|2023-05-24T16:28:49|2023-05-25T14:08:10|21:39:21|dcc-noor-02|1|1|24000M||/hpc/home/ark19|
ark19|CANCELLED by 1027614|scavenger|2023-05-24T16:28:50|2023-05-25T14:08:10|21:39:20|dcc-noor-02|1|1|24000M||/hpc/home/ark19|
ark19|CANCELLED by 1027614|scavenger|2023-05-24T16:28:50|2023-05-25T14:08:09|21:39:19|dcc-noor-02|1|1|24000M||/hpc/home/ark19|
ark19|CANCELLED by 1027614|scavenger|2023-05-24T16:28:50|2023-05-25T14:08:10|21:39:20|dcc-noor-02|1|1|24000M||/hpc/home/ark19|
ark19|CANCELLED by 1027614|scavenger|2023-05-24T16:28:50|2023-05-25T14:08:19|21:39:29|dcc-noor-02|1|1|24000M||/hpc/home/ark19|
ark19|CANCELLED by 1027614|scavenger|2023-05-24T16:28:50|2023-05-25T14:08:14|21:39:24|dcc-noor-02|1|1|24000M||/hpc/home/ark19|
ark19|CANCELLED by 1027614|scavenger|2023-05-24T16:28:50|2023-05-25T14:08:17|21:39:27|dcc-noor-02|1|1|24000M||/hpc/home/ark19|
ark19|CANCELLED by 1027614|scavenger|2023-05-24T16:28:50|2023-05-25T14:08:09|21:39:19|dcc-noor-02|1|1|24000M||/hpc/home/ark19|
ark19|CANCELLED by 1027614|scavenger|2023-05-24T16:28:52|2023-05-25T14:08:16|21:39:24|dcc-noor-01|1|1|24000M||/hpc/home/ark19|
ark19|CANCELLED by 1027614|scavenger|2023-05-24T16:28:52|2023-05-25T14:08:16|21:39:24|dcc-noor-01|1|1|24000M||/hpc/home/ark19|
ark19|CANCELLED by 1027614|scavenger|2023-05-24T16:28:55|2023-05-25T14:08:17|21:39:22|dcc-noor-01|1|1|24000M||/hpc/home/ark19|
ark19|CANCELLED by 1027614|scavenger|2023-05-24T16:28:55|2023-05-25T14:08:16|21:39:21|dcc-noor-01|1|1|24000M||/hpc/home/ark19|
ark19|CANCELLED by 1027614|scavenger|2023-05-24T16:28:55|2023-05-25T14:08:09|21:39:14|dcc-noor-01|1|1|24000M||/hpc/home/ark19|
ark19|CANCELLED by 1027614|scavenger|2023-05-24T19:53:52|2023-05-25T14:08:14|18:14:22|dcc-velmeshevlab-01|1|1|24000M||/hpc/home/ark19|
ark19|CANCELLED by 1027614|scavenger|2023-05-24T19:54:27|2023-05-25T14:08:14|18:13:47|dcc-velmeshevlab-01|1|1|24000M||/hpc/home/ark19|
ark19|CANCELLED by 1027614|scavenger|2023-05-24T19:55:01|2023-05-25T14:08:13|18:13:12|dcc-velmeshevlab-01|1|1|24000M||/hpc/home/ark19|
ark19|COMPLETED|scavenger|2023-05-24T19:56:23|2023-05-25T12:54:07|16:57:44|dcc-youlab-01|1|1|24000M||/hpc/home/ark19|
ark19|CANCELLED by 1027614|scavenger|2023-05-24T19:56:47|2023-05-25T14:08:14|18:11:27|dcc-velmeshevlab-01|1|1|24000M||/hpc/home/ark19|
ark19|CANCELLED by 1027614|scavenger|2023-05-24T19:57:13|2023-05-25T14:08:17|18:11:04|dcc-velmeshevlab-01|1|1|24000M||/hpc/home/ark19|
ark19|CANCELLED by 1027614|scavenger|2023-05-24T20:00:51|2023-05-25T14:08:13|18:07:22|dcc-velmeshevlab-01|1|1|24000M||/hpc/home/ark19|
ark19|CANCELLED by 1027614|scavenger|2023-05-24T20:08:14|2023-05-25T14:08:17|18:00:03|dcc-velmeshevlab-01|1|1|24000M||/hpc/home/ark19|
ark19|CANCELLED by 1027614|scavenger|2023-05-24T20:08:57|2023-05-25T14:08:17|17:59:20|dcc-velmeshevlab-01|1|1|24000M||/hpc/home/ark19|
ark19|CANCELLED by 1027614|scavenger|2023-05-24T20:09:13|2023-05-25T14:08:09|17:58:56|dcc-tunglab-02|1|1|24000M||/hpc/home/ark19|
ark19|CANCELLED by 1027614|scavenger|2023-05-24T20:10:29|2023-05-25T14:08:09|17:57:40|dcc-tunglab-02|1|1|24000M||/hpc/home/ark19|
ark19|CANCELLED by 1027614|scavenger|2023-05-24T20:10:57|2023-05-25T14:08:09|17:57:12|dcc-tunglab-02|1|1|24000M||/hpc/home/ark19|
ark19|CANCELLED by 1027614|scavenger|2023-05-24T20:11:41|2023-05-25T14:08:09|17:56:28|dcc-tunglab-02|1|1|24000M||/hpc/home/ark19|
ark19|CANCELLED by 1027614|scavenger|2023-05-24T20:14:32|2023-05-25T14:08:18|17:53:46|dcc-pbenfeylab-01|1|1|24000M||/hpc/home/ark19|
ark19|CANCELLED by 1027614|scavenger|2023-05-24T21:49:28|2023-05-25T14:08:12|16:18:44|dcc-statdept-01|1|1|24000M||/hpc/home/ark19|
ark19|CANCELLED by 1027614|scavenger|2023-05-24T22:04:56|2023-05-25T14:08:11|16:03:15|dcc-rausherlab-02|1|1|24000M||/hpc/home/ark19|
ark19|CANCELLED by 1027614|scavenger|2023-05-24T22:15:00|2023-05-25T14:08:10|15:53:10|dcc-rausherlab-02|1|1|24000M||/hpc/home/ark19|
ark19|CANCELLED by 1027614|scavenger|2023-05-24T22:16:06|2023-05-25T14:08:11|15:52:05|dcc-rausherlab-02|1|1|24000M||/hpc/home/ark19|
ark19|CANCELLED by 1027614|scavenger|2023-05-24T22:34:05|2023-05-25T14:08:10|15:34:05|dcc-rausherlab-02|1|1|24000M||/hpc/home/ark19|
ark19|CANCELLED by 1027614|scavenger|2023-05-25T11:50:45|2023-05-25T14:08:17|02:17:32|dcc-pbenfeylab-02|1|1|24000M||/hpc/home/ark19|
ark19|CANCELLED by 1027614|scavenger|2023-05-25T11:53:00|2023-05-25T14:08:13|02:15:13|dcc-pbenfeylab-01|1|1|24000M||/hpc/home/ark19|
ark19|CANCELLED by 1027614|scavenger|2023-05-25T11:54:59|2023-05-25T14:08:18|02:13:19|dcc-pbenfeylab-01|1|1|24000M||/hpc/home/ark19|
ark19|CANCELLED by 1027614|scavenger|2023-05-25T12:02:27|2023-05-25T14:08:16|02:05:49|dcc-pbenfeylab-01|1|1|24000M||/hpc/home/ark19|
ark19|CANCELLED by 1027614|scavenger|2023-05-25T12:09:22|2023-05-25T14:08:18|01:58:56|dcc-pbenfeylab-01|1|1|24000M||/hpc/home/ark19|
ark19|CANCELLED by 1027614|scavenger|2023-05-25T12:20:40|2023-05-25T14:08:18|01:47:38|dcc-pbenfeylab-01|1|1|24000M||/hpc/home/ark19|
ark19|CANCELLED by 1027614|scavenger|2023-05-25T12:45:56|2023-05-25T14:08:11|01:22:15|dcc-pbenfeylab-01|1|1|24000M||/hpc/home/ark19|
ark19|CANCELLED by 1027614|scavenger|2023-05-25T12:53:01|2023-05-25T14:08:16|01:15:15|dcc-pbenfeylab-01|1|1|24000M||/hpc/home/ark19|
ark19|CANCELLED by 1027614|scavenger|2023-05-25T12:54:09|2023-05-25T14:08:11|01:14:02|dcc-youlab-01|1|1|24000M||/hpc/home/ark19|
ark19|CANCELLED by 1027614|scavenger|2023-05-25T13:01:47|2023-05-25T14:08:14|01:06:27|dcc-nsoe-it-01|1|1|24000M||/hpc/home/ark19|
ark19|CANCELLED by 1027614|scavenger|2023-05-25T13:37:13|2023-05-25T14:08:15|00:31:02|dcc-nsoe-it-01|1|1|24000M||/hpc/home/ark19|
ark19|CANCELLED by 1027614|scavenger|2023-05-25T13:45:24|2023-05-25T14:08:15|00:22:51|dcc-pbenfeylab-02|1|1|24000M||/hpc/home/ark19|
ark19|CANCELLED by 1027614|scavenger|2023-05-25T13:45:42|2023-05-25T14:08:15|00:22:33|dcc-pbenfeylab-02|1|1|24000M||/hpc/home/ark19|
ark19|CANCELLED by 1027614|scavenger|2023-05-25T13:57:39|2023-05-25T14:08:19|00:10:40|dcc-pbenfeylab-02|1|1|24000M||/hpc/home/ark19|
ark19|CANCELLED by 1027614|scavenger|2023-05-25T13:58:27|2023-05-25T14:08:19|00:09:52|dcc-pbenfeylab-02|1|1|24000M||/hpc/home/ark19|
ark19|CANCELLED by 1027614|scavenger|2023-05-25T14:06:44|2023-05-25T14:08:19|00:01:35|dcc-pbenfeylab-02|1|1|24000M||/hpc/home/ark19|
ark19|CANCELLED by 1027614|scavenger|2023-05-25T14:08:01|2023-05-25T14:27:13|00:19:12|dcc-noor-01|1|1|24000M||/hpc/home/ark19|
ark19|CANCELLED by 1027614|scavenger|2023-05-25T14:08:03|2023-05-25T14:27:11|00:19:08|dcc-tunglab-02|1|1|24000M||/hpc/home/ark19|
ark19|CANCELLED by 1027614|scavenger|2023-05-25T14:08:03|2023-05-25T14:27:11|00:19:08|dcc-tunglab-02|1|1|24000M||/hpc/home/ark19|
ark19|CANCELLED by 1027614|scavenger|2023-05-25T14:08:03|2023-05-25T14:27:11|00:19:08|dcc-motesa-01|1|1|24000M||/hpc/home/ark19|
ark19|CANCELLED by 1027614|scavenger|2023-05-25T14:08:03|2023-05-25T14:27:11|00:19:08|dcc-motesa-01|1|1|24000M||/hpc/home/ark19|
ark19|CANCELLED by 1027614|scavenger|2023-05-25T14:08:03|2023-05-25T14:27:11|00:19:08|dcc-kirschlab-01|1|1|24000M||/hpc/home/ark19|
ark19|CANCELLED by 1027614|scavenger|2023-05-25T14:08:03|2023-05-25T14:27:11|00:19:08|dcc-kirschlab-01|1|1|24000M||/hpc/home/ark19|
ark19|CANCELLED by 1027614|scavenger|2023-05-25T14:08:03|2023-05-25T14:27:12|00:19:09|dcc-kirschlab-01|1|1|24000M||/hpc/home/ark19|
ark19|CANCELLED by 1027614|scavenger|2023-05-25T14:08:03|2023-05-25T14:27:12|00:19:09|dcc-kirschlab-01|1|1|24000M||/hpc/home/ark19|
ark19|CANCELLED by 1027614|scavenger|2023-05-25T14:08:03|2023-05-25T14:27:12|00:19:09|dcc-kirschlab-01|1|1|24000M||/hpc/home/ark19|
ark19|CANCELLED by 1027614|scavenger|2023-05-25T14:08:03|2023-05-25T14:27:12|00:19:09|dcc-kirschlab-01|1|1|24000M||/hpc/home/ark19|
ark19|CANCELLED by 1027614|scavenger|2023-05-25T14:08:03|2023-05-25T14:27:12|00:19:09|dcc-kirschlab-01|1|1|24000M||/hpc/home/ark19|
ark19|CANCELLED by 1027614|scavenger|2023-05-25T14:08:03|2023-05-25T14:27:12|00:19:09|dcc-kirschlab-01|1|1|24000M||/hpc/home/ark19|
ark19|CANCELLED by 1027614|scavenger|2023-05-25T14:08:03|2023-05-25T14:27:12|00:19:09|dcc-kirschlab-01|1|1|24000M||/hpc/home/ark19|
ark19|CANCELLED by 1027614|scavenger|2023-05-25T14:08:03|2023-05-25T14:27:12|00:19:09|dcc-kirschlab-01|1|1|24000M||/hpc/home/ark19|
ark19|CANCELLED by 1027614|scavenger|2023-05-25T14:08:03|2023-05-25T14:27:13|00:19:10|dcc-kirschlab-01|1|1|24000M||/hpc/home/ark19|
ark19|CANCELLED by 1027614|scavenger|2023-05-25T14:08:06|2023-05-25T14:27:10|00:19:04|dcc-youlab-01|1|1|24000M||/hpc/home/ark19|
ark19|CANCELLED by 1027614|scavenger|2023-05-25T14:08:06|2023-05-25T14:27:10|00:19:04|dcc-youlab-01|1|1|24000M||/hpc/home/ark19|
ark19|CANCELLED by 1027614|scavenger|2023-05-25T14:08:06|2023-05-25T14:27:10|00:19:04|dcc-youlab-01|1|1|24000M||/hpc/home/ark19|
ark19|CANCELLED by 1027614|scavenger|2023-05-25T14:08:06|2023-05-25T14:27:10|00:19:04|dcc-youlab-01|1|1|24000M||/hpc/home/ark19|
ark19|CANCELLED by 1027614|scavenger|2023-05-25T14:08:06|2023-05-25T14:27:10|00:19:04|dcc-youlab-01|1|1|24000M||/hpc/home/ark19|
ark19|CANCELLED by 1027614|scavenger|2023-05-25T14:08:06|2023-05-25T14:27:10|00:19:04|dcc-youlab-01|1|1|24000M||/hpc/home/ark19|
ark19|CANCELLED by 1027614|scavenger|2023-05-25T14:08:06|2023-05-25T14:27:10|00:19:04|dcc-youlab-01|1|1|24000M||/hpc/home/ark19|
ark19|CANCELLED by 1027614|scavenger|2023-05-25T14:08:06|2023-05-25T14:27:11|00:19:05|dcc-youlab-01|1|1|24000M||/hpc/home/ark19|
ark19|CANCELLED by 1027614|scavenger|2023-05-25T14:08:06|2023-05-25T14:27:11|00:19:05|dcc-youlab-01|1|1|24000M||/hpc/home/ark19|
ark19|CANCELLED by 1027614|scavenger|2023-05-25T14:08:06|2023-05-25T14:27:11|00:19:05|dcc-youlab-01|1|1|24000M||/hpc/home/ark19|
ark19|CANCELLED by 1027614|scavenger|2023-05-25T14:08:06|2023-05-25T14:27:11|00:19:05|dcc-youlab-01|1|1|24000M||/hpc/home/ark19|
ark19|CANCELLED by 1027614|scavenger|2023-05-25T14:08:08|2023-05-25T14:27:09|00:19:01|dcc-youlab-01|1|1|24000M||/hpc/home/ark19|
ark19|CANCELLED by 1027614|scavenger|2023-05-25T14:08:08|2023-05-25T14:27:09|00:19:01|dcc-youlab-01|1|1|24000M||/hpc/home/ark19|
ark19|CANCELLED by 1027614|scavenger|2023-05-25T14:08:08|2023-05-25T14:27:09|00:19:01|dcc-wychem-01|1|1|24000M||/hpc/home/ark19|
ark19|CANCELLED by 1027614|scavenger|2023-05-25T14:08:08|2023-05-25T14:27:09|00:19:01|dcc-wychem-01|1|1|24000M||/hpc/home/ark19|
ark19|CANCELLED by 1027614|scavenger|2023-05-25T14:08:08|2023-05-25T14:27:09|00:19:01|dcc-kirschlab-01|1|1|24000M||/hpc/home/ark19|
ark19|CANCELLED by 1027614|scavenger|2023-05-25T14:08:08|2023-05-25T14:27:09|00:19:01|dcc-kirschlab-01|1|1|24000M||/hpc/home/ark19|
ark19|CANCELLED by 1027614|scavenger|2023-05-25T14:08:08|2023-05-25T14:27:09|00:19:01|dcc-kirschlab-01|1|1|24000M||/hpc/home/ark19|
ark19|CANCELLED by 1027614|scavenger|2023-05-25T14:08:08|2023-05-25T14:27:10|00:19:02|dcc-katzlab-01|1|1|24000M||/hpc/home/ark19|
ark19|CANCELLED by 1027614|scavenger|2023-05-25T14:08:08|2023-05-25T14:27:10|00:19:02|dcc-katzlab-01|1|1|24000M||/hpc/home/ark19|
ark19|CANCELLED by 1027614|scavenger|2023-05-25T14:08:08|2023-05-25T14:27:10|00:19:02|dcc-katzlab-01|1|1|24000M||/hpc/home/ark19|
ark19|CANCELLED by 1027614|scavenger|2023-05-25T14:08:10|2023-05-25T14:27:07|00:18:57|dcc-tunglab-02|1|1|24000M||/hpc/home/ark19|
ark19|CANCELLED by 1027614|scavenger|2023-05-25T14:08:10|2023-05-25T14:27:07|00:18:57|dcc-tunglab-02|1|1|24000M||/hpc/home/ark19|
ark19|CANCELLED by 1027614|scavenger|2023-05-25T14:08:10|2023-05-25T14:27:07|00:18:57|dcc-tunglab-02|1|1|24000M||/hpc/home/ark19|
ark19|CANCELLED by 1027614|scavenger|2023-05-25T14:08:10|2023-05-25T14:27:07|00:18:57|dcc-tunglab-02|1|1|24000M||/hpc/home/ark19|
ark19|CANCELLED by 1027614|scavenger|2023-05-25T14:08:10|2023-05-25T14:27:08|00:18:58|dcc-tunglab-01|1|1|24000M||/hpc/home/ark19|
ark19|CANCELLED by 1027614|scavenger|2023-05-25T14:08:10|2023-05-25T14:27:08|00:18:58|dcc-tunglab-01|1|1|24000M||/hpc/home/ark19|
ark19|CANCELLED by 1027614|scavenger|2023-05-25T14:08:10|2023-05-25T14:27:08|00:18:58|dcc-tunglab-01|1|1|24000M||/hpc/home/ark19|
ark19|CANCELLED by 1027614|scavenger|2023-05-25T14:08:10|2023-05-25T14:27:08|00:18:58|dcc-tunglab-01|1|1|24000M||/hpc/home/ark19|
ark19|CANCELLED by 1027614|scavenger|2023-05-25T14:08:10|2023-05-25T14:27:08|00:18:58|dcc-tunglab-01|1|1|24000M||/hpc/home/ark19|
ark19|CANCELLED by 1027614|scavenger|2023-05-25T14:08:10|2023-05-25T14:27:08|00:18:58|dcc-tunglab-01|1|1|24000M||/hpc/home/ark19|
ark19|CANCELLED by 1027614|scavenger|2023-05-25T14:08:10|2023-05-25T14:27:08|00:18:58|dcc-tunglab-01|1|1|24000M||/hpc/home/ark19|
ark19|CANCELLED by 1027614|scavenger|2023-05-25T14:08:10|2023-05-25T14:27:08|00:18:58|dcc-tunglab-01|1|1|24000M||/hpc/home/ark19|
ark19|CANCELLED by 1027614|scavenger|2023-05-25T14:08:10|2023-05-25T14:27:08|00:18:58|dcc-tunglab-01|1|1|24000M||/hpc/home/ark19|
ark19|CANCELLED by 1027614|scavenger|2023-05-25T14:08:10|2023-05-25T14:27:09|00:18:59|dcc-pbenfeylab-02|1|1|24000M||/hpc/home/ark19|
ark19|CANCELLED by 1027614|scavenger|2023-05-25T14:08:10|2023-05-25T14:27:09|00:18:59|dcc-katzlab-01|1|1|24000M||/hpc/home/ark19|
ark19|CANCELLED by 1027614|scavenger|2023-05-25T14:08:11|2023-05-25T14:27:07|00:18:56|dcc-katzlab-01|1|1|24000M||/hpc/home/ark19|
ark19|CANCELLED by 1027614|scavenger|2023-05-25T14:08:11|2023-05-25T14:27:07|00:18:56|dcc-katzlab-01|1|1|24000M||/hpc/home/ark19|
ark19|CANCELLED by 1027614|scavenger|2023-05-25T14:08:11|2023-05-25T14:27:07|00:18:56|dcc-katzlab-01|1|1|24000M||/hpc/home/ark19|
ark19|CANCELLED by 1027614|scavenger|2023-05-25T14:08:13|2023-05-25T14:27:05|00:18:52|dcc-rausherlab-01|1|1|24000M||/hpc/home/ark19|
ark19|CANCELLED by 1027614|scavenger|2023-05-25T14:08:13|2023-05-25T14:27:05|00:18:52|dcc-rausherlab-01|1|1|24000M||/hpc/home/ark19|
ark19|CANCELLED by 1027614|scavenger|2023-05-25T14:08:13|2023-05-25T14:27:05|00:18:52|dcc-pbenfeylab-02|1|1|24000M||/hpc/home/ark19|
ark19|CANCELLED by 1027614|scavenger|2023-05-25T14:08:13|2023-05-25T14:27:05|00:18:52|dcc-noor-02|1|1|24000M||/hpc/home/ark19|
ark19|CANCELLED by 1027614|scavenger|2023-05-25T14:08:13|2023-05-25T14:27:05|00:18:52|dcc-noor-02|1|1|24000M||/hpc/home/ark19|
ark19|CANCELLED by 1027614|scavenger|2023-05-25T14:08:13|2023-05-25T14:27:05|00:18:52|dcc-noor-02|1|1|24000M||/hpc/home/ark19|
ark19|CANCELLED by 1027614|scavenger|2023-05-25T14:08:13|2023-05-25T14:27:05|00:18:52|dcc-noor-02|1|1|24000M||/hpc/home/ark19|
ark19|CANCELLED by 1027614|scavenger|2023-05-25T14:08:13|2023-05-25T14:27:06|00:18:53|dcc-noor-02|1|1|24000M||/hpc/home/ark19|
ark19|CANCELLED by 1027614|scavenger|2023-05-25T14:08:13|2023-05-25T14:27:06|00:18:53|dcc-noor-02|1|1|24000M||/hpc/home/ark19|
ark19|CANCELLED by 1027614|scavenger|2023-05-25T14:08:13|2023-05-25T14:27:06|00:18:53|dcc-noor-01|1|1|24000M||/hpc/home/ark19|
ark19|CANCELLED by 1027614|scavenger|2023-05-25T14:08:13|2023-05-25T14:27:06|00:18:53|dcc-katzlab-01|1|1|24000M||/hpc/home/ark19|
ark19|CANCELLED by 1027614|scavenger|2023-05-25T14:08:13|2023-05-25T14:27:06|00:18:53|dcc-katzlab-01|1|1|24000M||/hpc/home/ark19|
ark19|CANCELLED by 1027614|scavenger|2023-05-25T14:08:13|2023-05-25T14:27:06|00:18:53|dcc-katzlab-01|1|1|24000M||/hpc/home/ark19|
ark19|CANCELLED by 1027614|scavenger|2023-05-25T14:08:13|2023-05-25T14:27:06|00:18:53|dcc-katzlab-01|1|1|24000M||/hpc/home/ark19|
ark19|CANCELLED by 1027614|scavenger|2023-05-25T14:08:13|2023-05-25T14:27:06|00:18:53|dcc-hulab-05|1|1|24000M||/hpc/home/ark19|
ark19|CANCELLED by 1027614|scavenger|2023-05-25T14:08:13|2023-05-25T14:27:07|00:18:54|dcc-hulab-05|1|1|24000M||/hpc/home/ark19|
ark19|CANCELLED by 1027614|scavenger|2023-05-25T14:08:13|2023-05-25T14:27:07|00:18:54|dcc-hulab-05|1|1|24000M||/hpc/home/ark19|
ark19|CANCELLED by 1027614|scavenger|2023-05-25T14:08:13|2023-05-25T14:27:07|00:18:54|dcc-hulab-05|1|1|24000M||/hpc/home/ark19|
ark19|CANCELLED by 1027614|scavenger|2023-05-25T14:08:13|2023-05-25T14:27:07|00:18:54|dcc-hulab-05|1|1|24000M||/hpc/home/ark19|
ark19|CANCELLED by 1027614|scavenger|2023-05-25T14:08:15|2023-05-25T14:27:04|00:18:49|dcc-youlab-01|1|1|24000M||/hpc/home/ark19|
ark19|CANCELLED by 1027614|scavenger|2023-05-25T14:08:15|2023-05-25T14:27:04|00:18:49|dcc-statdept-01|1|1|24000M||/hpc/home/ark19|
ark19|CANCELLED by 1027614|scavenger|2023-05-25T14:08:15|2023-05-25T14:27:04|00:18:49|dcc-hulab-05|1|1|24000M||/hpc/home/ark19|
ark19|CANCELLED by 1027614|scavenger|2023-05-25T14:08:15|2023-05-25T14:27:04|00:18:49|dcc-hulab-05|1|1|24000M||/hpc/home/ark19|
ark19|CANCELLED by 1027614|scavenger|2023-05-25T14:08:15|2023-05-25T14:27:04|00:18:49|dcc-hulab-05|1|1|24000M||/hpc/home/ark19|
ark19|CANCELLED by 1027614|scavenger|2023-05-25T14:08:15|2023-05-25T14:27:04|00:18:49|dcc-hulab-05|1|1|24000M||/hpc/home/ark19|
ark19|CANCELLED by 1027614|scavenger|2023-05-25T14:08:15|2023-05-25T14:27:04|00:18:49|dcc-hulab-05|1|1|24000M||/hpc/home/ark19|
ark19|CANCELLED by 1027614|scavenger|2023-05-25T14:08:15|2023-05-25T14:27:05|00:18:50|dcc-hulab-05|1|1|24000M||/hpc/home/ark19|
ark19|CANCELLED by 1027614|scavenger|2023-05-25T14:08:15|2023-05-25T14:27:05|00:18:50|dcc-hulab-05|1|1|24000M||/hpc/home/ark19|
ark19|CANCELLED by 1027614|scavenger|2023-05-25T14:08:15|2023-05-25T14:27:05|00:18:50|dcc-hulab-04|1|1|24000M||/hpc/home/ark19|
ark19|CANCELLED by 1027614|scavenger|2023-05-25T14:08:15|2023-05-25T14:27:05|00:18:50|dcc-hulab-04|1|1|24000M||/hpc/home/ark19|
bc276|COMPLETED|scavenger|2023-05-24T17:04:45|2023-05-27T07:08:18|2-14:03:33|dcc-motesa-01|1|1|100G||/hpc/group/goldberg/bc276/phylogeny|
pz19|TIMEOUT|scavenger|2023-05-24T20:45:35|2023-06-04T10:45:59|10-14:00:24|dcc-bragg-01|1|16|25408M||/work/pz19/Wang/Copper/Silicon/TS_06_3LigOAc/MN15|
sw582|COMPLETED|scavenger|2023-05-24T22:17:25|2023-05-25T21:35:27|23:18:02|dcc-youlab-01|1|1|2G||/hpc/group/dbergerlab/sw582/empty_dir|
lg226|TIMEOUT|scavenger|2023-05-25T01:28:17|2023-05-25T13:28:33|12:00:16|dcc-fergusonlab-01|1|4|208G||/hpc/home/lg226/ondemand/data/sys/dashboard/batch_connect/sys/bc_rstudio_singularity/output/2d79a90f-fa8b-4570-b7d6-1379fdd4c59a|
