pz19|RUNNING|scavenger|2023-03-29T09:52:04|Unknown|77-04:37:42|dcc-fergusonlab-05|1|10|457000M||/work/pz19/Jiaqi/13e14o|
smokeauth2-tst|NODE_FAIL|scavenger|2023-04-18T10:56:00|2023-05-29T17:29:37|41-06:33:37|dcc-tunglab-02|1|1|2G||/hpc/home/smokeauth2-tst|
smokeauth2-tst|RUNNING|scavenger|2023-04-18T12:49:48|Unknown|57-01:39:58|dcc-noor-01|1|1|2G||/hpc/home/smokeauth2-tst|
fjm7|RUNNING|scavenger|2023-04-23T15:19:07|Unknown|51-23:10:39|dcc-noor-01|1|1|2G||/hpc/group/brownlab/fjm7/new-data-collection/slurm-runners|
fjm7|RUNNING|scavenger|2023-04-23T15:19:07|Unknown|51-23:10:39|dcc-noor-01|1|1|2G||/hpc/group/brownlab/fjm7/new-data-collection/slurm-runners|
fjm7|RUNNING|scavenger|2023-04-23T15:19:07|Unknown|51-23:10:39|dcc-noor-01|1|1|2G||/hpc/group/brownlab/fjm7/new-data-collection/slurm-runners|
fjm7|RUNNING|scavenger|2023-04-23T15:19:08|Unknown|51-23:10:38|dcc-noor-01|1|1|2G||/hpc/group/brownlab/fjm7/new-data-collection/slurm-runners|
fjm7|RUNNING|scavenger|2023-04-23T15:19:08|Unknown|51-23:10:38|dcc-noor-01|1|1|2G||/hpc/group/brownlab/fjm7/new-data-collection/slurm-runners|
lh342|TIMEOUT|scavenger|2023-05-02T03:05:50|2023-06-01T03:06:14|30-00:00:24|dcc-compeb-02|1|8|16G||/hpc/home/lh342/ondemand/data/sys/dashboard/batch_connect/sys/bc_desktop/dcc/output/702824cf-eb77-47a5-9f97-205f479dd2d4|
cw446|CANCELLED by 1401348|scavenger|2023-05-08T23:40:21|2023-05-30T10:48:58|21-11:08:37|dcc-fergusonlab-04|1|5|300G||/hpc/group/jilab/changxin|
smokeauth2-tst|RUNNING|scavenger|2023-05-09T00:51:37|Unknown|36-13:38:09|dcc-wychem-01|1|1|2G||/hpc/home/smokeauth2-tst|
pz19|COMPLETED|scavenger|2023-05-15T23:21:42|2023-05-30T14:18:14|14-14:56:32|dcc-fergusonlab-01|1|16|32000M||/work/pz19/Dexter|
lh342|RUNNING|scavenger|2023-05-16T10:36:56|Unknown|29-03:52:50|dcc-carin-23|1|8|16G||/hpc/home/lh342/ondemand/data/sys/dashboard/batch_connect/sys/bc_desktop/dcc/output/594ab9c6-93bc-4698-ac53-905dbde8eef7|
ew198|COMPLETED|scavenger|2023-05-17T15:01:57|2023-05-30T13:18:19|12-22:16:22|dcc-youlab-01|1|1|125G||/cifs/hariri-long/Projects/Annchen/Scripts/ArealMSHBM|
ew198|COMPLETED|scavenger|2023-05-17T15:01:57|2023-05-30T13:18:47|12-22:16:50|dcc-wychem-01|1|1|16000M||/cifs/hariri-long/Projects/Annchen/Scripts/ArealMSHBM|
ew198|COMPLETED|scavenger|2023-05-17T15:01:57|2023-05-30T13:18:47|12-22:16:50|dcc-wychem-01|1|1|16000M||/cifs/hariri-long/Projects/Annchen/Scripts/ArealMSHBM|
ew198|COMPLETED|scavenger|2023-05-17T15:01:57|2023-05-30T13:18:47|12-22:16:50|dcc-wychem-01|1|1|16000M||/cifs/hariri-long/Projects/Annchen/Scripts/ArealMSHBM|
ew198|COMPLETED|scavenger|2023-05-17T15:01:57|2023-05-30T13:18:47|12-22:16:50|dcc-wychem-01|1|1|16000M||/cifs/hariri-long/Projects/Annchen/Scripts/ArealMSHBM|
ew198|COMPLETED|scavenger|2023-05-17T15:01:57|2023-05-30T13:18:47|12-22:16:50|dcc-wychem-01|1|1|16000M||/cifs/hariri-long/Projects/Annchen/Scripts/ArealMSHBM|
ew198|COMPLETED|scavenger|2023-05-17T15:01:57|2023-05-30T13:18:47|12-22:16:50|dcc-wychem-01|1|1|16000M||/cifs/hariri-long/Projects/Annchen/Scripts/ArealMSHBM|
ew198|COMPLETED|scavenger|2023-05-17T15:01:57|2023-05-30T13:18:47|12-22:16:50|dcc-wychem-01|1|1|16000M||/cifs/hariri-long/Projects/Annchen/Scripts/ArealMSHBM|
ew198|COMPLETED|scavenger|2023-05-17T15:01:57|2023-05-30T13:18:47|12-22:16:50|dcc-wychem-01|1|1|16000M||/cifs/hariri-long/Projects/Annchen/Scripts/ArealMSHBM|
ew198|COMPLETED|scavenger|2023-05-17T15:01:57|2023-05-30T13:18:47|12-22:16:50|dcc-wychem-01|1|1|16000M||/cifs/hariri-long/Projects/Annchen/Scripts/ArealMSHBM|
ew198|NODE_FAIL|scavenger|2023-05-17T15:01:57|2023-05-29T17:29:37|12-02:27:40|dcc-tunglab-02|1|1|16000M||/cifs/hariri-long/Projects/Annchen/Scripts/ArealMSHBM|
ew198|NODE_FAIL|scavenger|2023-05-17T15:01:57|2023-05-29T17:29:37|12-02:27:40|dcc-tunglab-02|1|1|16000M||/cifs/hariri-long/Projects/Annchen/Scripts/ArealMSHBM|
ew198|NODE_FAIL|scavenger|2023-05-17T15:01:57|2023-05-29T17:29:37|12-02:27:40|dcc-tunglab-02|1|1|16000M||/cifs/hariri-long/Projects/Annchen/Scripts/ArealMSHBM|
ew198|NODE_FAIL|scavenger|2023-05-17T15:01:57|2023-05-29T17:29:37|12-02:27:40|dcc-tunglab-02|1|1|16000M||/cifs/hariri-long/Projects/Annchen/Scripts/ArealMSHBM|
ew198|NODE_FAIL|scavenger|2023-05-17T15:01:58|2023-05-29T17:29:37|12-02:27:39|dcc-tunglab-02|1|1|16000M||/cifs/hariri-long/Projects/Annchen/Scripts/ArealMSHBM|
ew198|NODE_FAIL|scavenger|2023-05-17T15:01:58|2023-05-29T17:29:37|12-02:27:39|dcc-tunglab-02|1|1|16000M||/cifs/hariri-long/Projects/Annchen/Scripts/ArealMSHBM|
ew198|NODE_FAIL|scavenger|2023-05-17T15:01:58|2023-05-29T17:29:37|12-02:27:39|dcc-tunglab-02|1|1|125G||/cifs/hariri-long/Projects/Annchen/Scripts/ArealMSHBM|
ew198|NODE_FAIL|scavenger|2023-05-17T15:01:58|2023-05-29T17:29:37|12-02:27:39|dcc-tunglab-02|1|1|16000M||/cifs/hariri-long/Projects/Annchen/Scripts/ArealMSHBM|
ew198|NODE_FAIL|scavenger|2023-05-17T15:01:58|2023-05-29T17:29:37|12-02:27:39|dcc-tunglab-02|1|1|16000M||/cifs/hariri-long/Projects/Annchen/Scripts/ArealMSHBM|
ew198|NODE_FAIL|scavenger|2023-05-17T15:01:58|2023-05-29T17:29:37|12-02:27:39|dcc-tunglab-02|1|1|16000M||/cifs/hariri-long/Projects/Annchen/Scripts/ArealMSHBM|
ew198|NODE_FAIL|scavenger|2023-05-17T15:01:58|2023-05-29T17:29:37|12-02:27:39|dcc-tunglab-02|1|1|16000M||/cifs/hariri-long/Projects/Annchen/Scripts/ArealMSHBM|
ew198|NODE_FAIL|scavenger|2023-05-17T15:01:58|2023-05-29T17:29:37|12-02:27:39|dcc-tunglab-02|1|1|16000M||/cifs/hariri-long/Projects/Annchen/Scripts/ArealMSHBM|
ew198|COMPLETED|scavenger|2023-05-17T15:01:58|2023-05-30T13:18:33|12-22:16:35|dcc-tunglab-01|1|1|16000M||/cifs/hariri-long/Projects/Annchen/Scripts/ArealMSHBM|
ew198|PREEMPTED|scavenger|2023-05-17T15:01:58|2023-05-31T16:16:08|14-01:14:10|dcc-tunglab-01|1|1|16000M||/cifs/hariri-long/Projects/Annchen/Scripts/ArealMSHBM|
ew198|COMPLETED|scavenger|2023-05-17T15:01:58|2023-05-30T13:18:33|12-22:16:35|dcc-tunglab-01|1|1|16000M||/cifs/hariri-long/Projects/Annchen/Scripts/ArealMSHBM|
ew198|PREEMPTED|scavenger|2023-05-17T15:01:58|2023-05-31T16:35:14|14-01:33:16|dcc-tunglab-01|1|1|16000M||/cifs/hariri-long/Projects/Annchen/Scripts/ArealMSHBM|
ew198|COMPLETED|scavenger|2023-05-17T15:01:58|2023-05-30T13:18:33|12-22:16:35|dcc-tunglab-01|1|1|16000M||/cifs/hariri-long/Projects/Annchen/Scripts/ArealMSHBM|
ew198|PREEMPTED|scavenger|2023-05-17T15:01:58|2023-05-31T16:35:18|14-01:33:20|dcc-tunglab-01|1|1|16000M||/cifs/hariri-long/Projects/Annchen/Scripts/ArealMSHBM|
ew198|COMPLETED|scavenger|2023-05-17T15:01:58|2023-05-30T13:18:33|12-22:16:35|dcc-tunglab-01|1|1|16000M||/cifs/hariri-long/Projects/Annchen/Scripts/ArealMSHBM|
ew198|PREEMPTED|scavenger|2023-05-17T15:01:58|2023-05-31T16:35:25|14-01:33:27|dcc-tunglab-01|1|1|16000M||/cifs/hariri-long/Projects/Annchen/Scripts/ArealMSHBM|
ew198|COMPLETED|scavenger|2023-05-17T15:01:59|2023-05-30T13:18:33|12-22:16:34|dcc-tunglab-01|1|1|16000M||/cifs/hariri-long/Projects/Annchen/Scripts/ArealMSHBM|
ew198|PREEMPTED|scavenger|2023-05-17T15:01:59|2023-05-31T16:35:32|14-01:33:33|dcc-tunglab-01|1|1|16000M||/cifs/hariri-long/Projects/Annchen/Scripts/ArealMSHBM|
ew198|COMPLETED|scavenger|2023-05-17T15:01:59|2023-05-30T13:18:47|12-22:16:48|dcc-tmolab-02|1|1|16000M||/cifs/hariri-long/Projects/Annchen/Scripts/ArealMSHBM|
ew198|CANCELLED by 1455533|scavenger|2023-05-17T15:01:59|2023-06-02T11:18:52|15-20:16:53|dcc-tmolab-02|1|1|16000M||/cifs/hariri-long/Projects/Annchen/Scripts/ArealMSHBM|
ew198|COMPLETED|scavenger|2023-05-17T15:01:59|2023-05-30T13:18:47|12-22:16:48|dcc-tmolab-02|1|1|16000M||/cifs/hariri-long/Projects/Annchen/Scripts/ArealMSHBM|
ew198|CANCELLED by 1455533|scavenger|2023-05-17T15:01:59|2023-06-02T11:18:52|15-20:16:53|dcc-tmolab-02|1|1|16000M||/cifs/hariri-long/Projects/Annchen/Scripts/ArealMSHBM|
ew198|COMPLETED|scavenger|2023-05-17T15:01:59|2023-05-30T13:18:47|12-22:16:48|dcc-tmolab-02|1|1|16000M||/cifs/hariri-long/Projects/Annchen/Scripts/ArealMSHBM|
ew198|CANCELLED by 1455533|scavenger|2023-05-17T15:01:59|2023-06-02T11:18:52|15-20:16:53|dcc-tmolab-02|1|1|16000M||/cifs/hariri-long/Projects/Annchen/Scripts/ArealMSHBM|
ew198|COMPLETED|scavenger|2023-05-17T15:01:59|2023-05-30T13:18:47|12-22:16:48|dcc-tmolab-02|1|1|16000M||/cifs/hariri-long/Projects/Annchen/Scripts/ArealMSHBM|
ew198|CANCELLED by 1455533|scavenger|2023-05-17T15:01:59|2023-06-02T11:18:52|15-20:16:53|dcc-tmolab-02|1|1|16000M||/cifs/hariri-long/Projects/Annchen/Scripts/ArealMSHBM|
ew198|COMPLETED|scavenger|2023-05-17T15:01:59|2023-05-30T13:18:44|12-22:16:45|dcc-tmolab-01|1|1|16000M||/cifs/hariri-long/Projects/Annchen/Scripts/ArealMSHBM|
ew198|CANCELLED by 1455533|scavenger|2023-05-17T15:01:59|2023-06-02T11:18:52|15-20:16:53|dcc-tmolab-01|1|1|16000M||/cifs/hariri-long/Projects/Annchen/Scripts/ArealMSHBM|
ew198|COMPLETED|scavenger|2023-05-17T15:01:59|2023-05-30T13:18:44|12-22:16:45|dcc-tmolab-01|1|1|16000M||/cifs/hariri-long/Projects/Annchen/Scripts/ArealMSHBM|
ew198|CANCELLED by 1455533|scavenger|2023-05-17T15:01:59|2023-06-02T11:18:52|15-20:16:53|dcc-tmolab-01|1|1|16000M||/cifs/hariri-long/Projects/Annchen/Scripts/ArealMSHBM|
ew198|COMPLETED|scavenger|2023-05-17T15:01:59|2023-05-30T13:18:44|12-22:16:45|dcc-tmolab-01|1|1|16000M||/cifs/hariri-long/Projects/Annchen/Scripts/ArealMSHBM|
ew198|CANCELLED by 1455533|scavenger|2023-05-17T15:01:59|2023-06-02T11:18:52|15-20:16:53|dcc-tmolab-01|1|1|16000M||/cifs/hariri-long/Projects/Annchen/Scripts/ArealMSHBM|
ew198|CANCELLED by 1455533|scavenger|2023-05-17T15:01:59|2023-06-02T11:18:52|15-20:16:53|dcc-tmolab-01|1|1|16000M||/cifs/hariri-long/Projects/Annchen/Scripts/ArealMSHBM|
ew198|COMPLETED|scavenger|2023-05-17T15:02:00|2023-05-30T13:19:00|12-22:17:00|dcc-statdept-01|1|1|16000M||/cifs/hariri-long/Projects/Annchen/Scripts/ArealMSHBM|
ew198|CANCELLED by 1455533|scavenger|2023-05-17T15:02:00|2023-06-02T11:18:52|15-20:16:52|dcc-statdept-01|1|1|16000M||/cifs/hariri-long/Projects/Annchen/Scripts/ArealMSHBM|
ew198|COMPLETED|scavenger|2023-05-17T15:02:30|2023-05-30T13:19:00|12-22:16:30|dcc-statdept-01|1|1|16000M||/cifs/hariri-long/Projects/Annchen/Scripts/ArealMSHBM|
ew198|CANCELLED by 1455533|scavenger|2023-05-17T15:02:30|2023-06-02T11:18:52|15-20:16:22|dcc-savageresearch-02|1|1|16000M||/cifs/hariri-long/Projects/Annchen/Scripts/ArealMSHBM|
ew198|COMPLETED|scavenger|2023-05-17T15:02:30|2023-05-30T13:18:35|12-22:16:05|dcc-savageresearch-02|1|1|16000M||/cifs/hariri-long/Projects/Annchen/Scripts/ArealMSHBM|
ew198|COMPLETED|scavenger|2023-05-17T15:02:30|2023-05-30T13:18:35|12-22:16:05|dcc-savageresearch-02|1|1|16000M||/cifs/hariri-long/Projects/Annchen/Scripts/ArealMSHBM|
ew198|CANCELLED by 1455533|scavenger|2023-05-17T15:02:30|2023-06-02T11:18:52|15-20:16:22|dcc-savageresearch-02|1|1|16000M||/cifs/hariri-long/Projects/Annchen/Scripts/ArealMSHBM|
ew198|CANCELLED by 1455533|scavenger|2023-05-17T15:02:30|2023-06-02T11:18:52|15-20:16:22|dcc-savageresearch-02|1|1|16000M||/cifs/hariri-long/Projects/Annchen/Scripts/ArealMSHBM|
ew198|COMPLETED|scavenger|2023-05-17T15:02:30|2023-05-30T13:18:35|12-22:16:05|dcc-savageresearch-02|1|1|16000M||/cifs/hariri-long/Projects/Annchen/Scripts/ArealMSHBM|
ew198|COMPLETED|scavenger|2023-05-17T15:02:31|2023-05-30T13:18:35|12-22:16:04|dcc-savageresearch-02|1|1|16000M||/cifs/hariri-long/Projects/Annchen/Scripts/ArealMSHBM|
ew198|CANCELLED by 1455533|scavenger|2023-05-17T15:02:31|2023-06-02T11:18:52|15-20:16:21|dcc-savageresearch-02|1|1|16000M||/cifs/hariri-long/Projects/Annchen/Scripts/ArealMSHBM|
ew198|COMPLETED|scavenger|2023-05-17T15:02:31|2023-05-30T13:18:35|12-22:16:04|dcc-savageresearch-02|1|1|16000M||/cifs/hariri-long/Projects/Annchen/Scripts/ArealMSHBM|
ew198|CANCELLED by 1455533|scavenger|2023-05-17T15:02:31|2023-06-02T11:18:52|15-20:16:21|dcc-savageresearch-02|1|1|16000M||/cifs/hariri-long/Projects/Annchen/Scripts/ArealMSHBM|
ew198|CANCELLED by 1455533|scavenger|2023-05-17T15:02:31|2023-06-02T11:18:52|15-20:16:21|dcc-savageresearch-02|1|1|16000M||/cifs/hariri-long/Projects/Annchen/Scripts/ArealMSHBM|
ew198|COMPLETED|scavenger|2023-05-17T15:02:31|2023-05-30T13:18:35|12-22:16:04|dcc-savageresearch-02|1|1|16000M||/cifs/hariri-long/Projects/Annchen/Scripts/ArealMSHBM|
ew198|COMPLETED|scavenger|2023-05-17T15:02:31|2023-05-30T13:18:35|12-22:16:04|dcc-savageresearch-01|1|1|16000M||/cifs/hariri-long/Projects/Annchen/Scripts/ArealMSHBM|
ew198|CANCELLED by 1455533|scavenger|2023-05-17T15:02:31|2023-06-02T11:18:52|15-20:16:21|dcc-savageresearch-01|1|1|16000M||/cifs/hariri-long/Projects/Annchen/Scripts/ArealMSHBM|
ew198|CANCELLED by 1455533|scavenger|2023-05-17T15:02:31|2023-06-02T11:18:52|15-20:16:21|dcc-savageresearch-01|1|1|16000M||/cifs/hariri-long/Projects/Annchen/Scripts/ArealMSHBM|
ew198|COMPLETED|scavenger|2023-05-17T15:02:31|2023-05-30T13:18:35|12-22:16:04|dcc-savageresearch-01|1|1|16000M||/cifs/hariri-long/Projects/Annchen/Scripts/ArealMSHBM|
ew198|CANCELLED by 1455533|scavenger|2023-05-17T15:02:31|2023-06-02T11:18:52|15-20:16:21|dcc-savageresearch-01|1|1|16000M||/cifs/hariri-long/Projects/Annchen/Scripts/ArealMSHBM|
ew198|COMPLETED|scavenger|2023-05-17T15:02:31|2023-05-30T13:18:35|12-22:16:04|dcc-savageresearch-01|1|1|16000M||/cifs/hariri-long/Projects/Annchen/Scripts/ArealMSHBM|
ew198|CANCELLED by 1455533|scavenger|2023-05-17T15:02:31|2023-06-02T11:18:52|15-20:16:21|dcc-rausherlab-02|1|1|16000M||/cifs/hariri-long/Projects/Annchen/Scripts/ArealMSHBM|
ew198|COMPLETED|scavenger|2023-05-17T15:02:31|2023-05-30T13:18:52|12-22:16:21|dcc-rausherlab-02|1|1|16000M||/cifs/hariri-long/Projects/Annchen/Scripts/ArealMSHBM|
ew198|CANCELLED by 1455533|scavenger|2023-05-17T15:02:31|2023-06-02T11:18:52|15-20:16:21|dcc-rausherlab-01|1|1|16000M||/cifs/hariri-long/Projects/Annchen/Scripts/ArealMSHBM|
ew198|COMPLETED|scavenger|2023-05-17T15:02:31|2023-05-30T13:18:42|12-22:16:11|dcc-rausherlab-01|1|1|16000M||/cifs/hariri-long/Projects/Annchen/Scripts/ArealMSHBM|
ew198|CANCELLED by 1455533|scavenger|2023-05-17T15:02:31|2023-06-02T11:18:52|15-20:16:21|dcc-rausherlab-01|1|1|16000M||/cifs/hariri-long/Projects/Annchen/Scripts/ArealMSHBM|
ew198|COMPLETED|scavenger|2023-05-17T15:02:32|2023-05-30T13:18:42|12-22:16:10|dcc-rausherlab-01|1|1|16000M||/cifs/hariri-long/Projects/Annchen/Scripts/ArealMSHBM|
ew198|CANCELLED by 1455533|scavenger|2023-05-17T15:02:32|2023-06-02T11:18:52|15-20:16:20|dcc-rausherlab-01|1|1|16000M||/cifs/hariri-long/Projects/Annchen/Scripts/ArealMSHBM|
ew198|COMPLETED|scavenger|2023-05-17T15:02:32|2023-05-30T13:18:44|12-22:16:12|dcc-rausherlab-01|1|1|16000M||/cifs/hariri-long/Projects/Annchen/Scripts/ArealMSHBM|
ew198|CANCELLED by 1455533|scavenger|2023-05-17T15:02:32|2023-06-02T11:18:52|15-20:16:20|dcc-rausherlab-01|1|1|16000M||/cifs/hariri-long/Projects/Annchen/Scripts/ArealMSHBM|
ew198|COMPLETED|scavenger|2023-05-17T15:02:32|2023-05-30T13:18:44|12-22:16:12|dcc-rausherlab-01|1|1|16000M||/cifs/hariri-long/Projects/Annchen/Scripts/ArealMSHBM|
ew198|CANCELLED by 1455533|scavenger|2023-05-17T15:02:32|2023-06-02T11:18:52|15-20:16:20|dcc-pfister-01|1|1|16000M||/cifs/hariri-long/Projects/Annchen/Scripts/ArealMSHBM|
ew198|CANCELLED by 1455533|scavenger|2023-05-17T15:02:32|2023-06-02T11:18:52|15-20:16:20|dcc-pfister-01|1|1|16000M||/cifs/hariri-long/Projects/Annchen/Scripts/ArealMSHBM|
ew198|CANCELLED by 1455533|scavenger|2023-05-17T15:02:32|2023-06-02T11:18:52|15-20:16:20|dcc-pfister-01|1|1|16000M||/cifs/hariri-long/Projects/Annchen/Scripts/ArealMSHBM|
ew198|CANCELLED by 1455533|scavenger|2023-05-17T15:02:32|2023-06-02T11:18:52|15-20:16:20|dcc-pfister-01|1|1|16000M||/cifs/hariri-long/Projects/Annchen/Scripts/ArealMSHBM|
ew198|CANCELLED by 1455533|scavenger|2023-05-17T15:02:32|2023-06-02T11:18:52|15-20:16:20|dcc-pfister-01|1|1|16000M||/cifs/hariri-long/Projects/Annchen/Scripts/ArealMSHBM|
ew198|CANCELLED by 1455533|scavenger|2023-05-17T15:02:32|2023-06-02T11:18:52|15-20:16:20|dcc-pfister-01|1|1|16000M||/cifs/hariri-long/Projects/Annchen/Scripts/ArealMSHBM|
ew198|CANCELLED by 1455533|scavenger|2023-05-17T15:02:32|2023-06-02T11:18:52|15-20:16:20|dcc-pfister-01|1|1|16000M||/cifs/hariri-long/Projects/Annchen/Scripts/ArealMSHBM|
ew198|CANCELLED by 1455533|scavenger|2023-05-17T15:02:32|2023-06-02T11:18:52|15-20:16:20|dcc-pfister-01|1|1|16000M||/cifs/hariri-long/Projects/Annchen/Scripts/ArealMSHBM|
ew198|CANCELLED by 1455533|scavenger|2023-05-17T15:02:32|2023-06-02T11:18:52|15-20:16:20|dcc-pfister-01|1|1|16000M||/cifs/hariri-long/Projects/Annchen/Scripts/ArealMSHBM|
ew198|CANCELLED by 1455533|scavenger|2023-05-17T15:02:32|2023-06-02T11:18:52|15-20:16:20|dcc-pfister-01|1|1|16000M||/cifs/hariri-long/Projects/Annchen/Scripts/ArealMSHBM|
ew198|CANCELLED by 1455533|scavenger|2023-05-17T15:02:32|2023-06-02T11:18:52|15-20:16:20|dcc-pfister-01|1|1|16000M||/cifs/hariri-long/Projects/Annchen/Scripts/ArealMSHBM|
ew198|CANCELLED by 1455533|scavenger|2023-05-17T15:02:32|2023-06-02T11:18:52|15-20:16:20|dcc-pfister-01|1|1|16000M||/cifs/hariri-long/Projects/Annchen/Scripts/ArealMSHBM|
ew198|CANCELLED by 1455533|scavenger|2023-05-17T15:02:32|2023-06-02T11:18:52|15-20:16:20|dcc-pfister-01|1|1|16000M||/cifs/hariri-long/Projects/Annchen/Scripts/ArealMSHBM|
pz19|TIMEOUT|scavenger|2023-05-19T15:41:44|2023-05-30T05:41:54|10-14:00:10|dcc-adrc-01|1|16|25408M||/work/pz19/Wang/Copper/Silicon/TS_06_3Lig/M06L|
pz19|TIMEOUT|scavenger|2023-05-19T15:57:29|2023-05-30T05:57:54|10-14:00:25|dcc-adrc-01|1|16|25408M||/work/pz19/Wang/Copper/Silicon/TS_06_3Lig/MN15|
pz19|CANCELLED by 1050403|scavenger|2023-05-21T11:48:01|2023-05-30T10:18:10|8-22:30:09|dcc-compeb-01|1|16|25408M||/work/pz19/Wang/Copper/Silicon/TS_06_3LigOAc/B3LYP|
pz19|TIMEOUT|scavenger|2023-05-21T11:52:32|2023-06-01T01:52:58|10-14:00:26|dcc-adrc-01|1|16|25408M||/work/pz19/Wang/Copper/Silicon/TS_06_3LigOAc/B3LYP|
sw582|COMPLETED|scavenger|2023-05-22T00:48:28|2023-05-30T12:48:46|8-12:00:18|dcc-youlab-01|1|1|2G||/hpc/group/dbergerlab/sw582/empty_dir|
cjp47|RUNNING|scavenger|2023-05-22T09:27:11|Unknown|23-05:02:35|dcc-tmolab-01|1|1|64G||/hpc/group/bio1/cyanolichen_holobiome|
hk288|OUT_OF_MEMORY|scavenger|2023-05-23T06:28:20|2023-06-01T05:31:10|8-23:02:50|dcc-bragg-03|1|40|80G||/hpc/group/mastatlab/hk288/code_hp_paral|
hk288|COMPLETED|scavenger|2023-05-23T06:28:20|2023-05-29T02:59:32|5-20:31:12|dcc-compeb-04|1|40|80G||/hpc/group/mastatlab/hk288/code_hp_paral|
hk288|OUT_OF_MEMORY|scavenger|2023-05-23T06:28:20|2023-06-01T15:42:06|9-09:13:46|dcc-donglab-01|1|40|80G||/hpc/group/mastatlab/hk288/code_hp_paral|
ts349|FAILED|scavenger|2023-05-24T06:51:59|2023-05-31T13:27:41|7-06:35:42|dcc-bragg-04|1|30|72G||/work/ts349/stm2457_hicar/endoderm_RNA|
ts349|COMPLETED|scavenger|2023-05-24T06:56:22|2023-05-30T09:10:17|6-02:13:55|dcc-compeb-03|1|30|72G||/hpc/home/ts349|
hk288|CANCELLED by 1484570|scavenger|2023-05-24T09:25:01|2023-06-04T12:17:20|11-02:52:19|dcc-cagpm-01|1|40|200G||/hpc/group/mastatlab/hk288/code_hp_paral|
hk288|CANCELLED by 1484570|scavenger|2023-05-24T09:25:01|2023-06-04T12:17:20|11-02:52:19|dcc-nicolab-01|1|40|200G||/hpc/group/mastatlab/hk288/code_hp_paral|
hk288|PREEMPTED|scavenger|2023-05-24T09:25:01|2023-05-30T13:41:32|6-04:16:31|dcc-dunsonlab-01|1|40|200G||/hpc/group/mastatlab/hk288/code_hp_paral|
hk288|PREEMPTED|scavenger|2023-05-24T09:25:01|2023-05-30T13:41:28|6-04:16:27|dcc-dunsonlab-02|1|40|200G||/hpc/group/mastatlab/hk288/code_hp_paral|
pz19|TIMEOUT|scavenger|2023-05-24T15:03:18|2023-06-04T05:03:21|10-14:00:03|dcc-fergusonlab-04|1|16|25408M||/work/pz19/Wang/Copper/Silicon/TS_06_3LigOAc/MN15|
pz19|TIMEOUT|scavenger|2023-05-24T15:03:18|2023-06-04T05:03:21|10-14:00:03|dcc-fergusonlab-04|1|16|25408M||/work/pz19/Wang/Copper/Silicon/TS_06_3LigOAc/B3LYP|
pz19|CANCELLED by 1050403|scavenger|2023-05-24T15:03:18|2023-06-02T20:51:37|9-05:48:19|dcc-fergusonlab-05|1|16|25408M||/work/pz19/Wang/Copper/Silicon/TS_06_3Lig/MN15|
pz19|TIMEOUT|scavenger|2023-05-24T20:45:35|2023-06-04T10:45:59|10-14:00:24|dcc-bragg-01|1|16|25408M||/work/pz19/Wang/Copper/Silicon/TS_06_3LigOAc/MN15|
mea54|TIMEOUT|scavenger|2023-05-25T11:58:25|2023-05-29T11:58:47|4-00:00:22|dcc-fergusonlab-02|1|64|600G||/hpc/home/mea54/ondemand/data/sys/dashboard/batch_connect/sys/bc_microbiome_rstudio/output/4a6c0af0-0699-44f1-981c-f8fa4abf7ba5|
yl708|NODE_FAIL|scavenger|2023-05-25T15:59:44|2023-05-29T17:29:37|4-01:29:53|dcc-tunglab-02|1|1|2500M||/hpc/group/donald/yl708/TopologyNet-2017/svm|
yl708|NODE_FAIL|scavenger|2023-05-25T16:23:12|2023-05-29T17:29:37|4-01:06:25|dcc-tunglab-02|1|1|2500M||/hpc/group/donald/yl708/TopologyNet-2017/svm|
yl708|NODE_FAIL|scavenger|2023-05-25T16:25:20|2023-05-29T17:29:37|4-01:04:17|dcc-tunglab-02|1|1|2500M||/hpc/group/donald/yl708/TopologyNet-2017/svm|
yl708|NODE_FAIL|scavenger|2023-05-25T16:28:32|2023-05-29T17:29:37|4-01:01:05|dcc-tunglab-02|1|1|2500M||/hpc/group/donald/yl708/TopologyNet-2017/svm|
yl708|NODE_FAIL|scavenger|2023-05-25T16:32:16|2023-05-29T17:29:37|4-00:57:21|dcc-tunglab-02|1|1|2500M||/hpc/group/donald/yl708/TopologyNet-2017/svm|
yl708|NODE_FAIL|scavenger|2023-05-25T16:32:16|2023-05-29T17:29:37|4-00:57:21|dcc-tunglab-02|1|1|2500M||/hpc/group/donald/yl708/TopologyNet-2017/svm|
yl708|NODE_FAIL|scavenger|2023-05-25T16:36:31|2023-05-29T17:29:37|4-00:53:06|dcc-tunglab-02|1|1|2500M||/hpc/group/donald/yl708/TopologyNet-2017/svm|
yl708|NODE_FAIL|scavenger|2023-05-25T16:36:31|2023-05-29T17:29:37|4-00:53:06|dcc-tunglab-02|1|1|2500M||/hpc/group/donald/yl708/TopologyNet-2017/svm|
yl708|NODE_FAIL|scavenger|2023-05-25T16:39:43|2023-05-29T17:29:37|4-00:49:54|dcc-tunglab-02|1|1|2500M||/hpc/group/donald/yl708/TopologyNet-2017/svm|
yl708|NODE_FAIL|scavenger|2023-05-25T16:41:51|2023-05-29T17:29:37|4-00:47:46|dcc-tunglab-02|1|1|2500M||/hpc/group/donald/yl708/TopologyNet-2017/svm|
yl708|NODE_FAIL|scavenger|2023-05-25T16:41:51|2023-05-29T17:29:37|4-00:47:46|dcc-tunglab-02|1|1|2500M||/hpc/group/donald/yl708/TopologyNet-2017/svm|
pz19|CANCELLED by 1050403|scavenger|2023-05-25T16:45:31|2023-05-30T10:09:22|4-17:23:51|dcc-bragg-05|1|16|25408M||/work/pz19/Wang/Copper/Silicon/TS_06_3Lig/MN15|
hk288|COMPLETED|scavenger|2023-05-25T20:19:14|2023-05-31T15:46:23|5-19:27:09|dcc-cagpm-02|1|40|80G||/hpc/group/mastatlab/hk288/code_hp_paral|
ew198|PREEMPTED|scavenger|2023-05-26T08:26:30|2023-05-30T13:18:46|4-04:52:16|dcc-pbenfeylab-02|1|1|16000M||/cifs/hariri-long/Projects/Annchen/Scripts/ArealMSHBM|
ew198|PREEMPTED|scavenger|2023-05-26T08:26:30|2023-05-30T13:18:46|4-04:52:16|dcc-pbenfeylab-02|1|1|16000M||/cifs/hariri-long/Projects/Annchen/Scripts/ArealMSHBM|
pz19|PREEMPTED|scavenger|2023-05-26T18:34:09|2023-06-06T07:07:39|10-12:33:30|dcc-adrc-01|1|16|25408M||/work/pz19/Wang/Copper/Silicon/TS_06_3Lig/M06L|
jdw91|FAILED|scavenger|2023-05-26T22:33:01|2023-05-29T02:01:05|2-03:28:04|dcc-gcb-15|1|1|1000M||/hpc/home/jdw91/Work/RLRDS/Final_Branching_Models|
jdw91|FAILED|scavenger|2023-05-26T22:33:01|2023-05-29T03:06:09|2-04:33:08|dcc-gcb-15|1|1|1000M||/hpc/home/jdw91/Work/RLRDS/Final_Branching_Models|
ts349|FAILED|scavenger|2023-05-27T08:46:01|2023-05-29T20:19:23|2-11:33:22|dcc-bragg-05|1|30|72G||/hpc/home/ts349|
pz19|PREEMPTED|scavenger|2023-05-27T10:51:30|2023-05-29T06:59:07|1-20:07:37|dcc-adrc-01|1|16|25408M||/work/pz19/Wang/Copper/Silicon/TS_06_3Lig/MN15|
cjp47|COMPLETED|scavenger|2023-05-27T14:01:25|2023-06-04T10:11:24|7-20:09:59|dcc-youlab-01|1|1|64G||/hpc/group/bio1/cyanolichen_holobiome|
cjp47|COMPLETED|scavenger|2023-05-27T14:01:25|2023-06-14T08:26:15|17-18:24:50|dcc-youlab-01|1|1|64G||/hpc/group/bio1/cyanolichen_holobiome|
cjp47|COMPLETED|scavenger|2023-05-27T14:01:25|2023-06-03T21:09:30|7-07:08:05|dcc-youlab-01|1|1|64G||/hpc/group/bio1/cyanolichen_holobiome|
cjp47|RUNNING|scavenger|2023-05-27T14:01:25|Unknown|18-00:28:21|dcc-wychem-01|1|1|64G||/hpc/group/bio1/cyanolichen_holobiome|
cjp47|PREEMPTED|scavenger|2023-05-27T14:01:25|2023-05-30T12:36:32|2-22:35:07|dcc-velmeshevlab-01|1|1|64G||/hpc/group/bio1/cyanolichen_holobiome|
cjp47|PREEMPTED|scavenger|2023-05-27T14:01:25|2023-05-31T16:35:40|4-02:34:15|dcc-tunglab-01|1|1|64G||/hpc/group/bio1/cyanolichen_holobiome|
ew198|COMPLETED|scavenger|2023-05-27T14:09:03|2023-05-30T13:19:00|2-23:09:57|dcc-statdept-01|1|1|16000M||/cifs/hariri-long/Projects/Annchen/Scripts/ArealMSHBM|
ew198|CANCELLED by 1455533|scavenger|2023-05-27T14:09:03|2023-06-02T11:18:52|5-21:09:49|dcc-statdept-01|1|1|16000M||/cifs/hariri-long/Projects/Annchen/Scripts/ArealMSHBM|
ew198|CANCELLED by 1455533|scavenger|2023-05-27T14:09:03|2023-06-02T11:18:52|5-21:09:49|dcc-statdept-01|1|1|16000M||/cifs/hariri-long/Projects/Annchen/Scripts/ArealMSHBM|
ew198|COMPLETED|scavenger|2023-05-27T14:09:03|2023-05-30T13:19:00|2-23:09:57|dcc-statdept-01|1|1|16000M||/cifs/hariri-long/Projects/Annchen/Scripts/ArealMSHBM|
ew198|CANCELLED by 1455533|scavenger|2023-05-27T14:09:03|2023-06-02T11:18:52|5-21:09:49|dcc-statdept-01|1|1|16000M||/cifs/hariri-long/Projects/Annchen/Scripts/ArealMSHBM|
ew198|COMPLETED|scavenger|2023-05-27T14:09:03|2023-05-30T13:19:00|2-23:09:57|dcc-statdept-01|1|1|16000M||/cifs/hariri-long/Projects/Annchen/Scripts/ArealMSHBM|
ew198|CANCELLED by 1455533|scavenger|2023-05-27T14:09:03|2023-06-02T11:18:52|5-21:09:49|dcc-statdept-01|1|1|16000M||/cifs/hariri-long/Projects/Annchen/Scripts/ArealMSHBM|
ew198|COMPLETED|scavenger|2023-05-27T14:09:03|2023-05-30T13:19:00|2-23:09:57|dcc-statdept-01|1|1|16000M||/cifs/hariri-long/Projects/Annchen/Scripts/ArealMSHBM|
ew198|CANCELLED by 1455533|scavenger|2023-05-27T14:09:03|2023-06-02T11:18:52|5-21:09:49|dcc-statdept-01|1|1|16000M||/cifs/hariri-long/Projects/Annchen/Scripts/ArealMSHBM|
jdw91|COMPLETED|scavenger|2023-05-27T15:33:34|2023-05-29T02:35:55|1-11:02:21|dcc-pfister-01|1|1|1000M||/hpc/home/jdw91/Work/RLRDS/Final_Graph_Models|
jdw91|COMPLETED|scavenger|2023-05-27T15:33:34|2023-05-29T01:23:42|1-09:50:08|dcc-pfister-01|1|1|1000M||/hpc/home/jdw91/Work/RLRDS/Final_Graph_Models|
jdw91|COMPLETED|scavenger|2023-05-27T15:33:34|2023-05-29T01:09:32|1-09:35:58|dcc-pfister-01|1|1|1000M||/hpc/home/jdw91/Work/RLRDS/Final_Graph_Models|
jdw91|COMPLETED|scavenger|2023-05-27T15:33:34|2023-05-29T01:22:43|1-09:49:09|dcc-pfister-01|1|1|1000M||/hpc/home/jdw91/Work/RLRDS/Final_Graph_Models|
ark19|CANCELLED by 1027614|scavenger|2023-05-27T16:33:27|2023-05-30T14:12:18|2-21:38:51|dcc-tunglab-01|1|1|125G||/cifs/hariri-long/Studies/DNS/Imaging/pipeline1.0/DTI/FSL|
ark19|CANCELLED by 1027614|scavenger|2023-05-27T16:33:27|2023-05-30T14:12:18|2-21:38:51|dcc-tmolab-02|1|1|16000M||/cifs/hariri-long/Studies/DNS/Imaging/pipeline1.0/DTI/FSL|
ark19|CANCELLED by 1027614|scavenger|2023-05-27T16:33:27|2023-05-30T14:12:18|2-21:38:51|dcc-tmolab-02|1|1|16000M||/cifs/hariri-long/Studies/DNS/Imaging/pipeline1.0/DTI/FSL|
ark19|CANCELLED by 1027614|scavenger|2023-05-27T16:33:27|2023-05-30T14:12:18|2-21:38:51|dcc-tmolab-02|1|1|16000M||/cifs/hariri-long/Studies/DNS/Imaging/pipeline1.0/DTI/FSL|
ark19|CANCELLED by 1027614|scavenger|2023-05-27T16:33:27|2023-05-30T14:12:18|2-21:38:51|dcc-tmolab-02|1|1|16000M||/cifs/hariri-long/Studies/DNS/Imaging/pipeline1.0/DTI/FSL|
ark19|CANCELLED by 1027614|scavenger|2023-05-27T16:33:27|2023-05-30T14:12:21|2-21:38:54|dcc-tmolab-02|1|1|16000M||/cifs/hariri-long/Studies/DNS/Imaging/pipeline1.0/DTI/FSL|
ark19|CANCELLED by 1027614|scavenger|2023-05-27T16:33:27|2023-05-30T14:12:21|2-21:38:54|dcc-tmolab-01|1|1|16000M||/cifs/hariri-long/Studies/DNS/Imaging/pipeline1.0/DTI/FSL|
ark19|CANCELLED by 1027614|scavenger|2023-05-27T16:33:30|2023-05-30T14:12:10|2-21:38:40|dcc-tmolab-01|1|1|16000M||/cifs/hariri-long/Studies/DNS/Imaging/pipeline1.0/DTI/FSL|
ark19|CANCELLED by 1027614|scavenger|2023-05-27T16:33:30|2023-05-30T14:12:13|2-21:38:43|dcc-statdept-01|1|1|16000M||/cifs/hariri-long/Studies/DNS/Imaging/pipeline1.0/DTI/FSL|
ark19|CANCELLED by 1027614|scavenger|2023-05-27T16:33:30|2023-05-30T14:12:13|2-21:38:43|dcc-statdept-01|1|1|16000M||/cifs/hariri-long/Studies/DNS/Imaging/pipeline1.0/DTI/FSL|
ark19|CANCELLED by 1027614|scavenger|2023-05-27T16:33:30|2023-05-30T14:12:13|2-21:38:43|dcc-statdept-01|1|1|16000M||/cifs/hariri-long/Studies/DNS/Imaging/pipeline1.0/DTI/FSL|
ark19|CANCELLED by 1027614|scavenger|2023-05-27T16:33:30|2023-05-30T14:12:13|2-21:38:43|dcc-statdept-01|1|1|16000M||/cifs/hariri-long/Studies/DNS/Imaging/pipeline1.0/DTI/FSL|
ark19|CANCELLED by 1027614|scavenger|2023-05-27T16:33:30|2023-05-30T14:12:13|2-21:38:43|dcc-statdept-01|1|1|16000M||/cifs/hariri-long/Studies/DNS/Imaging/pipeline1.0/DTI/FSL|
ark19|CANCELLED by 1027614|scavenger|2023-05-27T16:33:30|2023-05-30T14:12:14|2-21:38:44|dcc-statdept-01|1|1|16000M||/cifs/hariri-long/Studies/DNS/Imaging/pipeline1.0/DTI/FSL|
ark19|CANCELLED by 1027614|scavenger|2023-05-27T16:33:30|2023-05-30T14:12:14|2-21:38:44|dcc-statdept-01|1|1|16000M||/cifs/hariri-long/Studies/DNS/Imaging/pipeline1.0/DTI/FSL|
ark19|CANCELLED by 1027614|scavenger|2023-05-27T16:33:30|2023-05-30T14:12:14|2-21:38:44|dcc-statdept-01|1|1|16000M||/cifs/hariri-long/Studies/DNS/Imaging/pipeline1.0/DTI/FSL|
ark19|CANCELLED by 1027614|scavenger|2023-05-27T16:33:30|2023-05-30T14:12:14|2-21:38:44|dcc-statdept-01|1|1|16000M||/cifs/hariri-long/Studies/DNS/Imaging/pipeline1.0/DTI/FSL|
ark19|CANCELLED by 1027614|scavenger|2023-05-27T16:33:30|2023-05-30T14:12:14|2-21:38:44|dcc-statdept-01|1|1|16000M||/cifs/hariri-long/Studies/DNS/Imaging/pipeline1.0/DTI/FSL|
ark19|CANCELLED by 1027614|scavenger|2023-05-27T16:33:30|2023-05-30T14:12:14|2-21:38:44|dcc-savageresearch-02|1|1|16000M||/cifs/hariri-long/Studies/DNS/Imaging/pipeline1.0/DTI/FSL|
ark19|CANCELLED by 1027614|scavenger|2023-05-27T16:33:30|2023-05-30T14:12:14|2-21:38:44|dcc-savageresearch-01|1|1|16000M||/cifs/hariri-long/Studies/DNS/Imaging/pipeline1.0/DTI/FSL|
ark19|CANCELLED by 1027614|scavenger|2023-05-27T16:33:30|2023-05-30T14:12:17|2-21:38:47|dcc-savageresearch-01|1|1|16000M||/cifs/hariri-long/Studies/DNS/Imaging/pipeline1.0/DTI/FSL|
ark19|CANCELLED by 1027614|scavenger|2023-05-27T16:33:30|2023-05-30T14:12:17|2-21:38:47|dcc-savageresearch-01|1|1|16000M||/cifs/hariri-long/Studies/DNS/Imaging/pipeline1.0/DTI/FSL|
ark19|CANCELLED by 1027614|scavenger|2023-05-27T16:33:30|2023-05-30T14:12:17|2-21:38:47|dcc-savageresearch-01|1|1|16000M||/cifs/hariri-long/Studies/DNS/Imaging/pipeline1.0/DTI/FSL|
ark19|CANCELLED by 1027614|scavenger|2023-05-27T16:33:30|2023-05-30T14:12:17|2-21:38:47|dcc-savageresearch-01|1|1|16000M||/cifs/hariri-long/Studies/DNS/Imaging/pipeline1.0/DTI/FSL|
ark19|CANCELLED by 1027614|scavenger|2023-05-27T16:33:30|2023-05-30T14:12:17|2-21:38:47|dcc-savageresearch-01|1|1|16000M||/cifs/hariri-long/Studies/DNS/Imaging/pipeline1.0/DTI/FSL|
ark19|CANCELLED by 1027614|scavenger|2023-05-27T16:33:30|2023-05-30T14:12:18|2-21:38:48|dcc-savageresearch-01|1|1|16000M||/cifs/hariri-long/Studies/DNS/Imaging/pipeline1.0/DTI/FSL|
ark19|CANCELLED by 1027614|scavenger|2023-05-27T16:33:30|2023-05-30T14:12:18|2-21:38:48|dcc-rausherlab-02|1|1|16000M||/cifs/hariri-long/Studies/DNS/Imaging/pipeline1.0/DTI/FSL|
ark19|CANCELLED by 1027614|scavenger|2023-05-27T16:33:33|2023-05-30T14:12:10|2-21:38:37|dcc-rausherlab-02|1|1|16000M||/cifs/hariri-long/Studies/DNS/Imaging/pipeline1.0/DTI/FSL|
ark19|CANCELLED by 1027614|scavenger|2023-05-27T16:33:33|2023-05-30T14:12:10|2-21:38:37|dcc-rausherlab-02|1|1|16000M||/cifs/hariri-long/Studies/DNS/Imaging/pipeline1.0/DTI/FSL|
ark19|CANCELLED by 1027614|scavenger|2023-05-27T16:33:33|2023-05-30T14:12:10|2-21:38:37|dcc-rausherlab-01|1|1|16000M||/cifs/hariri-long/Studies/DNS/Imaging/pipeline1.0/DTI/FSL|
ark19|CANCELLED by 1027614|scavenger|2023-05-27T16:33:33|2023-05-30T14:12:10|2-21:38:37|dcc-rausherlab-01|1|1|16000M||/cifs/hariri-long/Studies/DNS/Imaging/pipeline1.0/DTI/FSL|
ark19|CANCELLED by 1027614|scavenger|2023-05-27T16:33:34|2023-05-30T14:12:09|2-21:38:35|dcc-pfister-01|1|1|16000M||/cifs/hariri-long/Studies/DNS/Imaging/pipeline1.0/DTI/FSL|
ark19|CANCELLED by 1027614|scavenger|2023-05-27T16:33:34|2023-05-30T14:12:09|2-21:38:35|dcc-pfister-01|1|1|16000M||/cifs/hariri-long/Studies/DNS/Imaging/pipeline1.0/DTI/FSL|
ark19|CANCELLED by 1027614|scavenger|2023-05-27T16:33:34|2023-05-30T14:12:09|2-21:38:35|dcc-pfister-01|1|1|16000M||/cifs/hariri-long/Studies/DNS/Imaging/pipeline1.0/DTI/FSL|
ark19|CANCELLED by 1027614|scavenger|2023-05-27T16:33:34|2023-05-30T14:12:09|2-21:38:35|dcc-pfister-01|1|1|16000M||/cifs/hariri-long/Studies/DNS/Imaging/pipeline1.0/DTI/FSL|
ark19|CANCELLED by 1027614|scavenger|2023-05-27T16:33:34|2023-05-30T14:12:09|2-21:38:35|dcc-pfister-01|1|1|16000M||/cifs/hariri-long/Studies/DNS/Imaging/pipeline1.0/DTI/FSL|
ark19|CANCELLED by 1027614|scavenger|2023-05-27T16:33:34|2023-05-30T14:12:10|2-21:38:36|dcc-pfister-01|1|1|16000M||/cifs/hariri-long/Studies/DNS/Imaging/pipeline1.0/DTI/FSL|
ark19|CANCELLED by 1027614|scavenger|2023-05-27T16:33:34|2023-05-30T14:12:10|2-21:38:36|dcc-pfister-01|1|1|16000M||/cifs/hariri-long/Studies/DNS/Imaging/pipeline1.0/DTI/FSL|
ark19|PREEMPTED|scavenger|2023-05-27T16:33:34|2023-05-30T13:18:46|2-20:45:12|dcc-pbenfeylab-02|1|1|16000M||/cifs/hariri-long/Studies/DNS/Imaging/pipeline1.0/DTI/FSL|
ark19|PREEMPTED|scavenger|2023-05-27T16:33:34|2023-05-30T13:18:46|2-20:45:12|dcc-pbenfeylab-02|1|1|16000M||/cifs/hariri-long/Studies/DNS/Imaging/pipeline1.0/DTI/FSL|
ark19|PREEMPTED|scavenger|2023-05-27T16:33:34|2023-05-30T13:18:46|2-20:45:12|dcc-pbenfeylab-02|1|1|16000M||/cifs/hariri-long/Studies/DNS/Imaging/pipeline1.0/DTI/FSL|
ark19|PREEMPTED|scavenger|2023-05-27T16:33:34|2023-05-30T13:18:46|2-20:45:12|dcc-pbenfeylab-02|1|1|16000M||/cifs/hariri-long/Studies/DNS/Imaging/pipeline1.0/DTI/FSL|
ark19|PREEMPTED|scavenger|2023-05-27T16:33:34|2023-05-30T13:18:46|2-20:45:12|dcc-pbenfeylab-02|1|1|16000M||/cifs/hariri-long/Studies/DNS/Imaging/pipeline1.0/DTI/FSL|
ark19|PREEMPTED|scavenger|2023-05-27T16:33:34|2023-05-30T13:18:46|2-20:45:12|dcc-pbenfeylab-02|1|1|16000M||/cifs/hariri-long/Studies/DNS/Imaging/pipeline1.0/DTI/FSL|
ark19|PREEMPTED|scavenger|2023-05-27T16:33:34|2023-05-30T13:18:46|2-20:45:12|dcc-pbenfeylab-02|1|1|16000M||/cifs/hariri-long/Studies/DNS/Imaging/pipeline1.0/DTI/FSL|
ark19|PREEMPTED|scavenger|2023-05-27T16:33:34|2023-05-30T13:18:46|2-20:45:12|dcc-pbenfeylab-02|1|1|16000M||/cifs/hariri-long/Studies/DNS/Imaging/pipeline1.0/DTI/FSL|
ark19|CANCELLED by 1027614|scavenger|2023-05-27T16:33:37|2023-05-30T14:12:07|2-21:38:30|dcc-youlab-01|1|1|16000M||/cifs/hariri-long/Studies/DNS/Imaging/pipeline1.0/DTI/FSL|
ark19|PREEMPTED|scavenger|2023-05-27T16:33:37|2023-05-30T13:18:46|2-20:45:09|dcc-pbenfeylab-02|1|1|16000M||/cifs/hariri-long/Studies/DNS/Imaging/pipeline1.0/DTI/FSL|
ark19|PREEMPTED|scavenger|2023-05-27T16:33:37|2023-05-30T13:18:46|2-20:45:09|dcc-pbenfeylab-02|1|1|16000M||/cifs/hariri-long/Studies/DNS/Imaging/pipeline1.0/DTI/FSL|
ark19|PREEMPTED|scavenger|2023-05-27T16:33:37|2023-05-30T13:18:46|2-20:45:09|dcc-pbenfeylab-02|1|1|16000M||/cifs/hariri-long/Studies/DNS/Imaging/pipeline1.0/DTI/FSL|
ark19|CANCELLED by 1027614|scavenger|2023-05-27T16:33:37|2023-05-30T14:12:09|2-21:38:32|dcc-pbenfeylab-02|1|1|16000M||/cifs/hariri-long/Studies/DNS/Imaging/pipeline1.0/DTI/FSL|
ts349|FAILED|scavenger|2023-05-28T06:45:40|2023-05-29T14:44:56|1-07:59:16|dcc-adrc-01|1|12|100G||/work/ts349/stm2457_hicar/work/da/98b565cacc1cfcdbed8f1a457768a9|
ts349|COMPLETED|scavenger|2023-05-28T06:45:55|2023-05-29T04:24:20|21:38:25|dcc-motesa-01|1|12|100G||/work/ts349/stm2457_hicar/work/b8/c85d2485cf0b3629ab99e805e315b8|
ark19|COMPLETED|scavenger|2023-05-28T12:14:28|2023-05-29T13:16:52|1-01:02:24|dcc-tunglab-01|1|1|24000M||/cifs/hariri-long/Database/DBIS_P52/Imaging|
ark19|COMPLETED|scavenger|2023-05-28T12:14:28|2023-05-29T12:29:48|1-00:15:20|dcc-tunglab-01|1|1|24000M||/cifs/hariri-long/Database/DBIS_P52/Imaging|
ark19|COMPLETED|scavenger|2023-05-28T12:14:28|2023-05-29T12:39:38|1-00:25:10|dcc-tunglab-01|1|1|24000M||/cifs/hariri-long/Database/DBIS_P52/Imaging|
ark19|COMPLETED|scavenger|2023-05-28T12:14:28|2023-05-29T12:56:23|1-00:41:55|dcc-tunglab-01|1|1|24000M||/cifs/hariri-long/Database/DBIS_P52/Imaging|
ark19|COMPLETED|scavenger|2023-05-28T12:14:28|2023-05-29T12:42:16|1-00:27:48|dcc-tunglab-01|1|1|24000M||/cifs/hariri-long/Database/DBIS_P52/Imaging|
ark19|COMPLETED|scavenger|2023-05-28T12:50:33|2023-05-29T07:38:11|18:47:38|dcc-statdept-01|1|1|24000M||/cifs/hariri-long/Database/DBIS_P52/Imaging|
ark19|CANCELLED by 1027614|scavenger|2023-05-28T14:20:32|2023-05-29T08:18:20|17:57:48|dcc-tunglab-02|1|1|24000M||/cifs/hariri-long/Studies/DNS/Imaging/pipeline1.0/DTI/FSL|
ark19|CANCELLED by 1027614|scavenger|2023-05-28T14:20:32|2023-05-29T08:18:20|17:57:48|dcc-tunglab-02|1|1|24000M||/cifs/hariri-long/Studies/DNS/Imaging/pipeline1.0/DTI/FSL|
ark19|CANCELLED by 1027614|scavenger|2023-05-28T14:20:32|2023-05-29T08:18:20|17:57:48|dcc-tunglab-02|1|1|24000M||/cifs/hariri-long/Studies/DNS/Imaging/pipeline1.0/DTI/FSL|
ark19|CANCELLED by 1027614|scavenger|2023-05-28T14:20:32|2023-05-29T08:18:21|17:57:49|dcc-tunglab-02|1|1|24000M||/cifs/hariri-long/Studies/DNS/Imaging/pipeline1.0/DTI/FSL|
ark19|CANCELLED by 1027614|scavenger|2023-05-28T14:20:32|2023-05-29T08:18:21|17:57:49|dcc-tunglab-02|1|1|24000M||/cifs/hariri-long/Studies/DNS/Imaging/pipeline1.0/DTI/FSL|
ts349|OUT_OF_MEMORY|scavenger|2023-05-28T14:55:29|2023-05-31T13:27:36|2-22:32:07|dcc-cagpm-01|1|30|72G||/datacommons/ydiaolab/sun/YAPandTEAD/HiCAR/loops_analysis|
lv107|TIMEOUT|scavenger|2023-05-28T17:56:19|2023-05-29T03:56:41|10:00:22|dcc-rausherlab-02|1|2|50G||/hpc/home/lv107/ondemand/data/sys/dashboard/batch_connect/sys/bc_rstudio_singularity/output/dfbcaa04-8146-4349-a95e-075c01c18182|
lv107|TIMEOUT|scavenger|2023-05-28T18:49:55|2023-05-29T04:50:11|10:00:16|dcc-rausherlab-02|1|2|50G||/hpc/home/lv107/ondemand/data/sys/dashboard/batch_connect/sys/bc_rstudio_singularity/output/c842f246-84d5-484d-a8a4-5d56911178d9|
idm7|CANCELLED by 1155550|scavenger|2023-05-28T23:28:16|2023-05-29T09:30:27|10:02:11|dcc-tunglab-02|1|16|20G||/hpc/group/bio1/ian/eurotiomycetes/phylo_scripts/logs|
ts349|FAILED|scavenger|2023-05-28T23:24:59|2023-05-29T01:00:14|01:35:15|dcc-mainsahlab-01|1|16|32G||/datacommons/ydiaolab/sun/YAPandTEAD/jianhong_new/matrix/hic|
idm7|COMPLETED|scavenger|2023-05-29T00:12:34|2023-05-29T01:05:15|00:52:41|dcc-delairelab-01|1|12|20G||/hpc/group/bio1/ian/eurotiomycetes/phylo_scripts/logs|
idm7|COMPLETED|scavenger|2023-05-29T00:23:53|2023-05-29T01:22:52|00:58:59|dcc-delairelab-01|1|12|20G||/hpc/group/bio1/ian/eurotiomycetes/phylo_scripts/logs|
idm7|COMPLETED|scavenger|2023-05-29T00:24:12|2023-05-29T01:21:33|00:57:21|dcc-delairelab-01|1|12|20G||/hpc/group/bio1/ian/eurotiomycetes/phylo_scripts/logs|
idm7|COMPLETED|scavenger|2023-05-29T00:24:19|2023-05-29T01:22:56|00:58:37|dcc-delairelab-01|1|12|20G||/hpc/group/bio1/ian/eurotiomycetes/phylo_scripts/logs|
idm7|COMPLETED|scavenger|2023-05-29T00:24:19|2023-05-29T01:04:01|00:39:42|dcc-kirschlab-01|1|12|20G||/hpc/group/bio1/ian/eurotiomycetes/phylo_scripts/logs|
idm7|COMPLETED|scavenger|2023-05-29T00:29:30|2023-05-29T01:05:21|00:35:51|dcc-kirschlab-01|1|12|20G||/hpc/group/bio1/ian/eurotiomycetes/phylo_scripts/logs|
idm7|COMPLETED|scavenger|2023-05-29T00:33:36|2023-05-29T01:00:02|00:26:26|dcc-statdept-01|1|12|20G||/hpc/group/bio1/ian/eurotiomycetes/phylo_scripts/logs|
idm7|COMPLETED|scavenger|2023-05-29T00:34:17|2023-05-29T01:00:11|00:25:54|dcc-compeb-02|1|12|20G||/hpc/group/bio1/ian/eurotiomycetes/phylo_scripts/logs|
idm7|COMPLETED|scavenger|2023-05-29T00:34:29|2023-05-29T01:03:16|00:28:47|dcc-donglab-01|1|12|20G||/hpc/group/bio1/ian/eurotiomycetes/phylo_scripts/logs|
idm7|COMPLETED|scavenger|2023-05-29T00:34:55|2023-05-29T01:02:03|00:27:08|dcc-donglab-01|1|12|20G||/hpc/group/bio1/ian/eurotiomycetes/phylo_scripts/logs|
idm7|COMPLETED|scavenger|2023-05-29T00:41:24|2023-05-29T01:10:57|00:29:33|dcc-pfister-01|1|12|20G||/hpc/group/bio1/ian/eurotiomycetes/phylo_scripts/logs|
idm7|COMPLETED|scavenger|2023-05-29T00:42:17|2023-05-29T01:07:34|00:25:17|dcc-bragg-01|1|12|20G||/hpc/group/bio1/ian/eurotiomycetes/phylo_scripts/logs|
idm7|COMPLETED|scavenger|2023-05-29T00:45:39|2023-05-29T01:13:30|00:27:51|dcc-fergusonlab-01|1|12|20G||/hpc/group/bio1/ian/eurotiomycetes/phylo_scripts/logs|
idm7|COMPLETED|scavenger|2023-05-29T00:45:46|2023-05-29T01:18:23|00:32:37|dcc-bragg-02|1|12|20G||/hpc/group/bio1/ian/eurotiomycetes/phylo_scripts/logs|
idm7|COMPLETED|scavenger|2023-05-29T00:46:20|2023-05-29T01:15:41|00:29:21|dcc-fergusonlab-01|1|12|20G||/hpc/group/bio1/ian/eurotiomycetes/phylo_scripts/logs|
idm7|COMPLETED|scavenger|2023-05-29T00:47:38|2023-05-29T01:08:37|00:20:59|dcc-youlab-01|1|12|20G||/hpc/group/bio1/ian/eurotiomycetes/phylo_scripts/logs|
idm7|COMPLETED|scavenger|2023-05-29T00:48:11|2023-05-29T01:21:41|00:33:30|dcc-bragg-02|1|12|20G||/hpc/group/bio1/ian/eurotiomycetes/phylo_scripts/logs|
idm7|COMPLETED|scavenger|2023-05-29T00:49:58|2023-05-29T01:12:02|00:22:04|dcc-youlab-01|1|12|20G||/hpc/group/bio1/ian/eurotiomycetes/phylo_scripts/logs|
idm7|COMPLETED|scavenger|2023-05-29T00:51:18|2023-05-29T01:45:50|00:54:32|dcc-delairelab-01|1|12|20G||/hpc/group/bio1/ian/eurotiomycetes/phylo_scripts/logs|
idm7|COMPLETED|scavenger|2023-05-29T00:53:09|2023-05-29T01:19:57|00:26:48|dcc-compeb-01|1|12|20G||/hpc/group/bio1/ian/eurotiomycetes/phylo_scripts/logs|
idm7|COMPLETED|scavenger|2023-05-29T00:53:31|2023-05-29T01:49:36|00:56:05|dcc-delairelab-01|1|12|20G||/hpc/group/bio1/ian/eurotiomycetes/phylo_scripts/logs|
idm7|COMPLETED|scavenger|2023-05-29T00:53:40|2023-05-29T01:29:44|00:36:04|dcc-mainsahlab-01|1|12|20G||/hpc/group/bio1/ian/eurotiomycetes/phylo_scripts/logs|
idm7|COMPLETED|scavenger|2023-05-29T00:53:42|2023-05-29T01:10:01|00:16:19|dcc-dunsonlab-01|1|12|20G||/hpc/group/bio1/ian/eurotiomycetes/phylo_scripts/logs|
idm7|COMPLETED|scavenger|2023-05-29T00:54:01|2023-05-29T01:25:05|00:31:04|dcc-fergusonlab-01|1|12|20G||/hpc/group/bio1/ian/eurotiomycetes/phylo_scripts/logs|
idm7|COMPLETED|scavenger|2023-05-29T00:54:44|2023-05-29T01:24:13|00:29:29|dcc-pfister-01|1|12|20G||/hpc/group/bio1/ian/eurotiomycetes/phylo_scripts/logs|
idm7|COMPLETED|scavenger|2023-05-29T00:55:54|2023-05-29T01:34:41|00:38:47|dcc-mainsahlab-01|1|12|20G||/hpc/group/bio1/ian/eurotiomycetes/phylo_scripts/logs|
idm7|COMPLETED|scavenger|2023-05-29T00:57:23|2023-05-29T01:22:59|00:25:36|dcc-compeb-02|1|12|20G||/hpc/group/bio1/ian/eurotiomycetes/phylo_scripts/logs|
idm7|COMPLETED|scavenger|2023-05-29T00:57:57|2023-05-29T01:26:05|00:28:08|dcc-pfister-01|1|12|20G||/hpc/group/bio1/ian/eurotiomycetes/phylo_scripts/logs|
idm7|COMPLETED|scavenger|2023-05-29T00:58:15|2023-05-29T01:15:14|00:16:59|dcc-dunsonlab-02|1|12|20G||/hpc/group/bio1/ian/eurotiomycetes/phylo_scripts/logs|
idm7|COMPLETED|scavenger|2023-05-29T00:59:29|2023-05-29T01:23:34|00:24:05|dcc-kirschlab-01|1|12|20G||/hpc/group/bio1/ian/eurotiomycetes/phylo_scripts/logs|
idm7|COMPLETED|scavenger|2023-05-29T00:59:36|2023-05-29T01:38:57|00:39:21|dcc-bragg-01|1|12|20G||/hpc/group/bio1/ian/eurotiomycetes/phylo_scripts/logs|
idm7|COMPLETED|scavenger|2023-05-29T00:59:54|2023-05-29T01:26:23|00:26:29|dcc-statdept-01|1|12|20G||/hpc/group/bio1/ian/eurotiomycetes/phylo_scripts/logs|
idm7|COMPLETED|scavenger|2023-05-29T01:00:02|2023-05-29T01:26:43|00:26:41|dcc-statdept-01|1|12|20G||/hpc/group/bio1/ian/eurotiomycetes/phylo_scripts/logs|
idm7|COMPLETED|scavenger|2023-05-29T01:00:11|2023-05-29T01:25:53|00:25:42|dcc-compeb-02|1|12|20G||/hpc/group/bio1/ian/eurotiomycetes/phylo_scripts/logs|
idm7|COMPLETED|scavenger|2023-05-29T01:02:04|2023-05-29T01:29:51|00:27:47|dcc-bragg-02|1|12|20G||/hpc/group/bio1/ian/eurotiomycetes/phylo_scripts/logs|
idm7|COMPLETED|scavenger|2023-05-29T01:03:17|2023-05-29T01:30:02|00:26:45|dcc-donglab-01|1|12|20G||/hpc/group/bio1/ian/eurotiomycetes/phylo_scripts/logs|
idm7|COMPLETED|scavenger|2023-05-29T01:04:01|2023-05-29T01:29:46|00:25:45|dcc-donglab-01|1|12|20G||/hpc/group/bio1/ian/eurotiomycetes/phylo_scripts/logs|
idm7|COMPLETED|scavenger|2023-05-29T01:05:15|2023-05-29T02:00:51|00:55:36|dcc-delairelab-01|1|12|20G||/hpc/group/bio1/ian/eurotiomycetes/phylo_scripts/logs|
idm7|COMPLETED|scavenger|2023-05-29T01:05:21|2023-05-29T01:46:02|00:40:41|dcc-mainsahlab-01|1|12|20G||/hpc/group/bio1/ian/eurotiomycetes/phylo_scripts/logs|
idm7|COMPLETED|scavenger|2023-05-29T01:07:34|2023-05-29T01:31:51|00:24:17|dcc-bragg-01|1|12|20G||/hpc/group/bio1/ian/eurotiomycetes/phylo_scripts/logs|
idm7|COMPLETED|scavenger|2023-05-29T01:08:39|2023-05-29T01:48:49|00:40:10|dcc-mainsahlab-01|1|12|20G||/hpc/group/bio1/ian/eurotiomycetes/phylo_scripts/logs|
idm7|COMPLETED|scavenger|2023-05-29T01:10:02|2023-05-29T01:27:04|00:17:02|dcc-dunsonlab-01|1|12|20G||/hpc/group/bio1/ian/eurotiomycetes/phylo_scripts/logs|
idm7|COMPLETED|scavenger|2023-05-29T01:10:58|2023-05-29T01:38:13|00:27:15|dcc-pfister-01|1|12|20G||/hpc/group/bio1/ian/eurotiomycetes/phylo_scripts/logs|
idm7|COMPLETED|scavenger|2023-05-29T01:12:04|2023-05-29T01:29:45|00:17:41|dcc-youlab-01|1|12|20G||/hpc/group/bio1/ian/eurotiomycetes/phylo_scripts/logs|
idm7|COMPLETED|scavenger|2023-05-29T01:13:31|2023-05-29T01:39:03|00:25:32|dcc-fergusonlab-01|1|12|20G||/hpc/group/bio1/ian/eurotiomycetes/phylo_scripts/logs|
idm7|COMPLETED|scavenger|2023-05-29T01:15:15|2023-05-29T01:29:36|00:14:21|dcc-dunsonlab-02|1|12|20G||/hpc/group/bio1/ian/eurotiomycetes/phylo_scripts/logs|
idm7|COMPLETED|scavenger|2023-05-29T01:15:41|2023-05-29T01:41:51|00:26:10|dcc-fergusonlab-01|1|12|20G||/hpc/group/bio1/ian/eurotiomycetes/phylo_scripts/logs|
idm7|COMPLETED|scavenger|2023-05-29T01:18:25|2023-05-29T01:46:33|00:28:08|dcc-bragg-02|1|12|20G||/hpc/group/bio1/ian/eurotiomycetes/phylo_scripts/logs|
idm7|COMPLETED|scavenger|2023-05-29T01:19:57|2023-05-29T01:48:47|00:28:50|dcc-compeb-01|1|12|20G||/hpc/group/bio1/ian/eurotiomycetes/phylo_scripts/logs|
idm7|COMPLETED|scavenger|2023-05-29T01:21:35|2023-05-29T02:11:43|00:50:08|dcc-delairelab-01|1|12|20G||/hpc/group/bio1/ian/eurotiomycetes/phylo_scripts/logs|
idm7|COMPLETED|scavenger|2023-05-29T01:21:41|2023-05-29T01:52:04|00:30:23|dcc-bragg-02|1|12|20G||/hpc/group/bio1/ian/eurotiomycetes/phylo_scripts/logs|
idm7|COMPLETED|scavenger|2023-05-29T01:22:52|2023-05-29T02:13:28|00:50:36|dcc-delairelab-01|1|12|20G||/hpc/group/bio1/ian/eurotiomycetes/phylo_scripts/logs|
idm7|COMPLETED|scavenger|2023-05-29T01:22:57|2023-05-29T02:13:31|00:50:34|dcc-delairelab-01|1|12|20G||/hpc/group/bio1/ian/eurotiomycetes/phylo_scripts/logs|
idm7|COMPLETED|scavenger|2023-05-29T01:22:59|2023-05-29T01:45:28|00:22:29|dcc-compeb-02|1|12|20G||/hpc/group/bio1/ian/eurotiomycetes/phylo_scripts/logs|
idm7|COMPLETED|scavenger|2023-05-29T01:23:35|2023-05-29T01:43:45|00:20:10|dcc-youlab-01|1|12|20G||/hpc/group/bio1/ian/eurotiomycetes/phylo_scripts/logs|
idm7|COMPLETED|scavenger|2023-05-29T01:24:13|2023-05-29T01:51:56|00:27:43|dcc-pfister-01|1|12|20G||/hpc/group/bio1/ian/eurotiomycetes/phylo_scripts/logs|
idm7|COMPLETED|scavenger|2023-05-29T01:25:06|2023-05-29T01:57:11|00:32:05|dcc-fergusonlab-01|1|12|20G||/hpc/group/bio1/ian/eurotiomycetes/phylo_scripts/logs|
idm7|COMPLETED|scavenger|2023-05-29T01:25:55|2023-05-29T01:47:58|00:22:03|dcc-compeb-02|1|12|20G||/hpc/group/bio1/ian/eurotiomycetes/phylo_scripts/logs|
idm7|COMPLETED|scavenger|2023-05-29T01:26:05|2023-05-29T01:53:27|00:27:22|dcc-pfister-01|1|12|20G||/hpc/group/bio1/ian/eurotiomycetes/phylo_scripts/logs|
idm7|COMPLETED|scavenger|2023-05-29T01:26:24|2023-05-29T01:51:26|00:25:02|dcc-statdept-01|1|12|20G||/hpc/group/bio1/ian/eurotiomycetes/phylo_scripts/logs|
idm7|COMPLETED|scavenger|2023-05-29T01:26:43|2023-05-29T01:51:27|00:24:44|dcc-statdept-01|1|12|20G||/hpc/group/bio1/ian/eurotiomycetes/phylo_scripts/logs|
idm7|COMPLETED|scavenger|2023-05-29T01:27:04|2023-05-29T01:43:22|00:16:18|dcc-dunsonlab-01|1|12|20G||/hpc/group/bio1/ian/eurotiomycetes/phylo_scripts/logs|
idm7|COMPLETED|scavenger|2023-05-29T01:29:37|2023-05-29T01:46:28|00:16:51|dcc-dunsonlab-02|1|12|20G||/hpc/group/bio1/ian/eurotiomycetes/phylo_scripts/logs|
idm7|COMPLETED|scavenger|2023-05-29T01:29:46|2023-05-29T01:53:09|00:23:23|dcc-donglab-01|1|12|20G||/hpc/group/bio1/ian/eurotiomycetes/phylo_scripts/logs|
idm7|COMPLETED|scavenger|2023-05-29T01:29:46|2023-05-29T02:07:50|00:38:04|dcc-mainsahlab-01|1|12|20G||/hpc/group/bio1/ian/eurotiomycetes/phylo_scripts/logs|
idm7|COMPLETED|scavenger|2023-05-29T01:29:46|2023-05-29T01:50:58|00:21:12|dcc-youlab-01|1|12|20G||/hpc/group/bio1/ian/eurotiomycetes/phylo_scripts/logs|
idm7|COMPLETED|scavenger|2023-05-29T01:29:51|2023-05-29T01:57:02|00:27:11|dcc-bragg-02|1|12|20G||/hpc/group/bio1/ian/eurotiomycetes/phylo_scripts/logs|
idm7|COMPLETED|scavenger|2023-05-29T01:30:02|2023-05-29T01:53:45|00:23:43|dcc-donglab-01|1|12|20G||/hpc/group/bio1/ian/eurotiomycetes/phylo_scripts/logs|
idm7|COMPLETED|scavenger|2023-05-29T01:31:51|2023-05-29T01:53:01|00:21:10|dcc-bragg-01|1|12|20G||/hpc/group/bio1/ian/eurotiomycetes/phylo_scripts/logs|
idm7|COMPLETED|scavenger|2023-05-29T01:34:41|2023-05-29T02:15:19|00:40:38|dcc-mainsahlab-01|1|12|20G||/hpc/group/bio1/ian/eurotiomycetes/phylo_scripts/logs|
idm7|COMPLETED|scavenger|2023-05-29T01:38:14|2023-05-29T02:01:16|00:23:02|dcc-pfister-01|1|12|20G||/hpc/group/bio1/ian/eurotiomycetes/phylo_scripts/logs|
idm7|COMPLETED|scavenger|2023-05-29T01:38:57|2023-05-29T02:13:55|00:34:58|dcc-bragg-01|1|12|20G||/hpc/group/bio1/ian/eurotiomycetes/phylo_scripts/logs|
idm7|COMPLETED|scavenger|2023-05-29T01:39:03|2023-05-29T02:04:31|00:25:28|dcc-fergusonlab-01|1|12|20G||/hpc/group/bio1/ian/eurotiomycetes/phylo_scripts/logs|
idm7|COMPLETED|scavenger|2023-05-29T01:41:51|2023-05-29T02:07:08|00:25:17|dcc-fergusonlab-01|1|12|20G||/hpc/group/bio1/ian/eurotiomycetes/phylo_scripts/logs|
idm7|COMPLETED|scavenger|2023-05-29T01:43:22|2023-05-29T01:59:13|00:15:51|dcc-dunsonlab-01|1|12|20G||/hpc/group/bio1/ian/eurotiomycetes/phylo_scripts/logs|
idm7|COMPLETED|scavenger|2023-05-29T01:43:45|2023-05-29T02:03:28|00:19:43|dcc-youlab-01|1|12|20G||/hpc/group/bio1/ian/eurotiomycetes/phylo_scripts/logs|
idm7|COMPLETED|scavenger|2023-05-29T01:45:30|2023-05-29T02:07:31|00:22:01|dcc-compeb-02|1|12|20G||/hpc/group/bio1/ian/eurotiomycetes/phylo_scripts/logs|
idm7|COMPLETED|scavenger|2023-05-29T01:45:50|2023-05-29T02:36:49|00:50:59|dcc-delairelab-01|1|12|20G||/hpc/group/bio1/ian/eurotiomycetes/phylo_scripts/logs|
idm7|COMPLETED|scavenger|2023-05-29T01:46:03|2023-05-29T02:22:40|00:36:37|dcc-mainsahlab-01|1|12|20G||/hpc/group/bio1/ian/eurotiomycetes/phylo_scripts/logs|
idm7|COMPLETED|scavenger|2023-05-29T01:46:29|2023-05-29T02:01:45|00:15:16|dcc-dunsonlab-02|1|12|20G||/hpc/group/bio1/ian/eurotiomycetes/phylo_scripts/logs|
idm7|COMPLETED|scavenger|2023-05-29T01:46:35|2023-05-29T02:19:14|00:32:39|dcc-bragg-02|1|12|20G||/hpc/group/bio1/ian/eurotiomycetes/phylo_scripts/logs|
idm7|COMPLETED|scavenger|2023-05-29T01:47:58|2023-05-29T02:10:55|00:22:57|dcc-compeb-02|1|12|20G||/hpc/group/bio1/ian/eurotiomycetes/phylo_scripts/logs|
idm7|COMPLETED|scavenger|2023-05-29T01:48:47|2023-05-29T02:13:36|00:24:49|dcc-compeb-01|1|12|20G||/hpc/group/bio1/ian/eurotiomycetes/phylo_scripts/logs|
idm7|COMPLETED|scavenger|2023-05-29T01:48:49|2023-05-29T02:32:17|00:43:28|dcc-mainsahlab-01|1|12|20G||/hpc/group/bio1/ian/eurotiomycetes/phylo_scripts/logs|
idm7|COMPLETED|scavenger|2023-05-29T01:49:38|2023-05-29T02:39:59|00:50:21|dcc-delairelab-01|1|12|20G||/hpc/group/bio1/ian/eurotiomycetes/phylo_scripts/logs|
idm7|COMPLETED|scavenger|2023-05-29T01:50:58|2023-05-29T02:10:33|00:19:35|dcc-youlab-01|1|12|20G||/hpc/group/bio1/ian/eurotiomycetes/phylo_scripts/logs|
idm7|COMPLETED|scavenger|2023-05-29T01:51:26|2023-05-29T02:16:32|00:25:06|dcc-statdept-01|1|12|20G||/hpc/group/bio1/ian/eurotiomycetes/phylo_scripts/logs|
idm7|COMPLETED|scavenger|2023-05-29T01:51:28|2023-05-29T02:16:00|00:24:32|dcc-statdept-01|1|12|20G||/hpc/group/bio1/ian/eurotiomycetes/phylo_scripts/logs|
idm7|COMPLETED|scavenger|2023-05-29T01:51:56|2023-05-29T02:18:00|00:26:04|dcc-pfister-01|1|12|20G||/hpc/group/bio1/ian/eurotiomycetes/phylo_scripts/logs|
idm7|COMPLETED|scavenger|2023-05-29T01:52:04|2023-05-29T02:22:49|00:30:45|dcc-bragg-02|1|12|20G||/hpc/group/bio1/ian/eurotiomycetes/phylo_scripts/logs|
idm7|COMPLETED|scavenger|2023-05-29T01:53:01|2023-05-29T02:16:19|00:23:18|dcc-bragg-01|1|12|20G||/hpc/group/bio1/ian/eurotiomycetes/phylo_scripts/logs|
idm7|COMPLETED|scavenger|2023-05-29T01:53:09|2023-05-29T02:16:39|00:23:30|dcc-donglab-01|1|12|20G||/hpc/group/bio1/ian/eurotiomycetes/phylo_scripts/logs|
idm7|COMPLETED|scavenger|2023-05-29T01:53:27|2023-05-29T02:11:16|00:17:49|dcc-kirschlab-01|1|12|20G||/hpc/group/bio1/ian/eurotiomycetes/phylo_scripts/logs|
idm7|COMPLETED|scavenger|2023-05-29T01:53:45|2023-05-29T02:17:26|00:23:41|dcc-donglab-01|1|12|20G||/hpc/group/bio1/ian/eurotiomycetes/phylo_scripts/logs|
idm7|COMPLETED|scavenger|2023-05-29T01:57:02|2023-05-29T02:21:01|00:23:59|dcc-bragg-02|1|12|20G||/hpc/group/bio1/ian/eurotiomycetes/phylo_scripts/logs|
idm7|COMPLETED|scavenger|2023-05-29T01:57:11|2023-05-29T02:30:51|00:33:40|dcc-fergusonlab-01|1|12|20G||/hpc/group/bio1/ian/eurotiomycetes/phylo_scripts/logs|
idm7|COMPLETED|scavenger|2023-05-29T01:59:13|2023-05-29T02:14:58|00:15:45|dcc-dunsonlab-01|1|12|20G||/hpc/group/bio1/ian/eurotiomycetes/phylo_scripts/logs|
idm7|COMPLETED|scavenger|2023-05-29T02:00:52|2023-05-29T02:52:15|00:51:23|dcc-delairelab-01|1|12|20G||/hpc/group/bio1/ian/eurotiomycetes/phylo_scripts/logs|
idm7|COMPLETED|scavenger|2023-05-29T02:01:16|2023-05-29T02:27:19|00:26:03|dcc-pfister-01|1|12|20G||/hpc/group/bio1/ian/eurotiomycetes/phylo_scripts/logs|
idm7|COMPLETED|scavenger|2023-05-29T02:01:45|2023-05-29T02:19:25|00:17:40|dcc-dunsonlab-02|1|12|20G||/hpc/group/bio1/ian/eurotiomycetes/phylo_scripts/logs|
idm7|COMPLETED|scavenger|2023-05-29T02:03:29|2023-05-29T02:32:14|00:28:45|dcc-pfister-01|1|12|20G||/hpc/group/bio1/ian/eurotiomycetes/phylo_scripts/logs|
idm7|COMPLETED|scavenger|2023-05-29T02:04:31|2023-05-29T02:30:51|00:26:20|dcc-fergusonlab-01|1|12|20G||/hpc/group/bio1/ian/eurotiomycetes/phylo_scripts/logs|
idm7|COMPLETED|scavenger|2023-05-29T02:07:08|2023-05-29T02:31:05|00:23:57|dcc-fergusonlab-01|1|12|20G||/hpc/group/bio1/ian/eurotiomycetes/phylo_scripts/logs|
idm7|COMPLETED|scavenger|2023-05-29T02:07:31|2023-05-29T02:31:23|00:23:52|dcc-compeb-02|1|12|20G||/hpc/group/bio1/ian/eurotiomycetes/phylo_scripts/logs|
idm7|COMPLETED|scavenger|2023-05-29T02:07:51|2023-05-29T02:46:13|00:38:22|dcc-mainsahlab-01|1|12|20G||/hpc/group/bio1/ian/eurotiomycetes/phylo_scripts/logs|
idm7|COMPLETED|scavenger|2023-05-29T02:10:33|2023-05-29T02:32:21|00:21:48|dcc-youlab-01|1|12|20G||/hpc/group/bio1/ian/eurotiomycetes/phylo_scripts/logs|
idm7|COMPLETED|scavenger|2023-05-29T02:10:55|2023-05-29T02:34:59|00:24:04|dcc-compeb-02|1|12|20G||/hpc/group/bio1/ian/eurotiomycetes/phylo_scripts/logs|
idm7|COMPLETED|scavenger|2023-05-29T02:11:16|2023-05-29T02:32:31|00:21:15|dcc-youlab-01|1|12|20G||/hpc/group/bio1/ian/eurotiomycetes/phylo_scripts/logs|
idm7|COMPLETED|scavenger|2023-05-29T02:11:43|2023-05-29T03:02:05|00:50:22|dcc-delairelab-01|1|12|20G||/hpc/group/bio1/ian/eurotiomycetes/phylo_scripts/logs|
idm7|COMPLETED|scavenger|2023-05-29T02:13:29|2023-05-29T03:02:15|00:48:46|dcc-delairelab-01|1|12|20G||/hpc/group/bio1/ian/eurotiomycetes/phylo_scripts/logs|
idm7|COMPLETED|scavenger|2023-05-29T02:13:31|2023-05-29T03:02:49|00:49:18|dcc-delairelab-01|1|12|20G||/hpc/group/bio1/ian/eurotiomycetes/phylo_scripts/logs|
idm7|COMPLETED|scavenger|2023-05-29T02:13:36|2023-05-29T02:37:40|00:24:04|dcc-compeb-01|1|12|20G||/hpc/group/bio1/ian/eurotiomycetes/phylo_scripts/logs|
idm7|COMPLETED|scavenger|2023-05-29T02:13:55|2023-05-29T02:46:13|00:32:18|dcc-bragg-01|1|12|20G||/hpc/group/bio1/ian/eurotiomycetes/phylo_scripts/logs|
idm7|COMPLETED|scavenger|2023-05-29T02:14:58|2023-05-29T02:32:00|00:17:02|dcc-dunsonlab-01|1|12|20G||/hpc/group/bio1/ian/eurotiomycetes/phylo_scripts/logs|
idm7|COMPLETED|scavenger|2023-05-29T02:15:19|2023-05-29T02:51:08|00:35:49|dcc-mainsahlab-01|1|12|20G||/hpc/group/bio1/ian/eurotiomycetes/phylo_scripts/logs|
idm7|COMPLETED|scavenger|2023-05-29T02:16:00|2023-05-29T02:39:56|00:23:56|dcc-statdept-01|1|12|20G||/hpc/group/bio1/ian/eurotiomycetes/phylo_scripts/logs|
idm7|COMPLETED|scavenger|2023-05-29T02:16:19|2023-05-29T02:39:19|00:23:00|dcc-bragg-01|1|12|20G||/hpc/group/bio1/ian/eurotiomycetes/phylo_scripts/logs|
idm7|COMPLETED|scavenger|2023-05-29T02:16:32|2023-05-29T02:40:50|00:24:18|dcc-statdept-01|1|12|20G||/hpc/group/bio1/ian/eurotiomycetes/phylo_scripts/logs|
idm7|COMPLETED|scavenger|2023-05-29T02:16:39|2023-05-29T02:43:44|00:27:05|dcc-donglab-01|1|12|20G||/hpc/group/bio1/ian/eurotiomycetes/phylo_scripts/logs|
idm7|COMPLETED|scavenger|2023-05-29T02:17:26|2023-05-29T02:45:01|00:27:35|dcc-donglab-01|1|12|20G||/hpc/group/bio1/ian/eurotiomycetes/phylo_scripts/logs|
idm7|COMPLETED|scavenger|2023-05-29T02:18:00|2023-05-29T02:45:07|00:27:07|dcc-pfister-01|1|12|20G||/hpc/group/bio1/ian/eurotiomycetes/phylo_scripts/logs|
idm7|COMPLETED|scavenger|2023-05-29T02:19:14|2023-05-29T02:51:37|00:32:23|dcc-bragg-02|1|12|20G||/hpc/group/bio1/ian/eurotiomycetes/phylo_scripts/logs|
idm7|COMPLETED|scavenger|2023-05-29T02:19:25|2023-05-29T02:35:44|00:16:19|dcc-dunsonlab-02|1|12|20G||/hpc/group/bio1/ian/eurotiomycetes/phylo_scripts/logs|
idm7|COMPLETED|scavenger|2023-05-29T02:21:01|2023-05-29T02:49:28|00:28:27|dcc-bragg-02|1|12|20G||/hpc/group/bio1/ian/eurotiomycetes/phylo_scripts/logs|
idm7|COMPLETED|scavenger|2023-05-29T02:22:40|2023-05-29T03:03:34|00:40:54|dcc-mainsahlab-01|1|12|20G||/hpc/group/bio1/ian/eurotiomycetes/phylo_scripts/logs|
idm7|COMPLETED|scavenger|2023-05-29T02:22:49|2023-05-29T02:54:44|00:31:55|dcc-bragg-02|1|12|20G||/hpc/group/bio1/ian/eurotiomycetes/phylo_scripts/logs|
idm7|COMPLETED|scavenger|2023-05-29T02:27:19|2023-05-29T02:54:50|00:27:31|dcc-pfister-01|1|12|20G||/hpc/group/bio1/ian/eurotiomycetes/phylo_scripts/logs|
idm7|COMPLETED|scavenger|2023-05-29T02:30:51|2023-05-29T03:02:48|00:31:57|dcc-fergusonlab-01|1|12|20G||/hpc/group/bio1/ian/eurotiomycetes/phylo_scripts/logs|
idm7|COMPLETED|scavenger|2023-05-29T02:30:53|2023-05-29T02:59:51|00:28:58|dcc-fergusonlab-01|1|12|20G||/hpc/group/bio1/ian/eurotiomycetes/phylo_scripts/logs|
idm7|COMPLETED|scavenger|2023-05-29T02:31:05|2023-05-29T02:59:54|00:28:49|dcc-fergusonlab-01|1|12|20G||/hpc/group/bio1/ian/eurotiomycetes/phylo_scripts/logs|
idm7|COMPLETED|scavenger|2023-05-29T02:31:23|2023-05-29T02:55:14|00:23:51|dcc-compeb-02|1|12|20G||/hpc/group/bio1/ian/eurotiomycetes/phylo_scripts/logs|
idm7|COMPLETED|scavenger|2023-05-29T02:32:00|2023-05-29T02:48:05|00:16:05|dcc-dunsonlab-01|1|12|20G||/hpc/group/bio1/ian/eurotiomycetes/phylo_scripts/logs|
idm7|COMPLETED|scavenger|2023-05-29T02:32:14|2023-05-29T02:58:43|00:26:29|dcc-pfister-01|1|12|20G||/hpc/group/bio1/ian/eurotiomycetes/phylo_scripts/logs|
idm7|COMPLETED|scavenger|2023-05-29T02:32:17|2023-05-29T03:09:28|00:37:11|dcc-mainsahlab-01|1|12|20G||/hpc/group/bio1/ian/eurotiomycetes/phylo_scripts/logs|
idm7|COMPLETED|scavenger|2023-05-29T02:32:21|2023-05-29T02:55:09|00:22:48|dcc-youlab-01|1|12|20G||/hpc/group/bio1/ian/eurotiomycetes/phylo_scripts/logs|
idm7|COMPLETED|scavenger|2023-05-29T02:32:31|2023-05-29T02:55:59|00:23:28|dcc-youlab-01|1|12|20G||/hpc/group/bio1/ian/eurotiomycetes/phylo_scripts/logs|
idm7|COMPLETED|scavenger|2023-05-29T02:34:59|2023-05-29T02:58:09|00:23:10|dcc-compeb-02|1|12|20G||/hpc/group/bio1/ian/eurotiomycetes/phylo_scripts/logs|
idm7|COMPLETED|scavenger|2023-05-29T02:35:44|2023-05-29T02:52:00|00:16:16|dcc-dunsonlab-02|1|12|20G||/hpc/group/bio1/ian/eurotiomycetes/phylo_scripts/logs|
idm7|COMPLETED|scavenger|2023-05-29T02:36:49|2023-05-29T03:26:44|00:49:55|dcc-delairelab-01|1|12|20G||/hpc/group/bio1/ian/eurotiomycetes/phylo_scripts/logs|
idm7|COMPLETED|scavenger|2023-05-29T02:37:40|2023-05-29T03:02:28|00:24:48|dcc-compeb-01|1|12|20G||/hpc/group/bio1/ian/eurotiomycetes/phylo_scripts/logs|
idm7|COMPLETED|scavenger|2023-05-29T02:39:19|2023-05-29T03:06:46|00:27:27|dcc-bragg-01|1|12|20G||/hpc/group/bio1/ian/eurotiomycetes/phylo_scripts/logs|
idm7|COMPLETED|scavenger|2023-05-29T02:39:56|2023-05-29T03:04:23|00:24:27|dcc-statdept-01|1|12|20G||/hpc/group/bio1/ian/eurotiomycetes/phylo_scripts/logs|
idm7|COMPLETED|scavenger|2023-05-29T02:39:59|2023-05-29T03:30:29|00:50:30|dcc-delairelab-01|1|12|20G||/hpc/group/bio1/ian/eurotiomycetes/phylo_scripts/logs|
idm7|COMPLETED|scavenger|2023-05-29T02:40:50|2023-05-29T03:05:00|00:24:10|dcc-statdept-01|1|12|20G||/hpc/group/bio1/ian/eurotiomycetes/phylo_scripts/logs|
idm7|COMPLETED|scavenger|2023-05-29T02:43:44|2023-05-29T03:07:57|00:24:13|dcc-donglab-01|1|12|20G||/hpc/group/bio1/ian/eurotiomycetes/phylo_scripts/logs|
idm7|COMPLETED|scavenger|2023-05-29T02:45:01|2023-05-29T03:09:18|00:24:17|dcc-donglab-01|1|12|20G||/hpc/group/bio1/ian/eurotiomycetes/phylo_scripts/logs|
idm7|COMPLETED|scavenger|2023-05-29T02:45:07|2023-05-29T03:11:35|00:26:28|dcc-pfister-01|1|12|20G||/hpc/group/bio1/ian/eurotiomycetes/phylo_scripts/logs|
idm7|COMPLETED|scavenger|2023-05-29T02:46:13|2023-05-29T03:24:35|00:38:22|dcc-mainsahlab-01|1|12|20G||/hpc/group/bio1/ian/eurotiomycetes/phylo_scripts/logs|
idm7|COMPLETED|scavenger|2023-05-29T02:46:15|2023-05-29T03:21:00|00:34:45|dcc-bragg-01|1|12|20G||/hpc/group/bio1/ian/eurotiomycetes/phylo_scripts/logs|
idm7|COMPLETED|scavenger|2023-05-29T02:48:05|2023-05-29T03:04:11|00:16:06|dcc-dunsonlab-01|1|12|20G||/hpc/group/bio1/ian/eurotiomycetes/phylo_scripts/logs|
idm7|COMPLETED|scavenger|2023-05-29T02:49:29|2023-05-29T03:17:31|00:28:02|dcc-bragg-02|1|12|20G||/hpc/group/bio1/ian/eurotiomycetes/phylo_scripts/logs|
idm7|COMPLETED|scavenger|2023-05-29T02:51:08|2023-05-29T03:28:37|00:37:29|dcc-mainsahlab-01|1|12|20G||/hpc/group/bio1/ian/eurotiomycetes/phylo_scripts/logs|
idm7|COMPLETED|scavenger|2023-05-29T02:51:37|2023-05-29T03:23:20|00:31:43|dcc-bragg-02|1|12|20G||/hpc/group/bio1/ian/eurotiomycetes/phylo_scripts/logs|
idm7|COMPLETED|scavenger|2023-05-29T02:52:00|2023-05-29T03:07:58|00:15:58|dcc-dunsonlab-02|1|12|20G||/hpc/group/bio1/ian/eurotiomycetes/phylo_scripts/logs|
idm7|COMPLETED|scavenger|2023-05-29T02:52:15|2023-05-29T03:37:43|00:45:28|dcc-delairelab-01|1|12|20G||/hpc/group/bio1/ian/eurotiomycetes/phylo_scripts/logs|
idm7|COMPLETED|scavenger|2023-05-29T02:54:44|2023-05-29T03:24:26|00:29:42|dcc-bragg-02|1|12|20G||/hpc/group/bio1/ian/eurotiomycetes/phylo_scripts/logs|
idm7|COMPLETED|scavenger|2023-05-29T02:54:50|2023-05-29T03:22:06|00:27:16|dcc-pfister-01|1|12|20G||/hpc/group/bio1/ian/eurotiomycetes/phylo_scripts/logs|
idm7|COMPLETED|scavenger|2023-05-29T02:55:09|2023-05-29T03:17:40|00:22:31|dcc-youlab-01|1|12|20G||/hpc/group/bio1/ian/eurotiomycetes/phylo_scripts/logs|
idm7|COMPLETED|scavenger|2023-05-29T02:55:14|2023-05-29T03:19:09|00:23:55|dcc-compeb-02|1|12|20G||/hpc/group/bio1/ian/eurotiomycetes/phylo_scripts/logs|
idm7|COMPLETED|scavenger|2023-05-29T02:55:59|2023-05-29T03:16:50|00:20:51|dcc-youlab-01|1|12|20G||/hpc/group/bio1/ian/eurotiomycetes/phylo_scripts/logs|
idm7|COMPLETED|scavenger|2023-05-29T02:58:09|2023-05-29T03:20:59|00:22:50|dcc-compeb-02|1|12|20G||/hpc/group/bio1/ian/eurotiomycetes/phylo_scripts/logs|
idm7|COMPLETED|scavenger|2023-05-29T02:58:43|2023-05-29T03:25:23|00:26:40|dcc-pfister-01|1|12|20G||/hpc/group/bio1/ian/eurotiomycetes/phylo_scripts/logs|
idm7|COMPLETED|scavenger|2023-05-29T02:59:51|2023-05-29T03:25:02|00:25:11|dcc-fergusonlab-01|1|12|20G||/hpc/group/bio1/ian/eurotiomycetes/phylo_scripts/logs|
idm7|COMPLETED|scavenger|2023-05-29T02:59:54|2023-05-29T03:28:00|00:28:06|dcc-fergusonlab-01|1|12|20G||/hpc/group/bio1/ian/eurotiomycetes/phylo_scripts/logs|
idm7|COMPLETED|scavenger|2023-05-29T03:02:05|2023-05-29T03:41:43|00:39:38|dcc-delairelab-01|1|12|20G||/hpc/group/bio1/ian/eurotiomycetes/phylo_scripts/logs|
idm7|COMPLETED|scavenger|2023-05-29T03:02:15|2023-05-29T03:41:54|00:39:39|dcc-delairelab-01|1|12|20G||/hpc/group/bio1/ian/eurotiomycetes/phylo_scripts/logs|
idm7|COMPLETED|scavenger|2023-05-29T03:02:29|2023-05-29T03:29:41|00:27:12|dcc-compeb-01|1|12|20G||/hpc/group/bio1/ian/eurotiomycetes/phylo_scripts/logs|
idm7|COMPLETED|scavenger|2023-05-29T03:02:48|2023-05-29T03:30:01|00:27:13|dcc-fergusonlab-01|1|12|20G||/hpc/group/bio1/ian/eurotiomycetes/phylo_scripts/logs|
idm7|COMPLETED|scavenger|2023-05-29T03:02:50|2023-05-29T03:42:05|00:39:15|dcc-delairelab-01|1|12|20G||/hpc/group/bio1/ian/eurotiomycetes/phylo_scripts/logs|
idm7|COMPLETED|scavenger|2023-05-29T03:03:34|2023-05-29T03:35:34|00:32:00|dcc-mainsahlab-01|1|12|20G||/hpc/group/bio1/ian/eurotiomycetes/phylo_scripts/logs|
idm7|COMPLETED|scavenger|2023-05-29T03:04:11|2023-05-29T03:22:01|00:17:50|dcc-dunsonlab-01|1|12|20G||/hpc/group/bio1/ian/eurotiomycetes/phylo_scripts/logs|
idm7|COMPLETED|scavenger|2023-05-29T03:04:23|2023-05-29T03:30:36|00:26:13|dcc-statdept-01|1|12|20G||/hpc/group/bio1/ian/eurotiomycetes/phylo_scripts/logs|
idm7|COMPLETED|scavenger|2023-05-29T03:05:00|2023-05-29T03:30:23|00:25:23|dcc-statdept-01|1|12|20G||/hpc/group/bio1/ian/eurotiomycetes/phylo_scripts/logs|
idm7|COMPLETED|scavenger|2023-05-29T03:06:46|2023-05-29T03:29:37|00:22:51|dcc-bragg-01|1|12|20G||/hpc/group/bio1/ian/eurotiomycetes/phylo_scripts/logs|
idm7|COMPLETED|scavenger|2023-05-29T03:07:58|2023-05-29T03:34:18|00:26:20|dcc-donglab-01|1|12|20G||/hpc/group/bio1/ian/eurotiomycetes/phylo_scripts/logs|
idm7|COMPLETED|scavenger|2023-05-29T03:07:58|2023-05-29T03:24:26|00:16:28|dcc-dunsonlab-02|1|12|20G||/hpc/group/bio1/ian/eurotiomycetes/phylo_scripts/logs|
idm7|COMPLETED|scavenger|2023-05-29T03:09:18|2023-05-29T03:34:59|00:25:41|dcc-donglab-01|1|12|20G||/hpc/group/bio1/ian/eurotiomycetes/phylo_scripts/logs|
idm7|COMPLETED|scavenger|2023-05-29T03:09:29|2023-05-29T03:36:59|00:27:30|dcc-mainsahlab-01|1|12|20G||/hpc/group/bio1/ian/eurotiomycetes/phylo_scripts/logs|
idm7|COMPLETED|scavenger|2023-05-29T03:11:35|2023-05-29T03:32:44|00:21:09|dcc-pfister-01|1|12|20G||/hpc/group/bio1/ian/eurotiomycetes/phylo_scripts/logs|
idm7|COMPLETED|scavenger|2023-05-29T03:16:50|2023-05-29T03:37:43|00:20:53|dcc-youlab-01|1|12|20G||/hpc/group/bio1/ian/eurotiomycetes/phylo_scripts/logs|
idm7|COMPLETED|scavenger|2023-05-29T03:17:31|2023-05-29T03:38:44|00:21:13|dcc-bragg-02|1|12|20G||/hpc/group/bio1/ian/eurotiomycetes/phylo_scripts/logs|
idm7|COMPLETED|scavenger|2023-05-29T03:17:41|2023-05-29T03:39:25|00:21:44|dcc-youlab-01|1|12|20G||/hpc/group/bio1/ian/eurotiomycetes/phylo_scripts/logs|
idm7|COMPLETED|scavenger|2023-05-29T03:19:09|2023-05-29T03:41:48|00:22:39|dcc-compeb-02|1|12|20G||/hpc/group/bio1/ian/eurotiomycetes/phylo_scripts/logs|
idm7|COMPLETED|scavenger|2023-05-29T03:20:59|2023-05-29T03:44:30|00:23:31|dcc-compeb-02|1|12|20G||/hpc/group/bio1/ian/eurotiomycetes/phylo_scripts/logs|
idm7|COMPLETED|scavenger|2023-05-29T03:21:01|2023-05-29T03:50:16|00:29:15|dcc-bragg-01|1|12|20G||/hpc/group/bio1/ian/eurotiomycetes/phylo_scripts/logs|
ts349|FAILED|scavenger|2023-05-28T23:55:35|2023-05-29T01:00:15|01:04:40|dcc-bragg-02|1|16|32G||/datacommons/ydiaolab/diaolab_group/sun|
