pz19|RUNNING|scavenger|2023-03-29T09:52:04|Unknown|77-04:30:15|dcc-fergusonlab-05|1|10|457000M||/work/pz19/Jiaqi/13e14o|
smokeauth2-tst|NODE_FAIL|scavenger|2023-04-18T10:56:00|2023-05-29T17:29:37|41-06:33:37|dcc-tunglab-02|1|1|2G||/hpc/home/smokeauth2-tst|
smokeauth2-tst|RUNNING|scavenger|2023-04-18T12:49:48|Unknown|57-01:32:31|dcc-noor-01|1|1|2G||/hpc/home/smokeauth2-tst|
fjm7|RUNNING|scavenger|2023-04-23T15:19:07|Unknown|51-23:03:12|dcc-noor-01|1|1|2G||/hpc/group/brownlab/fjm7/new-data-collection/slurm-runners|
fjm7|RUNNING|scavenger|2023-04-23T15:19:07|Unknown|51-23:03:12|dcc-noor-01|1|1|2G||/hpc/group/brownlab/fjm7/new-data-collection/slurm-runners|
fjm7|RUNNING|scavenger|2023-04-23T15:19:07|Unknown|51-23:03:12|dcc-noor-01|1|1|2G||/hpc/group/brownlab/fjm7/new-data-collection/slurm-runners|
fjm7|RUNNING|scavenger|2023-04-23T15:19:08|Unknown|51-23:03:11|dcc-noor-01|1|1|2G||/hpc/group/brownlab/fjm7/new-data-collection/slurm-runners|
fjm7|RUNNING|scavenger|2023-04-23T15:19:08|Unknown|51-23:03:11|dcc-noor-01|1|1|2G||/hpc/group/brownlab/fjm7/new-data-collection/slurm-runners|
lh342|TIMEOUT|scavenger|2023-05-02T03:05:50|2023-06-01T03:06:14|30-00:00:24|dcc-compeb-02|1|8|16G||/hpc/home/lh342/ondemand/data/sys/dashboard/batch_connect/sys/bc_desktop/dcc/output/702824cf-eb77-47a5-9f97-205f479dd2d4|
cw446|CANCELLED by 1401348|scavenger|2023-05-08T23:40:21|2023-05-30T10:48:58|21-11:08:37|dcc-fergusonlab-04|1|5|300G||/hpc/group/jilab/changxin|
smokeauth2-tst|RUNNING|scavenger|2023-05-09T00:51:37|Unknown|36-13:30:42|dcc-wychem-01|1|1|2G||/hpc/home/smokeauth2-tst|
pz19|TIMEOUT|scavenger|2023-05-15T19:38:05|2023-05-26T09:38:25|10-14:00:20|dcc-fergusonlab-01|1|16|25408M||/work/pz19/Wang/Copper/Silicon/TS_06_3Lig/M06L|
pz19|TIMEOUT|scavenger|2023-05-15T23:18:17|2023-05-26T13:18:19|10-14:00:02|dcc-compeb-01|1|16|25408M||/work/pz19/Wang/Copper/Silicon/TS_06_3Lig/MN15|
pz19|COMPLETED|scavenger|2023-05-15T23:21:42|2023-05-30T14:18:14|14-14:56:32|dcc-fergusonlab-01|1|16|32000M||/work/pz19/Dexter|
lh342|RUNNING|scavenger|2023-05-16T10:36:56|Unknown|29-03:45:23|dcc-carin-23|1|8|16G||/hpc/home/lh342/ondemand/data/sys/dashboard/batch_connect/sys/bc_desktop/dcc/output/594ab9c6-93bc-4698-ac53-905dbde8eef7|
hk288|CANCELLED by 1484570|scavenger|2023-05-16T14:31:16|2023-05-24T09:24:07|7-18:52:51|dcc-gcb-02|1|40|80G||/hpc/group/mastatlab/hk288/code_hp_paral|
hk288|CANCELLED by 1484570|scavenger|2023-05-16T14:33:02|2023-05-24T09:24:07|7-18:51:05|dcc-donglab-01|1|40|80G||/hpc/group/mastatlab/hk288/code_hp_paral|
pz19|PREEMPTED|scavenger|2023-05-17T12:31:28|2023-05-24T11:00:43|6-22:29:15|dcc-bragg-02|1|16|25408M||/work/pz19/Wang/Copper/Silicon/TS_06_3LigOAc/B3LYP|
ew198|COMPLETED|scavenger|2023-05-17T15:01:57|2023-05-30T13:18:19|12-22:16:22|dcc-youlab-01|1|1|125G||/cifs/hariri-long/Projects/Annchen/Scripts/ArealMSHBM|
ew198|COMPLETED|scavenger|2023-05-17T15:01:57|2023-05-30T13:18:47|12-22:16:50|dcc-wychem-01|1|1|16000M||/cifs/hariri-long/Projects/Annchen/Scripts/ArealMSHBM|
ew198|COMPLETED|scavenger|2023-05-17T15:01:57|2023-05-30T13:18:47|12-22:16:50|dcc-wychem-01|1|1|16000M||/cifs/hariri-long/Projects/Annchen/Scripts/ArealMSHBM|
ew198|COMPLETED|scavenger|2023-05-17T15:01:57|2023-05-30T13:18:47|12-22:16:50|dcc-wychem-01|1|1|16000M||/cifs/hariri-long/Projects/Annchen/Scripts/ArealMSHBM|
ew198|COMPLETED|scavenger|2023-05-17T15:01:57|2023-05-30T13:18:47|12-22:16:50|dcc-wychem-01|1|1|16000M||/cifs/hariri-long/Projects/Annchen/Scripts/ArealMSHBM|
ew198|COMPLETED|scavenger|2023-05-17T15:01:57|2023-05-30T13:18:47|12-22:16:50|dcc-wychem-01|1|1|16000M||/cifs/hariri-long/Projects/Annchen/Scripts/ArealMSHBM|
ew198|COMPLETED|scavenger|2023-05-17T15:01:57|2023-05-30T13:18:47|12-22:16:50|dcc-wychem-01|1|1|16000M||/cifs/hariri-long/Projects/Annchen/Scripts/ArealMSHBM|
ew198|COMPLETED|scavenger|2023-05-17T15:01:57|2023-05-30T13:18:47|12-22:16:50|dcc-wychem-01|1|1|16000M||/cifs/hariri-long/Projects/Annchen/Scripts/ArealMSHBM|
ew198|COMPLETED|scavenger|2023-05-17T15:01:57|2023-05-30T13:18:47|12-22:16:50|dcc-wychem-01|1|1|16000M||/cifs/hariri-long/Projects/Annchen/Scripts/ArealMSHBM|
ew198|COMPLETED|scavenger|2023-05-17T15:01:57|2023-05-30T13:18:47|12-22:16:50|dcc-wychem-01|1|1|16000M||/cifs/hariri-long/Projects/Annchen/Scripts/ArealMSHBM|
ew198|NODE_FAIL|scavenger|2023-05-17T15:01:57|2023-05-29T17:29:37|12-02:27:40|dcc-tunglab-02|1|1|16000M||/cifs/hariri-long/Projects/Annchen/Scripts/ArealMSHBM|
ew198|NODE_FAIL|scavenger|2023-05-17T15:01:57|2023-05-29T17:29:37|12-02:27:40|dcc-tunglab-02|1|1|16000M||/cifs/hariri-long/Projects/Annchen/Scripts/ArealMSHBM|
ew198|NODE_FAIL|scavenger|2023-05-17T15:01:57|2023-05-29T17:29:37|12-02:27:40|dcc-tunglab-02|1|1|16000M||/cifs/hariri-long/Projects/Annchen/Scripts/ArealMSHBM|
ew198|NODE_FAIL|scavenger|2023-05-17T15:01:57|2023-05-29T17:29:37|12-02:27:40|dcc-tunglab-02|1|1|16000M||/cifs/hariri-long/Projects/Annchen/Scripts/ArealMSHBM|
ew198|NODE_FAIL|scavenger|2023-05-17T15:01:58|2023-05-29T17:29:37|12-02:27:39|dcc-tunglab-02|1|1|16000M||/cifs/hariri-long/Projects/Annchen/Scripts/ArealMSHBM|
ew198|NODE_FAIL|scavenger|2023-05-17T15:01:58|2023-05-29T17:29:37|12-02:27:39|dcc-tunglab-02|1|1|16000M||/cifs/hariri-long/Projects/Annchen/Scripts/ArealMSHBM|
ew198|NODE_FAIL|scavenger|2023-05-17T15:01:58|2023-05-29T17:29:37|12-02:27:39|dcc-tunglab-02|1|1|125G||/cifs/hariri-long/Projects/Annchen/Scripts/ArealMSHBM|
ew198|NODE_FAIL|scavenger|2023-05-17T15:01:58|2023-05-29T17:29:37|12-02:27:39|dcc-tunglab-02|1|1|16000M||/cifs/hariri-long/Projects/Annchen/Scripts/ArealMSHBM|
ew198|NODE_FAIL|scavenger|2023-05-17T15:01:58|2023-05-29T17:29:37|12-02:27:39|dcc-tunglab-02|1|1|16000M||/cifs/hariri-long/Projects/Annchen/Scripts/ArealMSHBM|
ew198|NODE_FAIL|scavenger|2023-05-17T15:01:58|2023-05-29T17:29:37|12-02:27:39|dcc-tunglab-02|1|1|16000M||/cifs/hariri-long/Projects/Annchen/Scripts/ArealMSHBM|
ew198|NODE_FAIL|scavenger|2023-05-17T15:01:58|2023-05-29T17:29:37|12-02:27:39|dcc-tunglab-02|1|1|16000M||/cifs/hariri-long/Projects/Annchen/Scripts/ArealMSHBM|
ew198|NODE_FAIL|scavenger|2023-05-17T15:01:58|2023-05-29T17:29:37|12-02:27:39|dcc-tunglab-02|1|1|16000M||/cifs/hariri-long/Projects/Annchen/Scripts/ArealMSHBM|
ew198|COMPLETED|scavenger|2023-05-17T15:01:58|2023-05-30T13:18:33|12-22:16:35|dcc-tunglab-01|1|1|16000M||/cifs/hariri-long/Projects/Annchen/Scripts/ArealMSHBM|
ew198|PREEMPTED|scavenger|2023-05-17T15:01:58|2023-05-31T16:16:08|14-01:14:10|dcc-tunglab-01|1|1|16000M||/cifs/hariri-long/Projects/Annchen/Scripts/ArealMSHBM|
ew198|COMPLETED|scavenger|2023-05-17T15:01:58|2023-05-30T13:18:33|12-22:16:35|dcc-tunglab-01|1|1|16000M||/cifs/hariri-long/Projects/Annchen/Scripts/ArealMSHBM|
ew198|PREEMPTED|scavenger|2023-05-17T15:01:58|2023-05-31T16:35:14|14-01:33:16|dcc-tunglab-01|1|1|16000M||/cifs/hariri-long/Projects/Annchen/Scripts/ArealMSHBM|
ew198|COMPLETED|scavenger|2023-05-17T15:01:58|2023-05-30T13:18:33|12-22:16:35|dcc-tunglab-01|1|1|16000M||/cifs/hariri-long/Projects/Annchen/Scripts/ArealMSHBM|
ew198|PREEMPTED|scavenger|2023-05-17T15:01:58|2023-05-31T16:35:18|14-01:33:20|dcc-tunglab-01|1|1|16000M||/cifs/hariri-long/Projects/Annchen/Scripts/ArealMSHBM|
ew198|COMPLETED|scavenger|2023-05-17T15:01:58|2023-05-30T13:18:33|12-22:16:35|dcc-tunglab-01|1|1|16000M||/cifs/hariri-long/Projects/Annchen/Scripts/ArealMSHBM|
ew198|PREEMPTED|scavenger|2023-05-17T15:01:58|2023-05-31T16:35:25|14-01:33:27|dcc-tunglab-01|1|1|16000M||/cifs/hariri-long/Projects/Annchen/Scripts/ArealMSHBM|
ew198|COMPLETED|scavenger|2023-05-17T15:01:59|2023-05-30T13:18:33|12-22:16:34|dcc-tunglab-01|1|1|16000M||/cifs/hariri-long/Projects/Annchen/Scripts/ArealMSHBM|
ew198|PREEMPTED|scavenger|2023-05-17T15:01:59|2023-05-31T16:35:32|14-01:33:33|dcc-tunglab-01|1|1|16000M||/cifs/hariri-long/Projects/Annchen/Scripts/ArealMSHBM|
ew198|COMPLETED|scavenger|2023-05-17T15:01:59|2023-05-30T13:18:47|12-22:16:48|dcc-tmolab-02|1|1|16000M||/cifs/hariri-long/Projects/Annchen/Scripts/ArealMSHBM|
ew198|CANCELLED by 1455533|scavenger|2023-05-17T15:01:59|2023-06-02T11:18:52|15-20:16:53|dcc-tmolab-02|1|1|16000M||/cifs/hariri-long/Projects/Annchen/Scripts/ArealMSHBM|
ew198|COMPLETED|scavenger|2023-05-17T15:01:59|2023-05-30T13:18:47|12-22:16:48|dcc-tmolab-02|1|1|16000M||/cifs/hariri-long/Projects/Annchen/Scripts/ArealMSHBM|
ew198|CANCELLED by 1455533|scavenger|2023-05-17T15:01:59|2023-06-02T11:18:52|15-20:16:53|dcc-tmolab-02|1|1|16000M||/cifs/hariri-long/Projects/Annchen/Scripts/ArealMSHBM|
ew198|COMPLETED|scavenger|2023-05-17T15:01:59|2023-05-30T13:18:47|12-22:16:48|dcc-tmolab-02|1|1|16000M||/cifs/hariri-long/Projects/Annchen/Scripts/ArealMSHBM|
ew198|CANCELLED by 1455533|scavenger|2023-05-17T15:01:59|2023-06-02T11:18:52|15-20:16:53|dcc-tmolab-02|1|1|16000M||/cifs/hariri-long/Projects/Annchen/Scripts/ArealMSHBM|
ew198|COMPLETED|scavenger|2023-05-17T15:01:59|2023-05-30T13:18:47|12-22:16:48|dcc-tmolab-02|1|1|16000M||/cifs/hariri-long/Projects/Annchen/Scripts/ArealMSHBM|
ew198|CANCELLED by 1455533|scavenger|2023-05-17T15:01:59|2023-06-02T11:18:52|15-20:16:53|dcc-tmolab-02|1|1|16000M||/cifs/hariri-long/Projects/Annchen/Scripts/ArealMSHBM|
ew198|COMPLETED|scavenger|2023-05-17T15:01:59|2023-05-30T13:18:44|12-22:16:45|dcc-tmolab-01|1|1|16000M||/cifs/hariri-long/Projects/Annchen/Scripts/ArealMSHBM|
ew198|CANCELLED by 1455533|scavenger|2023-05-17T15:01:59|2023-06-02T11:18:52|15-20:16:53|dcc-tmolab-01|1|1|16000M||/cifs/hariri-long/Projects/Annchen/Scripts/ArealMSHBM|
ew198|COMPLETED|scavenger|2023-05-17T15:01:59|2023-05-30T13:18:44|12-22:16:45|dcc-tmolab-01|1|1|16000M||/cifs/hariri-long/Projects/Annchen/Scripts/ArealMSHBM|
ew198|CANCELLED by 1455533|scavenger|2023-05-17T15:01:59|2023-06-02T11:18:52|15-20:16:53|dcc-tmolab-01|1|1|16000M||/cifs/hariri-long/Projects/Annchen/Scripts/ArealMSHBM|
ew198|COMPLETED|scavenger|2023-05-17T15:01:59|2023-05-30T13:18:44|12-22:16:45|dcc-tmolab-01|1|1|16000M||/cifs/hariri-long/Projects/Annchen/Scripts/ArealMSHBM|
ew198|CANCELLED by 1455533|scavenger|2023-05-17T15:01:59|2023-06-02T11:18:52|15-20:16:53|dcc-tmolab-01|1|1|16000M||/cifs/hariri-long/Projects/Annchen/Scripts/ArealMSHBM|
ew198|CANCELLED by 1455533|scavenger|2023-05-17T15:01:59|2023-06-02T11:18:52|15-20:16:53|dcc-tmolab-01|1|1|16000M||/cifs/hariri-long/Projects/Annchen/Scripts/ArealMSHBM|
ew198|PREEMPTED|scavenger|2023-05-17T15:01:59|2023-05-26T08:21:05|8-17:19:06|dcc-statdept-01|1|1|16000M||/cifs/hariri-long/Projects/Annchen/Scripts/ArealMSHBM|
ew198|PREEMPTED|scavenger|2023-05-17T15:01:59|2023-05-26T08:21:05|8-17:19:06|dcc-statdept-01|1|1|16000M||/cifs/hariri-long/Projects/Annchen/Scripts/ArealMSHBM|
ew198|PREEMPTED|scavenger|2023-05-17T15:01:59|2023-05-27T14:07:00|9-23:05:01|dcc-statdept-01|1|1|16000M||/cifs/hariri-long/Projects/Annchen/Scripts/ArealMSHBM|
ew198|PREEMPTED|scavenger|2023-05-17T15:01:59|2023-05-27T14:07:00|9-23:05:01|dcc-statdept-01|1|1|16000M||/cifs/hariri-long/Projects/Annchen/Scripts/ArealMSHBM|
ew198|PREEMPTED|scavenger|2023-05-17T15:01:59|2023-05-27T14:07:00|9-23:05:01|dcc-statdept-01|1|1|16000M||/cifs/hariri-long/Projects/Annchen/Scripts/ArealMSHBM|
ew198|PREEMPTED|scavenger|2023-05-17T15:01:59|2023-05-27T14:07:00|9-23:05:01|dcc-statdept-01|1|1|16000M||/cifs/hariri-long/Projects/Annchen/Scripts/ArealMSHBM|
ew198|PREEMPTED|scavenger|2023-05-17T15:01:59|2023-05-27T14:07:00|9-23:05:01|dcc-statdept-01|1|1|16000M||/cifs/hariri-long/Projects/Annchen/Scripts/ArealMSHBM|
ew198|PREEMPTED|scavenger|2023-05-17T15:01:59|2023-05-27T14:07:00|9-23:05:01|dcc-statdept-01|1|1|16000M||/cifs/hariri-long/Projects/Annchen/Scripts/ArealMSHBM|
ew198|PREEMPTED|scavenger|2023-05-17T15:01:59|2023-05-27T14:07:00|9-23:05:01|dcc-statdept-01|1|1|16000M||/cifs/hariri-long/Projects/Annchen/Scripts/ArealMSHBM|
ew198|PREEMPTED|scavenger|2023-05-17T15:01:59|2023-05-27T14:07:00|9-23:05:01|dcc-statdept-01|1|1|16000M||/cifs/hariri-long/Projects/Annchen/Scripts/ArealMSHBM|
ew198|PREEMPTED|scavenger|2023-05-17T15:02:00|2023-05-27T14:07:00|9-23:05:00|dcc-statdept-01|1|1|16000M||/cifs/hariri-long/Projects/Annchen/Scripts/ArealMSHBM|
ew198|COMPLETED|scavenger|2023-05-17T15:02:00|2023-05-30T13:19:00|12-22:17:00|dcc-statdept-01|1|1|16000M||/cifs/hariri-long/Projects/Annchen/Scripts/ArealMSHBM|
ew198|CANCELLED by 1455533|scavenger|2023-05-17T15:02:00|2023-06-02T11:18:52|15-20:16:52|dcc-statdept-01|1|1|16000M||/cifs/hariri-long/Projects/Annchen/Scripts/ArealMSHBM|
ew198|COMPLETED|scavenger|2023-05-17T15:02:30|2023-05-30T13:19:00|12-22:16:30|dcc-statdept-01|1|1|16000M||/cifs/hariri-long/Projects/Annchen/Scripts/ArealMSHBM|
ew198|CANCELLED by 1455533|scavenger|2023-05-17T15:02:30|2023-06-02T11:18:52|15-20:16:22|dcc-savageresearch-02|1|1|16000M||/cifs/hariri-long/Projects/Annchen/Scripts/ArealMSHBM|
ew198|COMPLETED|scavenger|2023-05-17T15:02:30|2023-05-30T13:18:35|12-22:16:05|dcc-savageresearch-02|1|1|16000M||/cifs/hariri-long/Projects/Annchen/Scripts/ArealMSHBM|
ew198|COMPLETED|scavenger|2023-05-17T15:02:30|2023-05-30T13:18:35|12-22:16:05|dcc-savageresearch-02|1|1|16000M||/cifs/hariri-long/Projects/Annchen/Scripts/ArealMSHBM|
ew198|CANCELLED by 1455533|scavenger|2023-05-17T15:02:30|2023-06-02T11:18:52|15-20:16:22|dcc-savageresearch-02|1|1|16000M||/cifs/hariri-long/Projects/Annchen/Scripts/ArealMSHBM|
ew198|CANCELLED by 1455533|scavenger|2023-05-17T15:02:30|2023-06-02T11:18:52|15-20:16:22|dcc-savageresearch-02|1|1|16000M||/cifs/hariri-long/Projects/Annchen/Scripts/ArealMSHBM|
ew198|COMPLETED|scavenger|2023-05-17T15:02:30|2023-05-30T13:18:35|12-22:16:05|dcc-savageresearch-02|1|1|16000M||/cifs/hariri-long/Projects/Annchen/Scripts/ArealMSHBM|
ew198|COMPLETED|scavenger|2023-05-17T15:02:31|2023-05-30T13:18:35|12-22:16:04|dcc-savageresearch-02|1|1|16000M||/cifs/hariri-long/Projects/Annchen/Scripts/ArealMSHBM|
ew198|CANCELLED by 1455533|scavenger|2023-05-17T15:02:31|2023-06-02T11:18:52|15-20:16:21|dcc-savageresearch-02|1|1|16000M||/cifs/hariri-long/Projects/Annchen/Scripts/ArealMSHBM|
ew198|COMPLETED|scavenger|2023-05-17T15:02:31|2023-05-30T13:18:35|12-22:16:04|dcc-savageresearch-02|1|1|16000M||/cifs/hariri-long/Projects/Annchen/Scripts/ArealMSHBM|
ew198|CANCELLED by 1455533|scavenger|2023-05-17T15:02:31|2023-06-02T11:18:52|15-20:16:21|dcc-savageresearch-02|1|1|16000M||/cifs/hariri-long/Projects/Annchen/Scripts/ArealMSHBM|
ew198|CANCELLED by 1455533|scavenger|2023-05-17T15:02:31|2023-06-02T11:18:52|15-20:16:21|dcc-savageresearch-02|1|1|16000M||/cifs/hariri-long/Projects/Annchen/Scripts/ArealMSHBM|
ew198|COMPLETED|scavenger|2023-05-17T15:02:31|2023-05-30T13:18:35|12-22:16:04|dcc-savageresearch-02|1|1|16000M||/cifs/hariri-long/Projects/Annchen/Scripts/ArealMSHBM|
ew198|COMPLETED|scavenger|2023-05-17T15:02:31|2023-05-30T13:18:35|12-22:16:04|dcc-savageresearch-01|1|1|16000M||/cifs/hariri-long/Projects/Annchen/Scripts/ArealMSHBM|
ew198|CANCELLED by 1455533|scavenger|2023-05-17T15:02:31|2023-06-02T11:18:52|15-20:16:21|dcc-savageresearch-01|1|1|16000M||/cifs/hariri-long/Projects/Annchen/Scripts/ArealMSHBM|
ew198|CANCELLED by 1455533|scavenger|2023-05-17T15:02:31|2023-06-02T11:18:52|15-20:16:21|dcc-savageresearch-01|1|1|16000M||/cifs/hariri-long/Projects/Annchen/Scripts/ArealMSHBM|
ew198|COMPLETED|scavenger|2023-05-17T15:02:31|2023-05-30T13:18:35|12-22:16:04|dcc-savageresearch-01|1|1|16000M||/cifs/hariri-long/Projects/Annchen/Scripts/ArealMSHBM|
ew198|CANCELLED by 1455533|scavenger|2023-05-17T15:02:31|2023-06-02T11:18:52|15-20:16:21|dcc-savageresearch-01|1|1|16000M||/cifs/hariri-long/Projects/Annchen/Scripts/ArealMSHBM|
ew198|COMPLETED|scavenger|2023-05-17T15:02:31|2023-05-30T13:18:35|12-22:16:04|dcc-savageresearch-01|1|1|16000M||/cifs/hariri-long/Projects/Annchen/Scripts/ArealMSHBM|
ew198|CANCELLED by 1455533|scavenger|2023-05-17T15:02:31|2023-06-02T11:18:52|15-20:16:21|dcc-rausherlab-02|1|1|16000M||/cifs/hariri-long/Projects/Annchen/Scripts/ArealMSHBM|
ew198|COMPLETED|scavenger|2023-05-17T15:02:31|2023-05-30T13:18:52|12-22:16:21|dcc-rausherlab-02|1|1|16000M||/cifs/hariri-long/Projects/Annchen/Scripts/ArealMSHBM|
ew198|CANCELLED by 1455533|scavenger|2023-05-17T15:02:31|2023-06-02T11:18:52|15-20:16:21|dcc-rausherlab-01|1|1|16000M||/cifs/hariri-long/Projects/Annchen/Scripts/ArealMSHBM|
ew198|COMPLETED|scavenger|2023-05-17T15:02:31|2023-05-30T13:18:42|12-22:16:11|dcc-rausherlab-01|1|1|16000M||/cifs/hariri-long/Projects/Annchen/Scripts/ArealMSHBM|
ew198|CANCELLED by 1455533|scavenger|2023-05-17T15:02:31|2023-06-02T11:18:52|15-20:16:21|dcc-rausherlab-01|1|1|16000M||/cifs/hariri-long/Projects/Annchen/Scripts/ArealMSHBM|
ew198|COMPLETED|scavenger|2023-05-17T15:02:32|2023-05-30T13:18:42|12-22:16:10|dcc-rausherlab-01|1|1|16000M||/cifs/hariri-long/Projects/Annchen/Scripts/ArealMSHBM|
ew198|CANCELLED by 1455533|scavenger|2023-05-17T15:02:32|2023-06-02T11:18:52|15-20:16:20|dcc-rausherlab-01|1|1|16000M||/cifs/hariri-long/Projects/Annchen/Scripts/ArealMSHBM|
ew198|COMPLETED|scavenger|2023-05-17T15:02:32|2023-05-30T13:18:44|12-22:16:12|dcc-rausherlab-01|1|1|16000M||/cifs/hariri-long/Projects/Annchen/Scripts/ArealMSHBM|
ew198|CANCELLED by 1455533|scavenger|2023-05-17T15:02:32|2023-06-02T11:18:52|15-20:16:20|dcc-rausherlab-01|1|1|16000M||/cifs/hariri-long/Projects/Annchen/Scripts/ArealMSHBM|
ew198|COMPLETED|scavenger|2023-05-17T15:02:32|2023-05-30T13:18:44|12-22:16:12|dcc-rausherlab-01|1|1|16000M||/cifs/hariri-long/Projects/Annchen/Scripts/ArealMSHBM|
ew198|CANCELLED by 1455533|scavenger|2023-05-17T15:02:32|2023-06-02T11:18:52|15-20:16:20|dcc-pfister-01|1|1|16000M||/cifs/hariri-long/Projects/Annchen/Scripts/ArealMSHBM|
ew198|CANCELLED by 1455533|scavenger|2023-05-17T15:02:32|2023-06-02T11:18:52|15-20:16:20|dcc-pfister-01|1|1|16000M||/cifs/hariri-long/Projects/Annchen/Scripts/ArealMSHBM|
ew198|CANCELLED by 1455533|scavenger|2023-05-17T15:02:32|2023-06-02T11:18:52|15-20:16:20|dcc-pfister-01|1|1|16000M||/cifs/hariri-long/Projects/Annchen/Scripts/ArealMSHBM|
ew198|CANCELLED by 1455533|scavenger|2023-05-17T15:02:32|2023-06-02T11:18:52|15-20:16:20|dcc-pfister-01|1|1|16000M||/cifs/hariri-long/Projects/Annchen/Scripts/ArealMSHBM|
ew198|CANCELLED by 1455533|scavenger|2023-05-17T15:02:32|2023-06-02T11:18:52|15-20:16:20|dcc-pfister-01|1|1|16000M||/cifs/hariri-long/Projects/Annchen/Scripts/ArealMSHBM|
ew198|CANCELLED by 1455533|scavenger|2023-05-17T15:02:32|2023-06-02T11:18:52|15-20:16:20|dcc-pfister-01|1|1|16000M||/cifs/hariri-long/Projects/Annchen/Scripts/ArealMSHBM|
ew198|CANCELLED by 1455533|scavenger|2023-05-17T15:02:32|2023-06-02T11:18:52|15-20:16:20|dcc-pfister-01|1|1|16000M||/cifs/hariri-long/Projects/Annchen/Scripts/ArealMSHBM|
ew198|CANCELLED by 1455533|scavenger|2023-05-17T15:02:32|2023-06-02T11:18:52|15-20:16:20|dcc-pfister-01|1|1|16000M||/cifs/hariri-long/Projects/Annchen/Scripts/ArealMSHBM|
ew198|CANCELLED by 1455533|scavenger|2023-05-17T15:02:32|2023-06-02T11:18:52|15-20:16:20|dcc-pfister-01|1|1|16000M||/cifs/hariri-long/Projects/Annchen/Scripts/ArealMSHBM|
ew198|CANCELLED by 1455533|scavenger|2023-05-17T15:02:32|2023-06-02T11:18:52|15-20:16:20|dcc-pfister-01|1|1|16000M||/cifs/hariri-long/Projects/Annchen/Scripts/ArealMSHBM|
ew198|CANCELLED by 1455533|scavenger|2023-05-17T15:02:32|2023-06-02T11:18:52|15-20:16:20|dcc-pfister-01|1|1|16000M||/cifs/hariri-long/Projects/Annchen/Scripts/ArealMSHBM|
ew198|CANCELLED by 1455533|scavenger|2023-05-17T15:02:32|2023-06-02T11:18:52|15-20:16:20|dcc-pfister-01|1|1|16000M||/cifs/hariri-long/Projects/Annchen/Scripts/ArealMSHBM|
ew198|CANCELLED by 1455533|scavenger|2023-05-17T15:02:32|2023-06-02T11:18:52|15-20:16:20|dcc-pfister-01|1|1|16000M||/cifs/hariri-long/Projects/Annchen/Scripts/ArealMSHBM|
hk288|OUT_OF_MEMORY|scavenger|2023-05-17T22:39:19|2023-05-24T05:21:14|6-06:41:55|dcc-compeb-03|1|40|80G||/hpc/group/mastatlab/hk288/code_hp_paral|
hk288|OUT_OF_MEMORY|scavenger|2023-05-18T16:21:20|2023-05-24T06:08:14|5-13:46:54|dcc-cagpm-01|1|40|80G||/hpc/group/mastatlab/hk288/code_hp_paral|
sw582|CANCELLED by 1498075|scavenger|2023-05-19T00:41:58|2023-05-24T00:14:09|4-23:32:11|dcc-wychem-01|1|1|2G||/hpc/group/dbergerlab/sw582/empty_dir|
pz19|TIMEOUT|scavenger|2023-05-19T15:41:44|2023-05-30T05:41:54|10-14:00:10|dcc-adrc-01|1|16|25408M||/work/pz19/Wang/Copper/Silicon/TS_06_3Lig/M06L|
pz19|PREEMPTED|scavenger|2023-05-19T15:49:57|2023-05-25T16:43:21|6-00:53:24|dcc-adrc-01|1|16|25408M||/work/pz19/Wang/Copper/Silicon/TS_06_3Lig/MN15|
pz19|TIMEOUT|scavenger|2023-05-19T15:57:29|2023-05-30T05:57:54|10-14:00:25|dcc-adrc-01|1|16|25408M||/work/pz19/Wang/Copper/Silicon/TS_06_3Lig/MN15|
yl708|CANCELLED by 1382854|scavenger|2023-05-20T08:39:29|2023-05-25T10:49:22|5-02:09:53|dcc-tunglab-02|1|1|2500M||/hpc/group/donald/yl708/TopologyNet-2017/perturbations|
yl708|CANCELLED by 1382854|scavenger|2023-05-20T08:39:29|2023-05-25T10:49:22|5-02:09:53|dcc-tunglab-02|1|1|2500M||/hpc/group/donald/yl708/TopologyNet-2017/perturbations|
pz19|PREEMPTED|scavenger|2023-05-19T19:54:27|2023-05-24T15:01:14|4-19:06:47|dcc-bragg-05|1|16|25408M||/work/pz19/Wang/Copper/Silicon/TS_06_3LigOAc/MN15|
yl708|CANCELLED by 1382854|scavenger|2023-05-21T12:30:32|2023-05-25T10:49:22|3-22:18:50|dcc-tunglab-02|1|1|2500M||/hpc/group/donald/yl708/TopologyNet-2017/perturbations|
yl708|CANCELLED by 1382854|scavenger|2023-05-22T00:20:08|2023-05-25T10:49:22|3-10:29:14|dcc-tunglab-02|1|1|2500M||/hpc/group/donald/yl708/TopologyNet-2017/perturbations|
yl708|CANCELLED by 1382854|scavenger|2023-05-22T00:20:08|2023-05-25T10:49:22|3-10:29:14|dcc-tunglab-02|1|1|2500M||/hpc/group/donald/yl708/TopologyNet-2017/perturbations|
pz19|PREEMPTED|scavenger|2023-05-20T11:22:20|2023-05-24T15:01:14|4-03:38:54|dcc-bragg-05|1|16|25408M||/work/pz19/Wang/Copper/Silicon/TS_06_3LigOAc/B3LYP|
pz19|PREEMPTED|scavenger|2023-05-20T12:02:40|2023-05-24T15:01:14|4-02:58:34|dcc-bragg-05|1|16|25408M||/work/pz19/Wang/Copper/Silicon/TS_06_3Lig/MN15|
pz19|CANCELLED by 1050403|scavenger|2023-05-21T11:48:01|2023-05-30T10:18:10|8-22:30:09|dcc-compeb-01|1|16|25408M||/work/pz19/Wang/Copper/Silicon/TS_06_3LigOAc/B3LYP|
pz19|TIMEOUT|scavenger|2023-05-21T11:52:32|2023-06-01T01:52:58|10-14:00:26|dcc-adrc-01|1|16|25408M||/work/pz19/Wang/Copper/Silicon/TS_06_3LigOAc/B3LYP|
mea54|CANCELLED by 1496219|scavenger|2023-05-21T15:52:28|2023-05-25T11:58:03|3-20:05:35|dcc-fergusonlab-02|1|64|600G||/hpc/home/mea54/ondemand/data/sys/dashboard/batch_connect/sys/bc_microbiome_rstudio/output/7fce3810-d3da-4cc3-b087-ed2a673502bf|
sw582|COMPLETED|scavenger|2023-05-22T00:48:28|2023-05-30T12:48:46|8-12:00:18|dcc-youlab-01|1|1|2G||/hpc/group/dbergerlab/sw582/empty_dir|
cjp47|RUNNING|scavenger|2023-05-22T09:27:11|Unknown|23-04:55:08|dcc-tmolab-01|1|1|64G||/hpc/group/bio1/cyanolichen_holobiome|
cjp47|PREEMPTED|scavenger|2023-05-22T09:27:11|2023-05-27T13:59:21|5-04:32:10|dcc-statdept-01|1|1|64G||/hpc/group/bio1/cyanolichen_holobiome|
cjp47|PREEMPTED|scavenger|2023-05-22T09:27:11|2023-05-27T13:59:21|5-04:32:10|dcc-statdept-01|1|1|64G||/hpc/group/bio1/cyanolichen_holobiome|
cjp47|PREEMPTED|scavenger|2023-05-22T09:27:11|2023-05-27T13:59:21|5-04:32:10|dcc-statdept-01|1|1|64G||/hpc/group/bio1/cyanolichen_holobiome|
cjp47|PREEMPTED|scavenger|2023-05-22T09:27:12|2023-05-27T13:59:21|5-04:32:09|dcc-statdept-01|1|1|64G||/hpc/group/bio1/cyanolichen_holobiome|
cjp47|PREEMPTED|scavenger|2023-05-22T09:27:12|2023-05-27T13:59:21|5-04:32:09|dcc-statdept-01|1|1|64G||/hpc/group/bio1/cyanolichen_holobiome|
pz19|CANCELLED by 1050403|scavenger|2023-05-22T10:31:54|2023-05-25T20:49:45|3-10:17:51|dcc-bragg-01|1|16|25408M||/work/pz19/Wang/Copper/Silicon/TS_06_3Lig/MN15|
ts349|FAILED|scavenger|2023-05-22T10:35:32|2023-05-23T22:49:48|1-12:14:16|dcc-kirschlab-01|1|30|72G||/datacommons/ydiaolab/sun/YAPandTEAD|
af206|TIMEOUT|scavenger|2023-05-22T11:14:32|2023-05-25T11:14:44|3-00:00:12|dcc-cagpm-02|1|40|200G||/hpc/home/af206/ondemand/data/sys/dashboard/batch_connect/sys/bc_rstudio_singularity/output/1f21bc81-a0a4-431e-9d8f-673bc2ce33d1|
ts349|FAILED|scavenger|2023-05-22T16:03:08|2023-05-23T22:49:57|1-06:46:49|dcc-dunsonlab-02|1|16|32G||/hpc/home/ts349|
ts349|FAILED|scavenger|2023-05-22T20:23:29|2023-05-23T22:51:57|1-02:28:28|dcc-adrc-01|1|16|32G||/hpc/home/ts349|
ts349|FAILED|scavenger|2023-05-22T20:24:50|2023-05-23T22:49:33|1-02:24:43|dcc-cagpm-01|1|30|72G||/datacommons/ydiaolab/diaolab_group/sun|
ts349|FAILED|scavenger|2023-05-22T20:41:33|2023-05-23T22:50:06|1-02:08:33|dcc-fergusonlab-03|1|30|72G||/datacommons/ydiaolab/diaolab_group/sun|
kw297|COMPLETED|scavenger|2023-05-22T21:26:18|2023-05-23T19:46:44|22:20:26|dcc-aryalab-01|1|2|8G||/hpc/group/ychenlab/DA|
kw297|COMPLETED|scavenger|2023-05-22T21:26:18|2023-05-23T19:53:26|22:27:08|dcc-aryalab-01|1|2|8G||/hpc/group/ychenlab/DA|
kw297|COMPLETED|scavenger|2023-05-22T21:26:18|2023-05-23T19:47:18|22:21:00|dcc-aryalab-01|1|2|8G||/hpc/group/ychenlab/DA|
kw297|COMPLETED|scavenger|2023-05-22T21:26:18|2023-05-23T19:38:14|22:11:56|dcc-rausherlab-01|1|2|8G||/hpc/group/ychenlab/DA|
kw297|COMPLETED|scavenger|2023-05-22T21:26:18|2023-05-23T19:45:16|22:18:58|dcc-rausherlab-02|1|2|8G||/hpc/group/ychenlab/DA|
kw297|COMPLETED|scavenger|2023-05-22T21:26:18|2023-05-23T19:53:47|22:27:29|dcc-rausherlab-02|1|2|8G||/hpc/group/ychenlab/DA|
kw297|COMPLETED|scavenger|2023-05-22T21:26:21|2023-05-23T19:52:08|22:25:47|dcc-rausherlab-02|1|2|8G||/hpc/group/ychenlab/DA|
kw297|COMPLETED|scavenger|2023-05-22T21:26:21|2023-05-23T19:42:15|22:15:54|dcc-rausherlab-02|1|2|8G||/hpc/group/ychenlab/DA|
kw297|COMPLETED|scavenger|2023-05-22T21:26:21|2023-05-24T00:42:36|1-03:16:15|dcc-adrc-01|1|2|8G||/hpc/group/ychenlab/DA|
kw297|COMPLETED|scavenger|2023-05-22T21:26:21|2023-05-24T00:23:59|1-02:57:38|dcc-adrc-01|1|2|8G||/hpc/group/ychenlab/DA|
kw297|COMPLETED|scavenger|2023-05-22T21:26:21|2023-05-24T00:37:24|1-03:11:03|dcc-adrc-01|1|2|8G||/hpc/group/ychenlab/DA|
kw297|COMPLETED|scavenger|2023-05-22T21:26:21|2023-05-24T00:24:32|1-02:58:11|dcc-adrc-01|1|2|8G||/hpc/group/ychenlab/DA|
kw297|COMPLETED|scavenger|2023-05-22T21:26:21|2023-05-24T00:31:39|1-03:05:18|dcc-adrc-01|1|2|8G||/hpc/group/ychenlab/DA|
kw297|COMPLETED|scavenger|2023-05-22T21:26:21|2023-05-24T00:32:56|1-03:06:35|dcc-adrc-01|1|2|8G||/hpc/group/ychenlab/DA|
kw297|COMPLETED|scavenger|2023-05-22T21:28:04|2023-05-23T23:21:53|1-01:53:49|dcc-compeb-02|1|2|8G||/hpc/group/ychenlab/DA|
kw297|COMPLETED|scavenger|2023-05-22T21:28:07|2023-05-23T23:30:24|1-02:02:17|dcc-compeb-02|1|2|8G||/hpc/group/ychenlab/DA|
kw297|COMPLETED|scavenger|2023-05-22T21:28:07|2023-05-23T20:35:00|23:06:53|dcc-compeb-03|1|2|8G||/hpc/group/ychenlab/DA|
kw297|COMPLETED|scavenger|2023-05-22T21:28:07|2023-05-23T20:33:38|23:05:31|dcc-compeb-03|1|2|8G||/hpc/group/ychenlab/DA|
kw297|COMPLETED|scavenger|2023-05-22T21:28:07|2023-05-23T20:37:14|23:09:07|dcc-compeb-04|1|2|8G||/hpc/group/ychenlab/DA|
kw297|COMPLETED|scavenger|2023-05-22T21:28:07|2023-05-23T20:37:49|23:09:42|dcc-compeb-04|1|2|8G||/hpc/group/ychenlab/DA|
kw297|COMPLETED|scavenger|2023-05-22T21:28:07|2023-05-24T13:11:28|1-15:43:21|dcc-compeb-01|1|2|8G||/hpc/group/ychenlab/DA|
kw297|COMPLETED|scavenger|2023-05-22T21:28:07|2023-05-24T13:42:06|1-16:13:59|dcc-compeb-01|1|2|8G||/hpc/group/ychenlab/DA|
kw297|COMPLETED|scavenger|2023-05-22T21:28:07|2023-05-24T13:27:25|1-15:59:18|dcc-compeb-01|1|2|8G||/hpc/group/ychenlab/DA|
kw297|COMPLETED|scavenger|2023-05-22T21:28:07|2023-05-24T13:55:51|1-16:27:44|dcc-compeb-01|1|2|8G||/hpc/group/ychenlab/DA|
kw297|COMPLETED|scavenger|2023-05-22T21:28:07|2023-05-24T13:26:17|1-15:58:10|dcc-compeb-01|1|2|8G||/hpc/group/ychenlab/DA|
kw297|COMPLETED|scavenger|2023-05-22T21:28:07|2023-05-24T13:25:34|1-15:57:27|dcc-compeb-01|1|2|8G||/hpc/group/ychenlab/DA|
kw297|COMPLETED|scavenger|2023-05-22T21:28:07|2023-05-23T23:28:19|1-02:00:12|dcc-wychem-01|1|2|8G||/hpc/group/ychenlab/DA|
kw297|COMPLETED|scavenger|2023-05-22T21:28:07|2023-05-24T01:07:36|1-03:39:29|dcc-wychem-01|1|2|8G||/hpc/group/ychenlab/DA|
kw297|COMPLETED|scavenger|2023-05-22T21:28:07|2023-05-23T23:34:19|1-02:06:12|dcc-wychem-01|1|2|8G||/hpc/group/ychenlab/DA|
kw297|COMPLETED|scavenger|2023-05-22T21:28:07|2023-05-23T23:25:22|1-01:57:15|dcc-wychem-01|1|2|8G||/hpc/group/ychenlab/DA|
kw297|COMPLETED|scavenger|2023-05-22T21:28:07|2023-05-23T23:27:44|1-01:59:37|dcc-wychem-01|1|2|8G||/hpc/group/ychenlab/DA|
ts349|FAILED|scavenger|2023-05-22T21:48:08|2023-05-24T05:47:15|1-07:59:07|dcc-dunsonlab-01|1|12|100G||/work/ts349/stm2457_hicar/work/0a/ae52a892db4e876c67d04fa2d8d344|
ts349|FAILED|scavenger|2023-05-22T21:48:08|2023-05-24T05:47:15|1-07:59:07|dcc-dunsonlab-01|1|12|100G||/work/ts349/stm2457_hicar/work/59/e1ba3b6a899e58d0b097af6323ed04|
kw297|COMPLETED|scavenger|2023-05-22T22:40:38|2023-05-24T05:49:21|1-07:08:43|dcc-dunsonlab-01|1|2|8G||/hpc/group/ychenlab/DA|
hk288|OUT_OF_MEMORY|scavenger|2023-05-23T06:28:20|2023-06-01T05:31:10|8-23:02:50|dcc-bragg-03|1|40|80G||/hpc/group/mastatlab/hk288/code_hp_paral|
hk288|COMPLETED|scavenger|2023-05-23T06:28:20|2023-05-29T02:59:32|5-20:31:12|dcc-compeb-04|1|40|80G||/hpc/group/mastatlab/hk288/code_hp_paral|
hk288|PREEMPTED|scavenger|2023-05-23T06:28:20|2023-05-25T20:17:11|2-13:48:51|dcc-delairelab-01|1|40|80G||/hpc/group/mastatlab/hk288/code_hp_paral|
hk288|OUT_OF_MEMORY|scavenger|2023-05-23T06:28:20|2023-06-01T15:42:06|9-09:13:46|dcc-donglab-01|1|40|80G||/hpc/group/mastatlab/hk288/code_hp_paral|
lg226|TIMEOUT|scavenger|2023-05-23T10:40:19|2023-05-23T18:40:26|08:00:07|dcc-fergusonlab-01|1|4|208G||/hpc/home/lg226/ondemand/data/sys/dashboard/batch_connect/sys/bc_rstudio_singularity/output/270a5c2a-6d07-463d-bce6-972399aeeb50|
jo117|COMPLETED|scavenger|2023-05-23T12:43:29|2023-05-23T18:39:54|05:56:25|dcc-compeb-02|1|6|36G||/work/jo117/DiaoLab/hicar_v2/human/work/c4/7f2d90d4fb9c20c9156c0ee5617544|
jo117|COMPLETED|scavenger|2023-05-23T12:43:29|2023-05-23T18:14:28|05:30:59|dcc-compeb-02|1|6|36G||/work/jo117/DiaoLab/hicar_v2/human/work/a8/d44403d491d4952f28ea51147557ac|
ark19|CANCELLED by 1027614|scavenger|2023-05-23T12:53:05|2023-05-24T11:16:16|22:23:11|dcc-youlab-01|1|1|125G||/cifs/hariri-long/Studies/DNS/Imaging/pipeline1.0/DTI/FSL/20100125_10274/FA_averaged|
ark19|CANCELLED by 1027614|scavenger|2023-05-23T12:53:05|2023-05-24T11:16:16|22:23:11|dcc-youlab-01|1|1|16000M||/cifs/hariri-long/Studies/DNS/Imaging/pipeline1.0/DTI/FSL/20100125_10274/FA_averaged|
ark19|CANCELLED by 1027614|scavenger|2023-05-23T12:53:05|2023-05-24T11:16:15|22:23:10|dcc-youlab-01|1|1|16000M||/cifs/hariri-long/Studies/DNS/Imaging/pipeline1.0/DTI/FSL/20100125_10274/FA_averaged|
ark19|CANCELLED by 1027614|scavenger|2023-05-23T12:53:05|2023-05-24T11:16:15|22:23:10|dcc-youlab-01|1|1|16000M||/cifs/hariri-long/Studies/DNS/Imaging/pipeline1.0/DTI/FSL/20100125_10274/FA_averaged|
ark19|CANCELLED by 1027614|scavenger|2023-05-23T12:53:05|2023-05-24T11:16:15|22:23:10|dcc-youlab-01|1|1|16000M||/cifs/hariri-long/Studies/DNS/Imaging/pipeline1.0/DTI/FSL/20100125_10274/FA_averaged|
ark19|CANCELLED by 1027614|scavenger|2023-05-23T12:53:05|2023-05-24T11:16:16|22:23:11|dcc-youlab-01|1|1|16000M||/cifs/hariri-long/Studies/DNS/Imaging/pipeline1.0/DTI/FSL/20100125_10274/FA_averaged|
ark19|CANCELLED by 1027614|scavenger|2023-05-23T12:53:05|2023-05-24T11:16:15|22:23:10|dcc-youlab-01|1|1|16000M||/cifs/hariri-long/Studies/DNS/Imaging/pipeline1.0/DTI/FSL/20100125_10274/FA_averaged|
ark19|CANCELLED by 1027614|scavenger|2023-05-23T12:53:05|2023-05-24T11:16:15|22:23:10|dcc-youlab-01|1|1|16000M||/cifs/hariri-long/Studies/DNS/Imaging/pipeline1.0/DTI/FSL/20100125_10274/FA_averaged|
ark19|CANCELLED by 1027614|scavenger|2023-05-23T12:53:05|2023-05-24T11:16:16|22:23:11|dcc-youlab-01|1|1|16000M||/cifs/hariri-long/Studies/DNS/Imaging/pipeline1.0/DTI/FSL/20100125_10274/FA_averaged|
ark19|CANCELLED by 1027614|scavenger|2023-05-23T12:53:06|2023-05-24T11:16:15|22:23:09|dcc-youlab-01|1|1|16000M||/cifs/hariri-long/Studies/DNS/Imaging/pipeline1.0/DTI/FSL/20100125_10274/FA_averaged|
ark19|CANCELLED by 1027614|scavenger|2023-05-23T12:53:06|2023-05-24T11:16:16|22:23:10|dcc-youlab-01|1|1|16000M||/cifs/hariri-long/Studies/DNS/Imaging/pipeline1.0/DTI/FSL/20100125_10274/FA_averaged|
ark19|CANCELLED by 1027614|scavenger|2023-05-23T12:53:06|2023-05-24T11:16:19|22:23:13|dcc-wychem-01|1|1|16000M||/cifs/hariri-long/Studies/DNS/Imaging/pipeline1.0/DTI/FSL/20100125_10274/FA_averaged|
ark19|CANCELLED by 1027614|scavenger|2023-05-23T12:53:07|2023-05-24T11:16:18|22:23:11|dcc-wychem-01|1|1|16000M||/cifs/hariri-long/Studies/DNS/Imaging/pipeline1.0/DTI/FSL/20100125_10274/FA_averaged|
ark19|PREEMPTED|scavenger|2023-05-23T12:53:11|2023-05-23T22:15:26|09:22:15|dcc-velmeshevlab-01|1|1|16000M||/cifs/hariri-long/Studies/DNS/Imaging/pipeline1.0/DTI/FSL/20100125_10274/FA_averaged|
ark19|PREEMPTED|scavenger|2023-05-23T12:53:11|2023-05-23T22:15:26|09:22:15|dcc-velmeshevlab-01|1|1|16000M||/cifs/hariri-long/Studies/DNS/Imaging/pipeline1.0/DTI/FSL/20100125_10274/FA_averaged|
ark19|PREEMPTED|scavenger|2023-05-23T12:53:11|2023-05-23T22:15:26|09:22:15|dcc-velmeshevlab-01|1|1|16000M||/cifs/hariri-long/Studies/DNS/Imaging/pipeline1.0/DTI/FSL/20100125_10274/FA_averaged|
ark19|PREEMPTED|scavenger|2023-05-23T12:53:11|2023-05-23T22:15:26|09:22:15|dcc-velmeshevlab-01|1|1|16000M||/cifs/hariri-long/Studies/DNS/Imaging/pipeline1.0/DTI/FSL/20100125_10274/FA_averaged|
ark19|CANCELLED by 1027614|scavenger|2023-05-23T12:53:11|2023-05-24T11:16:18|22:23:07|dcc-tunglab-01|1|1|16000M||/cifs/hariri-long/Studies/DNS/Imaging/pipeline1.0/DTI/FSL/20100125_10274/FA_averaged|
ark19|CANCELLED by 1027614|scavenger|2023-05-23T12:53:11|2023-05-24T11:16:17|22:23:06|dcc-tunglab-01|1|1|16000M||/cifs/hariri-long/Studies/DNS/Imaging/pipeline1.0/DTI/FSL/20100125_10274/FA_averaged|
ark19|CANCELLED by 1027614|scavenger|2023-05-23T12:53:11|2023-05-24T11:16:17|22:23:06|dcc-tunglab-01|1|1|16000M||/cifs/hariri-long/Studies/DNS/Imaging/pipeline1.0/DTI/FSL/20100125_10274/FA_averaged|
ark19|CANCELLED by 1027614|scavenger|2023-05-23T12:53:11|2023-05-24T11:16:18|22:23:07|dcc-tunglab-01|1|1|16000M||/cifs/hariri-long/Studies/DNS/Imaging/pipeline1.0/DTI/FSL/20100125_10274/FA_averaged|
ark19|CANCELLED by 1027614|scavenger|2023-05-23T12:53:11|2023-05-24T11:16:17|22:23:06|dcc-tunglab-01|1|1|16000M||/cifs/hariri-long/Studies/DNS/Imaging/pipeline1.0/DTI/FSL/20100125_10274/FA_averaged|
ark19|CANCELLED by 1027614|scavenger|2023-05-23T12:53:11|2023-05-24T11:16:17|22:23:06|dcc-tunglab-01|1|1|16000M||/cifs/hariri-long/Studies/DNS/Imaging/pipeline1.0/DTI/FSL/20100125_10274/FA_averaged|
ark19|CANCELLED by 1027614|scavenger|2023-05-23T12:53:11|2023-05-24T11:16:18|22:23:07|dcc-tunglab-01|1|1|16000M||/cifs/hariri-long/Studies/DNS/Imaging/pipeline1.0/DTI/FSL/20100125_10274/FA_averaged|
ark19|CANCELLED by 1027614|scavenger|2023-05-23T12:53:11|2023-05-24T11:16:17|22:23:06|dcc-tunglab-01|1|1|16000M||/cifs/hariri-long/Studies/DNS/Imaging/pipeline1.0/DTI/FSL/20100125_10274/FA_averaged|
ark19|CANCELLED by 1027614|scavenger|2023-05-23T12:53:11|2023-05-24T11:16:18|22:23:07|dcc-tunglab-01|1|1|16000M||/cifs/hariri-long/Studies/DNS/Imaging/pipeline1.0/DTI/FSL/20100125_10274/FA_averaged|
ark19|CANCELLED by 1027614|scavenger|2023-05-23T12:53:11|2023-05-24T11:16:17|22:23:06|dcc-tunglab-01|1|1|16000M||/cifs/hariri-long/Studies/DNS/Imaging/pipeline1.0/DTI/FSL/20100125_10274/FA_averaged|
ark19|CANCELLED by 1027614|scavenger|2023-05-23T12:53:11|2023-05-24T11:16:18|22:23:07|dcc-tunglab-01|1|1|16000M||/cifs/hariri-long/Studies/DNS/Imaging/pipeline1.0/DTI/FSL/20100125_10274/FA_averaged|
ark19|CANCELLED by 1027614|scavenger|2023-05-23T12:53:11|2023-05-24T11:16:17|22:23:06|dcc-tunglab-01|1|1|16000M||/cifs/hariri-long/Studies/DNS/Imaging/pipeline1.0/DTI/FSL/20100125_10274/FA_averaged|
ark19|CANCELLED by 1027614|scavenger|2023-05-23T12:53:13|2023-05-24T11:16:16|22:23:03|dcc-tunglab-01|1|1|16000M||/cifs/hariri-long/Studies/DNS/Imaging/pipeline1.0/DTI/FSL/20100125_10274/FA_averaged|
ark19|CANCELLED by 1027614|scavenger|2023-05-23T12:53:13|2023-05-24T11:16:17|22:23:04|dcc-tunglab-01|1|1|16000M||/cifs/hariri-long/Studies/DNS/Imaging/pipeline1.0/DTI/FSL/20100125_10274/FA_averaged|
ark19|COMPLETED|scavenger|2023-05-23T12:53:21|2023-05-27T15:19:27|4-02:26:06|dcc-pfister-01|1|1|125G||/cifs/hariri-long/Studies/DNS/Imaging/pipeline1.0/DTI/FSL/20100125_10274/FA_averaged|
ark19|CANCELLED by 1027614|scavenger|2023-05-23T12:53:21|2023-05-27T16:31:54|4-03:38:33|dcc-tunglab-01|1|1|16000M||/cifs/hariri-long/Studies/DNS/Imaging/pipeline1.0/DTI/FSL/20100125_10274/FA_averaged|
ark19|CANCELLED by 1027614|scavenger|2023-05-23T12:53:21|2023-05-27T16:31:54|4-03:38:33|dcc-tunglab-01|1|1|16000M||/cifs/hariri-long/Studies/DNS/Imaging/pipeline1.0/DTI/FSL/20100125_10274/FA_averaged|
ark19|CANCELLED by 1027614|scavenger|2023-05-23T12:53:21|2023-05-27T16:31:54|4-03:38:33|dcc-tunglab-01|1|1|16000M||/cifs/hariri-long/Studies/DNS/Imaging/pipeline1.0/DTI/FSL/20100125_10274/FA_averaged|
ark19|CANCELLED by 1027614|scavenger|2023-05-23T12:53:21|2023-05-27T16:31:54|4-03:38:33|dcc-tunglab-01|1|1|16000M||/cifs/hariri-long/Studies/DNS/Imaging/pipeline1.0/DTI/FSL/20100125_10274/FA_averaged|
ark19|CANCELLED by 1027614|scavenger|2023-05-23T12:53:21|2023-05-27T16:31:54|4-03:38:33|dcc-tunglab-01|1|1|16000M||/cifs/hariri-long/Studies/DNS/Imaging/pipeline1.0/DTI/FSL/20100125_10274/FA_averaged|
ark19|CANCELLED by 1027614|scavenger|2023-05-23T12:53:21|2023-05-27T16:31:54|4-03:38:33|dcc-tunglab-01|1|1|16000M||/cifs/hariri-long/Studies/DNS/Imaging/pipeline1.0/DTI/FSL/20100125_10274/FA_averaged|
ark19|CANCELLED by 1027614|scavenger|2023-05-23T12:53:21|2023-05-27T16:31:54|4-03:38:33|dcc-tmolab-02|1|1|16000M||/cifs/hariri-long/Studies/DNS/Imaging/pipeline1.0/DTI/FSL/20100125_10274/FA_averaged|
ark19|CANCELLED by 1027614|scavenger|2023-05-23T12:53:21|2023-05-27T16:31:54|4-03:38:33|dcc-tmolab-02|1|1|16000M||/cifs/hariri-long/Studies/DNS/Imaging/pipeline1.0/DTI/FSL/20100125_10274/FA_averaged|
ark19|CANCELLED by 1027614|scavenger|2023-05-23T12:53:21|2023-05-27T16:31:54|4-03:38:33|dcc-tmolab-02|1|1|16000M||/cifs/hariri-long/Studies/DNS/Imaging/pipeline1.0/DTI/FSL/20100125_10274/FA_averaged|
ark19|CANCELLED by 1027614|scavenger|2023-05-23T12:53:21|2023-05-27T16:31:55|4-03:38:34|dcc-tmolab-02|1|1|16000M||/cifs/hariri-long/Studies/DNS/Imaging/pipeline1.0/DTI/FSL/20100125_10274/FA_averaged|
ark19|CANCELLED by 1027614|scavenger|2023-05-23T12:53:21|2023-05-27T16:31:55|4-03:38:34|dcc-tmolab-02|1|1|16000M||/cifs/hariri-long/Studies/DNS/Imaging/pipeline1.0/DTI/FSL/20100125_10274/FA_averaged|
ark19|CANCELLED by 1027614|scavenger|2023-05-23T12:53:21|2023-05-27T16:31:55|4-03:38:34|dcc-tmolab-01|1|1|16000M||/cifs/hariri-long/Studies/DNS/Imaging/pipeline1.0/DTI/FSL/20100125_10274/FA_averaged|
ark19|CANCELLED by 1027614|scavenger|2023-05-23T12:53:21|2023-05-27T16:31:55|4-03:38:34|dcc-tmolab-01|1|1|16000M||/cifs/hariri-long/Studies/DNS/Imaging/pipeline1.0/DTI/FSL/20100125_10274/FA_averaged|
ark19|PREEMPTED|scavenger|2023-05-23T12:53:21|2023-05-27T13:59:21|4-01:06:00|dcc-statdept-01|1|1|16000M||/cifs/hariri-long/Studies/DNS/Imaging/pipeline1.0/DTI/FSL/20100125_10274/FA_averaged|
ark19|PREEMPTED|scavenger|2023-05-23T12:53:21|2023-05-27T14:05:22|4-01:12:01|dcc-statdept-01|1|1|16000M||/cifs/hariri-long/Studies/DNS/Imaging/pipeline1.0/DTI/FSL/20100125_10274/FA_averaged|
ark19|PREEMPTED|scavenger|2023-05-23T12:53:21|2023-05-27T14:05:22|4-01:12:01|dcc-statdept-01|1|1|16000M||/cifs/hariri-long/Studies/DNS/Imaging/pipeline1.0/DTI/FSL/20100125_10274/FA_averaged|
ark19|PREEMPTED|scavenger|2023-05-23T12:53:21|2023-05-27T14:05:22|4-01:12:01|dcc-statdept-01|1|1|16000M||/cifs/hariri-long/Studies/DNS/Imaging/pipeline1.0/DTI/FSL/20100125_10274/FA_averaged|
ark19|PREEMPTED|scavenger|2023-05-23T12:53:23|2023-05-27T14:05:22|4-01:11:59|dcc-statdept-01|1|1|16000M||/cifs/hariri-long/Studies/DNS/Imaging/pipeline1.0/DTI/FSL/20100125_10274/FA_averaged|
ark19|PREEMPTED|scavenger|2023-05-23T12:53:23|2023-05-27T14:05:22|4-01:11:59|dcc-statdept-01|1|1|16000M||/cifs/hariri-long/Studies/DNS/Imaging/pipeline1.0/DTI/FSL/20100125_10274/FA_averaged|
ark19|CANCELLED by 1027614|scavenger|2023-05-23T12:53:23|2023-05-27T16:31:51|4-03:38:28|dcc-savageresearch-02|1|1|16000M||/cifs/hariri-long/Studies/DNS/Imaging/pipeline1.0/DTI/FSL/20100125_10274/FA_averaged|
ark19|CANCELLED by 1027614|scavenger|2023-05-23T12:53:23|2023-05-27T16:31:51|4-03:38:28|dcc-savageresearch-01|1|1|16000M||/cifs/hariri-long/Studies/DNS/Imaging/pipeline1.0/DTI/FSL/20100125_10274/FA_averaged|
ark19|CANCELLED by 1027614|scavenger|2023-05-23T12:53:23|2023-05-27T16:31:51|4-03:38:28|dcc-savageresearch-01|1|1|16000M||/cifs/hariri-long/Studies/DNS/Imaging/pipeline1.0/DTI/FSL/20100125_10274/FA_averaged|
ark19|CANCELLED by 1027614|scavenger|2023-05-23T12:53:23|2023-05-27T16:31:51|4-03:38:28|dcc-savageresearch-01|1|1|16000M||/cifs/hariri-long/Studies/DNS/Imaging/pipeline1.0/DTI/FSL/20100125_10274/FA_averaged|
ark19|CANCELLED by 1027614|scavenger|2023-05-23T12:53:23|2023-05-27T16:31:51|4-03:38:28|dcc-savageresearch-01|1|1|16000M||/cifs/hariri-long/Studies/DNS/Imaging/pipeline1.0/DTI/FSL/20100125_10274/FA_averaged|
ark19|CANCELLED by 1027614|scavenger|2023-05-23T12:53:23|2023-05-27T16:31:52|4-03:38:29|dcc-savageresearch-01|1|1|16000M||/cifs/hariri-long/Studies/DNS/Imaging/pipeline1.0/DTI/FSL/20100125_10274/FA_averaged|
ark19|CANCELLED by 1027614|scavenger|2023-05-23T12:53:23|2023-05-27T16:31:52|4-03:38:29|dcc-savageresearch-01|1|1|16000M||/cifs/hariri-long/Studies/DNS/Imaging/pipeline1.0/DTI/FSL/20100125_10274/FA_averaged|
ark19|CANCELLED by 1027614|scavenger|2023-05-23T12:53:23|2023-05-27T16:31:52|4-03:38:29|dcc-savageresearch-01|1|1|16000M||/cifs/hariri-long/Studies/DNS/Imaging/pipeline1.0/DTI/FSL/20100125_10274/FA_averaged|
ark19|CANCELLED by 1027614|scavenger|2023-05-23T12:53:23|2023-05-27T16:31:52|4-03:38:29|dcc-pfister-01|1|1|16000M||/cifs/hariri-long/Studies/DNS/Imaging/pipeline1.0/DTI/FSL/20100125_10274/FA_averaged|
ark19|CANCELLED by 1027614|scavenger|2023-05-23T12:53:23|2023-05-27T16:31:52|4-03:38:29|dcc-pfister-01|1|1|16000M||/cifs/hariri-long/Studies/DNS/Imaging/pipeline1.0/DTI/FSL/20100125_10274/FA_averaged|
ark19|CANCELLED by 1027614|scavenger|2023-05-23T12:53:23|2023-05-27T16:31:52|4-03:38:29|dcc-pfister-01|1|1|16000M||/cifs/hariri-long/Studies/DNS/Imaging/pipeline1.0/DTI/FSL/20100125_10274/FA_averaged|
ark19|CANCELLED by 1027614|scavenger|2023-05-23T12:53:23|2023-05-27T16:31:52|4-03:38:29|dcc-pfister-01|1|1|16000M||/cifs/hariri-long/Studies/DNS/Imaging/pipeline1.0/DTI/FSL/20100125_10274/FA_averaged|
ark19|CANCELLED by 1027614|scavenger|2023-05-23T12:53:23|2023-05-27T16:31:53|4-03:38:30|dcc-pfister-01|1|1|16000M||/cifs/hariri-long/Studies/DNS/Imaging/pipeline1.0/DTI/FSL/20100125_10274/FA_averaged|
ark19|CANCELLED by 1027614|scavenger|2023-05-23T12:53:23|2023-05-27T16:31:53|4-03:38:30|dcc-pfister-01|1|1|16000M||/cifs/hariri-long/Studies/DNS/Imaging/pipeline1.0/DTI/FSL/20100125_10274/FA_averaged|
ark19|CANCELLED by 1027614|scavenger|2023-05-23T12:53:23|2023-05-27T16:31:53|4-03:38:30|dcc-pfister-01|1|1|16000M||/cifs/hariri-long/Studies/DNS/Imaging/pipeline1.0/DTI/FSL/20100125_10274/FA_averaged|
ark19|CANCELLED by 1027614|scavenger|2023-05-23T12:53:23|2023-05-27T16:31:54|4-03:38:31|dcc-pbenfeylab-02|1|1|16000M||/cifs/hariri-long/Studies/DNS/Imaging/pipeline1.0/DTI/FSL/20100125_10274/FA_averaged|
ark19|CANCELLED by 1027614|scavenger|2023-05-23T12:53:24|2023-05-27T16:31:50|4-03:38:26|dcc-pbenfeylab-02|1|1|16000M||/cifs/hariri-long/Studies/DNS/Imaging/pipeline1.0/DTI/FSL/20100125_10274/FA_averaged|
ark19|CANCELLED by 1027614|scavenger|2023-05-23T12:53:24|2023-05-27T16:31:50|4-03:38:26|dcc-pbenfeylab-02|1|1|16000M||/cifs/hariri-long/Studies/DNS/Imaging/pipeline1.0/DTI/FSL/20100125_10274/FA_averaged|
ark19|CANCELLED by 1027614|scavenger|2023-05-23T12:53:24|2023-05-27T16:31:51|4-03:38:27|dcc-pbenfeylab-02|1|1|16000M||/cifs/hariri-long/Studies/DNS/Imaging/pipeline1.0/DTI/FSL/20100125_10274/FA_averaged|
ark19|CANCELLED by 1027614|scavenger|2023-05-23T12:53:24|2023-05-27T16:31:51|4-03:38:27|dcc-pbenfeylab-02|1|1|16000M||/cifs/hariri-long/Studies/DNS/Imaging/pipeline1.0/DTI/FSL/20100125_10274/FA_averaged|
ark19|CANCELLED by 1027614|scavenger|2023-05-23T12:53:24|2023-05-27T16:31:51|4-03:38:27|dcc-pbenfeylab-02|1|1|16000M||/cifs/hariri-long/Studies/DNS/Imaging/pipeline1.0/DTI/FSL/20100125_10274/FA_averaged|
ark19|CANCELLED by 1027614|scavenger|2023-05-23T12:53:24|2023-05-27T16:31:51|4-03:38:27|dcc-pbenfeylab-02|1|1|16000M||/cifs/hariri-long/Studies/DNS/Imaging/pipeline1.0/DTI/FSL/20100125_10274/FA_averaged|
ark19|CANCELLED by 1027614|scavenger|2023-05-23T12:53:26|2023-05-27T16:31:48|4-03:38:22|dcc-pbenfeylab-02|1|1|16000M||/cifs/hariri-long/Studies/DNS/Imaging/pipeline1.0/DTI/FSL/20100125_10274/FA_averaged|
ark19|CANCELLED by 1027614|scavenger|2023-05-23T12:53:26|2023-05-27T16:31:48|4-03:38:22|dcc-pbenfeylab-02|1|1|16000M||/cifs/hariri-long/Studies/DNS/Imaging/pipeline1.0/DTI/FSL/20100125_10274/FA_averaged|
ark19|CANCELLED by 1027614|scavenger|2023-05-23T12:53:26|2023-05-27T16:31:49|4-03:38:23|dcc-pbenfeylab-02|1|1|16000M||/cifs/hariri-long/Studies/DNS/Imaging/pipeline1.0/DTI/FSL/20100125_10274/FA_averaged|
ark19|CANCELLED by 1027614|scavenger|2023-05-23T12:53:26|2023-05-27T16:31:49|4-03:38:23|dcc-pbenfeylab-02|1|1|16000M||/cifs/hariri-long/Studies/DNS/Imaging/pipeline1.0/DTI/FSL/20100125_10274/FA_averaged|
ark19|CANCELLED by 1027614|scavenger|2023-05-23T12:53:26|2023-05-27T16:31:49|4-03:38:23|dcc-pbenfeylab-02|1|1|16000M||/cifs/hariri-long/Studies/DNS/Imaging/pipeline1.0/DTI/FSL/20100125_10274/FA_averaged|
ark19|CANCELLED by 1027614|scavenger|2023-05-23T12:53:26|2023-05-27T16:31:49|4-03:38:23|dcc-pbenfeylab-02|1|1|16000M||/cifs/hariri-long/Studies/DNS/Imaging/pipeline1.0/DTI/FSL/20100125_10274/FA_averaged|
ark19|CANCELLED by 1027614|scavenger|2023-05-23T12:53:26|2023-05-27T16:31:49|4-03:38:23|dcc-pbenfeylab-02|1|1|16000M||/cifs/hariri-long/Studies/DNS/Imaging/pipeline1.0/DTI/FSL/20100125_10274/FA_averaged|
ark19|CANCELLED by 1027614|scavenger|2023-05-23T12:53:26|2023-05-27T16:31:49|4-03:38:23|dcc-pbenfeylab-02|1|1|16000M||/cifs/hariri-long/Studies/DNS/Imaging/pipeline1.0/DTI/FSL/20100125_10274/FA_averaged|
ark19|CANCELLED by 1027614|scavenger|2023-05-23T12:53:26|2023-05-27T16:31:49|4-03:38:23|dcc-pbenfeylab-02|1|1|16000M||/cifs/hariri-long/Studies/DNS/Imaging/pipeline1.0/DTI/FSL/20100125_10274/FA_averaged|
hm173|FAILED|scavenger|2023-05-23T13:10:01|2023-05-23T18:29:04|05:19:03|dcc-herringlab-01|1|64|320G||/hpc/group/fuqua/hm173/NETS|
jo117|FAILED|scavenger|2023-05-23T14:01:43|2023-05-23T22:01:04|07:59:21|dcc-carin-24|1|6|36G||/work/jo117/DiaoLab/hicar_v2/human/work/ee/6b4ff3b7f165fe2cf6b777a2c781ef|
jo117|COMPLETED|scavenger|2023-05-23T14:23:02|2023-05-23T20:02:24|05:39:22|dcc-cagpm-01|1|6|36G||/work/jo117/DiaoLab/hicar_v2/human/work/07/57482b5ced2eee1e061bd24af9da5f|
ts349|FAILED|scavenger|2023-05-23T14:25:12|2023-05-23T18:00:30|03:35:18|dcc-bragg-01|1|30|72G||/hpc/home/ts349|
xw171|CANCELLED by 1206691|scavenger|2023-05-23T14:42:40|2023-05-24T17:59:41|1-03:17:01|dcc-tunglab-02|1|29|100G||/work/xw171/sciHiCAR-ATAC-2|
ly171|OUT_OF_MEMORY|scavenger|2023-05-23T15:03:21|2023-05-25T21:36:03|2-06:32:42|dcc-carin-25|1|4|30000M||/datacommons/ydiaolab/diaolab_group/lizhi/dCas12/YC12KIN|
ly171|OUT_OF_MEMORY|scavenger|2023-05-23T15:04:50|2023-05-26T03:26:46|2-12:21:56|dcc-compeb-02|1|4|30000M||/datacommons/ydiaolab/diaolab_group/lizhi/dCas12/YC12KF2|
ly171|OUT_OF_MEMORY|scavenger|2023-05-23T15:05:51|2023-05-25T04:58:15|1-13:52:24|dcc-compeb-02|1|4|30000M||/datacommons/ydiaolab/diaolab_group/lizhi/dCas12/YC12KF1|
ly171|COMPLETED|scavenger|2023-05-23T15:20:03|2023-05-24T15:18:07|23:58:04|dcc-carin-25|1|4|30000M||/work/ly171/CARTAR/h1_ATAC_tongyu|
kdm65|FAILED|scavenger|2023-05-23T15:31:16|2023-05-24T21:34:16|1-06:03:00|dcc-nsoe-it-01|1|1|32G||/work/kdm65/validation|
jo117|COMPLETED|scavenger|2023-05-23T15:38:39|2023-05-23T20:21:18|04:42:39|dcc-motesa-01|1|6|36G||/work/jo117/DiaoLab/hicar_v2/human/work/2a/931a4c21cce1545d778e170812dbe0|
jo117|COMPLETED|scavenger|2023-05-23T16:01:15|2023-05-24T03:34:04|11:32:49|dcc-fergusonlab-01|1|12|120G||/work/jo117/DiaoLab/hicar_v2/human/work/91/fc9837fa36e2a24903114ee43c95e7|
jo117|COMPLETED|scavenger|2023-05-23T16:19:18|2023-05-24T01:00:58|08:41:40|dcc-mainsahlab-01|1|12|120G||/work/jo117/DiaoLab/hicar_v2/human/work/72/3526ba9f1c31f2724c84bad2377d7c|
cjp47|COMPLETED|scavenger|2023-05-23T16:33:14|2023-05-23T18:30:59|01:57:45|dcc-fergusonlab-01|1|8|96G||/work/dg304/dala/cyanolichen_holobiome|
jo117|COMPLETED|scavenger|2023-05-23T16:58:40|2023-05-23T20:29:38|03:30:58|dcc-pbenfeylab-01|1|1|200G||/work/jo117/BrownLab/spacial_sc/analysis/B01205E4.ana|
sa400|CANCELLED by 1221744|scavenger|2023-05-23T17:11:03|2023-05-24T12:38:29|19:27:26|dcc-youlab-01|1|1|24G||/hpc/home/sa400|
ark19|CANCELLED by 1027614|scavenger|2023-05-23T17:11:03|2023-05-24T11:16:19|18:05:16|dcc-youlab-01|1|1|16000M||/cifs/hariri-long/Studies/DNS/Imaging/pipeline1.0/DTI/FSL/20100125_10274/FA_averaged|
ark19|CANCELLED by 1027614|scavenger|2023-05-23T17:11:03|2023-05-24T11:16:19|18:05:16|dcc-youlab-01|1|1|16000M||/cifs/hariri-long/Studies/DNS/Imaging/pipeline1.0/DTI/FSL/20100125_10274/FA_averaged|
ark19|CANCELLED by 1027614|scavenger|2023-05-23T17:11:03|2023-05-24T11:16:19|18:05:16|dcc-tunglab-02|1|1|16000M||/cifs/hariri-long/Studies/DNS/Imaging/pipeline1.0/DTI/FSL/20100125_10274/FA_averaged|
cjp47|PREEMPTED|scavenger|2023-05-23T17:11:03|2023-05-27T13:59:21|3-20:48:18|dcc-statdept-01|1|1|64G||/hpc/group/bio1/cyanolichen_holobiome|
jo117|COMPLETED|scavenger|2023-05-23T17:24:20|2023-05-23T18:07:04|00:42:44|dcc-fergusonlab-01|1|6|36G||/work/jo117/DiaoLab/hicar_v2/human/work/dc/1c824497c19efd91ef6f2898485665|
jo117|COMPLETED|scavenger|2023-05-23T17:33:54|2023-05-23T18:06:35|00:32:41|dcc-motesa-01|1|6|36G||/work/jo117/DiaoLab/hicar_v2/human/work/19/d34f0a81d79afb70606cb51df7ac93|
jo117|COMPLETED|scavenger|2023-05-23T17:52:44|2023-05-23T18:22:58|00:30:14|dcc-fergusonlab-01|1|6|36G||/work/jo117/DiaoLab/hicar_v2/human/work/43/85cd2263908cee6239a967e43a7d4a|
ark19|CANCELLED by 1027614|scavenger|2023-05-23T17:55:37|2023-05-24T11:16:19|17:20:42|dcc-tunglab-02|1|1|16000M||/cifs/hariri-long/Studies/DNS/Imaging/pipeline1.0/DTI/FSL/20100125_10274/FA_averaged|
ark19|CANCELLED by 1027614|scavenger|2023-05-23T17:55:37|2023-05-24T11:16:19|17:20:42|dcc-tunglab-02|1|1|16000M||/cifs/hariri-long/Studies/DNS/Imaging/pipeline1.0/DTI/FSL/20100125_10274/FA_averaged|
ark19|CANCELLED by 1027614|scavenger|2023-05-23T17:55:37|2023-05-24T11:16:19|17:20:42|dcc-statdept-01|1|1|16000M||/cifs/hariri-long/Studies/DNS/Imaging/pipeline1.0/DTI/FSL/20100125_10274/FA_averaged|
ark19|CANCELLED by 1027614|scavenger|2023-05-23T17:55:37|2023-05-24T11:16:19|17:20:42|dcc-pbenfeylab-02|1|1|16000M||/cifs/hariri-long/Studies/DNS/Imaging/pipeline1.0/DTI/FSL/20100125_10274/FA_averaged|
jb621|COMPLETED|scavenger|2023-05-23T17:57:00|2023-05-23T18:02:28|00:05:28|dcc-delairelab-01|1|4|27600M||/work/jb621|
ark19|CANCELLED by 1027614|scavenger|2023-05-23T18:04:59|2023-05-24T11:16:21|17:11:22|dcc-pbenfeylab-02|1|1|16000M||/cifs/hariri-long/Studies/DNS/Imaging/pipeline1.0/DTI/FSL/20100125_10274/FA_averaged|
ark19|CANCELLED by 1027614|scavenger|2023-05-23T18:04:59|2023-05-24T11:16:21|17:11:22|dcc-pbenfeylab-02|1|1|16000M||/cifs/hariri-long/Studies/DNS/Imaging/pipeline1.0/DTI/FSL/20100125_10274/FA_averaged|
ark19|CANCELLED by 1027614|scavenger|2023-05-23T18:04:59|2023-05-24T11:16:20|17:11:21|dcc-pbenfeylab-02|1|1|16000M||/cifs/hariri-long/Studies/DNS/Imaging/pipeline1.0/DTI/FSL/20100125_10274/FA_averaged|
ark19|CANCELLED by 1027614|scavenger|2023-05-23T18:04:59|2023-05-24T11:16:20|17:11:21|dcc-pbenfeylab-02|1|1|16000M||/cifs/hariri-long/Studies/DNS/Imaging/pipeline1.0/DTI/FSL/20100125_10274/FA_averaged|
ark19|CANCELLED by 1027614|scavenger|2023-05-23T18:04:59|2023-05-24T11:16:21|17:11:22|dcc-pbenfeylab-02|1|1|16000M||/cifs/hariri-long/Studies/DNS/Imaging/pipeline1.0/DTI/FSL/20100125_10274/FA_averaged|
ark19|CANCELLED by 1027614|scavenger|2023-05-23T18:04:59|2023-05-24T11:16:21|17:11:22|dcc-pbenfeylab-02|1|1|16000M||/cifs/hariri-long/Studies/DNS/Imaging/pipeline1.0/DTI/FSL/20100125_10274/FA_averaged|
ark19|CANCELLED by 1027614|scavenger|2023-05-23T18:04:59|2023-05-24T11:16:20|17:11:21|dcc-pbenfeylab-02|1|1|16000M||/cifs/hariri-long/Studies/DNS/Imaging/pipeline1.0/DTI/FSL/20100125_10274/FA_averaged|
ark19|CANCELLED by 1027614|scavenger|2023-05-23T18:04:59|2023-05-24T11:16:21|17:11:22|dcc-pbenfeylab-02|1|1|16000M||/cifs/hariri-long/Studies/DNS/Imaging/pipeline1.0/DTI/FSL/20100125_10274/FA_averaged|
ark19|CANCELLED by 1027614|scavenger|2023-05-23T18:05:00|2023-05-24T11:16:20|17:11:20|dcc-pbenfeylab-02|1|1|16000M||/cifs/hariri-long/Studies/DNS/Imaging/pipeline1.0/DTI/FSL/20100125_10274/FA_averaged|
ark19|CANCELLED by 1027614|scavenger|2023-05-23T18:05:00|2023-05-24T11:16:20|17:11:20|dcc-pbenfeylab-02|1|1|16000M||/cifs/hariri-long/Studies/DNS/Imaging/pipeline1.0/DTI/FSL/20100125_10274/FA_averaged|
ark19|CANCELLED by 1027614|scavenger|2023-05-23T18:05:00|2023-05-24T11:16:20|17:11:20|dcc-pbenfeylab-02|1|1|16000M||/cifs/hariri-long/Studies/DNS/Imaging/pipeline1.0/DTI/FSL/20100125_10274/FA_averaged|
ark19|CANCELLED by 1027614|scavenger|2023-05-23T18:05:00|2023-05-24T11:16:20|17:11:20|dcc-pbenfeylab-02|1|1|16000M||/cifs/hariri-long/Studies/DNS/Imaging/pipeline1.0/DTI/FSL/20100125_10274/FA_averaged|
ark19|CANCELLED by 1027614|scavenger|2023-05-23T18:05:00|2023-05-24T11:16:21|17:11:21|dcc-pbenfeylab-02|1|1|16000M||/cifs/hariri-long/Studies/DNS/Imaging/pipeline1.0/DTI/FSL/20100125_10274/FA_averaged|
jo117|COMPLETED|scavenger|2023-05-23T18:06:44|2023-05-24T14:52:18|20:45:34|dcc-hashimilab-01|1|12|120G||/work/jo117/DiaoLab/hicar_v2/human/work/f3/9400968f67a247a751480e0a8bc1c0|
jo117|COMPLETED|scavenger|2023-05-23T18:07:25|2023-05-24T12:51:57|18:44:32|dcc-dunsonlab-01|1|12|120G||/work/jo117/DiaoLab/hicar_v2/human/work/7d/c64cc165a6c0a1be54969750f91b58|
dg304|COMPLETED|scavenger|2023-05-23T18:21:24|2023-05-23T18:31:01|00:09:37|dcc-nsoe-it-01|1|16|256G||/work/dg304/dala/cyanolichen_holobiome|
dg304|COMPLETED|scavenger|2023-05-23T18:21:24|2023-05-23T18:31:53|00:10:29|dcc-fergusonlab-03|1|16|256G||/work/dg304/dala/cyanolichen_holobiome|
dg304|COMPLETED|scavenger|2023-05-23T18:21:24|2023-05-23T18:31:01|00:09:37|dcc-fergusonlab-04|1|16|256G||/work/dg304/dala/cyanolichen_holobiome|
dg304|COMPLETED|scavenger|2023-05-23T18:21:24|2023-05-23T18:37:22|00:15:58|dcc-pbenfeylab-01|1|16|256G||/work/dg304/dala/cyanolichen_holobiome|
dg304|COMPLETED|scavenger|2023-05-23T18:21:24|2023-05-23T18:37:21|00:15:57|dcc-pbenfeylab-01|1|16|256G||/work/dg304/dala/cyanolichen_holobiome|
dg304|COMPLETED|scavenger|2023-05-23T18:31:01|2023-05-23T18:41:52|00:10:51|dcc-fergusonlab-01|1|16|256G||/work/dg304/dala/cyanolichen_holobiome|
dg304|COMPLETED|scavenger|2023-05-23T18:31:01|2023-05-23T18:34:08|00:03:07|dcc-fergusonlab-04|1|16|256G||/work/dg304/dala/cyanolichen_holobiome|
dg304|COMPLETED|scavenger|2023-05-23T18:31:54|2023-05-23T18:36:37|00:04:43|dcc-fergusonlab-03|1|16|256G||/work/dg304/dala/cyanolichen_holobiome|
dg304|COMPLETED|scavenger|2023-05-23T18:34:08|2023-05-23T18:35:21|00:01:13|dcc-fergusonlab-04|1|16|256G||/work/dg304/dala/cyanolichen_holobiome|
dg304|COMPLETED|scavenger|2023-05-23T18:35:23|2023-05-23T18:36:34|00:01:11|dcc-fergusonlab-04|1|16|256G||/work/dg304/dala/cyanolichen_holobiome|
dg304|COMPLETED|scavenger|2023-05-23T18:36:35|2023-05-23T18:37:46|00:01:11|dcc-fergusonlab-04|1|16|256G||/work/dg304/dala/cyanolichen_holobiome|
dg304|COMPLETED|scavenger|2023-05-23T18:36:37|2023-05-23T18:38:18|00:01:41|dcc-fergusonlab-03|1|16|256G||/work/dg304/dala/cyanolichen_holobiome|
dg304|COMPLETED|scavenger|2023-05-23T18:37:21|2023-05-23T18:40:33|00:03:12|dcc-nsoe-it-01|1|16|256G||/work/dg304/dala/cyanolichen_holobiome|
dg304|COMPLETED|scavenger|2023-05-23T18:37:23|2023-05-23T18:50:57|00:13:34|dcc-fergusonlab-06|1|16|256G||/work/dg304/dala/cyanolichen_holobiome|
dg304|COMPLETED|scavenger|2023-05-23T18:37:47|2023-05-23T18:38:58|00:01:11|dcc-fergusonlab-04|1|16|256G||/work/dg304/dala/cyanolichen_holobiome|
dg304|COMPLETED|scavenger|2023-05-23T18:38:19|2023-05-23T18:39:44|00:01:25|dcc-fergusonlab-03|1|16|256G||/work/dg304/dala/cyanolichen_holobiome|
hm173|FAILED|scavenger|2023-05-23T18:28:42|2023-05-23T20:46:50|02:18:08|dcc-gcb-01|1|64|320G||/hpc/home/hm173|
ark19|FAILED|scavenger|2023-05-23T18:30:54|2023-05-23T18:31:59|00:01:05|dcc-youlab-01|1|1|2G||/cifs/hariri-long/Studies/DNS/Imaging/pipeline1.0/DTI/FSL/20100125_10274/FA_averaged|
hm173|COMPLETED|scavenger|2023-05-23T18:34:59|2023-05-24T00:01:59|05:27:00|dcc-herringlab-01|1|64|320G||/hpc/group/fuqua/hm173/NETS|
