pz19|RUNNING|scavenger|2023-03-29T09:52:04|Unknown|77-04:37:07|dcc-fergusonlab-05|1|10|457000M||/work/pz19/Jiaqi/13e14o|
smokeauth2-tst|NODE_FAIL|scavenger|2023-04-18T10:56:00|2023-05-29T17:29:37|41-06:33:37|dcc-tunglab-02|1|1|2G||/hpc/home/smokeauth2-tst|
smokeauth2-tst|RUNNING|scavenger|2023-04-18T12:49:48|Unknown|57-01:39:23|dcc-noor-01|1|1|2G||/hpc/home/smokeauth2-tst|
fjm7|RUNNING|scavenger|2023-04-23T15:19:07|Unknown|51-23:10:04|dcc-noor-01|1|1|2G||/hpc/group/brownlab/fjm7/new-data-collection/slurm-runners|
fjm7|RUNNING|scavenger|2023-04-23T15:19:07|Unknown|51-23:10:04|dcc-noor-01|1|1|2G||/hpc/group/brownlab/fjm7/new-data-collection/slurm-runners|
fjm7|RUNNING|scavenger|2023-04-23T15:19:07|Unknown|51-23:10:04|dcc-noor-01|1|1|2G||/hpc/group/brownlab/fjm7/new-data-collection/slurm-runners|
fjm7|RUNNING|scavenger|2023-04-23T15:19:08|Unknown|51-23:10:03|dcc-noor-01|1|1|2G||/hpc/group/brownlab/fjm7/new-data-collection/slurm-runners|
fjm7|RUNNING|scavenger|2023-04-23T15:19:08|Unknown|51-23:10:03|dcc-noor-01|1|1|2G||/hpc/group/brownlab/fjm7/new-data-collection/slurm-runners|
lh342|TIMEOUT|scavenger|2023-05-02T03:05:50|2023-06-01T03:06:14|30-00:00:24|dcc-compeb-02|1|8|16G||/hpc/home/lh342/ondemand/data/sys/dashboard/batch_connect/sys/bc_desktop/dcc/output/702824cf-eb77-47a5-9f97-205f479dd2d4|
cw446|CANCELLED by 1401348|scavenger|2023-05-08T23:40:21|2023-05-30T10:48:58|21-11:08:37|dcc-fergusonlab-04|1|5|300G||/hpc/group/jilab/changxin|
smokeauth2-tst|RUNNING|scavenger|2023-05-09T00:51:37|Unknown|36-13:37:34|dcc-wychem-01|1|1|2G||/hpc/home/smokeauth2-tst|
pz19|COMPLETED|scavenger|2023-05-15T23:21:42|2023-05-30T14:18:14|14-14:56:32|dcc-fergusonlab-01|1|16|32000M||/work/pz19/Dexter|
lh342|RUNNING|scavenger|2023-05-16T10:36:56|Unknown|29-03:52:15|dcc-carin-23|1|8|16G||/hpc/home/lh342/ondemand/data/sys/dashboard/batch_connect/sys/bc_desktop/dcc/output/594ab9c6-93bc-4698-ac53-905dbde8eef7|
ew198|COMPLETED|scavenger|2023-05-17T15:01:57|2023-05-30T13:18:19|12-22:16:22|dcc-youlab-01|1|1|125G||/cifs/hariri-long/Projects/Annchen/Scripts/ArealMSHBM|
ew198|COMPLETED|scavenger|2023-05-17T15:01:57|2023-05-30T13:18:47|12-22:16:50|dcc-wychem-01|1|1|16000M||/cifs/hariri-long/Projects/Annchen/Scripts/ArealMSHBM|
ew198|COMPLETED|scavenger|2023-05-17T15:01:57|2023-05-30T13:18:47|12-22:16:50|dcc-wychem-01|1|1|16000M||/cifs/hariri-long/Projects/Annchen/Scripts/ArealMSHBM|
ew198|COMPLETED|scavenger|2023-05-17T15:01:57|2023-05-30T13:18:47|12-22:16:50|dcc-wychem-01|1|1|16000M||/cifs/hariri-long/Projects/Annchen/Scripts/ArealMSHBM|
ew198|COMPLETED|scavenger|2023-05-17T15:01:57|2023-05-30T13:18:47|12-22:16:50|dcc-wychem-01|1|1|16000M||/cifs/hariri-long/Projects/Annchen/Scripts/ArealMSHBM|
ew198|COMPLETED|scavenger|2023-05-17T15:01:57|2023-05-30T13:18:47|12-22:16:50|dcc-wychem-01|1|1|16000M||/cifs/hariri-long/Projects/Annchen/Scripts/ArealMSHBM|
ew198|COMPLETED|scavenger|2023-05-17T15:01:57|2023-05-30T13:18:47|12-22:16:50|dcc-wychem-01|1|1|16000M||/cifs/hariri-long/Projects/Annchen/Scripts/ArealMSHBM|
ew198|COMPLETED|scavenger|2023-05-17T15:01:57|2023-05-30T13:18:47|12-22:16:50|dcc-wychem-01|1|1|16000M||/cifs/hariri-long/Projects/Annchen/Scripts/ArealMSHBM|
ew198|COMPLETED|scavenger|2023-05-17T15:01:57|2023-05-30T13:18:47|12-22:16:50|dcc-wychem-01|1|1|16000M||/cifs/hariri-long/Projects/Annchen/Scripts/ArealMSHBM|
ew198|COMPLETED|scavenger|2023-05-17T15:01:57|2023-05-30T13:18:47|12-22:16:50|dcc-wychem-01|1|1|16000M||/cifs/hariri-long/Projects/Annchen/Scripts/ArealMSHBM|
ew198|NODE_FAIL|scavenger|2023-05-17T15:01:57|2023-05-29T17:29:37|12-02:27:40|dcc-tunglab-02|1|1|16000M||/cifs/hariri-long/Projects/Annchen/Scripts/ArealMSHBM|
ew198|NODE_FAIL|scavenger|2023-05-17T15:01:57|2023-05-29T17:29:37|12-02:27:40|dcc-tunglab-02|1|1|16000M||/cifs/hariri-long/Projects/Annchen/Scripts/ArealMSHBM|
ew198|NODE_FAIL|scavenger|2023-05-17T15:01:57|2023-05-29T17:29:37|12-02:27:40|dcc-tunglab-02|1|1|16000M||/cifs/hariri-long/Projects/Annchen/Scripts/ArealMSHBM|
ew198|NODE_FAIL|scavenger|2023-05-17T15:01:57|2023-05-29T17:29:37|12-02:27:40|dcc-tunglab-02|1|1|16000M||/cifs/hariri-long/Projects/Annchen/Scripts/ArealMSHBM|
ew198|NODE_FAIL|scavenger|2023-05-17T15:01:58|2023-05-29T17:29:37|12-02:27:39|dcc-tunglab-02|1|1|16000M||/cifs/hariri-long/Projects/Annchen/Scripts/ArealMSHBM|
ew198|NODE_FAIL|scavenger|2023-05-17T15:01:58|2023-05-29T17:29:37|12-02:27:39|dcc-tunglab-02|1|1|16000M||/cifs/hariri-long/Projects/Annchen/Scripts/ArealMSHBM|
ew198|NODE_FAIL|scavenger|2023-05-17T15:01:58|2023-05-29T17:29:37|12-02:27:39|dcc-tunglab-02|1|1|125G||/cifs/hariri-long/Projects/Annchen/Scripts/ArealMSHBM|
ew198|NODE_FAIL|scavenger|2023-05-17T15:01:58|2023-05-29T17:29:37|12-02:27:39|dcc-tunglab-02|1|1|16000M||/cifs/hariri-long/Projects/Annchen/Scripts/ArealMSHBM|
ew198|NODE_FAIL|scavenger|2023-05-17T15:01:58|2023-05-29T17:29:37|12-02:27:39|dcc-tunglab-02|1|1|16000M||/cifs/hariri-long/Projects/Annchen/Scripts/ArealMSHBM|
ew198|NODE_FAIL|scavenger|2023-05-17T15:01:58|2023-05-29T17:29:37|12-02:27:39|dcc-tunglab-02|1|1|16000M||/cifs/hariri-long/Projects/Annchen/Scripts/ArealMSHBM|
ew198|NODE_FAIL|scavenger|2023-05-17T15:01:58|2023-05-29T17:29:37|12-02:27:39|dcc-tunglab-02|1|1|16000M||/cifs/hariri-long/Projects/Annchen/Scripts/ArealMSHBM|
ew198|NODE_FAIL|scavenger|2023-05-17T15:01:58|2023-05-29T17:29:37|12-02:27:39|dcc-tunglab-02|1|1|16000M||/cifs/hariri-long/Projects/Annchen/Scripts/ArealMSHBM|
ew198|COMPLETED|scavenger|2023-05-17T15:01:58|2023-05-30T13:18:33|12-22:16:35|dcc-tunglab-01|1|1|16000M||/cifs/hariri-long/Projects/Annchen/Scripts/ArealMSHBM|
ew198|PREEMPTED|scavenger|2023-05-17T15:01:58|2023-05-31T16:16:08|14-01:14:10|dcc-tunglab-01|1|1|16000M||/cifs/hariri-long/Projects/Annchen/Scripts/ArealMSHBM|
ew198|COMPLETED|scavenger|2023-05-17T15:01:58|2023-05-30T13:18:33|12-22:16:35|dcc-tunglab-01|1|1|16000M||/cifs/hariri-long/Projects/Annchen/Scripts/ArealMSHBM|
ew198|PREEMPTED|scavenger|2023-05-17T15:01:58|2023-05-31T16:35:14|14-01:33:16|dcc-tunglab-01|1|1|16000M||/cifs/hariri-long/Projects/Annchen/Scripts/ArealMSHBM|
ew198|COMPLETED|scavenger|2023-05-17T15:01:58|2023-05-30T13:18:33|12-22:16:35|dcc-tunglab-01|1|1|16000M||/cifs/hariri-long/Projects/Annchen/Scripts/ArealMSHBM|
ew198|PREEMPTED|scavenger|2023-05-17T15:01:58|2023-05-31T16:35:18|14-01:33:20|dcc-tunglab-01|1|1|16000M||/cifs/hariri-long/Projects/Annchen/Scripts/ArealMSHBM|
ew198|COMPLETED|scavenger|2023-05-17T15:01:58|2023-05-30T13:18:33|12-22:16:35|dcc-tunglab-01|1|1|16000M||/cifs/hariri-long/Projects/Annchen/Scripts/ArealMSHBM|
ew198|PREEMPTED|scavenger|2023-05-17T15:01:58|2023-05-31T16:35:25|14-01:33:27|dcc-tunglab-01|1|1|16000M||/cifs/hariri-long/Projects/Annchen/Scripts/ArealMSHBM|
ew198|COMPLETED|scavenger|2023-05-17T15:01:59|2023-05-30T13:18:33|12-22:16:34|dcc-tunglab-01|1|1|16000M||/cifs/hariri-long/Projects/Annchen/Scripts/ArealMSHBM|
ew198|PREEMPTED|scavenger|2023-05-17T15:01:59|2023-05-31T16:35:32|14-01:33:33|dcc-tunglab-01|1|1|16000M||/cifs/hariri-long/Projects/Annchen/Scripts/ArealMSHBM|
ew198|COMPLETED|scavenger|2023-05-17T15:01:59|2023-05-30T13:18:47|12-22:16:48|dcc-tmolab-02|1|1|16000M||/cifs/hariri-long/Projects/Annchen/Scripts/ArealMSHBM|
ew198|CANCELLED by 1455533|scavenger|2023-05-17T15:01:59|2023-06-02T11:18:52|15-20:16:53|dcc-tmolab-02|1|1|16000M||/cifs/hariri-long/Projects/Annchen/Scripts/ArealMSHBM|
ew198|COMPLETED|scavenger|2023-05-17T15:01:59|2023-05-30T13:18:47|12-22:16:48|dcc-tmolab-02|1|1|16000M||/cifs/hariri-long/Projects/Annchen/Scripts/ArealMSHBM|
ew198|CANCELLED by 1455533|scavenger|2023-05-17T15:01:59|2023-06-02T11:18:52|15-20:16:53|dcc-tmolab-02|1|1|16000M||/cifs/hariri-long/Projects/Annchen/Scripts/ArealMSHBM|
ew198|COMPLETED|scavenger|2023-05-17T15:01:59|2023-05-30T13:18:47|12-22:16:48|dcc-tmolab-02|1|1|16000M||/cifs/hariri-long/Projects/Annchen/Scripts/ArealMSHBM|
ew198|CANCELLED by 1455533|scavenger|2023-05-17T15:01:59|2023-06-02T11:18:52|15-20:16:53|dcc-tmolab-02|1|1|16000M||/cifs/hariri-long/Projects/Annchen/Scripts/ArealMSHBM|
ew198|COMPLETED|scavenger|2023-05-17T15:01:59|2023-05-30T13:18:47|12-22:16:48|dcc-tmolab-02|1|1|16000M||/cifs/hariri-long/Projects/Annchen/Scripts/ArealMSHBM|
ew198|CANCELLED by 1455533|scavenger|2023-05-17T15:01:59|2023-06-02T11:18:52|15-20:16:53|dcc-tmolab-02|1|1|16000M||/cifs/hariri-long/Projects/Annchen/Scripts/ArealMSHBM|
ew198|COMPLETED|scavenger|2023-05-17T15:01:59|2023-05-30T13:18:44|12-22:16:45|dcc-tmolab-01|1|1|16000M||/cifs/hariri-long/Projects/Annchen/Scripts/ArealMSHBM|
ew198|CANCELLED by 1455533|scavenger|2023-05-17T15:01:59|2023-06-02T11:18:52|15-20:16:53|dcc-tmolab-01|1|1|16000M||/cifs/hariri-long/Projects/Annchen/Scripts/ArealMSHBM|
ew198|COMPLETED|scavenger|2023-05-17T15:01:59|2023-05-30T13:18:44|12-22:16:45|dcc-tmolab-01|1|1|16000M||/cifs/hariri-long/Projects/Annchen/Scripts/ArealMSHBM|
ew198|CANCELLED by 1455533|scavenger|2023-05-17T15:01:59|2023-06-02T11:18:52|15-20:16:53|dcc-tmolab-01|1|1|16000M||/cifs/hariri-long/Projects/Annchen/Scripts/ArealMSHBM|
ew198|COMPLETED|scavenger|2023-05-17T15:01:59|2023-05-30T13:18:44|12-22:16:45|dcc-tmolab-01|1|1|16000M||/cifs/hariri-long/Projects/Annchen/Scripts/ArealMSHBM|
ew198|CANCELLED by 1455533|scavenger|2023-05-17T15:01:59|2023-06-02T11:18:52|15-20:16:53|dcc-tmolab-01|1|1|16000M||/cifs/hariri-long/Projects/Annchen/Scripts/ArealMSHBM|
ew198|CANCELLED by 1455533|scavenger|2023-05-17T15:01:59|2023-06-02T11:18:52|15-20:16:53|dcc-tmolab-01|1|1|16000M||/cifs/hariri-long/Projects/Annchen/Scripts/ArealMSHBM|
ew198|COMPLETED|scavenger|2023-05-17T15:02:00|2023-05-30T13:19:00|12-22:17:00|dcc-statdept-01|1|1|16000M||/cifs/hariri-long/Projects/Annchen/Scripts/ArealMSHBM|
ew198|CANCELLED by 1455533|scavenger|2023-05-17T15:02:00|2023-06-02T11:18:52|15-20:16:52|dcc-statdept-01|1|1|16000M||/cifs/hariri-long/Projects/Annchen/Scripts/ArealMSHBM|
ew198|COMPLETED|scavenger|2023-05-17T15:02:30|2023-05-30T13:19:00|12-22:16:30|dcc-statdept-01|1|1|16000M||/cifs/hariri-long/Projects/Annchen/Scripts/ArealMSHBM|
ew198|CANCELLED by 1455533|scavenger|2023-05-17T15:02:30|2023-06-02T11:18:52|15-20:16:22|dcc-savageresearch-02|1|1|16000M||/cifs/hariri-long/Projects/Annchen/Scripts/ArealMSHBM|
ew198|COMPLETED|scavenger|2023-05-17T15:02:30|2023-05-30T13:18:35|12-22:16:05|dcc-savageresearch-02|1|1|16000M||/cifs/hariri-long/Projects/Annchen/Scripts/ArealMSHBM|
ew198|COMPLETED|scavenger|2023-05-17T15:02:30|2023-05-30T13:18:35|12-22:16:05|dcc-savageresearch-02|1|1|16000M||/cifs/hariri-long/Projects/Annchen/Scripts/ArealMSHBM|
ew198|CANCELLED by 1455533|scavenger|2023-05-17T15:02:30|2023-06-02T11:18:52|15-20:16:22|dcc-savageresearch-02|1|1|16000M||/cifs/hariri-long/Projects/Annchen/Scripts/ArealMSHBM|
ew198|CANCELLED by 1455533|scavenger|2023-05-17T15:02:30|2023-06-02T11:18:52|15-20:16:22|dcc-savageresearch-02|1|1|16000M||/cifs/hariri-long/Projects/Annchen/Scripts/ArealMSHBM|
ew198|COMPLETED|scavenger|2023-05-17T15:02:30|2023-05-30T13:18:35|12-22:16:05|dcc-savageresearch-02|1|1|16000M||/cifs/hariri-long/Projects/Annchen/Scripts/ArealMSHBM|
ew198|COMPLETED|scavenger|2023-05-17T15:02:31|2023-05-30T13:18:35|12-22:16:04|dcc-savageresearch-02|1|1|16000M||/cifs/hariri-long/Projects/Annchen/Scripts/ArealMSHBM|
ew198|CANCELLED by 1455533|scavenger|2023-05-17T15:02:31|2023-06-02T11:18:52|15-20:16:21|dcc-savageresearch-02|1|1|16000M||/cifs/hariri-long/Projects/Annchen/Scripts/ArealMSHBM|
ew198|COMPLETED|scavenger|2023-05-17T15:02:31|2023-05-30T13:18:35|12-22:16:04|dcc-savageresearch-02|1|1|16000M||/cifs/hariri-long/Projects/Annchen/Scripts/ArealMSHBM|
ew198|CANCELLED by 1455533|scavenger|2023-05-17T15:02:31|2023-06-02T11:18:52|15-20:16:21|dcc-savageresearch-02|1|1|16000M||/cifs/hariri-long/Projects/Annchen/Scripts/ArealMSHBM|
ew198|CANCELLED by 1455533|scavenger|2023-05-17T15:02:31|2023-06-02T11:18:52|15-20:16:21|dcc-savageresearch-02|1|1|16000M||/cifs/hariri-long/Projects/Annchen/Scripts/ArealMSHBM|
ew198|COMPLETED|scavenger|2023-05-17T15:02:31|2023-05-30T13:18:35|12-22:16:04|dcc-savageresearch-02|1|1|16000M||/cifs/hariri-long/Projects/Annchen/Scripts/ArealMSHBM|
ew198|COMPLETED|scavenger|2023-05-17T15:02:31|2023-05-30T13:18:35|12-22:16:04|dcc-savageresearch-01|1|1|16000M||/cifs/hariri-long/Projects/Annchen/Scripts/ArealMSHBM|
ew198|CANCELLED by 1455533|scavenger|2023-05-17T15:02:31|2023-06-02T11:18:52|15-20:16:21|dcc-savageresearch-01|1|1|16000M||/cifs/hariri-long/Projects/Annchen/Scripts/ArealMSHBM|
ew198|CANCELLED by 1455533|scavenger|2023-05-17T15:02:31|2023-06-02T11:18:52|15-20:16:21|dcc-savageresearch-01|1|1|16000M||/cifs/hariri-long/Projects/Annchen/Scripts/ArealMSHBM|
ew198|COMPLETED|scavenger|2023-05-17T15:02:31|2023-05-30T13:18:35|12-22:16:04|dcc-savageresearch-01|1|1|16000M||/cifs/hariri-long/Projects/Annchen/Scripts/ArealMSHBM|
ew198|CANCELLED by 1455533|scavenger|2023-05-17T15:02:31|2023-06-02T11:18:52|15-20:16:21|dcc-savageresearch-01|1|1|16000M||/cifs/hariri-long/Projects/Annchen/Scripts/ArealMSHBM|
ew198|COMPLETED|scavenger|2023-05-17T15:02:31|2023-05-30T13:18:35|12-22:16:04|dcc-savageresearch-01|1|1|16000M||/cifs/hariri-long/Projects/Annchen/Scripts/ArealMSHBM|
ew198|CANCELLED by 1455533|scavenger|2023-05-17T15:02:31|2023-06-02T11:18:52|15-20:16:21|dcc-rausherlab-02|1|1|16000M||/cifs/hariri-long/Projects/Annchen/Scripts/ArealMSHBM|
ew198|COMPLETED|scavenger|2023-05-17T15:02:31|2023-05-30T13:18:52|12-22:16:21|dcc-rausherlab-02|1|1|16000M||/cifs/hariri-long/Projects/Annchen/Scripts/ArealMSHBM|
ew198|CANCELLED by 1455533|scavenger|2023-05-17T15:02:31|2023-06-02T11:18:52|15-20:16:21|dcc-rausherlab-01|1|1|16000M||/cifs/hariri-long/Projects/Annchen/Scripts/ArealMSHBM|
ew198|COMPLETED|scavenger|2023-05-17T15:02:31|2023-05-30T13:18:42|12-22:16:11|dcc-rausherlab-01|1|1|16000M||/cifs/hariri-long/Projects/Annchen/Scripts/ArealMSHBM|
ew198|CANCELLED by 1455533|scavenger|2023-05-17T15:02:31|2023-06-02T11:18:52|15-20:16:21|dcc-rausherlab-01|1|1|16000M||/cifs/hariri-long/Projects/Annchen/Scripts/ArealMSHBM|
ew198|COMPLETED|scavenger|2023-05-17T15:02:32|2023-05-30T13:18:42|12-22:16:10|dcc-rausherlab-01|1|1|16000M||/cifs/hariri-long/Projects/Annchen/Scripts/ArealMSHBM|
ew198|CANCELLED by 1455533|scavenger|2023-05-17T15:02:32|2023-06-02T11:18:52|15-20:16:20|dcc-rausherlab-01|1|1|16000M||/cifs/hariri-long/Projects/Annchen/Scripts/ArealMSHBM|
ew198|COMPLETED|scavenger|2023-05-17T15:02:32|2023-05-30T13:18:44|12-22:16:12|dcc-rausherlab-01|1|1|16000M||/cifs/hariri-long/Projects/Annchen/Scripts/ArealMSHBM|
ew198|CANCELLED by 1455533|scavenger|2023-05-17T15:02:32|2023-06-02T11:18:52|15-20:16:20|dcc-rausherlab-01|1|1|16000M||/cifs/hariri-long/Projects/Annchen/Scripts/ArealMSHBM|
ew198|COMPLETED|scavenger|2023-05-17T15:02:32|2023-05-30T13:18:44|12-22:16:12|dcc-rausherlab-01|1|1|16000M||/cifs/hariri-long/Projects/Annchen/Scripts/ArealMSHBM|
ew198|CANCELLED by 1455533|scavenger|2023-05-17T15:02:32|2023-06-02T11:18:52|15-20:16:20|dcc-pfister-01|1|1|16000M||/cifs/hariri-long/Projects/Annchen/Scripts/ArealMSHBM|
ew198|CANCELLED by 1455533|scavenger|2023-05-17T15:02:32|2023-06-02T11:18:52|15-20:16:20|dcc-pfister-01|1|1|16000M||/cifs/hariri-long/Projects/Annchen/Scripts/ArealMSHBM|
ew198|CANCELLED by 1455533|scavenger|2023-05-17T15:02:32|2023-06-02T11:18:52|15-20:16:20|dcc-pfister-01|1|1|16000M||/cifs/hariri-long/Projects/Annchen/Scripts/ArealMSHBM|
ew198|CANCELLED by 1455533|scavenger|2023-05-17T15:02:32|2023-06-02T11:18:52|15-20:16:20|dcc-pfister-01|1|1|16000M||/cifs/hariri-long/Projects/Annchen/Scripts/ArealMSHBM|
ew198|CANCELLED by 1455533|scavenger|2023-05-17T15:02:32|2023-06-02T11:18:52|15-20:16:20|dcc-pfister-01|1|1|16000M||/cifs/hariri-long/Projects/Annchen/Scripts/ArealMSHBM|
ew198|CANCELLED by 1455533|scavenger|2023-05-17T15:02:32|2023-06-02T11:18:52|15-20:16:20|dcc-pfister-01|1|1|16000M||/cifs/hariri-long/Projects/Annchen/Scripts/ArealMSHBM|
ew198|CANCELLED by 1455533|scavenger|2023-05-17T15:02:32|2023-06-02T11:18:52|15-20:16:20|dcc-pfister-01|1|1|16000M||/cifs/hariri-long/Projects/Annchen/Scripts/ArealMSHBM|
ew198|CANCELLED by 1455533|scavenger|2023-05-17T15:02:32|2023-06-02T11:18:52|15-20:16:20|dcc-pfister-01|1|1|16000M||/cifs/hariri-long/Projects/Annchen/Scripts/ArealMSHBM|
ew198|CANCELLED by 1455533|scavenger|2023-05-17T15:02:32|2023-06-02T11:18:52|15-20:16:20|dcc-pfister-01|1|1|16000M||/cifs/hariri-long/Projects/Annchen/Scripts/ArealMSHBM|
ew198|CANCELLED by 1455533|scavenger|2023-05-17T15:02:32|2023-06-02T11:18:52|15-20:16:20|dcc-pfister-01|1|1|16000M||/cifs/hariri-long/Projects/Annchen/Scripts/ArealMSHBM|
ew198|CANCELLED by 1455533|scavenger|2023-05-17T15:02:32|2023-06-02T11:18:52|15-20:16:20|dcc-pfister-01|1|1|16000M||/cifs/hariri-long/Projects/Annchen/Scripts/ArealMSHBM|
ew198|CANCELLED by 1455533|scavenger|2023-05-17T15:02:32|2023-06-02T11:18:52|15-20:16:20|dcc-pfister-01|1|1|16000M||/cifs/hariri-long/Projects/Annchen/Scripts/ArealMSHBM|
ew198|CANCELLED by 1455533|scavenger|2023-05-17T15:02:32|2023-06-02T11:18:52|15-20:16:20|dcc-pfister-01|1|1|16000M||/cifs/hariri-long/Projects/Annchen/Scripts/ArealMSHBM|
pz19|TIMEOUT|scavenger|2023-05-19T15:41:44|2023-05-30T05:41:54|10-14:00:10|dcc-adrc-01|1|16|25408M||/work/pz19/Wang/Copper/Silicon/TS_06_3Lig/M06L|
pz19|TIMEOUT|scavenger|2023-05-19T15:57:29|2023-05-30T05:57:54|10-14:00:25|dcc-adrc-01|1|16|25408M||/work/pz19/Wang/Copper/Silicon/TS_06_3Lig/MN15|
pz19|CANCELLED by 1050403|scavenger|2023-05-21T11:48:01|2023-05-30T10:18:10|8-22:30:09|dcc-compeb-01|1|16|25408M||/work/pz19/Wang/Copper/Silicon/TS_06_3LigOAc/B3LYP|
pz19|TIMEOUT|scavenger|2023-05-21T11:52:32|2023-06-01T01:52:58|10-14:00:26|dcc-adrc-01|1|16|25408M||/work/pz19/Wang/Copper/Silicon/TS_06_3LigOAc/B3LYP|
sw582|COMPLETED|scavenger|2023-05-22T00:48:28|2023-05-30T12:48:46|8-12:00:18|dcc-youlab-01|1|1|2G||/hpc/group/dbergerlab/sw582/empty_dir|
cjp47|RUNNING|scavenger|2023-05-22T09:27:11|Unknown|23-05:02:00|dcc-tmolab-01|1|1|64G||/hpc/group/bio1/cyanolichen_holobiome|
hk288|OUT_OF_MEMORY|scavenger|2023-05-23T06:28:20|2023-06-01T05:31:10|8-23:02:50|dcc-bragg-03|1|40|80G||/hpc/group/mastatlab/hk288/code_hp_paral|
hk288|COMPLETED|scavenger|2023-05-23T06:28:20|2023-05-29T02:59:32|5-20:31:12|dcc-compeb-04|1|40|80G||/hpc/group/mastatlab/hk288/code_hp_paral|
hk288|OUT_OF_MEMORY|scavenger|2023-05-23T06:28:20|2023-06-01T15:42:06|9-09:13:46|dcc-donglab-01|1|40|80G||/hpc/group/mastatlab/hk288/code_hp_paral|
ts349|FAILED|scavenger|2023-05-24T06:51:59|2023-05-31T13:27:41|7-06:35:42|dcc-bragg-04|1|30|72G||/work/ts349/stm2457_hicar/endoderm_RNA|
ts349|COMPLETED|scavenger|2023-05-24T06:56:22|2023-05-30T09:10:17|6-02:13:55|dcc-compeb-03|1|30|72G||/hpc/home/ts349|
hk288|CANCELLED by 1484570|scavenger|2023-05-24T09:25:01|2023-06-04T12:17:20|11-02:52:19|dcc-cagpm-01|1|40|200G||/hpc/group/mastatlab/hk288/code_hp_paral|
hk288|CANCELLED by 1484570|scavenger|2023-05-24T09:25:01|2023-06-04T12:17:20|11-02:52:19|dcc-nicolab-01|1|40|200G||/hpc/group/mastatlab/hk288/code_hp_paral|
hk288|PREEMPTED|scavenger|2023-05-24T09:25:01|2023-05-30T13:41:32|6-04:16:31|dcc-dunsonlab-01|1|40|200G||/hpc/group/mastatlab/hk288/code_hp_paral|
hk288|PREEMPTED|scavenger|2023-05-24T09:25:01|2023-05-30T13:41:28|6-04:16:27|dcc-dunsonlab-02|1|40|200G||/hpc/group/mastatlab/hk288/code_hp_paral|
pz19|TIMEOUT|scavenger|2023-05-24T15:03:18|2023-06-04T05:03:21|10-14:00:03|dcc-fergusonlab-04|1|16|25408M||/work/pz19/Wang/Copper/Silicon/TS_06_3LigOAc/MN15|
pz19|TIMEOUT|scavenger|2023-05-24T15:03:18|2023-06-04T05:03:21|10-14:00:03|dcc-fergusonlab-04|1|16|25408M||/work/pz19/Wang/Copper/Silicon/TS_06_3LigOAc/B3LYP|
pz19|CANCELLED by 1050403|scavenger|2023-05-24T15:03:18|2023-06-02T20:51:37|9-05:48:19|dcc-fergusonlab-05|1|16|25408M||/work/pz19/Wang/Copper/Silicon/TS_06_3Lig/MN15|
pz19|TIMEOUT|scavenger|2023-05-24T20:45:35|2023-06-04T10:45:59|10-14:00:24|dcc-bragg-01|1|16|25408M||/work/pz19/Wang/Copper/Silicon/TS_06_3LigOAc/MN15|
mea54|TIMEOUT|scavenger|2023-05-25T11:58:25|2023-05-29T11:58:47|4-00:00:22|dcc-fergusonlab-02|1|64|600G||/hpc/home/mea54/ondemand/data/sys/dashboard/batch_connect/sys/bc_microbiome_rstudio/output/4a6c0af0-0699-44f1-981c-f8fa4abf7ba5|
yl708|NODE_FAIL|scavenger|2023-05-25T15:59:44|2023-05-29T17:29:37|4-01:29:53|dcc-tunglab-02|1|1|2500M||/hpc/group/donald/yl708/TopologyNet-2017/svm|
yl708|NODE_FAIL|scavenger|2023-05-25T16:23:12|2023-05-29T17:29:37|4-01:06:25|dcc-tunglab-02|1|1|2500M||/hpc/group/donald/yl708/TopologyNet-2017/svm|
yl708|NODE_FAIL|scavenger|2023-05-25T16:25:20|2023-05-29T17:29:37|4-01:04:17|dcc-tunglab-02|1|1|2500M||/hpc/group/donald/yl708/TopologyNet-2017/svm|
yl708|NODE_FAIL|scavenger|2023-05-25T16:28:32|2023-05-29T17:29:37|4-01:01:05|dcc-tunglab-02|1|1|2500M||/hpc/group/donald/yl708/TopologyNet-2017/svm|
yl708|NODE_FAIL|scavenger|2023-05-25T16:32:16|2023-05-29T17:29:37|4-00:57:21|dcc-tunglab-02|1|1|2500M||/hpc/group/donald/yl708/TopologyNet-2017/svm|
yl708|NODE_FAIL|scavenger|2023-05-25T16:32:16|2023-05-29T17:29:37|4-00:57:21|dcc-tunglab-02|1|1|2500M||/hpc/group/donald/yl708/TopologyNet-2017/svm|
yl708|NODE_FAIL|scavenger|2023-05-25T16:36:31|2023-05-29T17:29:37|4-00:53:06|dcc-tunglab-02|1|1|2500M||/hpc/group/donald/yl708/TopologyNet-2017/svm|
yl708|NODE_FAIL|scavenger|2023-05-25T16:36:31|2023-05-29T17:29:37|4-00:53:06|dcc-tunglab-02|1|1|2500M||/hpc/group/donald/yl708/TopologyNet-2017/svm|
yl708|NODE_FAIL|scavenger|2023-05-25T16:39:43|2023-05-29T17:29:37|4-00:49:54|dcc-tunglab-02|1|1|2500M||/hpc/group/donald/yl708/TopologyNet-2017/svm|
yl708|NODE_FAIL|scavenger|2023-05-25T16:41:51|2023-05-29T17:29:37|4-00:47:46|dcc-tunglab-02|1|1|2500M||/hpc/group/donald/yl708/TopologyNet-2017/svm|
yl708|NODE_FAIL|scavenger|2023-05-25T16:41:51|2023-05-29T17:29:37|4-00:47:46|dcc-tunglab-02|1|1|2500M||/hpc/group/donald/yl708/TopologyNet-2017/svm|
pz19|CANCELLED by 1050403|scavenger|2023-05-25T16:45:31|2023-05-30T10:09:22|4-17:23:51|dcc-bragg-05|1|16|25408M||/work/pz19/Wang/Copper/Silicon/TS_06_3Lig/MN15|
hk288|COMPLETED|scavenger|2023-05-25T20:19:14|2023-05-31T15:46:23|5-19:27:09|dcc-cagpm-02|1|40|80G||/hpc/group/mastatlab/hk288/code_hp_paral|
ew198|PREEMPTED|scavenger|2023-05-26T08:26:30|2023-05-30T13:18:46|4-04:52:16|dcc-pbenfeylab-02|1|1|16000M||/cifs/hariri-long/Projects/Annchen/Scripts/ArealMSHBM|
ew198|PREEMPTED|scavenger|2023-05-26T08:26:30|2023-05-30T13:18:46|4-04:52:16|dcc-pbenfeylab-02|1|1|16000M||/cifs/hariri-long/Projects/Annchen/Scripts/ArealMSHBM|
pz19|PREEMPTED|scavenger|2023-05-26T18:34:09|2023-06-06T07:07:39|10-12:33:30|dcc-adrc-01|1|16|25408M||/work/pz19/Wang/Copper/Silicon/TS_06_3Lig/M06L|
jdw91|FAILED|scavenger|2023-05-26T22:32:54|2023-05-28T16:31:23|1-17:58:29|dcc-hulab-03|1|1|1000M||/hpc/home/jdw91/Work/RLRDS/Final_Branching_Models|
jdw91|FAILED|scavenger|2023-05-26T22:32:54|2023-05-28T16:09:38|1-17:36:44|dcc-hulab-03|1|1|1000M||/hpc/home/jdw91/Work/RLRDS/Final_Branching_Models|
jdw91|FAILED|scavenger|2023-05-26T22:33:00|2023-05-28T16:05:14|1-17:32:14|dcc-gcb-15|1|1|1000M||/hpc/home/jdw91/Work/RLRDS/Final_Branching_Models|
jdw91|FAILED|scavenger|2023-05-26T22:33:00|2023-05-28T17:16:29|1-18:43:29|dcc-gcb-15|1|1|1000M||/hpc/home/jdw91/Work/RLRDS/Final_Branching_Models|
jdw91|FAILED|scavenger|2023-05-26T22:33:01|2023-05-28T15:49:55|1-17:16:54|dcc-gcb-15|1|1|1000M||/hpc/home/jdw91/Work/RLRDS/Final_Branching_Models|
jdw91|FAILED|scavenger|2023-05-26T22:33:01|2023-05-29T00:32:02|2-01:59:01|dcc-gcb-15|1|1|1000M||/hpc/home/jdw91/Work/RLRDS/Final_Branching_Models|
jdw91|FAILED|scavenger|2023-05-26T22:33:01|2023-05-29T02:01:05|2-03:28:04|dcc-gcb-15|1|1|1000M||/hpc/home/jdw91/Work/RLRDS/Final_Branching_Models|
jdw91|FAILED|scavenger|2023-05-26T22:33:01|2023-05-28T15:51:44|1-17:18:43|dcc-gcb-15|1|1|1000M||/hpc/home/jdw91/Work/RLRDS/Final_Branching_Models|
jdw91|FAILED|scavenger|2023-05-26T22:33:01|2023-05-28T19:13:05|1-20:40:04|dcc-gcb-15|1|1|1000M||/hpc/home/jdw91/Work/RLRDS/Final_Branching_Models|
jdw91|FAILED|scavenger|2023-05-26T22:33:01|2023-05-28T16:59:17|1-18:26:16|dcc-gcb-15|1|1|1000M||/hpc/home/jdw91/Work/RLRDS/Final_Branching_Models|
jdw91|FAILED|scavenger|2023-05-26T22:33:01|2023-05-28T16:21:46|1-17:48:45|dcc-gcb-15|1|1|1000M||/hpc/home/jdw91/Work/RLRDS/Final_Branching_Models|
jdw91|FAILED|scavenger|2023-05-26T22:33:01|2023-05-29T03:06:09|2-04:33:08|dcc-gcb-15|1|1|1000M||/hpc/home/jdw91/Work/RLRDS/Final_Branching_Models|
jdw91|FAILED|scavenger|2023-05-26T22:33:01|2023-05-28T23:49:29|2-01:16:28|dcc-gcb-15|1|1|1000M||/hpc/home/jdw91/Work/RLRDS/Final_Branching_Models|
jdw91|FAILED|scavenger|2023-05-26T22:33:01|2023-05-29T00:51:12|2-02:18:11|dcc-gcb-15|1|1|1000M||/hpc/home/jdw91/Work/RLRDS/Final_Branching_Models|
jdw91|FAILED|scavenger|2023-05-26T22:33:01|2023-05-28T17:52:55|1-19:19:54|dcc-gcb-15|1|1|1000M||/hpc/home/jdw91/Work/RLRDS/Final_Branching_Models|
jdw91|FAILED|scavenger|2023-05-26T22:33:01|2023-05-28T17:44:58|1-19:11:57|dcc-gcb-15|1|1|1000M||/hpc/home/jdw91/Work/RLRDS/Final_Branching_Models|
jdw91|FAILED|scavenger|2023-05-26T22:33:01|2023-05-28T15:26:29|1-16:53:28|dcc-gcb-15|1|1|1000M||/hpc/home/jdw91/Work/RLRDS/Final_Branching_Models|
jdw91|FAILED|scavenger|2023-05-26T22:33:01|2023-05-28T15:49:13|1-17:16:12|dcc-gcb-15|1|1|1000M||/hpc/home/jdw91/Work/RLRDS/Final_Branching_Models|
jdw91|FAILED|scavenger|2023-05-26T22:33:01|2023-05-28T18:13:59|1-19:40:58|dcc-gcb-15|1|1|1000M||/hpc/home/jdw91/Work/RLRDS/Final_Branching_Models|
jdw91|FAILED|scavenger|2023-05-26T22:33:01|2023-05-28T17:36:33|1-19:03:32|dcc-gcb-15|1|1|1000M||/hpc/home/jdw91/Work/RLRDS/Final_Branching_Models|
ts349|FAILED|scavenger|2023-05-27T08:46:01|2023-05-29T20:19:23|2-11:33:22|dcc-bragg-05|1|30|72G||/hpc/home/ts349|
pz19|PREEMPTED|scavenger|2023-05-27T10:51:30|2023-05-29T06:59:07|1-20:07:37|dcc-adrc-01|1|16|25408M||/work/pz19/Wang/Copper/Silicon/TS_06_3Lig/MN15|
cjp47|COMPLETED|scavenger|2023-05-27T14:01:25|2023-06-04T10:11:24|7-20:09:59|dcc-youlab-01|1|1|64G||/hpc/group/bio1/cyanolichen_holobiome|
cjp47|COMPLETED|scavenger|2023-05-27T14:01:25|2023-06-14T08:26:15|17-18:24:50|dcc-youlab-01|1|1|64G||/hpc/group/bio1/cyanolichen_holobiome|
cjp47|COMPLETED|scavenger|2023-05-27T14:01:25|2023-06-03T21:09:30|7-07:08:05|dcc-youlab-01|1|1|64G||/hpc/group/bio1/cyanolichen_holobiome|
cjp47|RUNNING|scavenger|2023-05-27T14:01:25|Unknown|18-00:27:46|dcc-wychem-01|1|1|64G||/hpc/group/bio1/cyanolichen_holobiome|
cjp47|PREEMPTED|scavenger|2023-05-27T14:01:25|2023-05-30T12:36:32|2-22:35:07|dcc-velmeshevlab-01|1|1|64G||/hpc/group/bio1/cyanolichen_holobiome|
cjp47|PREEMPTED|scavenger|2023-05-27T14:01:25|2023-05-31T16:35:40|4-02:34:15|dcc-tunglab-01|1|1|64G||/hpc/group/bio1/cyanolichen_holobiome|
ew198|COMPLETED|scavenger|2023-05-27T14:09:03|2023-05-30T13:19:00|2-23:09:57|dcc-statdept-01|1|1|16000M||/cifs/hariri-long/Projects/Annchen/Scripts/ArealMSHBM|
ew198|CANCELLED by 1455533|scavenger|2023-05-27T14:09:03|2023-06-02T11:18:52|5-21:09:49|dcc-statdept-01|1|1|16000M||/cifs/hariri-long/Projects/Annchen/Scripts/ArealMSHBM|
ew198|CANCELLED by 1455533|scavenger|2023-05-27T14:09:03|2023-06-02T11:18:52|5-21:09:49|dcc-statdept-01|1|1|16000M||/cifs/hariri-long/Projects/Annchen/Scripts/ArealMSHBM|
ew198|COMPLETED|scavenger|2023-05-27T14:09:03|2023-05-30T13:19:00|2-23:09:57|dcc-statdept-01|1|1|16000M||/cifs/hariri-long/Projects/Annchen/Scripts/ArealMSHBM|
ew198|CANCELLED by 1455533|scavenger|2023-05-27T14:09:03|2023-06-02T11:18:52|5-21:09:49|dcc-statdept-01|1|1|16000M||/cifs/hariri-long/Projects/Annchen/Scripts/ArealMSHBM|
ew198|COMPLETED|scavenger|2023-05-27T14:09:03|2023-05-30T13:19:00|2-23:09:57|dcc-statdept-01|1|1|16000M||/cifs/hariri-long/Projects/Annchen/Scripts/ArealMSHBM|
ew198|CANCELLED by 1455533|scavenger|2023-05-27T14:09:03|2023-06-02T11:18:52|5-21:09:49|dcc-statdept-01|1|1|16000M||/cifs/hariri-long/Projects/Annchen/Scripts/ArealMSHBM|
ew198|COMPLETED|scavenger|2023-05-27T14:09:03|2023-05-30T13:19:00|2-23:09:57|dcc-statdept-01|1|1|16000M||/cifs/hariri-long/Projects/Annchen/Scripts/ArealMSHBM|
ew198|CANCELLED by 1455533|scavenger|2023-05-27T14:09:03|2023-06-02T11:18:52|5-21:09:49|dcc-statdept-01|1|1|16000M||/cifs/hariri-long/Projects/Annchen/Scripts/ArealMSHBM|
jdw91|COMPLETED|scavenger|2023-05-27T15:33:32|2023-05-28T15:32:14|23:58:42|dcc-wychem-01|1|1|1000M||/hpc/home/jdw91/Work/RLRDS/Final_Graph_Models|
jdw91|COMPLETED|scavenger|2023-05-27T15:33:33|2023-05-28T15:29:51|23:56:18|dcc-savageresearch-02|1|1|1000M||/hpc/home/jdw91/Work/RLRDS/Final_Graph_Models|
jdw91|COMPLETED|scavenger|2023-05-27T15:33:33|2023-05-28T21:04:50|1-05:31:17|dcc-pfister-01|1|1|1000M||/hpc/home/jdw91/Work/RLRDS/Final_Graph_Models|
jdw91|COMPLETED|scavenger|2023-05-27T15:33:34|2023-05-28T15:26:01|23:52:27|dcc-pfister-01|1|1|1000M||/hpc/home/jdw91/Work/RLRDS/Final_Graph_Models|
jdw91|COMPLETED|scavenger|2023-05-27T15:33:34|2023-05-29T02:35:55|1-11:02:21|dcc-pfister-01|1|1|1000M||/hpc/home/jdw91/Work/RLRDS/Final_Graph_Models|
jdw91|COMPLETED|scavenger|2023-05-27T15:33:34|2023-05-28T15:27:53|23:54:19|dcc-pfister-01|1|1|1000M||/hpc/home/jdw91/Work/RLRDS/Final_Graph_Models|
jdw91|COMPLETED|scavenger|2023-05-27T15:33:34|2023-05-28T23:00:13|1-07:26:39|dcc-pfister-01|1|1|1000M||/hpc/home/jdw91/Work/RLRDS/Final_Graph_Models|
jdw91|COMPLETED|scavenger|2023-05-27T15:33:34|2023-05-29T01:23:42|1-09:50:08|dcc-pfister-01|1|1|1000M||/hpc/home/jdw91/Work/RLRDS/Final_Graph_Models|
jdw91|COMPLETED|scavenger|2023-05-27T15:33:34|2023-05-28T18:51:26|1-03:17:52|dcc-pfister-01|1|1|1000M||/hpc/home/jdw91/Work/RLRDS/Final_Graph_Models|
jdw91|COMPLETED|scavenger|2023-05-27T15:33:34|2023-05-28T17:01:53|1-01:28:19|dcc-pfister-01|1|1|1000M||/hpc/home/jdw91/Work/RLRDS/Final_Graph_Models|
jdw91|COMPLETED|scavenger|2023-05-27T15:33:34|2023-05-28T15:21:28|23:47:54|dcc-pfister-01|1|1|1000M||/hpc/home/jdw91/Work/RLRDS/Final_Graph_Models|
jdw91|COMPLETED|scavenger|2023-05-27T15:33:34|2023-05-28T15:17:15|23:43:41|dcc-pfister-01|1|1|1000M||/hpc/home/jdw91/Work/RLRDS/Final_Graph_Models|
jdw91|COMPLETED|scavenger|2023-05-27T15:33:34|2023-05-28T15:30:34|23:57:00|dcc-pfister-01|1|1|1000M||/hpc/home/jdw91/Work/RLRDS/Final_Graph_Models|
jdw91|COMPLETED|scavenger|2023-05-27T15:33:34|2023-05-29T01:09:32|1-09:35:58|dcc-pfister-01|1|1|1000M||/hpc/home/jdw91/Work/RLRDS/Final_Graph_Models|
jdw91|COMPLETED|scavenger|2023-05-27T15:33:34|2023-05-28T21:53:20|1-06:19:46|dcc-pfister-01|1|1|1000M||/hpc/home/jdw91/Work/RLRDS/Final_Graph_Models|
jdw91|COMPLETED|scavenger|2023-05-27T15:33:34|2023-05-28T15:04:35|23:31:01|dcc-pfister-01|1|1|1000M||/hpc/home/jdw91/Work/RLRDS/Final_Graph_Models|
jdw91|COMPLETED|scavenger|2023-05-27T15:33:34|2023-05-28T16:29:24|1-00:55:50|dcc-pfister-01|1|1|1000M||/hpc/home/jdw91/Work/RLRDS/Final_Graph_Models|
jdw91|COMPLETED|scavenger|2023-05-27T15:33:34|2023-05-28T15:48:36|1-00:15:02|dcc-pfister-01|1|1|1000M||/hpc/home/jdw91/Work/RLRDS/Final_Graph_Models|
jdw91|COMPLETED|scavenger|2023-05-27T15:33:34|2023-05-28T15:25:20|23:51:46|dcc-pfister-01|1|1|1000M||/hpc/home/jdw91/Work/RLRDS/Final_Graph_Models|
jdw91|COMPLETED|scavenger|2023-05-27T15:33:34|2023-05-28T17:03:01|1-01:29:27|dcc-pfister-01|1|1|1000M||/hpc/home/jdw91/Work/RLRDS/Final_Graph_Models|
jdw91|COMPLETED|scavenger|2023-05-27T15:33:34|2023-05-28T17:59:07|1-02:25:33|dcc-pfister-01|1|1|1000M||/hpc/home/jdw91/Work/RLRDS/Final_Graph_Models|
jdw91|COMPLETED|scavenger|2023-05-27T15:33:34|2023-05-28T20:21:30|1-04:47:56|dcc-pfister-01|1|1|1000M||/hpc/home/jdw91/Work/RLRDS/Final_Graph_Models|
jdw91|COMPLETED|scavenger|2023-05-27T15:33:34|2023-05-29T01:22:43|1-09:49:09|dcc-pfister-01|1|1|1000M||/hpc/home/jdw91/Work/RLRDS/Final_Graph_Models|
jdw91|COMPLETED|scavenger|2023-05-27T15:33:37|2023-05-28T17:00:10|1-01:26:33|dcc-kirschlab-01|1|1|1000M||/hpc/home/jdw91/Work/RLRDS/Final_Graph_Models|
jdw91|COMPLETED|scavenger|2023-05-27T15:33:37|2023-05-28T16:57:47|1-01:24:10|dcc-kirschlab-01|1|1|1000M||/hpc/home/jdw91/Work/RLRDS/Final_Graph_Models|
jdw91|COMPLETED|scavenger|2023-05-27T15:33:37|2023-05-28T15:54:43|1-00:21:06|dcc-kirschlab-01|1|1|1000M||/hpc/home/jdw91/Work/RLRDS/Final_Graph_Models|
jdw91|COMPLETED|scavenger|2023-05-27T15:33:37|2023-05-28T16:13:43|1-00:40:06|dcc-kirschlab-01|1|1|1000M||/hpc/home/jdw91/Work/RLRDS/Final_Graph_Models|
jdw91|COMPLETED|scavenger|2023-05-27T15:33:37|2023-05-28T16:39:34|1-01:05:57|dcc-kirschlab-01|1|1|1000M||/hpc/home/jdw91/Work/RLRDS/Final_Graph_Models|
jdw91|COMPLETED|scavenger|2023-05-27T15:33:40|2023-05-28T17:28:33|1-01:54:53|dcc-kirschlab-01|1|1|1000M||/hpc/home/jdw91/Work/RLRDS/Final_Graph_Models|
jdw91|COMPLETED|scavenger|2023-05-27T15:33:40|2023-05-28T16:50:59|1-01:17:19|dcc-kirschlab-01|1|1|1000M||/hpc/home/jdw91/Work/RLRDS/Final_Graph_Models|
jdw91|COMPLETED|scavenger|2023-05-27T15:33:40|2023-05-28T18:24:52|1-02:51:12|dcc-kirschlab-01|1|1|1000M||/hpc/home/jdw91/Work/RLRDS/Final_Graph_Models|
jdw91|COMPLETED|scavenger|2023-05-27T15:33:40|2023-05-28T17:23:53|1-01:50:13|dcc-kirschlab-01|1|1|1000M||/hpc/home/jdw91/Work/RLRDS/Final_Graph_Models|
jdw91|COMPLETED|scavenger|2023-05-27T15:33:40|2023-05-28T15:03:34|23:29:54|dcc-kirschlab-01|1|1|1000M||/hpc/home/jdw91/Work/RLRDS/Final_Graph_Models|
jdw91|COMPLETED|scavenger|2023-05-27T15:33:40|2023-05-28T19:46:51|1-04:13:11|dcc-kirschlab-01|1|1|1000M||/hpc/home/jdw91/Work/RLRDS/Final_Graph_Models|
jdw91|COMPLETED|scavenger|2023-05-27T15:33:40|2023-05-28T17:27:57|1-01:54:17|dcc-kirschlab-01|1|1|1000M||/hpc/home/jdw91/Work/RLRDS/Final_Graph_Models|
jdw91|COMPLETED|scavenger|2023-05-27T15:33:40|2023-05-28T20:23:46|1-04:50:06|dcc-kirschlab-01|1|1|1000M||/hpc/home/jdw91/Work/RLRDS/Final_Graph_Models|
jdw91|COMPLETED|scavenger|2023-05-27T15:33:40|2023-05-28T15:01:55|23:28:15|dcc-kirschlab-01|1|1|1000M||/hpc/home/jdw91/Work/RLRDS/Final_Graph_Models|
jdw91|COMPLETED|scavenger|2023-05-27T15:33:41|2023-05-28T15:26:45|23:53:04|dcc-kirschlab-01|1|1|1000M||/hpc/home/jdw91/Work/RLRDS/Final_Graph_Models|
jdw91|COMPLETED|scavenger|2023-05-27T15:33:41|2023-05-28T20:24:53|1-04:51:12|dcc-kirschlab-01|1|1|1000M||/hpc/home/jdw91/Work/RLRDS/Final_Graph_Models|
jdw91|COMPLETED|scavenger|2023-05-27T15:33:41|2023-05-28T16:26:54|1-00:53:13|dcc-katzlab-01|1|1|1000M||/hpc/home/jdw91/Work/RLRDS/Final_Graph_Models|
jdw91|COMPLETED|scavenger|2023-05-27T15:33:41|2023-05-28T17:50:10|1-02:16:29|dcc-katzlab-01|1|1|1000M||/hpc/home/jdw91/Work/RLRDS/Final_Graph_Models|
jdw91|COMPLETED|scavenger|2023-05-27T15:33:44|2023-05-28T16:03:01|1-00:29:17|dcc-katzlab-01|1|1|1000M||/hpc/home/jdw91/Work/RLRDS/Final_Graph_Models|
jdw91|COMPLETED|scavenger|2023-05-27T15:33:44|2023-05-28T15:11:41|23:37:57|dcc-katzlab-01|1|1|1000M||/hpc/home/jdw91/Work/RLRDS/Final_Graph_Models|
jdw91|COMPLETED|scavenger|2023-05-27T15:33:44|2023-05-28T16:20:33|1-00:46:49|dcc-katzlab-01|1|1|1000M||/hpc/home/jdw91/Work/RLRDS/Final_Graph_Models|
jdw91|COMPLETED|scavenger|2023-05-27T15:33:44|2023-05-28T18:38:42|1-03:04:58|dcc-hulab-05|1|1|1000M||/hpc/home/jdw91/Work/RLRDS/Final_Graph_Models|
jdw91|COMPLETED|scavenger|2023-05-27T15:33:44|2023-05-28T19:55:26|1-04:21:42|dcc-hulab-05|1|1|1000M||/hpc/home/jdw91/Work/RLRDS/Final_Graph_Models|
jdw91|COMPLETED|scavenger|2023-05-27T15:33:44|2023-05-28T15:08:52|23:35:08|dcc-hulab-05|1|1|1000M||/hpc/home/jdw91/Work/RLRDS/Final_Graph_Models|
jdw91|COMPLETED|scavenger|2023-05-27T15:33:44|2023-05-28T15:22:09|23:48:25|dcc-hulab-05|1|1|1000M||/hpc/home/jdw91/Work/RLRDS/Final_Graph_Models|
jdw91|COMPLETED|scavenger|2023-05-27T15:33:44|2023-05-28T18:42:10|1-03:08:26|dcc-hulab-05|1|1|1000M||/hpc/home/jdw91/Work/RLRDS/Final_Graph_Models|
jdw91|COMPLETED|scavenger|2023-05-27T15:33:45|2023-05-28T16:55:42|1-01:21:57|dcc-hulab-05|1|1|1000M||/hpc/home/jdw91/Work/RLRDS/Final_Graph_Models|
jdw91|COMPLETED|scavenger|2023-05-27T15:33:45|2023-05-29T00:58:09|1-09:24:24|dcc-hulab-05|1|1|1000M||/hpc/home/jdw91/Work/RLRDS/Final_Graph_Models|
jdw91|COMPLETED|scavenger|2023-05-27T15:33:45|2023-05-28T15:09:23|23:35:38|dcc-hulab-05|1|1|1000M||/hpc/home/jdw91/Work/RLRDS/Final_Graph_Models|
jdw91|COMPLETED|scavenger|2023-05-27T15:33:45|2023-05-28T15:44:07|1-00:10:22|dcc-hulab-05|1|1|1000M||/hpc/home/jdw91/Work/RLRDS/Final_Graph_Models|
jdw91|COMPLETED|scavenger|2023-05-27T15:33:45|2023-05-28T18:06:55|1-02:33:10|dcc-hulab-05|1|1|1000M||/hpc/home/jdw91/Work/RLRDS/Final_Graph_Models|
jdw91|COMPLETED|scavenger|2023-05-27T15:33:45|2023-05-28T21:50:25|1-06:16:40|dcc-hulab-05|1|1|1000M||/hpc/home/jdw91/Work/RLRDS/Final_Graph_Models|
jdw91|COMPLETED|scavenger|2023-05-27T15:33:45|2023-05-28T15:30:12|23:56:27|dcc-hulab-05|1|1|1000M||/hpc/home/jdw91/Work/RLRDS/Final_Graph_Models|
jdw91|COMPLETED|scavenger|2023-05-27T15:33:45|2023-05-28T19:10:49|1-03:37:04|dcc-hulab-05|1|1|1000M||/hpc/home/jdw91/Work/RLRDS/Final_Graph_Models|
jdw91|COMPLETED|scavenger|2023-05-27T15:33:45|2023-05-28T18:06:50|1-02:33:05|dcc-hulab-05|1|1|1000M||/hpc/home/jdw91/Work/RLRDS/Final_Graph_Models|
jdw91|COMPLETED|scavenger|2023-05-27T15:33:45|2023-05-29T00:58:16|1-09:24:31|dcc-hulab-05|1|1|1000M||/hpc/home/jdw91/Work/RLRDS/Final_Graph_Models|
jdw91|COMPLETED|scavenger|2023-05-27T15:33:45|2023-05-28T17:03:03|1-01:29:18|dcc-hulab-05|1|1|1000M||/hpc/home/jdw91/Work/RLRDS/Final_Graph_Models|
jdw91|COMPLETED|scavenger|2023-05-27T15:33:45|2023-05-28T20:03:48|1-04:30:03|dcc-hulab-05|1|1|1000M||/hpc/home/jdw91/Work/RLRDS/Final_Graph_Models|
jdw91|COMPLETED|scavenger|2023-05-27T15:33:45|2023-05-28T17:35:27|1-02:01:42|dcc-hulab-05|1|1|1000M||/hpc/home/jdw91/Work/RLRDS/Final_Graph_Models|
jdw91|COMPLETED|scavenger|2023-05-27T15:33:45|2023-05-28T15:53:50|1-00:20:05|dcc-hulab-05|1|1|1000M||/hpc/home/jdw91/Work/RLRDS/Final_Graph_Models|
jdw91|COMPLETED|scavenger|2023-05-27T15:33:45|2023-05-28T17:30:54|1-01:57:09|dcc-hulab-05|1|1|1000M||/hpc/home/jdw91/Work/RLRDS/Final_Graph_Models|
jdw91|COMPLETED|scavenger|2023-05-27T15:33:45|2023-05-28T18:33:00|1-02:59:15|dcc-hulab-05|1|1|1000M||/hpc/home/jdw91/Work/RLRDS/Final_Graph_Models|
jdw91|COMPLETED|scavenger|2023-05-27T15:33:45|2023-05-28T15:46:39|1-00:12:54|dcc-hulab-05|1|1|1000M||/hpc/home/jdw91/Work/RLRDS/Final_Graph_Models|
jdw91|COMPLETED|scavenger|2023-05-27T15:33:45|2023-05-28T16:01:53|1-00:28:08|dcc-hulab-05|1|1|1000M||/hpc/home/jdw91/Work/RLRDS/Final_Graph_Models|
jdw91|COMPLETED|scavenger|2023-05-27T15:33:45|2023-05-28T15:43:08|1-00:09:23|dcc-hulab-05|1|1|1000M||/hpc/home/jdw91/Work/RLRDS/Final_Graph_Models|
jdw91|COMPLETED|scavenger|2023-05-27T15:33:45|2023-05-28T18:17:05|1-02:43:20|dcc-hulab-05|1|1|1000M||/hpc/home/jdw91/Work/RLRDS/Final_Graph_Models|
jdw91|COMPLETED|scavenger|2023-05-27T15:33:45|2023-05-28T17:26:13|1-01:52:28|dcc-hulab-05|1|1|1000M||/hpc/home/jdw91/Work/RLRDS/Final_Graph_Models|
jdw91|COMPLETED|scavenger|2023-05-27T15:33:49|2023-05-28T15:25:28|23:51:39|dcc-hulab-05|1|1|1000M||/hpc/home/jdw91/Work/RLRDS/Final_Graph_Models|
jdw91|COMPLETED|scavenger|2023-05-27T15:33:49|2023-05-28T17:36:34|1-02:02:45|dcc-hulab-05|1|1|1000M||/hpc/home/jdw91/Work/RLRDS/Final_Graph_Models|
jdw91|COMPLETED|scavenger|2023-05-27T15:33:50|2023-05-28T20:34:47|1-05:00:57|dcc-hulab-04|1|1|1000M||/hpc/home/jdw91/Work/RLRDS/Final_Graph_Models|
ark19|CANCELLED by 1027614|scavenger|2023-05-27T16:33:27|2023-05-30T14:12:18|2-21:38:51|dcc-tunglab-01|1|1|125G||/cifs/hariri-long/Studies/DNS/Imaging/pipeline1.0/DTI/FSL|
ark19|CANCELLED by 1027614|scavenger|2023-05-27T16:33:27|2023-05-30T14:12:18|2-21:38:51|dcc-tmolab-02|1|1|16000M||/cifs/hariri-long/Studies/DNS/Imaging/pipeline1.0/DTI/FSL|
ark19|CANCELLED by 1027614|scavenger|2023-05-27T16:33:27|2023-05-30T14:12:18|2-21:38:51|dcc-tmolab-02|1|1|16000M||/cifs/hariri-long/Studies/DNS/Imaging/pipeline1.0/DTI/FSL|
ark19|CANCELLED by 1027614|scavenger|2023-05-27T16:33:27|2023-05-30T14:12:18|2-21:38:51|dcc-tmolab-02|1|1|16000M||/cifs/hariri-long/Studies/DNS/Imaging/pipeline1.0/DTI/FSL|
ark19|CANCELLED by 1027614|scavenger|2023-05-27T16:33:27|2023-05-30T14:12:18|2-21:38:51|dcc-tmolab-02|1|1|16000M||/cifs/hariri-long/Studies/DNS/Imaging/pipeline1.0/DTI/FSL|
ark19|CANCELLED by 1027614|scavenger|2023-05-27T16:33:27|2023-05-30T14:12:21|2-21:38:54|dcc-tmolab-02|1|1|16000M||/cifs/hariri-long/Studies/DNS/Imaging/pipeline1.0/DTI/FSL|
ark19|CANCELLED by 1027614|scavenger|2023-05-27T16:33:27|2023-05-30T14:12:21|2-21:38:54|dcc-tmolab-01|1|1|16000M||/cifs/hariri-long/Studies/DNS/Imaging/pipeline1.0/DTI/FSL|
ark19|CANCELLED by 1027614|scavenger|2023-05-27T16:33:30|2023-05-30T14:12:10|2-21:38:40|dcc-tmolab-01|1|1|16000M||/cifs/hariri-long/Studies/DNS/Imaging/pipeline1.0/DTI/FSL|
ark19|CANCELLED by 1027614|scavenger|2023-05-27T16:33:30|2023-05-30T14:12:13|2-21:38:43|dcc-statdept-01|1|1|16000M||/cifs/hariri-long/Studies/DNS/Imaging/pipeline1.0/DTI/FSL|
ark19|CANCELLED by 1027614|scavenger|2023-05-27T16:33:30|2023-05-30T14:12:13|2-21:38:43|dcc-statdept-01|1|1|16000M||/cifs/hariri-long/Studies/DNS/Imaging/pipeline1.0/DTI/FSL|
ark19|CANCELLED by 1027614|scavenger|2023-05-27T16:33:30|2023-05-30T14:12:13|2-21:38:43|dcc-statdept-01|1|1|16000M||/cifs/hariri-long/Studies/DNS/Imaging/pipeline1.0/DTI/FSL|
ark19|CANCELLED by 1027614|scavenger|2023-05-27T16:33:30|2023-05-30T14:12:13|2-21:38:43|dcc-statdept-01|1|1|16000M||/cifs/hariri-long/Studies/DNS/Imaging/pipeline1.0/DTI/FSL|
ark19|CANCELLED by 1027614|scavenger|2023-05-27T16:33:30|2023-05-30T14:12:13|2-21:38:43|dcc-statdept-01|1|1|16000M||/cifs/hariri-long/Studies/DNS/Imaging/pipeline1.0/DTI/FSL|
ark19|CANCELLED by 1027614|scavenger|2023-05-27T16:33:30|2023-05-30T14:12:14|2-21:38:44|dcc-statdept-01|1|1|16000M||/cifs/hariri-long/Studies/DNS/Imaging/pipeline1.0/DTI/FSL|
ark19|CANCELLED by 1027614|scavenger|2023-05-27T16:33:30|2023-05-30T14:12:14|2-21:38:44|dcc-statdept-01|1|1|16000M||/cifs/hariri-long/Studies/DNS/Imaging/pipeline1.0/DTI/FSL|
ark19|CANCELLED by 1027614|scavenger|2023-05-27T16:33:30|2023-05-30T14:12:14|2-21:38:44|dcc-statdept-01|1|1|16000M||/cifs/hariri-long/Studies/DNS/Imaging/pipeline1.0/DTI/FSL|
ark19|CANCELLED by 1027614|scavenger|2023-05-27T16:33:30|2023-05-30T14:12:14|2-21:38:44|dcc-statdept-01|1|1|16000M||/cifs/hariri-long/Studies/DNS/Imaging/pipeline1.0/DTI/FSL|
ark19|CANCELLED by 1027614|scavenger|2023-05-27T16:33:30|2023-05-30T14:12:14|2-21:38:44|dcc-statdept-01|1|1|16000M||/cifs/hariri-long/Studies/DNS/Imaging/pipeline1.0/DTI/FSL|
ark19|CANCELLED by 1027614|scavenger|2023-05-27T16:33:30|2023-05-30T14:12:14|2-21:38:44|dcc-savageresearch-02|1|1|16000M||/cifs/hariri-long/Studies/DNS/Imaging/pipeline1.0/DTI/FSL|
ark19|CANCELLED by 1027614|scavenger|2023-05-27T16:33:30|2023-05-30T14:12:14|2-21:38:44|dcc-savageresearch-01|1|1|16000M||/cifs/hariri-long/Studies/DNS/Imaging/pipeline1.0/DTI/FSL|
ark19|CANCELLED by 1027614|scavenger|2023-05-27T16:33:30|2023-05-30T14:12:17|2-21:38:47|dcc-savageresearch-01|1|1|16000M||/cifs/hariri-long/Studies/DNS/Imaging/pipeline1.0/DTI/FSL|
ark19|CANCELLED by 1027614|scavenger|2023-05-27T16:33:30|2023-05-30T14:12:17|2-21:38:47|dcc-savageresearch-01|1|1|16000M||/cifs/hariri-long/Studies/DNS/Imaging/pipeline1.0/DTI/FSL|
ark19|CANCELLED by 1027614|scavenger|2023-05-27T16:33:30|2023-05-30T14:12:17|2-21:38:47|dcc-savageresearch-01|1|1|16000M||/cifs/hariri-long/Studies/DNS/Imaging/pipeline1.0/DTI/FSL|
ark19|CANCELLED by 1027614|scavenger|2023-05-27T16:33:30|2023-05-30T14:12:17|2-21:38:47|dcc-savageresearch-01|1|1|16000M||/cifs/hariri-long/Studies/DNS/Imaging/pipeline1.0/DTI/FSL|
ark19|CANCELLED by 1027614|scavenger|2023-05-27T16:33:30|2023-05-30T14:12:17|2-21:38:47|dcc-savageresearch-01|1|1|16000M||/cifs/hariri-long/Studies/DNS/Imaging/pipeline1.0/DTI/FSL|
ark19|CANCELLED by 1027614|scavenger|2023-05-27T16:33:30|2023-05-30T14:12:18|2-21:38:48|dcc-savageresearch-01|1|1|16000M||/cifs/hariri-long/Studies/DNS/Imaging/pipeline1.0/DTI/FSL|
ark19|CANCELLED by 1027614|scavenger|2023-05-27T16:33:30|2023-05-30T14:12:18|2-21:38:48|dcc-rausherlab-02|1|1|16000M||/cifs/hariri-long/Studies/DNS/Imaging/pipeline1.0/DTI/FSL|
ark19|CANCELLED by 1027614|scavenger|2023-05-27T16:33:33|2023-05-30T14:12:10|2-21:38:37|dcc-rausherlab-02|1|1|16000M||/cifs/hariri-long/Studies/DNS/Imaging/pipeline1.0/DTI/FSL|
ark19|CANCELLED by 1027614|scavenger|2023-05-27T16:33:33|2023-05-30T14:12:10|2-21:38:37|dcc-rausherlab-02|1|1|16000M||/cifs/hariri-long/Studies/DNS/Imaging/pipeline1.0/DTI/FSL|
ark19|CANCELLED by 1027614|scavenger|2023-05-27T16:33:33|2023-05-30T14:12:10|2-21:38:37|dcc-rausherlab-01|1|1|16000M||/cifs/hariri-long/Studies/DNS/Imaging/pipeline1.0/DTI/FSL|
ark19|CANCELLED by 1027614|scavenger|2023-05-27T16:33:33|2023-05-30T14:12:10|2-21:38:37|dcc-rausherlab-01|1|1|16000M||/cifs/hariri-long/Studies/DNS/Imaging/pipeline1.0/DTI/FSL|
ark19|CANCELLED by 1027614|scavenger|2023-05-27T16:33:34|2023-05-30T14:12:09|2-21:38:35|dcc-pfister-01|1|1|16000M||/cifs/hariri-long/Studies/DNS/Imaging/pipeline1.0/DTI/FSL|
ark19|CANCELLED by 1027614|scavenger|2023-05-27T16:33:34|2023-05-30T14:12:09|2-21:38:35|dcc-pfister-01|1|1|16000M||/cifs/hariri-long/Studies/DNS/Imaging/pipeline1.0/DTI/FSL|
ark19|CANCELLED by 1027614|scavenger|2023-05-27T16:33:34|2023-05-30T14:12:09|2-21:38:35|dcc-pfister-01|1|1|16000M||/cifs/hariri-long/Studies/DNS/Imaging/pipeline1.0/DTI/FSL|
ark19|CANCELLED by 1027614|scavenger|2023-05-27T16:33:34|2023-05-30T14:12:09|2-21:38:35|dcc-pfister-01|1|1|16000M||/cifs/hariri-long/Studies/DNS/Imaging/pipeline1.0/DTI/FSL|
ark19|CANCELLED by 1027614|scavenger|2023-05-27T16:33:34|2023-05-30T14:12:09|2-21:38:35|dcc-pfister-01|1|1|16000M||/cifs/hariri-long/Studies/DNS/Imaging/pipeline1.0/DTI/FSL|
ark19|CANCELLED by 1027614|scavenger|2023-05-27T16:33:34|2023-05-30T14:12:10|2-21:38:36|dcc-pfister-01|1|1|16000M||/cifs/hariri-long/Studies/DNS/Imaging/pipeline1.0/DTI/FSL|
ark19|CANCELLED by 1027614|scavenger|2023-05-27T16:33:34|2023-05-30T14:12:10|2-21:38:36|dcc-pfister-01|1|1|16000M||/cifs/hariri-long/Studies/DNS/Imaging/pipeline1.0/DTI/FSL|
ark19|PREEMPTED|scavenger|2023-05-27T16:33:34|2023-05-30T13:18:46|2-20:45:12|dcc-pbenfeylab-02|1|1|16000M||/cifs/hariri-long/Studies/DNS/Imaging/pipeline1.0/DTI/FSL|
ark19|PREEMPTED|scavenger|2023-05-27T16:33:34|2023-05-30T13:18:46|2-20:45:12|dcc-pbenfeylab-02|1|1|16000M||/cifs/hariri-long/Studies/DNS/Imaging/pipeline1.0/DTI/FSL|
ark19|PREEMPTED|scavenger|2023-05-27T16:33:34|2023-05-30T13:18:46|2-20:45:12|dcc-pbenfeylab-02|1|1|16000M||/cifs/hariri-long/Studies/DNS/Imaging/pipeline1.0/DTI/FSL|
ark19|PREEMPTED|scavenger|2023-05-27T16:33:34|2023-05-30T13:18:46|2-20:45:12|dcc-pbenfeylab-02|1|1|16000M||/cifs/hariri-long/Studies/DNS/Imaging/pipeline1.0/DTI/FSL|
ark19|PREEMPTED|scavenger|2023-05-27T16:33:34|2023-05-30T13:18:46|2-20:45:12|dcc-pbenfeylab-02|1|1|16000M||/cifs/hariri-long/Studies/DNS/Imaging/pipeline1.0/DTI/FSL|
ark19|PREEMPTED|scavenger|2023-05-27T16:33:34|2023-05-30T13:18:46|2-20:45:12|dcc-pbenfeylab-02|1|1|16000M||/cifs/hariri-long/Studies/DNS/Imaging/pipeline1.0/DTI/FSL|
ark19|PREEMPTED|scavenger|2023-05-27T16:33:34|2023-05-30T13:18:46|2-20:45:12|dcc-pbenfeylab-02|1|1|16000M||/cifs/hariri-long/Studies/DNS/Imaging/pipeline1.0/DTI/FSL|
ark19|PREEMPTED|scavenger|2023-05-27T16:33:34|2023-05-30T13:18:46|2-20:45:12|dcc-pbenfeylab-02|1|1|16000M||/cifs/hariri-long/Studies/DNS/Imaging/pipeline1.0/DTI/FSL|
ark19|CANCELLED by 1027614|scavenger|2023-05-27T16:33:37|2023-05-30T14:12:07|2-21:38:30|dcc-youlab-01|1|1|16000M||/cifs/hariri-long/Studies/DNS/Imaging/pipeline1.0/DTI/FSL|
ark19|PREEMPTED|scavenger|2023-05-27T16:33:37|2023-05-30T13:18:46|2-20:45:09|dcc-pbenfeylab-02|1|1|16000M||/cifs/hariri-long/Studies/DNS/Imaging/pipeline1.0/DTI/FSL|
ark19|PREEMPTED|scavenger|2023-05-27T16:33:37|2023-05-30T13:18:46|2-20:45:09|dcc-pbenfeylab-02|1|1|16000M||/cifs/hariri-long/Studies/DNS/Imaging/pipeline1.0/DTI/FSL|
ark19|PREEMPTED|scavenger|2023-05-27T16:33:37|2023-05-30T13:18:46|2-20:45:09|dcc-pbenfeylab-02|1|1|16000M||/cifs/hariri-long/Studies/DNS/Imaging/pipeline1.0/DTI/FSL|
ark19|CANCELLED by 1027614|scavenger|2023-05-27T16:33:37|2023-05-30T14:12:09|2-21:38:32|dcc-pbenfeylab-02|1|1|16000M||/cifs/hariri-long/Studies/DNS/Imaging/pipeline1.0/DTI/FSL|
ts349|FAILED|scavenger|2023-05-28T06:45:40|2023-05-29T14:44:56|1-07:59:16|dcc-adrc-01|1|12|100G||/work/ts349/stm2457_hicar/work/da/98b565cacc1cfcdbed8f1a457768a9|
ts349|COMPLETED|scavenger|2023-05-28T06:45:55|2023-05-29T04:24:20|21:38:25|dcc-motesa-01|1|12|100G||/work/ts349/stm2457_hicar/work/b8/c85d2485cf0b3629ab99e805e315b8|
pz19|COMPLETED|scavenger|2023-05-28T10:28:20|2023-05-28T18:46:14|08:17:54|dcc-bragg-04|1|16|25408M||/work/pz19/Wang/Copper/Silicon/TS_06_3LigOAc/MN15|
dg304|COMPLETED|scavenger|2023-05-28T11:09:08|2023-05-28T19:52:49|08:43:41|dcc-donglab-01|1|24|384G||/hpc/group/bio1/diego/lmicrobiome/scripts|
ark19|COMPLETED|scavenger|2023-05-28T12:14:28|2023-05-29T13:16:52|1-01:02:24|dcc-tunglab-01|1|1|24000M||/cifs/hariri-long/Database/DBIS_P52/Imaging|
ark19|COMPLETED|scavenger|2023-05-28T12:14:28|2023-05-29T12:29:48|1-00:15:20|dcc-tunglab-01|1|1|24000M||/cifs/hariri-long/Database/DBIS_P52/Imaging|
ark19|COMPLETED|scavenger|2023-05-28T12:14:28|2023-05-29T12:39:38|1-00:25:10|dcc-tunglab-01|1|1|24000M||/cifs/hariri-long/Database/DBIS_P52/Imaging|
ark19|COMPLETED|scavenger|2023-05-28T12:14:28|2023-05-29T12:56:23|1-00:41:55|dcc-tunglab-01|1|1|24000M||/cifs/hariri-long/Database/DBIS_P52/Imaging|
ark19|COMPLETED|scavenger|2023-05-28T12:14:28|2023-05-29T12:42:16|1-00:27:48|dcc-tunglab-01|1|1|24000M||/cifs/hariri-long/Database/DBIS_P52/Imaging|
ark19|COMPLETED|scavenger|2023-05-28T12:18:50|2023-05-28T17:53:58|05:35:08|dcc-statdept-01|1|1|24000M||/cifs/hariri-long/Database/DBIS_P52/Imaging|
ark19|COMPLETED|scavenger|2023-05-28T12:18:50|2023-05-28T17:58:51|05:40:01|dcc-statdept-01|1|1|24000M||/cifs/hariri-long/Database/DBIS_P52/Imaging|
ark19|COMPLETED|scavenger|2023-05-28T12:18:50|2023-05-28T17:58:26|05:39:36|dcc-statdept-01|1|1|24000M||/cifs/hariri-long/Database/DBIS_P52/Imaging|
ark19|COMPLETED|scavenger|2023-05-28T12:18:52|2023-05-28T18:42:40|06:23:48|dcc-statdept-01|1|1|24000M||/cifs/hariri-long/Database/DBIS_P52/Imaging|
ark19|COMPLETED|scavenger|2023-05-28T12:50:33|2023-05-29T07:38:11|18:47:38|dcc-statdept-01|1|1|24000M||/cifs/hariri-long/Database/DBIS_P52/Imaging|
ark19|CANCELLED by 1027614|scavenger|2023-05-28T14:20:32|2023-05-29T08:18:20|17:57:48|dcc-tunglab-02|1|1|24000M||/cifs/hariri-long/Studies/DNS/Imaging/pipeline1.0/DTI/FSL|
ark19|CANCELLED by 1027614|scavenger|2023-05-28T14:20:32|2023-05-29T08:18:20|17:57:48|dcc-tunglab-02|1|1|24000M||/cifs/hariri-long/Studies/DNS/Imaging/pipeline1.0/DTI/FSL|
ark19|CANCELLED by 1027614|scavenger|2023-05-28T14:20:32|2023-05-29T08:18:20|17:57:48|dcc-tunglab-02|1|1|24000M||/cifs/hariri-long/Studies/DNS/Imaging/pipeline1.0/DTI/FSL|
ark19|CANCELLED by 1027614|scavenger|2023-05-28T14:20:32|2023-05-29T08:18:21|17:57:49|dcc-tunglab-02|1|1|24000M||/cifs/hariri-long/Studies/DNS/Imaging/pipeline1.0/DTI/FSL|
ark19|CANCELLED by 1027614|scavenger|2023-05-28T14:20:32|2023-05-29T08:18:21|17:57:49|dcc-tunglab-02|1|1|24000M||/cifs/hariri-long/Studies/DNS/Imaging/pipeline1.0/DTI/FSL|
ts349|OUT_OF_MEMORY|scavenger|2023-05-28T14:55:29|2023-05-31T13:27:36|2-22:32:07|dcc-cagpm-01|1|30|72G||/datacommons/ydiaolab/sun/YAPandTEAD/HiCAR/loops_analysis|
csr33|FAILED|scavenger|2023-05-28T15:04:57|2023-05-28T15:05:00|00:00:03|dcc-rausherlab-02|1|2|1G||/hpc/home/csr33|
csr33|FAILED|scavenger|2023-05-28T15:07:26|2023-05-28T15:07:29|00:00:03|dcc-rausherlab-02|1|2|1G||/hpc/home/csr33|
csr33|FAILED|scavenger|2023-05-28T15:09:42|2023-05-28T15:09:44|00:00:02|dcc-rausherlab-02|1|2|1G||/hpc/home/csr33|
csr33|FAILED|scavenger|2023-05-28T15:14:46|2023-05-28T15:14:49|00:00:03|dcc-rausherlab-02|1|2|1G||/hpc/home/csr33|
csr33|FAILED|scavenger|2023-05-28T15:15:57|2023-05-28T15:15:59|00:00:02|dcc-rausherlab-02|1|2|1G||/hpc/home/csr33|
csr33|FAILED|scavenger|2023-05-28T15:20:06|2023-05-28T15:20:09|00:00:03|dcc-rausherlab-02|1|2|1G||/hpc/home/csr33|
ts349|FAILED|scavenger|2023-05-28T15:21:33|2023-05-28T15:55:38|00:34:05|dcc-dunsonlab-01|1|16|32G||/work/ts349/cools|
csr33|FAILED|scavenger|2023-05-28T15:22:47|2023-05-28T15:22:50|00:00:03|dcc-rausherlab-02|1|2|1G||/hpc/home/csr33|
csr33|COMPLETED|scavenger|2023-05-28T15:26:20|2023-05-28T15:26:23|00:00:03|dcc-rausherlab-02|1|2|1G||/hpc/home/csr33|
csr33|COMPLETED|scavenger|2023-05-28T15:26:59|2023-05-28T15:27:01|00:00:02|dcc-rausherlab-02|1|2|1G||/hpc/home/csr33|
csr33|COMPLETED|scavenger|2023-05-28T15:27:16|2023-05-28T15:27:19|00:00:03|dcc-rausherlab-02|1|2|1G||/hpc/home/csr33|
xw171|COMPLETED|scavenger|2023-05-28T15:31:33|2023-05-28T15:31:46|00:00:13|dcc-statdept-01|1|29|100G||/work/xw171/sciHiCAR-ATAC-2|
xw171|FAILED|scavenger|2023-05-28T15:31:33|2023-05-28T15:33:13|00:01:40|dcc-statdept-01|1|11|100G||/work/xw171/sciHiCAR-ATAC-2|
csr33|FAILED|scavenger|2023-05-28T15:32:19|2023-05-28T15:32:21|00:00:02|dcc-rausherlab-02|1|2|1G||/hpc/home/csr33|
csr33|COMPLETED|scavenger|2023-05-28T15:33:00|2023-05-28T15:33:02|00:00:02|dcc-rausherlab-02|1|2|1G||/hpc/home/csr33|
csr33|COMPLETED|scavenger|2023-05-28T15:45:17|2023-05-28T15:45:19|00:00:02|dcc-rausherlab-02|1|2|1G||/hpc/home/csr33|
jb621|FAILED|scavenger|2023-05-28T15:55:27|2023-05-28T15:56:11|00:00:44|dcc-aryalab-01|1|4|20G||/work/jb621/MIPfastqs|
