pz19|RUNNING|scavenger|2023-03-29T09:52:04|Unknown|77-04:42:12|dcc-fergusonlab-05|1|10|457000M||/work/pz19/Jiaqi/13e14o|
smokeauth2-tst|RUNNING|scavenger|2023-04-18T12:49:48|Unknown|57-01:44:28|dcc-noor-01|1|1|2G||/hpc/home/smokeauth2-tst|
fjm7|RUNNING|scavenger|2023-04-23T15:19:07|Unknown|51-23:15:09|dcc-noor-01|1|1|2G||/hpc/group/brownlab/fjm7/new-data-collection/slurm-runners|
fjm7|RUNNING|scavenger|2023-04-23T15:19:07|Unknown|51-23:15:09|dcc-noor-01|1|1|2G||/hpc/group/brownlab/fjm7/new-data-collection/slurm-runners|
fjm7|RUNNING|scavenger|2023-04-23T15:19:07|Unknown|51-23:15:09|dcc-noor-01|1|1|2G||/hpc/group/brownlab/fjm7/new-data-collection/slurm-runners|
fjm7|RUNNING|scavenger|2023-04-23T15:19:08|Unknown|51-23:15:08|dcc-noor-01|1|1|2G||/hpc/group/brownlab/fjm7/new-data-collection/slurm-runners|
fjm7|RUNNING|scavenger|2023-04-23T15:19:08|Unknown|51-23:15:08|dcc-noor-01|1|1|2G||/hpc/group/brownlab/fjm7/new-data-collection/slurm-runners|
smokeauth2-tst|RUNNING|scavenger|2023-05-09T00:51:37|Unknown|36-13:42:39|dcc-wychem-01|1|1|2G||/hpc/home/smokeauth2-tst|
lh342|RUNNING|scavenger|2023-05-16T10:36:56|Unknown|29-03:57:20|dcc-carin-23|1|8|16G||/hpc/home/lh342/ondemand/data/sys/dashboard/batch_connect/sys/bc_desktop/dcc/output/594ab9c6-93bc-4698-ac53-905dbde8eef7|
ew198|CANCELLED by 1455533|scavenger|2023-05-17T15:01:59|2023-06-02T11:18:52|15-20:16:53|dcc-tmolab-02|1|1|16000M||/cifs/hariri-long/Projects/Annchen/Scripts/ArealMSHBM|
ew198|CANCELLED by 1455533|scavenger|2023-05-17T15:01:59|2023-06-02T11:18:52|15-20:16:53|dcc-tmolab-02|1|1|16000M||/cifs/hariri-long/Projects/Annchen/Scripts/ArealMSHBM|
ew198|CANCELLED by 1455533|scavenger|2023-05-17T15:01:59|2023-06-02T11:18:52|15-20:16:53|dcc-tmolab-02|1|1|16000M||/cifs/hariri-long/Projects/Annchen/Scripts/ArealMSHBM|
ew198|CANCELLED by 1455533|scavenger|2023-05-17T15:01:59|2023-06-02T11:18:52|15-20:16:53|dcc-tmolab-02|1|1|16000M||/cifs/hariri-long/Projects/Annchen/Scripts/ArealMSHBM|
ew198|CANCELLED by 1455533|scavenger|2023-05-17T15:01:59|2023-06-02T11:18:52|15-20:16:53|dcc-tmolab-01|1|1|16000M||/cifs/hariri-long/Projects/Annchen/Scripts/ArealMSHBM|
ew198|CANCELLED by 1455533|scavenger|2023-05-17T15:01:59|2023-06-02T11:18:52|15-20:16:53|dcc-tmolab-01|1|1|16000M||/cifs/hariri-long/Projects/Annchen/Scripts/ArealMSHBM|
ew198|CANCELLED by 1455533|scavenger|2023-05-17T15:01:59|2023-06-02T11:18:52|15-20:16:53|dcc-tmolab-01|1|1|16000M||/cifs/hariri-long/Projects/Annchen/Scripts/ArealMSHBM|
ew198|CANCELLED by 1455533|scavenger|2023-05-17T15:01:59|2023-06-02T11:18:52|15-20:16:53|dcc-tmolab-01|1|1|16000M||/cifs/hariri-long/Projects/Annchen/Scripts/ArealMSHBM|
ew198|CANCELLED by 1455533|scavenger|2023-05-17T15:02:00|2023-06-02T11:18:52|15-20:16:52|dcc-statdept-01|1|1|16000M||/cifs/hariri-long/Projects/Annchen/Scripts/ArealMSHBM|
ew198|CANCELLED by 1455533|scavenger|2023-05-17T15:02:30|2023-06-02T11:18:52|15-20:16:22|dcc-savageresearch-02|1|1|16000M||/cifs/hariri-long/Projects/Annchen/Scripts/ArealMSHBM|
ew198|CANCELLED by 1455533|scavenger|2023-05-17T15:02:30|2023-06-02T11:18:52|15-20:16:22|dcc-savageresearch-02|1|1|16000M||/cifs/hariri-long/Projects/Annchen/Scripts/ArealMSHBM|
ew198|CANCELLED by 1455533|scavenger|2023-05-17T15:02:30|2023-06-02T11:18:52|15-20:16:22|dcc-savageresearch-02|1|1|16000M||/cifs/hariri-long/Projects/Annchen/Scripts/ArealMSHBM|
ew198|CANCELLED by 1455533|scavenger|2023-05-17T15:02:31|2023-06-02T11:18:52|15-20:16:21|dcc-savageresearch-02|1|1|16000M||/cifs/hariri-long/Projects/Annchen/Scripts/ArealMSHBM|
ew198|CANCELLED by 1455533|scavenger|2023-05-17T15:02:31|2023-06-02T11:18:52|15-20:16:21|dcc-savageresearch-02|1|1|16000M||/cifs/hariri-long/Projects/Annchen/Scripts/ArealMSHBM|
ew198|CANCELLED by 1455533|scavenger|2023-05-17T15:02:31|2023-06-02T11:18:52|15-20:16:21|dcc-savageresearch-02|1|1|16000M||/cifs/hariri-long/Projects/Annchen/Scripts/ArealMSHBM|
ew198|CANCELLED by 1455533|scavenger|2023-05-17T15:02:31|2023-06-02T11:18:52|15-20:16:21|dcc-savageresearch-01|1|1|16000M||/cifs/hariri-long/Projects/Annchen/Scripts/ArealMSHBM|
ew198|CANCELLED by 1455533|scavenger|2023-05-17T15:02:31|2023-06-02T11:18:52|15-20:16:21|dcc-savageresearch-01|1|1|16000M||/cifs/hariri-long/Projects/Annchen/Scripts/ArealMSHBM|
ew198|CANCELLED by 1455533|scavenger|2023-05-17T15:02:31|2023-06-02T11:18:52|15-20:16:21|dcc-savageresearch-01|1|1|16000M||/cifs/hariri-long/Projects/Annchen/Scripts/ArealMSHBM|
ew198|CANCELLED by 1455533|scavenger|2023-05-17T15:02:31|2023-06-02T11:18:52|15-20:16:21|dcc-rausherlab-02|1|1|16000M||/cifs/hariri-long/Projects/Annchen/Scripts/ArealMSHBM|
ew198|CANCELLED by 1455533|scavenger|2023-05-17T15:02:31|2023-06-02T11:18:52|15-20:16:21|dcc-rausherlab-01|1|1|16000M||/cifs/hariri-long/Projects/Annchen/Scripts/ArealMSHBM|
ew198|CANCELLED by 1455533|scavenger|2023-05-17T15:02:31|2023-06-02T11:18:52|15-20:16:21|dcc-rausherlab-01|1|1|16000M||/cifs/hariri-long/Projects/Annchen/Scripts/ArealMSHBM|
ew198|CANCELLED by 1455533|scavenger|2023-05-17T15:02:32|2023-06-02T11:18:52|15-20:16:20|dcc-rausherlab-01|1|1|16000M||/cifs/hariri-long/Projects/Annchen/Scripts/ArealMSHBM|
ew198|CANCELLED by 1455533|scavenger|2023-05-17T15:02:32|2023-06-02T11:18:52|15-20:16:20|dcc-rausherlab-01|1|1|16000M||/cifs/hariri-long/Projects/Annchen/Scripts/ArealMSHBM|
ew198|CANCELLED by 1455533|scavenger|2023-05-17T15:02:32|2023-06-02T11:18:52|15-20:16:20|dcc-pfister-01|1|1|16000M||/cifs/hariri-long/Projects/Annchen/Scripts/ArealMSHBM|
ew198|CANCELLED by 1455533|scavenger|2023-05-17T15:02:32|2023-06-02T11:18:52|15-20:16:20|dcc-pfister-01|1|1|16000M||/cifs/hariri-long/Projects/Annchen/Scripts/ArealMSHBM|
ew198|CANCELLED by 1455533|scavenger|2023-05-17T15:02:32|2023-06-02T11:18:52|15-20:16:20|dcc-pfister-01|1|1|16000M||/cifs/hariri-long/Projects/Annchen/Scripts/ArealMSHBM|
ew198|CANCELLED by 1455533|scavenger|2023-05-17T15:02:32|2023-06-02T11:18:52|15-20:16:20|dcc-pfister-01|1|1|16000M||/cifs/hariri-long/Projects/Annchen/Scripts/ArealMSHBM|
ew198|CANCELLED by 1455533|scavenger|2023-05-17T15:02:32|2023-06-02T11:18:52|15-20:16:20|dcc-pfister-01|1|1|16000M||/cifs/hariri-long/Projects/Annchen/Scripts/ArealMSHBM|
ew198|CANCELLED by 1455533|scavenger|2023-05-17T15:02:32|2023-06-02T11:18:52|15-20:16:20|dcc-pfister-01|1|1|16000M||/cifs/hariri-long/Projects/Annchen/Scripts/ArealMSHBM|
ew198|CANCELLED by 1455533|scavenger|2023-05-17T15:02:32|2023-06-02T11:18:52|15-20:16:20|dcc-pfister-01|1|1|16000M||/cifs/hariri-long/Projects/Annchen/Scripts/ArealMSHBM|
ew198|CANCELLED by 1455533|scavenger|2023-05-17T15:02:32|2023-06-02T11:18:52|15-20:16:20|dcc-pfister-01|1|1|16000M||/cifs/hariri-long/Projects/Annchen/Scripts/ArealMSHBM|
ew198|CANCELLED by 1455533|scavenger|2023-05-17T15:02:32|2023-06-02T11:18:52|15-20:16:20|dcc-pfister-01|1|1|16000M||/cifs/hariri-long/Projects/Annchen/Scripts/ArealMSHBM|
ew198|CANCELLED by 1455533|scavenger|2023-05-17T15:02:32|2023-06-02T11:18:52|15-20:16:20|dcc-pfister-01|1|1|16000M||/cifs/hariri-long/Projects/Annchen/Scripts/ArealMSHBM|
ew198|CANCELLED by 1455533|scavenger|2023-05-17T15:02:32|2023-06-02T11:18:52|15-20:16:20|dcc-pfister-01|1|1|16000M||/cifs/hariri-long/Projects/Annchen/Scripts/ArealMSHBM|
ew198|CANCELLED by 1455533|scavenger|2023-05-17T15:02:32|2023-06-02T11:18:52|15-20:16:20|dcc-pfister-01|1|1|16000M||/cifs/hariri-long/Projects/Annchen/Scripts/ArealMSHBM|
ew198|CANCELLED by 1455533|scavenger|2023-05-17T15:02:32|2023-06-02T11:18:52|15-20:16:20|dcc-pfister-01|1|1|16000M||/cifs/hariri-long/Projects/Annchen/Scripts/ArealMSHBM|
cjp47|RUNNING|scavenger|2023-05-22T09:27:11|Unknown|23-05:07:05|dcc-tmolab-01|1|1|64G||/hpc/group/bio1/cyanolichen_holobiome|
hk288|OUT_OF_MEMORY|scavenger|2023-05-23T06:28:20|2023-06-01T05:31:10|8-23:02:50|dcc-bragg-03|1|40|80G||/hpc/group/mastatlab/hk288/code_hp_paral|
hk288|OUT_OF_MEMORY|scavenger|2023-05-23T06:28:20|2023-06-01T15:42:06|9-09:13:46|dcc-donglab-01|1|40|80G||/hpc/group/mastatlab/hk288/code_hp_paral|
hk288|CANCELLED by 1484570|scavenger|2023-05-24T09:25:01|2023-06-04T12:17:20|11-02:52:19|dcc-cagpm-01|1|40|200G||/hpc/group/mastatlab/hk288/code_hp_paral|
hk288|CANCELLED by 1484570|scavenger|2023-05-24T09:25:01|2023-06-04T12:17:20|11-02:52:19|dcc-nicolab-01|1|40|200G||/hpc/group/mastatlab/hk288/code_hp_paral|
pz19|TIMEOUT|scavenger|2023-05-24T15:03:18|2023-06-04T05:03:21|10-14:00:03|dcc-fergusonlab-04|1|16|25408M||/work/pz19/Wang/Copper/Silicon/TS_06_3LigOAc/MN15|
pz19|TIMEOUT|scavenger|2023-05-24T15:03:18|2023-06-04T05:03:21|10-14:00:03|dcc-fergusonlab-04|1|16|25408M||/work/pz19/Wang/Copper/Silicon/TS_06_3LigOAc/B3LYP|
pz19|CANCELLED by 1050403|scavenger|2023-05-24T15:03:18|2023-06-02T20:51:37|9-05:48:19|dcc-fergusonlab-05|1|16|25408M||/work/pz19/Wang/Copper/Silicon/TS_06_3Lig/MN15|
pz19|TIMEOUT|scavenger|2023-05-24T20:45:35|2023-06-04T10:45:59|10-14:00:24|dcc-bragg-01|1|16|25408M||/work/pz19/Wang/Copper/Silicon/TS_06_3LigOAc/MN15|
pz19|PREEMPTED|scavenger|2023-05-26T18:34:09|2023-06-06T07:07:39|10-12:33:30|dcc-adrc-01|1|16|25408M||/work/pz19/Wang/Copper/Silicon/TS_06_3Lig/M06L|
cjp47|COMPLETED|scavenger|2023-05-27T14:01:25|2023-06-04T10:11:24|7-20:09:59|dcc-youlab-01|1|1|64G||/hpc/group/bio1/cyanolichen_holobiome|
cjp47|COMPLETED|scavenger|2023-05-27T14:01:25|2023-06-14T08:26:15|17-18:24:50|dcc-youlab-01|1|1|64G||/hpc/group/bio1/cyanolichen_holobiome|
cjp47|COMPLETED|scavenger|2023-05-27T14:01:25|2023-06-03T21:09:30|7-07:08:05|dcc-youlab-01|1|1|64G||/hpc/group/bio1/cyanolichen_holobiome|
cjp47|RUNNING|scavenger|2023-05-27T14:01:25|Unknown|18-00:32:51|dcc-wychem-01|1|1|64G||/hpc/group/bio1/cyanolichen_holobiome|
ew198|CANCELLED by 1455533|scavenger|2023-05-27T14:09:03|2023-06-02T11:18:52|5-21:09:49|dcc-statdept-01|1|1|16000M||/cifs/hariri-long/Projects/Annchen/Scripts/ArealMSHBM|
ew198|CANCELLED by 1455533|scavenger|2023-05-27T14:09:03|2023-06-02T11:18:52|5-21:09:49|dcc-statdept-01|1|1|16000M||/cifs/hariri-long/Projects/Annchen/Scripts/ArealMSHBM|
ew198|CANCELLED by 1455533|scavenger|2023-05-27T14:09:03|2023-06-02T11:18:52|5-21:09:49|dcc-statdept-01|1|1|16000M||/cifs/hariri-long/Projects/Annchen/Scripts/ArealMSHBM|
ew198|CANCELLED by 1455533|scavenger|2023-05-27T14:09:03|2023-06-02T11:18:52|5-21:09:49|dcc-statdept-01|1|1|16000M||/cifs/hariri-long/Projects/Annchen/Scripts/ArealMSHBM|
ew198|CANCELLED by 1455533|scavenger|2023-05-27T14:09:03|2023-06-02T11:18:52|5-21:09:49|dcc-statdept-01|1|1|16000M||/cifs/hariri-long/Projects/Annchen/Scripts/ArealMSHBM|
pz19|PREEMPTED|scavenger|2023-05-29T07:01:10|2023-06-07T09:45:37|9-02:44:27|dcc-bragg-04|1|16|25408M||/work/pz19/Wang/Copper/Silicon/TS_06_3Lig/MN15|
jdw91|COMPLETED|scavenger|2023-05-29T13:18:10|2023-06-01T10:08:40|2-20:50:30|dcc-pbenfeylab-01|1|1|1000M||/hpc/home/jdw91/Work/RLRDS/Final_Branching_Models|
jdw91|COMPLETED|scavenger|2023-05-29T13:18:11|2023-06-01T05:00:10|2-15:41:59|dcc-noor-02|1|1|1000M||/hpc/home/jdw91/Work/RLRDS/Final_Branching_Models|
jdw91|CANCELLED by 1217759|scavenger|2023-05-29T13:18:11|2023-06-01T13:40:41|3-00:22:30|dcc-noor-02|1|1|1000M||/hpc/home/jdw91/Work/RLRDS/Final_Branching_Models|
jdw91|COMPLETED|scavenger|2023-05-29T13:18:11|2023-06-01T05:15:51|2-15:57:40|dcc-noor-02|1|1|1000M||/hpc/home/jdw91/Work/RLRDS/Final_Branching_Models|
jdw91|COMPLETED|scavenger|2023-05-29T13:18:12|2023-06-01T07:31:00|2-18:12:48|dcc-noor-01|1|1|1000M||/hpc/home/jdw91/Work/RLRDS/Final_Branching_Models|
jdw91|COMPLETED|scavenger|2023-05-29T13:18:12|2023-06-01T06:09:05|2-16:50:53|dcc-noor-01|1|1|1000M||/hpc/home/jdw91/Work/RLRDS/Final_Branching_Models|
jdw91|COMPLETED|scavenger|2023-05-29T13:18:12|2023-06-01T05:18:30|2-16:00:18|dcc-noor-01|1|1|1000M||/hpc/home/jdw91/Work/RLRDS/Final_Branching_Models|
jdw91|COMPLETED|scavenger|2023-05-29T13:18:19|2023-06-01T07:58:49|2-18:40:30|dcc-mainsahlab-01|1|1|1000M||/hpc/home/jdw91/Work/RLRDS/Final_Branching_Models|
jdw91|COMPLETED|scavenger|2023-05-29T13:18:26|2023-06-01T07:16:32|2-17:58:06|dcc-hulab-05|1|1|1000M||/hpc/home/jdw91/Work/RLRDS/Final_Branching_Models|
ew198|CANCELLED by 1455533|scavenger|2023-05-29T17:31:38|2023-06-02T11:18:52|3-17:47:14|dcc-gcb-01|1|1|125G||/cifs/hariri-long/Projects/Annchen/Scripts/ArealMSHBM|
ew198|CANCELLED by 1455533|scavenger|2023-05-29T17:31:38|2023-06-02T11:18:52|3-17:47:14|dcc-gcb-01|1|1|16000M||/cifs/hariri-long/Projects/Annchen/Scripts/ArealMSHBM|
ew198|CANCELLED by 1455533|scavenger|2023-05-29T17:31:38|2023-06-02T11:18:52|3-17:47:14|dcc-gcb-01|1|1|16000M||/cifs/hariri-long/Projects/Annchen/Scripts/ArealMSHBM|
ew198|CANCELLED by 1455533|scavenger|2023-05-29T17:31:39|2023-06-02T11:18:52|3-17:47:13|dcc-fergusonlab-06|1|1|16000M||/cifs/hariri-long/Projects/Annchen/Scripts/ArealMSHBM|
ts349|FAILED|scavenger|2023-05-29T20:19:27|2023-06-03T03:12:54|4-06:53:27|dcc-bragg-05|1|30|72G||/hpc/home/ts349|
pz19|PREEMPTED|scavenger|2023-05-29T21:18:45|2023-06-06T10:31:51|7-13:13:06|dcc-adrc-01|1|16|25408M||/work/pz19/Wang/Copper/Silicon/TS_06_3LigOAc/MN15|
hw309|CANCELLED by 1495476|scavenger|2023-05-31T04:32:03|2023-06-03T18:41:12|3-14:09:09|dcc-velmeshevlab-01|1|1|80G||/hpc/group/jilab/haowang/PCs_distance_analysis/GSE173351|
hw309|COMPLETED|scavenger|2023-05-31T10:24:03|2023-06-02T14:37:50|2-04:13:47|dcc-wychem-01|1|1|80G||/hpc/group/jilab/haowang/PCs_distance_analysis/GSE173351|
hw309|COMPLETED|scavenger|2023-05-31T10:49:38|2023-06-01T20:10:33|1-09:20:55|dcc-tmolab-02|1|1|80G||/hpc/group/jilab/haowang/PCs_distance_analysis/GSE173351|
hw309|COMPLETED|scavenger|2023-05-31T11:00:40|2023-06-02T06:20:08|1-19:19:28|dcc-youlab-01|1|1|80G||/hpc/group/jilab/haowang/PCs_distance_analysis/GSE173351|
mea54|CANCELLED by 1496219|scavenger|2023-05-30T01:46:26|2023-06-01T12:45:31|2-10:59:05|dcc-fergusonlab-02|1|64|600G||/hpc/home/mea54/ondemand/data/sys/dashboard/batch_connect/sys/bc_microbiome_rstudio/output/1f8b2eb6-b60b-4c89-a514-2033c83c1430|
xz195|CANCELLED by 1160658|scavenger|2023-05-30T10:01:22|2023-06-04T01:37:41|4-15:36:19|dcc-youlab-01|1|1|50G||/hpc/group/allenlab/scarlett/github/semi_empirical_simulator|
pz19|PREEMPTED|scavenger|2023-05-30T10:05:47|2023-06-06T10:31:51|7-00:26:04|dcc-adrc-01|1|16|25408M||/work/pz19/Wang/Copper/Silicon/TS_06_3Lig/MN15|
pz19|CANCELLED by 1050403|scavenger|2023-05-30T10:10:01|2023-06-07T20:18:26|8-10:08:25|dcc-adrc-01|1|16|25408M||/work/pz19/Wang/Copper/Silicon/TS_06_3Lig/MN15|
pz19|CANCELLED by 1050403|scavenger|2023-05-30T10:19:19|2023-06-03T11:46:24|4-01:27:05|dcc-bragg-01|1|16|25408M||/work/pz19/Wang/Copper/Silicon/TS_06_3LigOAc/B3LYP|
cw446|RUNNING|scavenger|2023-05-30T10:48:43|Unknown|15-03:45:33|dcc-nsoe-it-01|1|5|300G||/hpc/group/jilab/changxin|
hw309|COMPLETED|scavenger|2023-05-31T16:36:22|2023-06-01T10:58:38|18:22:16|dcc-statdept-01|1|1|80G||/hpc/group/jilab/haowang/PCs_distance_analysis/GSE173351|
cjp47|PREEMPTED|scavenger|2023-05-30T12:38:38|2023-06-03T11:25:01|3-22:46:23|dcc-hulab-03|1|1|64G||/hpc/group/bio1/cyanolichen_holobiome|
hw309|COMPLETED|scavenger|2023-05-31T16:36:58|2023-06-01T10:26:54|17:49:56|dcc-pbenfeylab-02|1|1|80G||/hpc/group/jilab/haowang/PCs_distance_analysis/GSE173351|
ew198|CANCELLED by 1455533|scavenger|2023-05-30T13:20:49|2023-06-02T11:18:52|2-21:58:03|dcc-wychem-01|1|1|16000M||/cifs/hariri-long/Projects/Annchen/Scripts/ArealMSHBM|
hk288|CANCELLED by 1484570|scavenger|2023-05-30T13:43:34|2023-06-04T12:17:20|4-22:33:46|dcc-fergusonlab-03|1|40|200G||/hpc/group/mastatlab/hk288/code_hp_paral|
hk288|CANCELLED by 1484570|scavenger|2023-05-30T13:47:10|2023-06-04T12:17:20|4-22:30:10|dcc-fergusonlab-06|1|40|200G||/hpc/group/mastatlab/hk288/code_hp_paral|
jdw91|COMPLETED|scavenger|2023-05-30T14:01:32|2023-06-01T11:30:08|1-21:28:36|dcc-youlab-01|1|1|1000M||/hpc/home/jdw91/Work/RLRDS/Final_Branching_Models|
jdw91|COMPLETED|scavenger|2023-05-30T14:01:32|2023-06-01T06:04:47|1-16:03:15|dcc-wychem-01|1|1|1000M||/hpc/home/jdw91/Work/RLRDS/Final_Branching_Models|
jdw91|CANCELLED by 1217759|scavenger|2023-05-30T14:01:59|2023-06-01T13:40:41|1-23:38:42|dcc-wychem-01|1|1|1000M||/hpc/home/jdw91/Work/RLRDS/Final_Branching_Models|
jdw91|COMPLETED|scavenger|2023-05-30T14:01:59|2023-06-01T06:52:42|1-16:50:43|dcc-wychem-01|1|1|1000M||/hpc/home/jdw91/Work/RLRDS/Final_Branching_Models|
jdw91|COMPLETED|scavenger|2023-05-30T14:01:59|2023-06-01T07:19:42|1-17:17:43|dcc-wychem-01|1|1|1000M||/hpc/home/jdw91/Work/RLRDS/Final_Branching_Models|
jdw91|CANCELLED by 1217759|scavenger|2023-05-30T14:01:59|2023-06-01T13:40:41|1-23:38:42|dcc-wychem-01|1|1|1000M||/hpc/home/jdw91/Work/RLRDS/Final_Branching_Models|
jdw91|COMPLETED|scavenger|2023-05-30T14:02:02|2023-06-01T09:03:01|1-19:00:59|dcc-wychem-01|1|1|1000M||/hpc/home/jdw91/Work/RLRDS/Final_Branching_Models|
jdw91|CANCELLED by 1217759|scavenger|2023-05-30T14:02:02|2023-06-01T13:40:41|1-23:38:39|dcc-wychem-01|1|1|1000M||/hpc/home/jdw91/Work/RLRDS/Final_Branching_Models|
jdw91|FAILED|scavenger|2023-05-30T14:02:02|2023-06-01T13:33:12|1-23:31:10|dcc-wychem-01|1|1|1000M||/hpc/home/jdw91/Work/RLRDS/Final_Branching_Models|
jdw91|CANCELLED by 1217759|scavenger|2023-05-30T14:02:02|2023-06-01T13:40:41|1-23:38:39|dcc-wychem-01|1|1|1000M||/hpc/home/jdw91/Work/RLRDS/Final_Branching_Models|
ys379|RUNNING|scavenger|2023-05-30T15:02:33|Unknown|14-23:31:43|dcc-aryalab-01|1|5|10G||/hpc/home/ys379/submit_jobs/all_atoms|
ys379|COMPLETED|scavenger|2023-05-30T15:59:02|2023-06-02T15:02:03|2-23:03:01|dcc-donglab-01|1|5|10G||/hpc/home/ys379/submit_jobs/8x8x8|
tda17|COMPLETED|scavenger|2023-05-30T16:37:04|2023-06-03T17:26:00|4-00:48:56|dcc-donglab-01|1|16|256G||/work/tda17/hicar_analysis_probeenriched_cutadapt/vp64|
jdw91|COMPLETED|scavenger|2023-05-30T17:39:22|2023-06-01T08:37:55|1-14:58:33|dcc-youlab-01|1|1|1000M||/hpc/home/jdw91/Work/RLRDS/Final_Branching_Models|
af206|TIMEOUT|scavenger|2023-05-31T10:06:06|2023-06-03T10:06:13|3-00:00:07|dcc-compeb-01|1|40|200G||/hpc/home/af206/ondemand/data/sys/dashboard/batch_connect/sys/bc_rstudio_singularity/output/a9a54d83-8286-4176-88ea-71c9033b3646|
jdw91|CANCELLED by 1217759|scavenger|2023-05-31T10:15:20|2023-06-01T13:40:41|1-03:25:21|dcc-youlab-01|1|1|1000M||/hpc/home/jdw91/Work/RLRDS/Final_Branching_Models|
jdw91|CANCELLED by 1217759|scavenger|2023-05-31T10:15:20|2023-06-01T13:40:41|1-03:25:21|dcc-youlab-01|1|1|1000M||/hpc/home/jdw91/Work/RLRDS/Final_Branching_Models|
jdw91|FAILED|scavenger|2023-05-31T10:15:20|2023-06-01T13:39:35|1-03:24:15|dcc-youlab-01|1|1|1000M||/hpc/home/jdw91/Work/RLRDS/Final_Branching_Models|
jdw91|CANCELLED by 1217759|scavenger|2023-05-31T10:15:20|2023-06-01T13:40:41|1-03:25:21|dcc-youlab-01|1|1|1000M||/hpc/home/jdw91/Work/RLRDS/Final_Branching_Models|
jdw91|CANCELLED by 1217759|scavenger|2023-05-31T10:15:20|2023-06-01T13:40:41|1-03:25:21|dcc-youlab-01|1|1|1000M||/hpc/home/jdw91/Work/RLRDS/Final_Branching_Models|
jdw91|COMPLETED|scavenger|2023-05-31T10:15:20|2023-06-01T06:08:50|19:53:30|dcc-youlab-01|1|1|1000M||/hpc/home/jdw91/Work/RLRDS/Final_Branching_Models|
jdw91|COMPLETED|scavenger|2023-05-31T10:15:20|2023-06-01T06:40:39|20:25:19|dcc-youlab-01|1|1|1000M||/hpc/home/jdw91/Work/RLRDS/Final_Branching_Models|
jdw91|COMPLETED|scavenger|2023-05-31T10:15:20|2023-06-01T05:16:21|19:01:01|dcc-youlab-01|1|1|1000M||/hpc/home/jdw91/Work/RLRDS/Final_Branching_Models|
jdw91|COMPLETED|scavenger|2023-05-31T10:15:20|2023-06-01T12:51:04|1-02:35:44|dcc-youlab-01|1|1|1000M||/hpc/home/jdw91/Work/RLRDS/Final_Branching_Models|
jdw91|COMPLETED|scavenger|2023-05-31T10:15:20|2023-06-01T06:05:47|19:50:27|dcc-youlab-01|1|1|1000M||/hpc/home/jdw91/Work/RLRDS/Final_Branching_Models|
yw118|COMPLETED|scavenger|2023-05-31T10:51:33|2023-06-01T06:26:10|19:34:37|dcc-tmolab-01|1|1|8G||/hpc/home/yw118/GraphNeuralNetwork|
yw118|COMPLETED|scavenger|2023-05-31T10:51:33|2023-06-01T10:16:20|23:24:47|dcc-savageresearch-02|1|1|8G||/hpc/home/yw118/GraphNeuralNetwork|
yw118|COMPLETED|scavenger|2023-05-31T10:51:33|2023-06-01T09:41:47|22:50:14|dcc-savageresearch-02|1|1|8G||/hpc/home/yw118/GraphNeuralNetwork|
yw118|COMPLETED|scavenger|2023-05-31T10:51:34|2023-06-01T06:10:12|19:18:38|dcc-savageresearch-02|1|1|8G||/hpc/home/yw118/GraphNeuralNetwork|
yw118|COMPLETED|scavenger|2023-05-31T10:51:34|2023-06-01T05:19:09|18:27:35|dcc-savageresearch-02|1|1|8G||/hpc/home/yw118/GraphNeuralNetwork|
yw118|COMPLETED|scavenger|2023-05-31T10:51:34|2023-06-01T06:41:59|19:50:25|dcc-savageresearch-01|1|1|8G||/hpc/home/yw118/GraphNeuralNetwork|
yw118|COMPLETED|scavenger|2023-05-31T10:51:34|2023-06-01T14:11:23|1-03:19:49|dcc-savageresearch-01|1|1|8G||/hpc/home/yw118/GraphNeuralNetwork|
yw118|COMPLETED|scavenger|2023-05-31T10:51:34|2023-06-01T12:17:03|1-01:25:29|dcc-savageresearch-01|1|1|8G||/hpc/home/yw118/GraphNeuralNetwork|
yw118|COMPLETED|scavenger|2023-05-31T10:51:34|2023-06-01T05:23:16|18:31:42|dcc-savageresearch-01|1|1|8G||/hpc/home/yw118/GraphNeuralNetwork|
yw118|COMPLETED|scavenger|2023-05-31T10:51:34|2023-06-01T05:56:38|19:05:04|dcc-savageresearch-01|1|1|8G||/hpc/home/yw118/GraphNeuralNetwork|
yw118|COMPLETED|scavenger|2023-05-31T10:51:34|2023-06-01T06:55:46|20:04:12|dcc-savageresearch-01|1|1|8G||/hpc/home/yw118/GraphNeuralNetwork|
yw118|COMPLETED|scavenger|2023-05-31T10:51:34|2023-06-01T13:22:26|1-02:30:52|dcc-savageresearch-01|1|1|8G||/hpc/home/yw118/GraphNeuralNetwork|
yw118|COMPLETED|scavenger|2023-05-31T10:51:34|2023-06-01T05:49:05|18:57:31|dcc-rausherlab-02|1|1|8G||/hpc/home/yw118/GraphNeuralNetwork|
yw118|COMPLETED|scavenger|2023-05-31T10:51:34|2023-06-01T06:39:15|19:47:41|dcc-pfister-01|1|1|8G||/hpc/home/yw118/GraphNeuralNetwork|
yw118|COMPLETED|scavenger|2023-05-31T10:51:37|2023-06-01T05:17:49|18:26:12|dcc-noor-02|1|1|8G||/hpc/home/yw118/GraphNeuralNetwork|
yw118|COMPLETED|scavenger|2023-05-31T10:51:37|2023-06-01T07:50:05|20:58:28|dcc-noor-02|1|1|8G||/hpc/home/yw118/GraphNeuralNetwork|
yw118|COMPLETED|scavenger|2023-05-31T10:51:41|2023-06-01T08:22:18|21:30:37|dcc-hulab-05|1|1|8G||/hpc/home/yw118/GraphNeuralNetwork|
yw118|COMPLETED|scavenger|2023-05-31T10:51:41|2023-06-01T08:08:12|21:16:31|dcc-hulab-05|1|1|8G||/hpc/home/yw118/GraphNeuralNetwork|
yw118|COMPLETED|scavenger|2023-05-31T10:51:41|2023-06-01T07:34:29|20:42:48|dcc-hulab-05|1|1|8G||/hpc/home/yw118/GraphNeuralNetwork|
yw118|COMPLETED|scavenger|2023-05-31T10:51:41|2023-06-01T05:18:56|18:27:15|dcc-hulab-05|1|1|8G||/hpc/home/yw118/GraphNeuralNetwork|
yw118|COMPLETED|scavenger|2023-05-31T10:51:41|2023-06-01T05:45:16|18:53:35|dcc-hulab-05|1|1|8G||/hpc/home/yw118/GraphNeuralNetwork|
yw118|COMPLETED|scavenger|2023-05-31T10:51:41|2023-06-01T06:30:38|19:38:57|dcc-hulab-05|1|1|8G||/hpc/home/yw118/GraphNeuralNetwork|
yw118|COMPLETED|scavenger|2023-05-31T10:51:41|2023-06-01T09:28:48|22:37:07|dcc-hulab-05|1|1|8G||/hpc/home/yw118/GraphNeuralNetwork|
yw118|COMPLETED|scavenger|2023-05-31T10:51:42|2023-06-01T08:03:04|21:11:22|dcc-hulab-05|1|1|8G||/hpc/home/yw118/GraphNeuralNetwork|
yw118|COMPLETED|scavenger|2023-05-31T10:51:42|2023-06-01T08:21:39|21:29:57|dcc-hulab-05|1|1|8G||/hpc/home/yw118/GraphNeuralNetwork|
yw118|COMPLETED|scavenger|2023-05-31T15:39:33|2023-06-01T07:33:53|15:54:20|dcc-youlab-01|1|1|8G||/hpc/home/yw118/GraphNeuralNetwork|
yw118|COMPLETED|scavenger|2023-05-31T15:46:13|2023-06-01T05:04:27|13:18:14|dcc-youlab-01|1|1|8G||/hpc/home/yw118/GraphNeuralNetwork|
yw118|COMPLETED|scavenger|2023-05-31T15:58:43|2023-06-01T07:14:56|15:16:13|dcc-statdept-01|1|1|8G||/hpc/home/yw118/GraphNeuralNetwork|
yw118|COMPLETED|scavenger|2023-05-31T16:25:46|2023-06-01T09:56:23|17:30:37|dcc-statdept-01|1|1|8G||/hpc/home/yw118/GraphNeuralNetwork|
yw118|COMPLETED|scavenger|2023-05-31T16:37:22|2023-06-01T05:34:33|12:57:11|dcc-statdept-01|1|1|8G||/hpc/home/yw118/GraphNeuralNetwork|
yw118|COMPLETED|scavenger|2023-05-31T16:42:09|2023-06-01T15:17:25|22:35:16|dcc-statdept-01|1|1|8G||/hpc/home/yw118/GraphNeuralNetwork|
yw118|COMPLETED|scavenger|2023-05-31T16:42:09|2023-06-01T15:10:10|22:28:01|dcc-savageresearch-02|1|1|8G||/hpc/home/yw118/GraphNeuralNetwork|
yw118|COMPLETED|scavenger|2023-05-31T16:42:09|2023-06-01T08:27:49|15:45:40|dcc-savageresearch-01|1|1|8G||/hpc/home/yw118/GraphNeuralNetwork|
yw118|COMPLETED|scavenger|2023-05-31T16:42:09|2023-06-01T08:19:16|15:37:07|dcc-savageresearch-01|1|1|8G||/hpc/home/yw118/GraphNeuralNetwork|
yw118|COMPLETED|scavenger|2023-05-31T16:42:09|2023-06-01T06:49:01|14:06:52|dcc-pbenfeylab-01|1|1|8G||/hpc/home/yw118/GraphNeuralNetwork|
yw118|COMPLETED|scavenger|2023-05-31T16:42:09|2023-06-01T06:53:29|14:11:20|dcc-noor-02|1|1|8G||/hpc/home/yw118/GraphNeuralNetwork|
yw118|COMPLETED|scavenger|2023-05-31T16:42:09|2023-06-01T06:17:56|13:35:47|dcc-noor-02|1|1|8G||/hpc/home/yw118/GraphNeuralNetwork|
yw118|COMPLETED|scavenger|2023-05-31T16:42:09|2023-06-01T08:44:31|16:02:22|dcc-noor-02|1|1|8G||/hpc/home/yw118/GraphNeuralNetwork|
yw118|COMPLETED|scavenger|2023-05-31T16:42:09|2023-06-01T05:34:56|12:52:47|dcc-noor-01|1|1|8G||/hpc/home/yw118/GraphNeuralNetwork|
yw118|COMPLETED|scavenger|2023-05-31T16:42:10|2023-06-01T06:01:55|13:19:45|dcc-noor-01|1|1|8G||/hpc/home/yw118/GraphNeuralNetwork|
yw118|COMPLETED|scavenger|2023-05-31T16:42:10|2023-06-01T06:21:05|13:38:55|dcc-motesa-01|1|1|8G||/hpc/home/yw118/GraphNeuralNetwork|
yw118|COMPLETED|scavenger|2023-05-31T16:42:10|2023-06-01T06:32:21|13:50:11|dcc-hulab-05|1|1|8G||/hpc/home/yw118/GraphNeuralNetwork|
yw118|COMPLETED|scavenger|2023-05-31T16:42:10|2023-06-01T11:20:07|18:37:57|dcc-hulab-04|1|1|8G||/hpc/home/yw118/GraphNeuralNetwork|
yw118|COMPLETED|scavenger|2023-05-31T16:42:13|2023-06-01T05:10:08|12:27:55|dcc-hulab-04|1|1|8G||/hpc/home/yw118/GraphNeuralNetwork|
yw118|PREEMPTED|scavenger|2023-05-31T17:03:18|2023-06-01T07:53:58|14:50:40|dcc-tunglab-02|1|1|8G||/hpc/home/yw118/GraphNeuralNetwork|
yw118|COMPLETED|scavenger|2023-05-31T17:36:07|2023-06-01T07:21:06|13:44:59|dcc-tunglab-02|1|1|8G||/hpc/home/yw118/GraphNeuralNetwork|
yw118|PREEMPTED|scavenger|2023-05-31T17:41:11|2023-06-01T07:53:58|14:12:47|dcc-tunglab-02|1|1|8G||/hpc/home/yw118/GraphNeuralNetwork|
yw118|COMPLETED|scavenger|2023-05-31T17:51:48|2023-06-01T06:03:33|12:11:45|dcc-tunglab-02|1|1|8G||/hpc/home/yw118/GraphNeuralNetwork|
yw118|PREEMPTED|scavenger|2023-05-31T18:02:43|2023-06-01T07:54:01|13:51:18|dcc-tunglab-02|1|1|8G||/hpc/home/yw118/GraphNeuralNetwork|
yw118|COMPLETED|scavenger|2023-05-31T18:11:04|2023-06-01T05:05:19|10:54:15|dcc-wychem-01|1|1|8G||/hpc/home/yw118/GraphNeuralNetwork|
yw118|PREEMPTED|scavenger|2023-05-31T18:32:40|2023-06-01T07:54:03|13:21:23|dcc-tunglab-02|1|1|8G||/hpc/home/yw118/GraphNeuralNetwork|
yw118|COMPLETED|scavenger|2023-05-31T18:48:17|2023-06-01T05:34:31|10:46:14|dcc-tunglab-01|1|1|8G||/hpc/home/yw118/GraphNeuralNetwork|
yw118|COMPLETED|scavenger|2023-05-31T19:02:23|2023-06-01T15:46:00|20:43:37|dcc-tmolab-01|1|1|8G||/hpc/home/yw118/GraphNeuralNetwork|
yw118|COMPLETED|scavenger|2023-05-31T19:11:52|2023-06-01T05:06:07|09:54:15|dcc-tmolab-01|1|1|8G||/hpc/home/yw118/GraphNeuralNetwork|
yw118|COMPLETED|scavenger|2023-05-31T19:12:08|2023-06-01T13:17:28|18:05:20|dcc-statdept-01|1|1|8G||/hpc/home/yw118/GraphNeuralNetwork|
yw118|COMPLETED|scavenger|2023-05-31T19:26:58|2023-06-01T07:02:59|11:36:01|dcc-tmolab-01|1|1|8G||/hpc/home/yw118/GraphNeuralNetwork|
yw118|COMPLETED|scavenger|2023-05-31T19:34:50|2023-06-01T07:37:55|12:03:05|dcc-tmolab-01|1|1|8G||/hpc/home/yw118/GraphNeuralNetwork|
yw118|COMPLETED|scavenger|2023-05-31T19:38:54|2023-06-01T17:09:10|21:30:16|dcc-statdept-01|1|1|8G||/hpc/home/yw118/GraphNeuralNetwork|
yw118|COMPLETED|scavenger|2023-05-31T19:39:45|2023-06-01T16:11:26|20:31:41|dcc-statdept-01|1|1|8G||/hpc/home/yw118/GraphNeuralNetwork|
yw118|COMPLETED|scavenger|2023-05-31T19:46:12|2023-06-01T06:20:51|10:34:39|dcc-savageresearch-02|1|1|8G||/hpc/home/yw118/GraphNeuralNetwork|
yw118|COMPLETED|scavenger|2023-05-31T19:48:52|2023-06-01T08:47:50|12:58:58|dcc-savageresearch-02|1|1|8G||/hpc/home/yw118/GraphNeuralNetwork|
yw118|COMPLETED|scavenger|2023-05-31T19:53:38|2023-06-01T05:22:22|09:28:44|dcc-savageresearch-01|1|1|8G||/hpc/home/yw118/GraphNeuralNetwork|
yw118|COMPLETED|scavenger|2023-05-31T19:54:18|2023-06-01T06:51:56|10:57:38|dcc-pfister-01|1|1|8G||/hpc/home/yw118/GraphNeuralNetwork|
yw118|PREEMPTED|scavenger|2023-05-31T19:56:47|2023-06-01T07:54:03|11:57:16|dcc-tunglab-02|1|1|8G||/hpc/home/yw118/GraphNeuralNetwork|
yw118|COMPLETED|scavenger|2023-05-31T20:00:04|2023-06-01T08:20:46|12:20:42|dcc-pfister-01|1|1|8G||/hpc/home/yw118/GraphNeuralNetwork|
yw118|COMPLETED|scavenger|2023-05-31T20:02:39|2023-06-01T05:50:00|09:47:21|dcc-tmolab-01|1|1|8G||/hpc/home/yw118/GraphNeuralNetwork|
yw118|COMPLETED|scavenger|2023-05-31T20:13:34|2023-06-01T10:29:38|14:16:04|dcc-statdept-01|1|1|8G||/hpc/home/yw118/GraphNeuralNetwork|
yw118|COMPLETED|scavenger|2023-05-31T20:18:53|2023-06-01T07:31:45|11:12:52|dcc-pbenfeylab-02|1|1|8G||/hpc/home/yw118/GraphNeuralNetwork|
yw118|PREEMPTED|scavenger|2023-05-31T20:27:24|2023-06-01T07:54:06|11:26:42|dcc-tunglab-02|1|1|8G||/hpc/home/yw118/GraphNeuralNetwork|
yw118|COMPLETED|scavenger|2023-05-31T20:39:59|2023-06-01T05:52:32|09:12:33|dcc-savageresearch-01|1|1|8G||/hpc/home/yw118/GraphNeuralNetwork|
yw118|COMPLETED|scavenger|2023-05-31T20:48:37|2023-06-01T06:49:49|10:01:12|dcc-tunglab-02|1|1|8G||/hpc/home/yw118/GraphNeuralNetwork|
yw118|PREEMPTED|scavenger|2023-05-31T20:56:51|2023-06-01T07:54:06|10:57:15|dcc-tunglab-02|1|1|8G||/hpc/home/yw118/GraphNeuralNetwork|
yw118|PREEMPTED|scavenger|2023-05-31T21:03:32|2023-06-01T07:54:08|10:50:36|dcc-tunglab-02|1|1|8G||/hpc/home/yw118/GraphNeuralNetwork|
yw118|COMPLETED|scavenger|2023-05-31T21:04:08|2023-06-01T07:10:59|10:06:51|dcc-tunglab-02|1|1|8G||/hpc/home/yw118/GraphNeuralNetwork|
yw118|COMPLETED|scavenger|2023-05-31T21:12:37|2023-06-01T09:47:43|12:35:06|dcc-velmeshevlab-01|1|1|8G||/hpc/home/yw118/GraphNeuralNetwork|
yw118|PREEMPTED|scavenger|2023-05-31T21:14:59|2023-06-01T07:54:08|10:39:09|dcc-tunglab-02|1|1|8G||/hpc/home/yw118/GraphNeuralNetwork|
yw118|PREEMPTED|scavenger|2023-05-31T21:17:05|2023-06-01T07:54:11|10:37:06|dcc-tunglab-02|1|1|8G||/hpc/home/yw118/GraphNeuralNetwork|
yw118|PREEMPTED|scavenger|2023-05-31T21:19:54|2023-06-01T07:54:11|10:34:17|dcc-tunglab-02|1|1|8G||/hpc/home/yw118/GraphNeuralNetwork|
yw118|PREEMPTED|scavenger|2023-05-31T21:19:54|2023-06-01T07:54:14|10:34:20|dcc-tunglab-02|1|1|8G||/hpc/home/yw118/GraphNeuralNetwork|
yw118|PREEMPTED|scavenger|2023-05-31T21:19:54|2023-06-01T07:54:14|10:34:20|dcc-tunglab-02|1|1|8G||/hpc/home/yw118/GraphNeuralNetwork|
yw118|PREEMPTED|scavenger|2023-05-31T21:19:54|2023-06-01T07:54:16|10:34:22|dcc-tunglab-02|1|1|8G||/hpc/home/yw118/GraphNeuralNetwork|
yw118|COMPLETED|scavenger|2023-05-31T21:19:54|2023-06-01T06:29:50|09:09:56|dcc-tunglab-02|1|1|8G||/hpc/home/yw118/GraphNeuralNetwork|
yw118|COMPLETED|scavenger|2023-05-31T21:19:54|2023-06-01T05:25:44|08:05:50|dcc-tunglab-02|1|1|8G||/hpc/home/yw118/GraphNeuralNetwork|
yw118|PREEMPTED|scavenger|2023-05-31T21:19:54|2023-06-01T07:54:16|10:34:22|dcc-tunglab-02|1|1|8G||/hpc/home/yw118/GraphNeuralNetwork|
yw118|COMPLETED|scavenger|2023-05-31T21:19:54|2023-06-01T06:24:22|09:04:28|dcc-tunglab-02|1|1|8G||/hpc/home/yw118/GraphNeuralNetwork|
yw118|COMPLETED|scavenger|2023-05-31T21:19:54|2023-06-01T05:52:12|08:32:18|dcc-tunglab-02|1|1|8G||/hpc/home/yw118/GraphNeuralNetwork|
yw118|PREEMPTED|scavenger|2023-05-31T21:19:54|2023-06-01T07:54:19|10:34:25|dcc-tunglab-02|1|1|8G||/hpc/home/yw118/GraphNeuralNetwork|
yw118|PREEMPTED|scavenger|2023-05-31T21:19:54|2023-06-01T07:54:19|10:34:25|dcc-tunglab-02|1|1|8G||/hpc/home/yw118/GraphNeuralNetwork|
yw118|PREEMPTED|scavenger|2023-05-31T21:19:54|2023-06-01T07:54:21|10:34:27|dcc-tunglab-02|1|1|8G||/hpc/home/yw118/GraphNeuralNetwork|
yw118|PREEMPTED|scavenger|2023-05-31T21:19:54|2023-06-01T07:54:21|10:34:27|dcc-tunglab-02|1|1|8G||/hpc/home/yw118/GraphNeuralNetwork|
yw118|PREEMPTED|scavenger|2023-05-31T21:19:54|2023-06-01T07:54:24|10:34:30|dcc-tunglab-02|1|1|8G||/hpc/home/yw118/GraphNeuralNetwork|
yw118|PREEMPTED|scavenger|2023-05-31T21:19:54|2023-06-01T07:54:24|10:34:30|dcc-tunglab-02|1|1|8G||/hpc/home/yw118/GraphNeuralNetwork|
yw118|COMPLETED|scavenger|2023-05-31T21:19:54|2023-06-01T05:18:31|07:58:37|dcc-tunglab-01|1|1|8G||/hpc/home/yw118/GraphNeuralNetwork|
yw118|PREEMPTED|scavenger|2023-05-31T21:19:54|2023-06-01T07:56:02|10:36:08|dcc-tunglab-01|1|1|8G||/hpc/home/yw118/GraphNeuralNetwork|
yw118|PREEMPTED|scavenger|2023-05-31T21:20:00|2023-06-01T07:56:04|10:36:04|dcc-tunglab-01|1|1|8G||/hpc/home/yw118/GraphNeuralNetwork|
yw118|COMPLETED|scavenger|2023-05-31T21:20:00|2023-06-01T05:19:11|07:59:11|dcc-tunglab-01|1|1|8G||/hpc/home/yw118/GraphNeuralNetwork|
yw118|PREEMPTED|scavenger|2023-05-31T21:20:00|2023-06-01T07:56:04|10:36:04|dcc-tunglab-01|1|1|8G||/hpc/home/yw118/GraphNeuralNetwork|
yw118|PREEMPTED|scavenger|2023-05-31T21:20:00|2023-06-01T07:56:10|10:36:10|dcc-tunglab-01|1|1|8G||/hpc/home/yw118/GraphNeuralNetwork|
yw118|PREEMPTED|scavenger|2023-05-31T21:20:00|2023-06-01T07:56:10|10:36:10|dcc-tunglab-01|1|1|8G||/hpc/home/yw118/GraphNeuralNetwork|
yw118|PREEMPTED|scavenger|2023-05-31T21:20:00|2023-06-01T07:56:15|10:36:15|dcc-tunglab-01|1|1|8G||/hpc/home/yw118/GraphNeuralNetwork|
yw118|PREEMPTED|scavenger|2023-05-31T21:20:00|2023-06-01T07:56:15|10:36:15|dcc-tunglab-01|1|1|8G||/hpc/home/yw118/GraphNeuralNetwork|
yw118|PREEMPTED|scavenger|2023-05-31T21:20:00|2023-06-01T07:56:17|10:36:17|dcc-tunglab-01|1|1|8G||/hpc/home/yw118/GraphNeuralNetwork|
yw118|PREEMPTED|scavenger|2023-05-31T21:20:00|2023-06-01T07:56:17|10:36:17|dcc-tunglab-01|1|1|8G||/hpc/home/yw118/GraphNeuralNetwork|
yw118|PREEMPTED|scavenger|2023-05-31T21:20:00|2023-06-01T07:56:23|10:36:23|dcc-tunglab-01|1|1|8G||/hpc/home/yw118/GraphNeuralNetwork|
yw118|PREEMPTED|scavenger|2023-05-31T21:20:00|2023-06-01T07:56:23|10:36:23|dcc-tunglab-01|1|1|8G||/hpc/home/yw118/GraphNeuralNetwork|
yw118|PREEMPTED|scavenger|2023-05-31T21:20:00|2023-06-01T07:56:28|10:36:28|dcc-tunglab-01|1|1|8G||/hpc/home/yw118/GraphNeuralNetwork|
yw118|PREEMPTED|scavenger|2023-05-31T21:20:00|2023-06-01T07:56:28|10:36:28|dcc-tunglab-01|1|1|8G||/hpc/home/yw118/GraphNeuralNetwork|
yw118|COMPLETED|scavenger|2023-05-31T21:20:00|2023-06-01T05:58:20|08:38:20|dcc-tunglab-01|1|1|8G||/hpc/home/yw118/GraphNeuralNetwork|
yw118|COMPLETED|scavenger|2023-05-31T21:25:09|2023-06-01T14:04:56|16:39:47|dcc-statdept-01|1|1|8G||/hpc/home/yw118/GraphNeuralNetwork|
yw118|COMPLETED|scavenger|2023-05-31T21:30:32|2023-06-01T12:36:44|15:06:12|dcc-savageresearch-01|1|1|8G||/hpc/home/yw118/GraphNeuralNetwork|
yw118|COMPLETED|scavenger|2023-05-31T21:33:59|2023-06-01T06:30:52|08:56:53|dcc-pfister-01|1|1|8G||/hpc/home/yw118/GraphNeuralNetwork|
yw118|COMPLETED|scavenger|2023-05-31T21:39:09|2023-06-01T07:53:13|10:14:04|dcc-youlab-01|1|1|8G||/hpc/home/yw118/GraphNeuralNetwork|
yw118|PREEMPTED|scavenger|2023-05-31T21:41:49|2023-06-01T07:57:05|10:15:16|dcc-tunglab-02|1|1|8G||/hpc/home/yw118/GraphNeuralNetwork|
yw118|COMPLETED|scavenger|2023-05-31T21:43:12|2023-06-01T08:38:45|10:55:33|dcc-statdept-01|1|1|8G||/hpc/home/yw118/GraphNeuralNetwork|
yw118|COMPLETED|scavenger|2023-05-31T21:53:47|2023-06-01T06:48:50|08:55:03|dcc-pfister-01|1|1|8G||/hpc/home/yw118/GraphNeuralNetwork|
yw118|COMPLETED|scavenger|2023-05-31T21:58:28|2023-06-01T10:27:43|12:29:15|dcc-pbenfeylab-02|1|1|8G||/hpc/home/yw118/GraphNeuralNetwork|
yw118|COMPLETED|scavenger|2023-05-31T21:59:02|2023-06-01T11:13:29|13:14:27|dcc-wychem-01|1|1|8G||/hpc/home/yw118/GraphNeuralNetwork|
yw118|COMPLETED|scavenger|2023-05-31T22:02:48|2023-06-01T12:20:10|14:17:22|dcc-savageresearch-02|1|1|8G||/hpc/home/yw118/GraphNeuralNetwork|
yw118|COMPLETED|scavenger|2023-05-31T22:07:00|2023-06-01T05:57:47|07:50:47|dcc-pbenfeylab-02|1|1|8G||/hpc/home/yw118/GraphNeuralNetwork|
yw118|COMPLETED|scavenger|2023-05-31T22:28:12|2023-06-01T08:36:45|10:08:33|dcc-tmolab-01|1|1|8G||/hpc/home/yw118/GraphNeuralNetwork|
yw118|COMPLETED|scavenger|2023-05-31T22:35:23|2023-06-01T10:18:34|11:43:11|dcc-statdept-01|1|1|8G||/hpc/home/yw118/GraphNeuralNetwork|
yw118|COMPLETED|scavenger|2023-05-31T22:35:41|2023-06-01T07:54:30|09:18:49|dcc-statdept-01|1|1|8G||/hpc/home/yw118/GraphNeuralNetwork|
yw118|COMPLETED|scavenger|2023-05-31T22:41:41|2023-06-01T10:50:25|12:08:44|dcc-statdept-01|1|1|8G||/hpc/home/yw118/GraphNeuralNetwork|
yw118|COMPLETED|scavenger|2023-05-31T22:42:30|2023-06-01T06:24:37|07:42:07|dcc-pbenfeylab-01|1|1|8G||/hpc/home/yw118/GraphNeuralNetwork|
yw118|COMPLETED|scavenger|2023-05-31T22:45:54|2023-06-01T07:42:55|08:57:01|dcc-statdept-01|1|1|8G||/hpc/home/yw118/GraphNeuralNetwork|
yw118|COMPLETED|scavenger|2023-05-31T22:58:14|2023-06-01T17:06:56|18:08:42|dcc-nicolab-01|1|1|8G||/hpc/home/yw118/GraphNeuralNetwork|
yw118|COMPLETED|scavenger|2023-05-31T22:59:46|2023-06-01T05:46:24|06:46:38|dcc-savageresearch-02|1|1|8G||/hpc/home/yw118/GraphNeuralNetwork|
yw118|COMPLETED|scavenger|2023-05-31T23:04:18|2023-06-01T06:46:17|07:41:59|dcc-velmeshevlab-01|1|1|8G||/hpc/home/yw118/GraphNeuralNetwork|
yw118|COMPLETED|scavenger|2023-05-31T23:21:06|2023-06-01T14:30:16|15:09:10|dcc-statdept-01|1|1|8G||/hpc/home/yw118/GraphNeuralNetwork|
yw118|COMPLETED|scavenger|2023-05-31T23:21:19|2023-06-01T10:28:18|11:06:59|dcc-savageresearch-02|1|1|8G||/hpc/home/yw118/GraphNeuralNetwork|
yw118|COMPLETED|scavenger|2023-05-31T23:22:44|2023-06-01T13:34:53|14:12:09|dcc-tmolab-02|1|1|8G||/hpc/home/yw118/GraphNeuralNetwork|
yw118|COMPLETED|scavenger|2023-05-31T23:23:17|2023-06-01T07:41:38|08:18:21|dcc-rausherlab-01|1|1|8G||/hpc/home/yw118/GraphNeuralNetwork|
yw118|COMPLETED|scavenger|2023-05-31T23:24:23|2023-06-01T09:25:03|10:00:40|dcc-velmeshevlab-01|1|1|8G||/hpc/home/yw118/GraphNeuralNetwork|
yw118|COMPLETED|scavenger|2023-05-31T23:25:37|2023-06-01T14:37:33|15:11:56|dcc-statdept-01|1|1|8G||/hpc/home/yw118/GraphNeuralNetwork|
yw118|COMPLETED|scavenger|2023-05-31T23:27:42|2023-06-01T11:11:06|11:43:24|dcc-velmeshevlab-01|1|1|8G||/hpc/home/yw118/GraphNeuralNetwork|
yw118|COMPLETED|scavenger|2023-05-31T23:28:23|2023-06-01T19:08:57|19:40:34|dcc-pfister-01|1|1|8G||/hpc/home/yw118/GraphNeuralNetwork|
yw118|COMPLETED|scavenger|2023-05-31T23:32:00|2023-06-01T11:36:55|12:04:55|dcc-pbenfeylab-02|1|1|8G||/hpc/home/yw118/GraphNeuralNetwork|
yw118|COMPLETED|scavenger|2023-05-31T23:32:03|2023-06-01T05:32:52|06:00:49|dcc-nsoe-it-01|1|1|8G||/hpc/home/yw118/GraphNeuralNetwork|
yw118|COMPLETED|scavenger|2023-05-31T23:44:10|2023-06-01T08:19:11|08:35:01|dcc-rausherlab-02|1|1|8G||/hpc/home/yw118/GraphNeuralNetwork|
yw118|COMPLETED|scavenger|2023-05-31T23:44:35|2023-06-01T05:27:25|05:42:50|dcc-rausherlab-02|1|1|8G||/hpc/home/yw118/GraphNeuralNetwork|
yw118|COMPLETED|scavenger|2023-05-31T23:44:43|2023-06-01T09:16:18|09:31:35|dcc-rausherlab-01|1|1|8G||/hpc/home/yw118/GraphNeuralNetwork|
yw118|COMPLETED|scavenger|2023-05-31T23:45:58|2023-06-01T07:46:58|08:01:00|dcc-pfister-01|1|1|8G||/hpc/home/yw118/GraphNeuralNetwork|
yw118|COMPLETED|scavenger|2023-05-31T23:54:08|2023-06-01T16:03:50|16:09:42|dcc-pfister-01|1|1|8G||/hpc/home/yw118/GraphNeuralNetwork|
yw118|COMPLETED|scavenger|2023-05-31T23:54:40|2023-06-01T05:20:22|05:25:42|dcc-rausherlab-02|1|1|8G||/hpc/home/yw118/GraphNeuralNetwork|
yw118|COMPLETED|scavenger|2023-06-01T00:00:34|2023-06-01T11:17:09|11:16:35|dcc-rausherlab-02|1|1|8G||/hpc/home/yw118/GraphNeuralNetwork|
yw118|COMPLETED|scavenger|2023-06-01T00:02:11|2023-06-01T05:47:59|05:45:48|dcc-rausherlab-02|1|1|8G||/hpc/home/yw118/GraphNeuralNetwork|
yw118|PREEMPTED|scavenger|2023-06-01T00:08:26|2023-06-01T07:56:36|07:48:10|dcc-tunglab-01|1|1|8G||/hpc/home/yw118/GraphNeuralNetwork|
yw118|PREEMPTED|scavenger|2023-06-01T00:09:28|2023-06-01T07:56:36|07:47:08|dcc-tunglab-01|1|1|8G||/hpc/home/yw118/GraphNeuralNetwork|
yw118|PREEMPTED|scavenger|2023-06-01T00:17:00|2023-06-01T07:56:46|07:39:46|dcc-tunglab-01|1|1|8G||/hpc/home/yw118/GraphNeuralNetwork|
yw118|COMPLETED|scavenger|2023-06-01T00:19:07|2023-06-01T13:34:24|13:15:17|dcc-statdept-01|1|1|8G||/hpc/home/yw118/GraphNeuralNetwork|
yw118|COMPLETED|scavenger|2023-06-01T00:24:52|2023-06-01T09:50:04|09:25:12|dcc-nsoe-it-01|1|1|8G||/hpc/home/yw118/GraphNeuralNetwork|
yw118|COMPLETED|scavenger|2023-06-01T00:34:18|2023-06-01T05:04:50|04:30:32|dcc-nsoe-it-01|1|1|8G||/hpc/home/yw118/GraphNeuralNetwork|
yw118|COMPLETED|scavenger|2023-06-01T00:34:39|2023-06-01T06:23:08|05:48:29|dcc-nsoe-it-01|1|1|8G||/hpc/home/yw118/GraphNeuralNetwork|
yw118|PREEMPTED|scavenger|2023-06-01T00:37:24|2023-06-01T07:56:46|07:19:22|dcc-tunglab-01|1|1|8G||/hpc/home/yw118/GraphNeuralNetwork|
yw118|PREEMPTED|scavenger|2023-06-01T00:41:06|2023-06-01T07:57:25|07:16:19|dcc-tunglab-01|1|1|8G||/hpc/home/yw118/GraphNeuralNetwork|
yw118|COMPLETED|scavenger|2023-06-01T00:42:46|2023-06-01T07:35:04|06:52:18|dcc-tunglab-01|1|1|8G||/hpc/home/yw118/GraphNeuralNetwork|
yw118|COMPLETED|scavenger|2023-06-01T00:49:55|2023-06-01T10:18:15|09:28:20|dcc-youlab-01|1|1|8G||/hpc/home/yw118/GraphNeuralNetwork|
yw118|PREEMPTED|scavenger|2023-06-01T00:53:24|2023-06-01T07:57:05|07:03:41|dcc-tunglab-02|1|1|8G||/hpc/home/yw118/GraphNeuralNetwork|
yw118|PREEMPTED|scavenger|2023-06-01T00:53:24|2023-06-01T07:57:48|07:04:24|dcc-tunglab-02|1|1|8G||/hpc/home/yw118/GraphNeuralNetwork|
yw118|PREEMPTED|scavenger|2023-06-01T00:58:13|2023-06-01T07:57:25|06:59:12|dcc-tunglab-01|1|1|8G||/hpc/home/yw118/GraphNeuralNetwork|
yw118|PREEMPTED|scavenger|2023-06-01T01:01:33|2023-06-01T07:57:28|06:55:55|dcc-tunglab-01|1|1|8G||/hpc/home/yw118/GraphNeuralNetwork|
yw118|PREEMPTED|scavenger|2023-06-01T01:03:47|2023-06-01T07:57:28|06:53:41|dcc-tunglab-01|1|1|8G||/hpc/home/yw118/GraphNeuralNetwork|
yw118|PREEMPTED|scavenger|2023-06-01T01:06:18|2023-06-01T07:57:48|06:51:30|dcc-tunglab-02|1|1|8G||/hpc/home/yw118/GraphNeuralNetwork|
yw118|COMPLETED|scavenger|2023-06-01T01:08:43|2023-06-01T12:52:09|11:43:26|dcc-velmeshevlab-01|1|1|8G||/hpc/home/yw118/GraphNeuralNetwork|
yw118|COMPLETED|scavenger|2023-06-01T01:17:49|2023-06-01T13:58:19|12:40:30|dcc-velmeshevlab-01|1|1|8G||/hpc/home/yw118/GraphNeuralNetwork|
yw118|COMPLETED|scavenger|2023-06-01T01:21:03|2023-06-01T06:39:20|05:18:17|dcc-velmeshevlab-01|1|1|8G||/hpc/home/yw118/GraphNeuralNetwork|
yw118|COMPLETED|scavenger|2023-06-01T01:21:23|2023-06-01T07:07:09|05:45:46|dcc-velmeshevlab-01|1|1|8G||/hpc/home/yw118/GraphNeuralNetwork|
yw118|COMPLETED|scavenger|2023-06-01T01:27:18|2023-06-01T11:07:33|09:40:15|dcc-velmeshevlab-01|1|1|8G||/hpc/home/yw118/GraphNeuralNetwork|
yw118|COMPLETED|scavenger|2023-06-01T01:30:46|2023-06-01T19:45:46|18:15:00|dcc-velmeshevlab-01|1|1|8G||/hpc/home/yw118/GraphNeuralNetwork|
yw118|COMPLETED|scavenger|2023-06-01T01:30:57|2023-06-01T13:10:19|11:39:22|dcc-velmeshevlab-01|1|1|8G||/hpc/home/yw118/GraphNeuralNetwork|
yw118|COMPLETED|scavenger|2023-06-01T01:32:20|2023-06-01T08:42:15|07:09:55|dcc-velmeshevlab-01|1|1|8G||/hpc/home/yw118/GraphNeuralNetwork|
yw118|COMPLETED|scavenger|2023-06-01T01:40:13|2023-06-01T06:28:01|04:47:48|dcc-velmeshevlab-01|1|1|8G||/hpc/home/yw118/GraphNeuralNetwork|
yw118|COMPLETED|scavenger|2023-06-01T01:46:40|2023-06-01T14:32:30|12:45:50|dcc-velmeshevlab-01|1|1|8G||/hpc/home/yw118/GraphNeuralNetwork|
yw118|COMPLETED|scavenger|2023-06-01T01:48:39|2023-06-01T13:04:11|11:15:32|dcc-velmeshevlab-01|1|1|8G||/hpc/home/yw118/GraphNeuralNetwork|
yw118|PREEMPTED|scavenger|2023-06-01T01:48:42|2023-06-01T07:57:59|06:09:17|dcc-tunglab-02|1|1|8G||/hpc/home/yw118/GraphNeuralNetwork|
yw118|PREEMPTED|scavenger|2023-06-01T01:52:09|2023-06-01T07:57:59|06:05:50|dcc-tunglab-02|1|1|8G||/hpc/home/yw118/GraphNeuralNetwork|
yw118|PREEMPTED|scavenger|2023-06-01T01:55:24|2023-06-01T07:58:05|06:02:41|dcc-tunglab-02|1|1|8G||/hpc/home/yw118/GraphNeuralNetwork|
yw118|PREEMPTED|scavenger|2023-06-01T01:56:01|2023-06-01T07:58:05|06:02:04|dcc-tunglab-02|1|1|8G||/hpc/home/yw118/GraphNeuralNetwork|
yw118|PREEMPTED|scavenger|2023-06-01T01:57:35|2023-06-01T07:58:36|06:01:01|dcc-tunglab-02|1|1|8G||/hpc/home/yw118/GraphNeuralNetwork|
yw118|PREEMPTED|scavenger|2023-06-01T02:00:07|2023-06-01T07:58:36|05:58:29|dcc-tunglab-02|1|1|8G||/hpc/home/yw118/GraphNeuralNetwork|
yw118|PREEMPTED|scavenger|2023-06-01T02:02:55|2023-06-01T07:58:51|05:55:56|dcc-tunglab-01|1|1|8G||/hpc/home/yw118/GraphNeuralNetwork|
yw118|PREEMPTED|scavenger|2023-06-01T02:06:46|2023-06-01T07:58:51|05:52:05|dcc-tunglab-01|1|1|8G||/hpc/home/yw118/GraphNeuralNetwork|
yw118|PREEMPTED|scavenger|2023-06-01T02:07:45|2023-06-01T07:59:08|05:51:23|dcc-tunglab-01|1|1|8G||/hpc/home/yw118/GraphNeuralNetwork|
yw118|PREEMPTED|scavenger|2023-06-01T02:27:59|2023-06-01T07:59:08|05:31:09|dcc-tunglab-01|1|1|8G||/hpc/home/yw118/GraphNeuralNetwork|
yw118|PREEMPTED|scavenger|2023-06-01T02:28:08|2023-06-01T07:59:24|05:31:16|dcc-tunglab-01|1|1|8G||/hpc/home/yw118/GraphNeuralNetwork|
yw118|PREEMPTED|scavenger|2023-06-01T02:31:41|2023-06-01T07:59:24|05:27:43|dcc-tunglab-01|1|1|8G||/hpc/home/yw118/GraphNeuralNetwork|
yw118|COMPLETED|scavenger|2023-06-01T02:33:30|2023-06-01T10:59:33|08:26:03|dcc-velmeshevlab-01|1|1|8G||/hpc/home/yw118/GraphNeuralNetwork|
yw118|COMPLETED|scavenger|2023-06-01T02:36:42|2023-06-01T14:34:57|11:58:15|dcc-tmolab-02|1|1|8G||/hpc/home/yw118/GraphNeuralNetwork|
yw118|COMPLETED|scavenger|2023-06-01T02:38:32|2023-06-01T11:50:46|09:12:14|dcc-tmolab-02|1|1|8G||/hpc/home/yw118/GraphNeuralNetwork|
yw118|COMPLETED|scavenger|2023-06-01T02:39:18|2023-06-01T18:16:34|15:37:16|dcc-tmolab-01|1|1|8G||/hpc/home/yw118/GraphNeuralNetwork|
yw118|COMPLETED|scavenger|2023-06-01T02:40:14|2023-06-01T12:33:47|09:53:33|dcc-statdept-01|1|1|8G||/hpc/home/yw118/GraphNeuralNetwork|
yw118|PREEMPTED|scavenger|2023-06-01T02:42:02|2023-06-01T07:59:29|05:17:27|dcc-tunglab-02|1|1|8G||/hpc/home/yw118/GraphNeuralNetwork|
yw118|PREEMPTED|scavenger|2023-06-01T02:42:21|2023-06-01T07:59:29|05:17:08|dcc-tunglab-02|1|1|8G||/hpc/home/yw118/GraphNeuralNetwork|
yw118|COMPLETED|scavenger|2023-06-01T02:44:24|2023-06-01T18:02:02|15:17:38|dcc-youlab-01|1|1|8G||/hpc/home/yw118/GraphNeuralNetwork|
yw118|PREEMPTED|scavenger|2023-06-01T02:46:01|2023-06-01T07:59:50|05:13:49|dcc-tunglab-02|1|1|8G||/hpc/home/yw118/GraphNeuralNetwork|
yw118|COMPLETED|scavenger|2023-06-01T02:50:14|2023-06-01T13:14:41|10:24:27|dcc-velmeshevlab-01|1|1|8G||/hpc/home/yw118/GraphNeuralNetwork|
yw118|COMPLETED|scavenger|2023-06-01T02:51:29|2023-06-01T19:35:05|16:43:36|dcc-statdept-01|1|1|8G||/hpc/home/yw118/GraphNeuralNetwork|
yw118|COMPLETED|scavenger|2023-06-01T02:53:04|2023-06-01T17:39:44|14:46:40|dcc-tmolab-02|1|1|8G||/hpc/home/yw118/GraphNeuralNetwork|
yw118|COMPLETED|scavenger|2023-06-01T02:54:59|2023-06-01T09:08:10|06:13:11|dcc-tmolab-02|1|1|8G||/hpc/home/yw118/GraphNeuralNetwork|
yw118|COMPLETED|scavenger|2023-06-01T02:59:31|2023-06-01T07:55:35|04:56:04|dcc-velmeshevlab-01|1|1|8G||/hpc/home/yw118/GraphNeuralNetwork|
yw118|PREEMPTED|scavenger|2023-06-01T03:01:15|2023-06-01T07:59:50|04:58:35|dcc-tunglab-02|1|1|8G||/hpc/home/yw118/GraphNeuralNetwork|
yw118|PREEMPTED|scavenger|2023-06-01T03:02:35|2023-06-01T07:59:58|04:57:23|dcc-tunglab-02|1|1|8G||/hpc/home/yw118/GraphNeuralNetwork|
yw118|PREEMPTED|scavenger|2023-06-01T03:04:01|2023-06-01T07:59:58|04:55:57|dcc-tunglab-02|1|1|8G||/hpc/home/yw118/GraphNeuralNetwork|
yw118|COMPLETED|scavenger|2023-06-01T03:05:22|2023-06-01T17:24:26|14:19:04|dcc-tmolab-02|1|1|8G||/hpc/home/yw118/GraphNeuralNetwork|
yw118|COMPLETED|scavenger|2023-06-01T03:06:37|2023-06-01T10:29:22|07:22:45|dcc-wychem-01|1|1|8G||/hpc/home/yw118/GraphNeuralNetwork|
yw118|PREEMPTED|scavenger|2023-06-01T03:09:13|2023-06-01T08:00:00|04:50:47|dcc-tunglab-02|1|1|8G||/hpc/home/yw118/GraphNeuralNetwork|
yw118|PREEMPTED|scavenger|2023-06-01T03:13:54|2023-06-01T08:00:00|04:46:06|dcc-tunglab-02|1|1|8G||/hpc/home/yw118/GraphNeuralNetwork|
yw118|PREEMPTED|scavenger|2023-06-01T03:19:16|2023-06-01T08:00:18|04:41:02|dcc-tunglab-02|1|1|8G||/hpc/home/yw118/GraphNeuralNetwork|
yw118|PREEMPTED|scavenger|2023-06-01T03:23:58|2023-06-01T08:00:18|04:36:20|dcc-tunglab-02|1|1|8G||/hpc/home/yw118/GraphNeuralNetwork|
yw118|PREEMPTED|scavenger|2023-06-01T03:26:27|2023-06-01T08:00:28|04:34:01|dcc-tunglab-02|1|1|8G||/hpc/home/yw118/GraphNeuralNetwork|
yw118|PREEMPTED|scavenger|2023-06-01T03:31:29|2023-06-01T08:00:28|04:28:59|dcc-tunglab-02|1|1|8G||/hpc/home/yw118/GraphNeuralNetwork|
yw118|PREEMPTED|scavenger|2023-06-01T03:34:18|2023-06-01T08:00:31|04:26:13|dcc-tunglab-02|1|1|8G||/hpc/home/yw118/GraphNeuralNetwork|
yw118|PREEMPTED|scavenger|2023-06-01T03:34:57|2023-06-01T08:00:34|04:25:37|dcc-tunglab-02|1|1|8G||/hpc/home/yw118/GraphNeuralNetwork|
yw118|PREEMPTED|scavenger|2023-06-01T03:43:40|2023-06-01T08:00:34|04:16:54|dcc-tunglab-02|1|1|8G||/hpc/home/yw118/GraphNeuralNetwork|
yw118|PREEMPTED|scavenger|2023-06-01T03:46:35|2023-06-01T08:01:42|04:15:07|dcc-tunglab-02|1|1|8G||/hpc/home/yw118/GraphNeuralNetwork|
yw118|PREEMPTED|scavenger|2023-06-01T03:46:49|2023-06-01T08:00:44|04:13:55|dcc-tunglab-01|1|1|8G||/hpc/home/yw118/GraphNeuralNetwork|
yw118|PREEMPTED|scavenger|2023-06-01T03:48:00|2023-06-01T08:00:57|04:12:57|dcc-tunglab-01|1|1|8G||/hpc/home/yw118/GraphNeuralNetwork|
yw118|PREEMPTED|scavenger|2023-06-01T03:53:45|2023-06-01T08:00:57|04:07:12|dcc-tunglab-01|1|1|8G||/hpc/home/yw118/GraphNeuralNetwork|
yw118|PREEMPTED|scavenger|2023-06-01T04:00:18|2023-06-01T08:01:36|04:01:18|dcc-tunglab-01|1|1|8G||/hpc/home/yw118/GraphNeuralNetwork|
yw118|PREEMPTED|scavenger|2023-06-01T04:01:31|2023-06-01T08:01:36|04:00:05|dcc-tunglab-01|1|1|8G||/hpc/home/yw118/GraphNeuralNetwork|
yw118|PREEMPTED|scavenger|2023-06-01T04:03:01|2023-06-01T08:01:44|03:58:43|dcc-tunglab-01|1|1|8G||/hpc/home/yw118/GraphNeuralNetwork|
yw118|PREEMPTED|scavenger|2023-06-01T04:03:18|2023-06-01T08:01:42|03:58:24|dcc-tunglab-02|1|1|8G||/hpc/home/yw118/GraphNeuralNetwork|
yw118|COMPLETED|scavenger|2023-06-01T04:03:47|2023-06-01T11:14:43|07:10:56|dcc-tmolab-02|1|1|8G||/hpc/home/yw118/GraphNeuralNetwork|
yw118|COMPLETED|scavenger|2023-06-01T04:13:33|2023-06-01T10:26:28|06:12:55|dcc-youlab-01|1|1|8G||/hpc/home/yw118/GraphNeuralNetwork|
yw118|COMPLETED|scavenger|2023-06-01T04:13:43|2023-06-01T16:50:00|12:36:17|dcc-wychem-01|1|1|8G||/hpc/home/yw118/GraphNeuralNetwork|
yw118|COMPLETED|scavenger|2023-06-01T04:16:33|2023-06-01T14:44:02|10:27:29|dcc-wychem-01|1|1|8G||/hpc/home/yw118/GraphNeuralNetwork|
yw118|PREEMPTED|scavenger|2023-06-01T04:17:58|2023-06-01T08:01:44|03:43:46|dcc-tunglab-01|1|1|8G||/hpc/home/yw118/GraphNeuralNetwork|
yw118|COMPLETED|scavenger|2023-06-01T04:19:24|2023-06-01T10:48:12|06:28:48|dcc-tmolab-02|1|1|8G||/hpc/home/yw118/GraphNeuralNetwork|
yw118|COMPLETED|scavenger|2023-06-01T04:21:07|2023-06-01T19:46:22|15:25:15|dcc-tmolab-01|1|1|8G||/hpc/home/yw118/GraphNeuralNetwork|
yw118|COMPLETED|scavenger|2023-06-01T04:23:19|2023-06-01T20:44:31|16:21:12|dcc-statdept-01|1|1|8G||/hpc/home/yw118/GraphNeuralNetwork|
yw118|COMPLETED|scavenger|2023-06-01T04:24:17|2023-06-01T15:34:14|11:09:57|dcc-statdept-01|1|1|8G||/hpc/home/yw118/GraphNeuralNetwork|
yw118|COMPLETED|scavenger|2023-06-01T04:27:28|2023-06-01T14:58:33|10:31:05|dcc-statdept-01|1|1|8G||/hpc/home/yw118/GraphNeuralNetwork|
yw118|COMPLETED|scavenger|2023-06-01T04:39:26|2023-06-01T22:35:47|17:56:21|dcc-tmolab-01|1|1|8G||/hpc/home/yw118/GraphNeuralNetwork|
yw118|COMPLETED|scavenger|2023-06-01T04:39:59|2023-06-01T13:30:42|08:50:43|dcc-statdept-01|1|1|8G||/hpc/home/yw118/GraphNeuralNetwork|
yw118|COMPLETED|scavenger|2023-06-01T04:40:13|2023-06-01T15:15:39|10:35:26|dcc-statdept-01|1|1|8G||/hpc/home/yw118/GraphNeuralNetwork|
yw118|COMPLETED|scavenger|2023-06-01T04:42:01|2023-06-01T22:50:37|18:08:36|dcc-statdept-01|1|1|8G||/hpc/home/yw118/GraphNeuralNetwork|
yw118|COMPLETED|scavenger|2023-06-01T04:44:16|2023-06-01T13:36:47|08:52:31|dcc-tmolab-02|1|1|8G||/hpc/home/yw118/GraphNeuralNetwork|
yw118|COMPLETED|scavenger|2023-06-01T04:44:20|2023-06-01T12:33:02|07:48:42|dcc-statdept-01|1|1|8G||/hpc/home/yw118/GraphNeuralNetwork|
yw118|PREEMPTED|scavenger|2023-06-01T04:45:19|2023-06-01T08:02:24|03:17:05|dcc-tunglab-02|1|1|8G||/hpc/home/yw118/GraphNeuralNetwork|
yw118|COMPLETED|scavenger|2023-06-01T04:47:06|2023-06-01T11:15:44|06:28:38|dcc-youlab-01|1|1|8G||/hpc/home/yw118/GraphNeuralNetwork|
yw118|PREEMPTED|scavenger|2023-06-01T04:48:54|2023-06-01T08:02:24|03:13:30|dcc-tunglab-02|1|1|8G||/hpc/home/yw118/GraphNeuralNetwork|
yw118|COMPLETED|scavenger|2023-06-01T04:49:16|2023-06-01T19:39:34|14:50:18|dcc-statdept-01|1|1|8G||/hpc/home/yw118/GraphNeuralNetwork|
yw118|COMPLETED|scavenger|2023-06-01T04:49:24|2023-06-01T13:00:15|08:10:51|dcc-tmolab-01|1|1|8G||/hpc/home/yw118/GraphNeuralNetwork|
yw118|COMPLETED|scavenger|2023-06-01T04:50:18|2023-06-01T14:07:50|09:17:32|dcc-statdept-01|1|1|8G||/hpc/home/yw118/GraphNeuralNetwork|
yw118|COMPLETED|scavenger|2023-06-01T05:04:29|2023-06-01T13:43:08|08:38:39|dcc-youlab-01|1|1|8G||/hpc/home/yw118/GraphNeuralNetwork|
yw118|COMPLETED|scavenger|2023-06-01T05:04:51|2023-06-01T19:34:50|14:29:59|dcc-statdept-01|1|1|8G||/hpc/home/yw118/GraphNeuralNetwork|
yw118|COMPLETED|scavenger|2023-06-01T05:05:19|2023-06-01T16:51:56|11:46:37|dcc-wychem-01|1|1|8G||/hpc/home/yw118/GraphNeuralNetwork|
yw118|COMPLETED|scavenger|2023-06-01T05:06:08|2023-06-01T22:15:40|17:09:32|dcc-tmolab-01|1|1|8G||/hpc/home/yw118/GraphNeuralNetwork|
yw118|COMPLETED|scavenger|2023-06-01T05:10:08|2023-06-01T17:37:54|12:27:46|dcc-statdept-01|1|1|8G||/hpc/home/yw118/GraphNeuralNetwork|
yw118|COMPLETED|scavenger|2023-06-01T05:17:49|2023-06-01T13:52:48|08:34:59|dcc-statdept-01|1|1|8G||/hpc/home/yw118/GraphNeuralNetwork|
dg304|COMPLETED|scavenger|2023-05-31T10:50:59|2023-06-01T11:38:05|1-00:47:06|dcc-fergusonlab-01|1|24|384G||/hpc/group/bio1/diego/lmicrobiome/scripts|
tda17|COMPLETED|scavenger|2023-05-31T10:51:02|2023-06-03T03:40:55|2-16:49:53|dcc-fergusonlab-01|1|16|256G||/work/tda17/hicar_analysis_probeenriched_cutadapt/krab|
bl242|CANCELLED by 1390691|scavenger|2023-05-31T10:49:23|2023-06-01T15:36:56|1-04:47:33|dcc-herringlab-01,dcc-hulab-[01-04]|5|250|1000G||/hpc/home/bl242|
idm7|COMPLETED|scavenger|2023-05-31T18:02:10|2023-06-01T07:39:18|13:37:08|dcc-fergusonlab-01|1|8|15G||/hpc/group/bio1/ian/eurotiomycetes/phylo_scripts/logs|
idm7|COMPLETED|scavenger|2023-06-01T01:02:22|2023-06-01T06:00:16|04:57:54|dcc-dailabs-05|1|8|15G||/hpc/group/bio1/ian/eurotiomycetes/phylo_scripts/logs|
idm7|COMPLETED|scavenger|2023-06-01T01:02:44|2023-06-01T07:10:30|06:07:46|dcc-dailabs-04|1|8|15G||/hpc/group/bio1/ian/eurotiomycetes/phylo_scripts/logs|
idm7|COMPLETED|scavenger|2023-06-01T01:16:36|2023-06-01T06:39:14|05:22:38|dcc-donglab-01|1|8|15G||/hpc/group/bio1/ian/eurotiomycetes/phylo_scripts/logs|
idm7|COMPLETED|scavenger|2023-06-01T01:37:47|2023-06-01T05:21:34|03:43:47|dcc-chg-05|1|8|15G||/hpc/group/bio1/ian/eurotiomycetes/phylo_scripts/logs|
idm7|COMPLETED|scavenger|2023-06-01T01:41:51|2023-06-01T12:10:02|10:28:11|dcc-adrc-01|1|8|15G||/hpc/group/bio1/ian/eurotiomycetes/phylo_scripts/logs|
idm7|COMPLETED|scavenger|2023-06-01T02:06:03|2023-06-01T05:17:43|03:11:40|dcc-adrc-01|1|8|15G||/hpc/group/bio1/ian/eurotiomycetes/phylo_scripts/logs|
dab118|CANCELLED by 1214037|scavenger|2023-05-31T11:36:27|2023-06-01T14:00:44|1-02:24:17|dcc-bragg-01|1|16|10G||/hpc/home/dab118/ondemand/data/sys/dashboard/batch_connect/sys/bc_rstudio_singularity/output/a2352682-e7e9-4778-8535-1c52a5bebdc0|
pz19|CANCELLED by 1050403|scavenger|2023-05-31T12:32:00|2023-06-07T20:16:05|7-07:44:05|dcc-mainsahlab-01|1|16|25408M||/work/pz19/Wang/Copper/Silicon/TS_06_3Lig/M06L|
jdw91|COMPLETED|scavenger|2023-05-31T12:52:07|2023-06-01T05:19:44|16:27:37|dcc-gcb-12|1|1|2000M||/hpc/home/jdw91/Work/RLRDS/Final_Graph_Models/Graph_Results_Final|
jdw91|COMPLETED|scavenger|2023-05-31T12:52:07|2023-06-01T08:11:39|19:19:32|dcc-gcb-12|1|1|2000M||/hpc/home/jdw91/Work/RLRDS/Final_Graph_Models/Graph_Results_Final|
jdw91|COMPLETED|scavenger|2023-05-31T12:52:07|2023-06-01T06:19:25|17:27:18|dcc-gcb-12|1|1|2000M||/hpc/home/jdw91/Work/RLRDS/Final_Graph_Models/Graph_Results_Final|
jdw91|COMPLETED|scavenger|2023-05-31T12:52:08|2023-06-01T07:34:31|18:42:23|dcc-gcb-11|1|1|2000M||/hpc/home/jdw91/Work/RLRDS/Final_Graph_Models/Graph_Results_Final|
jdw91|COMPLETED|scavenger|2023-05-31T12:52:11|2023-06-01T06:41:22|17:49:11|dcc-gcb-11|1|1|2000M||/hpc/home/jdw91/Work/RLRDS/Final_Graph_Models/Graph_Results_Final|
jdw91|COMPLETED|scavenger|2023-05-31T12:52:11|2023-06-01T05:40:39|16:48:28|dcc-gcb-11|1|1|2000M||/hpc/home/jdw91/Work/RLRDS/Final_Graph_Models/Graph_Results_Final|
jdw91|COMPLETED|scavenger|2023-05-31T12:52:11|2023-06-01T07:06:23|18:14:12|dcc-gcb-10|1|1|2000M||/hpc/home/jdw91/Work/RLRDS/Final_Graph_Models/Graph_Results_Final|
jdw91|COMPLETED|scavenger|2023-05-31T12:52:12|2023-06-01T05:39:23|16:47:11|dcc-gcb-09|1|1|2000M||/hpc/home/jdw91/Work/RLRDS/Final_Graph_Models/Graph_Results_Final|
jdw91|COMPLETED|scavenger|2023-05-31T12:52:19|2023-06-01T06:32:32|17:40:13|dcc-gcb-10|1|1|2000M||/hpc/home/jdw91/Work/RLRDS/Final_Graph_Models/Graph_Results_Final|
jdw91|COMPLETED|scavenger|2023-05-31T12:52:19|2023-06-01T06:20:38|17:28:19|dcc-gcb-01|1|1|2000M||/hpc/home/jdw91/Work/RLRDS/Final_Graph_Models/Graph_Results_Final|
jdw91|COMPLETED|scavenger|2023-05-31T12:52:20|2023-06-01T09:07:17|20:14:57|dcc-gcb-01|1|1|2000M||/hpc/home/jdw91/Work/RLRDS/Final_Graph_Models/Graph_Results_Final|
yw118|PREEMPTED|scavenger|2023-06-01T05:18:32|2023-06-01T07:53:33|02:35:01|dcc-tunglab-01|1|1|8G||/hpc/home/yw118/GraphNeuralNetwork|
yw118|COMPLETED|scavenger|2023-06-01T05:18:57|2023-06-01T20:05:05|14:46:08|dcc-statdept-01|1|1|8G||/hpc/home/yw118/GraphNeuralNetwork|
yw118|PREEMPTED|scavenger|2023-06-01T05:19:11|2023-06-01T07:53:36|02:34:25|dcc-tunglab-01|1|1|8G||/hpc/home/yw118/GraphNeuralNetwork|
ark19|COMPLETED|scavenger|2023-05-31T21:19:54|2023-06-01T05:19:46|07:59:52|dcc-tunglab-01|1|1|24000M||/cifs/hariri-long/Database/DBIS_P52/Imaging|
ark19|COMPLETED|scavenger|2023-05-31T21:20:00|2023-06-01T06:11:23|08:51:23|dcc-tunglab-01|1|1|24000M||/cifs/hariri-long/Database/DBIS_P52/Imaging|
ark19|COMPLETED|scavenger|2023-05-31T21:20:00|2023-06-01T05:54:56|08:34:56|dcc-tunglab-01|1|1|24000M||/cifs/hariri-long/Database/DBIS_P52/Imaging|
amd176|COMPLETED|scavenger|2023-05-31T14:24:45|2023-06-04T07:34:40|3-17:09:55|dcc-bragg-02|1|20|40G||/work/amd176/Symp/iqtree_runs-2023-05/symall-noclone-80p|
det12|CANCELLED by 1357470|scavenger|2023-05-31T15:56:30|2023-06-01T09:24:10|17:27:40|dcc-pbenfeylab-02|1|75|150G||/work/det12/genprojects/kalthoff|
jb621|COMPLETED|scavenger|2023-05-31T15:26:47|2023-06-01T11:39:51|20:13:04|dcc-pbenfeylab-01|1|4|400G||/work/jb621/MIPfastqs/fastqs|
yw118|COMPLETED|scavenger|2023-06-01T05:19:11|2023-06-01T16:20:01|11:00:50|dcc-statdept-01|1|1|8G||/hpc/home/yw118/GraphNeuralNetwork|
yw118|PREEMPTED|scavenger|2023-06-01T05:20:23|2023-06-01T07:53:36|02:33:13|dcc-tunglab-01|1|1|8G||/hpc/home/yw118/GraphNeuralNetwork|
yw118|PREEMPTED|scavenger|2023-06-01T05:22:24|2023-06-01T07:53:38|02:31:14|dcc-tunglab-01|1|1|8G||/hpc/home/yw118/GraphNeuralNetwork|
yw118|PREEMPTED|scavenger|2023-06-01T05:23:16|2023-06-01T07:53:38|02:30:22|dcc-tunglab-01|1|1|8G||/hpc/home/yw118/GraphNeuralNetwork|
ys379|RUNNING|scavenger|2023-05-31T16:19:08|Unknown|13-22:15:08|dcc-hashimilab-01|1|5|10G||/hpc/home/ys379/submit_jobs/all_atoms|
ew198|CANCELLED by 1455533|scavenger|2023-05-31T16:36:23|2023-06-02T11:18:52|1-18:42:29|dcc-statdept-01|1|1|16000M||/cifs/hariri-long/Projects/Annchen/Scripts/ArealMSHBM|
ew198|CANCELLED by 1455533|scavenger|2023-05-31T16:37:19|2023-06-02T11:18:52|1-18:41:33|dcc-statdept-01|1|1|16000M||/cifs/hariri-long/Projects/Annchen/Scripts/ArealMSHBM|
ew198|CANCELLED by 1455533|scavenger|2023-05-31T16:37:26|2023-06-02T11:18:52|1-18:41:26|dcc-statdept-01|1|1|16000M||/cifs/hariri-long/Projects/Annchen/Scripts/ArealMSHBM|
ew198|CANCELLED by 1455533|scavenger|2023-05-31T16:37:36|2023-06-02T11:18:52|1-18:41:16|dcc-statdept-01|1|1|16000M||/cifs/hariri-long/Projects/Annchen/Scripts/ArealMSHBM|
ew198|CANCELLED by 1455533|scavenger|2023-05-31T16:37:39|2023-06-02T11:18:52|1-18:41:13|dcc-statdept-01|1|1|16000M||/cifs/hariri-long/Projects/Annchen/Scripts/ArealMSHBM|
cjp47|RUNNING|scavenger|2023-05-31T16:37:53|Unknown|13-21:56:23|dcc-pbenfeylab-02|1|1|64G||/hpc/group/bio1/cyanolichen_holobiome|
xz195|CANCELLED by 1160658|scavenger|2023-05-31T16:37:56|2023-06-04T01:37:31|3-08:59:35|dcc-pbenfeylab-02|1|1|50G||/hpc/group/allenlab/scarlett/github/semi_empirical_simulator|
hw309|COMPLETED|scavenger|2023-05-31T16:38:11|2023-06-02T15:29:22|1-22:51:11|dcc-pbenfeylab-01|1|1|80G||/hpc/group/jilab/haowang/PCs_distance_analysis/GSE173351|
hw309|COMPLETED|scavenger|2023-05-31T16:38:23|2023-06-02T04:04:34|1-11:26:11|dcc-pbenfeylab-01|1|1|80G||/hpc/group/jilab/haowang/PCs_distance_analysis/GSE173351|
hw309|CANCELLED by 1495476|scavenger|2023-05-31T16:38:33|2023-06-03T18:41:12|3-02:02:39|dcc-pbenfeylab-01|1|1|80G||/hpc/group/jilab/haowang/PCs_distance_analysis/GSE173351|
hw309|CANCELLED by 1495476|scavenger|2023-05-31T17:13:15|2023-06-03T18:41:12|3-01:27:57|dcc-velmeshevlab-01|1|1|80G||/hpc/group/jilab/haowang/PCs_distance_analysis/GSE173351|
hw309|COMPLETED|scavenger|2023-05-31T17:36:36|2023-06-01T08:23:37|14:47:01|dcc-velmeshevlab-01|1|1|80G||/hpc/group/jilab/haowang/PCs_distance_analysis/GSE173351|
hw309|COMPLETED|scavenger|2023-05-31T18:32:37|2023-06-02T21:10:39|2-02:38:02|dcc-velmeshevlab-01|1|1|80G||/hpc/group/jilab/haowang/PCs_distance_analysis/GSE173351|
yw118|PREEMPTED|scavenger|2023-06-01T05:25:46|2023-06-01T07:53:51|02:28:05|dcc-tunglab-02|1|1|8G||/hpc/home/yw118/GraphNeuralNetwork|
yl880|RUNNING|scavenger|2023-05-31T20:20:33|Unknown|13-18:13:43|dcc-fergusonlab-04|1|12|128G||/hpc/home/yl880/cb_surrogates|
pz19|CANCELLED by 1050403|scavenger|2023-05-31T20:59:14|2023-06-10T15:10:45|9-18:11:31|dcc-fergusonlab-03|1|16|27.50G||/work/pz19/Wang/Copper/Silicon/TS_06_3Lig/B3LYP|
yw118|COMPLETED|scavenger|2023-06-01T05:27:26|2023-06-01T19:44:11|14:16:45|dcc-statdept-01|1|1|8G||/hpc/home/yw118/GraphNeuralNetwork|
yw118|COMPLETED|scavenger|2023-06-01T05:32:53|2023-06-01T17:57:54|12:25:01|dcc-statdept-01|1|1|8G||/hpc/home/yw118/GraphNeuralNetwork|
yw118|PREEMPTED|scavenger|2023-06-01T05:34:31|2023-06-01T07:53:43|02:19:12|dcc-tunglab-01|1|1|8G||/hpc/home/yw118/GraphNeuralNetwork|
yw118|COMPLETED|scavenger|2023-06-01T05:34:33|2023-06-01T23:05:18|17:30:45|dcc-statdept-01|1|1|8G||/hpc/home/yw118/GraphNeuralNetwork|
yw118|COMPLETED|scavenger|2023-06-01T05:34:57|2023-06-01T14:58:13|09:23:16|dcc-statdept-01|1|1|8G||/hpc/home/yw118/GraphNeuralNetwork|
yw118|COMPLETED|scavenger|2023-06-01T05:45:18|2023-06-01T22:13:31|16:28:13|dcc-statdept-01|1|1|8G||/hpc/home/yw118/GraphNeuralNetwork|
yw118|COMPLETED|scavenger|2023-06-01T05:46:24|2023-06-01T15:35:44|09:49:20|dcc-statdept-01|1|1|8G||/hpc/home/yw118/GraphNeuralNetwork|
yw118|COMPLETED|scavenger|2023-06-01T05:47:59|2023-06-01T15:54:24|10:06:25|dcc-statdept-01|1|1|8G||/hpc/home/yw118/GraphNeuralNetwork|
yw118|COMPLETED|scavenger|2023-06-01T05:49:06|2023-06-01T19:08:57|13:19:51|dcc-statdept-01|1|1|8G||/hpc/home/yw118/GraphNeuralNetwork|
yw118|COMPLETED|scavenger|2023-06-01T05:50:00|2023-06-01T20:15:06|14:25:06|dcc-tmolab-01|1|1|8G||/hpc/home/yw118/GraphNeuralNetwork|
yw118|PREEMPTED|scavenger|2023-06-01T05:52:12|2023-06-01T07:53:41|02:01:29|dcc-tunglab-02|1|1|8G||/hpc/home/yw118/GraphNeuralNetwork|
yw118|COMPLETED|scavenger|2023-06-01T05:52:33|2023-06-01T17:35:47|11:43:14|dcc-statdept-01|1|1|8G||/hpc/home/yw118/GraphNeuralNetwork|
yw118|PREEMPTED|scavenger|2023-06-01T05:56:39|2023-06-01T07:53:43|01:57:04|dcc-tunglab-01|1|1|8G||/hpc/home/yw118/GraphNeuralNetwork|
yw118|PREEMPTED|scavenger|2023-06-01T05:57:49|2023-06-01T07:53:46|01:55:57|dcc-tunglab-01|1|1|8G||/hpc/home/yw118/GraphNeuralNetwork|
yw118|PREEMPTED|scavenger|2023-06-01T05:58:22|2023-06-01T07:53:46|01:55:24|dcc-tunglab-01|1|1|8G||/hpc/home/yw118/GraphNeuralNetwork|
yw118|PREEMPTED|scavenger|2023-06-01T06:01:57|2023-06-01T07:53:48|01:51:51|dcc-tunglab-01|1|1|8G||/hpc/home/yw118/GraphNeuralNetwork|
yw118|PREEMPTED|scavenger|2023-06-01T06:03:33|2023-06-01T07:53:51|01:50:18|dcc-tunglab-02|1|1|8G||/hpc/home/yw118/GraphNeuralNetwork|
yw118|COMPLETED|scavenger|2023-06-01T06:10:12|2023-06-02T05:23:20|23:13:08|dcc-wychem-01|1|1|8G||/hpc/home/yw118/GraphNeuralNetwork|
yw118|PREEMPTED|scavenger|2023-06-01T06:17:58|2023-06-01T07:53:53|01:35:55|dcc-tunglab-01|1|1|8G||/hpc/home/yw118/GraphNeuralNetwork|
yw118|PREEMPTED|scavenger|2023-06-01T06:20:51|2023-06-01T07:53:53|01:33:02|dcc-tunglab-01|1|1|8G||/hpc/home/yw118/GraphNeuralNetwork|
yw118|PREEMPTED|scavenger|2023-06-01T06:21:05|2023-06-01T07:56:02|01:34:57|dcc-tunglab-01|1|1|8G||/hpc/home/yw118/GraphNeuralNetwork|
yw118|COMPLETED|scavenger|2023-06-01T06:23:10|2023-06-01T15:52:28|09:29:18|dcc-statdept-01|1|1|8G||/hpc/home/yw118/GraphNeuralNetwork|
yw118|PREEMPTED|scavenger|2023-06-01T06:24:22|2023-06-01T07:53:56|01:29:34|dcc-tunglab-02|1|1|8G||/hpc/home/yw118/GraphNeuralNetwork|
yw118|COMPLETED|scavenger|2023-06-01T06:24:37|2023-06-01T14:10:34|07:45:57|dcc-statdept-01|1|1|8G||/hpc/home/yw118/GraphNeuralNetwork|
yw118|COMPLETED|scavenger|2023-06-01T06:26:10|2023-06-01T11:22:32|04:56:22|dcc-tmolab-01|1|1|8G||/hpc/home/yw118/GraphNeuralNetwork|
yw118|COMPLETED|scavenger|2023-06-01T06:28:01|2023-06-01T19:46:06|13:18:05|dcc-velmeshevlab-01|1|1|8G||/hpc/home/yw118/GraphNeuralNetwork|
yw118|PREEMPTED|scavenger|2023-06-01T06:29:50|2023-06-01T07:53:56|01:24:06|dcc-tunglab-02|1|1|8G||/hpc/home/yw118/GraphNeuralNetwork|
yw118|COMPLETED|scavenger|2023-06-01T06:30:38|2023-06-01T15:07:51|08:37:13|dcc-statdept-01|1|1|8G||/hpc/home/yw118/GraphNeuralNetwork|
yw118|COMPLETED|scavenger|2023-06-01T06:30:52|2023-06-01T15:22:05|08:51:13|dcc-statdept-01|1|1|8G||/hpc/home/yw118/GraphNeuralNetwork|
yw118|COMPLETED|scavenger|2023-06-01T06:32:21|2023-06-01T16:24:30|09:52:09|dcc-statdept-01|1|1|8G||/hpc/home/yw118/GraphNeuralNetwork|
yw118|COMPLETED|scavenger|2023-06-01T06:39:16|2023-06-01T11:07:17|04:28:01|dcc-statdept-01|1|1|8G||/hpc/home/yw118/GraphNeuralNetwork|
jdw91|COMPLETED|scavenger|2023-05-31T21:28:58|2023-06-01T07:03:48|09:34:50|dcc-gcb-02|1|50|100000M||/hpc/home/jdw91/Work/RLRDS/Beta_Star_Experiments|
sw582|COMPLETED|scavenger|2023-06-01T00:18:17|2023-06-01T05:11:37|04:53:20|dcc-statdept-01|1|1|2G||/hpc/group/dbergerlab/sw582/grid|
sw582|COMPLETED|scavenger|2023-06-01T00:18:17|2023-06-01T05:07:42|04:49:25|dcc-statdept-01|1|1|2G||/hpc/group/dbergerlab/sw582/grid|
sw582|COMPLETED|scavenger|2023-06-01T00:18:17|2023-06-01T05:09:14|04:50:57|dcc-statdept-01|1|1|2G||/hpc/group/dbergerlab/sw582/grid|
hw309|PREEMPTED|scavenger|2023-06-01T01:53:27|2023-06-01T07:58:02|06:04:35|dcc-tunglab-01|1|1|80G||/hpc/group/jilab/haowang/PCs_distance_analysis/GSE145370|
hw309|COMPLETED|scavenger|2023-06-01T03:04:09|2023-06-01T12:25:21|09:21:12|dcc-rausherlab-02|1|1|80G||/hpc/group/jilab/haowang/PCs_distance_analysis/GSE145370|
hw309|COMPLETED|scavenger|2023-06-01T03:28:19|2023-06-01T11:44:47|08:16:28|dcc-rausherlab-02|1|1|80G||/hpc/group/jilab/haowang/PCs_distance_analysis/GSE145370|
hw309|COMPLETED|scavenger|2023-06-01T04:09:57|2023-06-01T06:59:38|02:49:41|dcc-youlab-01|1|1|80G||/hpc/group/jilab/haowang/PCs_distance_analysis/GSE145370|
jdw91|COMPLETED|scavenger|2023-06-01T02:31:12|2023-06-01T09:00:42|06:29:30|dcc-gcb-01|1|50|100000M||/hpc/home/jdw91/Work/RLRDS/Beta_Star_Experiments|
jwb74|COMPLETED|scavenger|2023-06-01T05:35:48|2023-06-01T15:55:41|10:19:53|dcc-delairelab-01|1|32|128G||/hpc/home/jwb74/sop_project/code_new/computation|
