pz19|COMPLETED|scavenger|2023-05-10T09:53:22|2023-05-22T13:35:04|12-03:41:42|dcc-adrc-01|1|16|32000M||/work/pz19/Dexter|
pz19|COMPLETED|scavenger|2023-05-15T23:21:42|2023-05-30T14:18:14|14-14:56:32|dcc-fergusonlab-01|1|16|32000M||/work/pz19/Dexter|
jz316|COMPLETED|scavenger|2023-05-17T10:58:19|2023-05-22T04:41:57|4-17:43:38|dcc-carin-25|1|10|31G||/work/jz316/fenhc-pdi/tpssh|
jz316|COMPLETED|scavenger|2023-05-17T10:59:23|2023-05-23T13:56:56|6-02:57:33|dcc-dunsonlab-02|1|10|31G||/work/jz316/fenhc-pdi/mn15l|
ew198|COMPLETED|scavenger|2023-05-17T15:01:57|2023-05-30T13:18:19|12-22:16:22|dcc-youlab-01|1|1|125G||/cifs/hariri-long/Projects/Annchen/Scripts/ArealMSHBM|
ew198|COMPLETED|scavenger|2023-05-17T15:01:57|2023-05-30T13:18:47|12-22:16:50|dcc-wychem-01|1|1|16000M||/cifs/hariri-long/Projects/Annchen/Scripts/ArealMSHBM|
ew198|COMPLETED|scavenger|2023-05-17T15:01:57|2023-05-30T13:18:47|12-22:16:50|dcc-wychem-01|1|1|16000M||/cifs/hariri-long/Projects/Annchen/Scripts/ArealMSHBM|
ew198|COMPLETED|scavenger|2023-05-17T15:01:57|2023-05-30T13:18:47|12-22:16:50|dcc-wychem-01|1|1|16000M||/cifs/hariri-long/Projects/Annchen/Scripts/ArealMSHBM|
ew198|COMPLETED|scavenger|2023-05-17T15:01:57|2023-05-30T13:18:47|12-22:16:50|dcc-wychem-01|1|1|16000M||/cifs/hariri-long/Projects/Annchen/Scripts/ArealMSHBM|
ew198|COMPLETED|scavenger|2023-05-17T15:01:57|2023-05-30T13:18:47|12-22:16:50|dcc-wychem-01|1|1|16000M||/cifs/hariri-long/Projects/Annchen/Scripts/ArealMSHBM|
ew198|COMPLETED|scavenger|2023-05-17T15:01:57|2023-05-30T13:18:47|12-22:16:50|dcc-wychem-01|1|1|16000M||/cifs/hariri-long/Projects/Annchen/Scripts/ArealMSHBM|
ew198|COMPLETED|scavenger|2023-05-17T15:01:57|2023-05-30T13:18:47|12-22:16:50|dcc-wychem-01|1|1|16000M||/cifs/hariri-long/Projects/Annchen/Scripts/ArealMSHBM|
ew198|COMPLETED|scavenger|2023-05-17T15:01:57|2023-05-30T13:18:47|12-22:16:50|dcc-wychem-01|1|1|16000M||/cifs/hariri-long/Projects/Annchen/Scripts/ArealMSHBM|
ew198|COMPLETED|scavenger|2023-05-17T15:01:57|2023-05-30T13:18:47|12-22:16:50|dcc-wychem-01|1|1|16000M||/cifs/hariri-long/Projects/Annchen/Scripts/ArealMSHBM|
ew198|COMPLETED|scavenger|2023-05-17T15:01:58|2023-05-30T13:18:33|12-22:16:35|dcc-tunglab-01|1|1|16000M||/cifs/hariri-long/Projects/Annchen/Scripts/ArealMSHBM|
ew198|COMPLETED|scavenger|2023-05-17T15:01:58|2023-05-30T13:18:33|12-22:16:35|dcc-tunglab-01|1|1|16000M||/cifs/hariri-long/Projects/Annchen/Scripts/ArealMSHBM|
ew198|COMPLETED|scavenger|2023-05-17T15:01:58|2023-05-30T13:18:33|12-22:16:35|dcc-tunglab-01|1|1|16000M||/cifs/hariri-long/Projects/Annchen/Scripts/ArealMSHBM|
ew198|COMPLETED|scavenger|2023-05-17T15:01:58|2023-05-30T13:18:33|12-22:16:35|dcc-tunglab-01|1|1|16000M||/cifs/hariri-long/Projects/Annchen/Scripts/ArealMSHBM|
ew198|COMPLETED|scavenger|2023-05-17T15:01:59|2023-05-30T13:18:33|12-22:16:34|dcc-tunglab-01|1|1|16000M||/cifs/hariri-long/Projects/Annchen/Scripts/ArealMSHBM|
ew198|COMPLETED|scavenger|2023-05-17T15:01:59|2023-05-30T13:18:47|12-22:16:48|dcc-tmolab-02|1|1|16000M||/cifs/hariri-long/Projects/Annchen/Scripts/ArealMSHBM|
ew198|COMPLETED|scavenger|2023-05-17T15:01:59|2023-05-30T13:18:47|12-22:16:48|dcc-tmolab-02|1|1|16000M||/cifs/hariri-long/Projects/Annchen/Scripts/ArealMSHBM|
ew198|COMPLETED|scavenger|2023-05-17T15:01:59|2023-05-30T13:18:47|12-22:16:48|dcc-tmolab-02|1|1|16000M||/cifs/hariri-long/Projects/Annchen/Scripts/ArealMSHBM|
ew198|COMPLETED|scavenger|2023-05-17T15:01:59|2023-05-30T13:18:47|12-22:16:48|dcc-tmolab-02|1|1|16000M||/cifs/hariri-long/Projects/Annchen/Scripts/ArealMSHBM|
ew198|COMPLETED|scavenger|2023-05-17T15:01:59|2023-05-30T13:18:44|12-22:16:45|dcc-tmolab-01|1|1|16000M||/cifs/hariri-long/Projects/Annchen/Scripts/ArealMSHBM|
ew198|COMPLETED|scavenger|2023-05-17T15:01:59|2023-05-30T13:18:44|12-22:16:45|dcc-tmolab-01|1|1|16000M||/cifs/hariri-long/Projects/Annchen/Scripts/ArealMSHBM|
ew198|COMPLETED|scavenger|2023-05-17T15:01:59|2023-05-30T13:18:44|12-22:16:45|dcc-tmolab-01|1|1|16000M||/cifs/hariri-long/Projects/Annchen/Scripts/ArealMSHBM|
ew198|COMPLETED|scavenger|2023-05-17T15:02:00|2023-05-30T13:19:00|12-22:17:00|dcc-statdept-01|1|1|16000M||/cifs/hariri-long/Projects/Annchen/Scripts/ArealMSHBM|
ew198|COMPLETED|scavenger|2023-05-17T15:02:30|2023-05-30T13:19:00|12-22:16:30|dcc-statdept-01|1|1|16000M||/cifs/hariri-long/Projects/Annchen/Scripts/ArealMSHBM|
ew198|COMPLETED|scavenger|2023-05-17T15:02:30|2023-05-30T13:18:35|12-22:16:05|dcc-savageresearch-02|1|1|16000M||/cifs/hariri-long/Projects/Annchen/Scripts/ArealMSHBM|
ew198|COMPLETED|scavenger|2023-05-17T15:02:30|2023-05-30T13:18:35|12-22:16:05|dcc-savageresearch-02|1|1|16000M||/cifs/hariri-long/Projects/Annchen/Scripts/ArealMSHBM|
ew198|COMPLETED|scavenger|2023-05-17T15:02:30|2023-05-30T13:18:35|12-22:16:05|dcc-savageresearch-02|1|1|16000M||/cifs/hariri-long/Projects/Annchen/Scripts/ArealMSHBM|
ew198|COMPLETED|scavenger|2023-05-17T15:02:31|2023-05-30T13:18:35|12-22:16:04|dcc-savageresearch-02|1|1|16000M||/cifs/hariri-long/Projects/Annchen/Scripts/ArealMSHBM|
ew198|COMPLETED|scavenger|2023-05-17T15:02:31|2023-05-30T13:18:35|12-22:16:04|dcc-savageresearch-02|1|1|16000M||/cifs/hariri-long/Projects/Annchen/Scripts/ArealMSHBM|
ew198|COMPLETED|scavenger|2023-05-17T15:02:31|2023-05-30T13:18:35|12-22:16:04|dcc-savageresearch-02|1|1|16000M||/cifs/hariri-long/Projects/Annchen/Scripts/ArealMSHBM|
ew198|COMPLETED|scavenger|2023-05-17T15:02:31|2023-05-30T13:18:35|12-22:16:04|dcc-savageresearch-01|1|1|16000M||/cifs/hariri-long/Projects/Annchen/Scripts/ArealMSHBM|
ew198|COMPLETED|scavenger|2023-05-17T15:02:31|2023-05-30T13:18:35|12-22:16:04|dcc-savageresearch-01|1|1|16000M||/cifs/hariri-long/Projects/Annchen/Scripts/ArealMSHBM|
ew198|COMPLETED|scavenger|2023-05-17T15:02:31|2023-05-30T13:18:35|12-22:16:04|dcc-savageresearch-01|1|1|16000M||/cifs/hariri-long/Projects/Annchen/Scripts/ArealMSHBM|
ew198|COMPLETED|scavenger|2023-05-17T15:02:31|2023-05-30T13:18:52|12-22:16:21|dcc-rausherlab-02|1|1|16000M||/cifs/hariri-long/Projects/Annchen/Scripts/ArealMSHBM|
ew198|COMPLETED|scavenger|2023-05-17T15:02:31|2023-05-30T13:18:42|12-22:16:11|dcc-rausherlab-01|1|1|16000M||/cifs/hariri-long/Projects/Annchen/Scripts/ArealMSHBM|
ew198|COMPLETED|scavenger|2023-05-17T15:02:32|2023-05-30T13:18:42|12-22:16:10|dcc-rausherlab-01|1|1|16000M||/cifs/hariri-long/Projects/Annchen/Scripts/ArealMSHBM|
ew198|COMPLETED|scavenger|2023-05-17T15:02:32|2023-05-30T13:18:44|12-22:16:12|dcc-rausherlab-01|1|1|16000M||/cifs/hariri-long/Projects/Annchen/Scripts/ArealMSHBM|
ew198|COMPLETED|scavenger|2023-05-17T15:02:32|2023-05-30T13:18:44|12-22:16:12|dcc-rausherlab-01|1|1|16000M||/cifs/hariri-long/Projects/Annchen/Scripts/ArealMSHBM|
bp187|COMPLETED|scavenger|2023-05-21T05:57:25|2023-05-21T17:42:12|11:44:47|dcc-youlab-01|1|1|2000M||/hpc/home/bp187/proj/steane/build|
bp187|COMPLETED|scavenger|2023-05-21T09:28:37|2023-05-21T21:27:40|11:59:03|dcc-youlab-01|1|1|2000M||/hpc/home/bp187/proj/steane/build|
dg304|COMPLETED|scavenger|2023-05-19T09:38:38|2023-05-21T15:58:06|2-06:19:28|dcc-rausherlab-02|1|1|16G||/work/dg304/dala/sideprojects/fungal_genomes_tree|
dg304|COMPLETED|scavenger|2023-05-19T09:38:39|2023-05-22T01:31:19|2-15:52:40|dcc-rausherlab-02|1|1|16G||/work/dg304/dala/sideprojects/fungal_genomes_tree|
hk288|COMPLETED|scavenger|2023-05-19T14:05:01|2023-05-21T11:32:36|1-21:27:35|dcc-pbenfeylab-01|1|32|40G||/hpc/group/mastatlab/hk288/code_paired_ntaxa_bfam|
dg304|COMPLETED|scavenger|2023-05-22T08:30:17|2023-05-22T08:44:41|00:14:24|dcc-cagpm-01|1|16|256G||/work/dg304/dala/cyanolichen_holobiome|
dg304|COMPLETED|scavenger|2023-05-22T08:30:17|2023-05-22T08:41:20|00:11:03|dcc-delairelab-01|1|16|256G||/work/dg304/dala/cyanolichen_holobiome|
dg304|COMPLETED|scavenger|2023-05-22T08:30:17|2023-05-22T08:41:24|00:11:07|dcc-donglab-01|1|16|256G||/work/dg304/dala/cyanolichen_holobiome|
dg304|COMPLETED|scavenger|2023-05-22T08:30:17|2023-05-22T08:45:27|00:15:10|dcc-kirschlab-01|1|16|256G||/work/dg304/dala/cyanolichen_holobiome|
dg304|COMPLETED|scavenger|2023-05-22T08:30:17|2023-05-22T08:43:15|00:12:58|dcc-nsoe-it-01|1|16|256G||/work/dg304/dala/cyanolichen_holobiome|
dg304|COMPLETED|scavenger|2023-05-22T08:41:23|2023-05-22T08:47:34|00:06:11|dcc-delairelab-01|1|16|256G||/work/dg304/dala/cyanolichen_holobiome|
dg304|COMPLETED|scavenger|2023-05-22T08:41:27|2023-05-22T08:46:44|00:05:17|dcc-donglab-01|1|16|256G||/work/dg304/dala/cyanolichen_holobiome|
dg304|COMPLETED|scavenger|2023-05-22T08:43:20|2023-05-22T08:48:05|00:04:45|dcc-nsoe-it-01|1|16|256G||/work/dg304/dala/cyanolichen_holobiome|
dg304|COMPLETED|scavenger|2023-05-22T08:44:43|2023-05-22T08:56:06|00:11:23|dcc-cagpm-01|1|16|256G||/work/dg304/dala/cyanolichen_holobiome|
dg304|COMPLETED|scavenger|2023-05-22T08:45:27|2023-05-22T08:49:57|00:04:30|dcc-kirschlab-01|1|16|256G||/work/dg304/dala/cyanolichen_holobiome|
dg304|COMPLETED|scavenger|2023-05-22T08:46:47|2023-05-22T08:48:37|00:01:50|dcc-donglab-01|1|16|256G||/work/dg304/dala/cyanolichen_holobiome|
dg304|COMPLETED|scavenger|2023-05-22T08:47:36|2023-05-22T08:50:40|00:03:04|dcc-delairelab-01|1|16|256G||/work/dg304/dala/cyanolichen_holobiome|
jml165|COMPLETED|scavenger|2023-05-19T18:30:40|2023-05-21T14:08:23|1-19:37:43|dcc-noor-01|1|1|2000M||/hpc/home/jml165/rl/lawson-bandits|
jml165|COMPLETED|scavenger|2023-05-19T18:30:41|2023-05-21T07:28:29|1-12:57:48|dcc-noor-01|1|1|2000M||/hpc/home/jml165/rl/lawson-bandits|
jml165|COMPLETED|scavenger|2023-05-19T18:30:43|2023-05-21T09:47:44|1-15:17:01|dcc-noor-01|1|1|2000M||/hpc/home/jml165/rl/lawson-bandits|
jml165|COMPLETED|scavenger|2023-05-19T18:30:43|2023-05-21T11:40:17|1-17:09:34|dcc-noor-01|1|1|2000M||/hpc/home/jml165/rl/lawson-bandits|
jml165|COMPLETED|scavenger|2023-05-19T18:31:22|2023-05-21T07:00:21|1-12:28:59|dcc-wychem-01|1|1|2000M||/hpc/home/jml165/rl/lawson-bandits|
jml165|COMPLETED|scavenger|2023-05-19T18:31:22|2023-05-21T10:16:08|1-15:44:46|dcc-wychem-01|1|1|2000M||/hpc/home/jml165/rl/lawson-bandits|
jml165|COMPLETED|scavenger|2023-05-19T18:32:01|2023-05-21T11:28:01|1-16:56:00|dcc-pbenfeylab-01|1|1|2000M||/hpc/home/jml165/rl/lawson-bandits|
jml165|COMPLETED|scavenger|2023-05-19T18:32:01|2023-05-21T11:42:29|1-17:10:28|dcc-pbenfeylab-01|1|1|2000M||/hpc/home/jml165/rl/lawson-bandits|
jml165|COMPLETED|scavenger|2023-05-19T18:32:01|2023-05-21T11:15:58|1-16:43:57|dcc-pbenfeylab-01|1|1|2000M||/hpc/home/jml165/rl/lawson-bandits|
jml165|COMPLETED|scavenger|2023-05-19T18:32:02|2023-05-21T10:01:08|1-15:29:06|dcc-pbenfeylab-01|1|1|2000M||/hpc/home/jml165/rl/lawson-bandits|
jml165|COMPLETED|scavenger|2023-05-19T18:32:02|2023-05-21T09:31:24|1-14:59:22|dcc-pbenfeylab-01|1|1|2000M||/hpc/home/jml165/rl/lawson-bandits|
jml165|COMPLETED|scavenger|2023-05-19T18:32:02|2023-05-21T23:26:30|2-04:54:28|dcc-pbenfeylab-01|1|1|2000M||/hpc/home/jml165/rl/lawson-bandits|
jml165|COMPLETED|scavenger|2023-05-19T18:32:39|2023-05-21T08:12:52|1-13:40:13|dcc-pbenfeylab-01|1|1|2000M||/hpc/home/jml165/rl/lawson-bandits|
jml165|COMPLETED|scavenger|2023-05-19T18:32:40|2023-05-21T12:38:19|1-18:05:39|dcc-pbenfeylab-01|1|1|2000M||/hpc/home/jml165/rl/lawson-bandits|
jml165|COMPLETED|scavenger|2023-05-19T18:33:19|2023-05-21T12:44:03|1-18:10:44|dcc-noor-02|1|1|2000M||/hpc/home/jml165/rl/lawson-bandits|
jml165|COMPLETED|scavenger|2023-05-19T18:33:19|2023-05-21T10:19:13|1-15:45:54|dcc-noor-02|1|1|2000M||/hpc/home/jml165/rl/lawson-bandits|
jml165|COMPLETED|scavenger|2023-05-19T18:33:19|2023-05-21T15:24:44|1-20:51:25|dcc-noor-02|1|1|2000M||/hpc/home/jml165/rl/lawson-bandits|
jml165|COMPLETED|scavenger|2023-05-19T18:33:20|2023-05-21T09:39:09|1-15:05:49|dcc-noor-02|1|1|2000M||/hpc/home/jml165/rl/lawson-bandits|
jml165|COMPLETED|scavenger|2023-05-19T18:33:20|2023-05-21T14:33:05|1-19:59:45|dcc-noor-02|1|1|2000M||/hpc/home/jml165/rl/lawson-bandits|
jml165|COMPLETED|scavenger|2023-05-19T18:33:20|2023-05-21T09:46:24|1-15:13:04|dcc-noor-02|1|1|2000M||/hpc/home/jml165/rl/lawson-bandits|
jml165|COMPLETED|scavenger|2023-05-19T18:33:21|2023-05-21T07:41:33|1-13:08:12|dcc-noor-02|1|1|2000M||/hpc/home/jml165/rl/lawson-bandits|
jml165|COMPLETED|scavenger|2023-05-19T18:33:21|2023-05-21T07:20:10|1-12:46:49|dcc-noor-02|1|1|2000M||/hpc/home/jml165/rl/lawson-bandits|
jml165|COMPLETED|scavenger|2023-05-19T18:33:21|2023-05-21T07:50:03|1-13:16:42|dcc-noor-02|1|1|2000M||/hpc/home/jml165/rl/lawson-bandits|
jml165|COMPLETED|scavenger|2023-05-19T18:33:21|2023-05-21T14:27:37|1-19:54:16|dcc-noor-02|1|1|2000M||/hpc/home/jml165/rl/lawson-bandits|
jml165|COMPLETED|scavenger|2023-05-19T18:33:59|2023-05-21T08:02:58|1-13:28:59|dcc-mainsahlab-01|1|1|2000M||/hpc/home/jml165/rl/lawson-bandits|
jml165|COMPLETED|scavenger|2023-05-19T18:34:00|2023-05-21T07:57:47|1-13:23:47|dcc-mainsahlab-01|1|1|2000M||/hpc/home/jml165/rl/lawson-bandits|
jml165|COMPLETED|scavenger|2023-05-19T18:34:36|2023-05-21T08:25:11|1-13:50:35|dcc-hulab-05|1|1|2000M||/hpc/home/jml165/rl/lawson-bandits|
jml165|COMPLETED|scavenger|2023-05-19T18:34:38|2023-05-21T13:27:44|1-18:53:06|dcc-hulab-05|1|1|2000M||/hpc/home/jml165/rl/lawson-bandits|
jml165|COMPLETED|scavenger|2023-05-19T18:34:38|2023-05-21T16:29:40|1-21:55:02|dcc-hulab-05|1|1|2000M||/hpc/home/jml165/rl/lawson-bandits|
jml165|COMPLETED|scavenger|2023-05-19T18:34:38|2023-05-21T08:48:21|1-14:13:43|dcc-hulab-05|1|1|2000M||/hpc/home/jml165/rl/lawson-bandits|
jml165|COMPLETED|scavenger|2023-05-19T18:34:38|2023-05-21T10:26:56|1-15:52:18|dcc-hulab-05|1|1|2000M||/hpc/home/jml165/rl/lawson-bandits|
jml165|COMPLETED|scavenger|2023-05-19T18:34:38|2023-05-21T22:09:20|2-03:34:42|dcc-hulab-05|1|1|2000M||/hpc/home/jml165/rl/lawson-bandits|
jml165|COMPLETED|scavenger|2023-05-19T18:34:38|2023-05-21T08:01:37|1-13:26:59|dcc-hulab-05|1|1|2000M||/hpc/home/jml165/rl/lawson-bandits|
jml165|COMPLETED|scavenger|2023-05-19T18:34:38|2023-05-21T09:31:20|1-14:56:42|dcc-hulab-05|1|1|2000M||/hpc/home/jml165/rl/lawson-bandits|
jml165|COMPLETED|scavenger|2023-05-19T18:34:38|2023-05-21T07:37:19|1-13:02:41|dcc-hulab-05|1|1|2000M||/hpc/home/jml165/rl/lawson-bandits|
jml165|COMPLETED|scavenger|2023-05-19T18:34:39|2023-05-21T16:58:24|1-22:23:45|dcc-hulab-05|1|1|2000M||/hpc/home/jml165/rl/lawson-bandits|
jml165|COMPLETED|scavenger|2023-05-19T18:35:15|2023-05-21T08:39:04|1-14:03:49|dcc-hulab-05|1|1|2000M||/hpc/home/jml165/rl/lawson-bandits|
jml165|COMPLETED|scavenger|2023-05-19T18:35:15|2023-05-21T15:06:30|1-20:31:15|dcc-hulab-05|1|1|2000M||/hpc/home/jml165/rl/lawson-bandits|
jml165|COMPLETED|scavenger|2023-05-19T18:35:16|2023-05-21T13:29:50|1-18:54:34|dcc-hulab-05|1|1|2000M||/hpc/home/jml165/rl/lawson-bandits|
jml165|COMPLETED|scavenger|2023-05-19T18:35:17|2023-05-21T11:18:30|1-16:43:13|dcc-hulab-05|1|1|2000M||/hpc/home/jml165/rl/lawson-bandits|
jml165|COMPLETED|scavenger|2023-05-19T18:35:17|2023-05-21T10:15:13|1-15:39:56|dcc-hulab-05|1|1|2000M||/hpc/home/jml165/rl/lawson-bandits|
jml165|COMPLETED|scavenger|2023-05-19T18:35:17|2023-05-21T09:07:40|1-14:32:23|dcc-hulab-05|1|1|2000M||/hpc/home/jml165/rl/lawson-bandits|
jml165|COMPLETED|scavenger|2023-05-19T18:35:17|2023-05-21T07:59:24|1-13:24:07|dcc-hulab-05|1|1|2000M||/hpc/home/jml165/rl/lawson-bandits|
jml165|COMPLETED|scavenger|2023-05-19T18:35:17|2023-05-21T10:30:43|1-15:55:26|dcc-hulab-05|1|1|2000M||/hpc/home/jml165/rl/lawson-bandits|
jml165|COMPLETED|scavenger|2023-05-19T18:35:18|2023-05-21T12:13:08|1-17:37:50|dcc-hulab-05|1|1|2000M||/hpc/home/jml165/rl/lawson-bandits|
jml165|COMPLETED|scavenger|2023-05-19T18:35:18|2023-05-21T14:53:29|1-20:18:11|dcc-hulab-05|1|1|2000M||/hpc/home/jml165/rl/lawson-bandits|
jml165|COMPLETED|scavenger|2023-05-19T18:35:18|2023-05-21T15:10:26|1-20:35:08|dcc-hulab-05|1|1|2000M||/hpc/home/jml165/rl/lawson-bandits|
jml165|COMPLETED|scavenger|2023-05-19T18:35:18|2023-05-21T11:18:05|1-16:42:47|dcc-hulab-05|1|1|2000M||/hpc/home/jml165/rl/lawson-bandits|
jml165|COMPLETED|scavenger|2023-05-19T18:35:19|2023-05-21T15:41:23|1-21:06:04|dcc-hulab-05|1|1|2000M||/hpc/home/jml165/rl/lawson-bandits|
jml165|COMPLETED|scavenger|2023-05-19T18:35:19|2023-05-21T14:33:13|1-19:57:54|dcc-hulab-05|1|1|2000M||/hpc/home/jml165/rl/lawson-bandits|
jml165|COMPLETED|scavenger|2023-05-19T18:35:19|2023-05-21T07:38:50|1-13:03:31|dcc-hulab-05|1|1|2000M||/hpc/home/jml165/rl/lawson-bandits|
jml165|COMPLETED|scavenger|2023-05-19T18:35:19|2023-05-21T09:24:41|1-14:49:22|dcc-hulab-05|1|1|2000M||/hpc/home/jml165/rl/lawson-bandits|
jml165|COMPLETED|scavenger|2023-05-19T18:35:19|2023-05-21T07:16:44|1-12:41:25|dcc-hulab-05|1|1|2000M||/hpc/home/jml165/rl/lawson-bandits|
jml165|COMPLETED|scavenger|2023-05-19T18:35:20|2023-05-21T22:31:51|2-03:56:31|dcc-hulab-04|1|1|2000M||/hpc/home/jml165/rl/lawson-bandits|
jml165|COMPLETED|scavenger|2023-05-19T18:35:20|2023-05-21T12:21:09|1-17:45:49|dcc-hulab-04|1|1|2000M||/hpc/home/jml165/rl/lawson-bandits|
jml165|COMPLETED|scavenger|2023-05-19T18:35:20|2023-05-21T12:55:23|1-18:20:03|dcc-hulab-04|1|1|2000M||/hpc/home/jml165/rl/lawson-bandits|
jml165|COMPLETED|scavenger|2023-05-19T18:35:56|2023-05-21T07:54:53|1-13:18:57|dcc-hulab-04|1|1|2000M||/hpc/home/jml165/rl/lawson-bandits|
jml165|COMPLETED|scavenger|2023-05-19T18:35:56|2023-05-21T07:35:35|1-12:59:39|dcc-hulab-04|1|1|2000M||/hpc/home/jml165/rl/lawson-bandits|
jml165|COMPLETED|scavenger|2023-05-19T18:35:56|2023-05-21T07:04:56|1-12:29:00|dcc-hulab-04|1|1|2000M||/hpc/home/jml165/rl/lawson-bandits|
jml165|COMPLETED|scavenger|2023-05-19T18:35:56|2023-05-21T15:48:55|1-21:12:59|dcc-hulab-04|1|1|2000M||/hpc/home/jml165/rl/lawson-bandits|
jml165|COMPLETED|scavenger|2023-05-19T18:35:56|2023-05-21T09:44:45|1-15:08:49|dcc-hulab-04|1|1|2000M||/hpc/home/jml165/rl/lawson-bandits|
jml165|COMPLETED|scavenger|2023-05-19T18:35:56|2023-05-21T23:13:37|2-04:37:41|dcc-hulab-04|1|1|2000M||/hpc/home/jml165/rl/lawson-bandits|
jml165|COMPLETED|scavenger|2023-05-19T18:35:56|2023-05-21T11:24:13|1-16:48:17|dcc-hulab-04|1|1|2000M||/hpc/home/jml165/rl/lawson-bandits|
jml165|COMPLETED|scavenger|2023-05-19T18:35:56|2023-05-21T15:03:56|1-20:28:00|dcc-hulab-04|1|1|2000M||/hpc/home/jml165/rl/lawson-bandits|
jml165|COMPLETED|scavenger|2023-05-19T18:35:56|2023-05-21T18:47:42|2-00:11:46|dcc-hulab-04|1|1|2000M||/hpc/home/jml165/rl/lawson-bandits|
jml165|COMPLETED|scavenger|2023-05-19T18:35:56|2023-05-22T01:28:55|2-06:52:59|dcc-hulab-04|1|1|2000M||/hpc/home/jml165/rl/lawson-bandits|
jml165|COMPLETED|scavenger|2023-05-19T18:35:57|2023-05-22T00:06:47|2-05:30:50|dcc-hulab-04|1|1|2000M||/hpc/home/jml165/rl/lawson-bandits|
jml165|COMPLETED|scavenger|2023-05-19T18:35:57|2023-05-22T03:08:52|2-08:32:55|dcc-hulab-04|1|1|2000M||/hpc/home/jml165/rl/lawson-bandits|
jml165|COMPLETED|scavenger|2023-05-19T18:35:57|2023-05-21T11:10:12|1-16:34:15|dcc-hulab-04|1|1|2000M||/hpc/home/jml165/rl/lawson-bandits|
jml165|COMPLETED|scavenger|2023-05-19T18:35:57|2023-05-21T11:28:53|1-16:52:56|dcc-hulab-04|1|1|2000M||/hpc/home/jml165/rl/lawson-bandits|
jml165|COMPLETED|scavenger|2023-05-19T18:35:57|2023-05-21T07:27:51|1-12:51:54|dcc-hulab-04|1|1|2000M||/hpc/home/jml165/rl/lawson-bandits|
jml165|COMPLETED|scavenger|2023-05-19T18:35:57|2023-05-21T22:45:22|2-04:09:25|dcc-hulab-04|1|1|2000M||/hpc/home/jml165/rl/lawson-bandits|
jml165|COMPLETED|scavenger|2023-05-19T18:35:58|2023-05-21T19:06:40|2-00:30:42|dcc-hulab-04|1|1|2000M||/hpc/home/jml165/rl/lawson-bandits|
jml165|COMPLETED|scavenger|2023-05-19T18:35:58|2023-05-21T16:18:59|1-21:43:01|dcc-hulab-04|1|1|2000M||/hpc/home/jml165/rl/lawson-bandits|
jml165|COMPLETED|scavenger|2023-05-19T18:35:58|2023-05-21T23:09:06|2-04:33:08|dcc-hulab-04|1|1|2000M||/hpc/home/jml165/rl/lawson-bandits|
jml165|COMPLETED|scavenger|2023-05-19T18:35:58|2023-05-21T15:39:27|1-21:03:29|dcc-hulab-04|1|1|2000M||/hpc/home/jml165/rl/lawson-bandits|
jml165|COMPLETED|scavenger|2023-05-19T18:35:58|2023-05-21T08:29:52|1-13:53:54|dcc-hulab-04|1|1|2000M||/hpc/home/jml165/rl/lawson-bandits|
jml165|COMPLETED|scavenger|2023-05-19T18:35:58|2023-05-21T17:22:17|1-22:46:19|dcc-hulab-04|1|1|2000M||/hpc/home/jml165/rl/lawson-bandits|
jml165|COMPLETED|scavenger|2023-05-19T18:35:58|2023-05-21T12:00:32|1-17:24:34|dcc-hulab-04|1|1|2000M||/hpc/home/jml165/rl/lawson-bandits|
jml165|COMPLETED|scavenger|2023-05-19T18:35:59|2023-05-21T09:53:12|1-15:17:13|dcc-hulab-04|1|1|2000M||/hpc/home/jml165/rl/lawson-bandits|
jml165|COMPLETED|scavenger|2023-05-19T18:35:59|2023-05-21T16:33:58|1-21:57:59|dcc-hulab-04|1|1|2000M||/hpc/home/jml165/rl/lawson-bandits|
jml165|COMPLETED|scavenger|2023-05-19T18:36:37|2023-05-21T12:10:54|1-17:34:17|dcc-hulab-04|1|1|2000M||/hpc/home/jml165/rl/lawson-bandits|
jml165|COMPLETED|scavenger|2023-05-19T18:36:37|2023-05-21T12:02:52|1-17:26:15|dcc-hulab-04|1|1|2000M||/hpc/home/jml165/rl/lawson-bandits|
jml165|COMPLETED|scavenger|2023-05-19T18:36:37|2023-05-21T07:19:35|1-12:42:58|dcc-hulab-04|1|1|2000M||/hpc/home/jml165/rl/lawson-bandits|
jml165|COMPLETED|scavenger|2023-05-19T18:36:38|2023-05-21T15:35:03|1-20:58:25|dcc-hulab-04|1|1|2000M||/hpc/home/jml165/rl/lawson-bandits|
jml165|COMPLETED|scavenger|2023-05-19T18:36:38|2023-05-21T17:41:16|1-23:04:38|dcc-hulab-04|1|1|2000M||/hpc/home/jml165/rl/lawson-bandits|
jml165|COMPLETED|scavenger|2023-05-19T18:36:38|2023-05-21T09:09:48|1-14:33:10|dcc-hulab-04|1|1|2000M||/hpc/home/jml165/rl/lawson-bandits|
jml165|COMPLETED|scavenger|2023-05-19T18:36:38|2023-05-21T11:45:06|1-17:08:28|dcc-hulab-04|1|1|2000M||/hpc/home/jml165/rl/lawson-bandits|
jml165|COMPLETED|scavenger|2023-05-19T18:36:40|2023-05-21T08:20:39|1-13:43:59|dcc-hulab-03|1|1|2000M||/hpc/home/jml165/rl/lawson-bandits|
jml165|COMPLETED|scavenger|2023-05-19T18:37:20|2023-05-21T13:49:43|1-19:12:23|dcc-hulab-02|1|1|2000M||/hpc/home/jml165/rl/lawson-bandits|
jml165|COMPLETED|scavenger|2023-05-19T18:37:20|2023-05-21T07:58:29|1-13:21:09|dcc-hulab-02|1|1|2000M||/hpc/home/jml165/rl/lawson-bandits|
jml165|COMPLETED|scavenger|2023-05-19T18:37:21|2023-05-21T07:24:58|1-12:47:37|dcc-hulab-02|1|1|2000M||/hpc/home/jml165/rl/lawson-bandits|
jml165|COMPLETED|scavenger|2023-05-19T18:37:21|2023-05-21T08:54:41|1-14:17:20|dcc-hulab-02|1|1|2000M||/hpc/home/jml165/rl/lawson-bandits|
jml165|COMPLETED|scavenger|2023-05-19T18:37:57|2023-05-21T09:21:37|1-14:43:40|dcc-gcb-15|1|1|2000M||/hpc/home/jml165/rl/lawson-bandits|
jml165|COMPLETED|scavenger|2023-05-19T18:37:57|2023-05-21T17:31:36|1-22:53:39|dcc-gcb-15|1|1|2000M||/hpc/home/jml165/rl/lawson-bandits|
jml165|COMPLETED|scavenger|2023-05-19T18:37:57|2023-05-21T15:44:19|1-21:06:22|dcc-gcb-15|1|1|2000M||/hpc/home/jml165/rl/lawson-bandits|
jml165|COMPLETED|scavenger|2023-05-19T18:37:57|2023-05-21T18:35:08|1-23:57:11|dcc-gcb-15|1|1|2000M||/hpc/home/jml165/rl/lawson-bandits|
jml165|COMPLETED|scavenger|2023-05-19T18:37:57|2023-05-21T17:38:18|1-23:00:21|dcc-gcb-15|1|1|2000M||/hpc/home/jml165/rl/lawson-bandits|
jml165|COMPLETED|scavenger|2023-05-19T18:37:57|2023-05-21T12:55:00|1-18:17:03|dcc-gcb-15|1|1|2000M||/hpc/home/jml165/rl/lawson-bandits|
jml165|COMPLETED|scavenger|2023-05-19T18:37:57|2023-05-21T09:41:03|1-15:03:06|dcc-gcb-15|1|1|2000M||/hpc/home/jml165/rl/lawson-bandits|
jml165|COMPLETED|scavenger|2023-05-19T18:37:57|2023-05-21T21:10:45|2-02:32:48|dcc-gcb-15|1|1|2000M||/hpc/home/jml165/rl/lawson-bandits|
jml165|COMPLETED|scavenger|2023-05-19T18:37:58|2023-05-21T07:35:30|1-12:57:32|dcc-gcb-15|1|1|2000M||/hpc/home/jml165/rl/lawson-bandits|
jml165|COMPLETED|scavenger|2023-05-19T18:37:58|2023-05-21T08:49:14|1-14:11:16|dcc-gcb-15|1|1|2000M||/hpc/home/jml165/rl/lawson-bandits|
jml165|COMPLETED|scavenger|2023-05-19T18:37:58|2023-05-21T09:06:11|1-14:28:13|dcc-gcb-15|1|1|2000M||/hpc/home/jml165/rl/lawson-bandits|
jml165|COMPLETED|scavenger|2023-05-19T18:37:59|2023-05-21T08:38:20|1-14:00:21|dcc-gcb-15|1|1|2000M||/hpc/home/jml165/rl/lawson-bandits|
jml165|COMPLETED|scavenger|2023-05-19T18:37:59|2023-05-21T07:12:03|1-12:34:04|dcc-gcb-14|1|1|2000M||/hpc/home/jml165/rl/lawson-bandits|
jml165|COMPLETED|scavenger|2023-05-19T18:38:00|2023-05-21T07:52:01|1-13:14:01|dcc-gcb-14|1|1|2000M||/hpc/home/jml165/rl/lawson-bandits|
jml165|COMPLETED|scavenger|2023-05-19T18:38:00|2023-05-21T09:10:23|1-14:32:23|dcc-gcb-14|1|1|2000M||/hpc/home/jml165/rl/lawson-bandits|
jml165|COMPLETED|scavenger|2023-05-19T18:38:36|2023-05-21T13:05:03|1-18:26:27|dcc-gcb-14|1|1|2000M||/hpc/home/jml165/rl/lawson-bandits|
jml165|COMPLETED|scavenger|2023-05-19T18:38:36|2023-05-21T08:33:48|1-13:55:12|dcc-gcb-14|1|1|2000M||/hpc/home/jml165/rl/lawson-bandits|
jml165|COMPLETED|scavenger|2023-05-19T18:38:37|2023-05-21T14:49:34|1-20:10:57|dcc-gcb-14|1|1|2000M||/hpc/home/jml165/rl/lawson-bandits|
jml165|COMPLETED|scavenger|2023-05-19T18:38:37|2023-05-21T11:56:11|1-17:17:34|dcc-gcb-14|1|1|2000M||/hpc/home/jml165/rl/lawson-bandits|
jml165|COMPLETED|scavenger|2023-05-19T18:38:38|2023-05-21T08:08:13|1-13:29:35|dcc-gcb-14|1|1|2000M||/hpc/home/jml165/rl/lawson-bandits|
jml165|COMPLETED|scavenger|2023-05-19T18:38:38|2023-05-21T14:35:41|1-19:57:03|dcc-gcb-14|1|1|2000M||/hpc/home/jml165/rl/lawson-bandits|
jml165|COMPLETED|scavenger|2023-05-19T18:38:38|2023-05-21T11:55:28|1-17:16:50|dcc-gcb-13|1|1|2000M||/hpc/home/jml165/rl/lawson-bandits|
jml165|COMPLETED|scavenger|2023-05-19T18:38:38|2023-05-21T07:51:03|1-13:12:25|dcc-gcb-13|1|1|2000M||/hpc/home/jml165/rl/lawson-bandits|
jml165|COMPLETED|scavenger|2023-05-19T18:38:39|2023-05-21T09:53:26|1-15:14:47|dcc-gcb-13|1|1|2000M||/hpc/home/jml165/rl/lawson-bandits|
jml165|COMPLETED|scavenger|2023-05-19T18:38:39|2023-05-21T10:14:21|1-15:35:42|dcc-gcb-13|1|1|2000M||/hpc/home/jml165/rl/lawson-bandits|
jml165|COMPLETED|scavenger|2023-05-19T18:39:16|2023-05-21T09:10:38|1-14:31:22|dcc-gcb-13|1|1|2000M||/hpc/home/jml165/rl/lawson-bandits|
jml165|COMPLETED|scavenger|2023-05-19T18:39:16|2023-05-21T15:29:46|1-20:50:30|dcc-gcb-13|1|1|2000M||/hpc/home/jml165/rl/lawson-bandits|
jml165|COMPLETED|scavenger|2023-05-19T18:39:16|2023-05-21T13:15:53|1-18:36:37|dcc-gcb-13|1|1|2000M||/hpc/home/jml165/rl/lawson-bandits|
jml165|COMPLETED|scavenger|2023-05-19T18:39:17|2023-05-21T07:02:42|1-12:23:25|dcc-gcb-13|1|1|2000M||/hpc/home/jml165/rl/lawson-bandits|
jml165|COMPLETED|scavenger|2023-05-19T18:39:17|2023-05-21T13:33:21|1-18:54:04|dcc-gcb-13|1|1|2000M||/hpc/home/jml165/rl/lawson-bandits|
jml165|COMPLETED|scavenger|2023-05-19T18:39:17|2023-05-21T15:11:03|1-20:31:46|dcc-gcb-13|1|1|2000M||/hpc/home/jml165/rl/lawson-bandits|
jml165|COMPLETED|scavenger|2023-05-19T18:39:17|2023-05-21T12:00:01|1-17:20:44|dcc-gcb-12|1|1|2000M||/hpc/home/jml165/rl/lawson-bandits|
jml165|COMPLETED|scavenger|2023-05-19T18:39:19|2023-05-21T13:02:16|1-18:22:57|dcc-gcb-12|1|1|2000M||/hpc/home/jml165/rl/lawson-bandits|
jml165|COMPLETED|scavenger|2023-05-19T18:39:19|2023-05-21T18:31:02|1-23:51:43|dcc-gcb-12|1|1|2000M||/hpc/home/jml165/rl/lawson-bandits|
jml165|COMPLETED|scavenger|2023-05-19T18:39:19|2023-05-21T16:55:55|1-22:16:36|dcc-gcb-12|1|1|2000M||/hpc/home/jml165/rl/lawson-bandits|
jml165|COMPLETED|scavenger|2023-05-19T18:39:20|2023-05-21T13:39:23|1-19:00:03|dcc-gcb-12|1|1|2000M||/hpc/home/jml165/rl/lawson-bandits|
jml165|COMPLETED|scavenger|2023-05-19T18:39:20|2023-05-21T08:10:53|1-13:31:33|dcc-gcb-12|1|1|2000M||/hpc/home/jml165/rl/lawson-bandits|
jml165|COMPLETED|scavenger|2023-05-19T18:39:20|2023-05-21T16:11:31|1-21:32:11|dcc-gcb-12|1|1|2000M||/hpc/home/jml165/rl/lawson-bandits|
jml165|COMPLETED|scavenger|2023-05-19T18:39:20|2023-05-21T15:06:26|1-20:27:06|dcc-gcb-12|1|1|2000M||/hpc/home/jml165/rl/lawson-bandits|
jml165|COMPLETED|scavenger|2023-05-19T18:39:56|2023-05-21T10:31:40|1-15:51:44|dcc-gcb-11|1|1|2000M||/hpc/home/jml165/rl/lawson-bandits|
jml165|COMPLETED|scavenger|2023-05-19T18:39:56|2023-05-21T09:13:43|1-14:33:47|dcc-gcb-11|1|1|2000M||/hpc/home/jml165/rl/lawson-bandits|
jml165|COMPLETED|scavenger|2023-05-19T18:39:56|2023-05-21T08:58:58|1-14:19:02|dcc-gcb-11|1|1|2000M||/hpc/home/jml165/rl/lawson-bandits|
jml165|COMPLETED|scavenger|2023-05-19T18:39:56|2023-05-21T10:18:52|1-15:38:56|dcc-gcb-10|1|1|2000M||/hpc/home/jml165/rl/lawson-bandits|
jml165|COMPLETED|scavenger|2023-05-19T18:39:58|2023-05-21T07:43:14|1-13:03:16|dcc-gcb-10|1|1|2000M||/hpc/home/jml165/rl/lawson-bandits|
jml165|COMPLETED|scavenger|2023-05-19T18:39:58|2023-05-21T07:23:49|1-12:43:51|dcc-gcb-10|1|1|2000M||/hpc/home/jml165/rl/lawson-bandits|
jml165|COMPLETED|scavenger|2023-05-19T18:39:58|2023-05-21T09:12:28|1-14:32:30|dcc-gcb-10|1|1|2000M||/hpc/home/jml165/rl/lawson-bandits|
jml165|COMPLETED|scavenger|2023-05-19T18:39:58|2023-05-21T07:34:55|1-12:54:57|dcc-gcb-10|1|1|2000M||/hpc/home/jml165/rl/lawson-bandits|
jml165|COMPLETED|scavenger|2023-05-19T18:39:58|2023-05-21T13:27:09|1-18:47:11|dcc-gcb-10|1|1|2000M||/hpc/home/jml165/rl/lawson-bandits|
jml165|COMPLETED|scavenger|2023-05-19T18:39:59|2023-05-21T10:51:49|1-16:11:50|dcc-gcb-10|1|1|2000M||/hpc/home/jml165/rl/lawson-bandits|
jml165|COMPLETED|scavenger|2023-05-19T18:39:59|2023-05-21T07:48:50|1-13:08:51|dcc-gcb-10|1|1|2000M||/hpc/home/jml165/rl/lawson-bandits|
jml165|COMPLETED|scavenger|2023-05-19T18:39:59|2023-05-21T13:42:42|1-19:02:43|dcc-gcb-10|1|1|2000M||/hpc/home/jml165/rl/lawson-bandits|
jml165|COMPLETED|scavenger|2023-05-19T18:40:00|2023-05-21T16:39:47|1-21:59:47|dcc-gcb-10|1|1|2000M||/hpc/home/jml165/rl/lawson-bandits|
jml165|COMPLETED|scavenger|2023-05-19T18:40:38|2023-05-21T11:56:00|1-17:15:22|dcc-gcb-09|1|1|2000M||/hpc/home/jml165/rl/lawson-bandits|
jml165|COMPLETED|scavenger|2023-05-19T18:40:38|2023-05-21T07:39:10|1-12:58:32|dcc-gcb-09|1|1|2000M||/hpc/home/jml165/rl/lawson-bandits|
jml165|COMPLETED|scavenger|2023-05-19T18:40:38|2023-05-21T08:14:04|1-13:33:26|dcc-gcb-09|1|1|2000M||/hpc/home/jml165/rl/lawson-bandits|
jml165|COMPLETED|scavenger|2023-05-19T18:40:39|2023-05-21T07:16:00|1-12:35:21|dcc-gcb-09|1|1|2000M||/hpc/home/jml165/rl/lawson-bandits|
jml165|COMPLETED|scavenger|2023-05-19T18:40:39|2023-05-21T15:17:40|1-20:37:01|dcc-gcb-09|1|1|2000M||/hpc/home/jml165/rl/lawson-bandits|
jml165|COMPLETED|scavenger|2023-05-19T18:40:39|2023-05-21T07:56:36|1-13:15:57|dcc-gcb-09|1|1|2000M||/hpc/home/jml165/rl/lawson-bandits|
jml165|COMPLETED|scavenger|2023-05-19T18:40:39|2023-05-21T09:24:38|1-14:43:59|dcc-gcb-09|1|1|2000M||/hpc/home/jml165/rl/lawson-bandits|
jml165|COMPLETED|scavenger|2023-05-19T18:40:40|2023-05-21T08:02:14|1-13:21:34|dcc-gcb-09|1|1|2000M||/hpc/home/jml165/rl/lawson-bandits|
jml165|COMPLETED|scavenger|2023-05-19T18:40:40|2023-05-21T09:21:59|1-14:41:19|dcc-gcb-09|1|1|2000M||/hpc/home/jml165/rl/lawson-bandits|
jml165|COMPLETED|scavenger|2023-05-19T18:40:40|2023-05-21T10:51:45|1-16:11:05|dcc-gcb-09|1|1|2000M||/hpc/home/jml165/rl/lawson-bandits|
jml165|COMPLETED|scavenger|2023-05-19T18:40:40|2023-05-21T15:01:51|1-20:21:11|dcc-gcb-09|1|1|2000M||/hpc/home/jml165/rl/lawson-bandits|
jml165|COMPLETED|scavenger|2023-05-19T18:40:40|2023-05-21T18:05:30|1-23:24:50|dcc-gcb-09|1|1|2000M||/hpc/home/jml165/rl/lawson-bandits|
jml165|COMPLETED|scavenger|2023-05-19T18:40:40|2023-05-21T13:08:38|1-18:27:58|dcc-gcb-09|1|1|2000M||/hpc/home/jml165/rl/lawson-bandits|
jml165|COMPLETED|scavenger|2023-05-19T18:40:40|2023-05-21T10:47:10|1-16:06:30|dcc-gcb-09|1|1|2000M||/hpc/home/jml165/rl/lawson-bandits|
jml165|COMPLETED|scavenger|2023-05-19T18:40:42|2023-05-21T16:52:05|1-22:11:23|dcc-gcb-09|1|1|2000M||/hpc/home/jml165/rl/lawson-bandits|
jml165|COMPLETED|scavenger|2023-05-19T18:41:19|2023-05-21T10:22:06|1-15:40:47|dcc-gcb-08|1|1|2000M||/hpc/home/jml165/rl/lawson-bandits|
jml165|COMPLETED|scavenger|2023-05-19T18:41:19|2023-05-21T10:38:23|1-15:57:04|dcc-gcb-08|1|1|2000M||/hpc/home/jml165/rl/lawson-bandits|
jml165|COMPLETED|scavenger|2023-05-19T18:41:20|2023-05-21T09:15:37|1-14:34:17|dcc-gcb-08|1|1|2000M||/hpc/home/jml165/rl/lawson-bandits|
jml165|COMPLETED|scavenger|2023-05-19T18:41:20|2023-05-21T14:01:54|1-19:20:34|dcc-gcb-08|1|1|2000M||/hpc/home/jml165/rl/lawson-bandits|
jml165|COMPLETED|scavenger|2023-05-19T18:41:20|2023-05-21T14:05:14|1-19:23:54|dcc-gcb-08|1|1|2000M||/hpc/home/jml165/rl/lawson-bandits|
jml165|COMPLETED|scavenger|2023-05-19T18:41:20|2023-05-21T12:15:04|1-17:33:44|dcc-gcb-08|1|1|2000M||/hpc/home/jml165/rl/lawson-bandits|
jml165|COMPLETED|scavenger|2023-05-19T18:41:20|2023-05-21T12:08:42|1-17:27:22|dcc-gcb-08|1|1|2000M||/hpc/home/jml165/rl/lawson-bandits|
jml165|COMPLETED|scavenger|2023-05-19T18:41:20|2023-05-21T12:23:13|1-17:41:53|dcc-gcb-08|1|1|2000M||/hpc/home/jml165/rl/lawson-bandits|
jml165|COMPLETED|scavenger|2023-05-19T18:41:22|2023-05-21T09:30:05|1-14:48:43|dcc-gcb-08|1|1|2000M||/hpc/home/jml165/rl/lawson-bandits|
jml165|COMPLETED|scavenger|2023-05-19T18:41:22|2023-05-21T09:50:12|1-15:08:50|dcc-gcb-08|1|1|2000M||/hpc/home/jml165/rl/lawson-bandits|
yl708|COMPLETED|scavenger|2023-05-21T05:53:57|2023-05-21T07:03:50|01:09:53|dcc-youlab-01|1|1|2500M||/hpc/group/donald/yl708/TopologyNet-2017/perturbations|
yl708|COMPLETED|scavenger|2023-05-21T05:55:07|2023-05-21T07:04:52|01:09:45|dcc-youlab-01|1|1|2500M||/hpc/group/donald/yl708/TopologyNet-2017/perturbations|
yl708|COMPLETED|scavenger|2023-05-21T05:57:58|2023-05-21T07:08:14|01:10:16|dcc-youlab-01|1|1|2500M||/hpc/group/donald/yl708/TopologyNet-2017/perturbations|
yl708|COMPLETED|scavenger|2023-05-21T05:58:00|2023-05-21T07:06:18|01:08:18|dcc-youlab-01|1|1|2500M||/hpc/group/donald/yl708/TopologyNet-2017/perturbations|
yl708|COMPLETED|scavenger|2023-05-21T05:58:00|2023-05-21T07:06:00|01:08:00|dcc-youlab-01|1|1|2500M||/hpc/group/donald/yl708/TopologyNet-2017/perturbations|
yl708|COMPLETED|scavenger|2023-05-21T06:00:22|2023-05-21T07:08:03|01:07:41|dcc-youlab-01|1|1|2500M||/hpc/group/donald/yl708/TopologyNet-2017/perturbations|
yl708|COMPLETED|scavenger|2023-05-21T06:36:28|2023-05-21T07:44:58|01:08:30|dcc-youlab-01|1|1|2500M||/hpc/group/donald/yl708/TopologyNet-2017/perturbations|
yl708|COMPLETED|scavenger|2023-05-21T07:01:59|2023-05-21T08:11:27|01:09:28|dcc-youlab-01|1|1|2500M||/hpc/group/donald/yl708/TopologyNet-2017/perturbations|
yl708|COMPLETED|scavenger|2023-05-21T07:13:59|2023-05-21T08:24:09|01:10:10|dcc-youlab-01|1|1|2500M||/hpc/group/donald/yl708/TopologyNet-2017/perturbations|
yl708|COMPLETED|scavenger|2023-05-21T07:19:15|2023-05-21T08:29:40|01:10:25|dcc-youlab-01|1|1|2500M||/hpc/group/donald/yl708/TopologyNet-2017/perturbations|
yl708|COMPLETED|scavenger|2023-05-21T07:19:50|2023-05-21T08:30:38|01:10:48|dcc-youlab-01|1|1|2500M||/hpc/group/donald/yl708/TopologyNet-2017/perturbations|
yl708|COMPLETED|scavenger|2023-05-21T07:25:13|2023-05-21T08:36:00|01:10:47|dcc-youlab-01|1|1|2500M||/hpc/group/donald/yl708/TopologyNet-2017/perturbations|
yl708|COMPLETED|scavenger|2023-05-21T07:28:05|2023-05-21T08:39:03|01:10:58|dcc-youlab-01|1|1|2500M||/hpc/group/donald/yl708/TopologyNet-2017/perturbations|
yl708|COMPLETED|scavenger|2023-05-21T07:34:26|2023-05-21T08:45:00|01:10:34|dcc-youlab-01|1|1|2500M||/hpc/group/donald/yl708/TopologyNet-2017/perturbations|
yl708|COMPLETED|scavenger|2023-05-21T07:45:55|2023-05-21T08:56:28|01:10:33|dcc-youlab-01|1|1|2500M||/hpc/group/donald/yl708/TopologyNet-2017/perturbations|
yl708|COMPLETED|scavenger|2023-05-21T07:51:44|2023-05-21T09:02:06|01:10:22|dcc-youlab-01|1|1|2500M||/hpc/group/donald/yl708/TopologyNet-2017/perturbations|
yl708|COMPLETED|scavenger|2023-05-21T08:00:22|2023-05-21T09:10:17|01:09:55|dcc-youlab-01|1|1|2500M||/hpc/group/donald/yl708/TopologyNet-2017/perturbations|
yl708|COMPLETED|scavenger|2023-05-21T08:00:24|2023-05-21T09:07:32|01:07:08|dcc-youlab-01|1|1|2500M||/hpc/group/donald/yl708/TopologyNet-2017/perturbations|
yl708|COMPLETED|scavenger|2023-05-21T08:02:09|2023-05-21T09:09:11|01:07:02|dcc-youlab-01|1|1|2500M||/hpc/group/donald/yl708/TopologyNet-2017/perturbations|
yl708|COMPLETED|scavenger|2023-05-21T08:51:28|2023-05-21T09:59:26|01:07:58|dcc-youlab-01|1|1|2500M||/hpc/group/donald/yl708/TopologyNet-2017/perturbations|
yl708|COMPLETED|scavenger|2023-05-21T09:11:58|2023-05-21T10:21:03|01:09:05|dcc-youlab-01|1|1|2500M||/hpc/group/donald/yl708/TopologyNet-2017/perturbations|
yl708|COMPLETED|scavenger|2023-05-21T09:24:01|2023-05-21T10:34:38|01:10:37|dcc-youlab-01|1|1|2500M||/hpc/group/donald/yl708/TopologyNet-2017/perturbations|
yl708|COMPLETED|scavenger|2023-05-21T09:24:01|2023-05-21T10:34:00|01:09:59|dcc-youlab-01|1|1|2500M||/hpc/group/donald/yl708/TopologyNet-2017/perturbations|
yl708|COMPLETED|scavenger|2023-05-21T09:28:37|2023-05-21T10:39:08|01:10:31|dcc-youlab-01|1|1|2500M||/hpc/group/donald/yl708/TopologyNet-2017/perturbations|
yl708|COMPLETED|scavenger|2023-05-21T09:37:07|2023-05-21T10:48:03|01:10:56|dcc-youlab-01|1|1|2500M||/hpc/group/donald/yl708/TopologyNet-2017/perturbations|
yl708|COMPLETED|scavenger|2023-05-21T09:37:07|2023-05-21T10:48:15|01:11:08|dcc-youlab-01|1|1|2500M||/hpc/group/donald/yl708/TopologyNet-2017/perturbations|
yl708|COMPLETED|scavenger|2023-05-21T09:57:27|2023-05-21T11:08:00|01:10:33|dcc-youlab-01|1|1|2500M||/hpc/group/donald/yl708/TopologyNet-2017/perturbations|
yl708|COMPLETED|scavenger|2023-05-21T09:58:38|2023-05-21T11:09:24|01:10:46|dcc-youlab-01|1|1|2500M||/hpc/group/donald/yl708/TopologyNet-2017/perturbations|
yl708|COMPLETED|scavenger|2023-05-21T10:00:54|2023-05-21T11:11:25|01:10:31|dcc-youlab-01|1|1|2500M||/hpc/group/donald/yl708/TopologyNet-2017/perturbations|
yl708|COMPLETED|scavenger|2023-05-21T10:02:37|2023-05-21T11:11:33|01:08:56|dcc-youlab-01|1|1|2500M||/hpc/group/donald/yl708/TopologyNet-2017/perturbations|
yl708|COMPLETED|scavenger|2023-05-21T10:07:46|2023-05-21T11:17:10|01:09:24|dcc-youlab-01|1|1|2500M||/hpc/group/donald/yl708/TopologyNet-2017/perturbations|
yl708|COMPLETED|scavenger|2023-05-21T10:08:21|2023-05-21T11:17:41|01:09:20|dcc-youlab-01|1|1|2500M||/hpc/group/donald/yl708/TopologyNet-2017/perturbations|
yl708|COMPLETED|scavenger|2023-05-21T10:10:04|2023-05-21T11:19:23|01:09:19|dcc-youlab-01|1|1|2500M||/hpc/group/donald/yl708/TopologyNet-2017/perturbations|
yl708|COMPLETED|scavenger|2023-05-21T10:10:39|2023-05-21T11:19:57|01:09:18|dcc-youlab-01|1|1|2500M||/hpc/group/donald/yl708/TopologyNet-2017/perturbations|
yl708|COMPLETED|scavenger|2023-05-21T10:19:09|2023-05-21T11:28:31|01:09:22|dcc-youlab-01|1|1|2500M||/hpc/group/donald/yl708/TopologyNet-2017/perturbations|
yl708|COMPLETED|scavenger|2023-05-21T10:36:10|2023-05-21T11:46:05|01:09:55|dcc-youlab-01|1|1|2500M||/hpc/group/donald/yl708/TopologyNet-2017/perturbations|
yl708|COMPLETED|scavenger|2023-05-21T10:40:46|2023-05-21T11:50:42|01:09:56|dcc-youlab-01|1|1|2500M||/hpc/group/donald/yl708/TopologyNet-2017/perturbations|
yl708|COMPLETED|scavenger|2023-05-21T11:11:01|2023-05-21T12:21:06|01:10:05|dcc-youlab-01|1|1|2500M||/hpc/group/donald/yl708/TopologyNet-2017/perturbations|
yl708|COMPLETED|scavenger|2023-05-21T11:17:13|2023-05-21T12:27:45|01:10:32|dcc-youlab-01|1|1|2500M||/hpc/group/donald/yl708/TopologyNet-2017/perturbations|
yl708|COMPLETED|scavenger|2023-05-21T11:25:09|2023-05-21T12:36:33|01:11:24|dcc-youlab-01|1|1|2500M||/hpc/group/donald/yl708/TopologyNet-2017/perturbations|
yl708|COMPLETED|scavenger|2023-05-21T11:25:09|2023-05-21T12:36:32|01:11:23|dcc-youlab-01|1|1|2500M||/hpc/group/donald/yl708/TopologyNet-2017/perturbations|
yl708|COMPLETED|scavenger|2023-05-21T11:25:09|2023-05-21T12:36:28|01:11:19|dcc-youlab-01|1|1|2500M||/hpc/group/donald/yl708/TopologyNet-2017/perturbations|
yl708|COMPLETED|scavenger|2023-05-21T11:36:18|2023-05-21T12:47:24|01:11:06|dcc-youlab-01|1|1|2500M||/hpc/group/donald/yl708/TopologyNet-2017/perturbations|
yl708|COMPLETED|scavenger|2023-05-21T11:51:20|2023-05-21T13:02:19|01:10:59|dcc-youlab-01|1|1|2500M||/hpc/group/donald/yl708/TopologyNet-2017/perturbations|
yl708|COMPLETED|scavenger|2023-05-21T11:51:20|2023-05-21T13:02:26|01:11:06|dcc-youlab-01|1|1|2500M||/hpc/group/donald/yl708/TopologyNet-2017/perturbations|
yl708|COMPLETED|scavenger|2023-05-21T12:00:59|2023-05-21T13:11:40|01:10:41|dcc-youlab-01|1|1|2500M||/hpc/group/donald/yl708/TopologyNet-2017/perturbations|
yl708|COMPLETED|scavenger|2023-05-21T12:01:33|2023-05-21T13:10:57|01:09:24|dcc-youlab-01|1|1|2500M||/hpc/group/donald/yl708/TopologyNet-2017/perturbations|
yl708|COMPLETED|scavenger|2023-05-21T12:02:07|2023-05-21T13:11:28|01:09:21|dcc-youlab-01|1|1|2500M||/hpc/group/donald/yl708/TopologyNet-2017/perturbations|
yl708|COMPLETED|scavenger|2023-05-21T12:04:29|2023-05-21T13:13:55|01:09:26|dcc-youlab-01|1|1|2500M||/hpc/group/donald/yl708/TopologyNet-2017/perturbations|
yl708|COMPLETED|scavenger|2023-05-21T12:13:04|2023-05-21T13:22:06|01:09:02|dcc-youlab-01|1|1|2500M||/hpc/group/donald/yl708/TopologyNet-2017/perturbations|
yl708|COMPLETED|scavenger|2023-05-21T12:15:21|2023-05-21T13:24:11|01:08:50|dcc-youlab-01|1|1|2500M||/hpc/group/donald/yl708/TopologyNet-2017/perturbations|
yl708|COMPLETED|scavenger|2023-05-21T12:28:32|2023-05-21T13:38:38|01:10:06|dcc-youlab-01|1|1|2500M||/hpc/group/donald/yl708/TopologyNet-2017/perturbations|
yl708|COMPLETED|scavenger|2023-05-21T12:29:12|2023-05-21T13:38:48|01:09:36|dcc-youlab-01|1|1|2500M||/hpc/group/donald/yl708/TopologyNet-2017/perturbations|
yl708|COMPLETED|scavenger|2023-05-21T12:49:20|2023-05-21T13:59:29|01:10:09|dcc-youlab-01|1|1|2500M||/hpc/group/donald/yl708/TopologyNet-2017/perturbations|
yl708|COMPLETED|scavenger|2023-05-21T13:12:32|2023-05-21T14:22:52|01:10:20|dcc-youlab-01|1|1|2500M||/hpc/group/donald/yl708/TopologyNet-2017/perturbations|
yl708|COMPLETED|scavenger|2023-05-21T13:16:33|2023-05-21T14:27:27|01:10:54|dcc-youlab-01|1|1|2500M||/hpc/group/donald/yl708/TopologyNet-2017/perturbations|
yl708|COMPLETED|scavenger|2023-05-21T13:16:33|2023-05-21T14:27:57|01:11:24|dcc-youlab-01|1|1|2500M||/hpc/group/donald/yl708/TopologyNet-2017/perturbations|
yl708|COMPLETED|scavenger|2023-05-21T13:20:12|2023-05-21T14:31:24|01:11:12|dcc-youlab-01|1|1|2500M||/hpc/group/donald/yl708/TopologyNet-2017/perturbations|
yl708|COMPLETED|scavenger|2023-05-21T13:18:24|2023-05-21T14:29:44|01:11:20|dcc-youlab-01|1|1|2500M||/hpc/group/donald/yl708/TopologyNet-2017/perturbations|
yl708|COMPLETED|scavenger|2023-05-21T13:21:55|2023-05-21T14:32:48|01:10:53|dcc-youlab-01|1|1|2500M||/hpc/group/donald/yl708/TopologyNet-2017/perturbations|
yl708|COMPLETED|scavenger|2023-05-21T13:25:53|2023-05-21T14:36:38|01:10:45|dcc-youlab-01|1|1|2500M||/hpc/group/donald/yl708/TopologyNet-2017/perturbations|
yl708|COMPLETED|scavenger|2023-05-21T13:28:09|2023-05-21T14:35:55|01:07:46|dcc-youlab-01|1|1|2500M||/hpc/group/donald/yl708/TopologyNet-2017/perturbations|
yl708|COMPLETED|scavenger|2023-05-21T13:48:24|2023-05-21T14:59:01|01:10:37|dcc-youlab-01|1|1|2500M||/hpc/group/donald/yl708/TopologyNet-2017/perturbations|
yl708|COMPLETED|scavenger|2023-05-21T13:52:31|2023-05-21T15:01:14|01:08:43|dcc-youlab-01|1|1|2500M||/hpc/group/donald/yl708/TopologyNet-2017/perturbations|
yl708|COMPLETED|scavenger|2023-05-21T14:04:04|2023-05-21T15:12:27|01:08:23|dcc-youlab-01|1|1|2500M||/hpc/group/donald/yl708/TopologyNet-2017/perturbations|
yl708|COMPLETED|scavenger|2023-05-21T14:08:03|2023-05-21T15:19:04|01:11:01|dcc-youlab-01|1|1|2500M||/hpc/group/donald/yl708/TopologyNet-2017/perturbations|
yl708|COMPLETED|scavenger|2023-05-21T14:17:28|2023-05-21T15:29:24|01:11:56|dcc-youlab-01|1|1|2500M||/hpc/group/donald/yl708/TopologyNet-2017/perturbations|
yl708|COMPLETED|scavenger|2023-05-21T14:16:19|2023-05-21T15:28:11|01:11:52|dcc-youlab-01|1|1|2500M||/hpc/group/donald/yl708/TopologyNet-2017/perturbations|
yl708|COMPLETED|scavenger|2023-05-21T14:37:12|2023-05-21T15:48:10|01:10:58|dcc-youlab-01|1|1|2500M||/hpc/group/donald/yl708/TopologyNet-2017/perturbations|
yl708|COMPLETED|scavenger|2023-05-21T14:37:14|2023-05-21T15:48:12|01:10:58|dcc-youlab-01|1|1|2500M||/hpc/group/donald/yl708/TopologyNet-2017/perturbations|
yl708|COMPLETED|scavenger|2023-05-21T14:39:40|2023-05-21T15:50:40|01:11:00|dcc-youlab-01|1|1|2500M||/hpc/group/donald/yl708/TopologyNet-2017/perturbations|
yl708|COMPLETED|scavenger|2023-05-21T14:43:41|2023-05-21T15:54:32|01:10:51|dcc-youlab-01|1|1|2500M||/hpc/group/donald/yl708/TopologyNet-2017/perturbations|
yl708|COMPLETED|scavenger|2023-05-21T14:50:44|2023-05-21T16:01:48|01:11:04|dcc-youlab-01|1|1|2500M||/hpc/group/donald/yl708/TopologyNet-2017/perturbations|
yl708|COMPLETED|scavenger|2023-05-21T14:57:47|2023-05-21T16:09:18|01:11:31|dcc-youlab-01|1|1|2500M||/hpc/group/donald/yl708/TopologyNet-2017/perturbations|
yl708|COMPLETED|scavenger|2023-05-21T14:58:26|2023-05-21T16:09:51|01:11:25|dcc-youlab-01|1|1|2500M||/hpc/group/donald/yl708/TopologyNet-2017/perturbations|
yl708|COMPLETED|scavenger|2023-05-21T14:58:26|2023-05-21T16:14:58|01:16:32|dcc-youlab-01|1|1|2500M||/hpc/group/donald/yl708/TopologyNet-2017/perturbations|
yl708|COMPLETED|scavenger|2023-05-21T15:04:14|2023-05-21T16:19:51|01:15:37|dcc-youlab-01|1|1|2500M||/hpc/group/donald/yl708/TopologyNet-2017/perturbations|
yl708|COMPLETED|scavenger|2023-05-21T15:04:14|2023-05-21T16:27:35|01:23:21|dcc-youlab-01|1|1|2500M||/hpc/group/donald/yl708/TopologyNet-2017/perturbations|
yl708|COMPLETED|scavenger|2023-05-21T15:20:12|2023-05-21T16:31:53|01:11:41|dcc-youlab-01|1|1|2500M||/hpc/group/donald/yl708/TopologyNet-2017/perturbations|
yl708|COMPLETED|scavenger|2023-05-21T15:21:20|2023-05-21T16:33:36|01:12:16|dcc-youlab-01|1|1|2500M||/hpc/group/donald/yl708/TopologyNet-2017/perturbations|
yl708|COMPLETED|scavenger|2023-05-21T15:21:24|2023-05-21T16:42:54|01:21:30|dcc-youlab-01|1|1|2500M||/hpc/group/donald/yl708/TopologyNet-2017/perturbations|
yl708|COMPLETED|scavenger|2023-05-21T15:21:24|2023-05-21T16:39:09|01:17:45|dcc-youlab-01|1|1|2500M||/hpc/group/donald/yl708/TopologyNet-2017/perturbations|
yl708|COMPLETED|scavenger|2023-05-21T15:21:24|2023-05-21T16:39:01|01:17:37|dcc-youlab-01|1|1|2500M||/hpc/group/donald/yl708/TopologyNet-2017/perturbations|
yl708|COMPLETED|scavenger|2023-05-21T15:21:24|2023-05-21T16:44:21|01:22:57|dcc-youlab-01|1|1|2500M||/hpc/group/donald/yl708/TopologyNet-2017/perturbations|
yl708|COMPLETED|scavenger|2023-05-21T15:21:24|2023-05-21T16:40:19|01:18:55|dcc-youlab-01|1|1|2500M||/hpc/group/donald/yl708/TopologyNet-2017/perturbations|
yl708|COMPLETED|scavenger|2023-05-21T15:21:24|2023-05-21T16:39:28|01:18:04|dcc-youlab-01|1|1|2500M||/hpc/group/donald/yl708/TopologyNet-2017/perturbations|
yl708|COMPLETED|scavenger|2023-05-21T15:21:24|2023-05-21T16:41:17|01:19:53|dcc-youlab-01|1|1|2500M||/hpc/group/donald/yl708/TopologyNet-2017/perturbations|
yl708|COMPLETED|scavenger|2023-05-21T15:21:24|2023-05-21T16:41:27|01:20:03|dcc-youlab-01|1|1|2500M||/hpc/group/donald/yl708/TopologyNet-2017/perturbations|
yl708|COMPLETED|scavenger|2023-05-21T15:21:24|2023-05-21T16:39:20|01:17:56|dcc-youlab-01|1|1|2500M||/hpc/group/donald/yl708/TopologyNet-2017/perturbations|
yl708|COMPLETED|scavenger|2023-05-21T15:21:24|2023-05-21T16:42:50|01:21:26|dcc-youlab-01|1|1|2500M||/hpc/group/donald/yl708/TopologyNet-2017/perturbations|
yl708|COMPLETED|scavenger|2023-05-21T15:21:24|2023-05-21T16:53:02|01:31:38|dcc-wychem-01|1|1|2500M||/hpc/group/donald/yl708/TopologyNet-2017/perturbations|
yl708|COMPLETED|scavenger|2023-05-21T15:21:24|2023-05-21T16:53:29|01:32:05|dcc-wychem-01|1|1|2500M||/hpc/group/donald/yl708/TopologyNet-2017/perturbations|
yl708|COMPLETED|scavenger|2023-05-21T15:21:24|2023-05-21T16:53:18|01:31:54|dcc-wychem-01|1|1|2500M||/hpc/group/donald/yl708/TopologyNet-2017/perturbations|
yl708|COMPLETED|scavenger|2023-05-21T15:21:24|2023-05-21T16:52:53|01:31:29|dcc-wychem-01|1|1|2500M||/hpc/group/donald/yl708/TopologyNet-2017/perturbations|
yl708|COMPLETED|scavenger|2023-05-21T15:21:24|2023-05-21T16:50:57|01:29:33|dcc-wychem-01|1|1|2500M||/hpc/group/donald/yl708/TopologyNet-2017/perturbations|
yl708|COMPLETED|scavenger|2023-05-21T15:21:24|2023-05-21T16:51:56|01:30:32|dcc-wychem-01|1|1|2500M||/hpc/group/donald/yl708/TopologyNet-2017/perturbations|
yl708|COMPLETED|scavenger|2023-05-21T15:21:24|2023-05-21T16:54:08|01:32:44|dcc-wychem-01|1|1|2500M||/hpc/group/donald/yl708/TopologyNet-2017/perturbations|
yl708|COMPLETED|scavenger|2023-05-21T15:21:25|2023-05-21T16:51:59|01:30:34|dcc-wychem-01|1|1|2500M||/hpc/group/donald/yl708/TopologyNet-2017/perturbations|
yl708|COMPLETED|scavenger|2023-05-21T15:21:25|2023-05-21T16:52:45|01:31:20|dcc-wychem-01|1|1|2500M||/hpc/group/donald/yl708/TopologyNet-2017/perturbations|
yl708|COMPLETED|scavenger|2023-05-21T15:22:04|2023-05-21T17:25:11|02:03:07|dcc-velmeshevlab-01|1|1|2500M||/hpc/group/donald/yl708/TopologyNet-2017/perturbations|
yl708|COMPLETED|scavenger|2023-05-21T15:22:04|2023-05-21T17:18:33|01:56:29|dcc-velmeshevlab-01|1|1|2500M||/hpc/group/donald/yl708/TopologyNet-2017/perturbations|
yl708|COMPLETED|scavenger|2023-05-21T15:22:04|2023-05-21T17:31:28|02:09:24|dcc-velmeshevlab-01|1|1|2500M||/hpc/group/donald/yl708/TopologyNet-2017/perturbations|
yl708|COMPLETED|scavenger|2023-05-21T15:22:04|2023-05-21T17:30:27|02:08:23|dcc-velmeshevlab-01|1|1|2500M||/hpc/group/donald/yl708/TopologyNet-2017/perturbations|
yl708|COMPLETED|scavenger|2023-05-21T15:22:04|2023-05-21T17:30:35|02:08:31|dcc-velmeshevlab-01|1|1|2500M||/hpc/group/donald/yl708/TopologyNet-2017/perturbations|
yl708|COMPLETED|scavenger|2023-05-21T15:22:04|2023-05-21T17:30:55|02:08:51|dcc-velmeshevlab-01|1|1|2500M||/hpc/group/donald/yl708/TopologyNet-2017/perturbations|
yl708|COMPLETED|scavenger|2023-05-21T15:22:04|2023-05-21T17:30:52|02:08:48|dcc-velmeshevlab-01|1|1|2500M||/hpc/group/donald/yl708/TopologyNet-2017/perturbations|
yl708|COMPLETED|scavenger|2023-05-21T15:22:04|2023-05-21T17:31:51|02:09:47|dcc-velmeshevlab-01|1|1|2500M||/hpc/group/donald/yl708/TopologyNet-2017/perturbations|
yl708|COMPLETED|scavenger|2023-05-21T15:22:04|2023-05-21T17:30:28|02:08:24|dcc-velmeshevlab-01|1|1|2500M||/hpc/group/donald/yl708/TopologyNet-2017/perturbations|
yl708|COMPLETED|scavenger|2023-05-21T15:22:04|2023-05-21T17:31:11|02:09:07|dcc-velmeshevlab-01|1|1|2500M||/hpc/group/donald/yl708/TopologyNet-2017/perturbations|
yl708|COMPLETED|scavenger|2023-05-21T15:22:04|2023-05-21T17:31:11|02:09:07|dcc-velmeshevlab-01|1|1|2500M||/hpc/group/donald/yl708/TopologyNet-2017/perturbations|
yl708|COMPLETED|scavenger|2023-05-21T15:22:04|2023-05-21T17:29:55|02:07:51|dcc-velmeshevlab-01|1|1|2500M||/hpc/group/donald/yl708/TopologyNet-2017/perturbations|
yl708|COMPLETED|scavenger|2023-05-21T15:22:05|2023-05-21T17:31:19|02:09:14|dcc-velmeshevlab-01|1|1|2500M||/hpc/group/donald/yl708/TopologyNet-2017/perturbations|
yl708|COMPLETED|scavenger|2023-05-21T15:22:05|2023-05-21T17:30:23|02:08:18|dcc-velmeshevlab-01|1|1|2500M||/hpc/group/donald/yl708/TopologyNet-2017/perturbations|
yl708|COMPLETED|scavenger|2023-05-21T15:22:05|2023-05-21T17:30:15|02:08:10|dcc-velmeshevlab-01|1|1|2500M||/hpc/group/donald/yl708/TopologyNet-2017/perturbations|
yl708|COMPLETED|scavenger|2023-05-21T15:22:05|2023-05-21T17:31:09|02:09:04|dcc-velmeshevlab-01|1|1|2500M||/hpc/group/donald/yl708/TopologyNet-2017/perturbations|
yl708|COMPLETED|scavenger|2023-05-21T15:22:05|2023-05-21T17:30:15|02:08:10|dcc-velmeshevlab-01|1|1|2500M||/hpc/group/donald/yl708/TopologyNet-2017/perturbations|
yl708|COMPLETED|scavenger|2023-05-21T15:22:05|2023-05-21T17:31:03|02:08:58|dcc-velmeshevlab-01|1|1|2500M||/hpc/group/donald/yl708/TopologyNet-2017/perturbations|
yl708|COMPLETED|scavenger|2023-05-21T15:22:05|2023-05-21T17:29:28|02:07:23|dcc-velmeshevlab-01|1|1|2500M||/hpc/group/donald/yl708/TopologyNet-2017/perturbations|
yl708|COMPLETED|scavenger|2023-05-21T15:22:05|2023-05-21T17:31:23|02:09:18|dcc-velmeshevlab-01|1|1|2500M||/hpc/group/donald/yl708/TopologyNet-2017/perturbations|
yl708|COMPLETED|scavenger|2023-05-21T15:22:41|2023-05-21T17:28:35|02:05:54|dcc-velmeshevlab-01|1|1|2500M||/hpc/group/donald/yl708/TopologyNet-2017/perturbations|
yl708|COMPLETED|scavenger|2023-05-21T15:22:43|2023-05-21T17:31:48|02:09:05|dcc-velmeshevlab-01|1|1|2500M||/hpc/group/donald/yl708/TopologyNet-2017/perturbations|
yl708|COMPLETED|scavenger|2023-05-21T15:22:43|2023-05-21T17:28:59|02:06:16|dcc-velmeshevlab-01|1|1|2500M||/hpc/group/donald/yl708/TopologyNet-2017/perturbations|
yl708|COMPLETED|scavenger|2023-05-21T15:22:43|2023-05-21T17:29:27|02:06:44|dcc-velmeshevlab-01|1|1|2500M||/hpc/group/donald/yl708/TopologyNet-2017/perturbations|
yl708|COMPLETED|scavenger|2023-05-21T15:22:43|2023-05-21T17:30:43|02:08:00|dcc-velmeshevlab-01|1|1|2500M||/hpc/group/donald/yl708/TopologyNet-2017/perturbations|
yl708|COMPLETED|scavenger|2023-05-21T15:22:43|2023-05-21T17:30:03|02:07:20|dcc-velmeshevlab-01|1|1|2500M||/hpc/group/donald/yl708/TopologyNet-2017/perturbations|
yl708|COMPLETED|scavenger|2023-05-21T15:22:43|2023-05-21T17:30:39|02:07:56|dcc-velmeshevlab-01|1|1|2500M||/hpc/group/donald/yl708/TopologyNet-2017/perturbations|
yl708|COMPLETED|scavenger|2023-05-21T15:22:43|2023-05-21T17:30:28|02:07:45|dcc-velmeshevlab-01|1|1|2500M||/hpc/group/donald/yl708/TopologyNet-2017/perturbations|
yl708|COMPLETED|scavenger|2023-05-21T15:22:43|2023-05-21T17:30:27|02:07:44|dcc-velmeshevlab-01|1|1|2500M||/hpc/group/donald/yl708/TopologyNet-2017/perturbations|
yl708|COMPLETED|scavenger|2023-05-21T15:22:43|2023-05-21T17:29:44|02:07:01|dcc-velmeshevlab-01|1|1|2500M||/hpc/group/donald/yl708/TopologyNet-2017/perturbations|
yl708|COMPLETED|scavenger|2023-05-21T15:26:00|2023-05-21T16:56:22|01:30:22|dcc-wychem-01|1|1|2500M||/hpc/group/donald/yl708/TopologyNet-2017/perturbations|
yl708|COMPLETED|scavenger|2023-05-21T15:43:27|2023-05-21T16:59:13|01:15:46|dcc-youlab-01|1|1|2500M||/hpc/group/donald/yl708/TopologyNet-2017/perturbations|
yl708|COMPLETED|scavenger|2023-05-21T15:46:55|2023-05-21T17:04:21|01:17:26|dcc-youlab-01|1|1|2500M||/hpc/group/donald/yl708/TopologyNet-2017/perturbations|
yl708|COMPLETED|scavenger|2023-05-21T15:49:11|2023-05-21T17:00:38|01:11:27|dcc-youlab-01|1|1|2500M||/hpc/group/donald/yl708/TopologyNet-2017/perturbations|
yl708|COMPLETED|scavenger|2023-05-21T15:54:17|2023-05-21T17:05:17|01:11:00|dcc-youlab-01|1|1|2500M||/hpc/group/donald/yl708/TopologyNet-2017/perturbations|
yl708|COMPLETED|scavenger|2023-05-21T15:56:36|2023-05-21T17:07:36|01:11:00|dcc-youlab-01|1|1|2500M||/hpc/group/donald/yl708/TopologyNet-2017/perturbations|
yl708|COMPLETED|scavenger|2023-05-21T16:05:57|2023-05-21T17:16:46|01:10:49|dcc-youlab-01|1|1|2500M||/hpc/group/donald/yl708/TopologyNet-2017/perturbations|
yl708|COMPLETED|scavenger|2023-05-21T16:07:07|2023-05-21T17:17:44|01:10:37|dcc-youlab-01|1|1|2500M||/hpc/group/donald/yl708/TopologyNet-2017/perturbations|
yl708|COMPLETED|scavenger|2023-05-21T16:16:24|2023-05-21T17:27:30|01:11:06|dcc-youlab-01|1|1|2500M||/hpc/group/donald/yl708/TopologyNet-2017/perturbations|
yl708|COMPLETED|scavenger|2023-05-21T16:18:06|2023-05-21T17:29:03|01:10:57|dcc-youlab-01|1|1|2500M||/hpc/group/donald/yl708/TopologyNet-2017/perturbations|
yl708|COMPLETED|scavenger|2023-05-21T16:21:29|2023-05-21T17:32:08|01:10:39|dcc-youlab-01|1|1|2500M||/hpc/group/donald/yl708/TopologyNet-2017/perturbations|
yl708|COMPLETED|scavenger|2023-05-21T16:23:50|2023-05-21T18:11:51|01:48:01|dcc-velmeshevlab-01|1|1|2500M||/hpc/group/donald/yl708/TopologyNet-2017/perturbations|
yl708|COMPLETED|scavenger|2023-05-21T16:28:50|2023-05-21T17:37:43|01:08:53|dcc-youlab-01|1|1|2500M||/hpc/group/donald/yl708/TopologyNet-2017/perturbations|
yl708|COMPLETED|scavenger|2023-05-21T16:30:29|2023-05-21T17:39:50|01:09:21|dcc-youlab-01|1|1|2500M||/hpc/group/donald/yl708/TopologyNet-2017/perturbations|
yl708|COMPLETED|scavenger|2023-05-21T16:30:29|2023-05-21T18:17:16|01:46:47|dcc-velmeshevlab-01|1|1|2500M||/hpc/group/donald/yl708/TopologyNet-2017/perturbations|
yl708|COMPLETED|scavenger|2023-05-21T17:00:22|2023-05-21T18:10:21|01:09:59|dcc-youlab-01|1|1|2500M||/hpc/group/donald/yl708/TopologyNet-2017/perturbations|
yl708|COMPLETED|scavenger|2023-05-21T17:15:46|2023-05-21T18:26:08|01:10:22|dcc-youlab-01|1|1|2500M||/hpc/group/donald/yl708/TopologyNet-2017/perturbations|
yl708|COMPLETED|scavenger|2023-05-21T17:16:52|2023-05-21T18:27:53|01:11:01|dcc-youlab-01|1|1|2500M||/hpc/group/donald/yl708/TopologyNet-2017/perturbations|
yl708|COMPLETED|scavenger|2023-05-21T17:25:12|2023-05-21T18:36:36|01:11:24|dcc-youlab-01|1|1|2500M||/hpc/group/donald/yl708/TopologyNet-2017/perturbations|
yl708|COMPLETED|scavenger|2023-05-21T17:25:48|2023-05-21T18:36:50|01:11:02|dcc-youlab-01|1|1|2500M||/hpc/group/donald/yl708/TopologyNet-2017/perturbations|
yl708|COMPLETED|scavenger|2023-05-21T17:26:22|2023-05-21T18:37:38|01:11:16|dcc-youlab-01|1|1|2500M||/hpc/group/donald/yl708/TopologyNet-2017/perturbations|
yl708|COMPLETED|scavenger|2023-05-21T17:27:29|2023-05-21T18:38:38|01:11:09|dcc-youlab-01|1|1|2500M||/hpc/group/donald/yl708/TopologyNet-2017/perturbations|
yl708|COMPLETED|scavenger|2023-05-21T17:40:15|2023-05-21T18:51:18|01:11:03|dcc-youlab-01|1|1|2500M||/hpc/group/donald/yl708/TopologyNet-2017/perturbations|
yl708|COMPLETED|scavenger|2023-05-21T17:51:07|2023-05-21T19:02:24|01:11:17|dcc-youlab-01|1|1|2500M||/hpc/group/donald/yl708/TopologyNet-2017/perturbations|
yl708|COMPLETED|scavenger|2023-05-21T17:55:29|2023-05-21T19:06:35|01:11:06|dcc-youlab-01|1|1|2500M||/hpc/group/donald/yl708/TopologyNet-2017/perturbations|
yl708|COMPLETED|scavenger|2023-05-21T18:10:05|2023-05-21T19:18:32|01:08:27|dcc-youlab-01|1|1|2500M||/hpc/group/donald/yl708/TopologyNet-2017/perturbations|
yl708|COMPLETED|scavenger|2023-05-21T18:06:51|2023-05-21T19:15:44|01:08:53|dcc-youlab-01|1|1|2500M||/hpc/group/donald/yl708/TopologyNet-2017/perturbations|
yl708|COMPLETED|scavenger|2023-05-21T18:16:42|2023-05-21T19:27:49|01:11:07|dcc-youlab-01|1|1|2500M||/hpc/group/donald/yl708/TopologyNet-2017/perturbations|
yl708|COMPLETED|scavenger|2023-05-21T18:22:41|2023-05-21T19:32:01|01:09:20|dcc-youlab-01|1|1|2500M||/hpc/group/donald/yl708/TopologyNet-2017/perturbations|
yl708|COMPLETED|scavenger|2023-05-21T18:28:41|2023-05-21T19:39:55|01:11:14|dcc-youlab-01|1|1|2500M||/hpc/group/donald/yl708/TopologyNet-2017/perturbations|
yl708|COMPLETED|scavenger|2023-05-21T18:34:06|2023-05-21T19:45:09|01:11:03|dcc-youlab-01|1|1|2500M||/hpc/group/donald/yl708/TopologyNet-2017/perturbations|
yl708|COMPLETED|scavenger|2023-05-21T18:36:50|2023-05-21T20:06:19|01:29:29|dcc-wychem-01|1|1|2500M||/hpc/group/donald/yl708/TopologyNet-2017/perturbations|
yl708|COMPLETED|scavenger|2023-05-21T18:45:02|2023-05-21T19:56:40|01:11:38|dcc-youlab-01|1|1|2500M||/hpc/group/donald/yl708/TopologyNet-2017/perturbations|
yl708|COMPLETED|scavenger|2023-05-21T18:49:22|2023-05-21T20:00:52|01:11:30|dcc-youlab-01|1|1|2500M||/hpc/group/donald/yl708/TopologyNet-2017/perturbations|
yl708|COMPLETED|scavenger|2023-05-21T18:51:35|2023-05-21T20:03:15|01:11:40|dcc-youlab-01|1|1|2500M||/hpc/group/donald/yl708/TopologyNet-2017/perturbations|
yl708|COMPLETED|scavenger|2023-05-21T18:54:50|2023-05-21T20:06:31|01:11:41|dcc-youlab-01|1|1|2500M||/hpc/group/donald/yl708/TopologyNet-2017/perturbations|
yl708|COMPLETED|scavenger|2023-05-21T18:54:50|2023-05-21T20:06:39|01:11:49|dcc-youlab-01|1|1|2500M||/hpc/group/donald/yl708/TopologyNet-2017/perturbations|
yl708|COMPLETED|scavenger|2023-05-21T18:55:57|2023-05-21T20:06:59|01:11:02|dcc-youlab-01|1|1|2500M||/hpc/group/donald/yl708/TopologyNet-2017/perturbations|
yl708|COMPLETED|scavenger|2023-05-21T18:56:29|2023-05-21T20:07:23|01:10:54|dcc-youlab-01|1|1|2500M||/hpc/group/donald/yl708/TopologyNet-2017/perturbations|
yl708|COMPLETED|scavenger|2023-05-21T19:01:21|2023-05-21T20:12:52|01:11:31|dcc-youlab-01|1|1|2500M||/hpc/group/donald/yl708/TopologyNet-2017/perturbations|
yl708|COMPLETED|scavenger|2023-05-21T19:10:42|2023-05-21T20:22:33|01:11:51|dcc-youlab-01|1|1|2500M||/hpc/group/donald/yl708/TopologyNet-2017/perturbations|
yl708|COMPLETED|scavenger|2023-05-21T19:10:43|2023-05-21T20:21:33|01:10:50|dcc-youlab-01|1|1|2500M||/hpc/group/donald/yl708/TopologyNet-2017/perturbations|
yl708|COMPLETED|scavenger|2023-05-21T19:10:10|2023-05-21T20:22:05|01:11:55|dcc-youlab-01|1|1|2500M||/hpc/group/donald/yl708/TopologyNet-2017/perturbations|
yl708|COMPLETED|scavenger|2023-05-21T19:14:06|2023-05-21T20:24:41|01:10:35|dcc-youlab-01|1|1|2500M||/hpc/group/donald/yl708/TopologyNet-2017/perturbations|
yl708|COMPLETED|scavenger|2023-05-21T19:18:05|2023-05-21T20:28:31|01:10:26|dcc-youlab-01|1|1|2500M||/hpc/group/donald/yl708/TopologyNet-2017/perturbations|
yl708|COMPLETED|scavenger|2023-05-21T19:18:40|2023-05-21T20:29:34|01:10:54|dcc-youlab-01|1|1|2500M||/hpc/group/donald/yl708/TopologyNet-2017/perturbations|
yl708|COMPLETED|scavenger|2023-05-21T19:20:17|2023-05-21T20:49:50|01:29:33|dcc-wychem-01|1|1|2500M||/hpc/group/donald/yl708/TopologyNet-2017/perturbations|
yl708|COMPLETED|scavenger|2023-05-21T19:20:18|2023-05-21T20:50:10|01:29:52|dcc-wychem-01|1|1|2500M||/hpc/group/donald/yl708/TopologyNet-2017/perturbations|
yl708|COMPLETED|scavenger|2023-05-21T19:29:35|2023-05-21T20:41:05|01:11:30|dcc-youlab-01|1|1|2500M||/hpc/group/donald/yl708/TopologyNet-2017/perturbations|
yl708|COMPLETED|scavenger|2023-05-21T19:31:14|2023-05-21T21:00:00|01:28:46|dcc-wychem-01|1|1|2500M||/hpc/group/donald/yl708/TopologyNet-2017/perturbations|
yl708|COMPLETED|scavenger|2023-05-21T19:33:57|2023-05-21T20:43:11|01:09:14|dcc-youlab-01|1|1|2500M||/hpc/group/donald/yl708/TopologyNet-2017/perturbations|
yl708|COMPLETED|scavenger|2023-05-21T19:37:12|2023-05-21T21:44:30|02:07:18|dcc-tunglab-01|1|1|2500M||/hpc/group/donald/yl708/TopologyNet-2017/perturbations|
yl708|COMPLETED|scavenger|2023-05-21T19:40:28|2023-05-21T20:52:03|01:11:35|dcc-youlab-01|1|1|2500M||/hpc/group/donald/yl708/TopologyNet-2017/perturbations|
yl708|COMPLETED|scavenger|2023-05-21T20:09:46|2023-05-21T21:20:35|01:10:49|dcc-youlab-01|1|1|2500M||/hpc/group/donald/yl708/TopologyNet-2017/perturbations|
yl708|COMPLETED|scavenger|2023-05-21T20:09:49|2023-05-21T21:38:17|01:28:28|dcc-wychem-01|1|1|2500M||/hpc/group/donald/yl708/TopologyNet-2017/perturbations|
yl708|COMPLETED|scavenger|2023-05-21T20:08:43|2023-05-21T21:19:07|01:10:24|dcc-youlab-01|1|1|2500M||/hpc/group/donald/yl708/TopologyNet-2017/perturbations|
yl708|COMPLETED|scavenger|2023-05-21T20:40:44|2023-05-21T21:51:16|01:10:32|dcc-youlab-01|1|1|2500M||/hpc/group/donald/yl708/TopologyNet-2017/perturbations|
yl708|COMPLETED|scavenger|2023-05-21T20:43:26|2023-05-21T21:54:24|01:10:58|dcc-youlab-01|1|1|2500M||/hpc/group/donald/yl708/TopologyNet-2017/perturbations|
yl708|COMPLETED|scavenger|2023-05-21T20:50:32|2023-05-21T22:01:32|01:11:00|dcc-youlab-01|1|1|2500M||/hpc/group/donald/yl708/TopologyNet-2017/perturbations|
yl708|COMPLETED|scavenger|2023-05-21T21:11:40|2023-05-21T22:23:20|01:11:40|dcc-youlab-01|1|1|2500M||/hpc/group/donald/yl708/TopologyNet-2017/perturbations|
yl708|COMPLETED|scavenger|2023-05-21T21:08:56|2023-05-21T22:20:15|01:11:19|dcc-youlab-01|1|1|2500M||/hpc/group/donald/yl708/TopologyNet-2017/perturbations|
yl708|COMPLETED|scavenger|2023-05-21T21:12:46|2023-05-21T22:24:27|01:11:41|dcc-youlab-01|1|1|2500M||/hpc/group/donald/yl708/TopologyNet-2017/perturbations|
yl708|COMPLETED|scavenger|2023-05-21T21:12:46|2023-05-21T22:24:27|01:11:41|dcc-youlab-01|1|1|2500M||/hpc/group/donald/yl708/TopologyNet-2017/perturbations|
yl708|COMPLETED|scavenger|2023-05-21T21:14:54|2023-05-21T22:26:34|01:11:40|dcc-youlab-01|1|1|2500M||/hpc/group/donald/yl708/TopologyNet-2017/perturbations|
yl708|COMPLETED|scavenger|2023-05-21T21:14:54|2023-05-21T22:21:42|01:06:48|dcc-youlab-01|1|1|2500M||/hpc/group/donald/yl708/TopologyNet-2017/perturbations|
yl708|COMPLETED|scavenger|2023-05-21T21:15:27|2023-05-21T22:22:03|01:06:36|dcc-youlab-01|1|1|2500M||/hpc/group/donald/yl708/TopologyNet-2017/perturbations|
yl708|COMPLETED|scavenger|2023-05-21T21:19:17|2023-05-21T22:30:46|01:11:29|dcc-youlab-01|1|1|2500M||/hpc/group/donald/yl708/TopologyNet-2017/perturbations|
yl708|COMPLETED|scavenger|2023-05-21T21:37:08|2023-05-21T22:48:35|01:11:27|dcc-youlab-01|1|1|2500M||/hpc/group/donald/yl708/TopologyNet-2017/perturbations|
yl708|COMPLETED|scavenger|2023-05-21T21:40:55|2023-05-21T22:52:29|01:11:34|dcc-youlab-01|1|1|2500M||/hpc/group/donald/yl708/TopologyNet-2017/perturbations|
yl708|COMPLETED|scavenger|2023-05-21T21:58:59|2023-05-21T23:10:11|01:11:12|dcc-youlab-01|1|1|2500M||/hpc/group/donald/yl708/TopologyNet-2017/perturbations|
yl708|COMPLETED|scavenger|2023-05-21T22:00:36|2023-05-21T23:12:02|01:11:26|dcc-youlab-01|1|1|2500M||/hpc/group/donald/yl708/TopologyNet-2017/perturbations|
yl708|COMPLETED|scavenger|2023-05-21T22:16:55|2023-05-21T23:27:34|01:10:39|dcc-youlab-01|1|1|2500M||/hpc/group/donald/yl708/TopologyNet-2017/perturbations|
yl708|COMPLETED|scavenger|2023-05-21T22:40:02|2023-05-21T23:46:36|01:06:34|dcc-youlab-01|1|1|2500M||/hpc/group/donald/yl708/TopologyNet-2017/perturbations|
yl708|COMPLETED|scavenger|2023-05-21T22:40:02|2023-05-22T01:02:17|02:22:15|dcc-velmeshevlab-01|1|1|2500M||/hpc/group/donald/yl708/TopologyNet-2017/perturbations|
yl708|COMPLETED|scavenger|2023-05-21T22:40:35|2023-05-22T01:04:35|02:24:00|dcc-velmeshevlab-01|1|1|2500M||/hpc/group/donald/yl708/TopologyNet-2017/perturbations|
yl708|COMPLETED|scavenger|2023-05-21T22:40:35|2023-05-22T01:03:33|02:22:58|dcc-velmeshevlab-01|1|1|2500M||/hpc/group/donald/yl708/TopologyNet-2017/perturbations|
yl708|COMPLETED|scavenger|2023-05-21T22:42:15|2023-05-22T01:04:00|02:21:45|dcc-velmeshevlab-01|1|1|2500M||/hpc/group/donald/yl708/TopologyNet-2017/perturbations|
yl708|COMPLETED|scavenger|2023-05-21T22:47:07|2023-05-22T01:07:06|02:19:59|dcc-velmeshevlab-01|1|1|2500M||/hpc/group/donald/yl708/TopologyNet-2017/perturbations|
yl708|COMPLETED|scavenger|2023-05-21T22:55:16|2023-05-22T00:05:35|01:10:19|dcc-youlab-01|1|1|2500M||/hpc/group/donald/yl708/TopologyNet-2017/perturbations|
yl708|COMPLETED|scavenger|2023-05-21T22:58:01|2023-05-22T00:09:35|01:11:34|dcc-youlab-01|1|1|2500M||/hpc/group/donald/yl708/TopologyNet-2017/perturbations|
yl708|COMPLETED|scavenger|2023-05-21T23:08:58|2023-05-22T01:29:32|02:20:34|dcc-velmeshevlab-01|1|1|2500M||/hpc/group/donald/yl708/TopologyNet-2017/perturbations|
yl708|COMPLETED|scavenger|2023-05-21T23:11:42|2023-05-22T00:41:01|01:29:19|dcc-wychem-01|1|1|2500M||/hpc/group/donald/yl708/TopologyNet-2017/perturbations|
yl708|COMPLETED|scavenger|2023-05-21T23:16:42|2023-05-22T00:28:31|01:11:49|dcc-youlab-01|1|1|2500M||/hpc/group/donald/yl708/TopologyNet-2017/perturbations|
yl708|COMPLETED|scavenger|2023-05-21T23:16:42|2023-05-22T00:28:11|01:11:29|dcc-youlab-01|1|1|2500M||/hpc/group/donald/yl708/TopologyNet-2017/perturbations|
yl708|COMPLETED|scavenger|2023-05-21T23:18:23|2023-05-22T00:46:50|01:28:27|dcc-wychem-01|1|1|2500M||/hpc/group/donald/yl708/TopologyNet-2017/perturbations|
yl708|COMPLETED|scavenger|2023-05-21T23:18:23|2023-05-22T00:46:17|01:27:54|dcc-wychem-01|1|1|2500M||/hpc/group/donald/yl708/TopologyNet-2017/perturbations|
yl708|COMPLETED|scavenger|2023-05-21T23:18:23|2023-05-22T00:46:53|01:28:30|dcc-wychem-01|1|1|2500M||/hpc/group/donald/yl708/TopologyNet-2017/perturbations|
yl708|COMPLETED|scavenger|2023-05-21T23:21:11|2023-05-22T00:32:59|01:11:48|dcc-youlab-01|1|1|2500M||/hpc/group/donald/yl708/TopologyNet-2017/perturbations|
yl708|COMPLETED|scavenger|2023-05-21T23:21:11|2023-05-22T00:29:28|01:08:17|dcc-youlab-01|1|1|2500M||/hpc/group/donald/yl708/TopologyNet-2017/perturbations|
yl708|COMPLETED|scavenger|2023-05-21T23:21:11|2023-05-22T00:29:27|01:08:16|dcc-youlab-01|1|1|2500M||/hpc/group/donald/yl708/TopologyNet-2017/perturbations|
yl708|COMPLETED|scavenger|2023-05-21T23:27:46|2023-05-22T00:39:13|01:11:27|dcc-youlab-01|1|1|2500M||/hpc/group/donald/yl708/TopologyNet-2017/perturbations|
yl708|COMPLETED|scavenger|2023-05-21T23:37:12|2023-05-22T00:48:37|01:11:25|dcc-youlab-01|1|1|2500M||/hpc/group/donald/yl708/TopologyNet-2017/perturbations|
yl708|COMPLETED|scavenger|2023-05-21T23:40:31|2023-05-22T00:47:53|01:07:22|dcc-youlab-01|1|1|2500M||/hpc/group/donald/yl708/TopologyNet-2017/perturbations|
yl708|COMPLETED|scavenger|2023-05-22T00:14:38|2023-05-22T01:24:55|01:10:17|dcc-youlab-01|1|1|2500M||/hpc/group/donald/yl708/TopologyNet-2017/perturbations|
yl708|COMPLETED|scavenger|2023-05-22T00:21:15|2023-05-22T01:32:29|01:11:14|dcc-youlab-01|1|1|2500M||/hpc/group/donald/yl708/TopologyNet-2017/perturbations|
yl708|COMPLETED|scavenger|2023-05-22T00:28:57|2023-05-22T01:40:15|01:11:18|dcc-youlab-01|1|1|2500M||/hpc/group/donald/yl708/TopologyNet-2017/perturbations|
yl708|COMPLETED|scavenger|2023-05-22T00:43:44|2023-05-22T01:55:16|01:11:32|dcc-youlab-01|1|1|2500M||/hpc/group/donald/yl708/TopologyNet-2017/perturbations|
yl708|COMPLETED|scavenger|2023-05-22T00:51:29|2023-05-22T02:03:18|01:11:49|dcc-youlab-01|1|1|2500M||/hpc/group/donald/yl708/TopologyNet-2017/perturbations|
yl708|COMPLETED|scavenger|2023-05-22T00:52:40|2023-05-22T02:20:47|01:28:07|dcc-wychem-01|1|1|2500M||/hpc/group/donald/yl708/TopologyNet-2017/perturbations|
yl708|COMPLETED|scavenger|2023-05-22T01:08:29|2023-05-22T02:21:15|01:12:46|dcc-youlab-01|1|1|2500M||/hpc/group/donald/yl708/TopologyNet-2017/perturbations|
yl708|COMPLETED|scavenger|2023-05-22T01:10:43|2023-05-22T02:22:32|01:11:49|dcc-youlab-01|1|1|2500M||/hpc/group/donald/yl708/TopologyNet-2017/perturbations|
yl708|COMPLETED|scavenger|2023-05-22T01:14:02|2023-05-22T02:25:56|01:11:54|dcc-youlab-01|1|1|2500M||/hpc/group/donald/yl708/TopologyNet-2017/perturbations|
yl708|COMPLETED|scavenger|2023-05-22T01:17:54|2023-05-22T02:30:16|01:12:22|dcc-youlab-01|1|1|2500M||/hpc/group/donald/yl708/TopologyNet-2017/perturbations|
yl708|COMPLETED|scavenger|2023-05-22T01:18:26|2023-05-22T02:30:28|01:12:02|dcc-youlab-01|1|1|2500M||/hpc/group/donald/yl708/TopologyNet-2017/perturbations|
yl708|COMPLETED|scavenger|2023-05-22T01:20:03|2023-05-22T02:31:55|01:11:52|dcc-youlab-01|1|1|2500M||/hpc/group/donald/yl708/TopologyNet-2017/perturbations|
yl708|COMPLETED|scavenger|2023-05-22T01:21:09|2023-05-22T02:33:19|01:12:10|dcc-youlab-01|1|1|2500M||/hpc/group/donald/yl708/TopologyNet-2017/perturbations|
yl708|COMPLETED|scavenger|2023-05-22T01:24:54|2023-05-22T02:37:03|01:12:09|dcc-youlab-01|1|1|2500M||/hpc/group/donald/yl708/TopologyNet-2017/perturbations|
yl708|COMPLETED|scavenger|2023-05-22T01:24:54|2023-05-22T02:37:20|01:12:26|dcc-youlab-01|1|1|2500M||/hpc/group/donald/yl708/TopologyNet-2017/perturbations|
yl708|COMPLETED|scavenger|2023-05-22T01:25:27|2023-05-22T02:36:59|01:11:32|dcc-youlab-01|1|1|2500M||/hpc/group/donald/yl708/TopologyNet-2017/perturbations|
yl708|COMPLETED|scavenger|2023-05-22T01:26:31|2023-05-22T02:38:42|01:12:11|dcc-youlab-01|1|1|2500M||/hpc/group/donald/yl708/TopologyNet-2017/perturbations|
yl708|COMPLETED|scavenger|2023-05-22T01:28:11|2023-05-22T02:41:16|01:13:05|dcc-youlab-01|1|1|2500M||/hpc/group/donald/yl708/TopologyNet-2017/perturbations|
yl708|COMPLETED|scavenger|2023-05-22T01:29:48|2023-05-22T02:41:50|01:12:02|dcc-youlab-01|1|1|2500M||/hpc/group/donald/yl708/TopologyNet-2017/perturbations|
yl708|COMPLETED|scavenger|2023-05-22T01:34:11|2023-05-22T02:46:10|01:11:59|dcc-youlab-01|1|1|2500M||/hpc/group/donald/yl708/TopologyNet-2017/perturbations|
yl708|COMPLETED|scavenger|2023-05-22T01:34:43|2023-05-22T03:04:37|01:29:54|dcc-wychem-01|1|1|2500M||/hpc/group/donald/yl708/TopologyNet-2017/perturbations|
yl708|COMPLETED|scavenger|2023-05-22T01:33:06|2023-05-22T02:44:30|01:11:24|dcc-youlab-01|1|1|2500M||/hpc/group/donald/yl708/TopologyNet-2017/perturbations|
yl708|COMPLETED|scavenger|2023-05-22T01:37:27|2023-05-22T03:07:34|01:30:07|dcc-wychem-01|1|1|2500M||/hpc/group/donald/yl708/TopologyNet-2017/perturbations|
yl708|COMPLETED|scavenger|2023-05-22T01:42:19|2023-05-22T02:53:57|01:11:38|dcc-youlab-01|1|1|2500M||/hpc/group/donald/yl708/TopologyNet-2017/perturbations|
yl708|COMPLETED|scavenger|2023-05-22T01:43:27|2023-05-22T03:13:05|01:29:38|dcc-wychem-01|1|1|2500M||/hpc/group/donald/yl708/TopologyNet-2017/perturbations|
yl708|COMPLETED|scavenger|2023-05-22T01:44:00|2023-05-22T03:14:31|01:30:31|dcc-wychem-01|1|1|2500M||/hpc/group/donald/yl708/TopologyNet-2017/perturbations|
yl708|COMPLETED|scavenger|2023-05-22T01:48:21|2023-05-22T03:17:23|01:29:02|dcc-wychem-01|1|1|2500M||/hpc/group/donald/yl708/TopologyNet-2017/perturbations|
yl708|COMPLETED|scavenger|2023-05-22T01:51:05|2023-05-22T03:20:10|01:29:05|dcc-wychem-01|1|1|2500M||/hpc/group/donald/yl708/TopologyNet-2017/perturbations|
yl708|COMPLETED|scavenger|2023-05-22T01:54:21|2023-05-22T03:23:26|01:29:05|dcc-wychem-01|1|1|2500M||/hpc/group/donald/yl708/TopologyNet-2017/perturbations|
yl708|COMPLETED|scavenger|2023-05-22T01:54:21|2023-05-22T03:23:10|01:28:49|dcc-wychem-01|1|1|2500M||/hpc/group/donald/yl708/TopologyNet-2017/perturbations|
yl708|COMPLETED|scavenger|2023-05-22T02:00:55|2023-05-22T03:12:02|01:11:07|dcc-youlab-01|1|1|2500M||/hpc/group/donald/yl708/TopologyNet-2017/perturbations|
yl708|COMPLETED|scavenger|2023-05-22T02:17:42|2023-05-22T03:29:18|01:11:36|dcc-youlab-01|1|1|2500M||/hpc/group/donald/yl708/TopologyNet-2017/perturbations|
yl708|COMPLETED|scavenger|2023-05-22T02:23:12|2023-05-22T03:34:59|01:11:47|dcc-youlab-01|1|1|2500M||/hpc/group/donald/yl708/TopologyNet-2017/perturbations|
yl708|COMPLETED|scavenger|2023-05-22T02:34:41|2023-05-22T03:46:28|01:11:47|dcc-youlab-01|1|1|2500M||/hpc/group/donald/yl708/TopologyNet-2017/perturbations|
yl708|COMPLETED|scavenger|2023-05-22T02:35:14|2023-05-22T03:46:47|01:11:33|dcc-youlab-01|1|1|2500M||/hpc/group/donald/yl708/TopologyNet-2017/perturbations|
yl708|COMPLETED|scavenger|2023-05-22T02:39:03|2023-05-22T03:50:53|01:11:50|dcc-youlab-01|1|1|2500M||/hpc/group/donald/yl708/TopologyNet-2017/perturbations|
yl708|COMPLETED|scavenger|2023-05-22T02:50:02|2023-05-22T04:01:50|01:11:48|dcc-youlab-01|1|1|2500M||/hpc/group/donald/yl708/TopologyNet-2017/perturbations|
yl708|COMPLETED|scavenger|2023-05-22T02:46:10|2023-05-22T04:13:50|01:27:40|dcc-wychem-01|1|1|2500M||/hpc/group/donald/yl708/TopologyNet-2017/perturbations|
yl708|COMPLETED|scavenger|2023-05-22T02:51:09|2023-05-22T04:02:45|01:11:36|dcc-youlab-01|1|1|2500M||/hpc/group/donald/yl708/TopologyNet-2017/perturbations|
yl708|COMPLETED|scavenger|2023-05-22T02:51:41|2023-05-22T04:03:01|01:11:20|dcc-youlab-01|1|1|2500M||/hpc/group/donald/yl708/TopologyNet-2017/perturbations|
yl708|COMPLETED|scavenger|2023-05-22T02:49:30|2023-05-22T04:01:24|01:11:54|dcc-youlab-01|1|1|2500M||/hpc/group/donald/yl708/TopologyNet-2017/perturbations|
yl708|COMPLETED|scavenger|2023-05-22T02:58:50|2023-05-22T04:10:28|01:11:38|dcc-youlab-01|1|1|2500M||/hpc/group/donald/yl708/TopologyNet-2017/perturbations|
yl708|COMPLETED|scavenger|2023-05-22T03:06:27|2023-05-22T04:17:56|01:11:29|dcc-youlab-01|1|1|2500M||/hpc/group/donald/yl708/TopologyNet-2017/perturbations|
yl708|COMPLETED|scavenger|2023-05-22T03:07:02|2023-05-22T04:18:58|01:11:56|dcc-youlab-01|1|1|2500M||/hpc/group/donald/yl708/TopologyNet-2017/perturbations|
yl708|COMPLETED|scavenger|2023-05-22T03:11:54|2023-05-22T04:24:33|01:12:39|dcc-youlab-01|1|1|2500M||/hpc/group/donald/yl708/TopologyNet-2017/perturbations|
yl708|COMPLETED|scavenger|2023-05-22T03:09:44|2023-05-22T04:21:39|01:11:55|dcc-youlab-01|1|1|2500M||/hpc/group/donald/yl708/TopologyNet-2017/perturbations|
yl708|COMPLETED|scavenger|2023-05-22T03:11:22|2023-05-22T04:23:32|01:12:10|dcc-youlab-01|1|1|2500M||/hpc/group/donald/yl708/TopologyNet-2017/perturbations|
yl708|COMPLETED|scavenger|2023-05-22T03:20:02|2023-05-22T04:31:40|01:11:38|dcc-youlab-01|1|1|2500M||/hpc/group/donald/yl708/TopologyNet-2017/perturbations|
yl708|COMPLETED|scavenger|2023-05-22T03:19:30|2023-05-22T04:30:59|01:11:29|dcc-youlab-01|1|1|2500M||/hpc/group/donald/yl708/TopologyNet-2017/perturbations|
yl708|COMPLETED|scavenger|2023-05-22T03:29:10|2023-05-22T04:40:50|01:11:40|dcc-youlab-01|1|1|2500M||/hpc/group/donald/yl708/TopologyNet-2017/perturbations|
yl708|COMPLETED|scavenger|2023-05-22T03:30:15|2023-05-22T04:40:48|01:10:33|dcc-youlab-01|1|1|2500M||/hpc/group/donald/yl708/TopologyNet-2017/perturbations|
yl708|COMPLETED|scavenger|2023-05-22T03:39:26|2023-05-22T04:50:40|01:11:14|dcc-youlab-01|1|1|2500M||/hpc/group/donald/yl708/TopologyNet-2017/perturbations|
yl708|COMPLETED|scavenger|2023-05-22T03:41:37|2023-05-22T05:07:58|01:26:21|dcc-wychem-01|1|1|2500M||/hpc/group/donald/yl708/TopologyNet-2017/perturbations|
yl708|COMPLETED|scavenger|2023-05-22T03:41:37|2023-05-22T05:07:23|01:25:46|dcc-wychem-01|1|1|2500M||/hpc/group/donald/yl708/TopologyNet-2017/perturbations|
yl708|COMPLETED|scavenger|2023-05-22T03:42:09|2023-05-22T05:09:50|01:27:41|dcc-wychem-01|1|1|2500M||/hpc/group/donald/yl708/TopologyNet-2017/perturbations|
yl708|COMPLETED|scavenger|2023-05-22T03:45:57|2023-05-22T05:14:16|01:28:19|dcc-wychem-01|1|1|2500M||/hpc/group/donald/yl708/TopologyNet-2017/perturbations|
yl708|COMPLETED|scavenger|2023-05-22T04:04:51|2023-05-22T05:16:18|01:11:27|dcc-youlab-01|1|1|2500M||/hpc/group/donald/yl708/TopologyNet-2017/perturbations|
yl708|COMPLETED|scavenger|2023-05-22T04:05:24|2023-05-22T05:17:09|01:11:45|dcc-youlab-01|1|1|2500M||/hpc/group/donald/yl708/TopologyNet-2017/perturbations|
yl708|COMPLETED|scavenger|2023-05-22T04:04:19|2023-05-22T05:16:16|01:11:57|dcc-youlab-01|1|1|2500M||/hpc/group/donald/yl708/TopologyNet-2017/perturbations|
yl708|COMPLETED|scavenger|2023-05-22T04:02:42|2023-05-22T05:13:55|01:11:13|dcc-youlab-01|1|1|2500M||/hpc/group/donald/yl708/TopologyNet-2017/perturbations|
yl708|COMPLETED|scavenger|2023-05-22T04:14:35|2023-05-22T05:25:45|01:11:10|dcc-youlab-01|1|1|2500M||/hpc/group/donald/yl708/TopologyNet-2017/perturbations|
yl708|COMPLETED|scavenger|2023-05-22T04:30:15|2023-05-22T05:42:27|01:12:12|dcc-youlab-01|1|1|2500M||/hpc/group/donald/yl708/TopologyNet-2017/perturbations|
yl708|COMPLETED|scavenger|2023-05-22T04:30:15|2023-05-22T05:41:54|01:11:39|dcc-youlab-01|1|1|2500M||/hpc/group/donald/yl708/TopologyNet-2017/perturbations|
yl708|COMPLETED|scavenger|2023-05-22T04:34:35|2023-05-22T05:46:24|01:11:49|dcc-youlab-01|1|1|2500M||/hpc/group/donald/yl708/TopologyNet-2017/perturbations|
yl708|COMPLETED|scavenger|2023-05-22T04:40:33|2023-05-22T05:52:02|01:11:29|dcc-youlab-01|1|1|2500M||/hpc/group/donald/yl708/TopologyNet-2017/perturbations|
yl708|COMPLETED|scavenger|2023-05-22T04:49:10|2023-05-22T06:00:54|01:11:44|dcc-youlab-01|1|1|2500M||/hpc/group/donald/yl708/TopologyNet-2017/perturbations|
yl708|COMPLETED|scavenger|2023-05-22T04:50:48|2023-05-22T06:02:36|01:11:48|dcc-youlab-01|1|1|2500M||/hpc/group/donald/yl708/TopologyNet-2017/perturbations|
yl708|COMPLETED|scavenger|2023-05-22T04:50:48|2023-05-22T06:01:25|01:10:37|dcc-youlab-01|1|1|2500M||/hpc/group/donald/yl708/TopologyNet-2017/perturbations|
yl708|COMPLETED|scavenger|2023-05-22T05:05:51|2023-05-22T06:16:56|01:11:05|dcc-youlab-01|1|1|2500M||/hpc/group/donald/yl708/TopologyNet-2017/perturbations|
yl708|COMPLETED|scavenger|2023-05-22T05:07:27|2023-05-22T06:18:18|01:10:51|dcc-youlab-01|1|1|2500M||/hpc/group/donald/yl708/TopologyNet-2017/perturbations|
yl708|COMPLETED|scavenger|2023-05-22T05:15:08|2023-05-22T06:26:28|01:11:20|dcc-youlab-01|1|1|2500M||/hpc/group/donald/yl708/TopologyNet-2017/perturbations|
yl708|COMPLETED|scavenger|2023-05-22T05:22:06|2023-05-22T06:33:59|01:11:53|dcc-youlab-01|1|1|2500M||/hpc/group/donald/yl708/TopologyNet-2017/perturbations|
yl708|COMPLETED|scavenger|2023-05-22T05:22:06|2023-05-22T06:33:43|01:11:37|dcc-youlab-01|1|1|2500M||/hpc/group/donald/yl708/TopologyNet-2017/perturbations|
yl708|COMPLETED|scavenger|2023-05-22T05:23:44|2023-05-22T06:34:11|01:10:27|dcc-youlab-01|1|1|2500M||/hpc/group/donald/yl708/TopologyNet-2017/perturbations|
yl708|COMPLETED|scavenger|2023-05-22T05:23:11|2023-05-22T06:34:37|01:11:26|dcc-youlab-01|1|1|2500M||/hpc/group/donald/yl708/TopologyNet-2017/perturbations|
yl708|COMPLETED|scavenger|2023-05-22T05:35:36|2023-05-22T06:46:31|01:10:55|dcc-youlab-01|1|1|2500M||/hpc/group/donald/yl708/TopologyNet-2017/perturbations|
yl708|COMPLETED|scavenger|2023-05-22T05:32:55|2023-05-22T06:44:14|01:11:19|dcc-youlab-01|1|1|2500M||/hpc/group/donald/yl708/TopologyNet-2017/perturbations|
yl708|COMPLETED|scavenger|2023-05-22T05:53:22|2023-05-22T07:04:46|01:11:24|dcc-youlab-01|1|1|2500M||/hpc/group/donald/yl708/TopologyNet-2017/perturbations|
yl708|COMPLETED|scavenger|2023-05-22T05:59:53|2023-05-22T07:11:19|01:11:26|dcc-youlab-01|1|1|2500M||/hpc/group/donald/yl708/TopologyNet-2017/perturbations|
yl708|COMPLETED|scavenger|2023-05-22T06:01:31|2023-05-22T07:12:54|01:11:23|dcc-youlab-01|1|1|2500M||/hpc/group/donald/yl708/TopologyNet-2017/perturbations|
yl708|COMPLETED|scavenger|2023-05-22T06:21:53|2023-05-22T07:33:33|01:11:40|dcc-youlab-01|1|1|2500M||/hpc/group/donald/yl708/TopologyNet-2017/perturbations|
yl708|COMPLETED|scavenger|2023-05-22T06:21:53|2023-05-22T07:34:01|01:12:08|dcc-youlab-01|1|1|2500M||/hpc/group/donald/yl708/TopologyNet-2017/perturbations|
yl708|COMPLETED|scavenger|2023-05-22T06:24:33|2023-05-22T07:36:36|01:12:03|dcc-youlab-01|1|1|2500M||/hpc/group/donald/yl708/TopologyNet-2017/perturbations|
yl708|COMPLETED|scavenger|2023-05-22T06:27:15|2023-05-22T07:38:55|01:11:40|dcc-youlab-01|1|1|2500M||/hpc/group/donald/yl708/TopologyNet-2017/perturbations|
yl708|COMPLETED|scavenger|2023-05-22T06:48:49|2023-05-22T07:59:52|01:11:03|dcc-youlab-01|1|1|2500M||/hpc/group/donald/yl708/TopologyNet-2017/perturbations|
yl708|COMPLETED|scavenger|2023-05-22T06:54:43|2023-05-22T08:06:05|01:11:22|dcc-youlab-01|1|1|2500M||/hpc/group/donald/yl708/TopologyNet-2017/perturbations|
yl708|COMPLETED|scavenger|2023-05-22T07:01:15|2023-05-22T08:12:11|01:10:56|dcc-youlab-01|1|1|2500M||/hpc/group/donald/yl708/TopologyNet-2017/perturbations|
yl708|COMPLETED|scavenger|2023-05-22T06:58:00|2023-05-22T08:08:56|01:10:56|dcc-youlab-01|1|1|2500M||/hpc/group/donald/yl708/TopologyNet-2017/perturbations|
yl708|COMPLETED|scavenger|2023-05-22T07:03:25|2023-05-22T08:13:14|01:09:49|dcc-youlab-01|1|1|2500M||/hpc/group/donald/yl708/TopologyNet-2017/perturbations|
yl708|COMPLETED|scavenger|2023-05-22T07:09:57|2023-05-22T08:20:55|01:10:58|dcc-youlab-01|1|1|2500M||/hpc/group/donald/yl708/TopologyNet-2017/perturbations|
yl708|COMPLETED|scavenger|2023-05-22T07:09:57|2023-05-22T08:19:43|01:09:46|dcc-youlab-01|1|1|2500M||/hpc/group/donald/yl708/TopologyNet-2017/perturbations|
yl708|COMPLETED|scavenger|2023-05-22T07:15:54|2023-05-22T08:27:03|01:11:09|dcc-youlab-01|1|1|2500M||/hpc/group/donald/yl708/TopologyNet-2017/perturbations|
yl708|COMPLETED|scavenger|2023-05-22T07:18:05|2023-05-22T08:28:51|01:10:46|dcc-youlab-01|1|1|2500M||/hpc/group/donald/yl708/TopologyNet-2017/perturbations|
yl708|COMPLETED|scavenger|2023-05-22T08:05:10|2023-05-22T09:14:23|01:09:13|dcc-youlab-01|1|1|2500M||/hpc/group/donald/yl708/TopologyNet-2017/perturbations|
yl708|COMPLETED|scavenger|2023-05-22T08:05:10|2023-05-22T09:15:49|01:10:39|dcc-youlab-01|1|1|2500M||/hpc/group/donald/yl708/TopologyNet-2017/perturbations|
yl708|COMPLETED|scavenger|2023-05-22T08:28:15|2023-05-22T09:38:12|01:09:57|dcc-youlab-01|1|1|2500M||/hpc/group/donald/yl708/TopologyNet-2017/perturbations|
yl708|COMPLETED|scavenger|2023-05-22T08:32:02|2023-05-22T09:42:48|01:10:46|dcc-youlab-01|1|1|2500M||/hpc/group/donald/yl708/TopologyNet-2017/perturbations|
yl708|COMPLETED|scavenger|2023-05-22T08:33:08|2023-05-22T09:44:01|01:10:53|dcc-youlab-01|1|1|2500M||/hpc/group/donald/yl708/TopologyNet-2017/perturbations|
yl708|COMPLETED|scavenger|2023-05-22T08:47:05|2023-05-22T09:57:47|01:10:42|dcc-youlab-01|1|1|2500M||/hpc/group/donald/yl708/TopologyNet-2017/perturbations|
yl708|COMPLETED|scavenger|2023-05-22T09:09:10|2023-05-22T10:20:05|01:10:55|dcc-youlab-01|1|1|2500M||/hpc/group/donald/yl708/TopologyNet-2017/perturbations|
yl708|COMPLETED|scavenger|2023-05-22T09:15:50|2023-05-22T10:28:01|01:12:11|dcc-youlab-01|1|1|2500M||/hpc/group/donald/yl708/TopologyNet-2017/perturbations|
yl708|COMPLETED|scavenger|2023-05-22T09:15:50|2023-05-22T10:27:57|01:12:07|dcc-youlab-01|1|1|2500M||/hpc/group/donald/yl708/TopologyNet-2017/perturbations|
yl708|COMPLETED|scavenger|2023-05-22T09:15:50|2023-05-22T10:27:46|01:11:56|dcc-youlab-01|1|1|2500M||/hpc/group/donald/yl708/TopologyNet-2017/perturbations|
yl708|COMPLETED|scavenger|2023-05-22T09:15:50|2023-05-22T10:27:54|01:12:04|dcc-youlab-01|1|1|2500M||/hpc/group/donald/yl708/TopologyNet-2017/perturbations|
yl708|COMPLETED|scavenger|2023-05-22T09:15:50|2023-05-22T10:28:06|01:12:16|dcc-youlab-01|1|1|2500M||/hpc/group/donald/yl708/TopologyNet-2017/perturbations|
yl708|COMPLETED|scavenger|2023-05-22T09:15:50|2023-05-22T10:26:19|01:10:29|dcc-youlab-01|1|1|2500M||/hpc/group/donald/yl708/TopologyNet-2017/perturbations|
yl708|COMPLETED|scavenger|2023-05-22T09:23:56|2023-05-22T10:33:44|01:09:48|dcc-youlab-01|1|1|2500M||/hpc/group/donald/yl708/TopologyNet-2017/perturbations|
yl708|COMPLETED|scavenger|2023-05-22T09:23:56|2023-05-22T10:50:04|01:26:08|dcc-wychem-01|1|1|2500M||/hpc/group/donald/yl708/TopologyNet-2017/perturbations|
yl708|COMPLETED|scavenger|2023-05-22T09:32:38|2023-05-22T10:57:51|01:25:13|dcc-wychem-01|1|1|2500M||/hpc/group/donald/yl708/TopologyNet-2017/perturbations|
yl708|COMPLETED|scavenger|2023-05-22T09:43:57|2023-05-22T10:53:46|01:09:49|dcc-youlab-01|1|1|2500M||/hpc/group/donald/yl708/TopologyNet-2017/perturbations|
bl242|COMPLETED|scavenger|2023-05-22T03:20:35|2023-05-22T03:21:20|00:00:45|dcc-velmeshevlab-01|1|1|50G||/hpc/home/bl242|
kw297|COMPLETED|scavenger|2023-05-20T16:41:59|2023-05-21T16:41:20|23:59:21|dcc-rausherlab-02|1|2|8G||/hpc/group/ychenlab/DA|
kw297|COMPLETED|scavenger|2023-05-20T16:42:00|2023-05-22T14:46:17|1-22:04:17|dcc-adrc-01|1|2|8G||/hpc/group/ychenlab/DA|
kw297|COMPLETED|scavenger|2023-05-20T16:42:00|2023-05-22T14:08:59|1-21:26:59|dcc-adrc-01|1|2|8G||/hpc/group/ychenlab/DA|
kw297|COMPLETED|scavenger|2023-05-20T16:42:00|2023-05-21T15:29:36|22:47:36|dcc-aryalab-01|1|2|8G||/hpc/group/ychenlab/DA|
kw297|COMPLETED|scavenger|2023-05-20T16:42:00|2023-05-21T15:01:24|22:19:24|dcc-aryalab-01|1|2|8G||/hpc/group/ychenlab/DA|
kw297|COMPLETED|scavenger|2023-05-20T16:42:00|2023-05-21T15:02:00|22:20:00|dcc-aryalab-01|1|2|8G||/hpc/group/ychenlab/DA|
kw297|COMPLETED|scavenger|2023-05-20T16:42:00|2023-05-21T09:29:04|16:47:04|dcc-motesa-01|1|2|8G||/hpc/group/ychenlab/DA|
kw297|COMPLETED|scavenger|2023-05-20T16:42:00|2023-05-21T09:31:24|16:49:24|dcc-motesa-01|1|2|8G||/hpc/group/ychenlab/DA|
kw297|COMPLETED|scavenger|2023-05-20T16:42:00|2023-05-21T10:07:44|17:25:44|dcc-motesa-01|1|2|8G||/hpc/group/ychenlab/DA|
kw297|COMPLETED|scavenger|2023-05-20T16:42:00|2023-05-21T09:23:55|16:41:55|dcc-motesa-01|1|2|8G||/hpc/group/ychenlab/DA|
kw297|COMPLETED|scavenger|2023-05-20T16:42:00|2023-05-21T09:18:00|16:36:00|dcc-motesa-01|1|2|8G||/hpc/group/ychenlab/DA|
kw297|COMPLETED|scavenger|2023-05-20T16:42:00|2023-05-21T18:22:41|1-01:40:41|dcc-donglab-01|1|2|8G||/hpc/group/ychenlab/DA|
kw297|COMPLETED|scavenger|2023-05-20T16:42:00|2023-05-21T17:55:34|1-01:13:34|dcc-donglab-01|1|2|8G||/hpc/group/ychenlab/DA|
kw297|COMPLETED|scavenger|2023-05-20T16:42:00|2023-05-21T18:11:01|1-01:29:01|dcc-donglab-01|1|2|8G||/hpc/group/ychenlab/DA|
kw297|COMPLETED|scavenger|2023-05-20T16:42:00|2023-05-21T18:28:14|1-01:46:14|dcc-donglab-01|1|2|8G||/hpc/group/ychenlab/DA|
kw297|COMPLETED|scavenger|2023-05-20T16:42:00|2023-05-21T18:15:21|1-01:33:21|dcc-donglab-01|1|2|8G||/hpc/group/ychenlab/DA|
kw297|COMPLETED|scavenger|2023-05-20T16:42:01|2023-05-21T18:18:29|1-01:36:28|dcc-donglab-01|1|2|8G||/hpc/group/ychenlab/DA|
kw297|COMPLETED|scavenger|2023-05-20T16:42:01|2023-05-21T20:44:18|1-04:02:17|dcc-pfister-01|1|2|8G||/hpc/group/ychenlab/DA|
kw297|COMPLETED|scavenger|2023-05-20T16:42:01|2023-05-21T17:58:10|1-01:16:09|dcc-pfister-01|1|2|8G||/hpc/group/ychenlab/DA|
kw297|COMPLETED|scavenger|2023-05-20T16:42:01|2023-05-21T17:48:52|1-01:06:51|dcc-pfister-01|1|2|8G||/hpc/group/ychenlab/DA|
kw297|COMPLETED|scavenger|2023-05-20T16:42:01|2023-05-21T17:47:23|1-01:05:22|dcc-pfister-01|1|2|8G||/hpc/group/ychenlab/DA|
kw297|COMPLETED|scavenger|2023-05-20T16:42:01|2023-05-21T12:25:40|19:43:39|dcc-mainsahlab-01|1|2|8G||/hpc/group/ychenlab/DA|
kw297|COMPLETED|scavenger|2023-05-20T16:42:01|2023-05-21T11:23:30|18:41:29|dcc-mainsahlab-01|1|2|8G||/hpc/group/ychenlab/DA|
kw297|COMPLETED|scavenger|2023-05-20T16:42:01|2023-05-21T11:11:02|18:29:01|dcc-mainsahlab-01|1|2|8G||/hpc/group/ychenlab/DA|
smokeauth2-tst|COMPLETED|scavenger|2023-05-21T07:01:31|2023-05-21T07:01:33|00:00:02|dcc-youlab-01|1|1|2G||/hpc/home/smokeauth2-tst|
smokeauth2-tst|COMPLETED|scavenger|2023-05-21T07:01:35|2023-05-21T07:01:37|00:00:02|dcc-youlab-01|1|1|2G||/hpc/home/smokeauth2-tst|
smokeauth2-tst|COMPLETED|scavenger|2023-05-21T07:01:39|2023-05-21T07:01:41|00:00:02|dcc-youlab-01|1|1|2G||/hpc/home/smokeauth2-tst|
smokeauth2-tst|COMPLETED|scavenger|2023-05-21T07:01:43|2023-05-21T07:01:45|00:00:02|dcc-youlab-01|1|1|2G||/hpc/home/smokeauth2-tst|
smokeauth2-tst|COMPLETED|scavenger|2023-05-21T07:01:47|2023-05-21T07:01:49|00:00:02|dcc-youlab-01|1|1|2G||/hpc/home/smokeauth2-tst|
smokeauth2-tst|COMPLETED|scavenger|2023-05-21T07:11:34|2023-05-21T07:11:36|00:00:02|dcc-youlab-01|1|1|2G||/hpc/home/smokeauth2-tst|
smokeauth2-tst|COMPLETED|scavenger|2023-05-21T07:11:38|2023-05-21T07:11:41|00:00:03|dcc-youlab-01|1|1|2G||/hpc/home/smokeauth2-tst|
smokeauth2-tst|COMPLETED|scavenger|2023-05-21T07:11:46|2023-05-21T07:11:48|00:00:02|dcc-youlab-01|1|1|2G||/hpc/home/smokeauth2-tst|
smokeauth2-tst|COMPLETED|scavenger|2023-05-21T07:11:50|2023-05-21T07:11:52|00:00:02|dcc-youlab-01|1|1|2G||/hpc/home/smokeauth2-tst|
smokeauth2-tst|COMPLETED|scavenger|2023-05-21T07:11:54|2023-05-21T07:11:56|00:00:02|dcc-youlab-01|1|1|2G||/hpc/home/smokeauth2-tst|
smokeauth2-tst|COMPLETED|scavenger|2023-05-21T07:21:33|2023-05-21T07:21:36|00:00:03|dcc-youlab-01|1|1|2G||/hpc/home/smokeauth2-tst|
smokeauth2-tst|COMPLETED|scavenger|2023-05-21T07:21:41|2023-05-21T07:21:43|00:00:02|dcc-youlab-01|1|1|2G||/hpc/home/smokeauth2-tst|
smokeauth2-tst|COMPLETED|scavenger|2023-05-21T07:21:45|2023-05-21T07:21:47|00:00:02|dcc-youlab-01|1|1|2G||/hpc/home/smokeauth2-tst|
smokeauth2-tst|COMPLETED|scavenger|2023-05-21T07:21:49|2023-05-21T07:21:51|00:00:02|dcc-youlab-01|1|1|2G||/hpc/home/smokeauth2-tst|
smokeauth2-tst|COMPLETED|scavenger|2023-05-21T07:21:53|2023-05-21T07:21:55|00:00:02|dcc-youlab-01|1|1|2G||/hpc/home/smokeauth2-tst|
smokeauth2-tst|COMPLETED|scavenger|2023-05-21T07:31:31|2023-05-21T07:31:33|00:00:02|dcc-youlab-01|1|1|2G||/hpc/home/smokeauth2-tst|
smokeauth2-tst|COMPLETED|scavenger|2023-05-21T07:31:35|2023-05-21T07:31:38|00:00:03|dcc-youlab-01|1|1|2G||/hpc/home/smokeauth2-tst|
smokeauth2-tst|COMPLETED|scavenger|2023-05-21T07:31:43|2023-05-21T07:31:45|00:00:02|dcc-youlab-01|1|1|2G||/hpc/home/smokeauth2-tst|
smokeauth2-tst|COMPLETED|scavenger|2023-05-21T07:31:47|2023-05-21T07:31:49|00:00:02|dcc-youlab-01|1|1|2G||/hpc/home/smokeauth2-tst|
smokeauth2-tst|COMPLETED|scavenger|2023-05-21T07:31:51|2023-05-21T07:31:53|00:00:02|dcc-youlab-01|1|1|2G||/hpc/home/smokeauth2-tst|
smokeauth2-tst|COMPLETED|scavenger|2023-05-21T07:41:30|2023-05-21T07:41:32|00:00:02|dcc-youlab-01|1|1|2G||/hpc/home/smokeauth2-tst|
smokeauth2-tst|COMPLETED|scavenger|2023-05-21T07:41:34|2023-05-21T07:41:36|00:00:02|dcc-youlab-01|1|1|2G||/hpc/home/smokeauth2-tst|
smokeauth2-tst|COMPLETED|scavenger|2023-05-21T07:41:38|2023-05-21T07:41:40|00:00:02|dcc-youlab-01|1|1|2G||/hpc/home/smokeauth2-tst|
smokeauth2-tst|COMPLETED|scavenger|2023-05-21T07:41:42|2023-05-21T07:41:44|00:00:02|dcc-youlab-01|1|1|2G||/hpc/home/smokeauth2-tst|
smokeauth2-tst|COMPLETED|scavenger|2023-05-21T07:41:46|2023-05-21T07:41:48|00:00:02|dcc-youlab-01|1|1|2G||/hpc/home/smokeauth2-tst|
smokeauth2-tst|COMPLETED|scavenger|2023-05-21T07:51:30|2023-05-21T07:51:32|00:00:02|dcc-youlab-01|1|1|2G||/hpc/home/smokeauth2-tst|
smokeauth2-tst|COMPLETED|scavenger|2023-05-21T07:51:34|2023-05-21T07:51:36|00:00:02|dcc-youlab-01|1|1|2G||/hpc/home/smokeauth2-tst|
smokeauth2-tst|COMPLETED|scavenger|2023-05-21T07:51:38|2023-05-21T07:51:40|00:00:02|dcc-youlab-01|1|1|2G||/hpc/home/smokeauth2-tst|
smokeauth2-tst|COMPLETED|scavenger|2023-05-21T07:51:42|2023-05-21T07:51:45|00:00:03|dcc-youlab-01|1|1|2G||/hpc/home/smokeauth2-tst|
smokeauth2-tst|COMPLETED|scavenger|2023-05-21T07:51:46|2023-05-21T07:51:48|00:00:02|dcc-youlab-01|1|1|2G||/hpc/home/smokeauth2-tst|
