hk288|COMPLETED|scavenger|2023-05-25T20:19:14|2023-05-31T15:46:23|5-19:27:09|dcc-cagpm-02|1|40|80G||/hpc/group/mastatlab/hk288/code_hp_paral|
cjp47|COMPLETED|scavenger|2023-05-27T14:01:25|2023-06-04T10:11:24|7-20:09:59|dcc-youlab-01|1|1|64G||/hpc/group/bio1/cyanolichen_holobiome|
cjp47|COMPLETED|scavenger|2023-05-27T14:01:25|2023-06-03T21:09:30|7-07:08:05|dcc-youlab-01|1|1|64G||/hpc/group/bio1/cyanolichen_holobiome|
jdw91|COMPLETED|scavenger|2023-05-29T13:18:06|2023-05-31T11:07:46|1-21:49:40|dcc-pfister-01|1|1|1000M||/hpc/home/jdw91/Work/RLRDS/Final_Branching_Models|
jdw91|COMPLETED|scavenger|2023-05-29T13:18:10|2023-05-31T16:18:11|2-03:00:01|dcc-pbenfeylab-01|1|1|1000M||/hpc/home/jdw91/Work/RLRDS/Final_Branching_Models|
jdw91|COMPLETED|scavenger|2023-05-29T13:18:10|2023-05-31T09:02:35|1-19:44:25|dcc-pbenfeylab-01|1|1|1000M||/hpc/home/jdw91/Work/RLRDS/Final_Branching_Models|
jdw91|COMPLETED|scavenger|2023-05-29T13:18:10|2023-05-31T07:25:19|1-18:07:09|dcc-pbenfeylab-01|1|1|1000M||/hpc/home/jdw91/Work/RLRDS/Final_Branching_Models|
jdw91|COMPLETED|scavenger|2023-05-29T13:18:10|2023-05-31T15:05:38|2-01:47:28|dcc-pbenfeylab-01|1|1|1000M||/hpc/home/jdw91/Work/RLRDS/Final_Branching_Models|
jdw91|COMPLETED|scavenger|2023-05-29T13:18:10|2023-05-31T09:03:55|1-19:45:45|dcc-pbenfeylab-01|1|1|1000M||/hpc/home/jdw91/Work/RLRDS/Final_Branching_Models|
jdw91|COMPLETED|scavenger|2023-05-29T13:18:10|2023-05-31T16:46:35|2-03:28:25|dcc-pbenfeylab-01|1|1|1000M||/hpc/home/jdw91/Work/RLRDS/Final_Branching_Models|
jdw91|COMPLETED|scavenger|2023-05-29T13:18:10|2023-05-31T10:03:14|1-20:45:04|dcc-pbenfeylab-01|1|1|1000M||/hpc/home/jdw91/Work/RLRDS/Final_Branching_Models|
jdw91|COMPLETED|scavenger|2023-05-29T13:18:10|2023-06-01T10:08:40|2-20:50:30|dcc-pbenfeylab-01|1|1|1000M||/hpc/home/jdw91/Work/RLRDS/Final_Branching_Models|
jdw91|COMPLETED|scavenger|2023-05-29T13:18:11|2023-05-31T10:07:38|1-20:49:27|dcc-noor-02|1|1|1000M||/hpc/home/jdw91/Work/RLRDS/Final_Branching_Models|
jdw91|COMPLETED|scavenger|2023-05-29T13:18:11|2023-05-31T22:13:52|2-08:55:41|dcc-noor-02|1|1|1000M||/hpc/home/jdw91/Work/RLRDS/Final_Branching_Models|
jdw91|COMPLETED|scavenger|2023-05-29T13:18:11|2023-05-31T20:13:17|2-06:55:06|dcc-noor-02|1|1|1000M||/hpc/home/jdw91/Work/RLRDS/Final_Branching_Models|
jdw91|COMPLETED|scavenger|2023-05-29T13:18:11|2023-05-31T06:44:22|1-17:26:11|dcc-noor-02|1|1|1000M||/hpc/home/jdw91/Work/RLRDS/Final_Branching_Models|
jdw91|COMPLETED|scavenger|2023-05-29T13:18:11|2023-05-31T22:37:28|2-09:19:17|dcc-noor-02|1|1|1000M||/hpc/home/jdw91/Work/RLRDS/Final_Branching_Models|
jdw91|COMPLETED|scavenger|2023-05-29T13:18:11|2023-05-31T22:44:11|2-09:26:00|dcc-noor-02|1|1|1000M||/hpc/home/jdw91/Work/RLRDS/Final_Branching_Models|
jdw91|COMPLETED|scavenger|2023-05-29T13:18:11|2023-05-31T14:06:24|2-00:48:13|dcc-noor-02|1|1|1000M||/hpc/home/jdw91/Work/RLRDS/Final_Branching_Models|
jdw91|COMPLETED|scavenger|2023-05-29T13:18:11|2023-05-31T19:12:10|2-05:53:59|dcc-noor-02|1|1|1000M||/hpc/home/jdw91/Work/RLRDS/Final_Branching_Models|
jdw91|COMPLETED|scavenger|2023-05-29T13:18:11|2023-06-01T05:00:10|2-15:41:59|dcc-noor-02|1|1|1000M||/hpc/home/jdw91/Work/RLRDS/Final_Branching_Models|
jdw91|COMPLETED|scavenger|2023-05-29T13:18:11|2023-05-31T16:25:16|2-03:07:05|dcc-noor-02|1|1|1000M||/hpc/home/jdw91/Work/RLRDS/Final_Branching_Models|
jdw91|COMPLETED|scavenger|2023-05-29T13:18:11|2023-05-31T09:54:33|1-20:36:22|dcc-noor-02|1|1|1000M||/hpc/home/jdw91/Work/RLRDS/Final_Branching_Models|
jdw91|COMPLETED|scavenger|2023-05-29T13:18:11|2023-05-31T17:06:34|2-03:48:23|dcc-noor-02|1|1|1000M||/hpc/home/jdw91/Work/RLRDS/Final_Branching_Models|
jdw91|COMPLETED|scavenger|2023-05-29T13:18:11|2023-06-01T03:24:47|2-14:06:36|dcc-noor-02|1|1|1000M||/hpc/home/jdw91/Work/RLRDS/Final_Branching_Models|
jdw91|COMPLETED|scavenger|2023-05-29T13:18:11|2023-05-31T16:42:07|2-03:23:56|dcc-noor-02|1|1|1000M||/hpc/home/jdw91/Work/RLRDS/Final_Branching_Models|
jdw91|COMPLETED|scavenger|2023-05-29T13:18:11|2023-06-01T02:35:13|2-13:17:02|dcc-noor-02|1|1|1000M||/hpc/home/jdw91/Work/RLRDS/Final_Branching_Models|
jdw91|COMPLETED|scavenger|2023-05-29T13:18:11|2023-05-31T18:14:13|2-04:56:02|dcc-noor-02|1|1|1000M||/hpc/home/jdw91/Work/RLRDS/Final_Branching_Models|
jdw91|COMPLETED|scavenger|2023-05-29T13:18:11|2023-05-31T12:55:35|1-23:37:24|dcc-noor-02|1|1|1000M||/hpc/home/jdw91/Work/RLRDS/Final_Branching_Models|
jdw91|COMPLETED|scavenger|2023-05-29T13:18:11|2023-05-31T08:08:32|1-18:50:21|dcc-noor-02|1|1|1000M||/hpc/home/jdw91/Work/RLRDS/Final_Branching_Models|
jdw91|COMPLETED|scavenger|2023-05-29T13:18:11|2023-06-01T05:15:51|2-15:57:40|dcc-noor-02|1|1|1000M||/hpc/home/jdw91/Work/RLRDS/Final_Branching_Models|
jdw91|COMPLETED|scavenger|2023-05-29T13:18:11|2023-05-31T13:31:22|2-00:13:11|dcc-noor-02|1|1|1000M||/hpc/home/jdw91/Work/RLRDS/Final_Branching_Models|
jdw91|COMPLETED|scavenger|2023-05-29T13:18:11|2023-06-01T01:55:53|2-12:37:42|dcc-noor-02|1|1|1000M||/hpc/home/jdw91/Work/RLRDS/Final_Branching_Models|
jdw91|COMPLETED|scavenger|2023-05-29T13:18:11|2023-05-31T16:08:09|2-02:49:58|dcc-noor-02|1|1|1000M||/hpc/home/jdw91/Work/RLRDS/Final_Branching_Models|
jdw91|COMPLETED|scavenger|2023-05-29T13:18:11|2023-05-31T17:52:35|2-04:34:24|dcc-noor-02|1|1|1000M||/hpc/home/jdw91/Work/RLRDS/Final_Branching_Models|
jdw91|COMPLETED|scavenger|2023-05-29T13:18:11|2023-05-31T09:38:41|1-20:20:30|dcc-noor-02|1|1|1000M||/hpc/home/jdw91/Work/RLRDS/Final_Branching_Models|
jdw91|COMPLETED|scavenger|2023-05-29T13:18:11|2023-05-31T12:56:43|1-23:38:32|dcc-noor-02|1|1|1000M||/hpc/home/jdw91/Work/RLRDS/Final_Branching_Models|
jdw91|COMPLETED|scavenger|2023-05-29T13:18:11|2023-06-01T01:02:56|2-11:44:45|dcc-noor-02|1|1|1000M||/hpc/home/jdw91/Work/RLRDS/Final_Branching_Models|
jdw91|COMPLETED|scavenger|2023-05-29T13:18:11|2023-05-31T14:53:24|2-01:35:13|dcc-noor-02|1|1|1000M||/hpc/home/jdw91/Work/RLRDS/Final_Branching_Models|
jdw91|COMPLETED|scavenger|2023-05-29T13:18:11|2023-05-31T09:13:13|1-19:55:02|dcc-noor-02|1|1|1000M||/hpc/home/jdw91/Work/RLRDS/Final_Branching_Models|
jdw91|COMPLETED|scavenger|2023-05-29T13:18:11|2023-05-31T07:32:32|1-18:14:21|dcc-noor-02|1|1|1000M||/hpc/home/jdw91/Work/RLRDS/Final_Branching_Models|
jdw91|COMPLETED|scavenger|2023-05-29T13:18:12|2023-05-31T12:12:34|1-22:54:22|dcc-noor-02|1|1|1000M||/hpc/home/jdw91/Work/RLRDS/Final_Branching_Models|
jdw91|COMPLETED|scavenger|2023-05-29T13:18:12|2023-05-31T23:52:57|2-10:34:45|dcc-noor-02|1|1|1000M||/hpc/home/jdw91/Work/RLRDS/Final_Branching_Models|
jdw91|COMPLETED|scavenger|2023-05-29T13:18:12|2023-05-31T13:41:32|2-00:23:20|dcc-noor-02|1|1|1000M||/hpc/home/jdw91/Work/RLRDS/Final_Branching_Models|
jdw91|COMPLETED|scavenger|2023-05-29T13:18:12|2023-05-31T20:59:20|2-07:41:08|dcc-noor-02|1|1|1000M||/hpc/home/jdw91/Work/RLRDS/Final_Branching_Models|
jdw91|COMPLETED|scavenger|2023-05-29T13:18:12|2023-05-31T21:26:07|2-08:07:55|dcc-noor-02|1|1|1000M||/hpc/home/jdw91/Work/RLRDS/Final_Branching_Models|
jdw91|COMPLETED|scavenger|2023-05-29T13:18:12|2023-06-01T03:30:05|2-14:11:53|dcc-noor-02|1|1|1000M||/hpc/home/jdw91/Work/RLRDS/Final_Branching_Models|
jdw91|COMPLETED|scavenger|2023-05-29T13:18:12|2023-05-31T08:51:58|1-19:33:46|dcc-noor-02|1|1|1000M||/hpc/home/jdw91/Work/RLRDS/Final_Branching_Models|
jdw91|COMPLETED|scavenger|2023-05-29T13:18:12|2023-05-31T23:00:15|2-09:42:03|dcc-noor-02|1|1|1000M||/hpc/home/jdw91/Work/RLRDS/Final_Branching_Models|
jdw91|COMPLETED|scavenger|2023-05-29T13:18:12|2023-05-31T07:26:05|1-18:07:53|dcc-noor-02|1|1|1000M||/hpc/home/jdw91/Work/RLRDS/Final_Branching_Models|
jdw91|COMPLETED|scavenger|2023-05-29T13:18:12|2023-05-31T12:15:39|1-22:57:27|dcc-noor-02|1|1|1000M||/hpc/home/jdw91/Work/RLRDS/Final_Branching_Models|
jdw91|COMPLETED|scavenger|2023-05-29T13:18:12|2023-05-31T11:57:23|1-22:39:11|dcc-noor-02|1|1|1000M||/hpc/home/jdw91/Work/RLRDS/Final_Branching_Models|
jdw91|COMPLETED|scavenger|2023-05-29T13:18:12|2023-05-31T23:33:56|2-10:15:44|dcc-noor-01|1|1|1000M||/hpc/home/jdw91/Work/RLRDS/Final_Branching_Models|
jdw91|COMPLETED|scavenger|2023-05-29T13:18:12|2023-06-01T07:31:00|2-18:12:48|dcc-noor-01|1|1|1000M||/hpc/home/jdw91/Work/RLRDS/Final_Branching_Models|
jdw91|COMPLETED|scavenger|2023-05-29T13:18:12|2023-05-31T09:23:42|1-20:05:30|dcc-noor-01|1|1|1000M||/hpc/home/jdw91/Work/RLRDS/Final_Branching_Models|
jdw91|COMPLETED|scavenger|2023-05-29T13:18:12|2023-05-31T07:41:20|1-18:23:08|dcc-noor-01|1|1|1000M||/hpc/home/jdw91/Work/RLRDS/Final_Branching_Models|
jdw91|COMPLETED|scavenger|2023-05-29T13:18:12|2023-05-31T19:53:02|2-06:34:50|dcc-noor-01|1|1|1000M||/hpc/home/jdw91/Work/RLRDS/Final_Branching_Models|
jdw91|COMPLETED|scavenger|2023-05-29T13:18:12|2023-05-31T19:15:34|2-05:57:22|dcc-noor-01|1|1|1000M||/hpc/home/jdw91/Work/RLRDS/Final_Branching_Models|
jdw91|COMPLETED|scavenger|2023-05-29T13:18:12|2023-05-31T21:39:03|2-08:20:51|dcc-noor-01|1|1|1000M||/hpc/home/jdw91/Work/RLRDS/Final_Branching_Models|
jdw91|COMPLETED|scavenger|2023-05-29T13:18:12|2023-05-31T21:58:03|2-08:39:51|dcc-noor-01|1|1|1000M||/hpc/home/jdw91/Work/RLRDS/Final_Branching_Models|
jdw91|COMPLETED|scavenger|2023-05-29T13:18:12|2023-05-31T18:01:22|2-04:43:10|dcc-noor-01|1|1|1000M||/hpc/home/jdw91/Work/RLRDS/Final_Branching_Models|
jdw91|COMPLETED|scavenger|2023-05-29T13:18:12|2023-05-31T16:52:46|2-03:34:34|dcc-noor-01|1|1|1000M||/hpc/home/jdw91/Work/RLRDS/Final_Branching_Models|
jdw91|COMPLETED|scavenger|2023-05-29T13:18:12|2023-05-31T17:52:28|2-04:34:16|dcc-noor-01|1|1|1000M||/hpc/home/jdw91/Work/RLRDS/Final_Branching_Models|
jdw91|COMPLETED|scavenger|2023-05-29T13:18:12|2023-05-31T18:44:33|2-05:26:21|dcc-noor-01|1|1|1000M||/hpc/home/jdw91/Work/RLRDS/Final_Branching_Models|
jdw91|COMPLETED|scavenger|2023-05-29T13:18:12|2023-05-31T08:08:40|1-18:50:28|dcc-noor-01|1|1|1000M||/hpc/home/jdw91/Work/RLRDS/Final_Branching_Models|
jdw91|COMPLETED|scavenger|2023-05-29T13:18:12|2023-05-31T19:17:09|2-05:58:57|dcc-noor-01|1|1|1000M||/hpc/home/jdw91/Work/RLRDS/Final_Branching_Models|
jdw91|COMPLETED|scavenger|2023-05-29T13:18:12|2023-05-31T12:28:37|1-23:10:25|dcc-noor-01|1|1|1000M||/hpc/home/jdw91/Work/RLRDS/Final_Branching_Models|
jdw91|COMPLETED|scavenger|2023-05-29T13:18:12|2023-06-01T06:09:05|2-16:50:53|dcc-noor-01|1|1|1000M||/hpc/home/jdw91/Work/RLRDS/Final_Branching_Models|
jdw91|COMPLETED|scavenger|2023-05-29T13:18:12|2023-05-31T13:02:00|1-23:43:48|dcc-noor-01|1|1|1000M||/hpc/home/jdw91/Work/RLRDS/Final_Branching_Models|
jdw91|COMPLETED|scavenger|2023-05-29T13:18:12|2023-06-01T05:18:30|2-16:00:18|dcc-noor-01|1|1|1000M||/hpc/home/jdw91/Work/RLRDS/Final_Branching_Models|
jdw91|COMPLETED|scavenger|2023-05-29T13:18:12|2023-06-01T00:11:49|2-10:53:37|dcc-noor-01|1|1|1000M||/hpc/home/jdw91/Work/RLRDS/Final_Branching_Models|
jdw91|COMPLETED|scavenger|2023-05-29T13:18:12|2023-05-31T10:13:58|1-20:55:46|dcc-noor-01|1|1|1000M||/hpc/home/jdw91/Work/RLRDS/Final_Branching_Models|
jdw91|COMPLETED|scavenger|2023-05-29T13:18:12|2023-05-31T09:25:03|1-20:06:51|dcc-noor-01|1|1|1000M||/hpc/home/jdw91/Work/RLRDS/Final_Branching_Models|
jdw91|COMPLETED|scavenger|2023-05-29T13:18:12|2023-05-31T08:54:50|1-19:36:38|dcc-noor-01|1|1|1000M||/hpc/home/jdw91/Work/RLRDS/Final_Branching_Models|
jdw91|COMPLETED|scavenger|2023-05-29T13:18:12|2023-05-31T08:53:24|1-19:35:12|dcc-noor-01|1|1|1000M||/hpc/home/jdw91/Work/RLRDS/Final_Branching_Models|
jdw91|COMPLETED|scavenger|2023-05-29T13:18:12|2023-05-31T12:51:16|1-23:33:04|dcc-noor-01|1|1|1000M||/hpc/home/jdw91/Work/RLRDS/Final_Branching_Models|
jdw91|COMPLETED|scavenger|2023-05-29T13:18:12|2023-05-31T15:48:09|2-02:29:57|dcc-noor-01|1|1|1000M||/hpc/home/jdw91/Work/RLRDS/Final_Branching_Models|
jdw91|COMPLETED|scavenger|2023-05-29T13:18:12|2023-05-31T22:09:38|2-08:51:26|dcc-noor-01|1|1|1000M||/hpc/home/jdw91/Work/RLRDS/Final_Branching_Models|
jdw91|COMPLETED|scavenger|2023-05-29T13:18:12|2023-05-31T09:43:02|1-20:24:50|dcc-noor-01|1|1|1000M||/hpc/home/jdw91/Work/RLRDS/Final_Branching_Models|
jdw91|COMPLETED|scavenger|2023-05-29T13:18:12|2023-05-31T12:02:01|1-22:43:49|dcc-noor-01|1|1|1000M||/hpc/home/jdw91/Work/RLRDS/Final_Branching_Models|
jdw91|COMPLETED|scavenger|2023-05-29T13:18:12|2023-05-31T08:50:45|1-19:32:33|dcc-noor-01|1|1|1000M||/hpc/home/jdw91/Work/RLRDS/Final_Branching_Models|
jdw91|COMPLETED|scavenger|2023-05-29T13:18:12|2023-05-31T11:53:53|1-22:35:41|dcc-noor-01|1|1|1000M||/hpc/home/jdw91/Work/RLRDS/Final_Branching_Models|
jdw91|COMPLETED|scavenger|2023-05-29T13:18:12|2023-05-31T06:21:27|1-17:03:15|dcc-noor-01|1|1|1000M||/hpc/home/jdw91/Work/RLRDS/Final_Branching_Models|
jdw91|COMPLETED|scavenger|2023-05-29T13:18:13|2023-05-31T21:19:31|2-08:01:18|dcc-noor-01|1|1|1000M||/hpc/home/jdw91/Work/RLRDS/Final_Branching_Models|
jdw91|COMPLETED|scavenger|2023-05-29T13:18:19|2023-06-01T07:58:49|2-18:40:30|dcc-mainsahlab-01|1|1|1000M||/hpc/home/jdw91/Work/RLRDS/Final_Branching_Models|
jdw91|COMPLETED|scavenger|2023-05-29T13:18:19|2023-05-31T10:48:09|1-21:29:50|dcc-mainsahlab-01|1|1|1000M||/hpc/home/jdw91/Work/RLRDS/Final_Branching_Models|
jdw91|COMPLETED|scavenger|2023-05-29T13:18:19|2023-05-31T15:07:46|2-01:49:27|dcc-mainsahlab-01|1|1|1000M||/hpc/home/jdw91/Work/RLRDS/Final_Branching_Models|
jdw91|COMPLETED|scavenger|2023-05-29T13:18:19|2023-05-31T21:27:30|2-08:09:11|dcc-mainsahlab-01|1|1|1000M||/hpc/home/jdw91/Work/RLRDS/Final_Branching_Models|
jdw91|COMPLETED|scavenger|2023-05-29T13:18:19|2023-05-31T07:52:29|1-18:34:10|dcc-mainsahlab-01|1|1|1000M||/hpc/home/jdw91/Work/RLRDS/Final_Branching_Models|
jdw91|COMPLETED|scavenger|2023-05-29T13:18:19|2023-05-31T16:49:04|2-03:30:45|dcc-mainsahlab-01|1|1|1000M||/hpc/home/jdw91/Work/RLRDS/Final_Branching_Models|
jdw91|COMPLETED|scavenger|2023-05-29T13:18:19|2023-05-31T18:44:31|2-05:26:12|dcc-mainsahlab-01|1|1|1000M||/hpc/home/jdw91/Work/RLRDS/Final_Branching_Models|
jdw91|COMPLETED|scavenger|2023-05-29T13:18:20|2023-05-31T08:58:09|1-19:39:49|dcc-mainsahlab-01|1|1|1000M||/hpc/home/jdw91/Work/RLRDS/Final_Branching_Models|
jdw91|COMPLETED|scavenger|2023-05-29T13:18:20|2023-05-31T16:29:38|2-03:11:18|dcc-mainsahlab-01|1|1|1000M||/hpc/home/jdw91/Work/RLRDS/Final_Branching_Models|
jdw91|COMPLETED|scavenger|2023-05-29T13:18:20|2023-05-31T06:25:53|1-17:07:33|dcc-mainsahlab-01|1|1|1000M||/hpc/home/jdw91/Work/RLRDS/Final_Branching_Models|
jdw91|COMPLETED|scavenger|2023-05-29T13:18:20|2023-05-31T09:07:02|1-19:48:42|dcc-kirschlab-01|1|1|1000M||/hpc/home/jdw91/Work/RLRDS/Final_Branching_Models|
jdw91|COMPLETED|scavenger|2023-05-29T13:18:20|2023-05-31T10:06:28|1-20:48:08|dcc-kirschlab-01|1|1|1000M||/hpc/home/jdw91/Work/RLRDS/Final_Branching_Models|
jdw91|COMPLETED|scavenger|2023-05-29T13:18:20|2023-05-31T08:13:34|1-18:55:14|dcc-kirschlab-01|1|1|1000M||/hpc/home/jdw91/Work/RLRDS/Final_Branching_Models|
jdw91|COMPLETED|scavenger|2023-05-29T13:18:20|2023-05-31T08:47:39|1-19:29:19|dcc-kirschlab-01|1|1|1000M||/hpc/home/jdw91/Work/RLRDS/Final_Branching_Models|
jdw91|COMPLETED|scavenger|2023-05-29T13:18:20|2023-05-31T08:16:41|1-18:58:21|dcc-kirschlab-01|1|1|1000M||/hpc/home/jdw91/Work/RLRDS/Final_Branching_Models|
jdw91|COMPLETED|scavenger|2023-05-29T13:18:20|2023-05-31T07:15:28|1-17:57:08|dcc-kirschlab-01|1|1|1000M||/hpc/home/jdw91/Work/RLRDS/Final_Branching_Models|
jdw91|COMPLETED|scavenger|2023-05-29T13:18:20|2023-05-31T06:53:50|1-17:35:30|dcc-kirschlab-01|1|1|1000M||/hpc/home/jdw91/Work/RLRDS/Final_Branching_Models|
jdw91|COMPLETED|scavenger|2023-05-29T13:18:26|2023-05-31T06:29:45|1-17:11:19|dcc-kirschlab-01|1|1|1000M||/hpc/home/jdw91/Work/RLRDS/Final_Branching_Models|
jdw91|COMPLETED|scavenger|2023-05-29T13:18:26|2023-05-31T07:39:29|1-18:21:03|dcc-kirschlab-01|1|1|1000M||/hpc/home/jdw91/Work/RLRDS/Final_Branching_Models|
jdw91|COMPLETED|scavenger|2023-05-29T13:18:26|2023-05-31T06:33:26|1-17:15:00|dcc-kirschlab-01|1|1|1000M||/hpc/home/jdw91/Work/RLRDS/Final_Branching_Models|
jdw91|COMPLETED|scavenger|2023-05-29T13:18:26|2023-05-31T07:17:58|1-17:59:32|dcc-kirschlab-01|1|1|1000M||/hpc/home/jdw91/Work/RLRDS/Final_Branching_Models|
jdw91|COMPLETED|scavenger|2023-05-29T13:18:26|2023-05-31T06:34:09|1-17:15:43|dcc-kirschlab-01|1|1|1000M||/hpc/home/jdw91/Work/RLRDS/Final_Branching_Models|
jdw91|COMPLETED|scavenger|2023-05-29T13:18:26|2023-05-31T07:11:03|1-17:52:37|dcc-kirschlab-01|1|1|1000M||/hpc/home/jdw91/Work/RLRDS/Final_Branching_Models|
jdw91|COMPLETED|scavenger|2023-05-29T13:18:26|2023-05-31T08:26:18|1-19:07:52|dcc-kirschlab-01|1|1|1000M||/hpc/home/jdw91/Work/RLRDS/Final_Branching_Models|
jdw91|COMPLETED|scavenger|2023-05-29T13:18:26|2023-05-31T08:52:55|1-19:34:29|dcc-kirschlab-01|1|1|1000M||/hpc/home/jdw91/Work/RLRDS/Final_Branching_Models|
jdw91|COMPLETED|scavenger|2023-05-29T13:18:26|2023-05-31T08:48:34|1-19:30:08|dcc-kirschlab-01|1|1|1000M||/hpc/home/jdw91/Work/RLRDS/Final_Branching_Models|
jdw91|COMPLETED|scavenger|2023-05-29T13:18:26|2023-05-31T08:14:13|1-18:55:47|dcc-kirschlab-01|1|1|1000M||/hpc/home/jdw91/Work/RLRDS/Final_Branching_Models|
jdw91|COMPLETED|scavenger|2023-05-29T13:18:26|2023-05-31T08:25:00|1-19:06:34|dcc-kirschlab-01|1|1|1000M||/hpc/home/jdw91/Work/RLRDS/Final_Branching_Models|
jdw91|COMPLETED|scavenger|2023-05-29T13:18:26|2023-05-31T06:11:59|1-16:53:33|dcc-kirschlab-01|1|1|1000M||/hpc/home/jdw91/Work/RLRDS/Final_Branching_Models|
jdw91|COMPLETED|scavenger|2023-05-29T13:18:26|2023-05-31T09:51:18|1-20:32:52|dcc-kirschlab-01|1|1|1000M||/hpc/home/jdw91/Work/RLRDS/Final_Branching_Models|
jdw91|COMPLETED|scavenger|2023-05-29T13:18:26|2023-05-31T09:04:49|1-19:46:23|dcc-kirschlab-01|1|1|1000M||/hpc/home/jdw91/Work/RLRDS/Final_Branching_Models|
jdw91|COMPLETED|scavenger|2023-05-29T13:18:26|2023-05-31T11:00:36|1-21:42:10|dcc-hulab-05|1|1|1000M||/hpc/home/jdw91/Work/RLRDS/Final_Branching_Models|
jdw91|COMPLETED|scavenger|2023-05-29T13:18:26|2023-06-01T07:16:32|2-17:58:06|dcc-hulab-05|1|1|1000M||/hpc/home/jdw91/Work/RLRDS/Final_Branching_Models|
jdw91|COMPLETED|scavenger|2023-05-29T13:18:26|2023-05-31T13:57:52|2-00:39:26|dcc-hulab-05|1|1|1000M||/hpc/home/jdw91/Work/RLRDS/Final_Branching_Models|
jdw91|COMPLETED|scavenger|2023-05-29T13:18:26|2023-05-31T06:48:11|1-17:29:45|dcc-hulab-05|1|1|1000M||/hpc/home/jdw91/Work/RLRDS/Final_Branching_Models|
jdw91|COMPLETED|scavenger|2023-05-29T13:18:27|2023-05-31T12:06:02|1-22:47:35|dcc-hulab-05|1|1|1000M||/hpc/home/jdw91/Work/RLRDS/Final_Branching_Models|
jdw91|COMPLETED|scavenger|2023-05-29T13:18:27|2023-05-31T06:04:36|1-16:46:09|dcc-hulab-05|1|1|1000M||/hpc/home/jdw91/Work/RLRDS/Final_Branching_Models|
jdw91|COMPLETED|scavenger|2023-05-29T13:18:27|2023-05-31T15:03:15|2-01:44:48|dcc-hulab-05|1|1|1000M||/hpc/home/jdw91/Work/RLRDS/Final_Branching_Models|
jdw91|COMPLETED|scavenger|2023-05-29T13:18:27|2023-05-31T12:05:35|1-22:47:08|dcc-hulab-05|1|1|1000M||/hpc/home/jdw91/Work/RLRDS/Final_Branching_Models|
jdw91|COMPLETED|scavenger|2023-05-29T13:18:27|2023-05-31T21:36:28|2-08:18:01|dcc-hulab-05|1|1|1000M||/hpc/home/jdw91/Work/RLRDS/Final_Branching_Models|
jdw91|COMPLETED|scavenger|2023-05-29T13:18:27|2023-05-31T07:36:46|1-18:18:19|dcc-hulab-05|1|1|1000M||/hpc/home/jdw91/Work/RLRDS/Final_Branching_Models|
jdw91|COMPLETED|scavenger|2023-05-29T13:18:27|2023-05-31T06:19:31|1-17:01:04|dcc-hulab-05|1|1|1000M||/hpc/home/jdw91/Work/RLRDS/Final_Branching_Models|
jdw91|COMPLETED|scavenger|2023-05-29T13:18:27|2023-05-31T06:02:43|1-16:44:16|dcc-hulab-05|1|1|1000M||/hpc/home/jdw91/Work/RLRDS/Final_Branching_Models|
jdw91|COMPLETED|scavenger|2023-05-29T13:18:27|2023-05-31T06:30:38|1-17:12:11|dcc-hulab-05|1|1|1000M||/hpc/home/jdw91/Work/RLRDS/Final_Branching_Models|
jdw91|COMPLETED|scavenger|2023-05-29T13:18:27|2023-05-31T13:13:47|1-23:55:20|dcc-hulab-05|1|1|1000M||/hpc/home/jdw91/Work/RLRDS/Final_Branching_Models|
jdw91|COMPLETED|scavenger|2023-05-29T13:18:27|2023-05-31T17:02:17|2-03:43:50|dcc-hulab-05|1|1|1000M||/hpc/home/jdw91/Work/RLRDS/Final_Branching_Models|
jdw91|COMPLETED|scavenger|2023-05-29T13:18:27|2023-05-31T06:08:44|1-16:50:17|dcc-hulab-05|1|1|1000M||/hpc/home/jdw91/Work/RLRDS/Final_Branching_Models|
jdw91|COMPLETED|scavenger|2023-05-29T13:18:27|2023-05-31T07:17:48|1-17:59:21|dcc-hulab-05|1|1|1000M||/hpc/home/jdw91/Work/RLRDS/Final_Branching_Models|
jdw91|COMPLETED|scavenger|2023-05-29T13:18:27|2023-05-31T09:28:20|1-20:09:53|dcc-hulab-05|1|1|1000M||/hpc/home/jdw91/Work/RLRDS/Final_Branching_Models|
jdw91|COMPLETED|scavenger|2023-05-29T13:18:27|2023-05-31T10:05:32|1-20:47:05|dcc-hulab-05|1|1|1000M||/hpc/home/jdw91/Work/RLRDS/Final_Branching_Models|
jdw91|COMPLETED|scavenger|2023-05-29T13:18:27|2023-05-31T08:40:48|1-19:22:21|dcc-hulab-05|1|1|1000M||/hpc/home/jdw91/Work/RLRDS/Final_Branching_Models|
jdw91|COMPLETED|scavenger|2023-05-29T13:18:27|2023-05-31T06:28:48|1-17:10:21|dcc-hulab-05|1|1|1000M||/hpc/home/jdw91/Work/RLRDS/Final_Branching_Models|
jdw91|COMPLETED|scavenger|2023-05-29T13:18:27|2023-05-31T06:22:19|1-17:03:52|dcc-hulab-05|1|1|1000M||/hpc/home/jdw91/Work/RLRDS/Final_Branching_Models|
jdw91|COMPLETED|scavenger|2023-05-29T13:18:27|2023-05-31T14:09:54|2-00:51:27|dcc-hulab-05|1|1|1000M||/hpc/home/jdw91/Work/RLRDS/Final_Branching_Models|
jdw91|COMPLETED|scavenger|2023-05-29T13:18:27|2023-06-01T03:49:07|2-14:30:40|dcc-hulab-05|1|1|1000M||/hpc/home/jdw91/Work/RLRDS/Final_Branching_Models|
jdw91|COMPLETED|scavenger|2023-05-29T13:18:27|2023-05-31T06:15:13|1-16:56:46|dcc-hulab-05|1|1|1000M||/hpc/home/jdw91/Work/RLRDS/Final_Branching_Models|
jdw91|COMPLETED|scavenger|2023-05-29T13:18:27|2023-05-31T10:01:58|1-20:43:31|dcc-hulab-05|1|1|1000M||/hpc/home/jdw91/Work/RLRDS/Final_Branching_Models|
jdw91|COMPLETED|scavenger|2023-05-29T13:18:27|2023-05-31T13:37:08|2-00:18:41|dcc-hulab-05|1|1|1000M||/hpc/home/jdw91/Work/RLRDS/Final_Branching_Models|
jdw91|COMPLETED|scavenger|2023-05-29T13:18:27|2023-05-31T06:31:03|1-17:12:36|dcc-hulab-05|1|1|1000M||/hpc/home/jdw91/Work/RLRDS/Final_Branching_Models|
jdw91|COMPLETED|scavenger|2023-05-29T13:18:27|2023-05-31T16:07:30|2-02:49:03|dcc-hulab-05|1|1|1000M||/hpc/home/jdw91/Work/RLRDS/Final_Branching_Models|
jdw91|COMPLETED|scavenger|2023-05-29T13:18:27|2023-05-31T08:18:46|1-19:00:19|dcc-hulab-05|1|1|1000M||/hpc/home/jdw91/Work/RLRDS/Final_Branching_Models|
jdw91|COMPLETED|scavenger|2023-05-29T13:18:30|2023-05-31T16:04:55|2-02:46:25|dcc-hulab-05|1|1|1000M||/hpc/home/jdw91/Work/RLRDS/Final_Branching_Models|
jdw91|COMPLETED|scavenger|2023-05-29T13:18:30|2023-05-31T08:12:53|1-18:54:23|dcc-hulab-05|1|1|1000M||/hpc/home/jdw91/Work/RLRDS/Final_Branching_Models|
jdw91|COMPLETED|scavenger|2023-05-29T13:18:30|2023-05-31T07:01:28|1-17:42:58|dcc-hulab-05|1|1|1000M||/hpc/home/jdw91/Work/RLRDS/Final_Branching_Models|
jdw91|COMPLETED|scavenger|2023-05-29T13:18:30|2023-05-31T08:40:24|1-19:21:54|dcc-hulab-05|1|1|1000M||/hpc/home/jdw91/Work/RLRDS/Final_Branching_Models|
jdw91|COMPLETED|scavenger|2023-05-29T13:18:30|2023-05-31T09:19:46|1-20:01:16|dcc-hulab-05|1|1|1000M||/hpc/home/jdw91/Work/RLRDS/Final_Branching_Models|
jdw91|COMPLETED|scavenger|2023-05-29T13:18:30|2023-05-31T09:28:39|1-20:10:09|dcc-hulab-05|1|1|1000M||/hpc/home/jdw91/Work/RLRDS/Final_Branching_Models|
jdw91|COMPLETED|scavenger|2023-05-29T13:18:30|2023-05-31T19:06:12|2-05:47:42|dcc-hulab-05|1|1|1000M||/hpc/home/jdw91/Work/RLRDS/Final_Branching_Models|
jdw91|COMPLETED|scavenger|2023-05-29T13:18:30|2023-05-31T07:03:21|1-17:44:51|dcc-hulab-05|1|1|1000M||/hpc/home/jdw91/Work/RLRDS/Final_Branching_Models|
jdw91|COMPLETED|scavenger|2023-05-29T13:18:30|2023-05-31T06:56:55|1-17:38:25|dcc-hulab-05|1|1|1000M||/hpc/home/jdw91/Work/RLRDS/Final_Branching_Models|
jdw91|COMPLETED|scavenger|2023-05-29T13:18:30|2023-05-31T09:13:31|1-19:55:01|dcc-hulab-05|1|1|1000M||/hpc/home/jdw91/Work/RLRDS/Final_Branching_Models|
jdw91|COMPLETED|scavenger|2023-05-29T13:18:30|2023-05-31T13:14:54|1-23:56:24|dcc-hulab-04|1|1|1000M||/hpc/home/jdw91/Work/RLRDS/Final_Branching_Models|
jdw91|COMPLETED|scavenger|2023-05-29T13:18:30|2023-05-31T07:52:33|1-18:34:03|dcc-hulab-04|1|1|1000M||/hpc/home/jdw91/Work/RLRDS/Final_Branching_Models|
jdw91|COMPLETED|scavenger|2023-05-29T13:18:30|2023-05-31T08:52:30|1-19:34:00|dcc-hulab-04|1|1|1000M||/hpc/home/jdw91/Work/RLRDS/Final_Branching_Models|
jdw91|COMPLETED|scavenger|2023-05-29T13:18:30|2023-05-31T16:33:58|2-03:15:28|dcc-hulab-04|1|1|1000M||/hpc/home/jdw91/Work/RLRDS/Final_Branching_Models|
jdw91|COMPLETED|scavenger|2023-05-29T13:18:30|2023-06-01T01:36:39|2-12:18:09|dcc-hulab-04|1|1|1000M||/hpc/home/jdw91/Work/RLRDS/Final_Branching_Models|
jdw91|COMPLETED|scavenger|2023-05-29T13:18:30|2023-05-31T14:58:00|2-01:39:30|dcc-hulab-04|1|1|1000M||/hpc/home/jdw91/Work/RLRDS/Final_Branching_Models|
jdw91|COMPLETED|scavenger|2023-05-29T13:18:30|2023-05-31T09:56:30|1-20:38:00|dcc-hulab-04|1|1|1000M||/hpc/home/jdw91/Work/RLRDS/Final_Branching_Models|
jdw91|COMPLETED|scavenger|2023-05-29T13:18:30|2023-05-31T06:55:00|1-17:36:30|dcc-hulab-04|1|1|1000M||/hpc/home/jdw91/Work/RLRDS/Final_Branching_Models|
jdw91|COMPLETED|scavenger|2023-05-29T13:18:30|2023-05-31T09:20:09|1-20:01:39|dcc-hulab-04|1|1|1000M||/hpc/home/jdw91/Work/RLRDS/Final_Branching_Models|
jdw91|COMPLETED|scavenger|2023-05-29T13:18:30|2023-05-31T12:59:30|1-23:41:00|dcc-hulab-04|1|1|1000M||/hpc/home/jdw91/Work/RLRDS/Final_Branching_Models|
jdw91|COMPLETED|scavenger|2023-05-29T13:18:30|2023-05-31T08:48:45|1-19:30:15|dcc-hulab-04|1|1|1000M||/hpc/home/jdw91/Work/RLRDS/Final_Branching_Models|
jdw91|COMPLETED|scavenger|2023-05-29T13:18:30|2023-05-31T08:59:09|1-19:40:39|dcc-hulab-04|1|1|1000M||/hpc/home/jdw91/Work/RLRDS/Final_Branching_Models|
jdw91|COMPLETED|scavenger|2023-05-29T13:18:30|2023-05-31T08:49:12|1-19:30:42|dcc-hulab-04|1|1|1000M||/hpc/home/jdw91/Work/RLRDS/Final_Branching_Models|
jdw91|COMPLETED|scavenger|2023-05-29T13:18:30|2023-05-31T10:44:31|1-21:26:01|dcc-hulab-04|1|1|1000M||/hpc/home/jdw91/Work/RLRDS/Final_Branching_Models|
jdw91|COMPLETED|scavenger|2023-05-29T13:18:30|2023-05-31T08:21:07|1-19:02:37|dcc-hulab-04|1|1|1000M||/hpc/home/jdw91/Work/RLRDS/Final_Branching_Models|
jdw91|COMPLETED|scavenger|2023-05-29T13:18:30|2023-05-31T08:58:56|1-19:40:26|dcc-hulab-04|1|1|1000M||/hpc/home/jdw91/Work/RLRDS/Final_Branching_Models|
jdw91|COMPLETED|scavenger|2023-05-29T13:18:30|2023-05-31T06:50:10|1-17:31:40|dcc-hulab-04|1|1|1000M||/hpc/home/jdw91/Work/RLRDS/Final_Branching_Models|
jdw91|COMPLETED|scavenger|2023-05-29T13:18:30|2023-05-31T09:21:03|1-20:02:33|dcc-hulab-04|1|1|1000M||/hpc/home/jdw91/Work/RLRDS/Final_Branching_Models|
jdw91|COMPLETED|scavenger|2023-05-29T13:18:30|2023-05-31T13:59:30|2-00:41:00|dcc-hulab-04|1|1|1000M||/hpc/home/jdw91/Work/RLRDS/Final_Branching_Models|
jdw91|COMPLETED|scavenger|2023-05-29T13:18:30|2023-05-31T12:01:28|1-22:42:58|dcc-hulab-04|1|1|1000M||/hpc/home/jdw91/Work/RLRDS/Final_Branching_Models|
jdw91|COMPLETED|scavenger|2023-05-29T13:18:30|2023-05-31T08:04:46|1-18:46:16|dcc-hulab-04|1|1|1000M||/hpc/home/jdw91/Work/RLRDS/Final_Branching_Models|
jdw91|COMPLETED|scavenger|2023-05-29T13:18:30|2023-05-31T11:57:16|1-22:38:46|dcc-hulab-04|1|1|1000M||/hpc/home/jdw91/Work/RLRDS/Final_Branching_Models|
jdw91|COMPLETED|scavenger|2023-05-29T13:18:31|2023-05-31T20:34:22|2-07:15:51|dcc-hulab-04|1|1|1000M||/hpc/home/jdw91/Work/RLRDS/Final_Branching_Models|
jdw91|COMPLETED|scavenger|2023-05-29T13:18:31|2023-05-31T08:21:44|1-19:03:13|dcc-hulab-04|1|1|1000M||/hpc/home/jdw91/Work/RLRDS/Final_Branching_Models|
jdw91|COMPLETED|scavenger|2023-05-29T13:18:31|2023-05-31T08:51:54|1-19:33:23|dcc-hulab-04|1|1|1000M||/hpc/home/jdw91/Work/RLRDS/Final_Branching_Models|
jdw91|COMPLETED|scavenger|2023-05-29T13:18:31|2023-05-31T08:13:11|1-18:54:40|dcc-hulab-04|1|1|1000M||/hpc/home/jdw91/Work/RLRDS/Final_Branching_Models|
jdw91|COMPLETED|scavenger|2023-05-29T13:18:31|2023-06-01T04:01:29|2-14:42:58|dcc-hulab-04|1|1|1000M||/hpc/home/jdw91/Work/RLRDS/Final_Branching_Models|
jdw91|COMPLETED|scavenger|2023-05-29T13:18:31|2023-05-31T08:32:43|1-19:14:12|dcc-hulab-04|1|1|1000M||/hpc/home/jdw91/Work/RLRDS/Final_Branching_Models|
jdw91|COMPLETED|scavenger|2023-05-29T13:18:31|2023-05-31T09:29:22|1-20:10:51|dcc-hulab-04|1|1|1000M||/hpc/home/jdw91/Work/RLRDS/Final_Branching_Models|
jdw91|COMPLETED|scavenger|2023-05-29T13:18:31|2023-05-31T09:45:17|1-20:26:46|dcc-hulab-04|1|1|1000M||/hpc/home/jdw91/Work/RLRDS/Final_Branching_Models|
jdw91|COMPLETED|scavenger|2023-05-29T13:18:31|2023-05-31T06:14:42|1-16:56:11|dcc-hulab-04|1|1|1000M||/hpc/home/jdw91/Work/RLRDS/Final_Branching_Models|
jdw91|COMPLETED|scavenger|2023-05-29T13:18:31|2023-05-31T12:20:37|1-23:02:06|dcc-hulab-04|1|1|1000M||/hpc/home/jdw91/Work/RLRDS/Final_Branching_Models|
jdw91|COMPLETED|scavenger|2023-05-29T13:18:31|2023-05-31T09:53:18|1-20:34:47|dcc-hulab-04|1|1|1000M||/hpc/home/jdw91/Work/RLRDS/Final_Branching_Models|
jdw91|COMPLETED|scavenger|2023-05-29T13:18:31|2023-05-31T06:52:20|1-17:33:49|dcc-hulab-04|1|1|1000M||/hpc/home/jdw91/Work/RLRDS/Final_Branching_Models|
jdw91|COMPLETED|scavenger|2023-05-29T13:18:31|2023-05-31T10:37:59|1-21:19:28|dcc-hulab-04|1|1|1000M||/hpc/home/jdw91/Work/RLRDS/Final_Branching_Models|
jdw91|COMPLETED|scavenger|2023-05-29T13:18:31|2023-05-31T07:54:48|1-18:36:17|dcc-hulab-04|1|1|1000M||/hpc/home/jdw91/Work/RLRDS/Final_Branching_Models|
jdw91|COMPLETED|scavenger|2023-05-29T13:18:31|2023-05-31T07:15:30|1-17:56:59|dcc-hulab-04|1|1|1000M||/hpc/home/jdw91/Work/RLRDS/Final_Branching_Models|
jdw91|COMPLETED|scavenger|2023-05-29T13:18:31|2023-05-31T06:05:01|1-16:46:30|dcc-hulab-04|1|1|1000M||/hpc/home/jdw91/Work/RLRDS/Final_Branching_Models|
jdw91|COMPLETED|scavenger|2023-05-29T13:18:31|2023-05-31T06:44:13|1-17:25:42|dcc-hulab-04|1|1|1000M||/hpc/home/jdw91/Work/RLRDS/Final_Branching_Models|
jdw91|COMPLETED|scavenger|2023-05-29T13:18:31|2023-05-31T07:59:32|1-18:41:01|dcc-hulab-04|1|1|1000M||/hpc/home/jdw91/Work/RLRDS/Final_Branching_Models|
jdw91|COMPLETED|scavenger|2023-05-29T13:18:31|2023-05-31T09:26:20|1-20:07:49|dcc-hulab-04|1|1|1000M||/hpc/home/jdw91/Work/RLRDS/Final_Branching_Models|
jdw91|COMPLETED|scavenger|2023-05-29T13:18:31|2023-05-31T08:44:03|1-19:25:32|dcc-hulab-04|1|1|1000M||/hpc/home/jdw91/Work/RLRDS/Final_Branching_Models|
jdw91|COMPLETED|scavenger|2023-05-29T13:18:31|2023-05-31T09:26:52|1-20:08:21|dcc-hulab-04|1|1|1000M||/hpc/home/jdw91/Work/RLRDS/Final_Branching_Models|
jdw91|COMPLETED|scavenger|2023-05-29T13:18:31|2023-05-31T11:59:57|1-22:41:26|dcc-hulab-04|1|1|1000M||/hpc/home/jdw91/Work/RLRDS/Final_Branching_Models|
jdw91|COMPLETED|scavenger|2023-05-29T13:18:31|2023-05-31T07:46:38|1-18:28:07|dcc-hulab-04|1|1|1000M||/hpc/home/jdw91/Work/RLRDS/Final_Branching_Models|
jdw91|COMPLETED|scavenger|2023-05-29T13:18:31|2023-05-31T06:15:11|1-16:56:40|dcc-hulab-04|1|1|1000M||/hpc/home/jdw91/Work/RLRDS/Final_Branching_Models|
jdw91|COMPLETED|scavenger|2023-05-29T13:18:31|2023-05-31T17:21:46|2-04:03:15|dcc-hulab-04|1|1|1000M||/hpc/home/jdw91/Work/RLRDS/Final_Branching_Models|
jdw91|COMPLETED|scavenger|2023-05-29T13:18:31|2023-05-31T06:40:44|1-17:22:13|dcc-hulab-04|1|1|1000M||/hpc/home/jdw91/Work/RLRDS/Final_Branching_Models|
jdw91|COMPLETED|scavenger|2023-05-29T13:18:31|2023-05-31T17:08:32|2-03:50:01|dcc-hulab-04|1|1|1000M||/hpc/home/jdw91/Work/RLRDS/Final_Branching_Models|
jdw91|COMPLETED|scavenger|2023-05-29T13:18:31|2023-05-31T14:43:30|2-01:24:59|dcc-hulab-04|1|1|1000M||/hpc/home/jdw91/Work/RLRDS/Final_Branching_Models|
jdw91|COMPLETED|scavenger|2023-05-29T13:18:31|2023-05-31T21:01:29|2-07:42:58|dcc-hulab-04|1|1|1000M||/hpc/home/jdw91/Work/RLRDS/Final_Branching_Models|
jdw91|COMPLETED|scavenger|2023-05-29T13:18:31|2023-05-31T17:39:51|2-04:21:20|dcc-hulab-04|1|1|1000M||/hpc/home/jdw91/Work/RLRDS/Final_Branching_Models|
jdw91|COMPLETED|scavenger|2023-05-29T13:18:31|2023-05-31T15:44:15|2-02:25:44|dcc-hulab-04|1|1|1000M||/hpc/home/jdw91/Work/RLRDS/Final_Branching_Models|
jdw91|COMPLETED|scavenger|2023-05-29T13:18:31|2023-05-31T06:43:27|1-17:24:56|dcc-hulab-04|1|1|1000M||/hpc/home/jdw91/Work/RLRDS/Final_Branching_Models|
jdw91|COMPLETED|scavenger|2023-05-29T13:18:31|2023-05-31T11:22:50|1-22:04:19|dcc-hulab-04|1|1|1000M||/hpc/home/jdw91/Work/RLRDS/Final_Branching_Models|
jdw91|COMPLETED|scavenger|2023-05-29T13:18:34|2023-05-31T14:05:04|2-00:46:30|dcc-hulab-04|1|1|1000M||/hpc/home/jdw91/Work/RLRDS/Final_Branching_Models|
jdw91|COMPLETED|scavenger|2023-05-29T13:18:34|2023-05-31T13:18:09|1-23:59:35|dcc-hulab-04|1|1|1000M||/hpc/home/jdw91/Work/RLRDS/Final_Branching_Models|
jdw91|COMPLETED|scavenger|2023-05-29T13:18:34|2023-05-31T06:10:20|1-16:51:46|dcc-hulab-04|1|1|1000M||/hpc/home/jdw91/Work/RLRDS/Final_Branching_Models|
jdw91|COMPLETED|scavenger|2023-05-29T13:18:34|2023-05-31T10:57:31|1-21:38:57|dcc-hulab-04|1|1|1000M||/hpc/home/jdw91/Work/RLRDS/Final_Branching_Models|
jdw91|COMPLETED|scavenger|2023-05-29T13:18:34|2023-05-31T06:19:13|1-17:00:39|dcc-hulab-04|1|1|1000M||/hpc/home/jdw91/Work/RLRDS/Final_Branching_Models|
jdw91|COMPLETED|scavenger|2023-05-29T13:18:34|2023-05-31T06:39:05|1-17:20:31|dcc-hulab-04|1|1|1000M||/hpc/home/jdw91/Work/RLRDS/Final_Branching_Models|
jdw91|COMPLETED|scavenger|2023-05-29T13:18:34|2023-05-31T16:19:56|2-03:01:22|dcc-hulab-03|1|1|1000M||/hpc/home/jdw91/Work/RLRDS/Final_Branching_Models|
jdw91|COMPLETED|scavenger|2023-05-29T17:14:02|2023-05-31T14:58:26|1-21:44:24|dcc-gcb-08|1|1|1000M||/hpc/home/jdw91/Work/RLRDS/Final_Graph_Models|
jdw91|COMPLETED|scavenger|2023-05-29T17:14:38|2023-05-31T18:03:52|2-00:49:14|dcc-gcb-04|1|1|1000M||/hpc/home/jdw91/Work/RLRDS/Final_Graph_Models|
jdw91|COMPLETED|scavenger|2023-05-29T17:14:54|2023-05-31T18:03:26|2-00:48:32|dcc-gcb-01|1|1|1000M||/hpc/home/jdw91/Work/RLRDS/Final_Graph_Models|
jdw91|COMPLETED|scavenger|2023-05-29T17:14:54|2023-05-31T16:07:33|1-22:52:39|dcc-gcb-01|1|1|1000M||/hpc/home/jdw91/Work/RLRDS/Final_Graph_Models|
jdw91|COMPLETED|scavenger|2023-05-29T17:14:54|2023-05-31T09:09:25|1-15:54:31|dcc-gcb-01|1|1|1000M||/hpc/home/jdw91/Work/RLRDS/Final_Graph_Models|
hw309|COMPLETED|scavenger|2023-05-29T18:24:27|2023-05-31T06:31:06|1-12:06:39|dcc-pbenfeylab-02|1|1|80G||/hpc/group/jilab/haowang/PCs_distance_analysis/GSE114724|
hw309|COMPLETED|scavenger|2023-05-30T02:54:46|2023-05-31T07:43:48|1-04:49:02|dcc-pbenfeylab-02|1|1|80G||/hpc/group/jilab/haowang/PCs_distance_analysis/GSE173351|
hw309|COMPLETED|scavenger|2023-05-30T03:09:03|2023-05-31T08:18:54|1-05:09:51|dcc-pbenfeylab-02|1|1|80G||/hpc/group/jilab/haowang/PCs_distance_analysis/GSE173351|
hw309|COMPLETED|scavenger|2023-05-30T04:03:50|2023-05-31T07:32:57|1-03:29:07|dcc-pbenfeylab-02|1|1|80G||/hpc/group/jilab/haowang/PCs_distance_analysis/GSE173351|
hw309|COMPLETED|scavenger|2023-05-30T16:28:36|2023-05-31T09:27:48|16:59:12|dcc-savageresearch-01|1|1|80G||/hpc/group/jilab/haowang/PCs_distance_analysis/GSE173351|
hw309|COMPLETED|scavenger|2023-05-30T19:32:52|2023-05-31T18:32:36|22:59:44|dcc-velmeshevlab-01|1|1|80G||/hpc/group/jilab/haowang/PCs_distance_analysis/GSE173351|
hw309|COMPLETED|scavenger|2023-05-31T00:20:33|2023-05-31T17:13:14|16:52:41|dcc-velmeshevlab-01|1|1|80G||/hpc/group/jilab/haowang/PCs_distance_analysis/GSE173351|
hw309|COMPLETED|scavenger|2023-05-31T01:32:19|2023-05-31T15:37:26|14:05:07|dcc-youlab-01|1|1|80G||/hpc/group/jilab/haowang/PCs_distance_analysis/GSE173351|
hw309|COMPLETED|scavenger|2023-05-31T01:56:45|2023-05-31T11:00:39|09:03:54|dcc-youlab-01|1|1|80G||/hpc/group/jilab/haowang/PCs_distance_analysis/GSE173351|
hw309|COMPLETED|scavenger|2023-05-31T02:01:07|2023-05-31T17:36:34|15:35:27|dcc-velmeshevlab-01|1|1|80G||/hpc/group/jilab/haowang/PCs_distance_analysis/GSE173351|
hw309|COMPLETED|scavenger|2023-05-31T02:33:47|2023-06-01T01:07:32|22:33:45|dcc-velmeshevlab-01|1|1|80G||/hpc/group/jilab/haowang/PCs_distance_analysis/GSE173351|
hw309|COMPLETED|scavenger|2023-05-31T03:16:53|2023-05-31T06:33:25|03:16:32|dcc-tunglab-02|1|1|80G||/hpc/group/jilab/haowang/PCs_distance_analysis/GSE173351|
hw309|COMPLETED|scavenger|2023-05-31T03:44:55|2023-05-31T10:24:02|06:39:07|dcc-wychem-01|1|1|80G||/hpc/group/jilab/haowang/PCs_distance_analysis/GSE173351|
hw309|COMPLETED|scavenger|2023-05-31T06:31:06|2023-05-31T09:04:59|02:33:53|dcc-tunglab-01|1|1|80G||/hpc/group/jilab/haowang/PCs_distance_analysis/GSE173351|
hw309|COMPLETED|scavenger|2023-05-31T07:43:49|2023-05-31T12:52:45|05:08:56|dcc-tunglab-01|1|1|80G||/hpc/group/jilab/haowang/PCs_distance_analysis/GSE173351|
hw309|COMPLETED|scavenger|2023-05-31T09:04:59|2023-05-31T15:35:30|06:30:31|dcc-tunglab-01|1|1|80G||/hpc/group/jilab/haowang/PCs_distance_analysis/GSE173351|
hw309|COMPLETED|scavenger|2023-05-31T09:27:48|2023-05-31T10:49:36|01:21:48|dcc-mainsahlab-01|1|1|80G||/hpc/group/jilab/haowang/PCs_distance_analysis/GSE173351|
hw309|COMPLETED|scavenger|2023-05-31T10:24:03|2023-06-02T14:37:50|2-04:13:47|dcc-wychem-01|1|1|80G||/hpc/group/jilab/haowang/PCs_distance_analysis/GSE173351|
hw309|COMPLETED|scavenger|2023-05-31T10:49:38|2023-06-01T20:10:33|1-09:20:55|dcc-tmolab-02|1|1|80G||/hpc/group/jilab/haowang/PCs_distance_analysis/GSE173351|
hw309|COMPLETED|scavenger|2023-05-31T11:00:40|2023-06-02T06:20:08|1-19:19:28|dcc-youlab-01|1|1|80G||/hpc/group/jilab/haowang/PCs_distance_analysis/GSE173351|
hw309|COMPLETED|scavenger|2023-05-31T15:37:49|2023-05-31T23:40:12|08:02:23|dcc-youlab-01|1|1|80G||/hpc/group/jilab/haowang/PCs_distance_analysis/GSE173351|
hw309|COMPLETED|scavenger|2023-05-31T16:35:55|2023-06-01T04:22:21|11:46:26|dcc-statdept-01|1|1|80G||/hpc/group/jilab/haowang/PCs_distance_analysis/GSE173351|
hw309|COMPLETED|scavenger|2023-05-31T16:36:10|2023-06-01T03:22:01|10:45:51|dcc-statdept-01|1|1|80G||/hpc/group/jilab/haowang/PCs_distance_analysis/GSE173351|
jdw91|COMPLETED|scavenger|2023-05-30T12:38:39|2023-05-31T08:46:01|20:07:22|dcc-wychem-01|1|1|1000M||/hpc/home/jdw91/Work/RLRDS/Final_Branching_Models|
jdw91|COMPLETED|scavenger|2023-05-30T12:38:39|2023-05-31T13:38:29|1-00:59:50|dcc-wychem-01|1|1|1000M||/hpc/home/jdw91/Work/RLRDS/Final_Branching_Models|
jdw91|COMPLETED|scavenger|2023-05-30T12:38:39|2023-05-31T12:19:43|23:41:04|dcc-wychem-01|1|1|1000M||/hpc/home/jdw91/Work/RLRDS/Final_Branching_Models|
jdw91|COMPLETED|scavenger|2023-05-30T12:38:39|2023-05-31T13:01:08|1-00:22:29|dcc-wychem-01|1|1|1000M||/hpc/home/jdw91/Work/RLRDS/Final_Branching_Models|
jdw91|COMPLETED|scavenger|2023-05-30T12:38:39|2023-05-31T19:57:30|1-07:18:51|dcc-wychem-01|1|1|1000M||/hpc/home/jdw91/Work/RLRDS/Final_Branching_Models|
jdw91|COMPLETED|scavenger|2023-05-30T12:38:39|2023-05-31T23:25:37|1-10:46:58|dcc-wychem-01|1|1|1000M||/hpc/home/jdw91/Work/RLRDS/Final_Branching_Models|
hw309|COMPLETED|scavenger|2023-05-31T16:36:22|2023-06-01T10:58:38|18:22:16|dcc-statdept-01|1|1|80G||/hpc/group/jilab/haowang/PCs_distance_analysis/GSE173351|
jdw91|COMPLETED|scavenger|2023-05-30T12:38:39|2023-05-31T20:54:16|1-08:15:37|dcc-wychem-01|1|1|1000M||/hpc/home/jdw91/Work/RLRDS/Final_Branching_Models|
hw309|COMPLETED|scavenger|2023-05-31T16:36:33|2023-05-31T18:27:31|01:50:58|dcc-rausherlab-01|1|1|80G||/hpc/group/jilab/haowang/PCs_distance_analysis/GSE173351|
hw309|COMPLETED|scavenger|2023-05-31T16:36:45|2023-05-31T18:31:30|01:54:45|dcc-pfister-01|1|1|80G||/hpc/group/jilab/haowang/PCs_distance_analysis/GSE173351|
hw309|COMPLETED|scavenger|2023-05-31T16:36:58|2023-06-01T10:26:54|17:49:56|dcc-pbenfeylab-02|1|1|80G||/hpc/group/jilab/haowang/PCs_distance_analysis/GSE173351|
jdw91|COMPLETED|scavenger|2023-05-30T14:01:32|2023-05-31T18:39:59|1-04:38:27|dcc-youlab-01|1|1|1000M||/hpc/home/jdw91/Work/RLRDS/Final_Branching_Models|
jdw91|COMPLETED|scavenger|2023-05-30T14:01:32|2023-06-01T11:30:08|1-21:28:36|dcc-youlab-01|1|1|1000M||/hpc/home/jdw91/Work/RLRDS/Final_Branching_Models|
jdw91|COMPLETED|scavenger|2023-05-30T14:01:32|2023-06-01T03:25:13|1-13:23:41|dcc-youlab-01|1|1|1000M||/hpc/home/jdw91/Work/RLRDS/Final_Branching_Models|
jdw91|COMPLETED|scavenger|2023-05-30T14:01:32|2023-06-01T06:04:47|1-16:03:15|dcc-wychem-01|1|1|1000M||/hpc/home/jdw91/Work/RLRDS/Final_Branching_Models|
jdw91|COMPLETED|scavenger|2023-05-30T14:01:59|2023-06-01T06:52:42|1-16:50:43|dcc-wychem-01|1|1|1000M||/hpc/home/jdw91/Work/RLRDS/Final_Branching_Models|
jdw91|COMPLETED|scavenger|2023-05-30T14:01:59|2023-06-01T07:19:42|1-17:17:43|dcc-wychem-01|1|1|1000M||/hpc/home/jdw91/Work/RLRDS/Final_Branching_Models|
jdw91|COMPLETED|scavenger|2023-05-30T14:02:02|2023-06-01T09:03:01|1-19:00:59|dcc-wychem-01|1|1|1000M||/hpc/home/jdw91/Work/RLRDS/Final_Branching_Models|
ys379|COMPLETED|scavenger|2023-05-30T15:59:02|2023-06-02T15:02:03|2-23:03:01|dcc-donglab-01|1|5|10G||/hpc/home/ys379/submit_jobs/8x8x8|
tda17|COMPLETED|scavenger|2023-05-30T16:37:04|2023-06-03T17:26:00|4-00:48:56|dcc-donglab-01|1|16|256G||/work/tda17/hicar_analysis_probeenriched_cutadapt/vp64|
jdw91|COMPLETED|scavenger|2023-05-30T17:39:22|2023-06-01T08:37:55|1-14:58:33|dcc-youlab-01|1|1|1000M||/hpc/home/jdw91/Work/RLRDS/Final_Branching_Models|
jdw91|COMPLETED|scavenger|2023-05-30T17:39:22|2023-06-01T02:17:15|1-08:37:53|dcc-youlab-01|1|1|1000M||/hpc/home/jdw91/Work/RLRDS/Final_Branching_Models|
jdw91|COMPLETED|scavenger|2023-05-30T17:39:30|2023-05-31T13:01:36|19:22:06|dcc-youlab-01|1|1|1000M||/hpc/home/jdw91/Work/RLRDS/Final_Branching_Models|
jdw91|COMPLETED|scavenger|2023-05-30T17:39:30|2023-05-31T17:07:14|23:27:44|dcc-youlab-01|1|1|1000M||/hpc/home/jdw91/Work/RLRDS/Final_Branching_Models|
bl242|COMPLETED|scavenger|2023-05-30T23:31:01|2023-05-31T09:50:21|10:19:20|dcc-delairelab-01,dcc-herringlab-01,dcc-hulab-[01-03]|5|250|500G||/hpc/home/bl242|
yx222|COMPLETED|scavenger|2023-05-31T06:44:38|2023-05-31T07:27:21|00:42:43|dcc-adrc-01|1|8|30G||/datacommons/ydiaolab/yyxu/xiaolin/cellLine/xw_85_90/sci-hicar-full_length|
yx222|COMPLETED|scavenger|2023-05-31T06:44:39|2023-05-31T06:58:23|00:13:44|dcc-motesa-01|1|8|30G||/datacommons/ydiaolab/yyxu/xiaolin/cellLine/xw_85_90/sci-hicar-full_length|
yx222|COMPLETED|scavenger|2023-05-31T06:59:19|2023-05-31T07:07:34|00:08:15|dcc-motesa-01|1|8|30G||/datacommons/ydiaolab/yyxu/xiaolin/cellLine/xw_85_90/sci-hicar-full_length|
