fjm7|COMPLETED|scavenger|2023-04-23T15:19:04|2023-05-18T23:19:00|25-07:59:56|dcc-noor-02|1|1|2G||/hpc/group/brownlab/fjm7/new-data-collection/slurm-runners|
fjm7|COMPLETED|scavenger|2023-04-23T15:19:04|2023-05-18T23:01:43|25-07:42:39|dcc-noor-02|1|1|2G||/hpc/group/brownlab/fjm7/new-data-collection/slurm-runners|
pz19|COMPLETED|scavenger|2023-05-01T10:41:57|2023-05-15T11:48:48|14-01:06:51|dcc-cagpm-02|1|16|32000M||/work/pz19/Dexter/parallel_00|
pz19|COMPLETED|scavenger|2023-05-05T14:28:41|2023-05-14T18:25:58|9-03:57:17|dcc-delairelab-01|1|16|25408M||/work/pz19/Wang/Copper/Silicon/TS_06_3Lig/MN15/Constraint_0|
jo117|COMPLETED|scavenger|2023-05-08T09:44:32|2023-05-15T09:59:14|7-00:14:42|dcc-gcb-13|1|2|200G||/work/jo117/PossLab/2022-Science-axolotl|
pz19|COMPLETED|scavenger|2023-05-10T09:53:22|2023-05-22T13:35:04|12-03:41:42|dcc-adrc-01|1|16|32000M||/work/pz19/Dexter|
hk288|COMPLETED|scavenger|2023-05-12T13:22:14|2023-05-15T17:12:31|3-03:50:17|dcc-statdept-01|1|2|80G||/hpc/group/mastatlab/hk288/code_hp|
hk288|COMPLETED|scavenger|2023-05-12T13:22:29|2023-05-15T14:08:31|3-00:46:02|dcc-youlab-01|1|2|80G||/hpc/group/mastatlab/hk288/code_hp|
hk288|COMPLETED|scavenger|2023-05-12T21:59:50|2023-05-15T09:38:43|2-11:38:53|dcc-compeb-03|1|40|80G||/hpc/group/mastatlab/hk288/code_hp_paral|
hk288|COMPLETED|scavenger|2023-05-12T21:59:50|2023-05-14T21:07:34|1-23:07:44|dcc-dunsonlab-02|1|40|80G||/hpc/group/mastatlab/hk288/code_hp_paral|
kw297|COMPLETED|scavenger|2023-05-13T21:18:00|2023-05-15T09:35:02|1-12:17:02|dcc-adrc-01|1|2|8G||/hpc/group/ychenlab/DA|
kw297|COMPLETED|scavenger|2023-05-13T21:18:00|2023-05-14T15:18:12|18:00:12|dcc-rausherlab-01|1|2|8G||/hpc/group/ychenlab/DA|
kw297|COMPLETED|scavenger|2023-05-13T21:18:01|2023-05-14T18:01:16|20:43:15|dcc-rausherlab-02|1|2|8G||/hpc/group/ychenlab/DA|
kw297|COMPLETED|scavenger|2023-05-13T21:18:01|2023-05-14T15:58:04|18:40:03|dcc-rausherlab-02|1|2|8G||/hpc/group/ychenlab/DA|
kw297|COMPLETED|scavenger|2023-05-13T21:18:01|2023-05-15T05:46:10|1-08:28:09|dcc-delairelab-01|1|2|8G||/hpc/group/ychenlab/DA|
kw297|COMPLETED|scavenger|2023-05-13T21:18:01|2023-05-15T03:01:34|1-05:43:33|dcc-delairelab-01|1|2|8G||/hpc/group/ychenlab/DA|
kw297|COMPLETED|scavenger|2023-05-13T21:18:01|2023-05-15T04:46:46|1-07:28:45|dcc-delairelab-01|1|2|8G||/hpc/group/ychenlab/DA|
kw297|COMPLETED|scavenger|2023-05-13T21:18:01|2023-05-15T02:46:34|1-05:28:33|dcc-delairelab-01|1|2|8G||/hpc/group/ychenlab/DA|
kw297|COMPLETED|scavenger|2023-05-13T21:18:01|2023-05-15T04:19:02|1-07:01:01|dcc-delairelab-01|1|2|8G||/hpc/group/ychenlab/DA|
kw297|COMPLETED|scavenger|2023-05-13T21:18:01|2023-05-15T03:42:48|1-06:24:47|dcc-delairelab-01|1|2|8G||/hpc/group/ychenlab/DA|
kw297|COMPLETED|scavenger|2023-05-13T21:18:02|2023-05-15T05:41:10|1-08:23:08|dcc-delairelab-01|1|2|8G||/hpc/group/ychenlab/DA|
kw297|COMPLETED|scavenger|2023-05-13T21:18:02|2023-05-15T02:57:26|1-05:39:24|dcc-delairelab-01|1|2|8G||/hpc/group/ychenlab/DA|
kw297|COMPLETED|scavenger|2023-05-13T21:18:02|2023-05-15T05:31:25|1-08:13:23|dcc-delairelab-01|1|2|8G||/hpc/group/ychenlab/DA|
kw297|COMPLETED|scavenger|2023-05-13T21:18:02|2023-05-15T02:53:59|1-05:35:57|dcc-delairelab-01|1|2|8G||/hpc/group/ychenlab/DA|
kw297|COMPLETED|scavenger|2023-05-13T21:18:03|2023-05-15T05:06:46|1-07:48:43|dcc-delairelab-01|1|2|8G||/hpc/group/ychenlab/DA|
kw297|COMPLETED|scavenger|2023-05-13T21:18:03|2023-05-15T02:57:50|1-05:39:47|dcc-delairelab-01|1|2|8G||/hpc/group/ychenlab/DA|
kw297|COMPLETED|scavenger|2023-05-13T21:18:03|2023-05-15T04:35:06|1-07:17:03|dcc-delairelab-01|1|2|8G||/hpc/group/ychenlab/DA|
kw297|COMPLETED|scavenger|2023-05-13T21:18:03|2023-05-15T03:21:56|1-06:03:53|dcc-delairelab-01|1|2|8G||/hpc/group/ychenlab/DA|
kw297|COMPLETED|scavenger|2023-05-13T21:18:03|2023-05-14T20:17:37|22:59:34|dcc-velmeshevlab-01|1|2|8G||/hpc/group/ychenlab/DA|
kw297|COMPLETED|scavenger|2023-05-13T21:18:03|2023-05-14T21:15:27|23:57:24|dcc-velmeshevlab-01|1|2|8G||/hpc/group/ychenlab/DA|
kw297|COMPLETED|scavenger|2023-05-13T21:18:05|2023-05-14T22:27:06|1-01:09:01|dcc-velmeshevlab-01|1|2|8G||/hpc/group/ychenlab/DA|
kw297|COMPLETED|scavenger|2023-05-13T21:18:05|2023-05-14T20:03:49|22:45:44|dcc-velmeshevlab-01|1|2|8G||/hpc/group/ychenlab/DA|
kw297|COMPLETED|scavenger|2023-05-13T21:18:05|2023-05-14T21:52:56|1-00:34:51|dcc-velmeshevlab-01|1|2|8G||/hpc/group/ychenlab/DA|
kw297|COMPLETED|scavenger|2023-05-13T21:18:05|2023-05-14T20:36:53|23:18:48|dcc-velmeshevlab-01|1|2|8G||/hpc/group/ychenlab/DA|
kw297|COMPLETED|scavenger|2023-05-13T21:18:05|2023-05-14T20:26:49|23:08:44|dcc-velmeshevlab-01|1|2|8G||/hpc/group/ychenlab/DA|
kw297|COMPLETED|scavenger|2023-05-13T21:18:05|2023-05-14T18:22:48|21:04:43|dcc-dailabs-01|1|2|8G||/hpc/group/ychenlab/DA|
kw297|COMPLETED|scavenger|2023-05-13T21:18:06|2023-05-14T15:16:58|17:58:52|dcc-dailabs-01|1|2|8G||/hpc/group/ychenlab/DA|
kw297|COMPLETED|scavenger|2023-05-13T21:18:06|2023-05-14T17:23:18|20:05:12|dcc-dailabs-01|1|2|8G||/hpc/group/ychenlab/DA|
kw297|COMPLETED|scavenger|2023-05-13T21:18:06|2023-05-14T16:05:49|18:47:43|dcc-dailabs-02|1|2|8G||/hpc/group/ychenlab/DA|
kw297|COMPLETED|scavenger|2023-05-13T21:18:06|2023-05-14T18:03:20|20:45:14|dcc-dailabs-03|1|2|8G||/hpc/group/ychenlab/DA|
kw297|COMPLETED|scavenger|2023-05-13T21:18:06|2023-05-14T17:41:34|20:23:28|dcc-dailabs-03|1|2|8G||/hpc/group/ychenlab/DA|
kw297|COMPLETED|scavenger|2023-05-13T21:18:06|2023-05-14T16:57:08|19:39:02|dcc-dailabs-04|1|2|8G||/hpc/group/ychenlab/DA|
kw297|COMPLETED|scavenger|2023-05-13T21:18:06|2023-05-14T15:51:21|18:33:15|dcc-dailabs-05|1|2|8G||/hpc/group/ychenlab/DA|
jml165|COMPLETED|scavenger|2023-05-14T13:08:38|2023-05-14T23:18:46|10:10:08|dcc-youlab-01|1|1|2000M||/hpc/home/jml165/rl/lawson-bandits|
jml165|COMPLETED|scavenger|2023-05-14T13:08:38|2023-05-15T00:33:29|11:24:51|dcc-youlab-01|1|1|2000M||/hpc/home/jml165/rl/lawson-bandits|
jml165|COMPLETED|scavenger|2023-05-14T13:08:38|2023-05-15T03:08:19|13:59:41|dcc-youlab-01|1|1|2000M||/hpc/home/jml165/rl/lawson-bandits|
jml165|COMPLETED|scavenger|2023-05-14T13:08:38|2023-05-15T00:11:17|11:02:39|dcc-youlab-01|1|1|2000M||/hpc/home/jml165/rl/lawson-bandits|
jml165|COMPLETED|scavenger|2023-05-14T13:08:38|2023-05-15T00:41:01|11:32:23|dcc-youlab-01|1|1|2000M||/hpc/home/jml165/rl/lawson-bandits|
jml165|COMPLETED|scavenger|2023-05-14T13:08:39|2023-05-15T02:07:54|12:59:15|dcc-youlab-01|1|1|2000M||/hpc/home/jml165/rl/lawson-bandits|
jml165|COMPLETED|scavenger|2023-05-14T13:08:39|2023-05-14T23:36:50|10:28:11|dcc-youlab-01|1|1|2000M||/hpc/home/jml165/rl/lawson-bandits|
jml165|COMPLETED|scavenger|2023-05-14T13:08:39|2023-05-15T12:41:26|23:32:47|dcc-wychem-01|1|1|2000M||/hpc/home/jml165/rl/lawson-bandits|
jml165|COMPLETED|scavenger|2023-05-14T13:08:39|2023-05-15T12:20:01|23:11:22|dcc-wychem-01|1|1|2000M||/hpc/home/jml165/rl/lawson-bandits|
jml165|COMPLETED|scavenger|2023-05-14T13:08:39|2023-05-15T15:24:47|1-02:16:08|dcc-wychem-01|1|1|2000M||/hpc/home/jml165/rl/lawson-bandits|
jml165|COMPLETED|scavenger|2023-05-14T13:08:39|2023-05-15T09:38:56|20:30:17|dcc-wychem-01|1|1|2000M||/hpc/home/jml165/rl/lawson-bandits|
jml165|COMPLETED|scavenger|2023-05-14T13:08:39|2023-05-15T15:44:34|1-02:35:55|dcc-wychem-01|1|1|2000M||/hpc/home/jml165/rl/lawson-bandits|
jml165|COMPLETED|scavenger|2023-05-14T13:08:39|2023-05-15T11:40:57|22:32:18|dcc-wychem-01|1|1|2000M||/hpc/home/jml165/rl/lawson-bandits|
jml165|COMPLETED|scavenger|2023-05-14T13:08:39|2023-05-15T11:50:32|22:41:53|dcc-wychem-01|1|1|2000M||/hpc/home/jml165/rl/lawson-bandits|
jml165|COMPLETED|scavenger|2023-05-14T13:08:39|2023-05-15T09:56:08|20:47:29|dcc-wychem-01|1|1|2000M||/hpc/home/jml165/rl/lawson-bandits|
jml165|COMPLETED|scavenger|2023-05-14T13:08:39|2023-05-15T10:51:24|21:42:45|dcc-wychem-01|1|1|2000M||/hpc/home/jml165/rl/lawson-bandits|
jml165|COMPLETED|scavenger|2023-05-14T13:08:39|2023-05-15T11:04:00|21:55:21|dcc-wychem-01|1|1|2000M||/hpc/home/jml165/rl/lawson-bandits|
jml165|COMPLETED|scavenger|2023-05-14T13:08:39|2023-05-15T10:38:10|21:29:31|dcc-wychem-01|1|1|2000M||/hpc/home/jml165/rl/lawson-bandits|
jml165|COMPLETED|scavenger|2023-05-14T13:08:39|2023-05-15T11:46:20|22:37:41|dcc-wychem-01|1|1|2000M||/hpc/home/jml165/rl/lawson-bandits|
jml165|COMPLETED|scavenger|2023-05-14T13:08:39|2023-05-15T11:34:17|22:25:38|dcc-wychem-01|1|1|2000M||/hpc/home/jml165/rl/lawson-bandits|
jml165|COMPLETED|scavenger|2023-05-14T13:08:39|2023-05-15T12:06:12|22:57:33|dcc-wychem-01|1|1|2000M||/hpc/home/jml165/rl/lawson-bandits|
jml165|COMPLETED|scavenger|2023-05-14T13:08:39|2023-05-15T11:52:37|22:43:58|dcc-wychem-01|1|1|2000M||/hpc/home/jml165/rl/lawson-bandits|
jml165|COMPLETED|scavenger|2023-05-14T13:08:39|2023-05-15T15:24:39|1-02:16:00|dcc-wychem-01|1|1|2000M||/hpc/home/jml165/rl/lawson-bandits|
jml165|COMPLETED|scavenger|2023-05-14T13:08:39|2023-05-15T15:10:08|1-02:01:29|dcc-wychem-01|1|1|2000M||/hpc/home/jml165/rl/lawson-bandits|
jml165|COMPLETED|scavenger|2023-05-14T13:08:39|2023-05-15T16:03:41|1-02:55:02|dcc-wychem-01|1|1|2000M||/hpc/home/jml165/rl/lawson-bandits|
jml165|COMPLETED|scavenger|2023-05-14T13:08:39|2023-05-15T14:23:51|1-01:15:12|dcc-wychem-01|1|1|2000M||/hpc/home/jml165/rl/lawson-bandits|
jml165|COMPLETED|scavenger|2023-05-14T13:08:39|2023-05-15T14:47:44|1-01:39:05|dcc-wychem-01|1|1|2000M||/hpc/home/jml165/rl/lawson-bandits|
jml165|COMPLETED|scavenger|2023-05-14T13:08:39|2023-05-15T13:01:57|23:53:18|dcc-wychem-01|1|1|2000M||/hpc/home/jml165/rl/lawson-bandits|
jml165|COMPLETED|scavenger|2023-05-14T13:08:39|2023-05-15T14:39:49|1-01:31:10|dcc-wychem-01|1|1|2000M||/hpc/home/jml165/rl/lawson-bandits|
jml165|COMPLETED|scavenger|2023-05-14T13:08:39|2023-05-15T14:16:37|1-01:07:58|dcc-wychem-01|1|1|2000M||/hpc/home/jml165/rl/lawson-bandits|
jml165|COMPLETED|scavenger|2023-05-14T13:08:39|2023-05-15T15:53:16|1-02:44:37|dcc-wychem-01|1|1|2000M||/hpc/home/jml165/rl/lawson-bandits|
jml165|COMPLETED|scavenger|2023-05-14T13:08:39|2023-05-15T16:55:33|1-03:46:54|dcc-wychem-01|1|1|2000M||/hpc/home/jml165/rl/lawson-bandits|
jml165|COMPLETED|scavenger|2023-05-14T13:08:39|2023-05-15T16:28:05|1-03:19:26|dcc-wychem-01|1|1|2000M||/hpc/home/jml165/rl/lawson-bandits|
jml165|COMPLETED|scavenger|2023-05-14T13:08:39|2023-05-15T15:53:55|1-02:45:16|dcc-wychem-01|1|1|2000M||/hpc/home/jml165/rl/lawson-bandits|
jml165|COMPLETED|scavenger|2023-05-14T13:08:39|2023-05-15T17:21:58|1-04:13:19|dcc-wychem-01|1|1|2000M||/hpc/home/jml165/rl/lawson-bandits|
jml165|COMPLETED|scavenger|2023-05-14T13:08:39|2023-05-15T17:38:14|1-04:29:35|dcc-wychem-01|1|1|2000M||/hpc/home/jml165/rl/lawson-bandits|
jml165|COMPLETED|scavenger|2023-05-14T13:08:42|2023-05-15T13:38:43|1-00:30:01|dcc-tunglab-02|1|1|2000M||/hpc/home/jml165/rl/lawson-bandits|
jml165|COMPLETED|scavenger|2023-05-14T13:08:42|2023-05-15T14:38:10|1-01:29:28|dcc-tunglab-02|1|1|2000M||/hpc/home/jml165/rl/lawson-bandits|
jml165|COMPLETED|scavenger|2023-05-14T13:08:42|2023-05-15T17:02:51|1-03:54:09|dcc-tunglab-02|1|1|2000M||/hpc/home/jml165/rl/lawson-bandits|
jml165|COMPLETED|scavenger|2023-05-14T13:08:42|2023-05-15T16:53:25|1-03:44:43|dcc-tunglab-02|1|1|2000M||/hpc/home/jml165/rl/lawson-bandits|
jml165|COMPLETED|scavenger|2023-05-14T13:08:42|2023-05-15T13:59:49|1-00:51:07|dcc-tunglab-02|1|1|2000M||/hpc/home/jml165/rl/lawson-bandits|
jml165|COMPLETED|scavenger|2023-05-14T13:08:42|2023-05-15T16:46:19|1-03:37:37|dcc-tunglab-02|1|1|2000M||/hpc/home/jml165/rl/lawson-bandits|
jml165|COMPLETED|scavenger|2023-05-14T13:08:42|2023-05-15T15:31:06|1-02:22:24|dcc-tunglab-02|1|1|2000M||/hpc/home/jml165/rl/lawson-bandits|
jml165|COMPLETED|scavenger|2023-05-14T13:08:42|2023-05-15T16:25:50|1-03:17:08|dcc-tunglab-02|1|1|2000M||/hpc/home/jml165/rl/lawson-bandits|
jml165|COMPLETED|scavenger|2023-05-14T13:08:42|2023-05-15T15:05:12|1-01:56:30|dcc-tunglab-02|1|1|2000M||/hpc/home/jml165/rl/lawson-bandits|
jml165|COMPLETED|scavenger|2023-05-14T13:08:42|2023-05-15T16:17:19|1-03:08:37|dcc-tunglab-02|1|1|2000M||/hpc/home/jml165/rl/lawson-bandits|
jml165|COMPLETED|scavenger|2023-05-14T13:08:42|2023-05-15T16:15:12|1-03:06:30|dcc-tunglab-02|1|1|2000M||/hpc/home/jml165/rl/lawson-bandits|
jml165|COMPLETED|scavenger|2023-05-14T13:08:42|2023-05-15T15:35:21|1-02:26:39|dcc-tunglab-02|1|1|2000M||/hpc/home/jml165/rl/lawson-bandits|
jml165|COMPLETED|scavenger|2023-05-14T13:08:42|2023-05-15T13:08:45|1-00:00:03|dcc-tunglab-02|1|1|2000M||/hpc/home/jml165/rl/lawson-bandits|
jml165|COMPLETED|scavenger|2023-05-14T13:08:42|2023-05-15T15:49:56|1-02:41:14|dcc-tunglab-02|1|1|2000M||/hpc/home/jml165/rl/lawson-bandits|
jml165|COMPLETED|scavenger|2023-05-14T13:08:42|2023-05-15T16:59:22|1-03:50:40|dcc-tunglab-02|1|1|2000M||/hpc/home/jml165/rl/lawson-bandits|
jml165|COMPLETED|scavenger|2023-05-14T13:08:42|2023-05-15T17:31:50|1-04:23:08|dcc-tunglab-02|1|1|2000M||/hpc/home/jml165/rl/lawson-bandits|
jml165|COMPLETED|scavenger|2023-05-14T13:08:42|2023-05-15T11:51:42|22:43:00|dcc-tunglab-02|1|1|2000M||/hpc/home/jml165/rl/lawson-bandits|
jml165|COMPLETED|scavenger|2023-05-14T13:08:42|2023-05-15T15:59:05|1-02:50:23|dcc-tunglab-02|1|1|2000M||/hpc/home/jml165/rl/lawson-bandits|
jml165|COMPLETED|scavenger|2023-05-14T13:08:42|2023-05-15T17:08:01|1-03:59:19|dcc-tunglab-02|1|1|2000M||/hpc/home/jml165/rl/lawson-bandits|
jml165|COMPLETED|scavenger|2023-05-14T13:08:42|2023-05-15T16:06:44|1-02:58:02|dcc-tunglab-02|1|1|2000M||/hpc/home/jml165/rl/lawson-bandits|
jml165|COMPLETED|scavenger|2023-05-14T13:08:42|2023-05-15T17:35:37|1-04:26:55|dcc-tunglab-02|1|1|2000M||/hpc/home/jml165/rl/lawson-bandits|
jml165|COMPLETED|scavenger|2023-05-14T13:08:43|2023-05-15T17:06:20|1-03:57:37|dcc-tunglab-02|1|1|2000M||/hpc/home/jml165/rl/lawson-bandits|
jml165|COMPLETED|scavenger|2023-05-14T13:08:43|2023-05-15T15:38:57|1-02:30:14|dcc-tunglab-02|1|1|2000M||/hpc/home/jml165/rl/lawson-bandits|
jml165|COMPLETED|scavenger|2023-05-14T13:08:43|2023-05-15T16:53:10|1-03:44:27|dcc-tunglab-02|1|1|2000M||/hpc/home/jml165/rl/lawson-bandits|
jml165|COMPLETED|scavenger|2023-05-14T13:08:43|2023-05-15T15:38:54|1-02:30:11|dcc-tunglab-02|1|1|2000M||/hpc/home/jml165/rl/lawson-bandits|
jml165|COMPLETED|scavenger|2023-05-14T13:08:43|2023-05-15T13:52:26|1-00:43:43|dcc-tunglab-02|1|1|2000M||/hpc/home/jml165/rl/lawson-bandits|
jml165|COMPLETED|scavenger|2023-05-14T13:08:43|2023-05-15T16:35:47|1-03:27:04|dcc-tunglab-02|1|1|2000M||/hpc/home/jml165/rl/lawson-bandits|
jml165|COMPLETED|scavenger|2023-05-14T13:08:43|2023-05-15T14:45:34|1-01:36:51|dcc-tunglab-02|1|1|2000M||/hpc/home/jml165/rl/lawson-bandits|
jml165|COMPLETED|scavenger|2023-05-14T13:08:43|2023-05-15T13:58:40|1-00:49:57|dcc-tunglab-02|1|1|2000M||/hpc/home/jml165/rl/lawson-bandits|
jml165|COMPLETED|scavenger|2023-05-14T13:08:43|2023-05-15T11:34:49|22:26:06|dcc-tunglab-02|1|1|2000M||/hpc/home/jml165/rl/lawson-bandits|
jml165|COMPLETED|scavenger|2023-05-14T13:08:43|2023-05-15T15:32:26|1-02:23:43|dcc-tunglab-02|1|1|2000M||/hpc/home/jml165/rl/lawson-bandits|
jml165|COMPLETED|scavenger|2023-05-14T13:08:43|2023-05-15T04:16:01|15:07:18|dcc-tunglab-01|1|1|2000M||/hpc/home/jml165/rl/lawson-bandits|
jml165|COMPLETED|scavenger|2023-05-14T13:08:43|2023-05-15T04:23:34|15:14:51|dcc-tunglab-01|1|1|2000M||/hpc/home/jml165/rl/lawson-bandits|
jml165|COMPLETED|scavenger|2023-05-14T13:08:43|2023-05-15T06:00:09|16:51:26|dcc-tunglab-01|1|1|2000M||/hpc/home/jml165/rl/lawson-bandits|
jml165|COMPLETED|scavenger|2023-05-14T13:08:43|2023-05-15T05:03:03|15:54:20|dcc-tunglab-01|1|1|2000M||/hpc/home/jml165/rl/lawson-bandits|
jml165|COMPLETED|scavenger|2023-05-14T13:08:43|2023-05-15T05:05:10|15:56:27|dcc-tunglab-01|1|1|2000M||/hpc/home/jml165/rl/lawson-bandits|
jml165|COMPLETED|scavenger|2023-05-14T13:08:43|2023-05-15T12:45:10|23:36:27|dcc-tmolab-02|1|1|2000M||/hpc/home/jml165/rl/lawson-bandits|
jml165|COMPLETED|scavenger|2023-05-14T13:08:43|2023-05-15T10:18:00|21:09:17|dcc-tmolab-02|1|1|2000M||/hpc/home/jml165/rl/lawson-bandits|
jml165|COMPLETED|scavenger|2023-05-14T13:08:43|2023-05-15T09:20:48|20:12:05|dcc-tmolab-02|1|1|2000M||/hpc/home/jml165/rl/lawson-bandits|
jml165|COMPLETED|scavenger|2023-05-14T13:08:43|2023-05-15T08:26:11|19:17:28|dcc-tmolab-02|1|1|2000M||/hpc/home/jml165/rl/lawson-bandits|
jml165|COMPLETED|scavenger|2023-05-14T13:08:43|2023-05-15T11:24:38|22:15:55|dcc-tmolab-02|1|1|2000M||/hpc/home/jml165/rl/lawson-bandits|
jml165|COMPLETED|scavenger|2023-05-14T13:08:43|2023-05-15T12:13:28|23:04:45|dcc-tmolab-02|1|1|2000M||/hpc/home/jml165/rl/lawson-bandits|
jml165|COMPLETED|scavenger|2023-05-14T13:08:43|2023-05-15T13:47:25|1-00:38:42|dcc-tmolab-02|1|1|2000M||/hpc/home/jml165/rl/lawson-bandits|
jml165|COMPLETED|scavenger|2023-05-14T13:08:43|2023-05-15T08:35:10|19:26:27|dcc-tmolab-02|1|1|2000M||/hpc/home/jml165/rl/lawson-bandits|
jml165|COMPLETED|scavenger|2023-05-14T13:08:43|2023-05-15T09:48:28|20:39:45|dcc-tmolab-02|1|1|2000M||/hpc/home/jml165/rl/lawson-bandits|
jml165|COMPLETED|scavenger|2023-05-14T13:08:43|2023-05-15T11:17:56|22:09:13|dcc-tmolab-02|1|1|2000M||/hpc/home/jml165/rl/lawson-bandits|
jml165|COMPLETED|scavenger|2023-05-14T13:08:43|2023-05-15T10:34:52|21:26:09|dcc-tmolab-02|1|1|2000M||/hpc/home/jml165/rl/lawson-bandits|
jml165|COMPLETED|scavenger|2023-05-14T13:08:43|2023-05-15T09:38:51|20:30:08|dcc-tmolab-02|1|1|2000M||/hpc/home/jml165/rl/lawson-bandits|
jml165|COMPLETED|scavenger|2023-05-14T13:08:43|2023-05-15T08:07:13|18:58:30|dcc-tmolab-02|1|1|2000M||/hpc/home/jml165/rl/lawson-bandits|
jml165|COMPLETED|scavenger|2023-05-14T13:08:43|2023-05-15T11:20:04|22:11:21|dcc-tmolab-02|1|1|2000M||/hpc/home/jml165/rl/lawson-bandits|
jml165|COMPLETED|scavenger|2023-05-14T13:08:43|2023-05-15T05:47:02|16:38:19|dcc-tmolab-02|1|1|2000M||/hpc/home/jml165/rl/lawson-bandits|
jml165|COMPLETED|scavenger|2023-05-14T13:08:43|2023-05-15T04:34:34|15:25:51|dcc-tmolab-02|1|1|2000M||/hpc/home/jml165/rl/lawson-bandits|
jml165|COMPLETED|scavenger|2023-05-14T13:08:43|2023-05-15T11:10:13|22:01:30|dcc-tmolab-02|1|1|2000M||/hpc/home/jml165/rl/lawson-bandits|
jml165|COMPLETED|scavenger|2023-05-14T13:08:43|2023-05-15T09:44:13|20:35:30|dcc-tmolab-02|1|1|2000M||/hpc/home/jml165/rl/lawson-bandits|
jml165|COMPLETED|scavenger|2023-05-14T13:08:43|2023-05-15T04:27:34|15:18:51|dcc-tmolab-02|1|1|2000M||/hpc/home/jml165/rl/lawson-bandits|
jml165|COMPLETED|scavenger|2023-05-14T13:08:43|2023-05-15T05:27:39|16:18:56|dcc-tmolab-02|1|1|2000M||/hpc/home/jml165/rl/lawson-bandits|
jml165|COMPLETED|scavenger|2023-05-14T13:08:57|2023-05-15T16:19:01|1-03:10:04|dcc-tmolab-01|1|1|2000M||/hpc/home/jml165/rl/lawson-bandits|
jml165|COMPLETED|scavenger|2023-05-14T13:08:57|2023-05-15T14:08:20|1-00:59:23|dcc-tmolab-01|1|1|2000M||/hpc/home/jml165/rl/lawson-bandits|
jml165|COMPLETED|scavenger|2023-05-14T13:08:57|2023-05-15T17:11:57|1-04:03:00|dcc-tmolab-01|1|1|2000M||/hpc/home/jml165/rl/lawson-bandits|
jml165|COMPLETED|scavenger|2023-05-14T13:08:57|2023-05-15T16:48:14|1-03:39:17|dcc-tmolab-01|1|1|2000M||/hpc/home/jml165/rl/lawson-bandits|
jml165|COMPLETED|scavenger|2023-05-14T13:08:57|2023-05-15T14:26:48|1-01:17:51|dcc-tmolab-01|1|1|2000M||/hpc/home/jml165/rl/lawson-bandits|
jml165|COMPLETED|scavenger|2023-05-14T13:08:57|2023-05-15T06:16:05|17:07:08|dcc-statdept-01|1|1|2000M||/hpc/home/jml165/rl/lawson-bandits|
jml165|COMPLETED|scavenger|2023-05-14T13:08:57|2023-05-15T05:23:54|16:14:57|dcc-statdept-01|1|1|2000M||/hpc/home/jml165/rl/lawson-bandits|
jml165|COMPLETED|scavenger|2023-05-14T13:08:57|2023-05-15T01:45:29|12:36:32|dcc-statdept-01|1|1|2000M||/hpc/home/jml165/rl/lawson-bandits|
jml165|COMPLETED|scavenger|2023-05-14T13:08:58|2023-05-15T06:26:37|17:17:39|dcc-statdept-01|1|1|2000M||/hpc/home/jml165/rl/lawson-bandits|
jml165|COMPLETED|scavenger|2023-05-14T13:08:58|2023-05-15T05:27:15|16:18:17|dcc-statdept-01|1|1|2000M||/hpc/home/jml165/rl/lawson-bandits|
jml165|COMPLETED|scavenger|2023-05-14T13:08:58|2023-05-15T02:17:14|13:08:16|dcc-statdept-01|1|1|2000M||/hpc/home/jml165/rl/lawson-bandits|
jml165|COMPLETED|scavenger|2023-05-14T13:08:58|2023-05-15T04:56:42|15:47:44|dcc-statdept-01|1|1|2000M||/hpc/home/jml165/rl/lawson-bandits|
jml165|COMPLETED|scavenger|2023-05-14T13:08:58|2023-05-15T04:22:29|15:13:31|dcc-statdept-01|1|1|2000M||/hpc/home/jml165/rl/lawson-bandits|
jml165|COMPLETED|scavenger|2023-05-14T13:08:58|2023-05-15T07:43:02|18:34:04|dcc-savageresearch-02|1|1|2000M||/hpc/home/jml165/rl/lawson-bandits|
jml165|COMPLETED|scavenger|2023-05-14T13:08:58|2023-05-15T08:33:35|19:24:37|dcc-savageresearch-02|1|1|2000M||/hpc/home/jml165/rl/lawson-bandits|
jml165|COMPLETED|scavenger|2023-05-14T13:08:58|2023-05-15T06:17:55|17:08:57|dcc-savageresearch-02|1|1|2000M||/hpc/home/jml165/rl/lawson-bandits|
jml165|COMPLETED|scavenger|2023-05-14T13:08:58|2023-05-15T09:29:24|20:20:26|dcc-savageresearch-02|1|1|2000M||/hpc/home/jml165/rl/lawson-bandits|
jml165|COMPLETED|scavenger|2023-05-14T13:08:58|2023-05-15T13:54:34|1-00:45:36|dcc-savageresearch-02|1|1|2000M||/hpc/home/jml165/rl/lawson-bandits|
jml165|COMPLETED|scavenger|2023-05-14T13:08:58|2023-05-15T12:24:40|23:15:42|dcc-savageresearch-02|1|1|2000M||/hpc/home/jml165/rl/lawson-bandits|
jml165|COMPLETED|scavenger|2023-05-14T13:08:58|2023-05-15T07:04:00|17:55:02|dcc-savageresearch-02|1|1|2000M||/hpc/home/jml165/rl/lawson-bandits|
jml165|COMPLETED|scavenger|2023-05-14T13:08:58|2023-05-15T10:11:30|21:02:32|dcc-savageresearch-02|1|1|2000M||/hpc/home/jml165/rl/lawson-bandits|
jml165|COMPLETED|scavenger|2023-05-14T13:08:58|2023-05-15T12:47:38|23:38:40|dcc-savageresearch-02|1|1|2000M||/hpc/home/jml165/rl/lawson-bandits|
jml165|COMPLETED|scavenger|2023-05-14T13:08:58|2023-05-15T08:26:35|19:17:37|dcc-savageresearch-02|1|1|2000M||/hpc/home/jml165/rl/lawson-bandits|
jml165|COMPLETED|scavenger|2023-05-14T13:08:58|2023-05-15T09:22:38|20:13:40|dcc-savageresearch-02|1|1|2000M||/hpc/home/jml165/rl/lawson-bandits|
jml165|COMPLETED|scavenger|2023-05-14T13:08:58|2023-05-15T08:19:22|19:10:24|dcc-savageresearch-02|1|1|2000M||/hpc/home/jml165/rl/lawson-bandits|
jml165|COMPLETED|scavenger|2023-05-14T13:08:58|2023-05-15T10:59:35|21:50:37|dcc-savageresearch-02|1|1|2000M||/hpc/home/jml165/rl/lawson-bandits|
jml165|COMPLETED|scavenger|2023-05-14T13:08:58|2023-05-15T11:34:49|22:25:51|dcc-savageresearch-02|1|1|2000M||/hpc/home/jml165/rl/lawson-bandits|
jml165|COMPLETED|scavenger|2023-05-14T13:08:58|2023-05-15T14:07:39|1-00:58:41|dcc-savageresearch-02|1|1|2000M||/hpc/home/jml165/rl/lawson-bandits|
jml165|COMPLETED|scavenger|2023-05-14T13:08:58|2023-05-15T14:56:07|1-01:47:09|dcc-savageresearch-02|1|1|2000M||/hpc/home/jml165/rl/lawson-bandits|
jml165|COMPLETED|scavenger|2023-05-14T13:08:59|2023-05-15T13:30:36|1-00:21:37|dcc-savageresearch-02|1|1|2000M||/hpc/home/jml165/rl/lawson-bandits|
jml165|COMPLETED|scavenger|2023-05-14T13:08:59|2023-05-15T14:23:22|1-01:14:23|dcc-savageresearch-02|1|1|2000M||/hpc/home/jml165/rl/lawson-bandits|
jml165|COMPLETED|scavenger|2023-05-14T13:08:59|2023-05-15T15:20:47|1-02:11:48|dcc-savageresearch-02|1|1|2000M||/hpc/home/jml165/rl/lawson-bandits|
jml165|COMPLETED|scavenger|2023-05-14T13:08:59|2023-05-15T15:52:24|1-02:43:25|dcc-savageresearch-02|1|1|2000M||/hpc/home/jml165/rl/lawson-bandits|
jml165|COMPLETED|scavenger|2023-05-14T13:08:59|2023-05-15T14:57:24|1-01:48:25|dcc-savageresearch-02|1|1|2000M||/hpc/home/jml165/rl/lawson-bandits|
jml165|COMPLETED|scavenger|2023-05-14T13:08:59|2023-05-15T14:16:41|1-01:07:42|dcc-savageresearch-02|1|1|2000M||/hpc/home/jml165/rl/lawson-bandits|
jml165|COMPLETED|scavenger|2023-05-14T13:08:59|2023-05-15T14:20:47|1-01:11:48|dcc-savageresearch-02|1|1|2000M||/hpc/home/jml165/rl/lawson-bandits|
jml165|COMPLETED|scavenger|2023-05-14T13:08:59|2023-05-15T14:58:53|1-01:49:54|dcc-savageresearch-02|1|1|2000M||/hpc/home/jml165/rl/lawson-bandits|
jml165|COMPLETED|scavenger|2023-05-14T13:08:59|2023-05-15T16:53:56|1-03:44:57|dcc-savageresearch-02|1|1|2000M||/hpc/home/jml165/rl/lawson-bandits|
jml165|COMPLETED|scavenger|2023-05-14T13:08:59|2023-05-15T11:35:37|22:26:38|dcc-savageresearch-02|1|1|2000M||/hpc/home/jml165/rl/lawson-bandits|
jml165|COMPLETED|scavenger|2023-05-14T13:08:59|2023-05-15T11:08:13|21:59:14|dcc-savageresearch-02|1|1|2000M||/hpc/home/jml165/rl/lawson-bandits|
jml165|COMPLETED|scavenger|2023-05-14T13:08:59|2023-05-15T09:17:54|20:08:55|dcc-savageresearch-01|1|1|2000M||/hpc/home/jml165/rl/lawson-bandits|
jml165|COMPLETED|scavenger|2023-05-14T13:08:59|2023-05-15T10:46:17|21:37:18|dcc-savageresearch-01|1|1|2000M||/hpc/home/jml165/rl/lawson-bandits|
jml165|COMPLETED|scavenger|2023-05-14T13:08:59|2023-05-15T15:55:46|1-02:46:47|dcc-savageresearch-01|1|1|2000M||/hpc/home/jml165/rl/lawson-bandits|
jml165|COMPLETED|scavenger|2023-05-14T13:08:59|2023-05-15T13:26:10|1-00:17:11|dcc-savageresearch-01|1|1|2000M||/hpc/home/jml165/rl/lawson-bandits|
jml165|COMPLETED|scavenger|2023-05-14T13:08:59|2023-05-15T11:15:55|22:06:56|dcc-savageresearch-01|1|1|2000M||/hpc/home/jml165/rl/lawson-bandits|
jml165|COMPLETED|scavenger|2023-05-14T13:08:59|2023-05-15T12:32:53|23:23:54|dcc-savageresearch-01|1|1|2000M||/hpc/home/jml165/rl/lawson-bandits|
jml165|COMPLETED|scavenger|2023-05-14T13:08:59|2023-05-15T13:35:57|1-00:26:58|dcc-savageresearch-01|1|1|2000M||/hpc/home/jml165/rl/lawson-bandits|
jml165|COMPLETED|scavenger|2023-05-14T13:08:59|2023-05-15T14:23:09|1-01:14:10|dcc-savageresearch-01|1|1|2000M||/hpc/home/jml165/rl/lawson-bandits|
jml165|COMPLETED|scavenger|2023-05-14T13:08:59|2023-05-15T12:07:40|22:58:41|dcc-savageresearch-01|1|1|2000M||/hpc/home/jml165/rl/lawson-bandits|
jml165|COMPLETED|scavenger|2023-05-14T13:08:59|2023-05-15T15:30:30|1-02:21:31|dcc-savageresearch-01|1|1|2000M||/hpc/home/jml165/rl/lawson-bandits|
jml165|COMPLETED|scavenger|2023-05-14T13:08:59|2023-05-15T14:04:51|1-00:55:52|dcc-savageresearch-01|1|1|2000M||/hpc/home/jml165/rl/lawson-bandits|
jml165|COMPLETED|scavenger|2023-05-14T13:08:59|2023-05-15T14:40:53|1-01:31:54|dcc-savageresearch-01|1|1|2000M||/hpc/home/jml165/rl/lawson-bandits|
jml165|COMPLETED|scavenger|2023-05-14T13:08:59|2023-05-15T09:05:04|19:56:05|dcc-savageresearch-01|1|1|2000M||/hpc/home/jml165/rl/lawson-bandits|
jml165|COMPLETED|scavenger|2023-05-14T13:08:59|2023-05-15T13:36:35|1-00:27:36|dcc-savageresearch-01|1|1|2000M||/hpc/home/jml165/rl/lawson-bandits|
jml165|COMPLETED|scavenger|2023-05-14T13:08:59|2023-05-15T13:37:02|1-00:28:03|dcc-savageresearch-01|1|1|2000M||/hpc/home/jml165/rl/lawson-bandits|
jml165|COMPLETED|scavenger|2023-05-14T13:08:59|2023-05-15T15:12:27|1-02:03:28|dcc-savageresearch-01|1|1|2000M||/hpc/home/jml165/rl/lawson-bandits|
jml165|COMPLETED|scavenger|2023-05-14T13:08:59|2023-05-15T16:34:53|1-03:25:54|dcc-savageresearch-01|1|1|2000M||/hpc/home/jml165/rl/lawson-bandits|
jml165|COMPLETED|scavenger|2023-05-14T13:08:59|2023-05-15T15:25:28|1-02:16:29|dcc-savageresearch-01|1|1|2000M||/hpc/home/jml165/rl/lawson-bandits|
jml165|COMPLETED|scavenger|2023-05-14T13:09:00|2023-05-15T14:30:36|1-01:21:36|dcc-savageresearch-01|1|1|2000M||/hpc/home/jml165/rl/lawson-bandits|
jml165|COMPLETED|scavenger|2023-05-14T13:09:00|2023-05-15T14:44:03|1-01:35:03|dcc-savageresearch-01|1|1|2000M||/hpc/home/jml165/rl/lawson-bandits|
jml165|COMPLETED|scavenger|2023-05-14T13:09:00|2023-05-15T16:43:08|1-03:34:08|dcc-savageresearch-01|1|1|2000M||/hpc/home/jml165/rl/lawson-bandits|
jml165|COMPLETED|scavenger|2023-05-14T13:09:00|2023-05-15T08:49:46|19:40:46|dcc-rausherlab-02|1|1|2000M||/hpc/home/jml165/rl/lawson-bandits|
jml165|COMPLETED|scavenger|2023-05-14T13:09:00|2023-05-15T05:36:31|16:27:31|dcc-rausherlab-01|1|1|2000M||/hpc/home/jml165/rl/lawson-bandits|
jml165|COMPLETED|scavenger|2023-05-14T13:09:00|2023-05-15T17:10:59|1-04:01:59|dcc-pfister-01|1|1|2000M||/hpc/home/jml165/rl/lawson-bandits|
jml165|COMPLETED|scavenger|2023-05-14T13:09:00|2023-05-15T12:17:16|23:08:16|dcc-pfister-01|1|1|2000M||/hpc/home/jml165/rl/lawson-bandits|
jml165|COMPLETED|scavenger|2023-05-14T13:09:00|2023-05-15T10:08:12|20:59:12|dcc-pfister-01|1|1|2000M||/hpc/home/jml165/rl/lawson-bandits|
jml165|COMPLETED|scavenger|2023-05-14T13:09:00|2023-05-15T14:00:36|1-00:51:36|dcc-pfister-01|1|1|2000M||/hpc/home/jml165/rl/lawson-bandits|
jml165|COMPLETED|scavenger|2023-05-14T13:09:00|2023-05-15T15:52:12|1-02:43:12|dcc-pfister-01|1|1|2000M||/hpc/home/jml165/rl/lawson-bandits|
jml165|COMPLETED|scavenger|2023-05-14T13:09:00|2023-05-15T16:14:23|1-03:05:23|dcc-pfister-01|1|1|2000M||/hpc/home/jml165/rl/lawson-bandits|
jml165|COMPLETED|scavenger|2023-05-14T13:09:00|2023-05-15T16:53:44|1-03:44:44|dcc-pfister-01|1|1|2000M||/hpc/home/jml165/rl/lawson-bandits|
jml165|COMPLETED|scavenger|2023-05-14T13:09:00|2023-05-15T17:09:12|1-04:00:12|dcc-pfister-01|1|1|2000M||/hpc/home/jml165/rl/lawson-bandits|
jml165|COMPLETED|scavenger|2023-05-14T13:09:00|2023-05-15T10:22:21|21:13:21|dcc-pfister-01|1|1|2000M||/hpc/home/jml165/rl/lawson-bandits|
jml165|COMPLETED|scavenger|2023-05-14T13:09:00|2023-05-15T14:42:27|1-01:33:27|dcc-pfister-01|1|1|2000M||/hpc/home/jml165/rl/lawson-bandits|
jml165|COMPLETED|scavenger|2023-05-14T13:09:00|2023-05-15T15:19:44|1-02:10:44|dcc-pfister-01|1|1|2000M||/hpc/home/jml165/rl/lawson-bandits|
jml165|COMPLETED|scavenger|2023-05-14T13:09:00|2023-05-15T13:22:50|1-00:13:50|dcc-pfister-01|1|1|2000M||/hpc/home/jml165/rl/lawson-bandits|
jml165|COMPLETED|scavenger|2023-05-14T13:09:00|2023-05-15T11:55:35|22:46:35|dcc-pfister-01|1|1|2000M||/hpc/home/jml165/rl/lawson-bandits|
jml165|COMPLETED|scavenger|2023-05-14T13:09:00|2023-05-15T16:00:09|1-02:51:09|dcc-pfister-01|1|1|2000M||/hpc/home/jml165/rl/lawson-bandits|
jml165|COMPLETED|scavenger|2023-05-14T13:09:00|2023-05-15T14:02:45|1-00:53:45|dcc-pfister-01|1|1|2000M||/hpc/home/jml165/rl/lawson-bandits|
jml165|COMPLETED|scavenger|2023-05-14T13:09:00|2023-05-15T08:52:35|19:43:35|dcc-pfister-01|1|1|2000M||/hpc/home/jml165/rl/lawson-bandits|
jml165|COMPLETED|scavenger|2023-05-14T13:09:00|2023-05-15T12:55:21|23:46:21|dcc-pfister-01|1|1|2000M||/hpc/home/jml165/rl/lawson-bandits|
jml165|COMPLETED|scavenger|2023-05-14T13:09:00|2023-05-15T15:14:06|1-02:05:06|dcc-pfister-01|1|1|2000M||/hpc/home/jml165/rl/lawson-bandits|
jml165|COMPLETED|scavenger|2023-05-14T13:09:00|2023-05-15T11:01:28|21:52:28|dcc-pfister-01|1|1|2000M||/hpc/home/jml165/rl/lawson-bandits|
jml165|COMPLETED|scavenger|2023-05-14T13:09:00|2023-05-15T14:07:15|1-00:58:15|dcc-pfister-01|1|1|2000M||/hpc/home/jml165/rl/lawson-bandits|
jml165|COMPLETED|scavenger|2023-05-14T13:09:00|2023-05-15T13:35:00|1-00:26:00|dcc-pfister-01|1|1|2000M||/hpc/home/jml165/rl/lawson-bandits|
jml165|COMPLETED|scavenger|2023-05-14T13:09:00|2023-05-15T13:13:36|1-00:04:36|dcc-pfister-01|1|1|2000M||/hpc/home/jml165/rl/lawson-bandits|
jml165|COMPLETED|scavenger|2023-05-14T13:09:00|2023-05-15T09:05:56|19:56:56|dcc-pfister-01|1|1|2000M||/hpc/home/jml165/rl/lawson-bandits|
jml165|COMPLETED|scavenger|2023-05-14T13:09:00|2023-05-15T12:13:24|23:04:24|dcc-pfister-01|1|1|2000M||/hpc/home/jml165/rl/lawson-bandits|
jml165|COMPLETED|scavenger|2023-05-14T13:09:00|2023-05-15T13:07:49|23:58:49|dcc-pfister-01|1|1|2000M||/hpc/home/jml165/rl/lawson-bandits|
jml165|COMPLETED|scavenger|2023-05-14T13:09:00|2023-05-15T15:40:34|1-02:31:34|dcc-pfister-01|1|1|2000M||/hpc/home/jml165/rl/lawson-bandits|
jml165|COMPLETED|scavenger|2023-05-14T13:09:00|2023-05-15T13:19:17|1-00:10:17|dcc-pfister-01|1|1|2000M||/hpc/home/jml165/rl/lawson-bandits|
jml165|COMPLETED|scavenger|2023-05-14T13:09:00|2023-05-15T14:15:21|1-01:06:21|dcc-pfister-01|1|1|2000M||/hpc/home/jml165/rl/lawson-bandits|
jml165|COMPLETED|scavenger|2023-05-14T13:09:00|2023-05-15T12:48:20|23:39:20|dcc-pfister-01|1|1|2000M||/hpc/home/jml165/rl/lawson-bandits|
jml165|COMPLETED|scavenger|2023-05-14T13:09:00|2023-05-15T13:23:14|1-00:14:14|dcc-pfister-01|1|1|2000M||/hpc/home/jml165/rl/lawson-bandits|
jml165|COMPLETED|scavenger|2023-05-14T13:09:19|2023-05-15T10:13:00|21:03:41|dcc-pfister-01|1|1|2000M||/hpc/home/jml165/rl/lawson-bandits|
jml165|COMPLETED|scavenger|2023-05-14T13:09:19|2023-05-15T13:56:58|1-00:47:39|dcc-pfister-01|1|1|2000M||/hpc/home/jml165/rl/lawson-bandits|
jml165|COMPLETED|scavenger|2023-05-14T13:09:19|2023-05-15T15:21:01|1-02:11:42|dcc-pfister-01|1|1|2000M||/hpc/home/jml165/rl/lawson-bandits|
jml165|COMPLETED|scavenger|2023-05-14T13:09:19|2023-05-15T13:01:42|23:52:23|dcc-pfister-01|1|1|2000M||/hpc/home/jml165/rl/lawson-bandits|
jml165|COMPLETED|scavenger|2023-05-14T13:09:19|2023-05-15T13:51:33|1-00:42:14|dcc-pfister-01|1|1|2000M||/hpc/home/jml165/rl/lawson-bandits|
jml165|COMPLETED|scavenger|2023-05-14T13:09:19|2023-05-15T16:09:07|1-02:59:48|dcc-pfister-01|1|1|2000M||/hpc/home/jml165/rl/lawson-bandits|
jml165|COMPLETED|scavenger|2023-05-14T13:09:19|2023-05-15T15:36:50|1-02:27:31|dcc-pfister-01|1|1|2000M||/hpc/home/jml165/rl/lawson-bandits|
jml165|COMPLETED|scavenger|2023-05-14T13:09:19|2023-05-15T15:25:36|1-02:16:17|dcc-pfister-01|1|1|2000M||/hpc/home/jml165/rl/lawson-bandits|
jml165|COMPLETED|scavenger|2023-05-14T13:09:19|2023-05-15T16:43:25|1-03:34:06|dcc-pfister-01|1|1|2000M||/hpc/home/jml165/rl/lawson-bandits|
jml165|COMPLETED|scavenger|2023-05-14T13:09:19|2023-05-15T13:58:57|1-00:49:38|dcc-pfister-01|1|1|2000M||/hpc/home/jml165/rl/lawson-bandits|
jml165|COMPLETED|scavenger|2023-05-14T13:09:19|2023-05-15T11:48:00|22:38:41|dcc-pfister-01|1|1|2000M||/hpc/home/jml165/rl/lawson-bandits|
jml165|COMPLETED|scavenger|2023-05-14T13:09:20|2023-05-15T10:11:44|21:02:24|dcc-pfister-01|1|1|2000M||/hpc/home/jml165/rl/lawson-bandits|
jml165|COMPLETED|scavenger|2023-05-14T13:09:20|2023-05-15T17:00:18|1-03:50:58|dcc-pfister-01|1|1|2000M||/hpc/home/jml165/rl/lawson-bandits|
jml165|COMPLETED|scavenger|2023-05-14T13:09:20|2023-05-15T17:34:54|1-04:25:34|dcc-pfister-01|1|1|2000M||/hpc/home/jml165/rl/lawson-bandits|
jml165|COMPLETED|scavenger|2023-05-14T13:09:20|2023-05-15T12:00:03|22:50:43|dcc-pfister-01|1|1|2000M||/hpc/home/jml165/rl/lawson-bandits|
jml165|COMPLETED|scavenger|2023-05-14T13:09:20|2023-05-15T13:44:18|1-00:34:58|dcc-pfister-01|1|1|2000M||/hpc/home/jml165/rl/lawson-bandits|
jml165|COMPLETED|scavenger|2023-05-14T13:09:20|2023-05-15T17:36:10|1-04:26:50|dcc-pfister-01|1|1|2000M||/hpc/home/jml165/rl/lawson-bandits|
jml165|COMPLETED|scavenger|2023-05-14T13:09:20|2023-05-15T14:40:34|1-01:31:14|dcc-pfister-01|1|1|2000M||/hpc/home/jml165/rl/lawson-bandits|
jml165|COMPLETED|scavenger|2023-05-14T13:09:20|2023-05-15T13:58:34|1-00:49:14|dcc-pfister-01|1|1|2000M||/hpc/home/jml165/rl/lawson-bandits|
jml165|COMPLETED|scavenger|2023-05-14T13:09:20|2023-05-15T16:30:16|1-03:20:56|dcc-pfister-01|1|1|2000M||/hpc/home/jml165/rl/lawson-bandits|
jml165|COMPLETED|scavenger|2023-05-14T13:09:20|2023-05-15T12:53:46|23:44:26|dcc-pfister-01|1|1|2000M||/hpc/home/jml165/rl/lawson-bandits|
jml165|COMPLETED|scavenger|2023-05-14T13:09:20|2023-05-15T11:48:25|22:39:05|dcc-pfister-01|1|1|2000M||/hpc/home/jml165/rl/lawson-bandits|
jml165|COMPLETED|scavenger|2023-05-14T13:09:20|2023-05-15T04:52:38|15:43:18|dcc-pbenfeylab-01|1|1|2000M||/hpc/home/jml165/rl/lawson-bandits|
jml165|COMPLETED|scavenger|2023-05-14T13:09:20|2023-05-15T03:30:23|14:21:03|dcc-pbenfeylab-01|1|1|2000M||/hpc/home/jml165/rl/lawson-bandits|
jml165|COMPLETED|scavenger|2023-05-14T13:09:20|2023-05-15T02:49:10|13:39:50|dcc-pbenfeylab-01|1|1|2000M||/hpc/home/jml165/rl/lawson-bandits|
jml165|COMPLETED|scavenger|2023-05-14T13:09:20|2023-05-15T05:13:34|16:04:14|dcc-pbenfeylab-01|1|1|2000M||/hpc/home/jml165/rl/lawson-bandits|
jml165|COMPLETED|scavenger|2023-05-14T13:09:20|2023-05-15T03:53:46|14:44:26|dcc-pbenfeylab-01|1|1|2000M||/hpc/home/jml165/rl/lawson-bandits|
jml165|COMPLETED|scavenger|2023-05-14T13:09:20|2023-05-15T05:47:50|16:38:30|dcc-nsoe-it-01|1|1|2000M||/hpc/home/jml165/rl/lawson-bandits|
jml165|COMPLETED|scavenger|2023-05-14T13:09:20|2023-05-15T05:34:54|16:25:34|dcc-nsoe-it-01|1|1|2000M||/hpc/home/jml165/rl/lawson-bandits|
jml165|COMPLETED|scavenger|2023-05-14T13:09:20|2023-05-15T05:30:58|16:21:38|dcc-nsoe-it-01|1|1|2000M||/hpc/home/jml165/rl/lawson-bandits|
jml165|COMPLETED|scavenger|2023-05-14T13:09:20|2023-05-15T07:03:07|17:53:47|dcc-nsoe-it-01|1|1|2000M||/hpc/home/jml165/rl/lawson-bandits|
jml165|COMPLETED|scavenger|2023-05-14T13:09:20|2023-05-15T06:44:23|17:35:03|dcc-nsoe-it-01|1|1|2000M||/hpc/home/jml165/rl/lawson-bandits|
jml165|COMPLETED|scavenger|2023-05-14T13:09:20|2023-05-15T05:51:49|16:42:29|dcc-nsoe-it-01|1|1|2000M||/hpc/home/jml165/rl/lawson-bandits|
jml165|COMPLETED|scavenger|2023-05-14T13:09:20|2023-05-15T05:58:48|16:49:28|dcc-nsoe-it-01|1|1|2000M||/hpc/home/jml165/rl/lawson-bandits|
jml165|COMPLETED|scavenger|2023-05-14T13:09:20|2023-05-15T04:56:18|15:46:58|dcc-nsoe-it-01|1|1|2000M||/hpc/home/jml165/rl/lawson-bandits|
jml165|COMPLETED|scavenger|2023-05-14T13:09:20|2023-05-15T07:19:25|18:10:05|dcc-nsoe-it-01|1|1|2000M||/hpc/home/jml165/rl/lawson-bandits|
jml165|COMPLETED|scavenger|2023-05-14T13:09:20|2023-05-15T05:08:11|15:58:51|dcc-nsoe-it-01|1|1|2000M||/hpc/home/jml165/rl/lawson-bandits|
jml165|COMPLETED|scavenger|2023-05-14T13:09:20|2023-05-15T05:40:38|16:31:18|dcc-nsoe-it-01|1|1|2000M||/hpc/home/jml165/rl/lawson-bandits|
jml165|COMPLETED|scavenger|2023-05-14T13:09:20|2023-05-15T10:00:57|20:51:37|dcc-nsoe-it-01|1|1|2000M||/hpc/home/jml165/rl/lawson-bandits|
jml165|COMPLETED|scavenger|2023-05-14T13:09:20|2023-05-15T06:24:13|17:14:53|dcc-nsoe-it-01|1|1|2000M||/hpc/home/jml165/rl/lawson-bandits|
jml165|COMPLETED|scavenger|2023-05-14T13:09:20|2023-05-15T05:58:52|16:49:32|dcc-nsoe-it-01|1|1|2000M||/hpc/home/jml165/rl/lawson-bandits|
jml165|COMPLETED|scavenger|2023-05-14T13:09:20|2023-05-15T05:17:18|16:07:58|dcc-nsoe-it-01|1|1|2000M||/hpc/home/jml165/rl/lawson-bandits|
jml165|COMPLETED|scavenger|2023-05-14T13:09:20|2023-05-15T05:49:34|16:40:14|dcc-nsoe-it-01|1|1|2000M||/hpc/home/jml165/rl/lawson-bandits|
jml165|COMPLETED|scavenger|2023-05-14T13:09:20|2023-05-15T08:29:57|19:20:37|dcc-nsoe-it-01|1|1|2000M||/hpc/home/jml165/rl/lawson-bandits|
jml165|COMPLETED|scavenger|2023-05-14T13:09:20|2023-05-15T05:22:50|16:13:30|dcc-nsoe-it-01|1|1|2000M||/hpc/home/jml165/rl/lawson-bandits|
jml165|COMPLETED|scavenger|2023-05-14T13:09:20|2023-05-15T07:49:17|18:39:57|dcc-nsoe-it-01|1|1|2000M||/hpc/home/jml165/rl/lawson-bandits|
jml165|COMPLETED|scavenger|2023-05-14T13:09:20|2023-05-15T09:30:34|20:21:14|dcc-nsoe-it-01|1|1|2000M||/hpc/home/jml165/rl/lawson-bandits|
jml165|COMPLETED|scavenger|2023-05-14T13:09:20|2023-05-15T08:03:45|18:54:25|dcc-nsoe-it-01|1|1|2000M||/hpc/home/jml165/rl/lawson-bandits|
jml165|COMPLETED|scavenger|2023-05-14T13:09:20|2023-05-15T05:19:29|16:10:09|dcc-nsoe-it-01|1|1|2000M||/hpc/home/jml165/rl/lawson-bandits|
jml165|COMPLETED|scavenger|2023-05-14T13:09:20|2023-05-15T04:22:13|15:12:53|dcc-nsoe-it-01|1|1|2000M||/hpc/home/jml165/rl/lawson-bandits|
jml165|COMPLETED|scavenger|2023-05-14T13:09:28|2023-05-15T06:27:04|17:17:36|dcc-nsoe-it-01|1|1|2000M||/hpc/home/jml165/rl/lawson-bandits|
jml165|COMPLETED|scavenger|2023-05-14T13:09:28|2023-05-15T05:40:27|16:30:59|dcc-nsoe-it-01|1|1|2000M||/hpc/home/jml165/rl/lawson-bandits|
jml165|COMPLETED|scavenger|2023-05-14T13:09:28|2023-05-15T06:43:28|17:34:00|dcc-nsoe-it-01|1|1|2000M||/hpc/home/jml165/rl/lawson-bandits|
jml165|COMPLETED|scavenger|2023-05-14T13:09:28|2023-05-15T05:49:45|16:40:17|dcc-nsoe-it-01|1|1|2000M||/hpc/home/jml165/rl/lawson-bandits|
jml165|COMPLETED|scavenger|2023-05-14T13:09:28|2023-05-15T07:24:02|18:14:34|dcc-nsoe-it-01|1|1|2000M||/hpc/home/jml165/rl/lawson-bandits|
jml165|COMPLETED|scavenger|2023-05-14T13:09:28|2023-05-15T06:04:35|16:55:07|dcc-nsoe-it-01|1|1|2000M||/hpc/home/jml165/rl/lawson-bandits|
jml165|COMPLETED|scavenger|2023-05-14T13:09:28|2023-05-15T05:26:07|16:16:39|dcc-nsoe-it-01|1|1|2000M||/hpc/home/jml165/rl/lawson-bandits|
jml165|COMPLETED|scavenger|2023-05-14T13:09:28|2023-05-15T05:50:13|16:40:45|dcc-nsoe-it-01|1|1|2000M||/hpc/home/jml165/rl/lawson-bandits|
jml165|COMPLETED|scavenger|2023-05-14T13:09:29|2023-05-15T05:30:14|16:20:45|dcc-nsoe-it-01|1|1|2000M||/hpc/home/jml165/rl/lawson-bandits|
jml165|COMPLETED|scavenger|2023-05-14T13:09:29|2023-05-15T07:29:17|18:19:48|dcc-nsoe-it-01|1|1|2000M||/hpc/home/jml165/rl/lawson-bandits|
jml165|COMPLETED|scavenger|2023-05-14T13:09:29|2023-05-15T05:31:27|16:21:58|dcc-nsoe-it-01|1|1|2000M||/hpc/home/jml165/rl/lawson-bandits|
jml165|COMPLETED|scavenger|2023-05-14T13:09:29|2023-05-15T04:49:55|15:40:26|dcc-nsoe-it-01|1|1|2000M||/hpc/home/jml165/rl/lawson-bandits|
jml165|COMPLETED|scavenger|2023-05-14T13:09:29|2023-05-15T06:30:49|17:21:20|dcc-nsoe-it-01|1|1|2000M||/hpc/home/jml165/rl/lawson-bandits|
jml165|COMPLETED|scavenger|2023-05-14T13:09:29|2023-05-15T05:22:04|16:12:35|dcc-nsoe-it-01|1|1|2000M||/hpc/home/jml165/rl/lawson-bandits|
jml165|COMPLETED|scavenger|2023-05-14T13:09:29|2023-05-15T06:56:33|17:47:04|dcc-nsoe-it-01|1|1|2000M||/hpc/home/jml165/rl/lawson-bandits|
jml165|COMPLETED|scavenger|2023-05-14T13:09:29|2023-05-15T06:06:24|16:56:55|dcc-nsoe-it-01|1|1|2000M||/hpc/home/jml165/rl/lawson-bandits|
jml165|COMPLETED|scavenger|2023-05-14T13:09:29|2023-05-15T13:26:34|1-00:17:05|dcc-noor-02|1|1|2000M||/hpc/home/jml165/rl/lawson-bandits|
jml165|COMPLETED|scavenger|2023-05-14T13:09:29|2023-05-15T14:38:06|1-01:28:37|dcc-noor-02|1|1|2000M||/hpc/home/jml165/rl/lawson-bandits|
jml165|COMPLETED|scavenger|2023-05-14T13:09:29|2023-05-15T17:23:08|1-04:13:39|dcc-noor-02|1|1|2000M||/hpc/home/jml165/rl/lawson-bandits|
jml165|COMPLETED|scavenger|2023-05-14T13:09:29|2023-05-15T17:37:21|1-04:27:52|dcc-noor-02|1|1|2000M||/hpc/home/jml165/rl/lawson-bandits|
jml165|COMPLETED|scavenger|2023-05-14T13:09:29|2023-05-15T17:09:05|1-03:59:36|dcc-noor-02|1|1|2000M||/hpc/home/jml165/rl/lawson-bandits|
jml165|COMPLETED|scavenger|2023-05-14T13:09:29|2023-05-15T16:48:09|1-03:38:40|dcc-noor-02|1|1|2000M||/hpc/home/jml165/rl/lawson-bandits|
jml165|COMPLETED|scavenger|2023-05-14T13:09:29|2023-05-15T17:32:01|1-04:22:32|dcc-noor-02|1|1|2000M||/hpc/home/jml165/rl/lawson-bandits|
jml165|COMPLETED|scavenger|2023-05-14T13:09:29|2023-05-15T13:31:40|1-00:22:11|dcc-noor-02|1|1|2000M||/hpc/home/jml165/rl/lawson-bandits|
jml165|COMPLETED|scavenger|2023-05-14T13:09:29|2023-05-15T12:11:07|23:01:38|dcc-noor-02|1|1|2000M||/hpc/home/jml165/rl/lawson-bandits|
jml165|COMPLETED|scavenger|2023-05-14T13:09:29|2023-05-15T17:06:34|1-03:57:05|dcc-noor-02|1|1|2000M||/hpc/home/jml165/rl/lawson-bandits|
jml165|COMPLETED|scavenger|2023-05-14T13:09:29|2023-05-15T17:23:58|1-04:14:29|dcc-noor-02|1|1|2000M||/hpc/home/jml165/rl/lawson-bandits|
jml165|COMPLETED|scavenger|2023-05-14T13:09:29|2023-05-15T15:54:32|1-02:45:03|dcc-noor-02|1|1|2000M||/hpc/home/jml165/rl/lawson-bandits|
jml165|COMPLETED|scavenger|2023-05-14T13:09:30|2023-05-15T12:24:17|23:14:47|dcc-noor-02|1|1|2000M||/hpc/home/jml165/rl/lawson-bandits|
jml165|COMPLETED|scavenger|2023-05-14T13:09:30|2023-05-15T15:39:38|1-02:30:08|dcc-noor-02|1|1|2000M||/hpc/home/jml165/rl/lawson-bandits|
jml165|COMPLETED|scavenger|2023-05-14T13:09:30|2023-05-15T16:15:51|1-03:06:21|dcc-noor-02|1|1|2000M||/hpc/home/jml165/rl/lawson-bandits|
jml165|COMPLETED|scavenger|2023-05-14T13:09:30|2023-05-15T15:48:01|1-02:38:31|dcc-noor-02|1|1|2000M||/hpc/home/jml165/rl/lawson-bandits|
jml165|COMPLETED|scavenger|2023-05-14T13:09:30|2023-05-15T16:16:50|1-03:07:20|dcc-noor-01|1|1|2000M||/hpc/home/jml165/rl/lawson-bandits|
jml165|COMPLETED|scavenger|2023-05-14T13:09:30|2023-05-15T15:38:09|1-02:28:39|dcc-noor-01|1|1|2000M||/hpc/home/jml165/rl/lawson-bandits|
jml165|COMPLETED|scavenger|2023-05-14T13:09:30|2023-05-15T16:18:45|1-03:09:15|dcc-noor-01|1|1|2000M||/hpc/home/jml165/rl/lawson-bandits|
jml165|COMPLETED|scavenger|2023-05-14T13:09:31|2023-05-15T13:51:01|1-00:41:30|dcc-noor-01|1|1|2000M||/hpc/home/jml165/rl/lawson-bandits|
jml165|COMPLETED|scavenger|2023-05-14T13:09:31|2023-05-15T16:10:37|1-03:01:06|dcc-noor-01|1|1|2000M||/hpc/home/jml165/rl/lawson-bandits|
jml165|COMPLETED|scavenger|2023-05-14T13:09:31|2023-05-15T17:38:48|1-04:29:17|dcc-noor-01|1|1|2000M||/hpc/home/jml165/rl/lawson-bandits|
jml165|COMPLETED|scavenger|2023-05-14T13:09:31|2023-05-15T14:40:13|1-01:30:42|dcc-noor-01|1|1|2000M||/hpc/home/jml165/rl/lawson-bandits|
jml165|COMPLETED|scavenger|2023-05-14T13:09:31|2023-05-15T15:43:43|1-02:34:12|dcc-noor-01|1|1|2000M||/hpc/home/jml165/rl/lawson-bandits|
jml165|COMPLETED|scavenger|2023-05-14T13:09:31|2023-05-15T17:32:23|1-04:22:52|dcc-noor-01|1|1|2000M||/hpc/home/jml165/rl/lawson-bandits|
jml165|COMPLETED|scavenger|2023-05-14T13:09:31|2023-05-15T16:02:54|1-02:53:23|dcc-noor-01|1|1|2000M||/hpc/home/jml165/rl/lawson-bandits|
jml165|COMPLETED|scavenger|2023-05-14T13:09:31|2023-05-15T15:59:36|1-02:50:05|dcc-noor-01|1|1|2000M||/hpc/home/jml165/rl/lawson-bandits|
jml165|COMPLETED|scavenger|2023-05-14T13:09:31|2023-05-15T13:14:34|1-00:05:03|dcc-noor-01|1|1|2000M||/hpc/home/jml165/rl/lawson-bandits|
jml165|COMPLETED|scavenger|2023-05-14T13:09:32|2023-05-15T14:41:13|1-01:31:41|dcc-noor-01|1|1|2000M||/hpc/home/jml165/rl/lawson-bandits|
jml165|COMPLETED|scavenger|2023-05-14T13:09:32|2023-05-15T15:51:03|1-02:41:31|dcc-noor-01|1|1|2000M||/hpc/home/jml165/rl/lawson-bandits|
jml165|COMPLETED|scavenger|2023-05-14T13:09:32|2023-05-15T17:20:57|1-04:11:25|dcc-nicolab-01|1|1|2000M||/hpc/home/jml165/rl/lawson-bandits|
jml165|COMPLETED|scavenger|2023-05-14T13:09:32|2023-05-15T16:05:18|1-02:55:46|dcc-nicolab-01|1|1|2000M||/hpc/home/jml165/rl/lawson-bandits|
jml165|COMPLETED|scavenger|2023-05-14T13:09:32|2023-05-15T16:54:16|1-03:44:44|dcc-nicolab-01|1|1|2000M||/hpc/home/jml165/rl/lawson-bandits|
jml165|COMPLETED|scavenger|2023-05-14T13:09:32|2023-05-15T16:52:14|1-03:42:42|dcc-nicolab-01|1|1|2000M||/hpc/home/jml165/rl/lawson-bandits|
jml165|COMPLETED|scavenger|2023-05-14T13:09:32|2023-05-15T14:36:35|1-01:27:03|dcc-nicolab-01|1|1|2000M||/hpc/home/jml165/rl/lawson-bandits|
jml165|COMPLETED|scavenger|2023-05-14T13:09:32|2023-05-15T16:27:03|1-03:17:31|dcc-nicolab-01|1|1|2000M||/hpc/home/jml165/rl/lawson-bandits|
jml165|COMPLETED|scavenger|2023-05-14T13:09:32|2023-05-15T17:31:27|1-04:21:55|dcc-nicolab-01|1|1|2000M||/hpc/home/jml165/rl/lawson-bandits|
jml165|COMPLETED|scavenger|2023-05-14T13:09:32|2023-05-15T17:05:33|1-03:56:01|dcc-nicolab-01|1|1|2000M||/hpc/home/jml165/rl/lawson-bandits|
jml165|COMPLETED|scavenger|2023-05-14T13:09:32|2023-05-15T14:24:07|1-01:14:35|dcc-nicolab-01|1|1|2000M||/hpc/home/jml165/rl/lawson-bandits|
jml165|COMPLETED|scavenger|2023-05-14T13:09:33|2023-05-15T16:49:03|1-03:39:30|dcc-nicolab-01|1|1|2000M||/hpc/home/jml165/rl/lawson-bandits|
jml165|COMPLETED|scavenger|2023-05-14T13:09:33|2023-05-15T00:55:05|11:45:32|dcc-motesa-01|1|1|2000M||/hpc/home/jml165/rl/lawson-bandits|
jml165|COMPLETED|scavenger|2023-05-14T13:09:33|2023-05-15T03:53:11|14:43:38|dcc-motesa-01|1|1|2000M||/hpc/home/jml165/rl/lawson-bandits|
jml165|COMPLETED|scavenger|2023-05-14T13:09:33|2023-05-15T01:44:53|12:35:20|dcc-motesa-01|1|1|2000M||/hpc/home/jml165/rl/lawson-bandits|
jml165|COMPLETED|scavenger|2023-05-14T13:09:33|2023-05-15T03:13:23|14:03:50|dcc-motesa-01|1|1|2000M||/hpc/home/jml165/rl/lawson-bandits|
jml165|COMPLETED|scavenger|2023-05-14T13:09:33|2023-05-15T02:31:42|13:22:09|dcc-motesa-01|1|1|2000M||/hpc/home/jml165/rl/lawson-bandits|
jml165|COMPLETED|scavenger|2023-05-14T13:09:33|2023-05-15T02:37:10|13:27:37|dcc-motesa-01|1|1|2000M||/hpc/home/jml165/rl/lawson-bandits|
jml165|COMPLETED|scavenger|2023-05-14T13:09:33|2023-05-15T04:31:55|15:22:22|dcc-motesa-01|1|1|2000M||/hpc/home/jml165/rl/lawson-bandits|
jml165|COMPLETED|scavenger|2023-05-14T13:09:33|2023-05-15T03:10:08|14:00:35|dcc-motesa-01|1|1|2000M||/hpc/home/jml165/rl/lawson-bandits|
jml165|COMPLETED|scavenger|2023-05-14T13:09:33|2023-05-15T03:49:06|14:39:33|dcc-motesa-01|1|1|2000M||/hpc/home/jml165/rl/lawson-bandits|
jml165|COMPLETED|scavenger|2023-05-14T13:09:33|2023-05-15T05:42:41|16:33:08|dcc-motesa-01|1|1|2000M||/hpc/home/jml165/rl/lawson-bandits|
jml165|COMPLETED|scavenger|2023-05-14T13:09:33|2023-05-15T05:32:53|16:23:20|dcc-motesa-01|1|1|2000M||/hpc/home/jml165/rl/lawson-bandits|
jml165|COMPLETED|scavenger|2023-05-14T13:09:33|2023-05-15T13:34:51|1-00:25:18|dcc-mainsahlab-01|1|1|2000M||/hpc/home/jml165/rl/lawson-bandits|
jml165|COMPLETED|scavenger|2023-05-14T13:09:33|2023-05-15T11:47:56|22:38:23|dcc-mainsahlab-01|1|1|2000M||/hpc/home/jml165/rl/lawson-bandits|
jml165|COMPLETED|scavenger|2023-05-14T13:09:33|2023-05-15T12:10:14|23:00:41|dcc-mainsahlab-01|1|1|2000M||/hpc/home/jml165/rl/lawson-bandits|
jml165|COMPLETED|scavenger|2023-05-14T13:09:33|2023-05-15T13:32:51|1-00:23:18|dcc-mainsahlab-01|1|1|2000M||/hpc/home/jml165/rl/lawson-bandits|
jml165|COMPLETED|scavenger|2023-05-14T13:09:33|2023-05-15T10:15:56|21:06:23|dcc-mainsahlab-01|1|1|2000M||/hpc/home/jml165/rl/lawson-bandits|
jml165|COMPLETED|scavenger|2023-05-14T13:09:33|2023-05-15T13:07:07|23:57:34|dcc-mainsahlab-01|1|1|2000M||/hpc/home/jml165/rl/lawson-bandits|
jml165|COMPLETED|scavenger|2023-05-14T13:09:33|2023-05-15T11:27:03|22:17:30|dcc-mainsahlab-01|1|1|2000M||/hpc/home/jml165/rl/lawson-bandits|
jml165|COMPLETED|scavenger|2023-05-14T13:09:33|2023-05-15T11:06:56|21:57:23|dcc-mainsahlab-01|1|1|2000M||/hpc/home/jml165/rl/lawson-bandits|
jml165|COMPLETED|scavenger|2023-05-14T13:09:33|2023-05-15T10:35:04|21:25:31|dcc-mainsahlab-01|1|1|2000M||/hpc/home/jml165/rl/lawson-bandits|
jml165|COMPLETED|scavenger|2023-05-14T13:09:33|2023-05-15T10:32:40|21:23:07|dcc-mainsahlab-01|1|1|2000M||/hpc/home/jml165/rl/lawson-bandits|
jml165|COMPLETED|scavenger|2023-05-14T13:09:33|2023-05-15T11:47:32|22:37:59|dcc-mainsahlab-01|1|1|2000M||/hpc/home/jml165/rl/lawson-bandits|
jml165|COMPLETED|scavenger|2023-05-14T13:09:33|2023-05-15T12:52:43|23:43:10|dcc-mainsahlab-01|1|1|2000M||/hpc/home/jml165/rl/lawson-bandits|
jml165|COMPLETED|scavenger|2023-05-14T13:09:33|2023-05-15T13:11:38|1-00:02:05|dcc-mainsahlab-01|1|1|2000M||/hpc/home/jml165/rl/lawson-bandits|
jml165|COMPLETED|scavenger|2023-05-14T13:09:33|2023-05-15T13:22:38|1-00:13:05|dcc-mainsahlab-01|1|1|2000M||/hpc/home/jml165/rl/lawson-bandits|
jml165|COMPLETED|scavenger|2023-05-14T13:09:33|2023-05-15T13:54:58|1-00:45:25|dcc-mainsahlab-01|1|1|2000M||/hpc/home/jml165/rl/lawson-bandits|
jml165|COMPLETED|scavenger|2023-05-14T13:09:33|2023-05-15T10:11:49|21:02:16|dcc-mainsahlab-01|1|1|2000M||/hpc/home/jml165/rl/lawson-bandits|
jml165|COMPLETED|scavenger|2023-05-14T13:09:33|2023-05-15T10:30:45|21:21:12|dcc-mainsahlab-01|1|1|2000M||/hpc/home/jml165/rl/lawson-bandits|
jml165|COMPLETED|scavenger|2023-05-14T13:09:33|2023-05-15T10:26:33|21:17:00|dcc-mainsahlab-01|1|1|2000M||/hpc/home/jml165/rl/lawson-bandits|
jml165|COMPLETED|scavenger|2023-05-14T13:09:33|2023-05-15T07:51:40|18:42:07|dcc-mainsahlab-01|1|1|2000M||/hpc/home/jml165/rl/lawson-bandits|
jml165|COMPLETED|scavenger|2023-05-14T13:09:33|2023-05-15T10:54:30|21:44:57|dcc-mainsahlab-01|1|1|2000M||/hpc/home/jml165/rl/lawson-bandits|
jml165|COMPLETED|scavenger|2023-05-14T13:09:33|2023-05-15T10:25:25|21:15:52|dcc-mainsahlab-01|1|1|2000M||/hpc/home/jml165/rl/lawson-bandits|
jml165|COMPLETED|scavenger|2023-05-14T13:09:33|2023-05-15T12:09:58|23:00:25|dcc-mainsahlab-01|1|1|2000M||/hpc/home/jml165/rl/lawson-bandits|
jml165|COMPLETED|scavenger|2023-05-14T13:09:33|2023-05-15T10:45:06|21:35:33|dcc-mainsahlab-01|1|1|2000M||/hpc/home/jml165/rl/lawson-bandits|
jml165|COMPLETED|scavenger|2023-05-14T13:09:59|2023-05-15T09:37:55|20:27:56|dcc-mainsahlab-01|1|1|2000M||/hpc/home/jml165/rl/lawson-bandits|
jml165|COMPLETED|scavenger|2023-05-14T13:09:59|2023-05-15T11:20:00|22:10:01|dcc-mainsahlab-01|1|1|2000M||/hpc/home/jml165/rl/lawson-bandits|
jml165|COMPLETED|scavenger|2023-05-14T13:09:59|2023-05-15T09:31:24|20:21:25|dcc-mainsahlab-01|1|1|2000M||/hpc/home/jml165/rl/lawson-bandits|
jml165|COMPLETED|scavenger|2023-05-14T13:09:59|2023-05-15T14:46:55|1-01:36:56|dcc-mainsahlab-01|1|1|2000M||/hpc/home/jml165/rl/lawson-bandits|
jml165|COMPLETED|scavenger|2023-05-14T13:09:59|2023-05-15T12:23:36|23:13:37|dcc-mainsahlab-01|1|1|2000M||/hpc/home/jml165/rl/lawson-bandits|
jml165|COMPLETED|scavenger|2023-05-14T13:09:59|2023-05-15T15:24:16|1-02:14:17|dcc-mainsahlab-01|1|1|2000M||/hpc/home/jml165/rl/lawson-bandits|
jml165|COMPLETED|scavenger|2023-05-14T13:09:59|2023-05-15T14:00:32|1-00:50:33|dcc-mainsahlab-01|1|1|2000M||/hpc/home/jml165/rl/lawson-bandits|
jml165|COMPLETED|scavenger|2023-05-14T13:09:59|2023-05-15T15:53:30|1-02:43:31|dcc-mainsahlab-01|1|1|2000M||/hpc/home/jml165/rl/lawson-bandits|
jml165|COMPLETED|scavenger|2023-05-14T13:09:59|2023-05-15T17:01:28|1-03:51:29|dcc-mainsahlab-01|1|1|2000M||/hpc/home/jml165/rl/lawson-bandits|
jml165|COMPLETED|scavenger|2023-05-14T13:09:59|2023-05-15T11:58:05|22:48:06|dcc-mainsahlab-01|1|1|2000M||/hpc/home/jml165/rl/lawson-bandits|
jml165|COMPLETED|scavenger|2023-05-14T13:09:59|2023-05-15T15:13:34|1-02:03:35|dcc-mainsahlab-01|1|1|2000M||/hpc/home/jml165/rl/lawson-bandits|
jml165|COMPLETED|scavenger|2023-05-14T13:09:59|2023-05-15T13:04:05|23:54:06|dcc-mainsahlab-01|1|1|2000M||/hpc/home/jml165/rl/lawson-bandits|
jml165|COMPLETED|scavenger|2023-05-14T13:09:59|2023-05-15T11:44:53|22:34:54|dcc-mainsahlab-01|1|1|2000M||/hpc/home/jml165/rl/lawson-bandits|
jml165|COMPLETED|scavenger|2023-05-14T13:09:59|2023-05-15T13:15:27|1-00:05:28|dcc-mainsahlab-01|1|1|2000M||/hpc/home/jml165/rl/lawson-bandits|
jml165|COMPLETED|scavenger|2023-05-14T13:09:59|2023-05-15T16:36:56|1-03:26:57|dcc-mainsahlab-01|1|1|2000M||/hpc/home/jml165/rl/lawson-bandits|
jml165|COMPLETED|scavenger|2023-05-14T13:09:59|2023-05-15T14:00:52|1-00:50:53|dcc-mainsahlab-01|1|1|2000M||/hpc/home/jml165/rl/lawson-bandits|
jml165|COMPLETED|scavenger|2023-05-14T13:09:59|2023-05-15T11:32:10|22:22:11|dcc-mainsahlab-01|1|1|2000M||/hpc/home/jml165/rl/lawson-bandits|
jml165|COMPLETED|scavenger|2023-05-14T13:09:59|2023-05-15T15:36:50|1-02:26:51|dcc-mainsahlab-01|1|1|2000M||/hpc/home/jml165/rl/lawson-bandits|
jml165|COMPLETED|scavenger|2023-05-14T13:09:59|2023-05-15T15:35:37|1-02:25:38|dcc-mainsahlab-01|1|1|2000M||/hpc/home/jml165/rl/lawson-bandits|
jml165|COMPLETED|scavenger|2023-05-14T13:09:59|2023-05-15T13:09:44|23:59:45|dcc-mainsahlab-01|1|1|2000M||/hpc/home/jml165/rl/lawson-bandits|
jml165|COMPLETED|scavenger|2023-05-14T13:09:59|2023-05-15T16:58:51|1-03:48:52|dcc-mainsahlab-01|1|1|2000M||/hpc/home/jml165/rl/lawson-bandits|
jml165|COMPLETED|scavenger|2023-05-14T13:09:59|2023-05-15T11:50:20|22:40:21|dcc-mainsahlab-01|1|1|2000M||/hpc/home/jml165/rl/lawson-bandits|
jml165|COMPLETED|scavenger|2023-05-14T13:09:59|2023-05-15T11:55:26|22:45:27|dcc-mainsahlab-01|1|1|2000M||/hpc/home/jml165/rl/lawson-bandits|
jml165|COMPLETED|scavenger|2023-05-14T13:09:59|2023-05-15T10:05:52|20:55:53|dcc-mainsahlab-01|1|1|2000M||/hpc/home/jml165/rl/lawson-bandits|
jml165|COMPLETED|scavenger|2023-05-14T13:09:59|2023-05-15T12:42:50|23:32:51|dcc-mainsahlab-01|1|1|2000M||/hpc/home/jml165/rl/lawson-bandits|
jml165|COMPLETED|scavenger|2023-05-14T13:09:59|2023-05-15T10:44:06|21:34:07|dcc-mainsahlab-01|1|1|2000M||/hpc/home/jml165/rl/lawson-bandits|
jml165|COMPLETED|scavenger|2023-05-14T13:09:59|2023-05-15T15:29:53|1-02:19:54|dcc-mainsahlab-01|1|1|2000M||/hpc/home/jml165/rl/lawson-bandits|
jml165|COMPLETED|scavenger|2023-05-14T13:09:59|2023-05-15T14:52:15|1-01:42:16|dcc-mainsahlab-01|1|1|2000M||/hpc/home/jml165/rl/lawson-bandits|
jml165|COMPLETED|scavenger|2023-05-14T13:10:00|2023-05-15T14:35:40|1-01:25:40|dcc-mainsahlab-01|1|1|2000M||/hpc/home/jml165/rl/lawson-bandits|
jml165|COMPLETED|scavenger|2023-05-14T13:10:00|2023-05-15T14:15:41|1-01:05:41|dcc-mainsahlab-01|1|1|2000M||/hpc/home/jml165/rl/lawson-bandits|
jml165|COMPLETED|scavenger|2023-05-14T13:10:00|2023-05-15T13:19:09|1-00:09:09|dcc-mainsahlab-01|1|1|2000M||/hpc/home/jml165/rl/lawson-bandits|
jml165|COMPLETED|scavenger|2023-05-14T13:10:04|2023-05-15T16:29:42|1-03:19:38|dcc-kirschlab-01|1|1|2000M||/hpc/home/jml165/rl/lawson-bandits|
jml165|COMPLETED|scavenger|2023-05-14T13:10:04|2023-05-15T15:26:00|1-02:15:56|dcc-kirschlab-01|1|1|2000M||/hpc/home/jml165/rl/lawson-bandits|
jml165|COMPLETED|scavenger|2023-05-14T13:10:04|2023-05-15T14:18:29|1-01:08:25|dcc-kirschlab-01|1|1|2000M||/hpc/home/jml165/rl/lawson-bandits|
jml165|COMPLETED|scavenger|2023-05-14T13:10:04|2023-05-15T14:20:24|1-01:10:20|dcc-kirschlab-01|1|1|2000M||/hpc/home/jml165/rl/lawson-bandits|
jml165|COMPLETED|scavenger|2023-05-14T13:10:04|2023-05-15T14:43:54|1-01:33:50|dcc-kirschlab-01|1|1|2000M||/hpc/home/jml165/rl/lawson-bandits|
jml165|COMPLETED|scavenger|2023-05-14T13:10:04|2023-05-15T13:24:47|1-00:14:43|dcc-kirschlab-01|1|1|2000M||/hpc/home/jml165/rl/lawson-bandits|
jml165|COMPLETED|scavenger|2023-05-14T13:10:04|2023-05-15T16:26:55|1-03:16:51|dcc-kirschlab-01|1|1|2000M||/hpc/home/jml165/rl/lawson-bandits|
jml165|COMPLETED|scavenger|2023-05-14T13:10:04|2023-05-15T14:58:38|1-01:48:34|dcc-kirschlab-01|1|1|2000M||/hpc/home/jml165/rl/lawson-bandits|
jml165|COMPLETED|scavenger|2023-05-14T13:10:35|2023-05-15T17:33:18|1-04:22:43|dcc-hulab-05|1|1|2000M||/hpc/home/jml165/rl/lawson-bandits|
jml165|COMPLETED|scavenger|2023-05-14T13:10:37|2023-05-15T16:04:11|1-02:53:34|dcc-hulab-05|1|1|2000M||/hpc/home/jml165/rl/lawson-bandits|
jml165|COMPLETED|scavenger|2023-05-14T13:10:40|2023-05-15T17:40:34|1-04:29:54|dcc-hulab-05|1|1|2000M||/hpc/home/jml165/rl/lawson-bandits|
jml165|COMPLETED|scavenger|2023-05-14T13:10:40|2023-05-15T17:20:34|1-04:09:54|dcc-hulab-05|1|1|2000M||/hpc/home/jml165/rl/lawson-bandits|
jml165|COMPLETED|scavenger|2023-05-14T13:10:59|2023-05-15T14:57:56|1-01:46:57|dcc-hulab-04|1|1|2000M||/hpc/home/jml165/rl/lawson-bandits|
jml165|COMPLETED|scavenger|2023-05-14T13:10:59|2023-05-15T16:29:32|1-03:18:33|dcc-hulab-04|1|1|2000M||/hpc/home/jml165/rl/lawson-bandits|
jml165|COMPLETED|scavenger|2023-05-14T13:10:59|2023-05-15T17:19:10|1-04:08:11|dcc-hulab-04|1|1|2000M||/hpc/home/jml165/rl/lawson-bandits|
jml165|COMPLETED|scavenger|2023-05-14T13:11:00|2023-05-15T16:02:58|1-02:51:58|dcc-hulab-04|1|1|2000M||/hpc/home/jml165/rl/lawson-bandits|
jml165|COMPLETED|scavenger|2023-05-14T13:11:00|2023-05-15T17:11:43|1-04:00:43|dcc-hulab-04|1|1|2000M||/hpc/home/jml165/rl/lawson-bandits|
jml165|COMPLETED|scavenger|2023-05-14T13:11:00|2023-05-15T14:51:21|1-01:40:21|dcc-hulab-04|1|1|2000M||/hpc/home/jml165/rl/lawson-bandits|
jml165|COMPLETED|scavenger|2023-05-14T13:11:09|2023-05-15T16:48:06|1-03:36:57|dcc-hulab-03|1|1|2000M||/hpc/home/jml165/rl/lawson-bandits|
jml165|COMPLETED|scavenger|2023-05-14T13:11:11|2023-05-15T15:35:14|1-02:24:03|dcc-hulab-03|1|1|2000M||/hpc/home/jml165/rl/lawson-bandits|
jml165|COMPLETED|scavenger|2023-05-14T13:11:11|2023-05-15T11:28:19|22:17:08|dcc-hulab-02|1|1|2000M||/hpc/home/jml165/rl/lawson-bandits|
jml165|COMPLETED|scavenger|2023-05-14T13:11:11|2023-05-15T15:02:55|1-01:51:44|dcc-hulab-02|1|1|2000M||/hpc/home/jml165/rl/lawson-bandits|
jml165|COMPLETED|scavenger|2023-05-14T13:11:11|2023-05-15T12:57:49|23:46:38|dcc-hulab-02|1|1|2000M||/hpc/home/jml165/rl/lawson-bandits|
jml165|COMPLETED|scavenger|2023-05-14T13:11:11|2023-05-15T12:55:21|23:44:10|dcc-hulab-02|1|1|2000M||/hpc/home/jml165/rl/lawson-bandits|
jml165|COMPLETED|scavenger|2023-05-14T13:11:11|2023-05-15T13:02:53|23:51:42|dcc-hulab-02|1|1|2000M||/hpc/home/jml165/rl/lawson-bandits|
jml165|COMPLETED|scavenger|2023-05-14T13:11:11|2023-05-15T13:39:41|1-00:28:30|dcc-hulab-02|1|1|2000M||/hpc/home/jml165/rl/lawson-bandits|
jml165|COMPLETED|scavenger|2023-05-14T13:11:11|2023-05-15T09:56:00|20:44:49|dcc-hulab-02|1|1|2000M||/hpc/home/jml165/rl/lawson-bandits|
jml165|COMPLETED|scavenger|2023-05-14T13:11:11|2023-05-15T14:45:34|1-01:34:23|dcc-hulab-02|1|1|2000M||/hpc/home/jml165/rl/lawson-bandits|
jml165|COMPLETED|scavenger|2023-05-14T13:11:11|2023-05-15T16:55:10|1-03:43:59|dcc-hulab-02|1|1|2000M||/hpc/home/jml165/rl/lawson-bandits|
jml165|COMPLETED|scavenger|2023-05-14T13:11:12|2023-05-15T16:44:52|1-03:33:40|dcc-hulab-02|1|1|2000M||/hpc/home/jml165/rl/lawson-bandits|
jml165|COMPLETED|scavenger|2023-05-14T13:11:12|2023-05-15T12:43:55|23:32:43|dcc-hulab-02|1|1|2000M||/hpc/home/jml165/rl/lawson-bandits|
jml165|COMPLETED|scavenger|2023-05-14T13:11:12|2023-05-15T17:02:18|1-03:51:06|dcc-hulab-02|1|1|2000M||/hpc/home/jml165/rl/lawson-bandits|
jml165|COMPLETED|scavenger|2023-05-14T13:11:12|2023-05-15T13:01:45|23:50:33|dcc-hulab-02|1|1|2000M||/hpc/home/jml165/rl/lawson-bandits|
jml165|COMPLETED|scavenger|2023-05-14T13:11:12|2023-05-15T11:05:16|21:54:04|dcc-hulab-02|1|1|2000M||/hpc/home/jml165/rl/lawson-bandits|
jml165|COMPLETED|scavenger|2023-05-14T13:11:12|2023-05-15T10:08:00|20:56:48|dcc-hulab-02|1|1|2000M||/hpc/home/jml165/rl/lawson-bandits|
jml165|COMPLETED|scavenger|2023-05-14T13:11:12|2023-05-15T15:28:16|1-02:17:04|dcc-hulab-02|1|1|2000M||/hpc/home/jml165/rl/lawson-bandits|
jml165|COMPLETED|scavenger|2023-05-14T13:11:12|2023-05-15T10:48:23|21:37:11|dcc-hulab-02|1|1|2000M||/hpc/home/jml165/rl/lawson-bandits|
jml165|COMPLETED|scavenger|2023-05-14T13:11:12|2023-05-15T13:30:02|1-00:18:50|dcc-hulab-02|1|1|2000M||/hpc/home/jml165/rl/lawson-bandits|
jml165|COMPLETED|scavenger|2023-05-14T13:11:12|2023-05-15T11:44:54|22:33:42|dcc-hulab-02|1|1|2000M||/hpc/home/jml165/rl/lawson-bandits|
jml165|COMPLETED|scavenger|2023-05-14T13:11:12|2023-05-15T16:15:44|1-03:04:32|dcc-hulab-02|1|1|2000M||/hpc/home/jml165/rl/lawson-bandits|
jml165|COMPLETED|scavenger|2023-05-14T13:11:12|2023-05-15T12:49:23|23:38:11|dcc-hulab-02|1|1|2000M||/hpc/home/jml165/rl/lawson-bandits|
jml165|COMPLETED|scavenger|2023-05-14T13:11:12|2023-05-15T09:09:13|19:58:01|dcc-hulab-02|1|1|2000M||/hpc/home/jml165/rl/lawson-bandits|
jml165|COMPLETED|scavenger|2023-05-14T13:11:12|2023-05-15T10:19:12|21:08:00|dcc-hulab-02|1|1|2000M||/hpc/home/jml165/rl/lawson-bandits|
jml165|COMPLETED|scavenger|2023-05-14T13:11:12|2023-05-15T14:18:20|1-01:07:08|dcc-hulab-02|1|1|2000M||/hpc/home/jml165/rl/lawson-bandits|
jml165|COMPLETED|scavenger|2023-05-14T13:11:12|2023-05-15T15:02:10|1-01:50:58|dcc-hulab-02|1|1|2000M||/hpc/home/jml165/rl/lawson-bandits|
jml165|COMPLETED|scavenger|2023-05-14T13:11:12|2023-05-15T11:59:55|22:48:43|dcc-hulab-02|1|1|2000M||/hpc/home/jml165/rl/lawson-bandits|
jml165|COMPLETED|scavenger|2023-05-14T13:11:12|2023-05-15T15:50:43|1-02:39:31|dcc-hulab-02|1|1|2000M||/hpc/home/jml165/rl/lawson-bandits|
jml165|COMPLETED|scavenger|2023-05-14T13:11:12|2023-05-15T11:45:33|22:34:21|dcc-hulab-02|1|1|2000M||/hpc/home/jml165/rl/lawson-bandits|
jml165|COMPLETED|scavenger|2023-05-14T13:11:12|2023-05-15T15:57:56|1-02:46:44|dcc-hulab-02|1|1|2000M||/hpc/home/jml165/rl/lawson-bandits|
jml165|COMPLETED|scavenger|2023-05-14T13:11:12|2023-05-15T13:08:17|23:57:05|dcc-hulab-02|1|1|2000M||/hpc/home/jml165/rl/lawson-bandits|
jml165|COMPLETED|scavenger|2023-05-14T13:11:12|2023-05-15T15:48:33|1-02:37:21|dcc-hulab-02|1|1|2000M||/hpc/home/jml165/rl/lawson-bandits|
jml165|COMPLETED|scavenger|2023-05-14T13:11:12|2023-05-15T12:10:06|22:58:54|dcc-hulab-02|1|1|2000M||/hpc/home/jml165/rl/lawson-bandits|
jml165|COMPLETED|scavenger|2023-05-14T13:11:12|2023-05-15T14:43:26|1-01:32:14|dcc-hulab-02|1|1|2000M||/hpc/home/jml165/rl/lawson-bandits|
hk288|COMPLETED|scavenger|2023-05-14T14:54:13|2023-05-16T04:32:47|1-13:38:34|dcc-bragg-01|1|40|80G||/hpc/group/mastatlab/hk288/code_hp_paral|
hk288|COMPLETED|scavenger|2023-05-14T14:54:13|2023-05-16T00:22:51|1-09:28:38|dcc-cagpm-01|1|40|80G||/hpc/group/mastatlab/hk288/code_hp_paral|
hk288|COMPLETED|scavenger|2023-05-14T14:59:08|2023-05-16T05:46:58|1-14:47:50|dcc-compeb-04|1|40|80G||/hpc/group/mastatlab/hk288/code_hp_paral|
hk288|COMPLETED|scavenger|2023-05-14T14:59:08|2023-05-16T06:48:01|1-15:48:53|dcc-donglab-01|1|40|80G||/hpc/group/mastatlab/hk288/code_hp_paral|
smokeauth2-tst|COMPLETED|scavenger|2023-05-14T15:01:31|2023-05-14T15:01:31|00:00:00|dcc-hulab-02|1|1|2G||/hpc/home/smokeauth2-tst|
smokeauth2-tst|COMPLETED|scavenger|2023-05-14T15:01:33|2023-05-14T15:01:34|00:00:01|dcc-hulab-02|1|1|2G||/hpc/home/smokeauth2-tst|
smokeauth2-tst|COMPLETED|scavenger|2023-05-14T15:01:35|2023-05-14T15:01:35|00:00:00|dcc-hulab-02|1|1|2G||/hpc/home/smokeauth2-tst|
smokeauth2-tst|COMPLETED|scavenger|2023-05-14T15:01:37|2023-05-14T15:01:37|00:00:00|dcc-hulab-02|1|1|2G||/hpc/home/smokeauth2-tst|
smokeauth2-tst|COMPLETED|scavenger|2023-05-14T15:01:39|2023-05-14T15:01:40|00:00:01|dcc-hulab-02|1|1|2G||/hpc/home/smokeauth2-tst|
tpg15|COMPLETED|scavenger|2023-05-14T15:01:51|2023-05-14T15:01:52|00:00:01|dcc-bragg-01|1|10|7G||/hpc/group/wraylab/tpg15/Projects/combGXG/data/1kGenomes/chr31KGenomes|
smokeauth2-tst|COMPLETED|scavenger|2023-05-14T15:11:31|2023-05-14T15:11:31|00:00:00|dcc-hulab-02|1|1|2G||/hpc/home/smokeauth2-tst|
smokeauth2-tst|COMPLETED|scavenger|2023-05-14T15:11:33|2023-05-14T15:11:33|00:00:00|dcc-hulab-02|1|1|2G||/hpc/home/smokeauth2-tst|
smokeauth2-tst|COMPLETED|scavenger|2023-05-14T15:11:35|2023-05-14T15:11:35|00:00:00|dcc-hulab-02|1|1|2G||/hpc/home/smokeauth2-tst|
smokeauth2-tst|COMPLETED|scavenger|2023-05-14T15:11:37|2023-05-14T15:11:38|00:00:01|dcc-hulab-02|1|1|2G||/hpc/home/smokeauth2-tst|
smokeauth2-tst|COMPLETED|scavenger|2023-05-14T15:11:39|2023-05-14T15:11:40|00:00:01|dcc-hulab-02|1|1|2G||/hpc/home/smokeauth2-tst|
smokeauth2-tst|COMPLETED|scavenger|2023-05-14T15:21:29|2023-05-14T15:21:30|00:00:01|dcc-rausherlab-01|1|1|2G||/hpc/home/smokeauth2-tst|
smokeauth2-tst|COMPLETED|scavenger|2023-05-14T15:21:31|2023-05-14T15:21:32|00:00:01|dcc-rausherlab-01|1|1|2G||/hpc/home/smokeauth2-tst|
smokeauth2-tst|COMPLETED|scavenger|2023-05-14T15:21:34|2023-05-14T15:21:34|00:00:00|dcc-rausherlab-01|1|1|2G||/hpc/home/smokeauth2-tst|
smokeauth2-tst|COMPLETED|scavenger|2023-05-14T15:21:36|2023-05-14T15:21:36|00:00:00|dcc-rausherlab-01|1|1|2G||/hpc/home/smokeauth2-tst|
smokeauth2-tst|COMPLETED|scavenger|2023-05-14T15:21:38|2023-05-14T15:21:38|00:00:00|dcc-rausherlab-01|1|1|2G||/hpc/home/smokeauth2-tst|
kw297|COMPLETED|scavenger|2023-05-14T15:29:52|2023-05-15T08:55:53|17:26:01|dcc-rausherlab-01|1|2|8G||/hpc/group/ychenlab/DA|
kw297|COMPLETED|scavenger|2023-05-14T15:29:52|2023-05-15T11:50:54|20:21:02|dcc-aryalab-01|1|2|8G||/hpc/group/ychenlab/DA|
kw297|COMPLETED|scavenger|2023-05-14T15:29:52|2023-05-15T11:11:36|19:41:44|dcc-aryalab-01|1|2|8G||/hpc/group/ychenlab/DA|
kw297|COMPLETED|scavenger|2023-05-14T15:29:52|2023-05-15T09:19:37|17:49:45|dcc-aryalab-01|1|2|8G||/hpc/group/ychenlab/DA|
kw297|COMPLETED|scavenger|2023-05-14T15:29:54|2023-05-15T11:59:16|20:29:22|dcc-donglab-01|1|2|8G||/hpc/group/ychenlab/DA|
kw297|COMPLETED|scavenger|2023-05-14T15:29:54|2023-05-15T15:28:57|23:59:03|dcc-donglab-01|1|2|8G||/hpc/group/ychenlab/DA|
smokeauth2-tst|COMPLETED|scavenger|2023-05-14T15:31:31|2023-05-14T15:31:31|00:00:00|dcc-hulab-02|1|1|2G||/hpc/home/smokeauth2-tst|
smokeauth2-tst|COMPLETED|scavenger|2023-05-14T15:31:33|2023-05-14T15:31:33|00:00:00|dcc-hulab-02|1|1|2G||/hpc/home/smokeauth2-tst|
smokeauth2-tst|COMPLETED|scavenger|2023-05-14T15:31:35|2023-05-14T15:31:35|00:00:00|dcc-hulab-02|1|1|2G||/hpc/home/smokeauth2-tst|
smokeauth2-tst|COMPLETED|scavenger|2023-05-14T15:31:37|2023-05-14T15:31:38|00:00:01|dcc-hulab-02|1|1|2G||/hpc/home/smokeauth2-tst|
smokeauth2-tst|COMPLETED|scavenger|2023-05-14T15:31:39|2023-05-14T15:31:40|00:00:01|dcc-hulab-02|1|1|2G||/hpc/home/smokeauth2-tst|
smokeauth2-tst|COMPLETED|scavenger|2023-05-14T15:41:31|2023-05-14T15:41:31|00:00:00|dcc-hulab-02|1|1|2G||/hpc/home/smokeauth2-tst|
smokeauth2-tst|COMPLETED|scavenger|2023-05-14T15:41:33|2023-05-14T15:41:34|00:00:01|dcc-hulab-02|1|1|2G||/hpc/home/smokeauth2-tst|
smokeauth2-tst|COMPLETED|scavenger|2023-05-14T15:41:35|2023-05-14T15:41:36|00:00:01|dcc-hulab-02|1|1|2G||/hpc/home/smokeauth2-tst|
smokeauth2-tst|COMPLETED|scavenger|2023-05-14T15:41:37|2023-05-14T15:41:38|00:00:01|dcc-hulab-02|1|1|2G||/hpc/home/smokeauth2-tst|
smokeauth2-tst|COMPLETED|scavenger|2023-05-14T15:41:40|2023-05-14T15:41:40|00:00:00|dcc-hulab-02|1|1|2G||/hpc/home/smokeauth2-tst|
smokeauth2-tst|COMPLETED|scavenger|2023-05-14T15:51:31|2023-05-14T15:51:32|00:00:01|dcc-hulab-02|1|1|2G||/hpc/home/smokeauth2-tst|
smokeauth2-tst|COMPLETED|scavenger|2023-05-14T15:51:33|2023-05-14T15:51:34|00:00:01|dcc-hulab-02|1|1|2G||/hpc/home/smokeauth2-tst|
smokeauth2-tst|COMPLETED|scavenger|2023-05-14T15:51:35|2023-05-14T15:51:36|00:00:01|dcc-hulab-02|1|1|2G||/hpc/home/smokeauth2-tst|
smokeauth2-tst|COMPLETED|scavenger|2023-05-14T15:51:38|2023-05-14T15:51:38|00:00:00|dcc-hulab-02|1|1|2G||/hpc/home/smokeauth2-tst|
smokeauth2-tst|COMPLETED|scavenger|2023-05-14T15:51:40|2023-05-14T15:51:40|00:00:00|dcc-hulab-02|1|1|2G||/hpc/home/smokeauth2-tst|
