fjm7|COMPLETED|scavenger|2023-04-23T15:19:04|2023-05-18T23:19:00|25-07:59:56|dcc-noor-02|1|1|2G||/hpc/group/brownlab/fjm7/new-data-collection/slurm-runners|
fjm7|COMPLETED|scavenger|2023-04-23T15:19:04|2023-05-18T23:01:43|25-07:42:39|dcc-noor-02|1|1|2G||/hpc/group/brownlab/fjm7/new-data-collection/slurm-runners|
pz19|COMPLETED|scavenger|2023-05-01T10:41:57|2023-05-15T11:48:48|14-01:06:51|dcc-cagpm-02|1|16|32000M||/work/pz19/Dexter/parallel_00|
pz19|COMPLETED|scavenger|2023-05-05T14:28:41|2023-05-14T18:25:58|9-03:57:17|dcc-delairelab-01|1|16|25408M||/work/pz19/Wang/Copper/Silicon/TS_06_3Lig/MN15/Constraint_0|
jo117|COMPLETED|scavenger|2023-05-08T09:44:32|2023-05-15T09:59:14|7-00:14:42|dcc-gcb-13|1|2|200G||/work/jo117/PossLab/2022-Science-axolotl|
sbm34|COMPLETED|scavenger|2023-05-09T19:05:22|2023-05-13T21:58:35|4-02:53:13|dcc-bragg-04|1|8|160G||/work/sbm34/assembly|
pz19|COMPLETED|scavenger|2023-05-10T09:53:22|2023-05-22T13:35:04|12-03:41:42|dcc-adrc-01|1|16|32000M||/work/pz19/Dexter|
jo117|COMPLETED|scavenger|2023-05-11T21:56:49|2023-05-13T21:56:19|1-23:59:30|dcc-nsoe-it-01|1|12|72G||/work/jo117/DiaoLab/hicar_v2/mESC/singularity/work/1f/8245e74f47eaa8c86d6539f57f5cee|
jo117|COMPLETED|scavenger|2023-05-11T21:56:49|2023-05-13T21:56:19|1-23:59:30|dcc-fergusonlab-03|1|12|72G||/work/jo117/DiaoLab/hicar_v2/mESC/singularity/work/dc/3f65bd98e555b440b6c44f7a427fd8|
jo117|COMPLETED|scavenger|2023-05-11T21:56:50|2023-05-13T21:56:19|1-23:59:29|dcc-katzlab-01|1|12|72G||/work/jo117/DiaoLab/hicar_v2/mESC/singularity/work/71/f33154d850a0ab8444836fa41501ac|
bl242|COMPLETED|scavenger|2023-05-12T10:53:58|2023-05-14T14:48:12|2-03:54:14|dcc-bragg-03,dcc-cagpm-01,dcc-fergusonlab-[04-05],dcc-gcb-01|5|250|1000G||/hpc/home/bl242|
hk288|COMPLETED|scavenger|2023-05-12T13:22:14|2023-05-15T17:12:31|3-03:50:17|dcc-statdept-01|1|2|80G||/hpc/group/mastatlab/hk288/code_hp|
hk288|COMPLETED|scavenger|2023-05-12T13:22:29|2023-05-15T14:08:31|3-00:46:02|dcc-youlab-01|1|2|80G||/hpc/group/mastatlab/hk288/code_hp|
jml165|COMPLETED|scavenger|2023-05-12T15:29:38|2023-05-13T21:34:52|1-06:05:14|dcc-nicolab-01|1|1|2000M||/hpc/home/jml165/rl/lawson-bandits|
jml165|COMPLETED|scavenger|2023-05-12T15:29:38|2023-05-13T21:20:31|1-05:50:53|dcc-nicolab-01|1|1|2000M||/hpc/home/jml165/rl/lawson-bandits|
jml165|COMPLETED|scavenger|2023-05-12T15:29:38|2023-05-13T21:03:36|1-05:33:58|dcc-nicolab-01|1|1|2000M||/hpc/home/jml165/rl/lawson-bandits|
jml165|COMPLETED|scavenger|2023-05-12T15:29:38|2023-05-13T21:45:56|1-06:16:18|dcc-nicolab-01|1|1|2000M||/hpc/home/jml165/rl/lawson-bandits|
jml165|COMPLETED|scavenger|2023-05-12T15:29:38|2023-05-13T21:02:32|1-05:32:54|dcc-nicolab-01|1|1|2000M||/hpc/home/jml165/rl/lawson-bandits|
jml165|COMPLETED|scavenger|2023-05-12T15:29:39|2023-05-13T21:39:14|1-06:09:35|dcc-nicolab-01|1|1|2000M||/hpc/home/jml165/rl/lawson-bandits|
jml165|COMPLETED|scavenger|2023-05-12T15:29:40|2023-05-13T21:00:00|1-05:30:20|dcc-nicolab-01|1|1|2000M||/hpc/home/jml165/rl/lawson-bandits|
jml165|COMPLETED|scavenger|2023-05-12T15:29:57|2023-05-13T21:10:15|1-05:40:18|dcc-nicolab-01|1|1|2000M||/hpc/home/jml165/rl/lawson-bandits|
jml165|COMPLETED|scavenger|2023-05-12T15:30:49|2023-05-13T21:31:58|1-06:01:09|dcc-katzlab-01|1|1|2000M||/hpc/home/jml165/rl/lawson-bandits|
jml165|COMPLETED|scavenger|2023-05-12T15:30:49|2023-05-13T21:36:23|1-06:05:34|dcc-katzlab-01|1|1|2000M||/hpc/home/jml165/rl/lawson-bandits|
jml165|COMPLETED|scavenger|2023-05-12T15:30:50|2023-05-13T21:02:11|1-05:31:21|dcc-katzlab-01|1|1|2000M||/hpc/home/jml165/rl/lawson-bandits|
jml165|COMPLETED|scavenger|2023-05-12T15:30:50|2023-05-13T21:32:01|1-06:01:11|dcc-katzlab-01|1|1|2000M||/hpc/home/jml165/rl/lawson-bandits|
jml165|COMPLETED|scavenger|2023-05-12T15:30:55|2023-05-13T21:16:09|1-05:45:14|dcc-katzlab-01|1|1|2000M||/hpc/home/jml165/rl/lawson-bandits|
jml165|COMPLETED|scavenger|2023-05-12T15:30:55|2023-05-13T21:24:08|1-05:53:13|dcc-katzlab-01|1|1|2000M||/hpc/home/jml165/rl/lawson-bandits|
jml165|COMPLETED|scavenger|2023-05-12T15:31:49|2023-05-13T21:32:05|1-06:00:16|dcc-hulab-03|1|1|2000M||/hpc/home/jml165/rl/lawson-bandits|
jml165|COMPLETED|scavenger|2023-05-12T15:31:49|2023-05-13T21:12:56|1-05:41:07|dcc-hulab-03|1|1|2000M||/hpc/home/jml165/rl/lawson-bandits|
jml165|COMPLETED|scavenger|2023-05-12T15:31:53|2023-05-13T21:08:38|1-05:36:45|dcc-hulab-03|1|1|2000M||/hpc/home/jml165/rl/lawson-bandits|
jml165|COMPLETED|scavenger|2023-05-12T15:31:53|2023-05-13T21:10:30|1-05:38:37|dcc-hulab-03|1|1|2000M||/hpc/home/jml165/rl/lawson-bandits|
jml165|COMPLETED|scavenger|2023-05-12T15:32:35|2023-05-13T21:11:32|1-05:38:57|dcc-herringlab-01|1|1|2000M||/hpc/home/jml165/rl/lawson-bandits|
jml165|COMPLETED|scavenger|2023-05-12T15:32:38|2023-05-13T21:01:04|1-05:28:26|dcc-hashimilab-01|1|1|2000M||/hpc/home/jml165/rl/lawson-bandits|
jml165|COMPLETED|scavenger|2023-05-12T15:32:38|2023-05-13T21:44:42|1-06:12:04|dcc-hashimilab-01|1|1|2000M||/hpc/home/jml165/rl/lawson-bandits|
jml165|COMPLETED|scavenger|2023-05-12T15:32:40|2023-05-13T21:24:52|1-05:52:12|dcc-hashimilab-01|1|1|2000M||/hpc/home/jml165/rl/lawson-bandits|
jml165|COMPLETED|scavenger|2023-05-12T15:32:40|2023-05-13T21:17:46|1-05:45:06|dcc-hashimilab-01|1|1|2000M||/hpc/home/jml165/rl/lawson-bandits|
jml165|COMPLETED|scavenger|2023-05-12T15:32:43|2023-05-13T21:45:42|1-06:12:59|dcc-gcb-09|1|1|2000M||/hpc/home/jml165/rl/lawson-bandits|
jml165|COMPLETED|scavenger|2023-05-12T15:32:43|2023-05-13T21:29:40|1-05:56:57|dcc-gcb-09|1|1|2000M||/hpc/home/jml165/rl/lawson-bandits|
jml165|COMPLETED|scavenger|2023-05-12T15:32:47|2023-05-13T21:15:17|1-05:42:30|dcc-gcb-09|1|1|2000M||/hpc/home/jml165/rl/lawson-bandits|
jml165|COMPLETED|scavenger|2023-05-12T15:33:14|2023-05-13T21:32:30|1-05:59:16|dcc-gcb-08|1|1|2000M||/hpc/home/jml165/rl/lawson-bandits|
jml165|COMPLETED|scavenger|2023-05-12T15:33:14|2023-05-13T21:45:07|1-06:11:53|dcc-gcb-08|1|1|2000M||/hpc/home/jml165/rl/lawson-bandits|
jml165|COMPLETED|scavenger|2023-05-12T15:33:14|2023-05-13T21:43:06|1-06:09:52|dcc-gcb-08|1|1|2000M||/hpc/home/jml165/rl/lawson-bandits|
jml165|COMPLETED|scavenger|2023-05-12T15:33:15|2023-05-13T21:46:12|1-06:12:57|dcc-gcb-08|1|1|2000M||/hpc/home/jml165/rl/lawson-bandits|
jml165|COMPLETED|scavenger|2023-05-12T15:33:16|2023-05-13T21:15:06|1-05:41:50|dcc-gcb-07|1|1|2000M||/hpc/home/jml165/rl/lawson-bandits|
jml165|COMPLETED|scavenger|2023-05-12T15:33:16|2023-05-13T21:09:50|1-05:36:34|dcc-gcb-07|1|1|2000M||/hpc/home/jml165/rl/lawson-bandits|
jml165|COMPLETED|scavenger|2023-05-12T15:33:18|2023-05-13T21:30:09|1-05:56:51|dcc-gcb-07|1|1|2000M||/hpc/home/jml165/rl/lawson-bandits|
jml165|COMPLETED|scavenger|2023-05-12T15:33:18|2023-05-13T21:01:45|1-05:28:27|dcc-gcb-07|1|1|2000M||/hpc/home/jml165/rl/lawson-bandits|
jml165|COMPLETED|scavenger|2023-05-12T15:33:19|2023-05-13T21:29:52|1-05:56:33|dcc-gcb-07|1|1|2000M||/hpc/home/jml165/rl/lawson-bandits|
jml165|COMPLETED|scavenger|2023-05-12T15:33:21|2023-05-13T21:18:46|1-05:45:25|dcc-gcb-07|1|1|2000M||/hpc/home/jml165/rl/lawson-bandits|
kw297|COMPLETED|scavenger|2023-05-12T18:20:44|2023-05-13T22:31:44|1-04:11:00|dcc-hashimilab-01|1|2|8G||/hpc/group/ychenlab/DA|
kw297|COMPLETED|scavenger|2023-05-12T18:20:44|2023-05-13T22:57:18|1-04:36:34|dcc-hashimilab-01|1|2|8G||/hpc/group/ychenlab/DA|
kw297|COMPLETED|scavenger|2023-05-12T18:20:44|2023-05-13T22:44:41|1-04:23:57|dcc-hashimilab-01|1|2|8G||/hpc/group/ychenlab/DA|
kw297|COMPLETED|scavenger|2023-05-12T18:20:47|2023-05-13T21:43:19|1-03:22:32|dcc-hashimilab-01|1|2|8G||/hpc/group/ychenlab/DA|
kw297|COMPLETED|scavenger|2023-05-12T18:20:55|2023-05-13T21:57:52|1-03:36:57|dcc-gcb-09|1|2|8G||/hpc/group/ychenlab/DA|
kw297|COMPLETED|scavenger|2023-05-12T18:20:55|2023-05-13T22:03:51|1-03:42:56|dcc-gcb-09|1|2|8G||/hpc/group/ychenlab/DA|
kw297|COMPLETED|scavenger|2023-05-12T18:20:55|2023-05-13T21:53:40|1-03:32:45|dcc-gcb-09|1|2|8G||/hpc/group/ychenlab/DA|
kw297|COMPLETED|scavenger|2023-05-12T18:20:55|2023-05-13T22:03:53|1-03:42:58|dcc-gcb-09|1|2|8G||/hpc/group/ychenlab/DA|
kw297|COMPLETED|scavenger|2023-05-12T18:20:55|2023-05-13T21:53:04|1-03:32:09|dcc-gcb-09|1|2|8G||/hpc/group/ychenlab/DA|
hk288|COMPLETED|scavenger|2023-05-12T21:59:45|2023-05-14T02:25:21|1-04:25:36|dcc-adrc-01|1|40|80G||/hpc/group/mastatlab/hk288/code_hp_paral|
hk288|COMPLETED|scavenger|2023-05-12T21:59:45|2023-05-14T12:01:43|1-14:01:58|dcc-bragg-01|1|40|80G||/hpc/group/mastatlab/hk288/code_hp_paral|
hk288|COMPLETED|scavenger|2023-05-12T21:59:50|2023-05-15T09:38:43|2-11:38:53|dcc-compeb-03|1|40|80G||/hpc/group/mastatlab/hk288/code_hp_paral|
hk288|COMPLETED|scavenger|2023-05-12T21:59:50|2023-05-14T21:07:34|1-23:07:44|dcc-dunsonlab-02|1|40|80G||/hpc/group/mastatlab/hk288/code_hp_paral|
xw171|COMPLETED|scavenger|2023-05-12T23:52:42|2023-05-14T04:01:54|1-04:09:12|dcc-bragg-05|1|12|100G||/work/xw171/hicar10/work/9a/7004da37baed89e3f7a7edd7f9f034|
smokeauth2-tst|COMPLETED|scavenger|2023-05-13T21:01:30|2023-05-13T21:01:31|00:00:01|dcc-youlab-01|1|1|2G||/hpc/home/smokeauth2-tst|
smokeauth2-tst|COMPLETED|scavenger|2023-05-13T21:01:32|2023-05-13T21:01:33|00:00:01|dcc-youlab-01|1|1|2G||/hpc/home/smokeauth2-tst|
smokeauth2-tst|COMPLETED|scavenger|2023-05-13T21:01:35|2023-05-13T21:01:35|00:00:00|dcc-youlab-01|1|1|2G||/hpc/home/smokeauth2-tst|
smokeauth2-tst|COMPLETED|scavenger|2023-05-13T21:01:37|2023-05-13T21:01:37|00:00:00|dcc-youlab-01|1|1|2G||/hpc/home/smokeauth2-tst|
smokeauth2-tst|COMPLETED|scavenger|2023-05-13T21:01:39|2023-05-13T21:01:39|00:00:00|dcc-youlab-01|1|1|2G||/hpc/home/smokeauth2-tst|
smokeauth2-tst|COMPLETED|scavenger|2023-05-13T21:11:30|2023-05-13T21:11:31|00:00:01|dcc-youlab-01|1|1|2G||/hpc/home/smokeauth2-tst|
smokeauth2-tst|COMPLETED|scavenger|2023-05-13T21:11:33|2023-05-13T21:11:33|00:00:00|dcc-youlab-01|1|1|2G||/hpc/home/smokeauth2-tst|
smokeauth2-tst|COMPLETED|scavenger|2023-05-13T21:11:35|2023-05-13T21:11:35|00:00:00|dcc-youlab-01|1|1|2G||/hpc/home/smokeauth2-tst|
smokeauth2-tst|COMPLETED|scavenger|2023-05-13T21:11:37|2023-05-13T21:11:37|00:00:00|dcc-youlab-01|1|1|2G||/hpc/home/smokeauth2-tst|
smokeauth2-tst|COMPLETED|scavenger|2023-05-13T21:11:39|2023-05-13T21:11:39|00:00:00|dcc-youlab-01|1|1|2G||/hpc/home/smokeauth2-tst|
jo117|COMPLETED|scavenger|2023-05-13T21:16:11|2023-05-13T21:38:33|00:22:22|dcc-aryalab-01|1|6|36G||/work/jo117/DiaoLab/hicar_v2/full_test/work/1e/886ebc055ba3e6b40bdf129f4ae9e9|
jo117|COMPLETED|scavenger|2023-05-13T21:16:12|2023-05-13T21:50:05|00:33:53|dcc-carin-23|1|6|36G||/work/jo117/DiaoLab/hicar_v2/full_test/work/92/833b4c70379b713ee837af132ade10|
jo117|COMPLETED|scavenger|2023-05-13T21:16:12|2023-05-13T21:21:28|00:05:16|dcc-adrc-01|1|2|12G||/work/jo117/DiaoLab/hicar_v2/full_test/work/6d/c46c0743545a9e29bb7d5d7e520d71|
kw297|COMPLETED|scavenger|2023-05-13T21:18:00|2023-05-15T09:35:02|1-12:17:02|dcc-adrc-01|1|2|8G||/hpc/group/ychenlab/DA|
kw297|COMPLETED|scavenger|2023-05-13T21:18:00|2023-05-14T15:18:12|18:00:12|dcc-rausherlab-01|1|2|8G||/hpc/group/ychenlab/DA|
kw297|COMPLETED|scavenger|2023-05-13T21:18:01|2023-05-14T18:01:16|20:43:15|dcc-rausherlab-02|1|2|8G||/hpc/group/ychenlab/DA|
kw297|COMPLETED|scavenger|2023-05-13T21:18:01|2023-05-14T15:58:04|18:40:03|dcc-rausherlab-02|1|2|8G||/hpc/group/ychenlab/DA|
kw297|COMPLETED|scavenger|2023-05-13T21:18:01|2023-05-14T12:09:10|14:51:09|dcc-motesa-01|1|2|8G||/hpc/group/ychenlab/DA|
kw297|COMPLETED|scavenger|2023-05-13T21:18:01|2023-05-14T11:37:49|14:19:48|dcc-motesa-01|1|2|8G||/hpc/group/ychenlab/DA|
kw297|COMPLETED|scavenger|2023-05-13T21:18:01|2023-05-14T11:29:35|14:11:34|dcc-motesa-01|1|2|8G||/hpc/group/ychenlab/DA|
kw297|COMPLETED|scavenger|2023-05-13T21:18:01|2023-05-14T10:32:14|13:14:13|dcc-motesa-01|1|2|8G||/hpc/group/ychenlab/DA|
kw297|COMPLETED|scavenger|2023-05-13T21:18:01|2023-05-14T13:00:22|15:42:21|dcc-statdept-01|1|2|8G||/hpc/group/ychenlab/DA|
kw297|COMPLETED|scavenger|2023-05-13T21:18:01|2023-05-14T11:01:58|13:43:57|dcc-statdept-01|1|2|8G||/hpc/group/ychenlab/DA|
kw297|COMPLETED|scavenger|2023-05-13T21:18:01|2023-05-15T05:46:10|1-08:28:09|dcc-delairelab-01|1|2|8G||/hpc/group/ychenlab/DA|
kw297|COMPLETED|scavenger|2023-05-13T21:18:01|2023-05-15T03:01:34|1-05:43:33|dcc-delairelab-01|1|2|8G||/hpc/group/ychenlab/DA|
kw297|COMPLETED|scavenger|2023-05-13T21:18:01|2023-05-15T04:46:46|1-07:28:45|dcc-delairelab-01|1|2|8G||/hpc/group/ychenlab/DA|
kw297|COMPLETED|scavenger|2023-05-13T21:18:01|2023-05-15T02:46:34|1-05:28:33|dcc-delairelab-01|1|2|8G||/hpc/group/ychenlab/DA|
kw297|COMPLETED|scavenger|2023-05-13T21:18:01|2023-05-15T04:19:02|1-07:01:01|dcc-delairelab-01|1|2|8G||/hpc/group/ychenlab/DA|
kw297|COMPLETED|scavenger|2023-05-13T21:18:01|2023-05-15T03:42:48|1-06:24:47|dcc-delairelab-01|1|2|8G||/hpc/group/ychenlab/DA|
kw297|COMPLETED|scavenger|2023-05-13T21:18:02|2023-05-15T05:41:10|1-08:23:08|dcc-delairelab-01|1|2|8G||/hpc/group/ychenlab/DA|
kw297|COMPLETED|scavenger|2023-05-13T21:18:02|2023-05-15T02:57:26|1-05:39:24|dcc-delairelab-01|1|2|8G||/hpc/group/ychenlab/DA|
kw297|COMPLETED|scavenger|2023-05-13T21:18:02|2023-05-15T05:31:25|1-08:13:23|dcc-delairelab-01|1|2|8G||/hpc/group/ychenlab/DA|
kw297|COMPLETED|scavenger|2023-05-13T21:18:02|2023-05-15T02:53:59|1-05:35:57|dcc-delairelab-01|1|2|8G||/hpc/group/ychenlab/DA|
kw297|COMPLETED|scavenger|2023-05-13T21:18:03|2023-05-15T05:06:46|1-07:48:43|dcc-delairelab-01|1|2|8G||/hpc/group/ychenlab/DA|
kw297|COMPLETED|scavenger|2023-05-13T21:18:03|2023-05-15T02:57:50|1-05:39:47|dcc-delairelab-01|1|2|8G||/hpc/group/ychenlab/DA|
kw297|COMPLETED|scavenger|2023-05-13T21:18:03|2023-05-15T04:35:06|1-07:17:03|dcc-delairelab-01|1|2|8G||/hpc/group/ychenlab/DA|
kw297|COMPLETED|scavenger|2023-05-13T21:18:03|2023-05-15T03:21:56|1-06:03:53|dcc-delairelab-01|1|2|8G||/hpc/group/ychenlab/DA|
kw297|COMPLETED|scavenger|2023-05-13T21:18:03|2023-05-14T20:17:37|22:59:34|dcc-velmeshevlab-01|1|2|8G||/hpc/group/ychenlab/DA|
kw297|COMPLETED|scavenger|2023-05-13T21:18:03|2023-05-14T21:15:27|23:57:24|dcc-velmeshevlab-01|1|2|8G||/hpc/group/ychenlab/DA|
kw297|COMPLETED|scavenger|2023-05-13T21:18:05|2023-05-14T22:27:06|1-01:09:01|dcc-velmeshevlab-01|1|2|8G||/hpc/group/ychenlab/DA|
kw297|COMPLETED|scavenger|2023-05-13T21:18:05|2023-05-14T20:03:49|22:45:44|dcc-velmeshevlab-01|1|2|8G||/hpc/group/ychenlab/DA|
kw297|COMPLETED|scavenger|2023-05-13T21:18:05|2023-05-14T21:52:56|1-00:34:51|dcc-velmeshevlab-01|1|2|8G||/hpc/group/ychenlab/DA|
kw297|COMPLETED|scavenger|2023-05-13T21:18:05|2023-05-14T20:36:53|23:18:48|dcc-velmeshevlab-01|1|2|8G||/hpc/group/ychenlab/DA|
kw297|COMPLETED|scavenger|2023-05-13T21:18:05|2023-05-14T20:26:49|23:08:44|dcc-velmeshevlab-01|1|2|8G||/hpc/group/ychenlab/DA|
kw297|COMPLETED|scavenger|2023-05-13T21:18:05|2023-05-14T18:22:48|21:04:43|dcc-dailabs-01|1|2|8G||/hpc/group/ychenlab/DA|
kw297|COMPLETED|scavenger|2023-05-13T21:18:06|2023-05-14T15:16:58|17:58:52|dcc-dailabs-01|1|2|8G||/hpc/group/ychenlab/DA|
kw297|COMPLETED|scavenger|2023-05-13T21:18:06|2023-05-14T17:23:18|20:05:12|dcc-dailabs-01|1|2|8G||/hpc/group/ychenlab/DA|
kw297|COMPLETED|scavenger|2023-05-13T21:18:06|2023-05-14T14:29:45|17:11:39|dcc-dailabs-02|1|2|8G||/hpc/group/ychenlab/DA|
kw297|COMPLETED|scavenger|2023-05-13T21:18:06|2023-05-14T16:05:49|18:47:43|dcc-dailabs-02|1|2|8G||/hpc/group/ychenlab/DA|
kw297|COMPLETED|scavenger|2023-05-13T21:18:06|2023-05-14T14:53:49|17:35:43|dcc-dailabs-02|1|2|8G||/hpc/group/ychenlab/DA|
kw297|COMPLETED|scavenger|2023-05-13T21:18:06|2023-05-14T18:03:20|20:45:14|dcc-dailabs-03|1|2|8G||/hpc/group/ychenlab/DA|
kw297|COMPLETED|scavenger|2023-05-13T21:18:06|2023-05-14T14:45:28|17:27:22|dcc-dailabs-03|1|2|8G||/hpc/group/ychenlab/DA|
kw297|COMPLETED|scavenger|2023-05-13T21:18:06|2023-05-14T17:41:34|20:23:28|dcc-dailabs-03|1|2|8G||/hpc/group/ychenlab/DA|
kw297|COMPLETED|scavenger|2023-05-13T21:18:06|2023-05-14T14:48:00|17:29:54|dcc-dailabs-04|1|2|8G||/hpc/group/ychenlab/DA|
kw297|COMPLETED|scavenger|2023-05-13T21:18:06|2023-05-14T16:57:08|19:39:02|dcc-dailabs-04|1|2|8G||/hpc/group/ychenlab/DA|
kw297|COMPLETED|scavenger|2023-05-13T21:18:06|2023-05-14T14:25:35|17:07:29|dcc-dailabs-04|1|2|8G||/hpc/group/ychenlab/DA|
kw297|COMPLETED|scavenger|2023-05-13T21:18:06|2023-05-14T15:51:21|18:33:15|dcc-dailabs-05|1|2|8G||/hpc/group/ychenlab/DA|
kw297|COMPLETED|scavenger|2023-05-13T21:18:08|2023-05-14T14:10:58|16:52:50|dcc-dailabs-05|1|2|8G||/hpc/group/ychenlab/DA|
smokeauth2-tst|COMPLETED|scavenger|2023-05-13T21:21:30|2023-05-13T21:21:30|00:00:00|dcc-youlab-01|1|1|2G||/hpc/home/smokeauth2-tst|
smokeauth2-tst|COMPLETED|scavenger|2023-05-13T21:21:32|2023-05-13T21:21:33|00:00:01|dcc-youlab-01|1|1|2G||/hpc/home/smokeauth2-tst|
smokeauth2-tst|COMPLETED|scavenger|2023-05-13T21:21:34|2023-05-13T21:21:35|00:00:01|dcc-youlab-01|1|1|2G||/hpc/home/smokeauth2-tst|
smokeauth2-tst|COMPLETED|scavenger|2023-05-13T21:21:36|2023-05-13T21:21:36|00:00:00|dcc-youlab-01|1|1|2G||/hpc/home/smokeauth2-tst|
smokeauth2-tst|COMPLETED|scavenger|2023-05-13T21:21:39|2023-05-13T21:21:39|00:00:00|dcc-youlab-01|1|1|2G||/hpc/home/smokeauth2-tst|
smokeauth2-tst|COMPLETED|scavenger|2023-05-13T21:31:30|2023-05-13T21:31:31|00:00:01|dcc-youlab-01|1|1|2G||/hpc/home/smokeauth2-tst|
smokeauth2-tst|COMPLETED|scavenger|2023-05-13T21:31:32|2023-05-13T21:31:33|00:00:01|dcc-youlab-01|1|1|2G||/hpc/home/smokeauth2-tst|
smokeauth2-tst|COMPLETED|scavenger|2023-05-13T21:31:34|2023-05-13T21:31:35|00:00:01|dcc-youlab-01|1|1|2G||/hpc/home/smokeauth2-tst|
smokeauth2-tst|COMPLETED|scavenger|2023-05-13T21:31:37|2023-05-13T21:31:37|00:00:00|dcc-youlab-01|1|1|2G||/hpc/home/smokeauth2-tst|
smokeauth2-tst|COMPLETED|scavenger|2023-05-13T21:31:39|2023-05-13T21:31:39|00:00:00|dcc-youlab-01|1|1|2G||/hpc/home/smokeauth2-tst|
jo117|COMPLETED|scavenger|2023-05-13T21:39:09|2023-05-14T01:39:11|04:00:02|dcc-bragg-01|1|12|72G||/work/jo117/DiaoLab/hicar_v2/full_test/work/e4/6c2425e5323dd931c0a2abe9e93b42|
smokeauth2-tst|COMPLETED|scavenger|2023-05-13T21:41:30|2023-05-13T21:41:31|00:00:01|dcc-youlab-01|1|1|2G||/hpc/home/smokeauth2-tst|
smokeauth2-tst|COMPLETED|scavenger|2023-05-13T21:41:33|2023-05-13T21:41:33|00:00:00|dcc-youlab-01|1|1|2G||/hpc/home/smokeauth2-tst|
smokeauth2-tst|COMPLETED|scavenger|2023-05-13T21:41:35|2023-05-13T21:41:35|00:00:00|dcc-youlab-01|1|1|2G||/hpc/home/smokeauth2-tst|
smokeauth2-tst|COMPLETED|scavenger|2023-05-13T21:41:37|2023-05-13T21:41:37|00:00:00|dcc-youlab-01|1|1|2G||/hpc/home/smokeauth2-tst|
smokeauth2-tst|COMPLETED|scavenger|2023-05-13T21:41:39|2023-05-13T21:41:39|00:00:00|dcc-youlab-01|1|1|2G||/hpc/home/smokeauth2-tst|
smokeauth2-tst|COMPLETED|scavenger|2023-05-13T21:51:32|2023-05-13T21:51:32|00:00:00|dcc-youlab-01|1|1|2G||/hpc/home/smokeauth2-tst|
smokeauth2-tst|COMPLETED|scavenger|2023-05-13T21:51:34|2023-05-13T21:51:34|00:00:00|dcc-youlab-01|1|1|2G||/hpc/home/smokeauth2-tst|
smokeauth2-tst|COMPLETED|scavenger|2023-05-13T21:51:36|2023-05-13T21:51:36|00:00:00|dcc-youlab-01|1|1|2G||/hpc/home/smokeauth2-tst|
smokeauth2-tst|COMPLETED|scavenger|2023-05-13T21:51:38|2023-05-13T21:51:39|00:00:01|dcc-youlab-01|1|1|2G||/hpc/home/smokeauth2-tst|
smokeauth2-tst|COMPLETED|scavenger|2023-05-13T21:51:41|2023-05-13T21:51:41|00:00:00|dcc-youlab-01|1|1|2G||/hpc/home/smokeauth2-tst|
jo117|COMPLETED|scavenger|2023-05-13T21:56:51|2023-05-13T22:44:40|00:47:49|dcc-wychem-01|1|12|72G||/work/jo117/DiaoLab/hicar_v2/mESC/singularity/work/4c/902433e636537b8ba8ce610683fe01|
