fjm7|COMPLETED|scavenger|2023-04-23T15:19:04|2023-05-18T23:19:00|25-07:59:56|dcc-noor-02|1|1|2G||/hpc/group/brownlab/fjm7/new-data-collection/slurm-runners|
fjm7|COMPLETED|scavenger|2023-04-23T15:19:04|2023-05-18T23:01:43|25-07:42:39|dcc-noor-02|1|1|2G||/hpc/group/brownlab/fjm7/new-data-collection/slurm-runners|
pz19|COMPLETED|scavenger|2023-05-10T09:53:22|2023-05-22T13:35:04|12-03:41:42|dcc-adrc-01|1|16|32000M||/work/pz19/Dexter|
pz19|COMPLETED|scavenger|2023-05-15T23:21:42|2023-05-30T14:18:14|14-14:56:32|dcc-fergusonlab-01|1|16|32000M||/work/pz19/Dexter|
hk288|COMPLETED|scavenger|2023-05-16T19:29:46|2023-05-18T23:59:34|2-04:29:48|dcc-bragg-03|1|32|40G||/hpc/group/mastatlab/hk288/code_paired_ntaxa_bfam|
jz316|COMPLETED|scavenger|2023-05-17T10:58:19|2023-05-22T04:41:57|4-17:43:38|dcc-carin-25|1|10|31G||/work/jz316/fenhc-pdi/tpssh|
jz316|COMPLETED|scavenger|2023-05-17T10:59:23|2023-05-23T13:56:56|6-02:57:33|dcc-dunsonlab-02|1|10|31G||/work/jz316/fenhc-pdi/mn15l|
ew198|COMPLETED|scavenger|2023-05-17T15:01:57|2023-05-30T13:18:19|12-22:16:22|dcc-youlab-01|1|1|125G||/cifs/hariri-long/Projects/Annchen/Scripts/ArealMSHBM|
ew198|COMPLETED|scavenger|2023-05-17T15:01:57|2023-05-30T13:18:47|12-22:16:50|dcc-wychem-01|1|1|16000M||/cifs/hariri-long/Projects/Annchen/Scripts/ArealMSHBM|
ew198|COMPLETED|scavenger|2023-05-17T15:01:57|2023-05-30T13:18:47|12-22:16:50|dcc-wychem-01|1|1|16000M||/cifs/hariri-long/Projects/Annchen/Scripts/ArealMSHBM|
ew198|COMPLETED|scavenger|2023-05-17T15:01:57|2023-05-30T13:18:47|12-22:16:50|dcc-wychem-01|1|1|16000M||/cifs/hariri-long/Projects/Annchen/Scripts/ArealMSHBM|
ew198|COMPLETED|scavenger|2023-05-17T15:01:57|2023-05-30T13:18:47|12-22:16:50|dcc-wychem-01|1|1|16000M||/cifs/hariri-long/Projects/Annchen/Scripts/ArealMSHBM|
ew198|COMPLETED|scavenger|2023-05-17T15:01:57|2023-05-30T13:18:47|12-22:16:50|dcc-wychem-01|1|1|16000M||/cifs/hariri-long/Projects/Annchen/Scripts/ArealMSHBM|
ew198|COMPLETED|scavenger|2023-05-17T15:01:57|2023-05-30T13:18:47|12-22:16:50|dcc-wychem-01|1|1|16000M||/cifs/hariri-long/Projects/Annchen/Scripts/ArealMSHBM|
ew198|COMPLETED|scavenger|2023-05-17T15:01:57|2023-05-30T13:18:47|12-22:16:50|dcc-wychem-01|1|1|16000M||/cifs/hariri-long/Projects/Annchen/Scripts/ArealMSHBM|
ew198|COMPLETED|scavenger|2023-05-17T15:01:57|2023-05-30T13:18:47|12-22:16:50|dcc-wychem-01|1|1|16000M||/cifs/hariri-long/Projects/Annchen/Scripts/ArealMSHBM|
ew198|COMPLETED|scavenger|2023-05-17T15:01:57|2023-05-30T13:18:47|12-22:16:50|dcc-wychem-01|1|1|16000M||/cifs/hariri-long/Projects/Annchen/Scripts/ArealMSHBM|
ew198|COMPLETED|scavenger|2023-05-17T15:01:58|2023-05-30T13:18:33|12-22:16:35|dcc-tunglab-01|1|1|16000M||/cifs/hariri-long/Projects/Annchen/Scripts/ArealMSHBM|
ew198|COMPLETED|scavenger|2023-05-17T15:01:58|2023-05-30T13:18:33|12-22:16:35|dcc-tunglab-01|1|1|16000M||/cifs/hariri-long/Projects/Annchen/Scripts/ArealMSHBM|
ew198|COMPLETED|scavenger|2023-05-17T15:01:58|2023-05-30T13:18:33|12-22:16:35|dcc-tunglab-01|1|1|16000M||/cifs/hariri-long/Projects/Annchen/Scripts/ArealMSHBM|
ew198|COMPLETED|scavenger|2023-05-17T15:01:58|2023-05-30T13:18:33|12-22:16:35|dcc-tunglab-01|1|1|16000M||/cifs/hariri-long/Projects/Annchen/Scripts/ArealMSHBM|
ew198|COMPLETED|scavenger|2023-05-17T15:01:59|2023-05-30T13:18:33|12-22:16:34|dcc-tunglab-01|1|1|16000M||/cifs/hariri-long/Projects/Annchen/Scripts/ArealMSHBM|
ew198|COMPLETED|scavenger|2023-05-17T15:01:59|2023-05-30T13:18:47|12-22:16:48|dcc-tmolab-02|1|1|16000M||/cifs/hariri-long/Projects/Annchen/Scripts/ArealMSHBM|
ew198|COMPLETED|scavenger|2023-05-17T15:01:59|2023-05-30T13:18:47|12-22:16:48|dcc-tmolab-02|1|1|16000M||/cifs/hariri-long/Projects/Annchen/Scripts/ArealMSHBM|
ew198|COMPLETED|scavenger|2023-05-17T15:01:59|2023-05-30T13:18:47|12-22:16:48|dcc-tmolab-02|1|1|16000M||/cifs/hariri-long/Projects/Annchen/Scripts/ArealMSHBM|
ew198|COMPLETED|scavenger|2023-05-17T15:01:59|2023-05-30T13:18:47|12-22:16:48|dcc-tmolab-02|1|1|16000M||/cifs/hariri-long/Projects/Annchen/Scripts/ArealMSHBM|
ew198|COMPLETED|scavenger|2023-05-17T15:01:59|2023-05-30T13:18:44|12-22:16:45|dcc-tmolab-01|1|1|16000M||/cifs/hariri-long/Projects/Annchen/Scripts/ArealMSHBM|
ew198|COMPLETED|scavenger|2023-05-17T15:01:59|2023-05-30T13:18:44|12-22:16:45|dcc-tmolab-01|1|1|16000M||/cifs/hariri-long/Projects/Annchen/Scripts/ArealMSHBM|
ew198|COMPLETED|scavenger|2023-05-17T15:01:59|2023-05-30T13:18:44|12-22:16:45|dcc-tmolab-01|1|1|16000M||/cifs/hariri-long/Projects/Annchen/Scripts/ArealMSHBM|
ew198|COMPLETED|scavenger|2023-05-17T15:02:00|2023-05-30T13:19:00|12-22:17:00|dcc-statdept-01|1|1|16000M||/cifs/hariri-long/Projects/Annchen/Scripts/ArealMSHBM|
ew198|COMPLETED|scavenger|2023-05-17T15:02:30|2023-05-30T13:19:00|12-22:16:30|dcc-statdept-01|1|1|16000M||/cifs/hariri-long/Projects/Annchen/Scripts/ArealMSHBM|
ew198|COMPLETED|scavenger|2023-05-17T15:02:30|2023-05-30T13:18:35|12-22:16:05|dcc-savageresearch-02|1|1|16000M||/cifs/hariri-long/Projects/Annchen/Scripts/ArealMSHBM|
ew198|COMPLETED|scavenger|2023-05-17T15:02:30|2023-05-30T13:18:35|12-22:16:05|dcc-savageresearch-02|1|1|16000M||/cifs/hariri-long/Projects/Annchen/Scripts/ArealMSHBM|
ew198|COMPLETED|scavenger|2023-05-17T15:02:30|2023-05-30T13:18:35|12-22:16:05|dcc-savageresearch-02|1|1|16000M||/cifs/hariri-long/Projects/Annchen/Scripts/ArealMSHBM|
ew198|COMPLETED|scavenger|2023-05-17T15:02:31|2023-05-30T13:18:35|12-22:16:04|dcc-savageresearch-02|1|1|16000M||/cifs/hariri-long/Projects/Annchen/Scripts/ArealMSHBM|
ew198|COMPLETED|scavenger|2023-05-17T15:02:31|2023-05-30T13:18:35|12-22:16:04|dcc-savageresearch-02|1|1|16000M||/cifs/hariri-long/Projects/Annchen/Scripts/ArealMSHBM|
ew198|COMPLETED|scavenger|2023-05-17T15:02:31|2023-05-30T13:18:35|12-22:16:04|dcc-savageresearch-02|1|1|16000M||/cifs/hariri-long/Projects/Annchen/Scripts/ArealMSHBM|
ew198|COMPLETED|scavenger|2023-05-17T15:02:31|2023-05-30T13:18:35|12-22:16:04|dcc-savageresearch-01|1|1|16000M||/cifs/hariri-long/Projects/Annchen/Scripts/ArealMSHBM|
ew198|COMPLETED|scavenger|2023-05-17T15:02:31|2023-05-30T13:18:35|12-22:16:04|dcc-savageresearch-01|1|1|16000M||/cifs/hariri-long/Projects/Annchen/Scripts/ArealMSHBM|
ew198|COMPLETED|scavenger|2023-05-17T15:02:31|2023-05-30T13:18:35|12-22:16:04|dcc-savageresearch-01|1|1|16000M||/cifs/hariri-long/Projects/Annchen/Scripts/ArealMSHBM|
ew198|COMPLETED|scavenger|2023-05-17T15:02:31|2023-05-30T13:18:52|12-22:16:21|dcc-rausherlab-02|1|1|16000M||/cifs/hariri-long/Projects/Annchen/Scripts/ArealMSHBM|
ew198|COMPLETED|scavenger|2023-05-17T15:02:31|2023-05-30T13:18:42|12-22:16:11|dcc-rausherlab-01|1|1|16000M||/cifs/hariri-long/Projects/Annchen/Scripts/ArealMSHBM|
ew198|COMPLETED|scavenger|2023-05-17T15:02:32|2023-05-30T13:18:42|12-22:16:10|dcc-rausherlab-01|1|1|16000M||/cifs/hariri-long/Projects/Annchen/Scripts/ArealMSHBM|
ew198|COMPLETED|scavenger|2023-05-17T15:02:32|2023-05-30T13:18:44|12-22:16:12|dcc-rausherlab-01|1|1|16000M||/cifs/hariri-long/Projects/Annchen/Scripts/ArealMSHBM|
ew198|COMPLETED|scavenger|2023-05-17T15:02:32|2023-05-30T13:18:44|12-22:16:12|dcc-rausherlab-01|1|1|16000M||/cifs/hariri-long/Projects/Annchen/Scripts/ArealMSHBM|
jo117|COMPLETED|scavenger|2023-05-17T20:09:35|2023-05-19T01:28:09|1-05:18:34|dcc-bragg-01|1|12|120G||/work/jo117/DiaoLab/hicar_v2/human/work/67/535850e5a19c545e3de5c01e54dc5e|
hpk4|COMPLETED|scavenger|2023-05-18T13:51:49|2023-05-18T23:57:19|10:05:30|dcc-bragg-01|1|8|32G||/work/hpk4/newcomp|
kw297|COMPLETED|scavenger|2023-05-18T17:20:17|2023-05-19T08:40:58|15:20:41|dcc-donglab-01|1|2|8G||/hpc/group/ychenlab/DA|
kw297|COMPLETED|scavenger|2023-05-18T17:20:17|2023-05-19T13:07:52|19:47:35|dcc-donglab-01|1|2|8G||/hpc/group/ychenlab/DA|
kw297|COMPLETED|scavenger|2023-05-18T17:20:17|2023-05-19T13:01:45|19:41:28|dcc-donglab-01|1|2|8G||/hpc/group/ychenlab/DA|
kw297|COMPLETED|scavenger|2023-05-18T17:20:20|2023-05-19T13:05:18|19:44:58|dcc-donglab-01|1|2|8G||/hpc/group/ychenlab/DA|
kw297|COMPLETED|scavenger|2023-05-18T17:20:20|2023-05-19T13:14:36|19:54:16|dcc-donglab-01|1|2|8G||/hpc/group/ychenlab/DA|
kw297|COMPLETED|scavenger|2023-05-18T17:20:20|2023-05-19T14:02:42|20:42:22|dcc-bragg-02|1|2|8G||/hpc/group/ychenlab/DA|
kw297|COMPLETED|scavenger|2023-05-18T17:20:23|2023-05-19T13:21:06|20:00:43|dcc-bragg-02|1|2|8G||/hpc/group/ychenlab/DA|
kw297|COMPLETED|scavenger|2023-05-18T17:20:23|2023-05-19T13:22:22|20:01:59|dcc-bragg-02|1|2|8G||/hpc/group/ychenlab/DA|
kw297|COMPLETED|scavenger|2023-05-18T17:20:23|2023-05-19T12:51:30|19:31:07|dcc-bragg-04|1|2|8G||/hpc/group/ychenlab/DA|
kw297|COMPLETED|scavenger|2023-05-18T17:20:23|2023-05-19T12:50:39|19:30:16|dcc-bragg-04|1|2|8G||/hpc/group/ychenlab/DA|
kw297|COMPLETED|scavenger|2023-05-18T17:20:23|2023-05-19T13:43:36|20:23:13|dcc-bragg-04|1|2|8G||/hpc/group/ychenlab/DA|
kw297|COMPLETED|scavenger|2023-05-18T17:20:23|2023-05-19T13:34:27|20:14:04|dcc-bragg-04|1|2|8G||/hpc/group/ychenlab/DA|
kw297|COMPLETED|scavenger|2023-05-18T17:23:29|2023-05-19T08:35:30|15:12:01|dcc-hulab-01|1|2|8G||/hpc/group/ychenlab/DA|
kw297|COMPLETED|scavenger|2023-05-18T17:23:29|2023-05-19T13:05:57|19:42:28|dcc-hulab-04|1|2|8G||/hpc/group/ychenlab/DA|
kw297|COMPLETED|scavenger|2023-05-18T17:23:29|2023-05-19T09:23:27|15:59:58|dcc-gcb-14|1|2|8G||/hpc/group/ychenlab/DA|
kw297|COMPLETED|scavenger|2023-05-18T17:23:29|2023-05-19T09:52:48|16:29:19|dcc-gcb-15|1|2|8G||/hpc/group/ychenlab/DA|
kw297|COMPLETED|scavenger|2023-05-18T17:23:29|2023-05-19T12:26:02|19:02:33|dcc-bragg-05|1|2|8G||/hpc/group/ychenlab/DA|
kw297|COMPLETED|scavenger|2023-05-18T17:23:29|2023-05-19T12:25:51|19:02:22|dcc-bragg-05|1|2|8G||/hpc/group/ychenlab/DA|
kw297|COMPLETED|scavenger|2023-05-18T17:23:29|2023-05-19T12:16:53|18:53:24|dcc-bragg-05|1|2|8G||/hpc/group/ychenlab/DA|
kw297|COMPLETED|scavenger|2023-05-18T17:23:29|2023-05-19T12:16:47|18:53:18|dcc-bragg-05|1|2|8G||/hpc/group/ychenlab/DA|
kw297|COMPLETED|scavenger|2023-05-18T17:23:32|2023-05-19T14:00:13|20:36:41|dcc-bragg-05|1|2|8G||/hpc/group/ychenlab/DA|
kw297|COMPLETED|scavenger|2023-05-18T17:23:32|2023-05-19T13:53:22|20:29:50|dcc-bragg-05|1|2|8G||/hpc/group/ychenlab/DA|
kw297|COMPLETED|scavenger|2023-05-18T17:23:32|2023-05-19T14:08:27|20:44:55|dcc-bragg-05|1|2|8G||/hpc/group/ychenlab/DA|
kw297|COMPLETED|scavenger|2023-05-18T17:23:32|2023-05-19T11:43:29|18:19:57|dcc-compeb-02|1|2|8G||/hpc/group/ychenlab/DA|
kw297|COMPLETED|scavenger|2023-05-18T17:23:32|2023-05-19T07:59:35|14:36:03|dcc-compeb-03|1|2|8G||/hpc/group/ychenlab/DA|
kw297|COMPLETED|scavenger|2023-05-18T17:23:32|2023-05-19T08:05:16|14:41:44|dcc-compeb-03|1|2|8G||/hpc/group/ychenlab/DA|
kw297|COMPLETED|scavenger|2023-05-18T17:23:32|2023-05-19T12:18:15|18:54:43|dcc-compeb-04|1|2|8G||/hpc/group/ychenlab/DA|
kw297|COMPLETED|scavenger|2023-05-18T17:23:35|2023-05-19T12:00:21|18:36:46|dcc-dailabs-01|1|2|8G||/hpc/group/ychenlab/DA|
kw297|COMPLETED|scavenger|2023-05-18T17:23:35|2023-05-19T15:33:31|22:09:56|dcc-dailabs-02|1|2|8G||/hpc/group/ychenlab/DA|
kw297|COMPLETED|scavenger|2023-05-18T17:23:35|2023-05-19T15:28:07|22:04:32|dcc-dailabs-02|1|2|8G||/hpc/group/ychenlab/DA|
kw297|COMPLETED|scavenger|2023-05-18T17:23:35|2023-05-19T12:28:14|19:04:39|dcc-dailabs-02|1|2|8G||/hpc/group/ychenlab/DA|
kw297|COMPLETED|scavenger|2023-05-18T17:23:38|2023-05-19T12:18:52|18:55:14|dcc-dailabs-03|1|2|8G||/hpc/group/ychenlab/DA|
kw297|COMPLETED|scavenger|2023-05-18T17:23:38|2023-05-19T12:30:47|19:07:09|dcc-dailabs-03|1|2|8G||/hpc/group/ychenlab/DA|
kw297|COMPLETED|scavenger|2023-05-18T17:23:38|2023-05-19T12:33:37|19:09:59|dcc-dailabs-03|1|2|8G||/hpc/group/ychenlab/DA|
kw297|COMPLETED|scavenger|2023-05-18T17:23:38|2023-05-19T11:42:05|18:18:27|dcc-dailabs-04|1|2|8G||/hpc/group/ychenlab/DA|
kw297|COMPLETED|scavenger|2023-05-18T17:23:38|2023-05-19T11:31:46|18:08:08|dcc-dailabs-04|1|2|8G||/hpc/group/ychenlab/DA|
kw297|COMPLETED|scavenger|2023-05-18T17:23:38|2023-05-19T11:46:00|18:22:22|dcc-dailabs-04|1|2|8G||/hpc/group/ychenlab/DA|
kw297|COMPLETED|scavenger|2023-05-18T17:23:38|2023-05-19T11:21:33|17:57:55|dcc-dailabs-05|1|2|8G||/hpc/group/ychenlab/DA|
kw297|COMPLETED|scavenger|2023-05-18T17:23:38|2023-05-19T11:05:57|17:42:19|dcc-dailabs-05|1|2|8G||/hpc/group/ychenlab/DA|
kw297|COMPLETED|scavenger|2023-05-18T17:23:38|2023-05-19T11:07:02|17:43:24|dcc-dailabs-05|1|2|8G||/hpc/group/ychenlab/DA|
kw297|COMPLETED|scavenger|2023-05-18T17:23:38|2023-05-19T12:09:55|18:46:17|dcc-chg-01|1|2|8G||/hpc/group/ychenlab/DA|
kw297|COMPLETED|scavenger|2023-05-18T17:23:39|2023-05-19T12:07:48|18:44:09|dcc-chg-01|1|2|8G||/hpc/group/ychenlab/DA|
kw297|COMPLETED|scavenger|2023-05-18T17:23:39|2023-05-19T16:03:03|22:39:24|dcc-chg-02|1|2|8G||/hpc/group/ychenlab/DA|
kw297|COMPLETED|scavenger|2023-05-18T17:23:39|2023-05-19T15:56:01|22:32:22|dcc-chg-02|1|2|8G||/hpc/group/ychenlab/DA|
kw297|COMPLETED|scavenger|2023-05-18T17:23:39|2023-05-19T16:12:19|22:48:40|dcc-chg-02|1|2|8G||/hpc/group/ychenlab/DA|
kw297|COMPLETED|scavenger|2023-05-18T17:23:39|2023-05-19T15:47:01|22:23:22|dcc-chg-03|1|2|8G||/hpc/group/ychenlab/DA|
kw297|COMPLETED|scavenger|2023-05-18T17:23:39|2023-05-19T12:24:43|19:01:04|dcc-chg-03|1|2|8G||/hpc/group/ychenlab/DA|
kw297|COMPLETED|scavenger|2023-05-18T17:23:39|2023-05-19T12:20:23|18:56:44|dcc-chg-03|1|2|8G||/hpc/group/ychenlab/DA|
kw297|COMPLETED|scavenger|2023-05-18T17:23:41|2023-05-19T12:14:09|18:50:28|dcc-chg-04|1|2|8G||/hpc/group/ychenlab/DA|
kw297|COMPLETED|scavenger|2023-05-18T17:23:42|2023-05-19T12:05:30|18:41:48|dcc-chg-04|1|2|8G||/hpc/group/ychenlab/DA|
hk288|COMPLETED|scavenger|2023-05-18T17:26:09|2023-05-18T23:06:53|05:40:44|dcc-cagpm-02|1|32|80G||/hpc/group/mastatlab/hk288/code_paired_ntaxa6|
hk288|COMPLETED|scavenger|2023-05-18T20:01:06|2023-05-19T00:27:38|04:26:32|dcc-delairelab-01|1|32|40G||/hpc/group/mastatlab/hk288/code_paired_ntaxa_bfam|
hk288|COMPLETED|scavenger|2023-05-18T20:01:11|2023-05-19T02:05:05|06:03:54|dcc-gcb-12|1|32|40G||/hpc/group/mastatlab/hk288/code_paired_ntaxa_bfam|
hk288|COMPLETED|scavenger|2023-05-18T20:05:59|2023-05-19T00:56:38|04:50:39|dcc-dunsonlab-01|1|32|40G||/hpc/group/mastatlab/hk288/code_paired_ntaxa_bfam|
hk288|COMPLETED|scavenger|2023-05-18T20:06:04|2023-05-19T01:16:14|05:10:10|dcc-dunsonlab-02|1|32|40G||/hpc/group/mastatlab/hk288/code_paired_ntaxa_bfam|
kmm105|COMPLETED|scavenger|2023-05-18T22:26:20|2023-05-19T00:25:30|01:59:10|dcc-wychem-01|1|1|10G||/work/kmm105/unmapped-reads|
smokeauth2-tst|COMPLETED|scavenger|2023-05-18T23:01:30|2023-05-18T23:01:31|00:00:01|dcc-wychem-01|1|1|2G||/hpc/home/smokeauth2-tst|
smokeauth2-tst|COMPLETED|scavenger|2023-05-18T23:01:32|2023-05-18T23:01:33|00:00:01|dcc-wychem-01|1|1|2G||/hpc/home/smokeauth2-tst|
smokeauth2-tst|COMPLETED|scavenger|2023-05-18T23:01:35|2023-05-18T23:01:36|00:00:01|dcc-wychem-01|1|1|2G||/hpc/home/smokeauth2-tst|
smokeauth2-tst|COMPLETED|scavenger|2023-05-18T23:01:37|2023-05-18T23:01:38|00:00:01|dcc-wychem-01|1|1|2G||/hpc/home/smokeauth2-tst|
smokeauth2-tst|COMPLETED|scavenger|2023-05-18T23:01:39|2023-05-18T23:01:40|00:00:01|dcc-wychem-01|1|1|2G||/hpc/home/smokeauth2-tst|
bc276|COMPLETED|scavenger|2023-05-18T23:04:48|2023-05-18T23:15:00|00:10:12|dcc-velmeshevlab-01|1|1|100G||/hpc/group/goldberg/bc276/Genome_assembly/final_assm|
smokeauth2-tst|COMPLETED|scavenger|2023-05-18T23:11:31|2023-05-18T23:11:31|00:00:00|dcc-wychem-01|1|1|2G||/hpc/home/smokeauth2-tst|
smokeauth2-tst|COMPLETED|scavenger|2023-05-18T23:11:34|2023-05-18T23:11:35|00:00:01|dcc-wychem-01|1|1|2G||/hpc/home/smokeauth2-tst|
smokeauth2-tst|COMPLETED|scavenger|2023-05-18T23:11:37|2023-05-18T23:11:37|00:00:00|dcc-wychem-01|1|1|2G||/hpc/home/smokeauth2-tst|
smokeauth2-tst|COMPLETED|scavenger|2023-05-18T23:11:40|2023-05-18T23:11:40|00:00:00|dcc-wychem-01|1|1|2G||/hpc/home/smokeauth2-tst|
smokeauth2-tst|COMPLETED|scavenger|2023-05-18T23:11:43|2023-05-18T23:11:44|00:00:01|dcc-wychem-01|1|1|2G||/hpc/home/smokeauth2-tst|
jz317|COMPLETED|scavenger|2023-05-18T23:14:25|2023-05-19T00:42:03|01:27:38|dcc-gcb-01|1|48|100G||/work/jz317|
jz317|COMPLETED|scavenger|2023-05-18T23:15:02|2023-05-18T23:59:35|00:44:33|dcc-hulab-05|1|48|100G||/work/jz317|
jz317|COMPLETED|scavenger|2023-05-18T23:15:38|2023-05-19T07:14:02|07:58:24|dcc-kirschlab-01|1|48|100G||/work/jz317|
smokeauth2-tst|COMPLETED|scavenger|2023-05-18T23:21:30|2023-05-18T23:21:31|00:00:01|dcc-wychem-01|1|1|2G||/hpc/home/smokeauth2-tst|
smokeauth2-tst|COMPLETED|scavenger|2023-05-18T23:21:32|2023-05-18T23:21:33|00:00:01|dcc-wychem-01|1|1|2G||/hpc/home/smokeauth2-tst|
smokeauth2-tst|COMPLETED|scavenger|2023-05-18T23:21:35|2023-05-18T23:21:35|00:00:00|dcc-wychem-01|1|1|2G||/hpc/home/smokeauth2-tst|
smokeauth2-tst|COMPLETED|scavenger|2023-05-18T23:21:37|2023-05-18T23:21:37|00:00:00|dcc-wychem-01|1|1|2G||/hpc/home/smokeauth2-tst|
smokeauth2-tst|COMPLETED|scavenger|2023-05-18T23:21:39|2023-05-18T23:21:40|00:00:01|dcc-wychem-01|1|1|2G||/hpc/home/smokeauth2-tst|
smokeauth2-tst|COMPLETED|scavenger|2023-05-18T23:31:32|2023-05-18T23:31:35|00:00:03|dcc-hulab-04|1|1|2G||/hpc/home/smokeauth2-tst|
smokeauth2-tst|COMPLETED|scavenger|2023-05-18T23:31:36|2023-05-18T23:31:38|00:00:02|dcc-hulab-04|1|1|2G||/hpc/home/smokeauth2-tst|
smokeauth2-tst|COMPLETED|scavenger|2023-05-18T23:31:40|2023-05-18T23:31:43|00:00:03|dcc-hulab-04|1|1|2G||/hpc/home/smokeauth2-tst|
smokeauth2-tst|COMPLETED|scavenger|2023-05-18T23:31:48|2023-05-18T23:31:50|00:00:02|dcc-gcb-10|1|1|2G||/hpc/home/smokeauth2-tst|
smokeauth2-tst|COMPLETED|scavenger|2023-05-18T23:31:52|2023-05-18T23:31:54|00:00:02|dcc-gcb-10|1|1|2G||/hpc/home/smokeauth2-tst|
smokeauth2-tst|COMPLETED|scavenger|2023-05-18T23:41:32|2023-05-18T23:41:33|00:00:01|dcc-wychem-01|1|1|2G||/hpc/home/smokeauth2-tst|
smokeauth2-tst|COMPLETED|scavenger|2023-05-18T23:41:35|2023-05-18T23:41:36|00:00:01|dcc-wychem-01|1|1|2G||/hpc/home/smokeauth2-tst|
smokeauth2-tst|COMPLETED|scavenger|2023-05-18T23:41:38|2023-05-18T23:41:39|00:00:01|dcc-wychem-01|1|1|2G||/hpc/home/smokeauth2-tst|
smokeauth2-tst|COMPLETED|scavenger|2023-05-18T23:41:41|2023-05-18T23:41:41|00:00:00|dcc-wychem-01|1|1|2G||/hpc/home/smokeauth2-tst|
smokeauth2-tst|COMPLETED|scavenger|2023-05-18T23:41:44|2023-05-18T23:41:44|00:00:00|dcc-wychem-01|1|1|2G||/hpc/home/smokeauth2-tst|
smokeauth2-tst|COMPLETED|scavenger|2023-05-18T23:51:30|2023-05-18T23:51:31|00:00:01|dcc-wychem-01|1|1|2G||/hpc/home/smokeauth2-tst|
smokeauth2-tst|COMPLETED|scavenger|2023-05-18T23:51:33|2023-05-18T23:51:33|00:00:00|dcc-wychem-01|1|1|2G||/hpc/home/smokeauth2-tst|
smokeauth2-tst|COMPLETED|scavenger|2023-05-18T23:51:35|2023-05-18T23:51:35|00:00:00|dcc-wychem-01|1|1|2G||/hpc/home/smokeauth2-tst|
smokeauth2-tst|COMPLETED|scavenger|2023-05-18T23:51:37|2023-05-18T23:51:38|00:00:01|dcc-wychem-01|1|1|2G||/hpc/home/smokeauth2-tst|
smokeauth2-tst|COMPLETED|scavenger|2023-05-18T23:51:39|2023-05-18T23:51:40|00:00:01|dcc-wychem-01|1|1|2G||/hpc/home/smokeauth2-tst|
