pz19|COMPLETED|scavenger|2023-05-15T23:21:42|2023-05-30T14:18:14|14-14:56:32|dcc-fergusonlab-01|1|16|32000M||/work/pz19/Dexter|
jz316|COMPLETED|scavenger|2023-05-17T10:59:23|2023-05-23T13:56:56|6-02:57:33|dcc-dunsonlab-02|1|10|31G||/work/jz316/fenhc-pdi/mn15l|
ew198|COMPLETED|scavenger|2023-05-17T15:01:57|2023-05-30T13:18:19|12-22:16:22|dcc-youlab-01|1|1|125G||/cifs/hariri-long/Projects/Annchen/Scripts/ArealMSHBM|
ew198|COMPLETED|scavenger|2023-05-17T15:01:57|2023-05-30T13:18:47|12-22:16:50|dcc-wychem-01|1|1|16000M||/cifs/hariri-long/Projects/Annchen/Scripts/ArealMSHBM|
ew198|COMPLETED|scavenger|2023-05-17T15:01:57|2023-05-30T13:18:47|12-22:16:50|dcc-wychem-01|1|1|16000M||/cifs/hariri-long/Projects/Annchen/Scripts/ArealMSHBM|
ew198|COMPLETED|scavenger|2023-05-17T15:01:57|2023-05-30T13:18:47|12-22:16:50|dcc-wychem-01|1|1|16000M||/cifs/hariri-long/Projects/Annchen/Scripts/ArealMSHBM|
ew198|COMPLETED|scavenger|2023-05-17T15:01:57|2023-05-30T13:18:47|12-22:16:50|dcc-wychem-01|1|1|16000M||/cifs/hariri-long/Projects/Annchen/Scripts/ArealMSHBM|
ew198|COMPLETED|scavenger|2023-05-17T15:01:57|2023-05-30T13:18:47|12-22:16:50|dcc-wychem-01|1|1|16000M||/cifs/hariri-long/Projects/Annchen/Scripts/ArealMSHBM|
ew198|COMPLETED|scavenger|2023-05-17T15:01:57|2023-05-30T13:18:47|12-22:16:50|dcc-wychem-01|1|1|16000M||/cifs/hariri-long/Projects/Annchen/Scripts/ArealMSHBM|
ew198|COMPLETED|scavenger|2023-05-17T15:01:57|2023-05-30T13:18:47|12-22:16:50|dcc-wychem-01|1|1|16000M||/cifs/hariri-long/Projects/Annchen/Scripts/ArealMSHBM|
ew198|COMPLETED|scavenger|2023-05-17T15:01:57|2023-05-30T13:18:47|12-22:16:50|dcc-wychem-01|1|1|16000M||/cifs/hariri-long/Projects/Annchen/Scripts/ArealMSHBM|
ew198|COMPLETED|scavenger|2023-05-17T15:01:57|2023-05-30T13:18:47|12-22:16:50|dcc-wychem-01|1|1|16000M||/cifs/hariri-long/Projects/Annchen/Scripts/ArealMSHBM|
ew198|COMPLETED|scavenger|2023-05-17T15:01:58|2023-05-30T13:18:33|12-22:16:35|dcc-tunglab-01|1|1|16000M||/cifs/hariri-long/Projects/Annchen/Scripts/ArealMSHBM|
ew198|COMPLETED|scavenger|2023-05-17T15:01:58|2023-05-30T13:18:33|12-22:16:35|dcc-tunglab-01|1|1|16000M||/cifs/hariri-long/Projects/Annchen/Scripts/ArealMSHBM|
ew198|COMPLETED|scavenger|2023-05-17T15:01:58|2023-05-30T13:18:33|12-22:16:35|dcc-tunglab-01|1|1|16000M||/cifs/hariri-long/Projects/Annchen/Scripts/ArealMSHBM|
ew198|COMPLETED|scavenger|2023-05-17T15:01:58|2023-05-30T13:18:33|12-22:16:35|dcc-tunglab-01|1|1|16000M||/cifs/hariri-long/Projects/Annchen/Scripts/ArealMSHBM|
ew198|COMPLETED|scavenger|2023-05-17T15:01:59|2023-05-30T13:18:33|12-22:16:34|dcc-tunglab-01|1|1|16000M||/cifs/hariri-long/Projects/Annchen/Scripts/ArealMSHBM|
ew198|COMPLETED|scavenger|2023-05-17T15:01:59|2023-05-30T13:18:47|12-22:16:48|dcc-tmolab-02|1|1|16000M||/cifs/hariri-long/Projects/Annchen/Scripts/ArealMSHBM|
ew198|COMPLETED|scavenger|2023-05-17T15:01:59|2023-05-30T13:18:47|12-22:16:48|dcc-tmolab-02|1|1|16000M||/cifs/hariri-long/Projects/Annchen/Scripts/ArealMSHBM|
ew198|COMPLETED|scavenger|2023-05-17T15:01:59|2023-05-30T13:18:47|12-22:16:48|dcc-tmolab-02|1|1|16000M||/cifs/hariri-long/Projects/Annchen/Scripts/ArealMSHBM|
ew198|COMPLETED|scavenger|2023-05-17T15:01:59|2023-05-30T13:18:47|12-22:16:48|dcc-tmolab-02|1|1|16000M||/cifs/hariri-long/Projects/Annchen/Scripts/ArealMSHBM|
ew198|COMPLETED|scavenger|2023-05-17T15:01:59|2023-05-30T13:18:44|12-22:16:45|dcc-tmolab-01|1|1|16000M||/cifs/hariri-long/Projects/Annchen/Scripts/ArealMSHBM|
ew198|COMPLETED|scavenger|2023-05-17T15:01:59|2023-05-30T13:18:44|12-22:16:45|dcc-tmolab-01|1|1|16000M||/cifs/hariri-long/Projects/Annchen/Scripts/ArealMSHBM|
ew198|COMPLETED|scavenger|2023-05-17T15:01:59|2023-05-30T13:18:44|12-22:16:45|dcc-tmolab-01|1|1|16000M||/cifs/hariri-long/Projects/Annchen/Scripts/ArealMSHBM|
ew198|COMPLETED|scavenger|2023-05-17T15:02:00|2023-05-30T13:19:00|12-22:17:00|dcc-statdept-01|1|1|16000M||/cifs/hariri-long/Projects/Annchen/Scripts/ArealMSHBM|
ew198|COMPLETED|scavenger|2023-05-17T15:02:30|2023-05-30T13:19:00|12-22:16:30|dcc-statdept-01|1|1|16000M||/cifs/hariri-long/Projects/Annchen/Scripts/ArealMSHBM|
ew198|COMPLETED|scavenger|2023-05-17T15:02:30|2023-05-30T13:18:35|12-22:16:05|dcc-savageresearch-02|1|1|16000M||/cifs/hariri-long/Projects/Annchen/Scripts/ArealMSHBM|
ew198|COMPLETED|scavenger|2023-05-17T15:02:30|2023-05-30T13:18:35|12-22:16:05|dcc-savageresearch-02|1|1|16000M||/cifs/hariri-long/Projects/Annchen/Scripts/ArealMSHBM|
ew198|COMPLETED|scavenger|2023-05-17T15:02:30|2023-05-30T13:18:35|12-22:16:05|dcc-savageresearch-02|1|1|16000M||/cifs/hariri-long/Projects/Annchen/Scripts/ArealMSHBM|
ew198|COMPLETED|scavenger|2023-05-17T15:02:31|2023-05-30T13:18:35|12-22:16:04|dcc-savageresearch-02|1|1|16000M||/cifs/hariri-long/Projects/Annchen/Scripts/ArealMSHBM|
ew198|COMPLETED|scavenger|2023-05-17T15:02:31|2023-05-30T13:18:35|12-22:16:04|dcc-savageresearch-02|1|1|16000M||/cifs/hariri-long/Projects/Annchen/Scripts/ArealMSHBM|
ew198|COMPLETED|scavenger|2023-05-17T15:02:31|2023-05-30T13:18:35|12-22:16:04|dcc-savageresearch-02|1|1|16000M||/cifs/hariri-long/Projects/Annchen/Scripts/ArealMSHBM|
ew198|COMPLETED|scavenger|2023-05-17T15:02:31|2023-05-30T13:18:35|12-22:16:04|dcc-savageresearch-01|1|1|16000M||/cifs/hariri-long/Projects/Annchen/Scripts/ArealMSHBM|
ew198|COMPLETED|scavenger|2023-05-17T15:02:31|2023-05-30T13:18:35|12-22:16:04|dcc-savageresearch-01|1|1|16000M||/cifs/hariri-long/Projects/Annchen/Scripts/ArealMSHBM|
ew198|COMPLETED|scavenger|2023-05-17T15:02:31|2023-05-30T13:18:35|12-22:16:04|dcc-savageresearch-01|1|1|16000M||/cifs/hariri-long/Projects/Annchen/Scripts/ArealMSHBM|
ew198|COMPLETED|scavenger|2023-05-17T15:02:31|2023-05-30T13:18:52|12-22:16:21|dcc-rausherlab-02|1|1|16000M||/cifs/hariri-long/Projects/Annchen/Scripts/ArealMSHBM|
ew198|COMPLETED|scavenger|2023-05-17T15:02:31|2023-05-30T13:18:42|12-22:16:11|dcc-rausherlab-01|1|1|16000M||/cifs/hariri-long/Projects/Annchen/Scripts/ArealMSHBM|
ew198|COMPLETED|scavenger|2023-05-17T15:02:32|2023-05-30T13:18:42|12-22:16:10|dcc-rausherlab-01|1|1|16000M||/cifs/hariri-long/Projects/Annchen/Scripts/ArealMSHBM|
ew198|COMPLETED|scavenger|2023-05-17T15:02:32|2023-05-30T13:18:44|12-22:16:12|dcc-rausherlab-01|1|1|16000M||/cifs/hariri-long/Projects/Annchen/Scripts/ArealMSHBM|
ew198|COMPLETED|scavenger|2023-05-17T15:02:32|2023-05-30T13:18:44|12-22:16:12|dcc-rausherlab-01|1|1|16000M||/cifs/hariri-long/Projects/Annchen/Scripts/ArealMSHBM|
sw582|COMPLETED|scavenger|2023-05-22T00:48:28|2023-05-30T12:48:46|8-12:00:18|dcc-youlab-01|1|1|2G||/hpc/group/dbergerlab/sw582/empty_dir|
hk288|COMPLETED|scavenger|2023-05-22T07:33:07|2023-05-23T02:11:07|18:38:00|dcc-compeb-02|1|32|40G||/hpc/group/mastatlab/hk288/code_paired_ntaxa_bfam|
cjp47|COMPLETED|scavenger|2023-05-22T09:27:11|2023-05-23T03:12:16|17:45:05|dcc-velmeshevlab-01|1|1|64G||/hpc/group/bio1/cyanolichen_holobiome|
cjp47|COMPLETED|scavenger|2023-05-22T09:27:11|2023-05-22T23:34:14|14:07:03|dcc-tunglab-01|1|1|64G||/hpc/group/bio1/cyanolichen_holobiome|
cjp47|COMPLETED|scavenger|2023-05-22T09:27:11|2023-05-23T15:57:21|1-06:30:10|dcc-statdept-01|1|1|64G||/hpc/group/bio1/cyanolichen_holobiome|
cjp47|COMPLETED|scavenger|2023-05-22T09:27:11|2023-05-23T04:50:28|19:23:17|dcc-statdept-01|1|1|64G||/hpc/group/bio1/cyanolichen_holobiome|
dg304|COMPLETED|scavenger|2023-05-22T20:16:01|2023-05-22T22:28:21|02:12:20|dcc-dunsonlab-02|1|24|384G||/work/dg304/dala/cyanolichen_holobiome|
dg304|COMPLETED|scavenger|2023-05-22T20:27:49|2023-05-22T22:42:21|02:14:32|dcc-donglab-01|1|24|384G||/work/dg304/dala/cyanolichen_holobiome|
dg304|COMPLETED|scavenger|2023-05-22T21:15:46|2023-05-22T22:38:15|01:22:29|dcc-dunsonlab-01|1|24|384G||/work/dg304/dala/cyanolichen_holobiome|
dg304|COMPLETED|scavenger|2023-05-22T22:28:21|2023-05-23T00:12:31|01:44:10|dcc-dunsonlab-02|1|24|384G||/work/dg304/dala/cyanolichen_holobiome|
dg304|COMPLETED|scavenger|2023-05-22T22:38:15|2023-05-23T01:20:35|02:42:20|dcc-dunsonlab-01|1|24|384G||/work/dg304/dala/cyanolichen_holobiome|
dg304|COMPLETED|scavenger|2023-05-22T22:42:21|2023-05-23T00:32:44|01:50:23|dcc-donglab-01|1|24|384G||/work/dg304/dala/cyanolichen_holobiome|
dg304|COMPLETED|scavenger|2023-05-23T00:12:31|2023-05-23T01:57:26|01:44:55|dcc-dunsonlab-02|1|24|384G||/work/dg304/dala/cyanolichen_holobiome|
dg304|COMPLETED|scavenger|2023-05-23T00:32:44|2023-05-23T02:18:07|01:45:23|dcc-donglab-01|1|24|384G||/work/dg304/dala/cyanolichen_holobiome|
dg304|COMPLETED|scavenger|2023-05-23T01:20:35|2023-05-23T03:41:32|02:20:57|dcc-dunsonlab-01|1|24|384G||/work/dg304/dala/cyanolichen_holobiome|
dg304|COMPLETED|scavenger|2023-05-23T01:57:26|2023-05-23T03:27:20|01:29:54|dcc-dunsonlab-02|1|24|384G||/work/dg304/dala/cyanolichen_holobiome|
dg304|COMPLETED|scavenger|2023-05-23T02:18:07|2023-05-23T03:40:06|01:21:59|dcc-donglab-01|1|24|384G||/work/dg304/dala/cyanolichen_holobiome|
dg304|COMPLETED|scavenger|2023-05-23T03:27:20|2023-05-23T05:01:58|01:34:38|dcc-dunsonlab-02|1|24|384G||/work/dg304/dala/cyanolichen_holobiome|
dg304|COMPLETED|scavenger|2023-05-23T03:40:06|2023-05-23T05:44:59|02:04:53|dcc-donglab-01|1|24|384G||/work/dg304/dala/cyanolichen_holobiome|
dg304|COMPLETED|scavenger|2023-05-23T03:41:34|2023-05-23T06:56:47|03:15:13|dcc-dunsonlab-01|1|24|384G||/work/dg304/dala/cyanolichen_holobiome|
kw297|COMPLETED|scavenger|2023-05-22T21:26:18|2023-05-23T14:31:56|17:05:38|dcc-delairelab-01|1|2|8G||/hpc/group/ychenlab/DA|
kw297|COMPLETED|scavenger|2023-05-22T21:26:18|2023-05-23T14:37:44|17:11:26|dcc-delairelab-01|1|2|8G||/hpc/group/ychenlab/DA|
kw297|COMPLETED|scavenger|2023-05-22T21:26:18|2023-05-23T19:46:44|22:20:26|dcc-aryalab-01|1|2|8G||/hpc/group/ychenlab/DA|
kw297|COMPLETED|scavenger|2023-05-22T21:26:18|2023-05-23T19:53:26|22:27:08|dcc-aryalab-01|1|2|8G||/hpc/group/ychenlab/DA|
kw297|COMPLETED|scavenger|2023-05-22T21:26:18|2023-05-23T19:47:18|22:21:00|dcc-aryalab-01|1|2|8G||/hpc/group/ychenlab/DA|
kw297|COMPLETED|scavenger|2023-05-22T21:26:18|2023-05-23T19:38:14|22:11:56|dcc-rausherlab-01|1|2|8G||/hpc/group/ychenlab/DA|
kw297|COMPLETED|scavenger|2023-05-22T21:26:18|2023-05-23T19:45:16|22:18:58|dcc-rausherlab-02|1|2|8G||/hpc/group/ychenlab/DA|
kw297|COMPLETED|scavenger|2023-05-22T21:26:18|2023-05-23T19:53:47|22:27:29|dcc-rausherlab-02|1|2|8G||/hpc/group/ychenlab/DA|
kw297|COMPLETED|scavenger|2023-05-22T21:26:21|2023-05-23T19:52:08|22:25:47|dcc-rausherlab-02|1|2|8G||/hpc/group/ychenlab/DA|
kw297|COMPLETED|scavenger|2023-05-22T21:26:21|2023-05-23T19:42:15|22:15:54|dcc-rausherlab-02|1|2|8G||/hpc/group/ychenlab/DA|
kw297|COMPLETED|scavenger|2023-05-22T21:26:21|2023-05-24T00:42:36|1-03:16:15|dcc-adrc-01|1|2|8G||/hpc/group/ychenlab/DA|
kw297|COMPLETED|scavenger|2023-05-22T21:26:21|2023-05-24T00:23:59|1-02:57:38|dcc-adrc-01|1|2|8G||/hpc/group/ychenlab/DA|
kw297|COMPLETED|scavenger|2023-05-22T21:26:21|2023-05-24T00:37:24|1-03:11:03|dcc-adrc-01|1|2|8G||/hpc/group/ychenlab/DA|
kw297|COMPLETED|scavenger|2023-05-22T21:26:21|2023-05-24T00:24:32|1-02:58:11|dcc-adrc-01|1|2|8G||/hpc/group/ychenlab/DA|
kw297|COMPLETED|scavenger|2023-05-22T21:26:21|2023-05-24T00:31:39|1-03:05:18|dcc-adrc-01|1|2|8G||/hpc/group/ychenlab/DA|
kw297|COMPLETED|scavenger|2023-05-22T21:26:21|2023-05-24T00:32:56|1-03:06:35|dcc-adrc-01|1|2|8G||/hpc/group/ychenlab/DA|
kw297|COMPLETED|scavenger|2023-05-22T21:26:21|2023-05-23T14:17:53|16:51:32|dcc-motesa-01|1|2|8G||/hpc/group/ychenlab/DA|
kw297|COMPLETED|scavenger|2023-05-22T21:26:21|2023-05-23T14:23:45|16:57:24|dcc-motesa-01|1|2|8G||/hpc/group/ychenlab/DA|
kw297|COMPLETED|scavenger|2023-05-22T21:26:21|2023-05-23T14:28:34|17:02:13|dcc-motesa-01|1|2|8G||/hpc/group/ychenlab/DA|
kw297|COMPLETED|scavenger|2023-05-22T21:26:21|2023-05-23T15:05:46|17:39:25|dcc-motesa-01|1|2|8G||/hpc/group/ychenlab/DA|
kw297|COMPLETED|scavenger|2023-05-22T21:28:04|2023-05-23T14:45:55|17:17:51|dcc-motesa-01|1|2|8G||/hpc/group/ychenlab/DA|
kw297|COMPLETED|scavenger|2023-05-22T21:28:04|2023-05-23T14:24:57|16:56:53|dcc-motesa-01|1|2|8G||/hpc/group/ychenlab/DA|
kw297|COMPLETED|scavenger|2023-05-22T21:28:04|2023-05-23T23:21:53|1-01:53:49|dcc-compeb-02|1|2|8G||/hpc/group/ychenlab/DA|
kw297|COMPLETED|scavenger|2023-05-22T21:28:07|2023-05-23T23:30:24|1-02:02:17|dcc-compeb-02|1|2|8G||/hpc/group/ychenlab/DA|
kw297|COMPLETED|scavenger|2023-05-22T21:28:07|2023-05-23T20:35:00|23:06:53|dcc-compeb-03|1|2|8G||/hpc/group/ychenlab/DA|
kw297|COMPLETED|scavenger|2023-05-22T21:28:07|2023-05-23T20:33:38|23:05:31|dcc-compeb-03|1|2|8G||/hpc/group/ychenlab/DA|
kw297|COMPLETED|scavenger|2023-05-22T21:28:07|2023-05-23T20:37:14|23:09:07|dcc-compeb-04|1|2|8G||/hpc/group/ychenlab/DA|
kw297|COMPLETED|scavenger|2023-05-22T21:28:07|2023-05-23T20:37:49|23:09:42|dcc-compeb-04|1|2|8G||/hpc/group/ychenlab/DA|
kw297|COMPLETED|scavenger|2023-05-22T21:28:07|2023-05-24T13:11:28|1-15:43:21|dcc-compeb-01|1|2|8G||/hpc/group/ychenlab/DA|
kw297|COMPLETED|scavenger|2023-05-22T21:28:07|2023-05-24T13:42:06|1-16:13:59|dcc-compeb-01|1|2|8G||/hpc/group/ychenlab/DA|
kw297|COMPLETED|scavenger|2023-05-22T21:28:07|2023-05-24T13:27:25|1-15:59:18|dcc-compeb-01|1|2|8G||/hpc/group/ychenlab/DA|
kw297|COMPLETED|scavenger|2023-05-22T21:28:07|2023-05-24T13:55:51|1-16:27:44|dcc-compeb-01|1|2|8G||/hpc/group/ychenlab/DA|
kw297|COMPLETED|scavenger|2023-05-22T21:28:07|2023-05-24T13:26:17|1-15:58:10|dcc-compeb-01|1|2|8G||/hpc/group/ychenlab/DA|
kw297|COMPLETED|scavenger|2023-05-22T21:28:07|2023-05-24T13:25:34|1-15:57:27|dcc-compeb-01|1|2|8G||/hpc/group/ychenlab/DA|
kw297|COMPLETED|scavenger|2023-05-22T21:28:07|2023-05-23T23:28:19|1-02:00:12|dcc-wychem-01|1|2|8G||/hpc/group/ychenlab/DA|
kw297|COMPLETED|scavenger|2023-05-22T21:28:07|2023-05-24T01:07:36|1-03:39:29|dcc-wychem-01|1|2|8G||/hpc/group/ychenlab/DA|
kw297|COMPLETED|scavenger|2023-05-22T21:28:07|2023-05-23T23:34:19|1-02:06:12|dcc-wychem-01|1|2|8G||/hpc/group/ychenlab/DA|
kw297|COMPLETED|scavenger|2023-05-22T21:28:07|2023-05-23T23:25:22|1-01:57:15|dcc-wychem-01|1|2|8G||/hpc/group/ychenlab/DA|
kw297|COMPLETED|scavenger|2023-05-22T21:28:07|2023-05-23T23:27:44|1-01:59:37|dcc-wychem-01|1|2|8G||/hpc/group/ychenlab/DA|
kw297|COMPLETED|scavenger|2023-05-22T21:28:07|2023-05-23T12:48:25|15:20:18|dcc-youlab-01|1|2|8G||/hpc/group/ychenlab/DA|
ts349|COMPLETED|scavenger|2023-05-22T21:48:05|2023-05-22T22:17:32|00:29:27|dcc-fergusonlab-01|1|12|72G||/work/ts349/stm2457_hicar/work/19/e54d3a039d5c6d17819cbd1800fc22|
ts349|COMPLETED|scavenger|2023-05-22T21:48:05|2023-05-22T22:57:52|01:09:47|dcc-savageresearch-01|1|12|72G||/work/ts349/stm2457_hicar/work/9a/1c21aaa0f97764b76f01c9b2e16e55|
ts349|COMPLETED|scavenger|2023-05-22T21:48:48|2023-05-22T22:01:48|00:13:00|dcc-carin-24|1|6|36G||/work/ts349/stm2457_hicar/work/21/c3c433f459f4a109c13962b15ae9c8|
ts349|COMPLETED|scavenger|2023-05-22T21:48:48|2023-05-22T22:03:56|00:15:08|dcc-carin-25|1|6|36G||/work/ts349/stm2457_hicar/work/12/77bf37414ab156528a3a9001acdf4f|
ts349|COMPLETED|scavenger|2023-05-22T21:48:48|2023-05-22T22:03:36|00:14:48|dcc-dunsonlab-02|1|2|12G||/work/ts349/stm2457_hicar/work/d6/f9bc00dfc5fe069040e35a84f17fe3|
ts349|COMPLETED|scavenger|2023-05-22T21:48:48|2023-05-22T22:01:42|00:12:54|dcc-dunsonlab-02|1|2|12G||/work/ts349/stm2457_hicar/work/45/5e61935e778321690408f11488c436|
ts349|COMPLETED|scavenger|2023-05-22T21:48:48|2023-05-22T22:02:07|00:13:19|dcc-dunsonlab-02|1|2|12G||/work/ts349/stm2457_hicar/work/fd/46e0559f17ab76158bad61551b5ffe|
ts349|COMPLETED|scavenger|2023-05-22T21:48:48|2023-05-22T22:05:40|00:16:52|dcc-dunsonlab-02|1|2|12G||/work/ts349/stm2457_hicar/work/a1/ff0586be62abc247c789295b8914d6|
ts349|COMPLETED|scavenger|2023-05-22T21:48:48|2023-05-22T22:06:38|00:17:50|dcc-dunsonlab-01|1|6|36G||/work/ts349/stm2457_hicar/work/c0/70c794dfef1af7f4f300961ef32ebf|
ts349|COMPLETED|scavenger|2023-05-22T21:48:50|2023-05-22T22:08:35|00:19:45|dcc-dunsonlab-01|1|6|36G||/work/ts349/stm2457_hicar/work/66/14e38eb2a155bce4ff29a4ecc92654|
smokeauth2-tst|COMPLETED|scavenger|2023-05-22T22:01:30|2023-05-22T22:01:31|00:00:01|dcc-youlab-01|1|1|2G||/hpc/home/smokeauth2-tst|
smokeauth2-tst|COMPLETED|scavenger|2023-05-22T22:01:33|2023-05-22T22:01:34|00:00:01|dcc-youlab-01|1|1|2G||/hpc/home/smokeauth2-tst|
smokeauth2-tst|COMPLETED|scavenger|2023-05-22T22:01:35|2023-05-22T22:01:35|00:00:00|dcc-youlab-01|1|1|2G||/hpc/home/smokeauth2-tst|
smokeauth2-tst|COMPLETED|scavenger|2023-05-22T22:01:37|2023-05-22T22:01:37|00:00:00|dcc-youlab-01|1|1|2G||/hpc/home/smokeauth2-tst|
smokeauth2-tst|COMPLETED|scavenger|2023-05-22T22:01:39|2023-05-22T22:01:39|00:00:00|dcc-youlab-01|1|1|2G||/hpc/home/smokeauth2-tst|
smokeauth2-tst|COMPLETED|scavenger|2023-05-22T22:11:30|2023-05-22T22:11:31|00:00:01|dcc-youlab-01|1|1|2G||/hpc/home/smokeauth2-tst|
smokeauth2-tst|COMPLETED|scavenger|2023-05-22T22:11:33|2023-05-22T22:11:33|00:00:00|dcc-youlab-01|1|1|2G||/hpc/home/smokeauth2-tst|
smokeauth2-tst|COMPLETED|scavenger|2023-05-22T22:11:35|2023-05-22T22:11:36|00:00:01|dcc-youlab-01|1|1|2G||/hpc/home/smokeauth2-tst|
smokeauth2-tst|COMPLETED|scavenger|2023-05-22T22:11:37|2023-05-22T22:11:37|00:00:00|dcc-youlab-01|1|1|2G||/hpc/home/smokeauth2-tst|
smokeauth2-tst|COMPLETED|scavenger|2023-05-22T22:11:39|2023-05-22T22:11:40|00:00:01|dcc-youlab-01|1|1|2G||/hpc/home/smokeauth2-tst|
ts349|COMPLETED|scavenger|2023-05-22T22:17:40|2023-05-23T02:23:28|04:05:48|dcc-dunsonlab-01|1|12|72G||/work/ts349/stm2457_hicar/work/89/792d43a7581bc302a0d5dd63eb7f88|
smokeauth2-tst|COMPLETED|scavenger|2023-05-22T22:21:30|2023-05-22T22:21:31|00:00:01|dcc-youlab-01|1|1|2G||/hpc/home/smokeauth2-tst|
smokeauth2-tst|COMPLETED|scavenger|2023-05-22T22:21:32|2023-05-22T22:21:33|00:00:01|dcc-youlab-01|1|1|2G||/hpc/home/smokeauth2-tst|
smokeauth2-tst|COMPLETED|scavenger|2023-05-22T22:21:34|2023-05-22T22:21:35|00:00:01|dcc-youlab-01|1|1|2G||/hpc/home/smokeauth2-tst|
smokeauth2-tst|COMPLETED|scavenger|2023-05-22T22:21:37|2023-05-22T22:21:37|00:00:00|dcc-youlab-01|1|1|2G||/hpc/home/smokeauth2-tst|
smokeauth2-tst|COMPLETED|scavenger|2023-05-22T22:21:39|2023-05-22T22:21:39|00:00:00|dcc-youlab-01|1|1|2G||/hpc/home/smokeauth2-tst|
smokeauth2-tst|COMPLETED|scavenger|2023-05-22T22:31:30|2023-05-22T22:31:30|00:00:00|dcc-youlab-01|1|1|2G||/hpc/home/smokeauth2-tst|
smokeauth2-tst|COMPLETED|scavenger|2023-05-22T22:31:32|2023-05-22T22:31:33|00:00:01|dcc-youlab-01|1|1|2G||/hpc/home/smokeauth2-tst|
smokeauth2-tst|COMPLETED|scavenger|2023-05-22T22:31:34|2023-05-22T22:31:35|00:00:01|dcc-youlab-01|1|1|2G||/hpc/home/smokeauth2-tst|
smokeauth2-tst|COMPLETED|scavenger|2023-05-22T22:31:37|2023-05-22T22:31:37|00:00:00|dcc-youlab-01|1|1|2G||/hpc/home/smokeauth2-tst|
smokeauth2-tst|COMPLETED|scavenger|2023-05-22T22:31:38|2023-05-22T22:31:39|00:00:01|dcc-youlab-01|1|1|2G||/hpc/home/smokeauth2-tst|
pz19|COMPLETED|scavenger|2023-05-22T22:33:44|2023-05-22T22:35:03|00:01:19|dcc-youlab-01|1|1|10000M||/work/pz19/Dexter|
kw297|COMPLETED|scavenger|2023-05-22T22:40:38|2023-05-24T05:49:21|1-07:08:43|dcc-dunsonlab-01|1|2|8G||/hpc/group/ychenlab/DA|
kw297|COMPLETED|scavenger|2023-05-22T22:40:41|2023-05-23T17:36:11|18:55:30|dcc-dunsonlab-02|1|2|8G||/hpc/group/ychenlab/DA|
kw297|COMPLETED|scavenger|2023-05-22T22:40:41|2023-05-23T17:31:47|18:51:06|dcc-dunsonlab-02|1|2|8G||/hpc/group/ychenlab/DA|
kw297|COMPLETED|scavenger|2023-05-22T22:40:41|2023-05-23T17:35:28|18:54:47|dcc-dunsonlab-02|1|2|8G||/hpc/group/ychenlab/DA|
kw297|COMPLETED|scavenger|2023-05-22T22:40:41|2023-05-23T17:46:44|19:06:03|dcc-dunsonlab-02|1|2|8G||/hpc/group/ychenlab/DA|
kw297|COMPLETED|scavenger|2023-05-22T22:40:41|2023-05-23T14:05:42|15:25:01|dcc-youlab-01|1|2|8G||/hpc/group/ychenlab/DA|
kw297|COMPLETED|scavenger|2023-05-22T22:40:41|2023-05-23T14:07:40|15:26:59|dcc-youlab-01|1|2|8G||/hpc/group/ychenlab/DA|
kw297|COMPLETED|scavenger|2023-05-22T22:40:41|2023-05-23T17:14:19|18:33:38|dcc-statdept-01|1|2|8G||/hpc/group/ychenlab/DA|
kw297|COMPLETED|scavenger|2023-05-22T22:40:41|2023-05-23T17:13:45|18:33:04|dcc-statdept-01|1|2|8G||/hpc/group/ychenlab/DA|
kw297|COMPLETED|scavenger|2023-05-22T22:40:41|2023-05-23T17:33:56|18:53:15|dcc-statdept-01|1|2|8G||/hpc/group/ychenlab/DA|
smokeauth2-tst|COMPLETED|scavenger|2023-05-22T22:41:31|2023-05-22T22:41:32|00:00:01|dcc-youlab-01|1|1|2G||/hpc/home/smokeauth2-tst|
smokeauth2-tst|COMPLETED|scavenger|2023-05-22T22:41:33|2023-05-22T22:41:34|00:00:01|dcc-youlab-01|1|1|2G||/hpc/home/smokeauth2-tst|
smokeauth2-tst|COMPLETED|scavenger|2023-05-22T22:41:35|2023-05-22T22:41:36|00:00:01|dcc-youlab-01|1|1|2G||/hpc/home/smokeauth2-tst|
smokeauth2-tst|COMPLETED|scavenger|2023-05-22T22:41:38|2023-05-22T22:41:38|00:00:00|dcc-youlab-01|1|1|2G||/hpc/home/smokeauth2-tst|
smokeauth2-tst|COMPLETED|scavenger|2023-05-22T22:41:40|2023-05-22T22:41:40|00:00:00|dcc-youlab-01|1|1|2G||/hpc/home/smokeauth2-tst|
smokeauth2-tst|COMPLETED|scavenger|2023-05-22T22:51:30|2023-05-22T22:51:31|00:00:01|dcc-youlab-01|1|1|2G||/hpc/home/smokeauth2-tst|
smokeauth2-tst|COMPLETED|scavenger|2023-05-22T22:51:32|2023-05-22T22:51:33|00:00:01|dcc-youlab-01|1|1|2G||/hpc/home/smokeauth2-tst|
smokeauth2-tst|COMPLETED|scavenger|2023-05-22T22:51:35|2023-05-22T22:51:35|00:00:00|dcc-youlab-01|1|1|2G||/hpc/home/smokeauth2-tst|
smokeauth2-tst|COMPLETED|scavenger|2023-05-22T22:51:37|2023-05-22T22:51:37|00:00:00|dcc-youlab-01|1|1|2G||/hpc/home/smokeauth2-tst|
smokeauth2-tst|COMPLETED|scavenger|2023-05-22T22:51:39|2023-05-22T22:51:39|00:00:00|dcc-youlab-01|1|1|2G||/hpc/home/smokeauth2-tst|
ts349|COMPLETED|scavenger|2023-05-22T22:58:05|2023-05-23T01:10:06|02:12:01|dcc-fergusonlab-01|1|12|72G||/work/ts349/stm2457_hicar/work/04/2dc97c47f0d159811416cff310eca3|
ts349|COMPLETED|scavenger|2023-05-22T22:58:05|2023-05-23T01:22:49|02:24:44|dcc-fergusonlab-01|1|12|72G||/work/ts349/stm2457_hicar/work/da/b63d34d5f1328db42b8d82bd4a8524|
ts349|COMPLETED|scavenger|2023-05-22T22:58:08|2023-05-23T01:41:31|02:43:23|dcc-fergusonlab-01|1|12|72G||/work/ts349/stm2457_hicar/work/9d/653c60e98cbc7caa24a40995e0f80a|
ts349|COMPLETED|scavenger|2023-05-22T22:58:08|2023-05-23T00:55:26|01:57:18|dcc-savageresearch-01|1|12|72G||/work/ts349/stm2457_hicar/work/9b/c030be6e4716ab9af45cb1e3001448|
