pz19|COMPLETED|scavenger|2023-05-15T23:21:42|2023-05-30T14:18:14|14-14:56:32|dcc-fergusonlab-01|1|16|32000M||/work/pz19/Dexter|
ew198|COMPLETED|scavenger|2023-05-17T15:01:57|2023-05-30T13:18:19|12-22:16:22|dcc-youlab-01|1|1|125G||/cifs/hariri-long/Projects/Annchen/Scripts/ArealMSHBM|
ew198|COMPLETED|scavenger|2023-05-17T15:01:57|2023-05-30T13:18:47|12-22:16:50|dcc-wychem-01|1|1|16000M||/cifs/hariri-long/Projects/Annchen/Scripts/ArealMSHBM|
ew198|COMPLETED|scavenger|2023-05-17T15:01:57|2023-05-30T13:18:47|12-22:16:50|dcc-wychem-01|1|1|16000M||/cifs/hariri-long/Projects/Annchen/Scripts/ArealMSHBM|
ew198|COMPLETED|scavenger|2023-05-17T15:01:57|2023-05-30T13:18:47|12-22:16:50|dcc-wychem-01|1|1|16000M||/cifs/hariri-long/Projects/Annchen/Scripts/ArealMSHBM|
ew198|COMPLETED|scavenger|2023-05-17T15:01:57|2023-05-30T13:18:47|12-22:16:50|dcc-wychem-01|1|1|16000M||/cifs/hariri-long/Projects/Annchen/Scripts/ArealMSHBM|
ew198|COMPLETED|scavenger|2023-05-17T15:01:57|2023-05-30T13:18:47|12-22:16:50|dcc-wychem-01|1|1|16000M||/cifs/hariri-long/Projects/Annchen/Scripts/ArealMSHBM|
ew198|COMPLETED|scavenger|2023-05-17T15:01:57|2023-05-30T13:18:47|12-22:16:50|dcc-wychem-01|1|1|16000M||/cifs/hariri-long/Projects/Annchen/Scripts/ArealMSHBM|
ew198|COMPLETED|scavenger|2023-05-17T15:01:57|2023-05-30T13:18:47|12-22:16:50|dcc-wychem-01|1|1|16000M||/cifs/hariri-long/Projects/Annchen/Scripts/ArealMSHBM|
ew198|COMPLETED|scavenger|2023-05-17T15:01:57|2023-05-30T13:18:47|12-22:16:50|dcc-wychem-01|1|1|16000M||/cifs/hariri-long/Projects/Annchen/Scripts/ArealMSHBM|
ew198|COMPLETED|scavenger|2023-05-17T15:01:57|2023-05-30T13:18:47|12-22:16:50|dcc-wychem-01|1|1|16000M||/cifs/hariri-long/Projects/Annchen/Scripts/ArealMSHBM|
ew198|COMPLETED|scavenger|2023-05-17T15:01:58|2023-05-30T13:18:33|12-22:16:35|dcc-tunglab-01|1|1|16000M||/cifs/hariri-long/Projects/Annchen/Scripts/ArealMSHBM|
ew198|COMPLETED|scavenger|2023-05-17T15:01:58|2023-05-30T13:18:33|12-22:16:35|dcc-tunglab-01|1|1|16000M||/cifs/hariri-long/Projects/Annchen/Scripts/ArealMSHBM|
ew198|COMPLETED|scavenger|2023-05-17T15:01:58|2023-05-30T13:18:33|12-22:16:35|dcc-tunglab-01|1|1|16000M||/cifs/hariri-long/Projects/Annchen/Scripts/ArealMSHBM|
ew198|COMPLETED|scavenger|2023-05-17T15:01:58|2023-05-30T13:18:33|12-22:16:35|dcc-tunglab-01|1|1|16000M||/cifs/hariri-long/Projects/Annchen/Scripts/ArealMSHBM|
ew198|COMPLETED|scavenger|2023-05-17T15:01:59|2023-05-30T13:18:33|12-22:16:34|dcc-tunglab-01|1|1|16000M||/cifs/hariri-long/Projects/Annchen/Scripts/ArealMSHBM|
ew198|COMPLETED|scavenger|2023-05-17T15:01:59|2023-05-30T13:18:47|12-22:16:48|dcc-tmolab-02|1|1|16000M||/cifs/hariri-long/Projects/Annchen/Scripts/ArealMSHBM|
ew198|COMPLETED|scavenger|2023-05-17T15:01:59|2023-05-30T13:18:47|12-22:16:48|dcc-tmolab-02|1|1|16000M||/cifs/hariri-long/Projects/Annchen/Scripts/ArealMSHBM|
ew198|COMPLETED|scavenger|2023-05-17T15:01:59|2023-05-30T13:18:47|12-22:16:48|dcc-tmolab-02|1|1|16000M||/cifs/hariri-long/Projects/Annchen/Scripts/ArealMSHBM|
ew198|COMPLETED|scavenger|2023-05-17T15:01:59|2023-05-30T13:18:47|12-22:16:48|dcc-tmolab-02|1|1|16000M||/cifs/hariri-long/Projects/Annchen/Scripts/ArealMSHBM|
ew198|COMPLETED|scavenger|2023-05-17T15:01:59|2023-05-30T13:18:44|12-22:16:45|dcc-tmolab-01|1|1|16000M||/cifs/hariri-long/Projects/Annchen/Scripts/ArealMSHBM|
ew198|COMPLETED|scavenger|2023-05-17T15:01:59|2023-05-30T13:18:44|12-22:16:45|dcc-tmolab-01|1|1|16000M||/cifs/hariri-long/Projects/Annchen/Scripts/ArealMSHBM|
ew198|COMPLETED|scavenger|2023-05-17T15:01:59|2023-05-30T13:18:44|12-22:16:45|dcc-tmolab-01|1|1|16000M||/cifs/hariri-long/Projects/Annchen/Scripts/ArealMSHBM|
ew198|COMPLETED|scavenger|2023-05-17T15:02:00|2023-05-30T13:19:00|12-22:17:00|dcc-statdept-01|1|1|16000M||/cifs/hariri-long/Projects/Annchen/Scripts/ArealMSHBM|
ew198|COMPLETED|scavenger|2023-05-17T15:02:30|2023-05-30T13:19:00|12-22:16:30|dcc-statdept-01|1|1|16000M||/cifs/hariri-long/Projects/Annchen/Scripts/ArealMSHBM|
ew198|COMPLETED|scavenger|2023-05-17T15:02:30|2023-05-30T13:18:35|12-22:16:05|dcc-savageresearch-02|1|1|16000M||/cifs/hariri-long/Projects/Annchen/Scripts/ArealMSHBM|
ew198|COMPLETED|scavenger|2023-05-17T15:02:30|2023-05-30T13:18:35|12-22:16:05|dcc-savageresearch-02|1|1|16000M||/cifs/hariri-long/Projects/Annchen/Scripts/ArealMSHBM|
ew198|COMPLETED|scavenger|2023-05-17T15:02:30|2023-05-30T13:18:35|12-22:16:05|dcc-savageresearch-02|1|1|16000M||/cifs/hariri-long/Projects/Annchen/Scripts/ArealMSHBM|
ew198|COMPLETED|scavenger|2023-05-17T15:02:31|2023-05-30T13:18:35|12-22:16:04|dcc-savageresearch-02|1|1|16000M||/cifs/hariri-long/Projects/Annchen/Scripts/ArealMSHBM|
ew198|COMPLETED|scavenger|2023-05-17T15:02:31|2023-05-30T13:18:35|12-22:16:04|dcc-savageresearch-02|1|1|16000M||/cifs/hariri-long/Projects/Annchen/Scripts/ArealMSHBM|
ew198|COMPLETED|scavenger|2023-05-17T15:02:31|2023-05-30T13:18:35|12-22:16:04|dcc-savageresearch-02|1|1|16000M||/cifs/hariri-long/Projects/Annchen/Scripts/ArealMSHBM|
ew198|COMPLETED|scavenger|2023-05-17T15:02:31|2023-05-30T13:18:35|12-22:16:04|dcc-savageresearch-01|1|1|16000M||/cifs/hariri-long/Projects/Annchen/Scripts/ArealMSHBM|
ew198|COMPLETED|scavenger|2023-05-17T15:02:31|2023-05-30T13:18:35|12-22:16:04|dcc-savageresearch-01|1|1|16000M||/cifs/hariri-long/Projects/Annchen/Scripts/ArealMSHBM|
ew198|COMPLETED|scavenger|2023-05-17T15:02:31|2023-05-30T13:18:35|12-22:16:04|dcc-savageresearch-01|1|1|16000M||/cifs/hariri-long/Projects/Annchen/Scripts/ArealMSHBM|
ew198|COMPLETED|scavenger|2023-05-17T15:02:31|2023-05-30T13:18:52|12-22:16:21|dcc-rausherlab-02|1|1|16000M||/cifs/hariri-long/Projects/Annchen/Scripts/ArealMSHBM|
ew198|COMPLETED|scavenger|2023-05-17T15:02:31|2023-05-30T13:18:42|12-22:16:11|dcc-rausherlab-01|1|1|16000M||/cifs/hariri-long/Projects/Annchen/Scripts/ArealMSHBM|
ew198|COMPLETED|scavenger|2023-05-17T15:02:32|2023-05-30T13:18:42|12-22:16:10|dcc-rausherlab-01|1|1|16000M||/cifs/hariri-long/Projects/Annchen/Scripts/ArealMSHBM|
ew198|COMPLETED|scavenger|2023-05-17T15:02:32|2023-05-30T13:18:44|12-22:16:12|dcc-rausherlab-01|1|1|16000M||/cifs/hariri-long/Projects/Annchen/Scripts/ArealMSHBM|
ew198|COMPLETED|scavenger|2023-05-17T15:02:32|2023-05-30T13:18:44|12-22:16:12|dcc-rausherlab-01|1|1|16000M||/cifs/hariri-long/Projects/Annchen/Scripts/ArealMSHBM|
sw582|COMPLETED|scavenger|2023-05-22T00:48:28|2023-05-30T12:48:46|8-12:00:18|dcc-youlab-01|1|1|2G||/hpc/group/dbergerlab/sw582/empty_dir|
hk288|COMPLETED|scavenger|2023-05-23T06:28:20|2023-05-29T02:59:32|5-20:31:12|dcc-compeb-04|1|40|80G||/hpc/group/mastatlab/hk288/code_hp_paral|
ark19|COMPLETED|scavenger|2023-05-23T12:53:21|2023-05-27T15:19:27|4-02:26:06|dcc-pfister-01|1|1|125G||/cifs/hariri-long/Studies/DNS/Imaging/pipeline1.0/DTI/FSL/20100125_10274/FA_averaged|
sw582|COMPLETED|scavenger|2023-05-24T00:16:12|2023-05-24T21:33:46|21:17:34|dcc-youlab-01|1|1|2G||/hpc/group/dbergerlab/sw582/empty_dir|
ts349|COMPLETED|scavenger|2023-05-24T06:56:22|2023-05-30T09:10:17|6-02:13:55|dcc-compeb-03|1|30|72G||/hpc/home/ts349|
dg304|COMPLETED|scavenger|2023-05-24T16:14:32|2023-05-24T17:24:19|01:09:47|dcc-fergusonlab-04|1|16|256G||/work/dg304/dala/cyanolichen_holobiome|
dg304|COMPLETED|scavenger|2023-05-24T16:34:40|2023-05-24T17:09:32|00:34:52|dcc-dunsonlab-01|1|16|256G||/work/dg304/dala/cyanolichen_holobiome|
dg304|COMPLETED|scavenger|2023-05-24T16:39:19|2023-05-24T17:48:47|01:09:28|dcc-donglab-01|1|16|256G||/work/dg304/dala/cyanolichen_holobiome|
dg304|COMPLETED|scavenger|2023-05-24T16:45:42|2023-05-24T17:37:59|00:52:17|dcc-fergusonlab-01|1|16|256G||/work/dg304/dala/cyanolichen_holobiome|
dg304|COMPLETED|scavenger|2023-05-24T16:47:20|2023-05-24T17:15:37|00:28:17|dcc-dunsonlab-02|1|16|256G||/work/dg304/dala/cyanolichen_holobiome|
dg304|COMPLETED|scavenger|2023-05-24T17:09:32|2023-05-24T17:42:43|00:33:11|dcc-dunsonlab-01|1|16|256G||/work/dg304/dala/cyanolichen_holobiome|
dg304|COMPLETED|scavenger|2023-05-24T17:15:38|2023-05-24T17:39:52|00:24:14|dcc-dunsonlab-02|1|16|256G||/work/dg304/dala/cyanolichen_holobiome|
dg304|COMPLETED|scavenger|2023-05-24T17:24:20|2023-05-24T18:24:42|01:00:22|dcc-fergusonlab-03|1|16|256G||/work/dg304/dala/cyanolichen_holobiome|
jp544|COMPLETED|scavenger|2023-05-24T12:21:40|2023-05-24T20:14:36|07:52:56|dcc-rausherlab-02|1|1|128G||/work/jp544/Portillo_8374_230331B7/merged|
hl419|COMPLETED|scavenger|2023-05-24T13:59:39|2023-05-25T17:48:19|1-03:48:40|dcc-dailabs-[01-05]|5|48|96G||/hpc/group/delairelab/hl419/Na3SbS4_Train|
ark19|COMPLETED|scavenger|2023-05-24T16:25:06|2023-05-24T22:04:12|05:39:06|dcc-pbenfeylab-01|1|1|12000M||/hpc/home/ark19|
ark19|COMPLETED|scavenger|2023-05-24T16:25:06|2023-05-24T22:13:11|05:48:05|dcc-pbenfeylab-01|1|1|12000M||/hpc/home/ark19|
ark19|COMPLETED|scavenger|2023-05-24T16:25:06|2023-05-24T22:15:00|05:49:54|dcc-pbenfeylab-01|1|1|12000M||/hpc/home/ark19|
ark19|COMPLETED|scavenger|2023-05-24T16:25:06|2023-05-24T21:49:28|05:24:22|dcc-pbenfeylab-01|1|1|12000M||/hpc/home/ark19|
ark19|COMPLETED|scavenger|2023-05-24T16:25:06|2023-05-24T22:16:06|05:51:00|dcc-pbenfeylab-01|1|1|12000M||/hpc/home/ark19|
ark19|COMPLETED|scavenger|2023-05-24T16:25:06|2023-05-24T22:04:56|05:39:50|dcc-pbenfeylab-01|1|1|12000M||/hpc/home/ark19|
ark19|COMPLETED|scavenger|2023-05-24T16:25:06|2023-05-24T22:34:05|06:08:59|dcc-pbenfeylab-01|1|1|12000M||/hpc/home/ark19|
ark19|COMPLETED|scavenger|2023-05-24T16:25:06|2023-05-24T22:19:18|05:54:12|dcc-pbenfeylab-01|1|1|12000M||/hpc/home/ark19|
ark19|COMPLETED|scavenger|2023-05-24T16:25:08|2023-05-24T20:00:50|03:35:42|dcc-nsoe-it-01|1|1|12000M||/hpc/home/ark19|
ark19|COMPLETED|scavenger|2023-05-24T16:25:08|2023-05-24T19:56:47|03:31:39|dcc-nsoe-it-01|1|1|12000M||/hpc/home/ark19|
ark19|COMPLETED|scavenger|2023-05-24T16:25:08|2023-05-24T19:55:01|03:29:53|dcc-nsoe-it-01|1|1|12000M||/hpc/home/ark19|
ark19|COMPLETED|scavenger|2023-05-24T16:25:08|2023-05-24T19:57:13|03:32:05|dcc-nsoe-it-01|1|1|12000M||/hpc/home/ark19|
ark19|COMPLETED|scavenger|2023-05-24T16:25:08|2023-05-24T19:57:39|03:32:31|dcc-nsoe-it-01|1|1|12000M||/hpc/home/ark19|
ark19|COMPLETED|scavenger|2023-05-24T16:25:08|2023-05-24T19:54:21|03:29:13|dcc-nsoe-it-01|1|1|12000M||/hpc/home/ark19|
ark19|COMPLETED|scavenger|2023-05-24T16:25:08|2023-05-24T19:53:19|03:28:11|dcc-nsoe-it-01|1|1|12000M||/hpc/home/ark19|
ark19|COMPLETED|scavenger|2023-05-24T16:25:08|2023-05-24T20:02:28|03:37:20|dcc-nsoe-it-01|1|1|12000M||/hpc/home/ark19|
ark19|COMPLETED|scavenger|2023-05-24T16:25:08|2023-05-24T19:53:50|03:28:42|dcc-nsoe-it-01|1|1|12000M||/hpc/home/ark19|
ark19|COMPLETED|scavenger|2023-05-24T16:25:08|2023-05-24T19:54:42|03:29:34|dcc-nsoe-it-01|1|1|12000M||/hpc/home/ark19|
ark19|COMPLETED|scavenger|2023-05-24T16:25:08|2023-05-24T19:54:27|03:29:19|dcc-nsoe-it-01|1|1|12000M||/hpc/home/ark19|
ark19|COMPLETED|scavenger|2023-05-24T16:25:09|2023-05-24T19:56:37|03:31:28|dcc-nsoe-it-01|1|1|12000M||/hpc/home/ark19|
ark19|COMPLETED|scavenger|2023-05-24T16:25:09|2023-05-24T19:56:13|03:31:04|dcc-nsoe-it-01|1|1|12000M||/hpc/home/ark19|
ark19|COMPLETED|scavenger|2023-05-24T16:25:09|2023-05-24T19:56:23|03:31:14|dcc-nsoe-it-01|1|1|12000M||/hpc/home/ark19|
ark19|COMPLETED|scavenger|2023-05-24T16:25:09|2023-05-24T19:56:55|03:31:46|dcc-nsoe-it-01|1|1|12000M||/hpc/home/ark19|
ark19|COMPLETED|scavenger|2023-05-24T16:25:11|2023-05-24T22:15:29|05:50:18|dcc-pbenfeylab-01|1|1|12000M||/hpc/home/ark19|
ark19|COMPLETED|scavenger|2023-05-24T16:25:11|2023-05-24T20:08:47|03:43:36|dcc-pbenfeylab-01|1|1|12000M||/hpc/home/ark19|
ark19|COMPLETED|scavenger|2023-05-24T16:25:11|2023-05-24T20:09:50|03:44:39|dcc-pbenfeylab-01|1|1|12000M||/hpc/home/ark19|
ark19|COMPLETED|scavenger|2023-05-24T16:25:11|2023-05-24T20:09:13|03:44:02|dcc-pbenfeylab-01|1|1|12000M||/hpc/home/ark19|
ark19|COMPLETED|scavenger|2023-05-24T16:25:11|2023-05-24T20:11:06|03:45:55|dcc-pbenfeylab-01|1|1|12000M||/hpc/home/ark19|
ark19|COMPLETED|scavenger|2023-05-24T16:25:11|2023-05-24T20:14:32|03:49:21|dcc-pbenfeylab-01|1|1|12000M||/hpc/home/ark19|
ark19|COMPLETED|scavenger|2023-05-24T16:25:11|2023-05-24T20:09:07|03:43:56|dcc-pbenfeylab-01|1|1|12000M||/hpc/home/ark19|
ark19|COMPLETED|scavenger|2023-05-24T16:25:11|2023-05-24T20:08:13|03:43:02|dcc-pbenfeylab-01|1|1|12000M||/hpc/home/ark19|
ark19|COMPLETED|scavenger|2023-05-24T16:25:11|2023-05-24T20:10:57|03:45:46|dcc-pbenfeylab-01|1|1|12000M||/hpc/home/ark19|
ark19|COMPLETED|scavenger|2023-05-24T16:25:11|2023-05-24T20:20:50|03:55:39|dcc-pbenfeylab-01|1|1|12000M||/hpc/home/ark19|
ark19|COMPLETED|scavenger|2023-05-24T16:25:11|2023-05-24T20:08:57|03:43:46|dcc-pbenfeylab-01|1|1|12000M||/hpc/home/ark19|
ark19|COMPLETED|scavenger|2023-05-24T16:25:11|2023-05-24T20:10:28|03:45:17|dcc-pbenfeylab-01|1|1|12000M||/hpc/home/ark19|
ark19|COMPLETED|scavenger|2023-05-24T16:25:11|2023-05-24T20:11:41|03:46:30|dcc-pbenfeylab-01|1|1|12000M||/hpc/home/ark19|
ark19|COMPLETED|scavenger|2023-05-24T16:25:11|2023-05-24T20:12:01|03:46:50|dcc-pbenfeylab-01|1|1|12000M||/hpc/home/ark19|
ark19|COMPLETED|scavenger|2023-05-24T16:25:11|2023-05-24T20:10:38|03:45:27|dcc-pbenfeylab-01|1|1|12000M||/hpc/home/ark19|
ark19|COMPLETED|scavenger|2023-05-24T16:28:43|2023-05-25T13:45:42|21:16:59|dcc-pbenfeylab-02|1|1|24000M||/hpc/home/ark19|
ark19|COMPLETED|scavenger|2023-05-24T16:28:43|2023-05-25T13:58:27|21:29:44|dcc-pbenfeylab-02|1|1|24000M||/hpc/home/ark19|
ark19|COMPLETED|scavenger|2023-05-24T16:28:43|2023-05-25T13:57:39|21:28:56|dcc-pbenfeylab-02|1|1|24000M||/hpc/home/ark19|
ark19|COMPLETED|scavenger|2023-05-24T16:28:43|2023-05-25T14:06:43|21:38:00|dcc-pbenfeylab-02|1|1|24000M||/hpc/home/ark19|
ark19|COMPLETED|scavenger|2023-05-24T16:28:43|2023-05-25T14:08:10|21:39:27|dcc-pbenfeylab-02|1|1|24000M||/hpc/home/ark19|
ark19|COMPLETED|scavenger|2023-05-24T16:28:44|2023-05-25T13:45:24|21:16:40|dcc-pbenfeylab-02|1|1|24000M||/hpc/home/ark19|
ark19|COMPLETED|scavenger|2023-05-24T16:28:49|2023-05-25T12:45:56|20:17:07|dcc-nsoe-it-01|1|1|24000M||/hpc/home/ark19|
ark19|COMPLETED|scavenger|2023-05-24T16:28:49|2023-05-25T13:01:45|20:32:56|dcc-nsoe-it-01|1|1|24000M||/hpc/home/ark19|
ark19|COMPLETED|scavenger|2023-05-24T16:28:49|2023-05-25T12:20:38|19:51:49|dcc-nsoe-it-01|1|1|24000M||/hpc/home/ark19|
ark19|COMPLETED|scavenger|2023-05-24T16:28:49|2023-05-25T12:52:59|20:24:10|dcc-nsoe-it-01|1|1|24000M||/hpc/home/ark19|
ark19|COMPLETED|scavenger|2023-05-24T16:28:49|2023-05-25T12:09:20|19:40:31|dcc-nsoe-it-01|1|1|24000M||/hpc/home/ark19|
ark19|COMPLETED|scavenger|2023-05-24T16:28:49|2023-05-25T11:50:44|19:21:55|dcc-nsoe-it-01|1|1|24000M||/hpc/home/ark19|
ark19|COMPLETED|scavenger|2023-05-24T16:28:49|2023-05-25T11:54:59|19:26:10|dcc-nsoe-it-01|1|1|24000M||/hpc/home/ark19|
ark19|COMPLETED|scavenger|2023-05-24T16:28:49|2023-05-25T12:02:26|19:33:37|dcc-nsoe-it-01|1|1|24000M||/hpc/home/ark19|
ark19|COMPLETED|scavenger|2023-05-24T16:28:49|2023-05-25T11:53:00|19:24:11|dcc-nsoe-it-01|1|1|24000M||/hpc/home/ark19|
ark19|COMPLETED|scavenger|2023-05-24T16:28:49|2023-05-25T13:37:13|21:08:24|dcc-nsoe-it-01|1|1|24000M||/hpc/home/ark19|
ark19|COMPLETED|scavenger|2023-05-24T19:56:23|2023-05-25T12:54:07|16:57:44|dcc-youlab-01|1|1|24000M||/hpc/home/ark19|
csr33|COMPLETED|scavenger|2023-05-24T16:51:55|2023-05-24T17:00:48|00:08:53|dcc-fergusonlab-05|1|16|10G||/hpc/home/csr33|
csr33|COMPLETED|scavenger|2023-05-24T16:51:57|2023-05-24T17:00:51|00:08:54|dcc-noor-01|1|16|10G||/hpc/home/csr33|
csr33|COMPLETED|scavenger|2023-05-24T16:52:01|2023-05-24T17:00:43|00:08:42|dcc-statdept-01|1|16|10G||/hpc/home/csr33|
csr33|COMPLETED|scavenger|2023-05-24T16:52:11|2023-05-24T17:01:00|00:08:49|dcc-mainsahlab-01|1|16|10G||/hpc/home/csr33|
bc276|COMPLETED|scavenger|2023-05-24T17:00:01|2023-05-24T19:09:57|02:09:56|dcc-motesa-01|1|1|100G||/hpc/group/goldberg/bc276/phylogeny|
lp210|COMPLETED|scavenger|2023-05-24T17:03:37|2023-05-24T17:09:25|00:05:48|dcc-bragg-01|1|2|128G||/hpc/home/lp210/scripts/wbgt_era5_calcs_thermofeel|
lp210|COMPLETED|scavenger|2023-05-24T17:03:37|2023-05-24T17:09:33|00:05:56|dcc-bragg-03|1|2|128G||/hpc/home/lp210/scripts/wbgt_era5_calcs_thermofeel|
lp210|COMPLETED|scavenger|2023-05-24T17:03:37|2023-05-24T17:11:47|00:08:10|dcc-cagpm-01|1|2|128G||/hpc/home/lp210/scripts/wbgt_era5_calcs_thermofeel|
lp210|COMPLETED|scavenger|2023-05-24T17:03:37|2023-05-24T17:11:59|00:08:22|dcc-delairelab-01|1|2|128G||/hpc/home/lp210/scripts/wbgt_era5_calcs_thermofeel|
lp210|COMPLETED|scavenger|2023-05-24T17:03:37|2023-05-24T17:10:54|00:07:17|dcc-donglab-01|1|2|128G||/hpc/home/lp210/scripts/wbgt_era5_calcs_thermofeel|
lp210|COMPLETED|scavenger|2023-05-24T17:03:37|2023-05-24T17:10:59|00:07:22|dcc-fergusonlab-05|1|2|128G||/hpc/home/lp210/scripts/wbgt_era5_calcs_thermofeel|
lp210|COMPLETED|scavenger|2023-05-24T17:03:37|2023-05-24T17:11:45|00:08:08|dcc-mainsahlab-01|1|2|128G||/hpc/home/lp210/scripts/wbgt_era5_calcs_thermofeel|
lp210|COMPLETED|scavenger|2023-05-24T17:03:37|2023-05-24T17:11:59|00:08:22|dcc-dunsonlab-01|1|2|128G||/hpc/home/lp210/scripts/wbgt_era5_calcs_thermofeel|
lp210|COMPLETED|scavenger|2023-05-24T17:03:37|2023-05-24T17:12:29|00:08:52|dcc-dunsonlab-02|1|2|128G||/hpc/home/lp210/scripts/wbgt_era5_calcs_thermofeel|
lp210|COMPLETED|scavenger|2023-05-24T17:03:37|2023-05-24T17:09:37|00:06:00|dcc-dunsonlab-02|1|2|128G||/hpc/home/lp210/scripts/wbgt_era5_calcs_thermofeel|
lp210|COMPLETED|scavenger|2023-05-24T17:09:25|2023-05-24T17:14:20|00:04:55|dcc-bragg-01|1|2|128G||/hpc/home/lp210/scripts/wbgt_era5_calcs_thermofeel|
lp210|COMPLETED|scavenger|2023-05-24T17:09:34|2023-05-24T17:13:47|00:04:13|dcc-bragg-03|1|2|128G||/hpc/home/lp210/scripts/wbgt_era5_calcs_thermofeel|
lp210|COMPLETED|scavenger|2023-05-24T17:09:39|2023-05-24T17:13:58|00:04:19|dcc-bragg-05|1|2|128G||/hpc/home/lp210/scripts/wbgt_era5_calcs_thermofeel|
lp210|COMPLETED|scavenger|2023-05-24T17:10:56|2023-05-24T17:15:25|00:04:29|dcc-donglab-01|1|2|128G||/hpc/home/lp210/scripts/wbgt_era5_calcs_thermofeel|
lp210|COMPLETED|scavenger|2023-05-24T17:10:59|2023-05-24T17:17:31|00:06:32|dcc-dunsonlab-02|1|2|128G||/hpc/home/lp210/scripts/wbgt_era5_calcs_thermofeel|
lp210|COMPLETED|scavenger|2023-05-24T17:11:45|2023-05-24T17:17:01|00:05:16|dcc-fergusonlab-05|1|2|128G||/hpc/home/lp210/scripts/wbgt_era5_calcs_thermofeel|
lp210|COMPLETED|scavenger|2023-05-24T17:11:47|2023-05-24T17:16:39|00:04:52|dcc-cagpm-01|1|2|128G||/hpc/home/lp210/scripts/wbgt_era5_calcs_thermofeel|
lp210|COMPLETED|scavenger|2023-05-24T17:11:59|2023-05-24T17:16:23|00:04:24|dcc-dunsonlab-01|1|2|128G||/hpc/home/lp210/scripts/wbgt_era5_calcs_thermofeel|
lp210|COMPLETED|scavenger|2023-05-24T17:12:01|2023-05-24T17:17:01|00:05:00|dcc-delairelab-01|1|2|128G||/hpc/home/lp210/scripts/wbgt_era5_calcs_thermofeel|
lp210|COMPLETED|scavenger|2023-05-24T17:12:31|2023-05-24T17:19:00|00:06:29|dcc-dunsonlab-02|1|2|128G||/hpc/home/lp210/scripts/wbgt_era5_calcs_thermofeel|
lp210|COMPLETED|scavenger|2023-05-24T17:13:47|2023-05-24T17:19:47|00:06:00|dcc-bragg-03|1|2|128G||/hpc/home/lp210/scripts/wbgt_era5_calcs_thermofeel|
lp210|COMPLETED|scavenger|2023-05-24T17:13:58|2023-05-24T17:20:01|00:06:03|dcc-bragg-05|1|2|128G||/hpc/home/lp210/scripts/wbgt_era5_calcs_thermofeel|
lp210|COMPLETED|scavenger|2023-05-24T17:14:21|2023-05-24T17:17:54|00:03:33|dcc-bragg-01|1|2|128G||/hpc/home/lp210/scripts/wbgt_era5_calcs_thermofeel|
lp210|COMPLETED|scavenger|2023-05-24T17:15:25|2023-05-24T17:20:57|00:05:32|dcc-donglab-01|1|2|128G||/hpc/home/lp210/scripts/wbgt_era5_calcs_thermofeel|
lp210|COMPLETED|scavenger|2023-05-24T17:16:24|2023-05-24T17:20:59|00:04:35|dcc-dunsonlab-01|1|2|128G||/hpc/home/lp210/scripts/wbgt_era5_calcs_thermofeel|
lp210|COMPLETED|scavenger|2023-05-24T17:16:40|2023-05-24T17:21:21|00:04:41|dcc-cagpm-01|1|2|128G||/hpc/home/lp210/scripts/wbgt_era5_calcs_thermofeel|
lp210|COMPLETED|scavenger|2023-05-24T17:17:01|2023-05-24T17:21:31|00:04:30|dcc-delairelab-01|1|2|128G||/hpc/home/lp210/scripts/wbgt_era5_calcs_thermofeel|
lp210|COMPLETED|scavenger|2023-05-24T17:17:03|2023-05-24T17:23:16|00:06:13|dcc-fergusonlab-05|1|2|128G||/hpc/home/lp210/scripts/wbgt_era5_calcs_thermofeel|
lp210|COMPLETED|scavenger|2023-05-24T17:17:31|2023-05-24T17:23:07|00:05:36|dcc-dunsonlab-02|1|2|128G||/hpc/home/lp210/scripts/wbgt_era5_calcs_thermofeel|
lp210|COMPLETED|scavenger|2023-05-24T17:17:54|2023-05-24T17:22:15|00:04:21|dcc-bragg-01|1|2|128G||/hpc/home/lp210/scripts/wbgt_era5_calcs_thermofeel|
lp210|COMPLETED|scavenger|2023-05-24T17:19:00|2023-05-24T17:23:15|00:04:15|dcc-dunsonlab-02|1|2|128G||/hpc/home/lp210/scripts/wbgt_era5_calcs_thermofeel|
lp210|COMPLETED|scavenger|2023-05-24T17:19:47|2023-05-24T17:26:07|00:06:20|dcc-bragg-03|1|2|128G||/hpc/home/lp210/scripts/wbgt_era5_calcs_thermofeel|
lp210|COMPLETED|scavenger|2023-05-24T17:20:02|2023-05-24T17:26:29|00:06:27|dcc-bragg-05|1|2|128G||/hpc/home/lp210/scripts/wbgt_era5_calcs_thermofeel|
lp210|COMPLETED|scavenger|2023-05-24T17:20:59|2023-05-24T17:24:50|00:03:51|dcc-donglab-01|1|2|128G||/hpc/home/lp210/scripts/wbgt_era5_calcs_thermofeel|
lp210|COMPLETED|scavenger|2023-05-24T17:20:59|2023-05-24T17:27:35|00:06:36|dcc-dunsonlab-01|1|2|128G||/hpc/home/lp210/scripts/wbgt_era5_calcs_thermofeel|
lp210|COMPLETED|scavenger|2023-05-24T17:21:21|2023-05-24T17:26:28|00:05:07|dcc-cagpm-01|1|2|128G||/hpc/home/lp210/scripts/wbgt_era5_calcs_thermofeel|
lp210|COMPLETED|scavenger|2023-05-24T17:21:33|2023-05-24T17:28:01|00:06:28|dcc-delairelab-01|1|2|128G||/hpc/home/lp210/scripts/wbgt_era5_calcs_thermofeel|
lp210|COMPLETED|scavenger|2023-05-24T17:22:15|2023-05-24T17:26:23|00:04:08|dcc-bragg-01|1|2|128G||/hpc/home/lp210/scripts/wbgt_era5_calcs_thermofeel|
lp210|COMPLETED|scavenger|2023-05-24T17:23:07|2023-05-24T17:27:19|00:04:12|dcc-dunsonlab-02|1|2|128G||/hpc/home/lp210/scripts/wbgt_era5_calcs_thermofeel|
lp210|COMPLETED|scavenger|2023-05-24T17:23:15|2023-05-24T17:28:14|00:04:59|dcc-dunsonlab-02|1|2|128G||/hpc/home/lp210/scripts/wbgt_era5_calcs_thermofeel|
lp210|COMPLETED|scavenger|2023-05-24T17:23:17|2023-05-24T17:27:57|00:04:40|dcc-fergusonlab-05|1|2|128G||/hpc/home/lp210/scripts/wbgt_era5_calcs_thermofeel|
lp210|COMPLETED|scavenger|2023-05-24T17:24:52|2023-05-24T17:29:58|00:05:06|dcc-donglab-01|1|2|128G||/hpc/home/lp210/scripts/wbgt_era5_calcs_thermofeel|
lp210|COMPLETED|scavenger|2023-05-24T17:26:08|2023-05-24T17:30:12|00:04:04|dcc-bragg-03|1|2|128G||/hpc/home/lp210/scripts/wbgt_era5_calcs_thermofeel|
bc276|COMPLETED|scavenger|2023-05-24T17:04:45|2023-05-27T07:08:18|2-14:03:33|dcc-motesa-01|1|1|100G||/hpc/group/goldberg/bc276/phylogeny|
