fjm7|COMPLETED|scavenger|2023-04-23T15:19:04|2023-05-18T23:19:00|25-07:59:56|dcc-noor-02|1|1|2G||/hpc/group/brownlab/fjm7/new-data-collection/slurm-runners|
fjm7|COMPLETED|scavenger|2023-04-23T15:19:04|2023-05-18T23:01:43|25-07:42:39|dcc-noor-02|1|1|2G||/hpc/group/brownlab/fjm7/new-data-collection/slurm-runners|
pz19|COMPLETED|scavenger|2023-05-01T10:41:57|2023-05-15T11:48:48|14-01:06:51|dcc-cagpm-02|1|16|32000M||/work/pz19/Dexter/parallel_00|
pz19|COMPLETED|scavenger|2023-05-01T13:38:55|2023-05-11T21:35:42|10-07:56:47|dcc-adrc-01|1|16|32000M||/work/pz19/Dexter/parallel_00|
pz19|COMPLETED|scavenger|2023-05-05T14:28:41|2023-05-14T18:25:58|9-03:57:17|dcc-delairelab-01|1|16|25408M||/work/pz19/Wang/Copper/Silicon/TS_06_3Lig/MN15/Constraint_0|
jo117|COMPLETED|scavenger|2023-05-08T09:44:32|2023-05-15T09:59:14|7-00:14:42|dcc-gcb-13|1|2|200G||/work/jo117/PossLab/2022-Science-axolotl|
ew198|COMPLETED|scavenger|2023-05-08T12:22:59|2023-05-10T12:42:07|2-00:19:08|dcc-pfister-01|1|1|125G||/cifs/hariri-long/Projects/Annchen/Scripts/ArealMSHBM|
lw157|COMPLETED|scavenger|2023-05-08T19:54:00|2023-05-10T07:20:56|1-11:26:56|dcc-hulab-01|1|1|15000M||/hpc/group/kolab/Odmaa/3_GWAS_reanalysis|
lw157|COMPLETED|scavenger|2023-05-09T05:36:17|2023-05-10T07:37:40|1-02:01:23|dcc-rausherlab-01|1|1|15000M||/hpc/group/kolab/Odmaa/3_GWAS_reanalysis|
lw157|COMPLETED|scavenger|2023-05-09T07:09:06|2023-05-10T15:47:42|1-08:38:36|dcc-youlab-01|1|1|15000M||/hpc/group/kolab/Odmaa/3_GWAS_reanalysis|
lw157|COMPLETED|scavenger|2023-05-09T07:23:53|2023-05-10T06:04:55|22:41:02|dcc-youlab-01|1|1|15000M||/hpc/group/kolab/Odmaa/3_GWAS_reanalysis|
lw157|COMPLETED|scavenger|2023-05-09T07:38:25|2023-05-10T09:06:56|1-01:28:31|dcc-rausherlab-01|1|1|15000M||/hpc/group/kolab/Odmaa/3_GWAS_reanalysis|
lw157|COMPLETED|scavenger|2023-05-09T10:03:16|2023-05-10T06:51:48|20:48:32|dcc-youlab-01|1|1|15000M||/hpc/group/kolab/Odmaa/3_GWAS_reanalysis|
lw157|COMPLETED|scavenger|2023-05-09T11:11:19|2023-05-10T13:28:08|1-02:16:49|dcc-pbenfeylab-01|1|1|15000M||/hpc/group/kolab/Odmaa/3_GWAS_reanalysis|
lw157|COMPLETED|scavenger|2023-05-09T12:31:48|2023-05-10T08:27:19|19:55:31|dcc-pbenfeylab-01|1|1|15000M||/hpc/group/kolab/Odmaa/3_GWAS_reanalysis|
lw157|COMPLETED|scavenger|2023-05-09T12:31:48|2023-05-10T10:50:59|22:19:11|dcc-pbenfeylab-01|1|1|15000M||/hpc/group/kolab/Odmaa/3_GWAS_reanalysis|
lw157|COMPLETED|scavenger|2023-05-09T12:31:48|2023-05-10T09:36:03|21:04:15|dcc-nsoe-it-01|1|1|15000M||/hpc/group/kolab/Odmaa/3_GWAS_reanalysis|
lw157|COMPLETED|scavenger|2023-05-09T12:31:48|2023-05-10T06:58:54|18:27:06|dcc-nsoe-it-01|1|1|15000M||/hpc/group/kolab/Odmaa/3_GWAS_reanalysis|
lw157|COMPLETED|scavenger|2023-05-09T12:58:26|2023-05-10T07:53:29|18:55:03|dcc-nsoe-it-01|1|1|15000M||/hpc/group/kolab/Odmaa/3_GWAS_reanalysis|
lw157|COMPLETED|scavenger|2023-05-09T13:33:14|2023-05-10T09:33:07|19:59:53|dcc-nsoe-it-01|1|1|15000M||/hpc/group/kolab/Odmaa/3_GWAS_reanalysis|
lw157|COMPLETED|scavenger|2023-05-09T13:35:58|2023-05-10T23:07:50|1-09:31:52|dcc-pfister-01|1|1|15000M||/hpc/group/kolab/Odmaa/3_GWAS_reanalysis|
lw157|COMPLETED|scavenger|2023-05-09T14:48:52|2023-05-10T10:57:28|20:08:36|dcc-rausherlab-01|1|1|15000M||/hpc/group/kolab/Odmaa/3_GWAS_reanalysis|
lw157|COMPLETED|scavenger|2023-05-09T15:49:14|2023-05-10T12:21:16|20:32:02|dcc-youlab-01|1|1|15000M||/hpc/group/kolab/Odmaa/3_GWAS_reanalysis|
lw157|COMPLETED|scavenger|2023-05-09T16:25:38|2023-05-10T12:48:14|20:22:36|dcc-rausherlab-01|1|1|15000M||/hpc/group/kolab/Odmaa/3_GWAS_reanalysis|
lw157|COMPLETED|scavenger|2023-05-09T16:32:35|2023-05-10T09:33:13|17:00:38|dcc-pfister-01|1|1|15000M||/hpc/group/kolab/Odmaa/3_GWAS_reanalysis|
lw157|COMPLETED|scavenger|2023-05-09T17:07:08|2023-05-10T13:00:29|19:53:21|dcc-rausherlab-02|1|1|15000M||/hpc/group/kolab/Odmaa/3_GWAS_reanalysis|
lw157|COMPLETED|scavenger|2023-05-09T17:47:56|2023-05-10T06:26:57|12:39:01|dcc-youlab-01|1|1|15000M||/hpc/group/kolab/Odmaa/3_GWAS_reanalysis|
lw157|COMPLETED|scavenger|2023-05-09T17:56:42|2023-05-10T06:19:14|12:22:32|dcc-youlab-01|1|1|15000M||/hpc/group/kolab/Odmaa/3_GWAS_reanalysis|
lw157|COMPLETED|scavenger|2023-05-09T18:10:49|2023-05-10T07:55:49|13:45:00|dcc-savageresearch-01|1|1|15000M||/hpc/group/kolab/Odmaa/3_GWAS_reanalysis|
lw157|COMPLETED|scavenger|2023-05-09T18:20:14|2023-05-10T13:26:17|19:06:03|dcc-savageresearch-01|1|1|15000M||/hpc/group/kolab/Odmaa/3_GWAS_reanalysis|
lw157|COMPLETED|scavenger|2023-05-09T19:15:34|2023-05-10T10:36:29|15:20:55|dcc-youlab-01|1|1|15000M||/hpc/group/kolab/Odmaa/3_GWAS_reanalysis|
lw157|COMPLETED|scavenger|2023-05-09T19:34:17|2023-05-10T07:58:32|12:24:15|dcc-tmolab-01|1|1|15000M||/hpc/group/kolab/Odmaa/3_GWAS_reanalysis|
lw157|COMPLETED|scavenger|2023-05-09T19:37:48|2023-05-10T07:06:23|11:28:35|dcc-velmeshevlab-01|1|1|15000M||/hpc/group/kolab/Odmaa/3_GWAS_reanalysis|
lw157|COMPLETED|scavenger|2023-05-09T19:37:51|2023-05-10T07:31:38|11:53:47|dcc-tmolab-01|1|1|15000M||/hpc/group/kolab/Odmaa/3_GWAS_reanalysis|
lw157|COMPLETED|scavenger|2023-05-09T20:21:15|2023-05-10T14:11:19|17:50:04|dcc-youlab-01|1|1|15000M||/hpc/group/kolab/Odmaa/3_GWAS_reanalysis|
lw157|COMPLETED|scavenger|2023-05-09T20:23:21|2023-05-10T06:10:55|09:47:34|dcc-velmeshevlab-01|1|1|15000M||/hpc/group/kolab/Odmaa/3_GWAS_reanalysis|
lw157|COMPLETED|scavenger|2023-05-09T20:42:09|2023-05-11T02:37:22|1-05:55:13|dcc-youlab-01|1|1|15000M||/hpc/group/kolab/Odmaa/3_GWAS_reanalysis|
lw157|COMPLETED|scavenger|2023-05-09T20:42:09|2023-05-10T13:01:51|16:19:42|dcc-youlab-01|1|1|15000M||/hpc/group/kolab/Odmaa/3_GWAS_reanalysis|
lw157|COMPLETED|scavenger|2023-05-09T20:47:00|2023-05-10T18:24:56|21:37:56|dcc-tmolab-01|1|1|15000M||/hpc/group/kolab/Odmaa/3_GWAS_reanalysis|
lw157|COMPLETED|scavenger|2023-05-09T21:07:06|2023-05-10T07:31:44|10:24:38|dcc-savageresearch-02|1|1|15000M||/hpc/group/kolab/Odmaa/3_GWAS_reanalysis|
lw157|COMPLETED|scavenger|2023-05-09T21:32:25|2023-05-10T16:48:54|19:16:29|dcc-youlab-01|1|1|15000M||/hpc/group/kolab/Odmaa/3_GWAS_reanalysis|
lw157|COMPLETED|scavenger|2023-05-09T21:35:39|2023-05-10T13:23:04|15:47:25|dcc-pfister-01|1|1|15000M||/hpc/group/kolab/Odmaa/3_GWAS_reanalysis|
lw157|COMPLETED|scavenger|2023-05-09T21:36:38|2023-05-10T22:55:51|1-01:19:13|dcc-pbenfeylab-01|1|1|15000M||/hpc/group/kolab/Odmaa/3_GWAS_reanalysis|
lw157|COMPLETED|scavenger|2023-05-09T21:51:48|2023-05-10T09:07:14|11:15:26|dcc-tmolab-01|1|1|15000M||/hpc/group/kolab/Odmaa/3_GWAS_reanalysis|
lw157|COMPLETED|scavenger|2023-05-09T22:04:49|2023-05-10T10:03:38|11:58:49|dcc-velmeshevlab-01|1|1|15000M||/hpc/group/kolab/Odmaa/3_GWAS_reanalysis|
lw157|COMPLETED|scavenger|2023-05-09T22:34:08|2023-05-10T14:55:15|16:21:07|dcc-fergusonlab-03|1|1|15000M||/hpc/group/kolab/Odmaa/3_GWAS_reanalysis|
lw157|COMPLETED|scavenger|2023-05-09T22:38:02|2023-05-10T18:48:44|20:10:42|dcc-pbenfeylab-01|1|1|15000M||/hpc/group/kolab/Odmaa/3_GWAS_reanalysis|
lw157|COMPLETED|scavenger|2023-05-09T22:46:15|2023-05-10T18:26:43|19:40:28|dcc-pbenfeylab-01|1|1|15000M||/hpc/group/kolab/Odmaa/3_GWAS_reanalysis|
lw157|COMPLETED|scavenger|2023-05-09T23:04:42|2023-05-10T08:11:39|09:06:57|dcc-rausherlab-01|1|1|15000M||/hpc/group/kolab/Odmaa/3_GWAS_reanalysis|
lw157|COMPLETED|scavenger|2023-05-09T23:07:37|2023-05-10T20:14:28|21:06:51|dcc-rausherlab-02|1|1|15000M||/hpc/group/kolab/Odmaa/3_GWAS_reanalysis|
lw157|COMPLETED|scavenger|2023-05-09T23:13:39|2023-05-10T16:49:59|17:36:20|dcc-pbenfeylab-01|1|1|15000M||/hpc/group/kolab/Odmaa/3_GWAS_reanalysis|
lw157|COMPLETED|scavenger|2023-05-09T23:24:24|2023-05-10T17:58:19|18:33:55|dcc-nsoe-it-01|1|1|15000M||/hpc/group/kolab/Odmaa/3_GWAS_reanalysis|
lw157|COMPLETED|scavenger|2023-05-09T23:24:24|2023-05-10T15:24:01|15:59:37|dcc-donglab-01|1|1|15000M||/hpc/group/kolab/Odmaa/3_GWAS_reanalysis|
lw157|COMPLETED|scavenger|2023-05-09T23:27:33|2023-05-10T10:36:05|11:08:32|dcc-youlab-01|1|1|15000M||/hpc/group/kolab/Odmaa/3_GWAS_reanalysis|
lw157|COMPLETED|scavenger|2023-05-09T23:56:11|2023-05-10T17:44:15|17:48:04|dcc-pbenfeylab-01|1|1|15000M||/hpc/group/kolab/Odmaa/3_GWAS_reanalysis|
lw157|COMPLETED|scavenger|2023-05-10T00:03:42|2023-05-10T06:41:19|06:37:37|dcc-rausherlab-02|1|1|15000M||/hpc/group/kolab/Odmaa/3_GWAS_reanalysis|
lw157|COMPLETED|scavenger|2023-05-10T00:10:39|2023-05-10T12:01:30|11:50:51|dcc-donglab-01|1|1|15000M||/hpc/group/kolab/Odmaa/3_GWAS_reanalysis|
lw157|COMPLETED|scavenger|2023-05-10T00:10:49|2023-05-10T17:41:08|17:30:19|dcc-youlab-01|1|1|15000M||/hpc/group/kolab/Odmaa/3_GWAS_reanalysis|
lw157|COMPLETED|scavenger|2023-05-10T00:13:06|2023-05-10T08:13:26|08:00:20|dcc-youlab-01|1|1|15000M||/hpc/group/kolab/Odmaa/3_GWAS_reanalysis|
lw157|COMPLETED|scavenger|2023-05-10T00:24:09|2023-05-11T08:05:30|1-07:41:21|dcc-wychem-01|1|1|15000M||/hpc/group/kolab/Odmaa/3_GWAS_reanalysis|
lw157|COMPLETED|scavenger|2023-05-10T00:49:34|2023-05-10T13:38:47|12:49:13|dcc-tunglab-02|1|1|15000M||/hpc/group/kolab/Odmaa/3_GWAS_reanalysis|
lw157|COMPLETED|scavenger|2023-05-10T00:52:35|2023-05-10T11:22:29|10:29:54|dcc-savageresearch-01|1|1|15000M||/hpc/group/kolab/Odmaa/3_GWAS_reanalysis|
lw157|COMPLETED|scavenger|2023-05-10T00:55:06|2023-05-10T13:18:28|12:23:22|dcc-youlab-01|1|1|15000M||/hpc/group/kolab/Odmaa/3_GWAS_reanalysis|
lw157|COMPLETED|scavenger|2023-05-10T00:57:16|2023-05-10T07:54:59|06:57:43|dcc-youlab-01|1|1|15000M||/hpc/group/kolab/Odmaa/3_GWAS_reanalysis|
lw157|COMPLETED|scavenger|2023-05-10T00:57:38|2023-05-10T23:34:05|22:36:27|dcc-pfister-01|1|1|15000M||/hpc/group/kolab/Odmaa/3_GWAS_reanalysis|
lw157|COMPLETED|scavenger|2023-05-10T01:27:54|2023-05-10T11:37:45|10:09:51|dcc-rausherlab-02|1|1|15000M||/hpc/group/kolab/Odmaa/3_GWAS_reanalysis|
lw157|COMPLETED|scavenger|2023-05-10T01:33:42|2023-05-10T10:22:35|08:48:53|dcc-wychem-01|1|1|15000M||/hpc/group/kolab/Odmaa/3_GWAS_reanalysis|
lw157|COMPLETED|scavenger|2023-05-10T01:53:40|2023-05-10T10:46:28|08:52:48|dcc-youlab-01|1|1|15000M||/hpc/group/kolab/Odmaa/3_GWAS_reanalysis|
lw157|COMPLETED|scavenger|2023-05-10T02:13:07|2023-05-10T12:15:46|10:02:39|dcc-youlab-01|1|1|15000M||/hpc/group/kolab/Odmaa/3_GWAS_reanalysis|
lw157|COMPLETED|scavenger|2023-05-10T02:13:13|2023-05-10T23:58:31|21:45:18|dcc-rausherlab-02|1|1|15000M||/hpc/group/kolab/Odmaa/3_GWAS_reanalysis|
lw157|COMPLETED|scavenger|2023-05-10T02:43:26|2023-05-10T18:34:29|15:51:03|dcc-youlab-01|1|1|15000M||/hpc/group/kolab/Odmaa/3_GWAS_reanalysis|
lw157|COMPLETED|scavenger|2023-05-10T03:14:39|2023-05-10T21:49:52|18:35:13|dcc-wychem-01|1|1|15000M||/hpc/group/kolab/Odmaa/3_GWAS_reanalysis|
lw157|COMPLETED|scavenger|2023-05-10T03:31:55|2023-05-10T12:36:49|09:04:54|dcc-youlab-01|1|1|15000M||/hpc/group/kolab/Odmaa/3_GWAS_reanalysis|
lw157|COMPLETED|scavenger|2023-05-10T03:34:32|2023-05-10T10:51:19|07:16:47|dcc-youlab-01|1|1|15000M||/hpc/group/kolab/Odmaa/3_GWAS_reanalysis|
lw157|COMPLETED|scavenger|2023-05-10T03:44:44|2023-05-11T00:00:23|20:15:39|dcc-youlab-01|1|1|15000M||/hpc/group/kolab/Odmaa/3_GWAS_reanalysis|
lw157|COMPLETED|scavenger|2023-05-10T03:52:21|2023-05-10T13:34:43|09:42:22|dcc-youlab-01|1|1|15000M||/hpc/group/kolab/Odmaa/3_GWAS_reanalysis|
lw157|COMPLETED|scavenger|2023-05-10T03:53:22|2023-05-10T14:42:14|10:48:52|dcc-youlab-01|1|1|15000M||/hpc/group/kolab/Odmaa/3_GWAS_reanalysis|
lw157|COMPLETED|scavenger|2023-05-10T03:56:06|2023-05-10T15:43:19|11:47:13|dcc-youlab-01|1|1|15000M||/hpc/group/kolab/Odmaa/3_GWAS_reanalysis|
lw157|COMPLETED|scavenger|2023-05-10T03:57:03|2023-05-11T10:59:00|1-07:01:57|dcc-wychem-01|1|1|15000M||/hpc/group/kolab/Odmaa/3_GWAS_reanalysis|
lw157|COMPLETED|scavenger|2023-05-10T04:00:12|2023-05-10T16:43:30|12:43:18|dcc-wychem-01|1|1|15000M||/hpc/group/kolab/Odmaa/3_GWAS_reanalysis|
lw157|COMPLETED|scavenger|2023-05-10T04:03:24|2023-05-10T10:15:18|06:11:54|dcc-youlab-01|1|1|15000M||/hpc/group/kolab/Odmaa/3_GWAS_reanalysis|
lw157|COMPLETED|scavenger|2023-05-10T04:08:57|2023-05-10T23:13:22|19:04:25|dcc-wychem-01|1|1|15000M||/hpc/group/kolab/Odmaa/3_GWAS_reanalysis|
lw157|COMPLETED|scavenger|2023-05-10T04:12:35|2023-05-11T00:10:00|19:57:25|dcc-wychem-01|1|1|15000M||/hpc/group/kolab/Odmaa/3_GWAS_reanalysis|
lw157|COMPLETED|scavenger|2023-05-10T04:15:11|2023-05-11T04:32:59|1-00:17:48|dcc-wychem-01|1|1|15000M||/hpc/group/kolab/Odmaa/3_GWAS_reanalysis|
lw157|COMPLETED|scavenger|2023-05-10T05:20:11|2023-05-10T22:58:12|17:38:01|dcc-youlab-01|1|1|15000M||/hpc/group/kolab/Odmaa/3_GWAS_reanalysis|
lw157|COMPLETED|scavenger|2023-05-10T05:32:17|2023-05-10T15:24:45|09:52:28|dcc-youlab-01|1|1|15000M||/hpc/group/kolab/Odmaa/3_GWAS_reanalysis|
lw157|COMPLETED|scavenger|2023-05-10T05:41:13|2023-05-10T15:51:14|10:10:01|dcc-velmeshevlab-01|1|1|15000M||/hpc/group/kolab/Odmaa/3_GWAS_reanalysis|
lw157|COMPLETED|scavenger|2023-05-10T05:46:38|2023-05-10T15:33:57|09:47:19|dcc-youlab-01|1|1|15000M||/hpc/group/kolab/Odmaa/3_GWAS_reanalysis|
lw157|COMPLETED|scavenger|2023-05-10T06:04:56|2023-05-10T14:48:02|08:43:06|dcc-youlab-01|1|1|15000M||/hpc/group/kolab/Odmaa/3_GWAS_reanalysis|
lw157|COMPLETED|scavenger|2023-05-10T06:10:57|2023-05-10T20:17:27|14:06:30|dcc-velmeshevlab-01|1|1|15000M||/hpc/group/kolab/Odmaa/3_GWAS_reanalysis|
lw157|COMPLETED|scavenger|2023-05-10T06:19:14|2023-05-10T14:54:48|08:35:34|dcc-youlab-01|1|1|15000M||/hpc/group/kolab/Odmaa/3_GWAS_reanalysis|
lw157|COMPLETED|scavenger|2023-05-10T06:26:57|2023-05-10T13:57:51|07:30:54|dcc-youlab-01|1|1|15000M||/hpc/group/kolab/Odmaa/3_GWAS_reanalysis|
lw157|COMPLETED|scavenger|2023-05-10T06:41:21|2023-05-10T20:42:40|14:01:19|dcc-velmeshevlab-01|1|1|15000M||/hpc/group/kolab/Odmaa/3_GWAS_reanalysis|
lw157|COMPLETED|scavenger|2023-05-10T06:51:48|2023-05-10T15:23:21|08:31:33|dcc-youlab-01|1|1|15000M||/hpc/group/kolab/Odmaa/3_GWAS_reanalysis|
lw157|COMPLETED|scavenger|2023-05-10T06:58:54|2023-05-11T05:52:17|22:53:23|dcc-velmeshevlab-01|1|1|15000M||/hpc/group/kolab/Odmaa/3_GWAS_reanalysis|
lw157|COMPLETED|scavenger|2023-05-10T07:31:39|2023-05-11T04:33:04|21:01:25|dcc-velmeshevlab-01|1|1|15000M||/hpc/group/kolab/Odmaa/3_GWAS_reanalysis|
lw157|COMPLETED|scavenger|2023-05-10T07:31:45|2023-05-11T08:13:56|1-00:42:11|dcc-velmeshevlab-01|1|1|15000M||/hpc/group/kolab/Odmaa/3_GWAS_reanalysis|
lw157|COMPLETED|scavenger|2023-05-10T07:37:40|2023-05-11T05:47:15|22:09:35|dcc-velmeshevlab-01|1|1|15000M||/hpc/group/kolab/Odmaa/3_GWAS_reanalysis|
lw157|COMPLETED|scavenger|2023-05-10T07:53:29|2023-05-11T05:41:37|21:48:08|dcc-velmeshevlab-01|1|1|15000M||/hpc/group/kolab/Odmaa/3_GWAS_reanalysis|
lw157|COMPLETED|scavenger|2023-05-10T07:54:59|2023-05-11T01:32:42|17:37:43|dcc-youlab-01|1|1|15000M||/hpc/group/kolab/Odmaa/3_GWAS_reanalysis|
lw157|COMPLETED|scavenger|2023-05-10T07:58:34|2023-05-10T20:15:28|12:16:54|dcc-velmeshevlab-01|1|1|15000M||/hpc/group/kolab/Odmaa/3_GWAS_reanalysis|
lw157|COMPLETED|scavenger|2023-05-10T08:13:28|2023-05-10T16:25:47|08:12:19|dcc-youlab-01|1|1|15000M||/hpc/group/kolab/Odmaa/3_GWAS_reanalysis|
lw157|COMPLETED|scavenger|2023-05-10T08:18:07|2023-05-11T07:05:05|22:46:58|dcc-velmeshevlab-01|1|1|15000M||/hpc/group/kolab/Odmaa/3_GWAS_reanalysis|
lw157|COMPLETED|scavenger|2023-05-10T08:18:07|2023-05-11T11:47:18|1-03:29:11|dcc-tunglab-01|1|1|15000M||/hpc/group/kolab/Odmaa/3_GWAS_reanalysis|
lw157|COMPLETED|scavenger|2023-05-10T08:18:07|2023-05-11T02:56:21|18:38:14|dcc-tunglab-01|1|1|15000M||/hpc/group/kolab/Odmaa/3_GWAS_reanalysis|
lw157|COMPLETED|scavenger|2023-05-10T08:27:19|2023-05-11T08:12:51|23:45:32|dcc-tunglab-01|1|1|15000M||/hpc/group/kolab/Odmaa/3_GWAS_reanalysis|
lw157|COMPLETED|scavenger|2023-05-10T09:06:56|2023-05-11T08:33:15|23:26:19|dcc-tunglab-01|1|1|15000M||/hpc/group/kolab/Odmaa/3_GWAS_reanalysis|
lw157|COMPLETED|scavenger|2023-05-10T09:07:14|2023-05-11T17:34:40|1-08:27:26|dcc-tunglab-01|1|1|15000M||/hpc/group/kolab/Odmaa/3_GWAS_reanalysis|
lw157|COMPLETED|scavenger|2023-05-10T09:33:07|2023-05-10T20:23:08|10:50:01|dcc-tunglab-01|1|1|15000M||/hpc/group/kolab/Odmaa/3_GWAS_reanalysis|
lw157|COMPLETED|scavenger|2023-05-10T09:33:15|2023-05-10T22:06:02|12:32:47|dcc-tunglab-01|1|1|15000M||/hpc/group/kolab/Odmaa/3_GWAS_reanalysis|
lw157|COMPLETED|scavenger|2023-05-10T09:36:05|2023-05-11T17:30:03|1-07:53:58|dcc-tunglab-01|1|1|15000M||/hpc/group/kolab/Odmaa/3_GWAS_reanalysis|
lw157|COMPLETED|scavenger|2023-05-10T10:15:20|2023-05-11T19:18:18|1-09:02:58|dcc-youlab-01|1|1|15000M||/hpc/group/kolab/Odmaa/3_GWAS_reanalysis|
lw157|COMPLETED|scavenger|2023-05-10T10:22:35|2023-05-10T18:22:35|08:00:00|dcc-wychem-01|1|1|15000M||/hpc/group/kolab/Odmaa/3_GWAS_reanalysis|
lw157|COMPLETED|scavenger|2023-05-10T10:27:16|2023-05-10T18:34:23|08:07:07|dcc-nicolab-01|1|1|15000M||/hpc/group/kolab/Odmaa/3_GWAS_reanalysis|
lw157|COMPLETED|scavenger|2023-05-10T10:27:16|2023-05-11T10:48:16|1-00:21:00|dcc-hulab-03|1|1|15000M||/hpc/group/kolab/Odmaa/3_GWAS_reanalysis|
lw157|COMPLETED|scavenger|2023-05-10T10:27:16|2023-05-10T21:19:05|10:51:49|dcc-hashimilab-01|1|1|15000M||/hpc/group/kolab/Odmaa/3_GWAS_reanalysis|
lw157|COMPLETED|scavenger|2023-05-10T10:27:16|2023-05-10T18:29:48|08:02:32|dcc-hashimilab-01|1|1|15000M||/hpc/group/kolab/Odmaa/3_GWAS_reanalysis|
hz215|COMPLETED|scavenger|2023-05-08T18:33:46|2023-05-10T06:59:00|1-12:25:14|dcc-gcb-06|1|1|300G||/hpc/group/jilab/hz/covid|
hz215|COMPLETED|scavenger|2023-05-08T18:33:56|2023-05-12T13:05:36|3-18:31:40|dcc-gcb-05|1|1|300G||/hpc/group/jilab/hz/covid|
lw157|COMPLETED|scavenger|2023-05-10T10:27:16|2023-05-11T06:57:37|20:30:21|dcc-fergusonlab-02|1|1|15000M||/hpc/group/kolab/Odmaa/HH3|
qm16|COMPLETED|scavenger|2023-05-09T00:04:56|2023-05-10T13:38:16|1-13:33:20|dcc-rausherlab-01|1|1|2800M||/hpc/group/barthellab/qm16/MERA_v10_dcc/doQt2θMERA-XXZ_DTF-Mgr9_CAN9|
qm16|COMPLETED|scavenger|2023-05-09T00:04:56|2023-05-10T16:15:25|1-16:10:29|dcc-rausherlab-01|1|1|2800M||/hpc/group/barthellab/qm16/MERA_v10_dcc/doQt2θMERA-XXZ_DTF-Mgr9_CAN9|
qm16|COMPLETED|scavenger|2023-05-09T00:05:45|2023-05-10T13:49:04|1-13:43:19|dcc-hulab-02|1|1|2800M||/hpc/group/barthellab/qm16/MERA_v10_dcc/doQt2θMERA-XXZ_DTF-Mgr9_CAN9|
qm16|COMPLETED|scavenger|2023-05-09T00:05:59|2023-05-10T17:30:15|1-17:24:16|dcc-hashimilab-01|1|1|2800M||/hpc/group/barthellab/qm16/MERA_v10_dcc/doQt2θMERA-XXZ_DTF-Mgr9_CAN9|
qm16|COMPLETED|scavenger|2023-05-09T00:06:48|2023-05-10T20:35:48|1-20:29:00|dcc-gcb-05|1|1|2800M||/hpc/group/barthellab/qm16/MERA_v10_dcc/doQt2θMERA-XXZ_DTF-Mgr9_CAN9|
qm16|COMPLETED|scavenger|2023-05-09T00:19:30|2023-05-10T21:41:34|1-21:22:04|dcc-gcb-04|1|1|2800M||/hpc/group/barthellab/qm16/MERA_v10_dcc/doQt2θMERA-XXZ_DTF-Mgr9_CAN9|
qm16|COMPLETED|scavenger|2023-05-09T00:19:46|2023-05-10T11:55:41|1-11:35:55|dcc-gcb-04|1|1|2800M||/hpc/group/barthellab/qm16/MERA_v10_dcc/doQt2θMERA-XXZ_DTF-Mgr9_CAN9|
qm16|COMPLETED|scavenger|2023-05-09T00:20:34|2023-05-11T00:18:00|1-23:57:26|dcc-gcb-02|1|1|2800M||/hpc/group/barthellab/qm16/MERA_v10_dcc/doQt2θMERA-XXZ_DTF-Mgr9_CAN9|
qm16|COMPLETED|scavenger|2023-05-09T00:20:48|2023-05-10T13:12:04|1-12:51:16|dcc-gcb-01|1|1|2800M||/hpc/group/barthellab/qm16/MERA_v10_dcc/doQt2θMERA-XXZ_DTF-Mgr9_CAN9|
qm16|COMPLETED|scavenger|2023-05-09T00:21:36|2023-05-10T11:53:34|1-11:31:58|dcc-fergusonlab-05|1|1|2800M||/hpc/group/barthellab/qm16/MERA_v10_dcc/doQt2θMERA-XXZ_DTF-Mgr9_CAN9|
lw157|COMPLETED|scavenger|2023-05-10T10:27:16|2023-05-11T12:33:03|1-02:05:47|dcc-fergusonlab-02|1|1|15000M||/hpc/group/kolab/Odmaa/3_GWAS_reanalysis|
lw157|COMPLETED|scavenger|2023-05-10T10:27:16|2023-05-11T06:37:55|20:10:39|dcc-fergusonlab-02|1|1|15000M||/hpc/group/kolab/Odmaa/3_GWAS_reanalysis|
lw157|COMPLETED|scavenger|2023-05-10T10:27:17|2023-05-11T07:35:42|21:08:25|dcc-fergusonlab-02|1|1|15000M||/hpc/group/kolab/Odmaa/3_GWAS_reanalysis|
lw157|COMPLETED|scavenger|2023-05-10T10:27:20|2023-05-10T19:17:31|08:50:11|dcc-gcb-12|1|1|15000M||/hpc/group/kolab/Odmaa/3_GWAS_reanalysis|
lw157|COMPLETED|scavenger|2023-05-10T10:36:05|2023-05-10T21:14:30|10:38:25|dcc-youlab-01|1|1|15000M||/hpc/group/kolab/Odmaa/3_GWAS_reanalysis|
lw157|COMPLETED|scavenger|2023-05-10T10:36:31|2023-05-11T00:08:12|13:31:41|dcc-youlab-01|1|1|15000M||/hpc/group/kolab/Odmaa/3_GWAS_reanalysis|
lw157|COMPLETED|scavenger|2023-05-10T10:46:29|2023-05-11T13:19:14|1-02:32:45|dcc-youlab-01|1|1|15000M||/hpc/group/kolab/Odmaa/3_GWAS_reanalysis|
lw157|COMPLETED|scavenger|2023-05-10T10:51:00|2023-05-11T18:41:28|1-07:50:28|dcc-pbenfeylab-01|1|1|15000M||/hpc/group/kolab/Odmaa/3_GWAS_reanalysis|
lw157|COMPLETED|scavenger|2023-05-10T10:51:20|2023-05-10T18:58:14|08:06:54|dcc-youlab-01|1|1|15000M||/hpc/group/kolab/Odmaa/3_GWAS_reanalysis|
yx240|COMPLETED|scavenger|2023-05-09T14:06:59|2023-05-10T06:25:34|16:18:35|dcc-delairelab-01|1|4|12G||/work/yx240/project-alb/active-learning/ActiveLearningBenchmark-random|
yx240|COMPLETED|scavenger|2023-05-09T14:07:03|2023-05-10T12:22:27|22:15:24|dcc-donglab-01|1|4|12G||/work/yx240/project-alb/active-learning/ActiveLearningBenchmark-random|
yx240|COMPLETED|scavenger|2023-05-09T14:07:05|2023-05-10T09:38:17|19:31:12|dcc-cagpm-01|1|4|30G||/work/yx240/project-alb/active-learning/ActiveLearningBenchmark-random|
yx240|COMPLETED|scavenger|2023-05-09T14:07:05|2023-05-10T06:31:48|16:24:43|dcc-mainsahlab-01|1|4|30G||/work/yx240/project-alb/active-learning/ActiveLearningBenchmark-random|
yx240|COMPLETED|scavenger|2023-05-09T14:07:18|2023-05-10T11:33:17|21:25:59|dcc-mainsahlab-01|1|4|12G||/work/yx240/project-alb/active-learning/ActiveLearningBenchmark-random|
yx240|COMPLETED|scavenger|2023-05-09T14:07:18|2023-05-10T11:13:35|21:06:17|dcc-mainsahlab-01|1|4|12G||/work/yx240/project-alb/active-learning/ActiveLearningBenchmark-random|
yx240|COMPLETED|scavenger|2023-05-09T14:07:18|2023-05-10T12:23:28|22:16:10|dcc-mainsahlab-01|1|4|12G||/work/yx240/project-alb/active-learning/ActiveLearningBenchmark-random|
yx240|COMPLETED|scavenger|2023-05-09T14:07:18|2023-05-10T12:54:14|22:46:56|dcc-mainsahlab-01|1|4|12G||/work/yx240/project-alb/active-learning/ActiveLearningBenchmark-random|
yx240|COMPLETED|scavenger|2023-05-09T14:07:18|2023-05-10T09:28:09|19:20:51|dcc-chg-01|1|4|12G||/work/yx240/project-alb/active-learning/ActiveLearningBenchmark-random|
yx240|COMPLETED|scavenger|2023-05-09T14:07:18|2023-05-10T09:24:42|19:17:24|dcc-chg-01|1|4|12G||/work/yx240/project-alb/active-learning/ActiveLearningBenchmark-random|
yx240|COMPLETED|scavenger|2023-05-09T14:07:18|2023-05-10T09:28:56|19:21:38|dcc-chg-02|1|4|12G||/work/yx240/project-alb/active-learning/ActiveLearningBenchmark-random|
yx240|COMPLETED|scavenger|2023-05-09T14:07:20|2023-05-10T08:52:54|18:45:34|dcc-chg-02|1|4|12G||/work/yx240/project-alb/active-learning/ActiveLearningBenchmark-random|
yx240|COMPLETED|scavenger|2023-05-09T14:07:20|2023-05-10T07:48:25|17:41:05|dcc-chg-03|1|4|12G||/work/yx240/project-alb/active-learning/ActiveLearningBenchmark-random|
yx240|COMPLETED|scavenger|2023-05-09T14:07:20|2023-05-10T08:47:01|18:39:41|dcc-chg-03|1|4|12G||/work/yx240/project-alb/active-learning/ActiveLearningBenchmark-random|
yx240|COMPLETED|scavenger|2023-05-09T14:07:21|2023-05-10T08:43:51|18:36:30|dcc-chg-04|1|4|12G||/work/yx240/project-alb/active-learning/ActiveLearningBenchmark-random|
yx240|COMPLETED|scavenger|2023-05-09T14:07:21|2023-05-10T08:14:19|18:06:58|dcc-chg-04|1|4|12G||/work/yx240/project-alb/active-learning/ActiveLearningBenchmark-random|
yx240|COMPLETED|scavenger|2023-05-09T14:07:21|2023-05-10T09:19:52|19:12:31|dcc-chg-05|1|4|12G||/work/yx240/project-alb/active-learning/ActiveLearningBenchmark-random|
yx240|COMPLETED|scavenger|2023-05-09T14:07:21|2023-05-10T09:04:12|18:56:51|dcc-chg-05|1|4|12G||/work/yx240/project-alb/active-learning/ActiveLearningBenchmark-random|
yx240|COMPLETED|scavenger|2023-05-09T14:07:21|2023-05-10T11:41:36|21:34:15|dcc-noor-02|1|4|12G||/work/yx240/project-alb/active-learning/ActiveLearningBenchmark-random|
yx240|COMPLETED|scavenger|2023-05-09T14:07:21|2023-05-10T11:44:49|21:37:28|dcc-noor-01|1|4|12G||/work/yx240/project-alb/active-learning/ActiveLearningBenchmark-random|
yx240|COMPLETED|scavenger|2023-05-09T14:07:21|2023-05-10T10:51:28|20:44:07|dcc-noor-01|1|4|12G||/work/yx240/project-alb/active-learning/ActiveLearningBenchmark-random|
yx240|COMPLETED|scavenger|2023-05-09T14:07:21|2023-05-10T10:51:41|20:44:20|dcc-noor-01|1|4|12G||/work/yx240/project-alb/active-learning/ActiveLearningBenchmark-random|
yx240|COMPLETED|scavenger|2023-05-09T14:07:21|2023-05-10T12:19:53|22:12:32|dcc-noor-01|1|4|12G||/work/yx240/project-alb/active-learning/ActiveLearningBenchmark-random|
yx240|COMPLETED|scavenger|2023-05-09T14:07:22|2023-05-10T09:53:08|19:45:46|dcc-noor-01|1|4|12G||/work/yx240/project-alb/active-learning/ActiveLearningBenchmark-random|
yx240|COMPLETED|scavenger|2023-05-09T14:07:22|2023-05-10T09:56:43|19:49:21|dcc-noor-01|1|4|12G||/work/yx240/project-alb/active-learning/ActiveLearningBenchmark-random|
yx240|COMPLETED|scavenger|2023-05-09T14:07:22|2023-05-10T08:57:47|18:50:25|dcc-noor-01|1|4|12G||/work/yx240/project-alb/active-learning/ActiveLearningBenchmark-random|
yx240|COMPLETED|scavenger|2023-05-09T14:07:22|2023-05-10T08:44:35|18:37:13|dcc-noor-01|1|4|12G||/work/yx240/project-alb/active-learning/ActiveLearningBenchmark-random|
yx240|COMPLETED|scavenger|2023-05-09T14:07:22|2023-05-10T11:04:33|20:57:11|dcc-nicolab-01|1|4|12G||/work/yx240/project-alb/active-learning/ActiveLearningBenchmark-random|
yx240|COMPLETED|scavenger|2023-05-09T14:07:23|2023-05-10T11:56:32|21:49:09|dcc-nicolab-01|1|4|12G||/work/yx240/project-alb/active-learning/ActiveLearningBenchmark-random|
yx240|COMPLETED|scavenger|2023-05-09T14:07:23|2023-05-10T10:49:57|20:42:34|dcc-nicolab-01|1|4|12G||/work/yx240/project-alb/active-learning/ActiveLearningBenchmark-random|
yx240|COMPLETED|scavenger|2023-05-09T14:07:23|2023-05-10T10:46:16|20:38:53|dcc-nicolab-01|1|4|12G||/work/yx240/project-alb/active-learning/ActiveLearningBenchmark-random|
yx240|COMPLETED|scavenger|2023-05-09T14:07:23|2023-05-10T10:37:38|20:30:15|dcc-nicolab-01|1|4|12G||/work/yx240/project-alb/active-learning/ActiveLearningBenchmark-random|
yx240|COMPLETED|scavenger|2023-05-09T14:07:26|2023-05-10T10:55:29|20:48:03|dcc-nicolab-01|1|4|12G||/work/yx240/project-alb/active-learning/ActiveLearningBenchmark-random|
yx240|COMPLETED|scavenger|2023-05-09T14:07:26|2023-05-10T11:10:22|21:02:56|dcc-nicolab-01|1|4|12G||/work/yx240/project-alb/active-learning/ActiveLearningBenchmark-random|
yx240|COMPLETED|scavenger|2023-05-09T14:07:26|2023-05-10T12:10:33|22:03:07|dcc-nicolab-01|1|4|12G||/work/yx240/project-alb/active-learning/ActiveLearningBenchmark-random|
yx240|COMPLETED|scavenger|2023-05-09T14:07:26|2023-05-10T10:22:45|20:15:19|dcc-nicolab-01|1|4|12G||/work/yx240/project-alb/active-learning/ActiveLearningBenchmark-random|
yx240|COMPLETED|scavenger|2023-05-09T14:50:49|2023-05-10T10:36:12|19:45:23|dcc-compeb-04|1|4|12G||/work/yx240/project-alb/active-learning/ActiveLearningBenchmark-random|
yx240|COMPLETED|scavenger|2023-05-09T14:51:15|2023-05-10T07:06:24|16:15:09|dcc-delairelab-01|1|4|12G||/work/yx240/project-alb/active-learning/ActiveLearningBenchmark-random|
yx240|COMPLETED|scavenger|2023-05-09T14:52:02|2023-05-10T09:45:48|18:53:46|dcc-compeb-04|1|4|12G||/work/yx240/project-alb/active-learning/ActiveLearningBenchmark-random|
yx240|COMPLETED|scavenger|2023-05-09T14:54:29|2023-05-10T11:30:59|20:36:30|dcc-compeb-04|1|4|12G||/work/yx240/project-alb/active-learning/ActiveLearningBenchmark-random|
yx240|COMPLETED|scavenger|2023-05-09T14:54:32|2023-05-10T09:53:55|18:59:23|dcc-compeb-04|1|4|12G||/work/yx240/project-alb/active-learning/ActiveLearningBenchmark-random|
yx240|COMPLETED|scavenger|2023-05-09T14:54:40|2023-05-10T10:08:30|19:13:50|dcc-compeb-04|1|4|12G||/work/yx240/project-alb/active-learning/ActiveLearningBenchmark-random|
yx240|COMPLETED|scavenger|2023-05-09T15:09:29|2023-05-10T06:29:53|15:20:24|dcc-adrc-01|1|4|12G||/work/yx240/project-alb/active-learning/ActiveLearningBenchmark-random|
yx240|COMPLETED|scavenger|2023-05-09T15:22:28|2023-05-10T09:22:41|18:00:13|dcc-adrc-01|1|4|12G||/work/yx240/project-alb/active-learning/ActiveLearningBenchmark-random|
yx240|COMPLETED|scavenger|2023-05-09T15:38:16|2023-05-10T08:08:21|16:30:05|dcc-adrc-01|1|4|12G||/work/yx240/project-alb/active-learning/ActiveLearningBenchmark-random|
yx240|COMPLETED|scavenger|2023-05-09T15:40:19|2023-05-10T09:52:18|18:11:59|dcc-donglab-01|1|4|12G||/work/yx240/project-alb/active-learning/ActiveLearningBenchmark-random|
yx240|COMPLETED|scavenger|2023-05-09T15:58:36|2023-05-10T07:58:16|15:59:40|dcc-delairelab-01|1|4|12G||/work/yx240/project-alb/active-learning/ActiveLearningBenchmark-random|
yx240|COMPLETED|scavenger|2023-05-09T16:06:11|2023-05-10T08:24:37|16:18:26|dcc-adrc-01|1|4|12G||/work/yx240/project-alb/active-learning/ActiveLearningBenchmark-random|
yx240|COMPLETED|scavenger|2023-05-09T16:20:07|2023-05-10T11:33:53|19:13:46|dcc-youlab-01|1|4|12G||/work/yx240/project-alb/active-learning/ActiveLearningBenchmark-random|
yx240|COMPLETED|scavenger|2023-05-09T16:26:13|2023-05-10T06:10:39|13:44:26|dcc-dailabs-05|1|4|12G||/work/yx240/project-alb/active-learning/ActiveLearningBenchmark-random|
yx240|COMPLETED|scavenger|2023-05-09T16:32:36|2023-05-10T06:06:39|13:34:03|dcc-carin-23|1|4|12G||/work/yx240/project-alb/active-learning/ActiveLearningBenchmark-random|
yx240|COMPLETED|scavenger|2023-05-09T16:36:01|2023-05-10T07:31:44|14:55:43|dcc-nicolab-01|1|4|12G||/work/yx240/project-alb/active-learning/ActiveLearningBenchmark-random|
yx240|COMPLETED|scavenger|2023-05-09T15:51:38|2023-05-10T08:26:14|16:34:36|dcc-kirschlab-01|1|4|12G||/work/yx240/project-alb/active-learning/ActiveLearningBenchmark-random|
sms198|COMPLETED|scavenger|2023-05-10T01:49:42|2023-05-10T07:27:21|05:37:39|dcc-hulab-04|1|16|256G||/hpc/group/bio1/sskarha/metagenomics_kraken/scripts|
sms198|COMPLETED|scavenger|2023-05-10T02:55:10|2023-05-10T12:11:46|09:16:36|dcc-herringlab-01|1|16|256G||/hpc/group/bio1/sskarha/metagenomics_kraken/scripts|
jo117|COMPLETED|scavenger|2023-05-09T15:56:55|2023-05-11T01:28:17|1-09:31:22|dcc-donglab-01|1|12|72G||/work/jo117/DiaoLab/hicar_v2/mESC/singularity/work/9b/61836ba46c9869bbb0532ef16cf327|
jo117|COMPLETED|scavenger|2023-05-09T15:56:59|2023-05-11T15:56:04|1-23:59:05|dcc-bragg-05|1|12|72G||/work/jo117/DiaoLab/hicar_v2/mESC/singularity/work/31/dd86bbf08663c4da49fef4d58de863|
jo117|COMPLETED|scavenger|2023-05-09T15:57:07|2023-05-10T11:40:23|19:43:16|dcc-cagpm-01|1|12|72G||/work/jo117/DiaoLab/hicar_v2/mESC/singularity/work/38/f0e141f4d34e2fcbca7adec787d900|
jo117|COMPLETED|scavenger|2023-05-09T15:57:07|2023-05-11T15:56:35|1-23:59:28|dcc-cagpm-01|1|12|72G||/work/jo117/DiaoLab/hicar_v2/mESC/singularity/work/ac/e76fb5696d9b6e6de96f444c7f4639|
jo117|COMPLETED|scavenger|2023-05-09T15:57:07|2023-05-10T09:31:50|17:34:43|dcc-cagpm-01|1|12|72G||/work/jo117/DiaoLab/hicar_v2/mESC/singularity/work/a1/591c880e9e075ae3482975e4406e9c|
jo117|COMPLETED|scavenger|2023-05-09T15:57:11|2023-05-10T07:26:58|15:29:47|dcc-gcb-14|1|12|72G||/work/jo117/DiaoLab/hicar_v2/mESC/singularity/work/c2/e7a89a1daaf35e00bd63221cabab1c|
jo117|COMPLETED|scavenger|2023-05-09T15:57:11|2023-05-10T13:39:46|21:42:35|dcc-gcb-15|1|12|72G||/work/jo117/DiaoLab/hicar_v2/mESC/singularity/work/7b/c67d5599d2056c324d9100b99954de|
jo117|COMPLETED|scavenger|2023-05-09T15:57:11|2023-05-11T15:56:35|1-23:59:24|dcc-gcb-15|1|12|72G||/work/jo117/DiaoLab/hicar_v2/mESC/singularity/work/ba/88dafc7edc4bdee11eeb6bc79ccf93|
jo117|COMPLETED|scavenger|2023-05-09T15:57:11|2023-05-10T09:10:28|17:13:17|dcc-bragg-02|1|12|72G||/work/jo117/DiaoLab/hicar_v2/mESC/singularity/work/af/b4fe53d870d60b4d96e8da6fb8e8af|
jo117|COMPLETED|scavenger|2023-05-09T15:57:11|2023-05-11T15:56:35|1-23:59:24|dcc-bragg-01|1|12|72G||/work/jo117/DiaoLab/hicar_v2/mESC/singularity/work/77/70559d38857ad8b73cabfe1e97e472|
jo117|COMPLETED|scavenger|2023-05-09T15:57:11|2023-05-10T10:41:30|18:44:19|dcc-bragg-01|1|12|72G||/work/jo117/DiaoLab/hicar_v2/mESC/singularity/work/29/df56a19f3e96e5cb172b464d4d2966|
sbm34|COMPLETED|scavenger|2023-05-09T19:05:22|2023-05-13T21:58:35|4-02:53:13|dcc-bragg-04|1|8|160G||/work/sbm34/assembly|
hz215|COMPLETED|scavenger|2023-05-09T22:00:52|2023-05-10T14:17:13|16:16:21|dcc-hulab-01|1|1|300G||/hpc/group/jilab/hz/covid|
qm16|COMPLETED|scavenger|2023-05-10T00:20:51|2023-05-10T07:53:16|07:32:25|dcc-herringlab-01|1|1|1400M||/hpc/group/barthellab/qm16/MERA_v10_dcc/doQt2θMERA-XXZ_DTF-Mgr9_CAN9|
qm16|COMPLETED|scavenger|2023-05-10T00:27:33|2023-05-10T07:19:17|06:51:44|dcc-statdept-01|1|1|1400M||/hpc/group/barthellab/qm16/MERA_v10_dcc/doQt2θMERA-XXZ_DTF-Mgr9_CAN9|
qm16|COMPLETED|scavenger|2023-05-10T00:27:52|2023-05-10T06:31:33|06:03:41|dcc-statdept-01|1|1|1400M||/hpc/group/barthellab/qm16/MERA_v10_dcc/doQt2θMERA-XXZ_DTF-Mgr9_CAN9|
qm16|COMPLETED|scavenger|2023-05-10T00:28:14|2023-05-10T06:34:48|06:06:34|dcc-herringlab-01|1|1|1400M||/hpc/group/barthellab/qm16/MERA_v10_dcc/doQt2θMERA-XXZ_DTF-Mgr9_CAN9|
qm16|COMPLETED|scavenger|2023-05-10T00:41:14|2023-05-10T07:05:17|06:24:03|dcc-statdept-01|1|1|1400M||/hpc/group/barthellab/qm16/MERA_v10_dcc/doQt2θMERA-XXZ_DTF-Mgr9_CAN9|
qm16|COMPLETED|scavenger|2023-05-10T00:41:17|2023-05-10T08:31:29|07:50:12|dcc-herringlab-01|1|1|1400M||/hpc/group/barthellab/qm16/MERA_v10_dcc/doQt2θMERA-XXZ_DTF-Mgr9_CAN9|
qm16|COMPLETED|scavenger|2023-05-10T00:41:42|2023-05-10T07:51:42|07:10:00|dcc-statdept-01|1|1|1400M||/hpc/group/barthellab/qm16/MERA_v10_dcc/doQt2θMERA-XXZ_DTF-Mgr9_CAN9|
qm16|COMPLETED|scavenger|2023-05-10T00:47:27|2023-05-10T08:26:37|07:39:10|dcc-herringlab-01|1|1|1400M||/hpc/group/barthellab/qm16/MERA_v10_dcc/doQt2θMERA-XXZ_DTF-Mgr9_CAN9|
qm16|COMPLETED|scavenger|2023-05-10T00:54:08|2023-05-10T06:20:40|05:26:32|dcc-statdept-01|1|1|1400M||/hpc/group/barthellab/qm16/MERA_v10_dcc/doQt2θMERA-XXZ_DTF-Mgr9_CAN9|
qm16|COMPLETED|scavenger|2023-05-10T00:54:58|2023-05-10T07:21:10|06:26:12|dcc-herringlab-01|1|1|1400M||/hpc/group/barthellab/qm16/MERA_v10_dcc/doQt2θMERA-XXZ_DTF-Mgr9_CAN9|
qm16|COMPLETED|scavenger|2023-05-10T00:59:09|2023-05-10T08:15:13|07:16:04|dcc-herringlab-01|1|1|1400M||/hpc/group/barthellab/qm16/MERA_v10_dcc/doQt2θMERA-XXZ_DTF-Mgr9_CAN9|
qm16|COMPLETED|scavenger|2023-05-10T01:04:57|2023-05-10T07:43:44|06:38:47|dcc-statdept-01|1|1|1400M||/hpc/group/barthellab/qm16/MERA_v10_dcc/doQt2θMERA-XXZ_DTF-Mgr9_CAN9|
qm16|COMPLETED|scavenger|2023-05-10T01:10:56|2023-05-10T06:21:04|05:10:08|dcc-herringlab-01|1|1|1400M||/hpc/group/barthellab/qm16/MERA_v10_dcc/doQt2θMERA-XXZ_DTF-Mgr9_CAN9|
qm16|COMPLETED|scavenger|2023-05-10T01:15:47|2023-05-10T06:08:51|04:53:04|dcc-herringlab-01|1|1|1400M||/hpc/group/barthellab/qm16/MERA_v10_dcc/doQt2θMERA-XXZ_DTF-Mgr9_CAN9|
qm16|COMPLETED|scavenger|2023-05-10T01:19:06|2023-05-10T06:29:13|05:10:07|dcc-herringlab-01|1|1|1400M||/hpc/group/barthellab/qm16/MERA_v10_dcc/doQt2θMERA-XXZ_DTF-Mgr9_CAN9|
qm16|COMPLETED|scavenger|2023-05-10T01:24:28|2023-05-10T06:26:39|05:02:11|dcc-statdept-01|1|1|1400M||/hpc/group/barthellab/qm16/MERA_v10_dcc/doQt2θMERA-XXZ_DTF-Mgr9_CAN9|
qm16|COMPLETED|scavenger|2023-05-10T01:46:03|2023-05-10T06:18:23|04:32:20|dcc-herringlab-01|1|1|1400M||/hpc/group/barthellab/qm16/MERA_v10_dcc/doQt2θMERA-XXZ_DTF-Mgr9_CAN9|
smokeauth2-tst|COMPLETED|scavenger|2023-05-10T06:01:30|2023-05-10T06:01:32|00:00:02|dcc-wychem-01|1|1|2G||/hpc/home/smokeauth2-tst|
smokeauth2-tst|COMPLETED|scavenger|2023-05-10T06:01:34|2023-05-10T06:01:35|00:00:01|dcc-wychem-01|1|1|2G||/hpc/home/smokeauth2-tst|
smokeauth2-tst|COMPLETED|scavenger|2023-05-10T06:01:37|2023-05-10T06:01:38|00:00:01|dcc-wychem-01|1|1|2G||/hpc/home/smokeauth2-tst|
smokeauth2-tst|COMPLETED|scavenger|2023-05-10T06:01:40|2023-05-10T06:01:42|00:00:02|dcc-wychem-01|1|1|2G||/hpc/home/smokeauth2-tst|
smokeauth2-tst|COMPLETED|scavenger|2023-05-10T06:01:43|2023-05-10T06:01:45|00:00:02|dcc-wychem-01|1|1|2G||/hpc/home/smokeauth2-tst|
smokeauth2-tst|COMPLETED|scavenger|2023-05-10T06:05:36|2023-05-10T06:05:38|00:00:02|dcc-wychem-01|1|1|2G||/hpc/home/smokeauth2-tst|
smokeauth2-tst|COMPLETED|scavenger|2023-05-10T06:05:40|2023-05-10T06:05:41|00:00:01|dcc-wychem-01|1|1|2G||/hpc/home/smokeauth2-tst|
smokeauth2-tst|COMPLETED|scavenger|2023-05-10T06:05:43|2023-05-10T06:05:45|00:00:02|dcc-wychem-01|1|1|2G||/hpc/home/smokeauth2-tst|
smokeauth2-tst|COMPLETED|scavenger|2023-05-10T06:05:46|2023-05-10T06:05:48|00:00:02|dcc-wychem-01|1|1|2G||/hpc/home/smokeauth2-tst|
smokeauth2-tst|COMPLETED|scavenger|2023-05-10T06:05:53|2023-05-10T06:05:55|00:00:02|dcc-wychem-01|1|1|2G||/hpc/home/smokeauth2-tst|
smokeauth2-tst|COMPLETED|scavenger|2023-05-10T06:11:31|2023-05-10T06:11:33|00:00:02|dcc-wychem-01|1|1|2G||/hpc/home/smokeauth2-tst|
smokeauth2-tst|COMPLETED|scavenger|2023-05-10T06:11:34|2023-05-10T06:11:35|00:00:01|dcc-wychem-01|1|1|2G||/hpc/home/smokeauth2-tst|
smokeauth2-tst|COMPLETED|scavenger|2023-05-10T06:11:37|2023-05-10T06:11:39|00:00:02|dcc-wychem-01|1|1|2G||/hpc/home/smokeauth2-tst|
smokeauth2-tst|COMPLETED|scavenger|2023-05-10T06:11:40|2023-05-10T06:11:42|00:00:02|dcc-wychem-01|1|1|2G||/hpc/home/smokeauth2-tst|
smokeauth2-tst|COMPLETED|scavenger|2023-05-10T06:11:44|2023-05-10T06:11:45|00:00:01|dcc-wychem-01|1|1|2G||/hpc/home/smokeauth2-tst|
smokeauth2-tst|COMPLETED|scavenger|2023-05-10T06:15:36|2023-05-10T06:15:37|00:00:01|dcc-wychem-01|1|1|2G||/hpc/home/smokeauth2-tst|
smokeauth2-tst|COMPLETED|scavenger|2023-05-10T06:15:42|2023-05-10T06:15:44|00:00:02|dcc-wychem-01|1|1|2G||/hpc/home/smokeauth2-tst|
smokeauth2-tst|COMPLETED|scavenger|2023-05-10T06:15:48|2023-05-10T06:15:50|00:00:02|dcc-wychem-01|1|1|2G||/hpc/home/smokeauth2-tst|
smokeauth2-tst|COMPLETED|scavenger|2023-05-10T06:15:55|2023-05-10T06:15:56|00:00:01|dcc-wychem-01|1|1|2G||/hpc/home/smokeauth2-tst|
smokeauth2-tst|COMPLETED|scavenger|2023-05-10T06:16:01|2023-05-10T06:16:03|00:00:02|dcc-wychem-01|1|1|2G||/hpc/home/smokeauth2-tst|
smokeauth2-tst|COMPLETED|scavenger|2023-05-10T06:21:30|2023-05-10T06:21:32|00:00:02|dcc-wychem-01|1|1|2G||/hpc/home/smokeauth2-tst|
smokeauth2-tst|COMPLETED|scavenger|2023-05-10T06:21:33|2023-05-10T06:21:35|00:00:02|dcc-wychem-01|1|1|2G||/hpc/home/smokeauth2-tst|
smokeauth2-tst|COMPLETED|scavenger|2023-05-10T06:21:36|2023-05-10T06:21:38|00:00:02|dcc-wychem-01|1|1|2G||/hpc/home/smokeauth2-tst|
smokeauth2-tst|COMPLETED|scavenger|2023-05-10T06:21:39|2023-05-10T06:21:41|00:00:02|dcc-wychem-01|1|1|2G||/hpc/home/smokeauth2-tst|
smokeauth2-tst|COMPLETED|scavenger|2023-05-10T06:21:43|2023-05-10T06:21:44|00:00:01|dcc-wychem-01|1|1|2G||/hpc/home/smokeauth2-tst|
smokeauth2-tst|COMPLETED|scavenger|2023-05-10T06:25:38|2023-05-10T06:25:39|00:00:01|dcc-wychem-01|1|1|2G||/hpc/home/smokeauth2-tst|
smokeauth2-tst|COMPLETED|scavenger|2023-05-10T06:25:41|2023-05-10T06:25:42|00:00:01|dcc-wychem-01|1|1|2G||/hpc/home/smokeauth2-tst|
smokeauth2-tst|COMPLETED|scavenger|2023-05-10T06:25:44|2023-05-10T06:25:46|00:00:02|dcc-wychem-01|1|1|2G||/hpc/home/smokeauth2-tst|
smokeauth2-tst|COMPLETED|scavenger|2023-05-10T06:25:47|2023-05-10T06:25:49|00:00:02|dcc-wychem-01|1|1|2G||/hpc/home/smokeauth2-tst|
smokeauth2-tst|COMPLETED|scavenger|2023-05-10T06:25:53|2023-05-10T06:25:53|00:00:00|dcc-wychem-01|1|1|2G||/hpc/home/smokeauth2-tst|
smokeauth2-tst|COMPLETED|scavenger|2023-05-10T06:31:30|2023-05-10T06:31:32|00:00:02|dcc-wychem-01|1|1|2G||/hpc/home/smokeauth2-tst|
smokeauth2-tst|COMPLETED|scavenger|2023-05-10T06:31:33|2023-05-10T06:31:35|00:00:02|dcc-wychem-01|1|1|2G||/hpc/home/smokeauth2-tst|
smokeauth2-tst|COMPLETED|scavenger|2023-05-10T06:31:37|2023-05-10T06:31:38|00:00:01|dcc-wychem-01|1|1|2G||/hpc/home/smokeauth2-tst|
smokeauth2-tst|COMPLETED|scavenger|2023-05-10T06:31:40|2023-05-10T06:31:41|00:00:01|dcc-wychem-01|1|1|2G||/hpc/home/smokeauth2-tst|
smokeauth2-tst|COMPLETED|scavenger|2023-05-10T06:31:43|2023-05-10T06:31:44|00:00:01|dcc-wychem-01|1|1|2G||/hpc/home/smokeauth2-tst|
smokeauth2-tst|COMPLETED|scavenger|2023-05-10T06:35:35|2023-05-10T06:35:36|00:00:01|dcc-wychem-01|1|1|2G||/hpc/home/smokeauth2-tst|
smokeauth2-tst|COMPLETED|scavenger|2023-05-10T06:35:41|2023-05-10T06:35:42|00:00:01|dcc-wychem-01|1|1|2G||/hpc/home/smokeauth2-tst|
smokeauth2-tst|COMPLETED|scavenger|2023-05-10T06:35:44|2023-05-10T06:35:46|00:00:02|dcc-wychem-01|1|1|2G||/hpc/home/smokeauth2-tst|
smokeauth2-tst|COMPLETED|scavenger|2023-05-10T06:35:50|2023-05-10T06:35:52|00:00:02|dcc-wychem-01|1|1|2G||/hpc/home/smokeauth2-tst|
smokeauth2-tst|COMPLETED|scavenger|2023-05-10T06:35:57|2023-05-10T06:35:58|00:00:01|dcc-wychem-01|1|1|2G||/hpc/home/smokeauth2-tst|
smokeauth2-tst|COMPLETED|scavenger|2023-05-10T06:41:31|2023-05-10T06:41:32|00:00:01|dcc-wychem-01|1|1|2G||/hpc/home/smokeauth2-tst|
smokeauth2-tst|COMPLETED|scavenger|2023-05-10T06:41:34|2023-05-10T06:41:35|00:00:01|dcc-wychem-01|1|1|2G||/hpc/home/smokeauth2-tst|
smokeauth2-tst|COMPLETED|scavenger|2023-05-10T06:41:37|2023-05-10T06:41:38|00:00:01|dcc-wychem-01|1|1|2G||/hpc/home/smokeauth2-tst|
smokeauth2-tst|COMPLETED|scavenger|2023-05-10T06:41:40|2023-05-10T06:41:41|00:00:01|dcc-wychem-01|1|1|2G||/hpc/home/smokeauth2-tst|
smokeauth2-tst|COMPLETED|scavenger|2023-05-10T06:41:43|2023-05-10T06:41:45|00:00:02|dcc-wychem-01|1|1|2G||/hpc/home/smokeauth2-tst|
smokeauth2-tst|COMPLETED|scavenger|2023-05-10T06:45:37|2023-05-10T06:45:39|00:00:02|dcc-wychem-01|1|1|2G||/hpc/home/smokeauth2-tst|
smokeauth2-tst|COMPLETED|scavenger|2023-05-10T06:45:40|2023-05-10T06:45:42|00:00:02|dcc-wychem-01|1|1|2G||/hpc/home/smokeauth2-tst|
smokeauth2-tst|COMPLETED|scavenger|2023-05-10T06:45:44|2023-05-10T06:45:45|00:00:01|dcc-wychem-01|1|1|2G||/hpc/home/smokeauth2-tst|
smokeauth2-tst|COMPLETED|scavenger|2023-05-10T06:45:50|2023-05-10T06:45:51|00:00:01|dcc-wychem-01|1|1|2G||/hpc/home/smokeauth2-tst|
smokeauth2-tst|COMPLETED|scavenger|2023-05-10T06:45:56|2023-05-10T06:45:58|00:00:02|dcc-wychem-01|1|1|2G||/hpc/home/smokeauth2-tst|
smokeauth2-tst|COMPLETED|scavenger|2023-05-10T06:51:29|2023-05-10T06:51:32|00:00:03|dcc-wychem-01|1|1|2G||/hpc/home/smokeauth2-tst|
smokeauth2-tst|COMPLETED|scavenger|2023-05-10T06:51:33|2023-05-10T06:51:34|00:00:01|dcc-wychem-01|1|1|2G||/hpc/home/smokeauth2-tst|
smokeauth2-tst|COMPLETED|scavenger|2023-05-10T06:51:36|2023-05-10T06:51:37|00:00:01|dcc-wychem-01|1|1|2G||/hpc/home/smokeauth2-tst|
smokeauth2-tst|COMPLETED|scavenger|2023-05-10T06:51:39|2023-05-10T06:51:40|00:00:01|dcc-wychem-01|1|1|2G||/hpc/home/smokeauth2-tst|
smokeauth2-tst|COMPLETED|scavenger|2023-05-10T06:51:42|2023-05-10T06:51:44|00:00:02|dcc-wychem-01|1|1|2G||/hpc/home/smokeauth2-tst|
smokeauth2-tst|COMPLETED|scavenger|2023-05-10T06:55:35|2023-05-10T06:55:37|00:00:02|dcc-wychem-01|1|1|2G||/hpc/home/smokeauth2-tst|
smokeauth2-tst|COMPLETED|scavenger|2023-05-10T06:55:41|2023-05-10T06:55:43|00:00:02|dcc-wychem-01|1|1|2G||/hpc/home/smokeauth2-tst|
smokeauth2-tst|COMPLETED|scavenger|2023-05-10T06:55:48|2023-05-10T06:55:49|00:00:01|dcc-wychem-01|1|1|2G||/hpc/home/smokeauth2-tst|
smokeauth2-tst|COMPLETED|scavenger|2023-05-10T06:55:54|2023-05-10T06:55:55|00:00:01|dcc-wychem-01|1|1|2G||/hpc/home/smokeauth2-tst|
smokeauth2-tst|COMPLETED|scavenger|2023-05-10T06:56:00|2023-05-10T06:56:01|00:00:01|dcc-wychem-01|1|1|2G||/hpc/home/smokeauth2-tst|
