pz19|COMPLETED|scavenger|2023-05-10T09:53:22|2023-05-22T13:35:04|12-03:41:42|dcc-adrc-01|1|16|32000M||/work/pz19/Dexter|
pz19|COMPLETED|scavenger|2023-05-15T23:21:42|2023-05-30T14:18:14|14-14:56:32|dcc-fergusonlab-01|1|16|32000M||/work/pz19/Dexter|
jz316|COMPLETED|scavenger|2023-05-17T10:58:19|2023-05-22T04:41:57|4-17:43:38|dcc-carin-25|1|10|31G||/work/jz316/fenhc-pdi/tpssh|
jz316|COMPLETED|scavenger|2023-05-17T10:59:23|2023-05-23T13:56:56|6-02:57:33|dcc-dunsonlab-02|1|10|31G||/work/jz316/fenhc-pdi/mn15l|
ew198|COMPLETED|scavenger|2023-05-17T15:01:57|2023-05-30T13:18:19|12-22:16:22|dcc-youlab-01|1|1|125G||/cifs/hariri-long/Projects/Annchen/Scripts/ArealMSHBM|
ew198|COMPLETED|scavenger|2023-05-17T15:01:57|2023-05-30T13:18:47|12-22:16:50|dcc-wychem-01|1|1|16000M||/cifs/hariri-long/Projects/Annchen/Scripts/ArealMSHBM|
ew198|COMPLETED|scavenger|2023-05-17T15:01:57|2023-05-30T13:18:47|12-22:16:50|dcc-wychem-01|1|1|16000M||/cifs/hariri-long/Projects/Annchen/Scripts/ArealMSHBM|
ew198|COMPLETED|scavenger|2023-05-17T15:01:57|2023-05-30T13:18:47|12-22:16:50|dcc-wychem-01|1|1|16000M||/cifs/hariri-long/Projects/Annchen/Scripts/ArealMSHBM|
ew198|COMPLETED|scavenger|2023-05-17T15:01:57|2023-05-30T13:18:47|12-22:16:50|dcc-wychem-01|1|1|16000M||/cifs/hariri-long/Projects/Annchen/Scripts/ArealMSHBM|
ew198|COMPLETED|scavenger|2023-05-17T15:01:57|2023-05-30T13:18:47|12-22:16:50|dcc-wychem-01|1|1|16000M||/cifs/hariri-long/Projects/Annchen/Scripts/ArealMSHBM|
ew198|COMPLETED|scavenger|2023-05-17T15:01:57|2023-05-30T13:18:47|12-22:16:50|dcc-wychem-01|1|1|16000M||/cifs/hariri-long/Projects/Annchen/Scripts/ArealMSHBM|
ew198|COMPLETED|scavenger|2023-05-17T15:01:57|2023-05-30T13:18:47|12-22:16:50|dcc-wychem-01|1|1|16000M||/cifs/hariri-long/Projects/Annchen/Scripts/ArealMSHBM|
ew198|COMPLETED|scavenger|2023-05-17T15:01:57|2023-05-30T13:18:47|12-22:16:50|dcc-wychem-01|1|1|16000M||/cifs/hariri-long/Projects/Annchen/Scripts/ArealMSHBM|
ew198|COMPLETED|scavenger|2023-05-17T15:01:57|2023-05-30T13:18:47|12-22:16:50|dcc-wychem-01|1|1|16000M||/cifs/hariri-long/Projects/Annchen/Scripts/ArealMSHBM|
ew198|COMPLETED|scavenger|2023-05-17T15:01:58|2023-05-30T13:18:33|12-22:16:35|dcc-tunglab-01|1|1|16000M||/cifs/hariri-long/Projects/Annchen/Scripts/ArealMSHBM|
ew198|COMPLETED|scavenger|2023-05-17T15:01:58|2023-05-30T13:18:33|12-22:16:35|dcc-tunglab-01|1|1|16000M||/cifs/hariri-long/Projects/Annchen/Scripts/ArealMSHBM|
ew198|COMPLETED|scavenger|2023-05-17T15:01:58|2023-05-30T13:18:33|12-22:16:35|dcc-tunglab-01|1|1|16000M||/cifs/hariri-long/Projects/Annchen/Scripts/ArealMSHBM|
ew198|COMPLETED|scavenger|2023-05-17T15:01:58|2023-05-30T13:18:33|12-22:16:35|dcc-tunglab-01|1|1|16000M||/cifs/hariri-long/Projects/Annchen/Scripts/ArealMSHBM|
ew198|COMPLETED|scavenger|2023-05-17T15:01:59|2023-05-30T13:18:33|12-22:16:34|dcc-tunglab-01|1|1|16000M||/cifs/hariri-long/Projects/Annchen/Scripts/ArealMSHBM|
ew198|COMPLETED|scavenger|2023-05-17T15:01:59|2023-05-30T13:18:47|12-22:16:48|dcc-tmolab-02|1|1|16000M||/cifs/hariri-long/Projects/Annchen/Scripts/ArealMSHBM|
ew198|COMPLETED|scavenger|2023-05-17T15:01:59|2023-05-30T13:18:47|12-22:16:48|dcc-tmolab-02|1|1|16000M||/cifs/hariri-long/Projects/Annchen/Scripts/ArealMSHBM|
ew198|COMPLETED|scavenger|2023-05-17T15:01:59|2023-05-30T13:18:47|12-22:16:48|dcc-tmolab-02|1|1|16000M||/cifs/hariri-long/Projects/Annchen/Scripts/ArealMSHBM|
ew198|COMPLETED|scavenger|2023-05-17T15:01:59|2023-05-30T13:18:47|12-22:16:48|dcc-tmolab-02|1|1|16000M||/cifs/hariri-long/Projects/Annchen/Scripts/ArealMSHBM|
ew198|COMPLETED|scavenger|2023-05-17T15:01:59|2023-05-30T13:18:44|12-22:16:45|dcc-tmolab-01|1|1|16000M||/cifs/hariri-long/Projects/Annchen/Scripts/ArealMSHBM|
ew198|COMPLETED|scavenger|2023-05-17T15:01:59|2023-05-30T13:18:44|12-22:16:45|dcc-tmolab-01|1|1|16000M||/cifs/hariri-long/Projects/Annchen/Scripts/ArealMSHBM|
ew198|COMPLETED|scavenger|2023-05-17T15:01:59|2023-05-30T13:18:44|12-22:16:45|dcc-tmolab-01|1|1|16000M||/cifs/hariri-long/Projects/Annchen/Scripts/ArealMSHBM|
ew198|COMPLETED|scavenger|2023-05-17T15:02:00|2023-05-30T13:19:00|12-22:17:00|dcc-statdept-01|1|1|16000M||/cifs/hariri-long/Projects/Annchen/Scripts/ArealMSHBM|
ew198|COMPLETED|scavenger|2023-05-17T15:02:30|2023-05-30T13:19:00|12-22:16:30|dcc-statdept-01|1|1|16000M||/cifs/hariri-long/Projects/Annchen/Scripts/ArealMSHBM|
ew198|COMPLETED|scavenger|2023-05-17T15:02:30|2023-05-30T13:18:35|12-22:16:05|dcc-savageresearch-02|1|1|16000M||/cifs/hariri-long/Projects/Annchen/Scripts/ArealMSHBM|
ew198|COMPLETED|scavenger|2023-05-17T15:02:30|2023-05-30T13:18:35|12-22:16:05|dcc-savageresearch-02|1|1|16000M||/cifs/hariri-long/Projects/Annchen/Scripts/ArealMSHBM|
ew198|COMPLETED|scavenger|2023-05-17T15:02:30|2023-05-30T13:18:35|12-22:16:05|dcc-savageresearch-02|1|1|16000M||/cifs/hariri-long/Projects/Annchen/Scripts/ArealMSHBM|
ew198|COMPLETED|scavenger|2023-05-17T15:02:31|2023-05-30T13:18:35|12-22:16:04|dcc-savageresearch-02|1|1|16000M||/cifs/hariri-long/Projects/Annchen/Scripts/ArealMSHBM|
ew198|COMPLETED|scavenger|2023-05-17T15:02:31|2023-05-30T13:18:35|12-22:16:04|dcc-savageresearch-02|1|1|16000M||/cifs/hariri-long/Projects/Annchen/Scripts/ArealMSHBM|
ew198|COMPLETED|scavenger|2023-05-17T15:02:31|2023-05-30T13:18:35|12-22:16:04|dcc-savageresearch-02|1|1|16000M||/cifs/hariri-long/Projects/Annchen/Scripts/ArealMSHBM|
ew198|COMPLETED|scavenger|2023-05-17T15:02:31|2023-05-30T13:18:35|12-22:16:04|dcc-savageresearch-01|1|1|16000M||/cifs/hariri-long/Projects/Annchen/Scripts/ArealMSHBM|
ew198|COMPLETED|scavenger|2023-05-17T15:02:31|2023-05-30T13:18:35|12-22:16:04|dcc-savageresearch-01|1|1|16000M||/cifs/hariri-long/Projects/Annchen/Scripts/ArealMSHBM|
ew198|COMPLETED|scavenger|2023-05-17T15:02:31|2023-05-30T13:18:35|12-22:16:04|dcc-savageresearch-01|1|1|16000M||/cifs/hariri-long/Projects/Annchen/Scripts/ArealMSHBM|
ew198|COMPLETED|scavenger|2023-05-17T15:02:31|2023-05-30T13:18:52|12-22:16:21|dcc-rausherlab-02|1|1|16000M||/cifs/hariri-long/Projects/Annchen/Scripts/ArealMSHBM|
ew198|COMPLETED|scavenger|2023-05-17T15:02:31|2023-05-30T13:18:42|12-22:16:11|dcc-rausherlab-01|1|1|16000M||/cifs/hariri-long/Projects/Annchen/Scripts/ArealMSHBM|
ew198|COMPLETED|scavenger|2023-05-17T15:02:32|2023-05-30T13:18:42|12-22:16:10|dcc-rausherlab-01|1|1|16000M||/cifs/hariri-long/Projects/Annchen/Scripts/ArealMSHBM|
ew198|COMPLETED|scavenger|2023-05-17T15:02:32|2023-05-30T13:18:44|12-22:16:12|dcc-rausherlab-01|1|1|16000M||/cifs/hariri-long/Projects/Annchen/Scripts/ArealMSHBM|
ew198|COMPLETED|scavenger|2023-05-17T15:02:32|2023-05-30T13:18:44|12-22:16:12|dcc-rausherlab-01|1|1|16000M||/cifs/hariri-long/Projects/Annchen/Scripts/ArealMSHBM|
jo117|COMPLETED|scavenger|2023-05-17T20:09:35|2023-05-19T01:28:09|1-05:18:34|dcc-bragg-01|1|12|120G||/work/jo117/DiaoLab/hicar_v2/human/work/67/535850e5a19c545e3de5c01e54dc5e|
kw297|COMPLETED|scavenger|2023-05-18T17:20:17|2023-05-19T08:40:58|15:20:41|dcc-donglab-01|1|2|8G||/hpc/group/ychenlab/DA|
kw297|COMPLETED|scavenger|2023-05-18T17:20:17|2023-05-19T13:07:52|19:47:35|dcc-donglab-01|1|2|8G||/hpc/group/ychenlab/DA|
kw297|COMPLETED|scavenger|2023-05-18T17:20:17|2023-05-19T13:01:45|19:41:28|dcc-donglab-01|1|2|8G||/hpc/group/ychenlab/DA|
kw297|COMPLETED|scavenger|2023-05-18T17:20:20|2023-05-19T13:05:18|19:44:58|dcc-donglab-01|1|2|8G||/hpc/group/ychenlab/DA|
kw297|COMPLETED|scavenger|2023-05-18T17:20:20|2023-05-19T13:14:36|19:54:16|dcc-donglab-01|1|2|8G||/hpc/group/ychenlab/DA|
kw297|COMPLETED|scavenger|2023-05-18T17:20:20|2023-05-19T14:02:42|20:42:22|dcc-bragg-02|1|2|8G||/hpc/group/ychenlab/DA|
kw297|COMPLETED|scavenger|2023-05-18T17:20:23|2023-05-19T13:21:06|20:00:43|dcc-bragg-02|1|2|8G||/hpc/group/ychenlab/DA|
kw297|COMPLETED|scavenger|2023-05-18T17:20:23|2023-05-19T13:22:22|20:01:59|dcc-bragg-02|1|2|8G||/hpc/group/ychenlab/DA|
kw297|COMPLETED|scavenger|2023-05-18T17:20:23|2023-05-19T12:51:30|19:31:07|dcc-bragg-04|1|2|8G||/hpc/group/ychenlab/DA|
kw297|COMPLETED|scavenger|2023-05-18T17:20:23|2023-05-19T12:50:39|19:30:16|dcc-bragg-04|1|2|8G||/hpc/group/ychenlab/DA|
kw297|COMPLETED|scavenger|2023-05-18T17:20:23|2023-05-19T13:43:36|20:23:13|dcc-bragg-04|1|2|8G||/hpc/group/ychenlab/DA|
kw297|COMPLETED|scavenger|2023-05-18T17:20:23|2023-05-19T13:34:27|20:14:04|dcc-bragg-04|1|2|8G||/hpc/group/ychenlab/DA|
kw297|COMPLETED|scavenger|2023-05-18T17:23:29|2023-05-19T08:35:30|15:12:01|dcc-hulab-01|1|2|8G||/hpc/group/ychenlab/DA|
kw297|COMPLETED|scavenger|2023-05-18T17:23:29|2023-05-19T13:05:57|19:42:28|dcc-hulab-04|1|2|8G||/hpc/group/ychenlab/DA|
kw297|COMPLETED|scavenger|2023-05-18T17:23:29|2023-05-19T09:23:27|15:59:58|dcc-gcb-14|1|2|8G||/hpc/group/ychenlab/DA|
kw297|COMPLETED|scavenger|2023-05-18T17:23:29|2023-05-19T09:52:48|16:29:19|dcc-gcb-15|1|2|8G||/hpc/group/ychenlab/DA|
kw297|COMPLETED|scavenger|2023-05-18T17:23:29|2023-05-19T12:26:02|19:02:33|dcc-bragg-05|1|2|8G||/hpc/group/ychenlab/DA|
kw297|COMPLETED|scavenger|2023-05-18T17:23:29|2023-05-19T12:25:51|19:02:22|dcc-bragg-05|1|2|8G||/hpc/group/ychenlab/DA|
kw297|COMPLETED|scavenger|2023-05-18T17:23:29|2023-05-19T12:16:53|18:53:24|dcc-bragg-05|1|2|8G||/hpc/group/ychenlab/DA|
kw297|COMPLETED|scavenger|2023-05-18T17:23:29|2023-05-19T12:16:47|18:53:18|dcc-bragg-05|1|2|8G||/hpc/group/ychenlab/DA|
kw297|COMPLETED|scavenger|2023-05-18T17:23:32|2023-05-19T14:00:13|20:36:41|dcc-bragg-05|1|2|8G||/hpc/group/ychenlab/DA|
kw297|COMPLETED|scavenger|2023-05-18T17:23:32|2023-05-19T13:53:22|20:29:50|dcc-bragg-05|1|2|8G||/hpc/group/ychenlab/DA|
kw297|COMPLETED|scavenger|2023-05-18T17:23:32|2023-05-19T14:08:27|20:44:55|dcc-bragg-05|1|2|8G||/hpc/group/ychenlab/DA|
kw297|COMPLETED|scavenger|2023-05-18T17:23:32|2023-05-19T11:43:29|18:19:57|dcc-compeb-02|1|2|8G||/hpc/group/ychenlab/DA|
kw297|COMPLETED|scavenger|2023-05-18T17:23:32|2023-05-19T07:59:35|14:36:03|dcc-compeb-03|1|2|8G||/hpc/group/ychenlab/DA|
kw297|COMPLETED|scavenger|2023-05-18T17:23:32|2023-05-19T08:05:16|14:41:44|dcc-compeb-03|1|2|8G||/hpc/group/ychenlab/DA|
kw297|COMPLETED|scavenger|2023-05-18T17:23:32|2023-05-19T12:18:15|18:54:43|dcc-compeb-04|1|2|8G||/hpc/group/ychenlab/DA|
kw297|COMPLETED|scavenger|2023-05-18T17:23:35|2023-05-19T12:00:21|18:36:46|dcc-dailabs-01|1|2|8G||/hpc/group/ychenlab/DA|
kw297|COMPLETED|scavenger|2023-05-18T17:23:35|2023-05-19T15:33:31|22:09:56|dcc-dailabs-02|1|2|8G||/hpc/group/ychenlab/DA|
kw297|COMPLETED|scavenger|2023-05-18T17:23:35|2023-05-19T15:28:07|22:04:32|dcc-dailabs-02|1|2|8G||/hpc/group/ychenlab/DA|
kw297|COMPLETED|scavenger|2023-05-18T17:23:35|2023-05-19T12:28:14|19:04:39|dcc-dailabs-02|1|2|8G||/hpc/group/ychenlab/DA|
kw297|COMPLETED|scavenger|2023-05-18T17:23:38|2023-05-19T12:18:52|18:55:14|dcc-dailabs-03|1|2|8G||/hpc/group/ychenlab/DA|
kw297|COMPLETED|scavenger|2023-05-18T17:23:38|2023-05-19T12:30:47|19:07:09|dcc-dailabs-03|1|2|8G||/hpc/group/ychenlab/DA|
kw297|COMPLETED|scavenger|2023-05-18T17:23:38|2023-05-19T12:33:37|19:09:59|dcc-dailabs-03|1|2|8G||/hpc/group/ychenlab/DA|
kw297|COMPLETED|scavenger|2023-05-18T17:23:38|2023-05-19T11:42:05|18:18:27|dcc-dailabs-04|1|2|8G||/hpc/group/ychenlab/DA|
kw297|COMPLETED|scavenger|2023-05-18T17:23:38|2023-05-19T11:31:46|18:08:08|dcc-dailabs-04|1|2|8G||/hpc/group/ychenlab/DA|
kw297|COMPLETED|scavenger|2023-05-18T17:23:38|2023-05-19T11:46:00|18:22:22|dcc-dailabs-04|1|2|8G||/hpc/group/ychenlab/DA|
kw297|COMPLETED|scavenger|2023-05-18T17:23:38|2023-05-19T11:21:33|17:57:55|dcc-dailabs-05|1|2|8G||/hpc/group/ychenlab/DA|
kw297|COMPLETED|scavenger|2023-05-18T17:23:38|2023-05-19T11:05:57|17:42:19|dcc-dailabs-05|1|2|8G||/hpc/group/ychenlab/DA|
kw297|COMPLETED|scavenger|2023-05-18T17:23:38|2023-05-19T11:07:02|17:43:24|dcc-dailabs-05|1|2|8G||/hpc/group/ychenlab/DA|
kw297|COMPLETED|scavenger|2023-05-18T17:23:38|2023-05-19T12:09:55|18:46:17|dcc-chg-01|1|2|8G||/hpc/group/ychenlab/DA|
kw297|COMPLETED|scavenger|2023-05-18T17:23:39|2023-05-19T12:07:48|18:44:09|dcc-chg-01|1|2|8G||/hpc/group/ychenlab/DA|
kw297|COMPLETED|scavenger|2023-05-18T17:23:39|2023-05-19T16:03:03|22:39:24|dcc-chg-02|1|2|8G||/hpc/group/ychenlab/DA|
kw297|COMPLETED|scavenger|2023-05-18T17:23:39|2023-05-19T15:56:01|22:32:22|dcc-chg-02|1|2|8G||/hpc/group/ychenlab/DA|
kw297|COMPLETED|scavenger|2023-05-18T17:23:39|2023-05-19T16:12:19|22:48:40|dcc-chg-02|1|2|8G||/hpc/group/ychenlab/DA|
kw297|COMPLETED|scavenger|2023-05-18T17:23:39|2023-05-19T15:47:01|22:23:22|dcc-chg-03|1|2|8G||/hpc/group/ychenlab/DA|
kw297|COMPLETED|scavenger|2023-05-18T17:23:39|2023-05-19T12:24:43|19:01:04|dcc-chg-03|1|2|8G||/hpc/group/ychenlab/DA|
kw297|COMPLETED|scavenger|2023-05-18T17:23:39|2023-05-19T12:20:23|18:56:44|dcc-chg-03|1|2|8G||/hpc/group/ychenlab/DA|
kw297|COMPLETED|scavenger|2023-05-18T17:23:41|2023-05-19T12:14:09|18:50:28|dcc-chg-04|1|2|8G||/hpc/group/ychenlab/DA|
kw297|COMPLETED|scavenger|2023-05-18T17:23:42|2023-05-19T12:05:30|18:41:48|dcc-chg-04|1|2|8G||/hpc/group/ychenlab/DA|
hk288|COMPLETED|scavenger|2023-05-18T20:01:11|2023-05-19T02:05:05|06:03:54|dcc-gcb-12|1|32|40G||/hpc/group/mastatlab/hk288/code_paired_ntaxa_bfam|
hk288|COMPLETED|scavenger|2023-05-18T20:06:04|2023-05-19T01:16:14|05:10:10|dcc-dunsonlab-02|1|32|40G||/hpc/group/mastatlab/hk288/code_paired_ntaxa_bfam|
jz317|COMPLETED|scavenger|2023-05-18T23:15:38|2023-05-19T07:14:02|07:58:24|dcc-kirschlab-01|1|48|100G||/work/jz317|
smokeauth2-tst|COMPLETED|scavenger|2023-05-19T01:01:32|2023-05-19T01:01:32|00:00:00|dcc-wychem-01|1|1|2G||/hpc/home/smokeauth2-tst|
smokeauth2-tst|COMPLETED|scavenger|2023-05-19T01:01:34|2023-05-19T01:01:35|00:00:01|dcc-wychem-01|1|1|2G||/hpc/home/smokeauth2-tst|
smokeauth2-tst|COMPLETED|scavenger|2023-05-19T01:01:36|2023-05-19T01:01:37|00:00:01|dcc-wychem-01|1|1|2G||/hpc/home/smokeauth2-tst|
smokeauth2-tst|COMPLETED|scavenger|2023-05-19T01:01:39|2023-05-19T01:01:39|00:00:00|dcc-wychem-01|1|1|2G||/hpc/home/smokeauth2-tst|
smokeauth2-tst|COMPLETED|scavenger|2023-05-19T01:01:41|2023-05-19T01:01:41|00:00:00|dcc-wychem-01|1|1|2G||/hpc/home/smokeauth2-tst|
smokeauth2-tst|COMPLETED|scavenger|2023-05-19T01:11:30|2023-05-19T01:11:31|00:00:01|dcc-wychem-01|1|1|2G||/hpc/home/smokeauth2-tst|
smokeauth2-tst|COMPLETED|scavenger|2023-05-19T01:11:33|2023-05-19T01:11:34|00:00:01|dcc-wychem-01|1|1|2G||/hpc/home/smokeauth2-tst|
smokeauth2-tst|COMPLETED|scavenger|2023-05-19T01:11:37|2023-05-19T01:11:38|00:00:01|dcc-wychem-01|1|1|2G||/hpc/home/smokeauth2-tst|
smokeauth2-tst|COMPLETED|scavenger|2023-05-19T01:11:39|2023-05-19T01:11:40|00:00:01|dcc-wychem-01|1|1|2G||/hpc/home/smokeauth2-tst|
smokeauth2-tst|COMPLETED|scavenger|2023-05-19T01:11:41|2023-05-19T01:11:42|00:00:01|dcc-wychem-01|1|1|2G||/hpc/home/smokeauth2-tst|
smokeauth2-tst|COMPLETED|scavenger|2023-05-19T01:21:30|2023-05-19T01:21:31|00:00:01|dcc-wychem-01|1|1|2G||/hpc/home/smokeauth2-tst|
smokeauth2-tst|COMPLETED|scavenger|2023-05-19T01:21:33|2023-05-19T01:21:33|00:00:00|dcc-wychem-01|1|1|2G||/hpc/home/smokeauth2-tst|
smokeauth2-tst|COMPLETED|scavenger|2023-05-19T01:21:35|2023-05-19T01:21:36|00:00:01|dcc-wychem-01|1|1|2G||/hpc/home/smokeauth2-tst|
smokeauth2-tst|COMPLETED|scavenger|2023-05-19T01:21:37|2023-05-19T01:21:38|00:00:01|dcc-wychem-01|1|1|2G||/hpc/home/smokeauth2-tst|
smokeauth2-tst|COMPLETED|scavenger|2023-05-19T01:21:40|2023-05-19T01:21:40|00:00:00|dcc-wychem-01|1|1|2G||/hpc/home/smokeauth2-tst|
jo117|COMPLETED|scavenger|2023-05-19T01:28:48|2023-05-19T01:29:09|00:00:21|dcc-motesa-01|1|2|12G||/work/jo117/DiaoLab/hicar_v2/human/work/6d/76725b456b5cf3fa000ec7c2101516|
jo117|COMPLETED|scavenger|2023-05-19T01:28:48|2023-05-19T01:28:52|00:00:04|dcc-aryalab-01|1|2|12G||/work/jo117/DiaoLab/hicar_v2/human/work/61/6aa024643e3a75febfdf77dadf25db|
jo117|COMPLETED|scavenger|2023-05-19T01:29:27|2023-05-19T01:29:51|00:00:24|dcc-wychem-01|1|1|6G||/work/jo117/DiaoLab/hicar_v2/human/work/03/0ca3f89bd2621eb097281ca9ae0360|
jo117|COMPLETED|scavenger|2023-05-19T01:29:27|2023-05-19T01:29:50|00:00:23|dcc-wychem-01|1|1|6G||/work/jo117/DiaoLab/hicar_v2/human/work/ec/a704da73f5c85c120b13f38bbdf9aa|
jo117|COMPLETED|scavenger|2023-05-19T01:29:30|2023-05-19T01:29:33|00:00:03|dcc-motesa-01|1|2|12G||/work/jo117/DiaoLab/hicar_v2/human/work/be/37c0910ce00fed45d619623eaf5072|
jo117|COMPLETED|scavenger|2023-05-19T01:29:59|2023-05-19T01:30:44|00:00:45|dcc-pfister-01|1|6|36G||/work/jo117/DiaoLab/hicar_v2/human/work/bd/5a1934677f530cfad1604428e44de2|
jo117|COMPLETED|scavenger|2023-05-19T01:29:59|2023-05-19T01:37:04|00:07:05|dcc-herringlab-01|1|6|36G||/work/jo117/DiaoLab/hicar_v2/human/work/fb/65c9e61d2a1b1bd0084e175ce35d70|
jo117|COMPLETED|scavenger|2023-05-19T01:30:02|2023-05-19T01:30:43|00:00:41|dcc-herringlab-01|1|6|36G||/work/jo117/DiaoLab/hicar_v2/human/work/dc/83142d91a4e92edfa1668f370c0c57|
jo117|COMPLETED|scavenger|2023-05-19T01:30:23|2023-05-19T01:31:14|00:00:51|dcc-bragg-01|1|6|36G||/work/jo117/DiaoLab/hicar_v2/human/work/b3/be7231d41992e09b5d7635b83542cf|
jo117|COMPLETED|scavenger|2023-05-19T01:30:23|2023-05-19T01:31:14|00:00:51|dcc-bragg-01|1|6|36G||/work/jo117/DiaoLab/hicar_v2/human/work/b2/6fee95c0075b5d0023f0b83044e8c8|
jo117|COMPLETED|scavenger|2023-05-19T01:31:12|2023-05-19T01:34:19|00:03:07|dcc-bragg-01|1|6|36G||/work/jo117/DiaoLab/hicar_v2/human/work/fa/a81c0aaa8a2be199ba1dd122f75bd3|
jo117|COMPLETED|scavenger|2023-05-19T01:31:12|2023-05-19T01:32:13|00:01:01|dcc-herringlab-01|1|6|36G||/work/jo117/DiaoLab/hicar_v2/human/work/cc/0413f6c846ee2e561f50eaf73518eb|
smokeauth2-tst|COMPLETED|scavenger|2023-05-19T01:31:30|2023-05-19T01:31:31|00:00:01|dcc-wychem-01|1|1|2G||/hpc/home/smokeauth2-tst|
smokeauth2-tst|COMPLETED|scavenger|2023-05-19T01:31:33|2023-05-19T01:31:33|00:00:00|dcc-wychem-01|1|1|2G||/hpc/home/smokeauth2-tst|
smokeauth2-tst|COMPLETED|scavenger|2023-05-19T01:31:35|2023-05-19T01:31:36|00:00:01|dcc-wychem-01|1|1|2G||/hpc/home/smokeauth2-tst|
jo117|COMPLETED|scavenger|2023-05-19T01:31:37|2023-05-19T01:33:31|00:01:54|dcc-pfister-01|1|6|36G||/work/jo117/DiaoLab/hicar_v2/human/work/17/16038feaa2e2844a755f0489ae8f5f|
smokeauth2-tst|COMPLETED|scavenger|2023-05-19T01:31:37|2023-05-19T01:31:38|00:00:01|dcc-wychem-01|1|1|2G||/hpc/home/smokeauth2-tst|
jo117|COMPLETED|scavenger|2023-05-19T01:31:37|2023-05-19T01:33:19|00:01:42|dcc-bragg-01|1|6|36G||/work/jo117/DiaoLab/hicar_v2/human/work/16/bb03de7693adddcbb0ac335636a5ee|
smokeauth2-tst|COMPLETED|scavenger|2023-05-19T01:31:40|2023-05-19T01:31:40|00:00:00|dcc-wychem-01|1|1|2G||/hpc/home/smokeauth2-tst|
smokeauth2-tst|COMPLETED|scavenger|2023-05-19T01:41:30|2023-05-19T01:41:31|00:00:01|dcc-wychem-01|1|1|2G||/hpc/home/smokeauth2-tst|
smokeauth2-tst|COMPLETED|scavenger|2023-05-19T01:41:33|2023-05-19T01:41:33|00:00:00|dcc-wychem-01|1|1|2G||/hpc/home/smokeauth2-tst|
smokeauth2-tst|COMPLETED|scavenger|2023-05-19T01:41:35|2023-05-19T01:41:36|00:00:01|dcc-wychem-01|1|1|2G||/hpc/home/smokeauth2-tst|
smokeauth2-tst|COMPLETED|scavenger|2023-05-19T01:41:37|2023-05-19T01:41:38|00:00:01|dcc-wychem-01|1|1|2G||/hpc/home/smokeauth2-tst|
smokeauth2-tst|COMPLETED|scavenger|2023-05-19T01:41:40|2023-05-19T01:41:40|00:00:00|dcc-wychem-01|1|1|2G||/hpc/home/smokeauth2-tst|
jo117|COMPLETED|scavenger|2023-05-19T01:51:02|2023-05-19T02:14:33|00:23:31|dcc-bragg-01|1|12|72G||/work/jo117/DiaoLab/hicar_v2/human/work/4c/e9bd124cac1704c547aa4d7a2c9d38|
smokeauth2-tst|COMPLETED|scavenger|2023-05-19T01:51:30|2023-05-19T01:51:30|00:00:00|dcc-wychem-01|1|1|2G||/hpc/home/smokeauth2-tst|
smokeauth2-tst|COMPLETED|scavenger|2023-05-19T01:51:32|2023-05-19T01:51:33|00:00:01|dcc-wychem-01|1|1|2G||/hpc/home/smokeauth2-tst|
smokeauth2-tst|COMPLETED|scavenger|2023-05-19T01:51:34|2023-05-19T01:51:35|00:00:01|dcc-wychem-01|1|1|2G||/hpc/home/smokeauth2-tst|
smokeauth2-tst|COMPLETED|scavenger|2023-05-19T01:51:36|2023-05-19T01:51:37|00:00:01|dcc-wychem-01|1|1|2G||/hpc/home/smokeauth2-tst|
smokeauth2-tst|COMPLETED|scavenger|2023-05-19T01:51:39|2023-05-19T01:51:39|00:00:00|dcc-wychem-01|1|1|2G||/hpc/home/smokeauth2-tst|
jo117|COMPLETED|scavenger|2023-05-19T01:53:28|2023-05-19T02:15:12|00:21:44|dcc-herringlab-01|1|12|72G||/work/jo117/DiaoLab/hicar_v2/human/work/c7/3ad850f0b6fbee6bf9a23c486440cc|
