fjm7|COMPLETED|scavenger|2023-04-23T15:19:04|2023-05-18T23:19:00|25-07:59:56|dcc-noor-02|1|1|2G||/hpc/group/brownlab/fjm7/new-data-collection/slurm-runners|
fjm7|COMPLETED|scavenger|2023-04-23T15:19:04|2023-05-18T23:01:43|25-07:42:39|dcc-noor-02|1|1|2G||/hpc/group/brownlab/fjm7/new-data-collection/slurm-runners|
pz19|COMPLETED|scavenger|2023-05-10T09:53:22|2023-05-22T13:35:04|12-03:41:42|dcc-adrc-01|1|16|32000M||/work/pz19/Dexter|
ark19|COMPLETED|scavenger|2023-05-15T09:58:33|2023-05-18T11:55:34|3-01:57:01|dcc-statdept-01|1|1|125G||/cifs/hariri-long/Projects/Annchen/3Dbrain|
ark19|COMPLETED|scavenger|2023-05-15T09:58:33|2023-05-18T11:55:45|3-01:57:12|dcc-statdept-01|1|1|16000M||/cifs/hariri-long/Projects/Annchen/3Dbrain|
ark19|COMPLETED|scavenger|2023-05-15T09:58:33|2023-05-18T11:55:45|3-01:57:12|dcc-statdept-01|1|1|16000M||/cifs/hariri-long/Projects/Annchen/3Dbrain|
ark19|COMPLETED|scavenger|2023-05-15T09:58:33|2023-05-18T11:55:45|3-01:57:12|dcc-statdept-01|1|1|16000M||/cifs/hariri-long/Projects/Annchen/3Dbrain|
ark19|COMPLETED|scavenger|2023-05-15T09:58:33|2023-05-18T11:55:45|3-01:57:12|dcc-statdept-01|1|1|16000M||/cifs/hariri-long/Projects/Annchen/3Dbrain|
ark19|COMPLETED|scavenger|2023-05-15T09:58:33|2023-05-18T11:55:45|3-01:57:12|dcc-statdept-01|1|1|16000M||/cifs/hariri-long/Projects/Annchen/3Dbrain|
ark19|COMPLETED|scavenger|2023-05-15T09:58:34|2023-05-18T11:55:45|3-01:57:11|dcc-statdept-01|1|1|16000M||/cifs/hariri-long/Projects/Annchen/3Dbrain|
ark19|COMPLETED|scavenger|2023-05-15T09:58:34|2023-05-18T11:55:44|3-01:57:10|dcc-statdept-01|1|1|16000M||/cifs/hariri-long/Projects/Annchen/3Dbrain|
ark19|COMPLETED|scavenger|2023-05-15T09:58:34|2023-05-18T11:55:45|3-01:57:11|dcc-statdept-01|1|1|16000M||/cifs/hariri-long/Projects/Annchen/3Dbrain|
ark19|COMPLETED|scavenger|2023-05-15T09:58:34|2023-05-18T11:55:44|3-01:57:10|dcc-statdept-01|1|1|16000M||/cifs/hariri-long/Projects/Annchen/3Dbrain|
ark19|COMPLETED|scavenger|2023-05-15T09:58:34|2023-05-18T11:55:45|3-01:57:11|dcc-statdept-01|1|1|16000M||/cifs/hariri-long/Projects/Annchen/3Dbrain|
ark19|COMPLETED|scavenger|2023-05-15T09:58:34|2023-05-18T11:55:44|3-01:57:10|dcc-statdept-01|1|1|16000M||/cifs/hariri-long/Projects/Annchen/3Dbrain|
ark19|COMPLETED|scavenger|2023-05-15T09:58:34|2023-05-18T11:55:45|3-01:57:11|dcc-statdept-01|1|1|16000M||/cifs/hariri-long/Projects/Annchen/3Dbrain|
ark19|COMPLETED|scavenger|2023-05-15T09:58:34|2023-05-18T11:55:44|3-01:57:10|dcc-statdept-01|1|1|16000M||/cifs/hariri-long/Projects/Annchen/3Dbrain|
ark19|COMPLETED|scavenger|2023-05-15T09:58:34|2023-05-18T11:55:45|3-01:57:11|dcc-statdept-01|1|1|16000M||/cifs/hariri-long/Projects/Annchen/3Dbrain|
ark19|COMPLETED|scavenger|2023-05-15T09:58:34|2023-05-18T11:55:45|3-01:57:11|dcc-statdept-01|1|1|16000M||/cifs/hariri-long/Projects/Annchen/3Dbrain|
ark19|COMPLETED|scavenger|2023-05-15T09:58:34|2023-05-18T11:55:45|3-01:57:11|dcc-statdept-01|1|1|16000M||/cifs/hariri-long/Projects/Annchen/3Dbrain|
ark19|COMPLETED|scavenger|2023-05-15T09:58:34|2023-05-18T11:55:45|3-01:57:11|dcc-statdept-01|1|1|16000M||/cifs/hariri-long/Projects/Annchen/3Dbrain|
ark19|COMPLETED|scavenger|2023-05-15T09:58:35|2023-05-18T11:56:07|3-01:57:32|dcc-savageresearch-02|1|1|16000M||/cifs/hariri-long/Projects/Annchen/3Dbrain|
ark19|COMPLETED|scavenger|2023-05-15T09:58:35|2023-05-18T11:56:28|3-01:57:53|dcc-savageresearch-01|1|1|16000M||/cifs/hariri-long/Projects/Annchen/3Dbrain|
ark19|COMPLETED|scavenger|2023-05-15T09:58:35|2023-05-18T11:56:28|3-01:57:53|dcc-savageresearch-01|1|1|16000M||/cifs/hariri-long/Projects/Annchen/3Dbrain|
ark19|COMPLETED|scavenger|2023-05-15T09:58:35|2023-05-18T11:56:28|3-01:57:53|dcc-savageresearch-01|1|1|16000M||/cifs/hariri-long/Projects/Annchen/3Dbrain|
ark19|COMPLETED|scavenger|2023-05-15T09:58:35|2023-05-18T11:56:28|3-01:57:53|dcc-savageresearch-01|1|1|16000M||/cifs/hariri-long/Projects/Annchen/3Dbrain|
ark19|COMPLETED|scavenger|2023-05-15T09:58:35|2023-05-18T11:56:28|3-01:57:53|dcc-savageresearch-01|1|1|16000M||/cifs/hariri-long/Projects/Annchen/3Dbrain|
ark19|COMPLETED|scavenger|2023-05-15T09:58:35|2023-05-18T11:56:28|3-01:57:53|dcc-savageresearch-01|1|1|16000M||/cifs/hariri-long/Projects/Annchen/3Dbrain|
ark19|COMPLETED|scavenger|2023-05-15T09:58:35|2023-05-18T11:56:28|3-01:57:53|dcc-savageresearch-01|1|1|16000M||/cifs/hariri-long/Projects/Annchen/3Dbrain|
ark19|COMPLETED|scavenger|2023-05-15T09:58:35|2023-05-18T11:56:30|3-01:57:55|dcc-rausherlab-02|1|1|16000M||/cifs/hariri-long/Projects/Annchen/3Dbrain|
ark19|COMPLETED|scavenger|2023-05-15T09:58:35|2023-05-18T11:56:30|3-01:57:55|dcc-rausherlab-02|1|1|16000M||/cifs/hariri-long/Projects/Annchen/3Dbrain|
ark19|COMPLETED|scavenger|2023-05-15T09:58:35|2023-05-18T11:56:30|3-01:57:55|dcc-rausherlab-02|1|1|16000M||/cifs/hariri-long/Projects/Annchen/3Dbrain|
ark19|COMPLETED|scavenger|2023-05-15T09:58:35|2023-05-18T11:56:30|3-01:57:55|dcc-rausherlab-02|1|1|16000M||/cifs/hariri-long/Projects/Annchen/3Dbrain|
ark19|COMPLETED|scavenger|2023-05-15T09:58:35|2023-05-18T11:56:30|3-01:57:55|dcc-rausherlab-02|1|1|16000M||/cifs/hariri-long/Projects/Annchen/3Dbrain|
ark19|COMPLETED|scavenger|2023-05-15T09:58:37|2023-05-18T11:56:30|3-01:57:53|dcc-rausherlab-02|1|1|16000M||/cifs/hariri-long/Projects/Annchen/3Dbrain|
ark19|COMPLETED|scavenger|2023-05-15T09:58:37|2023-05-18T11:56:07|3-01:57:30|dcc-pfister-01|1|1|16000M||/cifs/hariri-long/Projects/Annchen/3Dbrain|
ark19|COMPLETED|scavenger|2023-05-15T09:58:37|2023-05-18T11:55:51|3-01:57:14|dcc-nsoe-it-01|1|1|16000M||/cifs/hariri-long/Projects/Annchen/3Dbrain|
ark19|COMPLETED|scavenger|2023-05-15T09:58:37|2023-05-18T11:55:51|3-01:57:14|dcc-nsoe-it-01|1|1|16000M||/cifs/hariri-long/Projects/Annchen/3Dbrain|
ark19|COMPLETED|scavenger|2023-05-15T09:58:37|2023-05-18T11:55:51|3-01:57:14|dcc-nsoe-it-01|1|1|16000M||/cifs/hariri-long/Projects/Annchen/3Dbrain|
ark19|COMPLETED|scavenger|2023-05-15T09:58:37|2023-05-18T11:55:51|3-01:57:14|dcc-nsoe-it-01|1|1|16000M||/cifs/hariri-long/Projects/Annchen/3Dbrain|
ark19|COMPLETED|scavenger|2023-05-15T09:58:37|2023-05-18T11:55:51|3-01:57:14|dcc-nsoe-it-01|1|1|16000M||/cifs/hariri-long/Projects/Annchen/3Dbrain|
ark19|COMPLETED|scavenger|2023-05-15T09:58:37|2023-05-18T11:55:51|3-01:57:14|dcc-nsoe-it-01|1|1|16000M||/cifs/hariri-long/Projects/Annchen/3Dbrain|
ark19|COMPLETED|scavenger|2023-05-15T09:58:37|2023-05-18T11:55:52|3-01:57:15|dcc-noor-02|1|1|16000M||/cifs/hariri-long/Projects/Annchen/3Dbrain|
ark19|COMPLETED|scavenger|2023-05-15T09:58:37|2023-05-18T11:55:47|3-01:57:10|dcc-noor-01|1|1|16000M||/cifs/hariri-long/Projects/Annchen/3Dbrain|
ark19|COMPLETED|scavenger|2023-05-15T09:58:37|2023-05-18T11:55:52|3-01:57:15|dcc-nicolab-01|1|1|16000M||/cifs/hariri-long/Projects/Annchen/3Dbrain|
ark19|COMPLETED|scavenger|2023-05-15T09:58:37|2023-05-18T11:56:07|3-01:57:30|dcc-motesa-01|1|1|16000M||/cifs/hariri-long/Projects/Annchen/3Dbrain|
ark19|COMPLETED|scavenger|2023-05-15T09:58:37|2023-05-18T11:56:07|3-01:57:30|dcc-motesa-01|1|1|16000M||/cifs/hariri-long/Projects/Annchen/3Dbrain|
ark19|COMPLETED|scavenger|2023-05-15T09:58:37|2023-05-18T11:56:06|3-01:57:29|dcc-motesa-01|1|1|16000M||/cifs/hariri-long/Projects/Annchen/3Dbrain|
ark19|COMPLETED|scavenger|2023-05-15T09:58:37|2023-05-18T11:56:06|3-01:57:29|dcc-motesa-01|1|1|16000M||/cifs/hariri-long/Projects/Annchen/3Dbrain|
ark19|COMPLETED|scavenger|2023-05-15T09:58:37|2023-05-18T11:56:07|3-01:57:30|dcc-motesa-01|1|1|16000M||/cifs/hariri-long/Projects/Annchen/3Dbrain|
ark19|COMPLETED|scavenger|2023-05-15T09:58:37|2023-05-18T11:56:06|3-01:57:29|dcc-motesa-01|1|1|16000M||/cifs/hariri-long/Projects/Annchen/3Dbrain|
ark19|COMPLETED|scavenger|2023-05-15T09:58:37|2023-05-18T11:56:06|3-01:57:29|dcc-motesa-01|1|1|16000M||/cifs/hariri-long/Projects/Annchen/3Dbrain|
ark19|COMPLETED|scavenger|2023-05-15T09:58:37|2023-05-18T11:56:06|3-01:57:29|dcc-motesa-01|1|1|16000M||/cifs/hariri-long/Projects/Annchen/3Dbrain|
ark19|COMPLETED|scavenger|2023-05-15T09:58:37|2023-05-18T11:56:06|3-01:57:29|dcc-motesa-01|1|1|16000M||/cifs/hariri-long/Projects/Annchen/3Dbrain|
hz215|COMPLETED|scavenger|2023-05-15T15:58:50|2023-05-18T12:24:37|2-20:25:47|dcc-fergusonlab-01|1|8|300G||/hpc/group/jilab/hz/covid|
pz19|COMPLETED|scavenger|2023-05-15T23:21:42|2023-05-30T14:18:14|14-14:56:32|dcc-fergusonlab-01|1|16|32000M||/work/pz19/Dexter|
hk288|COMPLETED|scavenger|2023-05-16T19:29:46|2023-05-18T23:59:34|2-04:29:48|dcc-bragg-03|1|32|40G||/hpc/group/mastatlab/hk288/code_paired_ntaxa_bfam|
jz316|COMPLETED|scavenger|2023-05-17T10:58:19|2023-05-22T04:41:57|4-17:43:38|dcc-carin-25|1|10|31G||/work/jz316/fenhc-pdi/tpssh|
jz316|COMPLETED|scavenger|2023-05-17T10:59:23|2023-05-23T13:56:56|6-02:57:33|dcc-dunsonlab-02|1|10|31G||/work/jz316/fenhc-pdi/mn15l|
sms198|COMPLETED|scavenger|2023-05-17T12:05:34|2023-05-18T05:09:59|17:04:25|dcc-pbenfeylab-02|1|12|144G||/hpc/group/bio1/sskarha/metagenomics_kraken/scripts|
ew198|COMPLETED|scavenger|2023-05-17T15:01:57|2023-05-30T13:18:19|12-22:16:22|dcc-youlab-01|1|1|125G||/cifs/hariri-long/Projects/Annchen/Scripts/ArealMSHBM|
ew198|COMPLETED|scavenger|2023-05-17T15:01:57|2023-05-30T13:18:47|12-22:16:50|dcc-wychem-01|1|1|16000M||/cifs/hariri-long/Projects/Annchen/Scripts/ArealMSHBM|
ew198|COMPLETED|scavenger|2023-05-17T15:01:57|2023-05-30T13:18:47|12-22:16:50|dcc-wychem-01|1|1|16000M||/cifs/hariri-long/Projects/Annchen/Scripts/ArealMSHBM|
ew198|COMPLETED|scavenger|2023-05-17T15:01:57|2023-05-30T13:18:47|12-22:16:50|dcc-wychem-01|1|1|16000M||/cifs/hariri-long/Projects/Annchen/Scripts/ArealMSHBM|
ew198|COMPLETED|scavenger|2023-05-17T15:01:57|2023-05-30T13:18:47|12-22:16:50|dcc-wychem-01|1|1|16000M||/cifs/hariri-long/Projects/Annchen/Scripts/ArealMSHBM|
ew198|COMPLETED|scavenger|2023-05-17T15:01:57|2023-05-30T13:18:47|12-22:16:50|dcc-wychem-01|1|1|16000M||/cifs/hariri-long/Projects/Annchen/Scripts/ArealMSHBM|
ew198|COMPLETED|scavenger|2023-05-17T15:01:57|2023-05-30T13:18:47|12-22:16:50|dcc-wychem-01|1|1|16000M||/cifs/hariri-long/Projects/Annchen/Scripts/ArealMSHBM|
ew198|COMPLETED|scavenger|2023-05-17T15:01:57|2023-05-30T13:18:47|12-22:16:50|dcc-wychem-01|1|1|16000M||/cifs/hariri-long/Projects/Annchen/Scripts/ArealMSHBM|
ew198|COMPLETED|scavenger|2023-05-17T15:01:57|2023-05-30T13:18:47|12-22:16:50|dcc-wychem-01|1|1|16000M||/cifs/hariri-long/Projects/Annchen/Scripts/ArealMSHBM|
ew198|COMPLETED|scavenger|2023-05-17T15:01:57|2023-05-30T13:18:47|12-22:16:50|dcc-wychem-01|1|1|16000M||/cifs/hariri-long/Projects/Annchen/Scripts/ArealMSHBM|
ew198|COMPLETED|scavenger|2023-05-17T15:01:58|2023-05-30T13:18:33|12-22:16:35|dcc-tunglab-01|1|1|16000M||/cifs/hariri-long/Projects/Annchen/Scripts/ArealMSHBM|
ew198|COMPLETED|scavenger|2023-05-17T15:01:58|2023-05-30T13:18:33|12-22:16:35|dcc-tunglab-01|1|1|16000M||/cifs/hariri-long/Projects/Annchen/Scripts/ArealMSHBM|
ew198|COMPLETED|scavenger|2023-05-17T15:01:58|2023-05-30T13:18:33|12-22:16:35|dcc-tunglab-01|1|1|16000M||/cifs/hariri-long/Projects/Annchen/Scripts/ArealMSHBM|
ew198|COMPLETED|scavenger|2023-05-17T15:01:58|2023-05-30T13:18:33|12-22:16:35|dcc-tunglab-01|1|1|16000M||/cifs/hariri-long/Projects/Annchen/Scripts/ArealMSHBM|
ew198|COMPLETED|scavenger|2023-05-17T15:01:59|2023-05-30T13:18:33|12-22:16:34|dcc-tunglab-01|1|1|16000M||/cifs/hariri-long/Projects/Annchen/Scripts/ArealMSHBM|
ew198|COMPLETED|scavenger|2023-05-17T15:01:59|2023-05-30T13:18:47|12-22:16:48|dcc-tmolab-02|1|1|16000M||/cifs/hariri-long/Projects/Annchen/Scripts/ArealMSHBM|
ew198|COMPLETED|scavenger|2023-05-17T15:01:59|2023-05-30T13:18:47|12-22:16:48|dcc-tmolab-02|1|1|16000M||/cifs/hariri-long/Projects/Annchen/Scripts/ArealMSHBM|
ew198|COMPLETED|scavenger|2023-05-17T15:01:59|2023-05-30T13:18:47|12-22:16:48|dcc-tmolab-02|1|1|16000M||/cifs/hariri-long/Projects/Annchen/Scripts/ArealMSHBM|
ew198|COMPLETED|scavenger|2023-05-17T15:01:59|2023-05-30T13:18:47|12-22:16:48|dcc-tmolab-02|1|1|16000M||/cifs/hariri-long/Projects/Annchen/Scripts/ArealMSHBM|
ew198|COMPLETED|scavenger|2023-05-17T15:01:59|2023-05-30T13:18:44|12-22:16:45|dcc-tmolab-01|1|1|16000M||/cifs/hariri-long/Projects/Annchen/Scripts/ArealMSHBM|
ew198|COMPLETED|scavenger|2023-05-17T15:01:59|2023-05-30T13:18:44|12-22:16:45|dcc-tmolab-01|1|1|16000M||/cifs/hariri-long/Projects/Annchen/Scripts/ArealMSHBM|
ew198|COMPLETED|scavenger|2023-05-17T15:01:59|2023-05-30T13:18:44|12-22:16:45|dcc-tmolab-01|1|1|16000M||/cifs/hariri-long/Projects/Annchen/Scripts/ArealMSHBM|
ew198|COMPLETED|scavenger|2023-05-17T15:02:00|2023-05-30T13:19:00|12-22:17:00|dcc-statdept-01|1|1|16000M||/cifs/hariri-long/Projects/Annchen/Scripts/ArealMSHBM|
ew198|COMPLETED|scavenger|2023-05-17T15:02:30|2023-05-30T13:19:00|12-22:16:30|dcc-statdept-01|1|1|16000M||/cifs/hariri-long/Projects/Annchen/Scripts/ArealMSHBM|
ew198|COMPLETED|scavenger|2023-05-17T15:02:30|2023-05-30T13:18:35|12-22:16:05|dcc-savageresearch-02|1|1|16000M||/cifs/hariri-long/Projects/Annchen/Scripts/ArealMSHBM|
ew198|COMPLETED|scavenger|2023-05-17T15:02:30|2023-05-30T13:18:35|12-22:16:05|dcc-savageresearch-02|1|1|16000M||/cifs/hariri-long/Projects/Annchen/Scripts/ArealMSHBM|
ew198|COMPLETED|scavenger|2023-05-17T15:02:30|2023-05-30T13:18:35|12-22:16:05|dcc-savageresearch-02|1|1|16000M||/cifs/hariri-long/Projects/Annchen/Scripts/ArealMSHBM|
ew198|COMPLETED|scavenger|2023-05-17T15:02:31|2023-05-30T13:18:35|12-22:16:04|dcc-savageresearch-02|1|1|16000M||/cifs/hariri-long/Projects/Annchen/Scripts/ArealMSHBM|
ew198|COMPLETED|scavenger|2023-05-17T15:02:31|2023-05-30T13:18:35|12-22:16:04|dcc-savageresearch-02|1|1|16000M||/cifs/hariri-long/Projects/Annchen/Scripts/ArealMSHBM|
ew198|COMPLETED|scavenger|2023-05-17T15:02:31|2023-05-30T13:18:35|12-22:16:04|dcc-savageresearch-02|1|1|16000M||/cifs/hariri-long/Projects/Annchen/Scripts/ArealMSHBM|
ew198|COMPLETED|scavenger|2023-05-17T15:02:31|2023-05-30T13:18:35|12-22:16:04|dcc-savageresearch-01|1|1|16000M||/cifs/hariri-long/Projects/Annchen/Scripts/ArealMSHBM|
ew198|COMPLETED|scavenger|2023-05-17T15:02:31|2023-05-30T13:18:35|12-22:16:04|dcc-savageresearch-01|1|1|16000M||/cifs/hariri-long/Projects/Annchen/Scripts/ArealMSHBM|
ew198|COMPLETED|scavenger|2023-05-17T15:02:31|2023-05-30T13:18:35|12-22:16:04|dcc-savageresearch-01|1|1|16000M||/cifs/hariri-long/Projects/Annchen/Scripts/ArealMSHBM|
ew198|COMPLETED|scavenger|2023-05-17T15:02:31|2023-05-30T13:18:52|12-22:16:21|dcc-rausherlab-02|1|1|16000M||/cifs/hariri-long/Projects/Annchen/Scripts/ArealMSHBM|
ew198|COMPLETED|scavenger|2023-05-17T15:02:31|2023-05-30T13:18:42|12-22:16:11|dcc-rausherlab-01|1|1|16000M||/cifs/hariri-long/Projects/Annchen/Scripts/ArealMSHBM|
ew198|COMPLETED|scavenger|2023-05-17T15:02:32|2023-05-30T13:18:42|12-22:16:10|dcc-rausherlab-01|1|1|16000M||/cifs/hariri-long/Projects/Annchen/Scripts/ArealMSHBM|
ew198|COMPLETED|scavenger|2023-05-17T15:02:32|2023-05-30T13:18:44|12-22:16:12|dcc-rausherlab-01|1|1|16000M||/cifs/hariri-long/Projects/Annchen/Scripts/ArealMSHBM|
ew198|COMPLETED|scavenger|2023-05-17T15:02:32|2023-05-30T13:18:44|12-22:16:12|dcc-rausherlab-01|1|1|16000M||/cifs/hariri-long/Projects/Annchen/Scripts/ArealMSHBM|
jo117|COMPLETED|scavenger|2023-05-17T19:04:45|2023-05-18T04:37:37|09:32:52|dcc-compeb-04|1|12|120G||/work/jo117/DiaoLab/hicar_v2/human/work/ae/08c2c099fcd5f939b47e2c9899f674|
hk288|COMPLETED|scavenger|2023-05-17T19:06:27|2023-05-18T01:14:52|06:08:25|dcc-cagpm-02|1|32|40G||/hpc/group/mastatlab/hk288/code_paired_ntaxa_bfam|
jo117|COMPLETED|scavenger|2023-05-17T19:06:59|2023-05-18T08:36:32|13:29:33|dcc-compeb-01|1|12|120G||/work/jo117/DiaoLab/hicar_v2/human/work/d1/2bfcf2eff27850dfef2b94fde62c3b|
jo117|COMPLETED|scavenger|2023-05-17T20:09:35|2023-05-19T01:28:09|1-05:18:34|dcc-bragg-01|1|12|120G||/work/jo117/DiaoLab/hicar_v2/human/work/67/535850e5a19c545e3de5c01e54dc5e|
jo117|COMPLETED|scavenger|2023-05-17T20:32:46|2023-05-18T14:17:28|17:44:42|dcc-pfister-01|1|12|120G||/work/jo117/DiaoLab/hicar_v2/human/work/a2/74c317473c5df495407853df263df1|
qm16|COMPLETED|scavenger|2023-05-17T22:46:23|2023-05-18T01:32:41|02:46:18|dcc-velmeshevlab-01|1|1|2800M||/hpc/group/barthellab/qm16/MERA_v10_dcc/doQt2θMERA-XXZ_DTs-Mgr3_XX-SE0|
qm16|COMPLETED|scavenger|2023-05-17T22:46:23|2023-05-18T01:40:30|02:54:07|dcc-velmeshevlab-01|1|1|2800M||/hpc/group/barthellab/qm16/MERA_v10_dcc/doQt2θMERA-XXZ_DTs-Mgr3_XX-SE0|
qm16|COMPLETED|scavenger|2023-05-17T22:46:25|2023-05-18T01:25:10|02:38:45|dcc-velmeshevlab-01|1|1|2800M||/hpc/group/barthellab/qm16/MERA_v10_dcc/doQt2θMERA-XXZ_DTs-Mgr3_XX-SE0|
qm16|COMPLETED|scavenger|2023-05-17T22:46:25|2023-05-18T01:41:30|02:55:05|dcc-velmeshevlab-01|1|1|2800M||/hpc/group/barthellab/qm16/MERA_v10_dcc/doQt2θMERA-XXZ_DTs-Mgr3_XX-SE0|
qm16|COMPLETED|scavenger|2023-05-17T22:46:25|2023-05-18T01:07:49|02:21:24|dcc-velmeshevlab-01|1|1|2800M||/hpc/group/barthellab/qm16/MERA_v10_dcc/doQt2θMERA-XXZ_DTs-Mgr3_XX-SE0|
qm16|COMPLETED|scavenger|2023-05-17T22:46:25|2023-05-18T01:02:35|02:16:10|dcc-velmeshevlab-01|1|1|2800M||/hpc/group/barthellab/qm16/MERA_v10_dcc/doQt2θMERA-XXZ_DTs-Mgr3_XX-SE0|
qm16|COMPLETED|scavenger|2023-05-17T22:46:27|2023-05-18T01:42:56|02:56:29|dcc-velmeshevlab-01|1|1|2800M||/hpc/group/barthellab/qm16/MERA_v10_dcc/doQt2θMERA-XXZ_DTs-Mgr3_XX-SE0|
qm16|COMPLETED|scavenger|2023-05-17T22:46:27|2023-05-18T01:36:56|02:50:29|dcc-velmeshevlab-01|1|1|2800M||/hpc/group/barthellab/qm16/MERA_v10_dcc/doQt2θMERA-XXZ_DTs-Mgr3_XX-SE0|
qm16|COMPLETED|scavenger|2023-05-17T22:46:27|2023-05-18T01:40:16|02:53:49|dcc-velmeshevlab-01|1|1|2800M||/hpc/group/barthellab/qm16/MERA_v10_dcc/doQt2θMERA-XXZ_DTs-Mgr3_XX-SE0|
qm16|COMPLETED|scavenger|2023-05-17T22:46:27|2023-05-18T01:43:25|02:56:58|dcc-velmeshevlab-01|1|1|2800M||/hpc/group/barthellab/qm16/MERA_v10_dcc/doQt2θMERA-XXZ_DTs-Mgr3_XX-SE0|
qm16|COMPLETED|scavenger|2023-05-17T22:46:29|2023-05-18T01:04:43|02:18:14|dcc-velmeshevlab-01|1|1|2800M||/hpc/group/barthellab/qm16/MERA_v10_dcc/doQt2θMERA-XXZ_DTs-Mgr3_XX-SE0|
qm16|COMPLETED|scavenger|2023-05-17T22:46:29|2023-05-18T01:44:28|02:57:59|dcc-velmeshevlab-01|1|1|2800M||/hpc/group/barthellab/qm16/MERA_v10_dcc/doQt2θMERA-XXZ_DTs-Mgr3_XX-SE0|
qm16|COMPLETED|scavenger|2023-05-17T22:46:30|2023-05-18T01:04:53|02:18:23|dcc-velmeshevlab-01|1|1|2800M||/hpc/group/barthellab/qm16/MERA_v10_dcc/doQt2θMERA-XXZ_DTs-Mgr3_XX-SE0|
qm16|COMPLETED|scavenger|2023-05-17T22:46:30|2023-05-18T01:50:34|03:04:04|dcc-velmeshevlab-01|1|1|2800M||/hpc/group/barthellab/qm16/MERA_v10_dcc/doQt2θMERA-XXZ_DTs-Mgr3_XX-SE0|
qm16|COMPLETED|scavenger|2023-05-17T22:46:30|2023-05-18T01:41:47|02:55:17|dcc-velmeshevlab-01|1|1|2800M||/hpc/group/barthellab/qm16/MERA_v10_dcc/doQt2θMERA-XXZ_DTs-Mgr3_XX-SE0|
qm16|COMPLETED|scavenger|2023-05-17T22:46:32|2023-05-18T01:43:10|02:56:38|dcc-velmeshevlab-01|1|1|2800M||/hpc/group/barthellab/qm16/MERA_v10_dcc/doQt2θMERA-XXZ_DTs-Mgr3_XX-SE0|
qm16|COMPLETED|scavenger|2023-05-17T22:46:32|2023-05-18T01:45:26|02:58:54|dcc-velmeshevlab-01|1|1|2800M||/hpc/group/barthellab/qm16/MERA_v10_dcc/doQt2θMERA-XXZ_DTs-Mgr3_XX-SE0|
qm16|COMPLETED|scavenger|2023-05-17T22:46:32|2023-05-18T01:46:32|03:00:00|dcc-velmeshevlab-01|1|1|2800M||/hpc/group/barthellab/qm16/MERA_v10_dcc/doQt2θMERA-XXZ_DTs-Mgr3_XX-SE0|
qm16|COMPLETED|scavenger|2023-05-17T22:46:32|2023-05-18T01:45:07|02:58:35|dcc-velmeshevlab-01|1|1|2800M||/hpc/group/barthellab/qm16/MERA_v10_dcc/doQt2θMERA-XXZ_DTs-Mgr3_XX-SE0|
qm16|COMPLETED|scavenger|2023-05-17T22:46:32|2023-05-18T01:51:25|03:04:53|dcc-velmeshevlab-01|1|1|2800M||/hpc/group/barthellab/qm16/MERA_v10_dcc/doQt2θMERA-XXZ_DTs-Mgr3_XX-SE0|
qm16|COMPLETED|scavenger|2023-05-17T22:46:32|2023-05-18T01:36:48|02:50:16|dcc-velmeshevlab-01|1|1|2800M||/hpc/group/barthellab/qm16/MERA_v10_dcc/doQt2θMERA-XXZ_DTs-Mgr3_XX-SE0|
qm16|COMPLETED|scavenger|2023-05-17T22:46:34|2023-05-18T01:47:08|03:00:34|dcc-velmeshevlab-01|1|1|2800M||/hpc/group/barthellab/qm16/MERA_v10_dcc/doQt2θMERA-XXZ_DTs-Mgr3_XX-SE0|
qm16|COMPLETED|scavenger|2023-05-17T22:46:34|2023-05-18T01:02:52|02:16:18|dcc-velmeshevlab-01|1|1|2800M||/hpc/group/barthellab/qm16/MERA_v10_dcc/doQt2θMERA-XXZ_DTs-Mgr3_XX-SE0|
qm16|COMPLETED|scavenger|2023-05-17T22:46:34|2023-05-18T01:44:28|02:57:54|dcc-velmeshevlab-01|1|1|2800M||/hpc/group/barthellab/qm16/MERA_v10_dcc/doQt2θMERA-XXZ_DTs-Mgr3_XX-SE0|
qm16|COMPLETED|scavenger|2023-05-17T22:46:34|2023-05-18T01:38:32|02:51:58|dcc-velmeshevlab-01|1|1|2800M||/hpc/group/barthellab/qm16/MERA_v10_dcc/doQt2θMERA-XXZ_DTs-Mgr3_XX-SE0|
qm16|COMPLETED|scavenger|2023-05-17T22:46:36|2023-05-18T01:40:58|02:54:22|dcc-velmeshevlab-01|1|1|2800M||/hpc/group/barthellab/qm16/MERA_v10_dcc/doQt2θMERA-XXZ_DTs-Mgr3_XX-SE0|
qm16|COMPLETED|scavenger|2023-05-17T22:46:36|2023-05-18T01:22:25|02:35:49|dcc-velmeshevlab-01|1|1|2800M||/hpc/group/barthellab/qm16/MERA_v10_dcc/doQt2θMERA-XXZ_DTs-Mgr3_XX-SE0|
qm16|COMPLETED|scavenger|2023-05-17T22:46:36|2023-05-18T01:07:02|02:20:26|dcc-velmeshevlab-01|1|1|2800M||/hpc/group/barthellab/qm16/MERA_v10_dcc/doQt2θMERA-XXZ_DTs-Mgr3_XX-SE0|
qm16|COMPLETED|scavenger|2023-05-17T22:46:36|2023-05-18T01:06:42|02:20:06|dcc-velmeshevlab-01|1|1|2800M||/hpc/group/barthellab/qm16/MERA_v10_dcc/doQt2θMERA-XXZ_DTs-Mgr3_XX-SE0|
qm16|COMPLETED|scavenger|2023-05-17T22:46:38|2023-05-18T01:35:44|02:49:06|dcc-velmeshevlab-01|1|1|2800M||/hpc/group/barthellab/qm16/MERA_v10_dcc/doQt2θMERA-XXZ_DTs-Mgr3_XX-SE0|
qm16|COMPLETED|scavenger|2023-05-17T22:46:38|2023-05-18T01:02:48|02:16:10|dcc-velmeshevlab-01|1|1|2800M||/hpc/group/barthellab/qm16/MERA_v10_dcc/doQt2θMERA-XXZ_DTs-Mgr3_XX-SE0|
qm16|COMPLETED|scavenger|2023-05-17T22:46:38|2023-05-18T01:04:17|02:17:39|dcc-velmeshevlab-01|1|1|2800M||/hpc/group/barthellab/qm16/MERA_v10_dcc/doQt2θMERA-XXZ_DTs-Mgr3_XX-SE0|
qm16|COMPLETED|scavenger|2023-05-17T22:46:38|2023-05-18T01:40:50|02:54:12|dcc-velmeshevlab-01|1|1|2800M||/hpc/group/barthellab/qm16/MERA_v10_dcc/doQt2θMERA-XXZ_DTs-Mgr3_XX-SE0|
qm16|COMPLETED|scavenger|2023-05-17T22:46:38|2023-05-18T01:34:18|02:47:40|dcc-velmeshevlab-01|1|1|2800M||/hpc/group/barthellab/qm16/MERA_v10_dcc/doQt2θMERA-XXZ_DTs-Mgr3_XX-SE0|
qm16|COMPLETED|scavenger|2023-05-17T22:46:40|2023-05-18T01:36:46|02:50:06|dcc-velmeshevlab-01|1|1|2800M||/hpc/group/barthellab/qm16/MERA_v10_dcc/doQt2θMERA-XXZ_DTs-Mgr3_XX-SE0|
qm16|COMPLETED|scavenger|2023-05-17T22:46:40|2023-05-18T01:42:21|02:55:41|dcc-velmeshevlab-01|1|1|2800M||/hpc/group/barthellab/qm16/MERA_v10_dcc/doQt2θMERA-XXZ_DTs-Mgr3_XX-SE0|
qm16|COMPLETED|scavenger|2023-05-17T22:46:41|2023-05-18T01:37:34|02:50:53|dcc-velmeshevlab-01|1|1|2800M||/hpc/group/barthellab/qm16/MERA_v10_dcc/doQt2θMERA-XXZ_DTs-Mgr3_XX-SE0|
qm16|COMPLETED|scavenger|2023-05-17T22:46:41|2023-05-18T01:01:26|02:14:45|dcc-velmeshevlab-01|1|1|2800M||/hpc/group/barthellab/qm16/MERA_v10_dcc/doQt2θMERA-XXZ_DTs-Mgr3_XX-SE0|
qm16|COMPLETED|scavenger|2023-05-17T22:46:43|2023-05-18T01:39:29|02:52:46|dcc-velmeshevlab-01|1|1|2800M||/hpc/group/barthellab/qm16/MERA_v10_dcc/doQt2θMERA-XXZ_DTs-Mgr3_XX-SE0|
qm16|COMPLETED|scavenger|2023-05-17T22:46:43|2023-05-18T01:32:01|02:45:18|dcc-velmeshevlab-01|1|1|2800M||/hpc/group/barthellab/qm16/MERA_v10_dcc/doQt2θMERA-XXZ_DTs-Mgr3_XX-SE0|
qm16|COMPLETED|scavenger|2023-05-17T22:46:43|2023-05-18T01:33:40|02:46:57|dcc-velmeshevlab-01|1|1|2800M||/hpc/group/barthellab/qm16/MERA_v10_dcc/doQt2θMERA-XXZ_DTs-Mgr3_XX-SE0|
qm16|COMPLETED|scavenger|2023-05-17T22:46:43|2023-05-18T01:16:08|02:29:25|dcc-velmeshevlab-01|1|1|2800M||/hpc/group/barthellab/qm16/MERA_v10_dcc/doQt2θMERA-XXZ_DTs-Mgr3_XX-SE0|
qm16|COMPLETED|scavenger|2023-05-17T22:46:45|2023-05-18T01:04:51|02:18:06|dcc-velmeshevlab-01|1|1|2800M||/hpc/group/barthellab/qm16/MERA_v10_dcc/doQt2θMERA-XXZ_DTs-Mgr3_XX-SE0|
qm16|COMPLETED|scavenger|2023-05-17T22:46:45|2023-05-18T01:39:47|02:53:02|dcc-velmeshevlab-01|1|1|2800M||/hpc/group/barthellab/qm16/MERA_v10_dcc/doQt2θMERA-XXZ_DTs-Mgr3_XX-SE0|
qm16|COMPLETED|scavenger|2023-05-17T22:46:47|2023-05-18T01:00:49|02:14:02|dcc-velmeshevlab-01|1|1|2800M||/hpc/group/barthellab/qm16/MERA_v10_dcc/doQt2θMERA-XXZ_DTs-Mgr3_XX-SE0|
qm16|COMPLETED|scavenger|2023-05-17T22:46:47|2023-05-18T01:03:00|02:16:13|dcc-velmeshevlab-01|1|1|2800M||/hpc/group/barthellab/qm16/MERA_v10_dcc/doQt2θMERA-XXZ_DTs-Mgr3_XX-SE0|
qm16|COMPLETED|scavenger|2023-05-17T22:46:47|2023-05-18T01:41:37|02:54:50|dcc-velmeshevlab-01|1|1|2800M||/hpc/group/barthellab/qm16/MERA_v10_dcc/doQt2θMERA-XXZ_DTs-Mgr3_XX-SE0|
qm16|COMPLETED|scavenger|2023-05-17T22:46:47|2023-05-18T01:31:31|02:44:44|dcc-velmeshevlab-01|1|1|2800M||/hpc/group/barthellab/qm16/MERA_v10_dcc/doQt2θMERA-XXZ_DTs-Mgr3_XX-SE0|
qm16|COMPLETED|scavenger|2023-05-17T22:46:49|2023-05-18T01:05:05|02:18:16|dcc-velmeshevlab-01|1|1|2800M||/hpc/group/barthellab/qm16/MERA_v10_dcc/doQt2θMERA-XXZ_DTs-Mgr3_XX-SE0|
qm16|COMPLETED|scavenger|2023-05-17T22:46:49|2023-05-18T01:37:32|02:50:43|dcc-velmeshevlab-01|1|1|2800M||/hpc/group/barthellab/qm16/MERA_v10_dcc/doQt2θMERA-XXZ_DTs-Mgr3_XX-SE0|
qm16|COMPLETED|scavenger|2023-05-17T22:46:49|2023-05-18T01:18:14|02:31:25|dcc-velmeshevlab-01|1|1|2800M||/hpc/group/barthellab/qm16/MERA_v10_dcc/doQt2θMERA-XXZ_DTs-Mgr3_XX-SE0|
qm16|COMPLETED|scavenger|2023-05-17T22:46:52|2023-05-18T01:02:21|02:15:29|dcc-velmeshevlab-01|1|1|2800M||/hpc/group/barthellab/qm16/MERA_v10_dcc/doQt2θMERA-XXZ_DTs-Mgr3_XX-SE0|
qm16|COMPLETED|scavenger|2023-05-17T22:46:52|2023-05-18T01:39:38|02:52:46|dcc-velmeshevlab-01|1|1|2800M||/hpc/group/barthellab/qm16/MERA_v10_dcc/doQt2θMERA-XXZ_DTs-Mgr3_XX-SE0|
qm16|COMPLETED|scavenger|2023-05-17T22:46:52|2023-05-18T01:38:57|02:52:05|dcc-velmeshevlab-01|1|1|2800M||/hpc/group/barthellab/qm16/MERA_v10_dcc/doQt2θMERA-XXZ_DTs-Mgr3_XX-SE0|
qm16|COMPLETED|scavenger|2023-05-17T22:48:10|2023-05-18T01:07:44|02:19:34|dcc-pbenfeylab-02|1|1|2800M||/hpc/group/barthellab/qm16/MERA_v10_dcc/doQt2θMERA-XXZ_DTs-Mgr3_XX-SE0|
qm16|COMPLETED|scavenger|2023-05-17T22:48:13|2023-05-18T01:12:42|02:24:29|dcc-pbenfeylab-02|1|1|2800M||/hpc/group/barthellab/qm16/MERA_v10_dcc/doQt2θMERA-XXZ_DTs-Mgr3_XX-SE0|
qm16|COMPLETED|scavenger|2023-05-17T22:48:13|2023-05-18T01:11:07|02:22:54|dcc-pbenfeylab-02|1|1|2800M||/hpc/group/barthellab/qm16/MERA_v10_dcc/doQt2θMERA-XXZ_DTs-Mgr3_XX-SE0|
qm16|COMPLETED|scavenger|2023-05-17T22:48:13|2023-05-18T01:17:08|02:28:55|dcc-pbenfeylab-02|1|1|2800M||/hpc/group/barthellab/qm16/MERA_v10_dcc/doQt2θMERA-XXZ_DTs-Mgr3_XX-SE0|
qm16|COMPLETED|scavenger|2023-05-17T22:48:15|2023-05-18T01:14:18|02:26:03|dcc-pbenfeylab-02|1|1|2800M||/hpc/group/barthellab/qm16/MERA_v10_dcc/doQt2θMERA-XXZ_DTs-Mgr3_XX-SE0|
qm16|COMPLETED|scavenger|2023-05-17T22:48:15|2023-05-18T01:16:41|02:28:26|dcc-pbenfeylab-02|1|1|2800M||/hpc/group/barthellab/qm16/MERA_v10_dcc/doQt2θMERA-XXZ_DTs-Mgr3_XX-SE0|
qm16|COMPLETED|scavenger|2023-05-17T22:48:15|2023-05-18T01:17:14|02:28:59|dcc-pbenfeylab-02|1|1|2800M||/hpc/group/barthellab/qm16/MERA_v10_dcc/doQt2θMERA-XXZ_DTs-Mgr3_XX-SE0|
qm16|COMPLETED|scavenger|2023-05-17T22:48:15|2023-05-18T01:21:07|02:32:52|dcc-pbenfeylab-02|1|1|2800M||/hpc/group/barthellab/qm16/MERA_v10_dcc/doQt2θMERA-XXZ_DTs-Mgr3_XX-SE0|
qm16|COMPLETED|scavenger|2023-05-17T22:48:16|2023-05-18T01:17:19|02:29:03|dcc-pbenfeylab-02|1|1|2800M||/hpc/group/barthellab/qm16/MERA_v10_dcc/doQt2θMERA-XXZ_DTs-Mgr3_XX-SE0|
qm16|COMPLETED|scavenger|2023-05-17T22:48:17|2023-05-18T01:20:17|02:32:00|dcc-pbenfeylab-02|1|1|2800M||/hpc/group/barthellab/qm16/MERA_v10_dcc/doQt2θMERA-XXZ_DTs-Mgr3_XX-SE0|
qm16|COMPLETED|scavenger|2023-05-17T22:48:19|2023-05-18T01:16:19|02:28:00|dcc-pbenfeylab-02|1|1|2800M||/hpc/group/barthellab/qm16/MERA_v10_dcc/doQt2θMERA-XXZ_DTs-Mgr3_XX-SE0|
qm16|COMPLETED|scavenger|2023-05-17T22:48:19|2023-05-18T01:19:51|02:31:32|dcc-pbenfeylab-02|1|1|2800M||/hpc/group/barthellab/qm16/MERA_v10_dcc/doQt2θMERA-XXZ_DTs-Mgr3_XX-SE0|
qm16|COMPLETED|scavenger|2023-05-17T22:48:19|2023-05-18T01:15:35|02:27:16|dcc-pbenfeylab-02|1|1|2800M||/hpc/group/barthellab/qm16/MERA_v10_dcc/doQt2θMERA-XXZ_DTs-Mgr3_XX-SE0|
qm16|COMPLETED|scavenger|2023-05-17T22:48:19|2023-05-18T01:24:34|02:36:15|dcc-pbenfeylab-02|1|1|2800M||/hpc/group/barthellab/qm16/MERA_v10_dcc/doQt2θMERA-XXZ_DTs-Mgr3_XX-SE0|
qm16|COMPLETED|scavenger|2023-05-17T22:48:24|2023-05-18T01:18:19|02:29:55|dcc-pbenfeylab-02|1|1|2800M||/hpc/group/barthellab/qm16/MERA_v10_dcc/doQt2θMERA-XXZ_DTs-Mgr3_XX-SE0|
qm16|COMPLETED|scavenger|2023-05-17T22:48:24|2023-05-18T01:26:50|02:38:26|dcc-pbenfeylab-02|1|1|2800M||/hpc/group/barthellab/qm16/MERA_v10_dcc/doQt2θMERA-XXZ_DTs-Mgr3_XX-SE0|
qm16|COMPLETED|scavenger|2023-05-17T22:48:26|2023-05-18T01:24:41|02:36:15|dcc-pbenfeylab-02|1|1|2800M||/hpc/group/barthellab/qm16/MERA_v10_dcc/doQt2θMERA-XXZ_DTs-Mgr3_XX-SE0|
qm16|COMPLETED|scavenger|2023-05-17T22:48:26|2023-05-18T01:23:13|02:34:47|dcc-pbenfeylab-02|1|1|2800M||/hpc/group/barthellab/qm16/MERA_v10_dcc/doQt2θMERA-XXZ_DTs-Mgr3_XX-SE0|
qm16|COMPLETED|scavenger|2023-05-17T22:48:26|2023-05-18T01:23:16|02:34:50|dcc-pbenfeylab-02|1|1|2800M||/hpc/group/barthellab/qm16/MERA_v10_dcc/doQt2θMERA-XXZ_DTs-Mgr3_XX-SE0|
qm16|COMPLETED|scavenger|2023-05-17T22:48:29|2023-05-18T01:17:26|02:28:57|dcc-pbenfeylab-02|1|1|2800M||/hpc/group/barthellab/qm16/MERA_v10_dcc/doQt2θMERA-XXZ_DTs-Mgr3_XX-SE0|
qm16|COMPLETED|scavenger|2023-05-17T22:48:29|2023-05-18T01:12:22|02:23:53|dcc-pbenfeylab-02|1|1|2800M||/hpc/group/barthellab/qm16/MERA_v10_dcc/doQt2θMERA-XXZ_DTs-Mgr3_XX-SE0|
qm16|COMPLETED|scavenger|2023-05-17T23:05:54|2023-05-18T01:28:05|02:22:11|dcc-pbenfeylab-02|1|1|2800M||/hpc/group/barthellab/qm16/MERA_v10_dcc/doQt2θMERA-XXZ_DTs-Mgr3_XX-SE0|
qm16|COMPLETED|scavenger|2023-05-17T23:05:57|2023-05-18T01:28:05|02:22:08|dcc-pbenfeylab-02|1|1|2800M||/hpc/group/barthellab/qm16/MERA_v10_dcc/doQt2θMERA-XXZ_DTs-Mgr3_XX-SE0|
qm16|COMPLETED|scavenger|2023-05-17T23:05:57|2023-05-18T01:38:38|02:32:41|dcc-pbenfeylab-02|1|1|2800M||/hpc/group/barthellab/qm16/MERA_v10_dcc/doQt2θMERA-XXZ_DTs-Mgr3_XX-SE0|
qm16|COMPLETED|scavenger|2023-05-17T23:05:57|2023-05-18T01:36:58|02:31:01|dcc-pbenfeylab-02|1|1|2800M||/hpc/group/barthellab/qm16/MERA_v10_dcc/doQt2θMERA-XXZ_DTs-Mgr3_XX-SE0|
qm16|COMPLETED|scavenger|2023-05-17T23:05:59|2023-05-18T01:32:52|02:26:53|dcc-pbenfeylab-02|1|1|2800M||/hpc/group/barthellab/qm16/MERA_v10_dcc/doQt2θMERA-XXZ_DTs-Mgr3_XX-SE0|
qm16|COMPLETED|scavenger|2023-05-17T23:05:59|2023-05-18T01:24:46|02:18:47|dcc-pbenfeylab-02|1|1|2800M||/hpc/group/barthellab/qm16/MERA_v10_dcc/doQt2θMERA-XXZ_DTs-Mgr3_XX-SE0|
qm16|COMPLETED|scavenger|2023-05-17T23:05:59|2023-05-18T01:38:57|02:32:58|dcc-pbenfeylab-02|1|1|2800M||/hpc/group/barthellab/qm16/MERA_v10_dcc/doQt2θMERA-XXZ_DTs-Mgr3_XX-SE0|
qm16|COMPLETED|scavenger|2023-05-17T23:05:59|2023-05-18T01:32:07|02:26:08|dcc-pbenfeylab-02|1|1|2800M||/hpc/group/barthellab/qm16/MERA_v10_dcc/doQt2θMERA-XXZ_DTs-Mgr3_XX-SE0|
qm16|COMPLETED|scavenger|2023-05-17T23:06:01|2023-05-18T01:25:00|02:18:59|dcc-pbenfeylab-02|1|1|2800M||/hpc/group/barthellab/qm16/MERA_v10_dcc/doQt2θMERA-XXZ_DTs-Mgr3_XX-SE0|
qm16|COMPLETED|scavenger|2023-05-17T23:06:01|2023-05-18T01:35:26|02:29:25|dcc-pbenfeylab-02|1|1|2800M||/hpc/group/barthellab/qm16/MERA_v10_dcc/doQt2θMERA-XXZ_DTs-Mgr3_XX-SE0|
qm16|COMPLETED|scavenger|2023-05-17T23:06:01|2023-05-18T01:26:39|02:20:38|dcc-pbenfeylab-02|1|1|2800M||/hpc/group/barthellab/qm16/MERA_v10_dcc/doQt2θMERA-XXZ_DTs-Mgr3_XX-SE0|
qm16|COMPLETED|scavenger|2023-05-17T23:06:04|2023-05-18T01:29:03|02:22:59|dcc-pbenfeylab-02|1|1|2800M||/hpc/group/barthellab/qm16/MERA_v10_dcc/doQt2θMERA-XXZ_DTs-Mgr3_XX-SE0|
qm16|COMPLETED|scavenger|2023-05-17T23:06:04|2023-05-18T01:30:06|02:24:02|dcc-pbenfeylab-02|1|1|2800M||/hpc/group/barthellab/qm16/MERA_v10_dcc/doQt2θMERA-XXZ_DTs-Mgr3_XX-SE0|
qm16|COMPLETED|scavenger|2023-05-17T23:06:06|2023-05-18T01:39:26|02:33:20|dcc-pbenfeylab-02|1|1|2800M||/hpc/group/barthellab/qm16/MERA_v10_dcc/doQt2θMERA-XXZ_DTs-Mgr3_XX-SE0|
qm16|COMPLETED|scavenger|2023-05-17T23:06:06|2023-05-18T01:26:35|02:20:29|dcc-pbenfeylab-02|1|1|2800M||/hpc/group/barthellab/qm16/MERA_v10_dcc/doQt2θMERA-XXZ_DTs-Mgr3_XX-SE0|
qm16|COMPLETED|scavenger|2023-05-17T23:06:06|2023-05-18T01:33:36|02:27:30|dcc-pbenfeylab-02|1|1|2800M||/hpc/group/barthellab/qm16/MERA_v10_dcc/doQt2θMERA-XXZ_DTs-Mgr3_XX-SE0|
qm16|COMPLETED|scavenger|2023-05-17T23:06:06|2023-05-18T01:35:23|02:29:17|dcc-pbenfeylab-02|1|1|2800M||/hpc/group/barthellab/qm16/MERA_v10_dcc/doQt2θMERA-XXZ_DTs-Mgr3_XX-SE0|
qm16|COMPLETED|scavenger|2023-05-17T23:06:09|2023-05-18T01:33:28|02:27:19|dcc-pbenfeylab-02|1|1|2800M||/hpc/group/barthellab/qm16/MERA_v10_dcc/doQt2θMERA-XXZ_DTs-Mgr3_XX-SE0|
qm16|COMPLETED|scavenger|2023-05-17T23:06:09|2023-05-18T01:27:40|02:21:31|dcc-pbenfeylab-02|1|1|2800M||/hpc/group/barthellab/qm16/MERA_v10_dcc/doQt2θMERA-XXZ_DTs-Mgr3_XX-SE0|
qm16|COMPLETED|scavenger|2023-05-17T23:06:09|2023-05-18T01:25:34|02:19:25|dcc-pbenfeylab-02|1|1|2800M||/hpc/group/barthellab/qm16/MERA_v10_dcc/doQt2θMERA-XXZ_DTs-Mgr3_XX-SE0|
qm16|COMPLETED|scavenger|2023-05-17T23:06:09|2023-05-18T01:06:43|02:00:34|dcc-pbenfeylab-01|1|1|2800M||/hpc/group/barthellab/qm16/MERA_v10_dcc/doQt2θMERA-XXZ_DTs-Mgr3_XX-SE0|
qm16|COMPLETED|scavenger|2023-05-17T23:06:09|2023-05-18T01:04:03|01:57:54|dcc-pbenfeylab-01|1|1|2800M||/hpc/group/barthellab/qm16/MERA_v10_dcc/doQt2θMERA-XXZ_DTs-Mgr3_XX-SE0|
qm16|COMPLETED|scavenger|2023-05-17T23:06:11|2023-05-18T01:08:24|02:02:13|dcc-pbenfeylab-01|1|1|2800M||/hpc/group/barthellab/qm16/MERA_v10_dcc/doQt2θMERA-XXZ_DTs-Mgr3_XX-SE0|
qm16|COMPLETED|scavenger|2023-05-17T23:06:13|2023-05-18T01:07:07|02:00:54|dcc-pbenfeylab-01|1|1|2800M||/hpc/group/barthellab/qm16/MERA_v10_dcc/doQt2θMERA-XXZ_DTs-Mgr3_XX-SE0|
qm16|COMPLETED|scavenger|2023-05-17T23:06:13|2023-05-18T01:13:47|02:07:34|dcc-pbenfeylab-01|1|1|2800M||/hpc/group/barthellab/qm16/MERA_v10_dcc/doQt2θMERA-XXZ_DTs-Mgr3_XX-SE0|
qm16|COMPLETED|scavenger|2023-05-17T23:06:16|2023-05-18T01:15:56|02:09:40|dcc-pbenfeylab-01|1|1|2800M||/hpc/group/barthellab/qm16/MERA_v10_dcc/doQt2θMERA-XXZ_DTs-Mgr3_XX-SE0|
qm16|COMPLETED|scavenger|2023-05-17T23:06:16|2023-05-18T01:12:35|02:06:19|dcc-pbenfeylab-01|1|1|2800M||/hpc/group/barthellab/qm16/MERA_v10_dcc/doQt2θMERA-XXZ_DTs-Mgr3_XX-SE0|
qm16|COMPLETED|scavenger|2023-05-17T23:06:18|2023-05-18T01:13:50|02:07:32|dcc-pbenfeylab-01|1|1|2800M||/hpc/group/barthellab/qm16/MERA_v10_dcc/doQt2θMERA-XXZ_DTs-Mgr3_XX-SE0|
qm16|COMPLETED|scavenger|2023-05-17T23:06:18|2023-05-18T01:12:56|02:06:38|dcc-pbenfeylab-01|1|1|2800M||/hpc/group/barthellab/qm16/MERA_v10_dcc/doQt2θMERA-XXZ_DTs-Mgr3_XX-SE0|
qm16|COMPLETED|scavenger|2023-05-17T23:06:20|2023-05-18T01:09:22|02:03:02|dcc-pbenfeylab-01|1|1|2800M||/hpc/group/barthellab/qm16/MERA_v10_dcc/doQt2θMERA-XXZ_DTs-Mgr3_XX-SE0|
qm16|COMPLETED|scavenger|2023-05-17T23:06:20|2023-05-18T01:19:21|02:13:01|dcc-pbenfeylab-01|1|1|2800M||/hpc/group/barthellab/qm16/MERA_v10_dcc/doQt2θMERA-XXZ_DTs-Mgr3_XX-SE0|
qm16|COMPLETED|scavenger|2023-05-17T23:06:20|2023-05-18T01:06:53|02:00:33|dcc-pbenfeylab-01|1|1|2800M||/hpc/group/barthellab/qm16/MERA_v10_dcc/doQt2θMERA-XXZ_DTs-Mgr3_XX-SE0|
qm16|COMPLETED|scavenger|2023-05-17T23:06:23|2023-05-18T01:20:49|02:14:26|dcc-pbenfeylab-01|1|1|2800M||/hpc/group/barthellab/qm16/MERA_v10_dcc/doQt2θMERA-XXZ_DTs-Mgr3_XX-SE0|
qm16|COMPLETED|scavenger|2023-05-17T23:06:26|2023-05-18T01:16:43|02:10:17|dcc-pbenfeylab-01|1|1|2800M||/hpc/group/barthellab/qm16/MERA_v10_dcc/doQt2θMERA-XXZ_DTs-Mgr3_XX-SE0|
qm16|COMPLETED|scavenger|2023-05-17T23:06:26|2023-05-18T01:21:23|02:14:57|dcc-pbenfeylab-01|1|1|2800M||/hpc/group/barthellab/qm16/MERA_v10_dcc/doQt2θMERA-XXZ_DTs-Mgr3_XX-SE0|
qm16|COMPLETED|scavenger|2023-05-17T23:06:26|2023-05-18T01:08:28|02:02:02|dcc-pbenfeylab-01|1|1|2800M||/hpc/group/barthellab/qm16/MERA_v10_dcc/doQt2θMERA-XXZ_DTs-Mgr3_XX-SE0|
qm16|COMPLETED|scavenger|2023-05-17T23:06:31|2023-05-18T01:03:00|01:56:29|dcc-pbenfeylab-01|1|1|2800M||/hpc/group/barthellab/qm16/MERA_v10_dcc/doQt2θMERA-XXZ_DTs-Mgr3_XX-SE0|
qm16|COMPLETED|scavenger|2023-05-17T23:06:35|2023-05-18T01:03:22|01:56:47|dcc-pbenfeylab-01|1|1|2800M||/hpc/group/barthellab/qm16/MERA_v10_dcc/doQt2θMERA-XXZ_DTs-Mgr3_XX-SE0|
qm16|COMPLETED|scavenger|2023-05-17T23:06:35|2023-05-18T01:02:57|01:56:22|dcc-pbenfeylab-01|1|1|2800M||/hpc/group/barthellab/qm16/MERA_v10_dcc/doQt2θMERA-XXZ_DTs-Mgr3_XX-SE0|
smokeauth2-tst|COMPLETED|scavenger|2023-05-18T01:01:30|2023-05-18T01:01:30|00:00:00|dcc-wychem-01|1|1|2G||/hpc/home/smokeauth2-tst|
smokeauth2-tst|COMPLETED|scavenger|2023-05-18T01:01:32|2023-05-18T01:01:32|00:00:00|dcc-wychem-01|1|1|2G||/hpc/home/smokeauth2-tst|
smokeauth2-tst|COMPLETED|scavenger|2023-05-18T01:01:34|2023-05-18T01:01:34|00:00:00|dcc-wychem-01|1|1|2G||/hpc/home/smokeauth2-tst|
smokeauth2-tst|COMPLETED|scavenger|2023-05-18T01:01:36|2023-05-18T01:01:37|00:00:01|dcc-wychem-01|1|1|2G||/hpc/home/smokeauth2-tst|
smokeauth2-tst|COMPLETED|scavenger|2023-05-18T01:01:38|2023-05-18T01:01:39|00:00:01|dcc-wychem-01|1|1|2G||/hpc/home/smokeauth2-tst|
smokeauth2-tst|COMPLETED|scavenger|2023-05-18T01:11:30|2023-05-18T01:11:31|00:00:01|dcc-wychem-01|1|1|2G||/hpc/home/smokeauth2-tst|
smokeauth2-tst|COMPLETED|scavenger|2023-05-18T01:11:32|2023-05-18T01:11:33|00:00:01|dcc-wychem-01|1|1|2G||/hpc/home/smokeauth2-tst|
smokeauth2-tst|COMPLETED|scavenger|2023-05-18T01:11:35|2023-05-18T01:11:35|00:00:00|dcc-wychem-01|1|1|2G||/hpc/home/smokeauth2-tst|
smokeauth2-tst|COMPLETED|scavenger|2023-05-18T01:11:37|2023-05-18T01:11:37|00:00:00|dcc-wychem-01|1|1|2G||/hpc/home/smokeauth2-tst|
smokeauth2-tst|COMPLETED|scavenger|2023-05-18T01:11:39|2023-05-18T01:11:39|00:00:00|dcc-wychem-01|1|1|2G||/hpc/home/smokeauth2-tst|
smokeauth2-tst|COMPLETED|scavenger|2023-05-18T01:21:30|2023-05-18T01:21:30|00:00:00|dcc-wychem-01|1|1|2G||/hpc/home/smokeauth2-tst|
smokeauth2-tst|COMPLETED|scavenger|2023-05-18T01:21:32|2023-05-18T01:21:32|00:00:00|dcc-wychem-01|1|1|2G||/hpc/home/smokeauth2-tst|
smokeauth2-tst|COMPLETED|scavenger|2023-05-18T01:21:34|2023-05-18T01:21:34|00:00:00|dcc-wychem-01|1|1|2G||/hpc/home/smokeauth2-tst|
smokeauth2-tst|COMPLETED|scavenger|2023-05-18T01:21:36|2023-05-18T01:21:36|00:00:00|dcc-wychem-01|1|1|2G||/hpc/home/smokeauth2-tst|
smokeauth2-tst|COMPLETED|scavenger|2023-05-18T01:21:38|2023-05-18T01:21:39|00:00:01|dcc-wychem-01|1|1|2G||/hpc/home/smokeauth2-tst|
smokeauth2-tst|COMPLETED|scavenger|2023-05-18T01:31:31|2023-05-18T01:31:31|00:00:00|dcc-wychem-01|1|1|2G||/hpc/home/smokeauth2-tst|
smokeauth2-tst|COMPLETED|scavenger|2023-05-18T01:31:33|2023-05-18T01:31:33|00:00:00|dcc-wychem-01|1|1|2G||/hpc/home/smokeauth2-tst|
smokeauth2-tst|COMPLETED|scavenger|2023-05-18T01:31:35|2023-05-18T01:31:35|00:00:00|dcc-wychem-01|1|1|2G||/hpc/home/smokeauth2-tst|
smokeauth2-tst|COMPLETED|scavenger|2023-05-18T01:31:37|2023-05-18T01:31:37|00:00:00|dcc-wychem-01|1|1|2G||/hpc/home/smokeauth2-tst|
smokeauth2-tst|COMPLETED|scavenger|2023-05-18T01:31:39|2023-05-18T01:31:39|00:00:00|dcc-wychem-01|1|1|2G||/hpc/home/smokeauth2-tst|
smokeauth2-tst|COMPLETED|scavenger|2023-05-18T01:41:32|2023-05-18T01:41:32|00:00:00|dcc-wychem-01|1|1|2G||/hpc/home/smokeauth2-tst|
smokeauth2-tst|COMPLETED|scavenger|2023-05-18T01:41:34|2023-05-18T01:41:35|00:00:01|dcc-wychem-01|1|1|2G||/hpc/home/smokeauth2-tst|
smokeauth2-tst|COMPLETED|scavenger|2023-05-18T01:41:36|2023-05-18T01:41:37|00:00:01|dcc-wychem-01|1|1|2G||/hpc/home/smokeauth2-tst|
smokeauth2-tst|COMPLETED|scavenger|2023-05-18T01:41:38|2023-05-18T01:41:39|00:00:01|dcc-wychem-01|1|1|2G||/hpc/home/smokeauth2-tst|
smokeauth2-tst|COMPLETED|scavenger|2023-05-18T01:41:40|2023-05-18T01:41:41|00:00:01|dcc-wychem-01|1|1|2G||/hpc/home/smokeauth2-tst|
smokeauth2-tst|COMPLETED|scavenger|2023-05-18T01:51:30|2023-05-18T01:51:30|00:00:00|dcc-wychem-01|1|1|2G||/hpc/home/smokeauth2-tst|
smokeauth2-tst|COMPLETED|scavenger|2023-05-18T01:51:32|2023-05-18T01:51:32|00:00:00|dcc-wychem-01|1|1|2G||/hpc/home/smokeauth2-tst|
smokeauth2-tst|COMPLETED|scavenger|2023-05-18T01:51:34|2023-05-18T01:51:34|00:00:00|dcc-wychem-01|1|1|2G||/hpc/home/smokeauth2-tst|
smokeauth2-tst|COMPLETED|scavenger|2023-05-18T01:51:36|2023-05-18T01:51:36|00:00:00|dcc-wychem-01|1|1|2G||/hpc/home/smokeauth2-tst|
smokeauth2-tst|COMPLETED|scavenger|2023-05-18T01:51:38|2023-05-18T01:51:38|00:00:00|dcc-wychem-01|1|1|2G||/hpc/home/smokeauth2-tst|
