pz19|COMPLETED|scavenger|2023-05-15T23:21:42|2023-05-30T14:18:14|14-14:56:32|dcc-fergusonlab-01|1|16|32000M||/work/pz19/Dexter|
ew198|COMPLETED|scavenger|2023-05-17T15:01:57|2023-05-30T13:18:19|12-22:16:22|dcc-youlab-01|1|1|125G||/cifs/hariri-long/Projects/Annchen/Scripts/ArealMSHBM|
ew198|COMPLETED|scavenger|2023-05-17T15:01:57|2023-05-30T13:18:47|12-22:16:50|dcc-wychem-01|1|1|16000M||/cifs/hariri-long/Projects/Annchen/Scripts/ArealMSHBM|
ew198|COMPLETED|scavenger|2023-05-17T15:01:57|2023-05-30T13:18:47|12-22:16:50|dcc-wychem-01|1|1|16000M||/cifs/hariri-long/Projects/Annchen/Scripts/ArealMSHBM|
ew198|COMPLETED|scavenger|2023-05-17T15:01:57|2023-05-30T13:18:47|12-22:16:50|dcc-wychem-01|1|1|16000M||/cifs/hariri-long/Projects/Annchen/Scripts/ArealMSHBM|
ew198|COMPLETED|scavenger|2023-05-17T15:01:57|2023-05-30T13:18:47|12-22:16:50|dcc-wychem-01|1|1|16000M||/cifs/hariri-long/Projects/Annchen/Scripts/ArealMSHBM|
ew198|COMPLETED|scavenger|2023-05-17T15:01:57|2023-05-30T13:18:47|12-22:16:50|dcc-wychem-01|1|1|16000M||/cifs/hariri-long/Projects/Annchen/Scripts/ArealMSHBM|
ew198|COMPLETED|scavenger|2023-05-17T15:01:57|2023-05-30T13:18:47|12-22:16:50|dcc-wychem-01|1|1|16000M||/cifs/hariri-long/Projects/Annchen/Scripts/ArealMSHBM|
ew198|COMPLETED|scavenger|2023-05-17T15:01:57|2023-05-30T13:18:47|12-22:16:50|dcc-wychem-01|1|1|16000M||/cifs/hariri-long/Projects/Annchen/Scripts/ArealMSHBM|
ew198|COMPLETED|scavenger|2023-05-17T15:01:57|2023-05-30T13:18:47|12-22:16:50|dcc-wychem-01|1|1|16000M||/cifs/hariri-long/Projects/Annchen/Scripts/ArealMSHBM|
ew198|COMPLETED|scavenger|2023-05-17T15:01:57|2023-05-30T13:18:47|12-22:16:50|dcc-wychem-01|1|1|16000M||/cifs/hariri-long/Projects/Annchen/Scripts/ArealMSHBM|
ew198|COMPLETED|scavenger|2023-05-17T15:01:58|2023-05-30T13:18:33|12-22:16:35|dcc-tunglab-01|1|1|16000M||/cifs/hariri-long/Projects/Annchen/Scripts/ArealMSHBM|
ew198|COMPLETED|scavenger|2023-05-17T15:01:58|2023-05-30T13:18:33|12-22:16:35|dcc-tunglab-01|1|1|16000M||/cifs/hariri-long/Projects/Annchen/Scripts/ArealMSHBM|
ew198|COMPLETED|scavenger|2023-05-17T15:01:58|2023-05-30T13:18:33|12-22:16:35|dcc-tunglab-01|1|1|16000M||/cifs/hariri-long/Projects/Annchen/Scripts/ArealMSHBM|
ew198|COMPLETED|scavenger|2023-05-17T15:01:58|2023-05-30T13:18:33|12-22:16:35|dcc-tunglab-01|1|1|16000M||/cifs/hariri-long/Projects/Annchen/Scripts/ArealMSHBM|
ew198|COMPLETED|scavenger|2023-05-17T15:01:59|2023-05-30T13:18:33|12-22:16:34|dcc-tunglab-01|1|1|16000M||/cifs/hariri-long/Projects/Annchen/Scripts/ArealMSHBM|
ew198|COMPLETED|scavenger|2023-05-17T15:01:59|2023-05-30T13:18:47|12-22:16:48|dcc-tmolab-02|1|1|16000M||/cifs/hariri-long/Projects/Annchen/Scripts/ArealMSHBM|
ew198|COMPLETED|scavenger|2023-05-17T15:01:59|2023-05-30T13:18:47|12-22:16:48|dcc-tmolab-02|1|1|16000M||/cifs/hariri-long/Projects/Annchen/Scripts/ArealMSHBM|
ew198|COMPLETED|scavenger|2023-05-17T15:01:59|2023-05-30T13:18:47|12-22:16:48|dcc-tmolab-02|1|1|16000M||/cifs/hariri-long/Projects/Annchen/Scripts/ArealMSHBM|
ew198|COMPLETED|scavenger|2023-05-17T15:01:59|2023-05-30T13:18:47|12-22:16:48|dcc-tmolab-02|1|1|16000M||/cifs/hariri-long/Projects/Annchen/Scripts/ArealMSHBM|
ew198|COMPLETED|scavenger|2023-05-17T15:01:59|2023-05-30T13:18:44|12-22:16:45|dcc-tmolab-01|1|1|16000M||/cifs/hariri-long/Projects/Annchen/Scripts/ArealMSHBM|
ew198|COMPLETED|scavenger|2023-05-17T15:01:59|2023-05-30T13:18:44|12-22:16:45|dcc-tmolab-01|1|1|16000M||/cifs/hariri-long/Projects/Annchen/Scripts/ArealMSHBM|
ew198|COMPLETED|scavenger|2023-05-17T15:01:59|2023-05-30T13:18:44|12-22:16:45|dcc-tmolab-01|1|1|16000M||/cifs/hariri-long/Projects/Annchen/Scripts/ArealMSHBM|
ew198|COMPLETED|scavenger|2023-05-17T15:02:00|2023-05-30T13:19:00|12-22:17:00|dcc-statdept-01|1|1|16000M||/cifs/hariri-long/Projects/Annchen/Scripts/ArealMSHBM|
ew198|COMPLETED|scavenger|2023-05-17T15:02:30|2023-05-30T13:19:00|12-22:16:30|dcc-statdept-01|1|1|16000M||/cifs/hariri-long/Projects/Annchen/Scripts/ArealMSHBM|
ew198|COMPLETED|scavenger|2023-05-17T15:02:30|2023-05-30T13:18:35|12-22:16:05|dcc-savageresearch-02|1|1|16000M||/cifs/hariri-long/Projects/Annchen/Scripts/ArealMSHBM|
ew198|COMPLETED|scavenger|2023-05-17T15:02:30|2023-05-30T13:18:35|12-22:16:05|dcc-savageresearch-02|1|1|16000M||/cifs/hariri-long/Projects/Annchen/Scripts/ArealMSHBM|
ew198|COMPLETED|scavenger|2023-05-17T15:02:30|2023-05-30T13:18:35|12-22:16:05|dcc-savageresearch-02|1|1|16000M||/cifs/hariri-long/Projects/Annchen/Scripts/ArealMSHBM|
ew198|COMPLETED|scavenger|2023-05-17T15:02:31|2023-05-30T13:18:35|12-22:16:04|dcc-savageresearch-02|1|1|16000M||/cifs/hariri-long/Projects/Annchen/Scripts/ArealMSHBM|
ew198|COMPLETED|scavenger|2023-05-17T15:02:31|2023-05-30T13:18:35|12-22:16:04|dcc-savageresearch-02|1|1|16000M||/cifs/hariri-long/Projects/Annchen/Scripts/ArealMSHBM|
ew198|COMPLETED|scavenger|2023-05-17T15:02:31|2023-05-30T13:18:35|12-22:16:04|dcc-savageresearch-02|1|1|16000M||/cifs/hariri-long/Projects/Annchen/Scripts/ArealMSHBM|
ew198|COMPLETED|scavenger|2023-05-17T15:02:31|2023-05-30T13:18:35|12-22:16:04|dcc-savageresearch-01|1|1|16000M||/cifs/hariri-long/Projects/Annchen/Scripts/ArealMSHBM|
ew198|COMPLETED|scavenger|2023-05-17T15:02:31|2023-05-30T13:18:35|12-22:16:04|dcc-savageresearch-01|1|1|16000M||/cifs/hariri-long/Projects/Annchen/Scripts/ArealMSHBM|
ew198|COMPLETED|scavenger|2023-05-17T15:02:31|2023-05-30T13:18:35|12-22:16:04|dcc-savageresearch-01|1|1|16000M||/cifs/hariri-long/Projects/Annchen/Scripts/ArealMSHBM|
ew198|COMPLETED|scavenger|2023-05-17T15:02:31|2023-05-30T13:18:52|12-22:16:21|dcc-rausherlab-02|1|1|16000M||/cifs/hariri-long/Projects/Annchen/Scripts/ArealMSHBM|
ew198|COMPLETED|scavenger|2023-05-17T15:02:31|2023-05-30T13:18:42|12-22:16:11|dcc-rausherlab-01|1|1|16000M||/cifs/hariri-long/Projects/Annchen/Scripts/ArealMSHBM|
ew198|COMPLETED|scavenger|2023-05-17T15:02:32|2023-05-30T13:18:42|12-22:16:10|dcc-rausherlab-01|1|1|16000M||/cifs/hariri-long/Projects/Annchen/Scripts/ArealMSHBM|
ew198|COMPLETED|scavenger|2023-05-17T15:02:32|2023-05-30T13:18:44|12-22:16:12|dcc-rausherlab-01|1|1|16000M||/cifs/hariri-long/Projects/Annchen/Scripts/ArealMSHBM|
ew198|COMPLETED|scavenger|2023-05-17T15:02:32|2023-05-30T13:18:44|12-22:16:12|dcc-rausherlab-01|1|1|16000M||/cifs/hariri-long/Projects/Annchen/Scripts/ArealMSHBM|
sw582|COMPLETED|scavenger|2023-05-22T00:48:28|2023-05-30T12:48:46|8-12:00:18|dcc-youlab-01|1|1|2G||/hpc/group/dbergerlab/sw582/empty_dir|
ts349|COMPLETED|scavenger|2023-05-24T06:56:22|2023-05-30T09:10:17|6-02:13:55|dcc-compeb-03|1|30|72G||/hpc/home/ts349|
hk288|COMPLETED|scavenger|2023-05-25T20:19:14|2023-05-31T15:46:23|5-19:27:09|dcc-cagpm-02|1|40|80G||/hpc/group/mastatlab/hk288/code_hp_paral|
cjp47|COMPLETED|scavenger|2023-05-27T14:01:25|2023-06-04T10:11:24|7-20:09:59|dcc-youlab-01|1|1|64G||/hpc/group/bio1/cyanolichen_holobiome|
cjp47|COMPLETED|scavenger|2023-05-27T14:01:25|2023-06-03T21:09:30|7-07:08:05|dcc-youlab-01|1|1|64G||/hpc/group/bio1/cyanolichen_holobiome|
ew198|COMPLETED|scavenger|2023-05-27T14:09:03|2023-05-30T13:19:00|2-23:09:57|dcc-statdept-01|1|1|16000M||/cifs/hariri-long/Projects/Annchen/Scripts/ArealMSHBM|
ew198|COMPLETED|scavenger|2023-05-27T14:09:03|2023-05-30T13:19:00|2-23:09:57|dcc-statdept-01|1|1|16000M||/cifs/hariri-long/Projects/Annchen/Scripts/ArealMSHBM|
ew198|COMPLETED|scavenger|2023-05-27T14:09:03|2023-05-30T13:19:00|2-23:09:57|dcc-statdept-01|1|1|16000M||/cifs/hariri-long/Projects/Annchen/Scripts/ArealMSHBM|
ew198|COMPLETED|scavenger|2023-05-27T14:09:03|2023-05-30T13:19:00|2-23:09:57|dcc-statdept-01|1|1|16000M||/cifs/hariri-long/Projects/Annchen/Scripts/ArealMSHBM|
ark19|COMPLETED|scavenger|2023-05-28T12:14:28|2023-05-29T13:16:52|1-01:02:24|dcc-tunglab-01|1|1|24000M||/cifs/hariri-long/Database/DBIS_P52/Imaging|
ark19|COMPLETED|scavenger|2023-05-28T12:14:28|2023-05-29T12:29:48|1-00:15:20|dcc-tunglab-01|1|1|24000M||/cifs/hariri-long/Database/DBIS_P52/Imaging|
ark19|COMPLETED|scavenger|2023-05-28T12:14:28|2023-05-29T12:39:38|1-00:25:10|dcc-tunglab-01|1|1|24000M||/cifs/hariri-long/Database/DBIS_P52/Imaging|
ark19|COMPLETED|scavenger|2023-05-28T12:14:28|2023-05-29T12:56:23|1-00:41:55|dcc-tunglab-01|1|1|24000M||/cifs/hariri-long/Database/DBIS_P52/Imaging|
ark19|COMPLETED|scavenger|2023-05-28T12:14:28|2023-05-29T12:42:16|1-00:27:48|dcc-tunglab-01|1|1|24000M||/cifs/hariri-long/Database/DBIS_P52/Imaging|
ts349|COMPLETED|scavenger|2023-05-29T05:10:24|2023-05-29T10:34:06|05:23:42|dcc-aryalab-01|1|6|36G||/work/ts349/stm2457_hicar/work/58/31fdc9316686076817fd7aad07c364|
ts349|COMPLETED|scavenger|2023-05-29T05:19:06|2023-05-29T10:51:15|05:32:09|dcc-cagpm-01|1|6|36G||/work/ts349/stm2457_hicar/work/26/c46abc81449a2fac5a3d54eb5169cc|
ark19|COMPLETED|scavenger|2023-05-29T08:18:30|2023-05-30T06:36:36|22:18:06|dcc-youlab-01|1|1|24000M||/cifs/hariri-long/Database/DBIS_P52/Imaging|
ark19|COMPLETED|scavenger|2023-05-29T08:18:30|2023-05-30T06:27:34|22:09:04|dcc-youlab-01|1|1|24000M||/cifs/hariri-long/Database/DBIS_P52/Imaging|
ark19|COMPLETED|scavenger|2023-05-29T08:18:30|2023-05-30T06:28:43|22:10:13|dcc-youlab-01|1|1|24000M||/cifs/hariri-long/Database/DBIS_P52/Imaging|
ark19|COMPLETED|scavenger|2023-05-29T08:18:30|2023-05-30T06:19:19|22:00:49|dcc-youlab-01|1|1|24000M||/cifs/hariri-long/Database/DBIS_P52/Imaging|
ark19|COMPLETED|scavenger|2023-05-29T08:18:30|2023-05-29T13:23:45|05:05:15|dcc-youlab-01|1|1|24000M||/cifs/hariri-long/Database/DBIS_P52/Imaging|
jb621|COMPLETED|scavenger|2023-05-29T09:00:21|2023-05-29T10:13:16|01:12:55|dcc-rausherlab-02|1|4|27600M||/work/jb621/MIPfastqs|
idm7|COMPLETED|scavenger|2023-05-29T09:36:30|2023-05-29T09:50:45|00:14:15|dcc-compeb-04|1|16|20G||/hpc/group/bio1/ian/eurotiomycetes/phylo_scripts/logs|
idm7|COMPLETED|scavenger|2023-05-29T09:38:24|2023-05-29T09:41:46|00:03:22|dcc-youlab-01|1|1|100M||/hpc/group/bio1/ian/eurotiomycetes/phylo_scripts/logs|
idm7|COMPLETED|scavenger|2023-05-29T09:38:24|2023-05-29T09:41:46|00:03:22|dcc-youlab-01|1|1|100M||/hpc/group/bio1/ian/eurotiomycetes/phylo_scripts/logs|
idm7|COMPLETED|scavenger|2023-05-29T09:38:24|2023-05-29T09:41:46|00:03:22|dcc-youlab-01|1|1|100M||/hpc/group/bio1/ian/eurotiomycetes/phylo_scripts/logs|
idm7|COMPLETED|scavenger|2023-05-29T09:38:24|2023-05-29T09:41:47|00:03:23|dcc-youlab-01|1|1|100M||/hpc/group/bio1/ian/eurotiomycetes/phylo_scripts/logs|
idm7|COMPLETED|scavenger|2023-05-29T09:38:24|2023-05-29T09:41:47|00:03:23|dcc-youlab-01|1|1|100M||/hpc/group/bio1/ian/eurotiomycetes/phylo_scripts/logs|
idm7|COMPLETED|scavenger|2023-05-29T09:38:24|2023-05-29T09:41:45|00:03:21|dcc-youlab-01|1|1|100M||/hpc/group/bio1/ian/eurotiomycetes/phylo_scripts/logs|
idm7|COMPLETED|scavenger|2023-05-29T09:38:24|2023-05-29T09:41:42|00:03:18|dcc-youlab-01|1|1|100M||/hpc/group/bio1/ian/eurotiomycetes/phylo_scripts/logs|
idm7|COMPLETED|scavenger|2023-05-29T09:38:24|2023-05-29T09:41:46|00:03:22|dcc-youlab-01|1|1|100M||/hpc/group/bio1/ian/eurotiomycetes/phylo_scripts/logs|
idm7|COMPLETED|scavenger|2023-05-29T09:38:24|2023-05-29T09:41:41|00:03:17|dcc-youlab-01|1|1|100M||/hpc/group/bio1/ian/eurotiomycetes/phylo_scripts/logs|
idm7|COMPLETED|scavenger|2023-05-29T09:38:24|2023-05-29T09:41:46|00:03:22|dcc-youlab-01|1|1|100M||/hpc/group/bio1/ian/eurotiomycetes/phylo_scripts/logs|
idm7|COMPLETED|scavenger|2023-05-29T09:38:24|2023-05-29T09:41:50|00:03:26|dcc-youlab-01|1|1|100M||/hpc/group/bio1/ian/eurotiomycetes/phylo_scripts/logs|
idm7|COMPLETED|scavenger|2023-05-29T09:38:24|2023-05-29T09:40:16|00:01:52|dcc-youlab-01|1|1|100M||/hpc/group/bio1/ian/eurotiomycetes/phylo_scripts/logs|
idm7|COMPLETED|scavenger|2023-05-29T09:38:24|2023-05-29T09:41:46|00:03:22|dcc-youlab-01|1|1|100M||/hpc/group/bio1/ian/eurotiomycetes/phylo_scripts/logs|
idm7|COMPLETED|scavenger|2023-05-29T09:38:24|2023-05-29T09:40:29|00:02:05|dcc-youlab-01|1|1|100M||/hpc/group/bio1/ian/eurotiomycetes/phylo_scripts/logs|
idm7|COMPLETED|scavenger|2023-05-29T09:38:24|2023-05-29T09:41:49|00:03:25|dcc-youlab-01|1|1|100M||/hpc/group/bio1/ian/eurotiomycetes/phylo_scripts/logs|
idm7|COMPLETED|scavenger|2023-05-29T09:38:25|2023-05-29T09:41:50|00:03:25|dcc-youlab-01|1|1|100M||/hpc/group/bio1/ian/eurotiomycetes/phylo_scripts/logs|
idm7|COMPLETED|scavenger|2023-05-29T09:38:25|2023-05-29T09:41:50|00:03:25|dcc-youlab-01|1|1|100M||/hpc/group/bio1/ian/eurotiomycetes/phylo_scripts/logs|
idm7|COMPLETED|scavenger|2023-05-29T09:38:25|2023-05-29T09:41:45|00:03:20|dcc-youlab-01|1|1|100M||/hpc/group/bio1/ian/eurotiomycetes/phylo_scripts/logs|
idm7|COMPLETED|scavenger|2023-05-29T09:38:25|2023-05-29T09:41:47|00:03:22|dcc-youlab-01|1|1|100M||/hpc/group/bio1/ian/eurotiomycetes/phylo_scripts/logs|
idm7|COMPLETED|scavenger|2023-05-29T09:38:25|2023-05-29T09:41:44|00:03:19|dcc-youlab-01|1|1|100M||/hpc/group/bio1/ian/eurotiomycetes/phylo_scripts/logs|
idm7|COMPLETED|scavenger|2023-05-29T09:38:25|2023-05-29T09:41:53|00:03:28|dcc-youlab-01|1|1|100M||/hpc/group/bio1/ian/eurotiomycetes/phylo_scripts/logs|
idm7|COMPLETED|scavenger|2023-05-29T09:38:25|2023-05-29T09:41:51|00:03:26|dcc-youlab-01|1|1|100M||/hpc/group/bio1/ian/eurotiomycetes/phylo_scripts/logs|
idm7|COMPLETED|scavenger|2023-05-29T09:39:44|2023-05-29T09:43:46|00:04:02|dcc-youlab-01|1|1|100M||/hpc/group/bio1/ian/eurotiomycetes/phylo_scripts/logs|
idm7|COMPLETED|scavenger|2023-05-29T09:39:44|2023-05-29T09:43:43|00:03:59|dcc-youlab-01|1|1|100M||/hpc/group/bio1/ian/eurotiomycetes/phylo_scripts/logs|
idm7|COMPLETED|scavenger|2023-05-29T09:39:44|2023-05-29T09:43:48|00:04:04|dcc-youlab-01|1|1|100M||/hpc/group/bio1/ian/eurotiomycetes/phylo_scripts/logs|
idm7|COMPLETED|scavenger|2023-05-29T09:39:44|2023-05-29T09:43:43|00:03:59|dcc-youlab-01|1|1|100M||/hpc/group/bio1/ian/eurotiomycetes/phylo_scripts/logs|
idm7|COMPLETED|scavenger|2023-05-29T09:39:44|2023-05-29T09:43:45|00:04:01|dcc-youlab-01|1|1|100M||/hpc/group/bio1/ian/eurotiomycetes/phylo_scripts/logs|
idm7|COMPLETED|scavenger|2023-05-29T09:39:44|2023-05-29T09:43:43|00:03:59|dcc-youlab-01|1|1|100M||/hpc/group/bio1/ian/eurotiomycetes/phylo_scripts/logs|
idm7|COMPLETED|scavenger|2023-05-29T09:39:44|2023-05-29T09:43:44|00:04:00|dcc-youlab-01|1|1|100M||/hpc/group/bio1/ian/eurotiomycetes/phylo_scripts/logs|
idm7|COMPLETED|scavenger|2023-05-29T09:39:44|2023-05-29T09:43:45|00:04:01|dcc-youlab-01|1|1|100M||/hpc/group/bio1/ian/eurotiomycetes/phylo_scripts/logs|
idm7|COMPLETED|scavenger|2023-05-29T09:39:44|2023-05-29T09:43:45|00:04:01|dcc-youlab-01|1|1|100M||/hpc/group/bio1/ian/eurotiomycetes/phylo_scripts/logs|
idm7|COMPLETED|scavenger|2023-05-29T09:39:44|2023-05-29T09:43:47|00:04:03|dcc-youlab-01|1|1|100M||/hpc/group/bio1/ian/eurotiomycetes/phylo_scripts/logs|
idm7|COMPLETED|scavenger|2023-05-29T09:40:16|2023-05-29T09:44:16|00:04:00|dcc-youlab-01|1|1|100M||/hpc/group/bio1/ian/eurotiomycetes/phylo_scripts/logs|
idm7|COMPLETED|scavenger|2023-05-29T09:40:29|2023-05-29T09:44:28|00:03:59|dcc-youlab-01|1|1|100M||/hpc/group/bio1/ian/eurotiomycetes/phylo_scripts/logs|
idm7|COMPLETED|scavenger|2023-05-29T09:41:41|2023-05-29T09:45:53|00:04:12|dcc-youlab-01|1|1|100M||/hpc/group/bio1/ian/eurotiomycetes/phylo_scripts/logs|
idm7|COMPLETED|scavenger|2023-05-29T09:41:43|2023-05-29T09:44:48|00:03:05|dcc-youlab-01|1|1|100M||/hpc/group/bio1/ian/eurotiomycetes/phylo_scripts/logs|
idm7|COMPLETED|scavenger|2023-05-29T09:41:45|2023-05-29T09:46:00|00:04:15|dcc-youlab-01|1|1|100M||/hpc/group/bio1/ian/eurotiomycetes/phylo_scripts/logs|
idm7|COMPLETED|scavenger|2023-05-29T09:41:47|2023-05-29T09:45:52|00:04:05|dcc-youlab-01|1|1|100M||/hpc/group/bio1/ian/eurotiomycetes/phylo_scripts/logs|
idm7|COMPLETED|scavenger|2023-05-29T09:41:47|2023-05-29T09:46:01|00:04:14|dcc-youlab-01|1|1|100M||/hpc/group/bio1/ian/eurotiomycetes/phylo_scripts/logs|
idm7|COMPLETED|scavenger|2023-05-29T09:41:47|2023-05-29T09:46:00|00:04:13|dcc-youlab-01|1|1|100M||/hpc/group/bio1/ian/eurotiomycetes/phylo_scripts/logs|
idm7|COMPLETED|scavenger|2023-05-29T09:41:47|2023-05-29T09:46:00|00:04:13|dcc-youlab-01|1|1|100M||/hpc/group/bio1/ian/eurotiomycetes/phylo_scripts/logs|
idm7|COMPLETED|scavenger|2023-05-29T09:41:47|2023-05-29T09:45:55|00:04:08|dcc-youlab-01|1|1|100M||/hpc/group/bio1/ian/eurotiomycetes/phylo_scripts/logs|
idm7|COMPLETED|scavenger|2023-05-29T09:41:47|2023-05-29T09:46:02|00:04:15|dcc-youlab-01|1|1|100M||/hpc/group/bio1/ian/eurotiomycetes/phylo_scripts/logs|
idm7|COMPLETED|scavenger|2023-05-29T09:41:47|2023-05-29T09:43:07|00:01:20|dcc-youlab-01|1|1|100M||/hpc/group/bio1/ian/eurotiomycetes/phylo_scripts/logs|
idm7|COMPLETED|scavenger|2023-05-29T09:41:47|2023-05-29T09:45:59|00:04:12|dcc-youlab-01|1|1|100M||/hpc/group/bio1/ian/eurotiomycetes/phylo_scripts/logs|
idm7|COMPLETED|scavenger|2023-05-29T09:41:49|2023-05-29T09:44:57|00:03:08|dcc-youlab-01|1|1|100M||/hpc/group/bio1/ian/eurotiomycetes/phylo_scripts/logs|
idm7|COMPLETED|scavenger|2023-05-29T09:41:49|2023-05-29T09:46:04|00:04:15|dcc-youlab-01|1|1|100M||/hpc/group/bio1/ian/eurotiomycetes/phylo_scripts/logs|
idm7|COMPLETED|scavenger|2023-05-29T09:41:49|2023-05-29T09:45:54|00:04:05|dcc-youlab-01|1|1|100M||/hpc/group/bio1/ian/eurotiomycetes/phylo_scripts/logs|
idm7|COMPLETED|scavenger|2023-05-29T09:41:51|2023-05-29T09:46:05|00:04:14|dcc-youlab-01|1|1|100M||/hpc/group/bio1/ian/eurotiomycetes/phylo_scripts/logs|
idm7|COMPLETED|scavenger|2023-05-29T09:41:51|2023-05-29T09:46:09|00:04:18|dcc-youlab-01|1|1|100M||/hpc/group/bio1/ian/eurotiomycetes/phylo_scripts/logs|
idm7|COMPLETED|scavenger|2023-05-29T09:41:51|2023-05-29T09:46:05|00:04:14|dcc-youlab-01|1|1|100M||/hpc/group/bio1/ian/eurotiomycetes/phylo_scripts/logs|
idm7|COMPLETED|scavenger|2023-05-29T09:41:51|2023-05-29T09:46:09|00:04:18|dcc-youlab-01|1|1|100M||/hpc/group/bio1/ian/eurotiomycetes/phylo_scripts/logs|
idm7|COMPLETED|scavenger|2023-05-29T09:41:53|2023-05-29T09:46:09|00:04:16|dcc-youlab-01|1|1|100M||/hpc/group/bio1/ian/eurotiomycetes/phylo_scripts/logs|
idm7|COMPLETED|scavenger|2023-05-29T09:41:53|2023-05-29T09:46:09|00:04:16|dcc-youlab-01|1|1|100M||/hpc/group/bio1/ian/eurotiomycetes/phylo_scripts/logs|
idm7|COMPLETED|scavenger|2023-05-29T09:42:27|2023-05-29T09:46:33|00:04:06|dcc-youlab-01|1|1|100M||/hpc/group/bio1/ian/eurotiomycetes/phylo_scripts/logs|
idm7|COMPLETED|scavenger|2023-05-29T09:42:27|2023-05-29T09:43:54|00:01:27|dcc-wychem-01|1|1|100M||/hpc/group/bio1/ian/eurotiomycetes/phylo_scripts/logs|
idm7|COMPLETED|scavenger|2023-05-29T09:42:27|2023-05-29T09:43:58|00:01:31|dcc-wychem-01|1|1|100M||/hpc/group/bio1/ian/eurotiomycetes/phylo_scripts/logs|
idm7|COMPLETED|scavenger|2023-05-29T09:42:27|2023-05-29T09:43:58|00:01:31|dcc-wychem-01|1|1|100M||/hpc/group/bio1/ian/eurotiomycetes/phylo_scripts/logs|
idm7|COMPLETED|scavenger|2023-05-29T09:42:27|2023-05-29T09:43:59|00:01:32|dcc-wychem-01|1|1|100M||/hpc/group/bio1/ian/eurotiomycetes/phylo_scripts/logs|
idm7|COMPLETED|scavenger|2023-05-29T09:43:07|2023-05-29T09:46:23|00:03:16|dcc-youlab-01|1|1|100M||/hpc/group/bio1/ian/eurotiomycetes/phylo_scripts/logs|
idm7|COMPLETED|scavenger|2023-05-29T09:43:43|2023-05-29T09:47:31|00:03:48|dcc-youlab-01|1|1|100M||/hpc/group/bio1/ian/eurotiomycetes/phylo_scripts/logs|
idm7|COMPLETED|scavenger|2023-05-29T09:43:43|2023-05-29T09:47:30|00:03:47|dcc-youlab-01|1|1|100M||/hpc/group/bio1/ian/eurotiomycetes/phylo_scripts/logs|
idm7|COMPLETED|scavenger|2023-05-29T09:43:43|2023-05-29T09:47:29|00:03:46|dcc-youlab-01|1|1|100M||/hpc/group/bio1/ian/eurotiomycetes/phylo_scripts/logs|
idm7|COMPLETED|scavenger|2023-05-29T09:43:45|2023-05-29T09:47:30|00:03:45|dcc-youlab-01|1|1|100M||/hpc/group/bio1/ian/eurotiomycetes/phylo_scripts/logs|
idm7|COMPLETED|scavenger|2023-05-29T09:43:45|2023-05-29T09:47:32|00:03:47|dcc-youlab-01|1|1|100M||/hpc/group/bio1/ian/eurotiomycetes/phylo_scripts/logs|
idm7|COMPLETED|scavenger|2023-05-29T09:43:45|2023-05-29T09:47:32|00:03:47|dcc-youlab-01|1|1|100M||/hpc/group/bio1/ian/eurotiomycetes/phylo_scripts/logs|
idm7|COMPLETED|scavenger|2023-05-29T09:43:45|2023-05-29T09:47:33|00:03:48|dcc-youlab-01|1|1|100M||/hpc/group/bio1/ian/eurotiomycetes/phylo_scripts/logs|
idm7|COMPLETED|scavenger|2023-05-29T09:43:48|2023-05-29T09:47:34|00:03:46|dcc-youlab-01|1|1|100M||/hpc/group/bio1/ian/eurotiomycetes/phylo_scripts/logs|
idm7|COMPLETED|scavenger|2023-05-29T09:43:48|2023-05-29T09:47:34|00:03:46|dcc-youlab-01|1|1|100M||/hpc/group/bio1/ian/eurotiomycetes/phylo_scripts/logs|
idm7|COMPLETED|scavenger|2023-05-29T09:43:50|2023-05-29T09:46:56|00:03:06|dcc-youlab-01|1|1|100M||/hpc/group/bio1/ian/eurotiomycetes/phylo_scripts/logs|
idm7|COMPLETED|scavenger|2023-05-29T09:43:54|2023-05-29T09:45:28|00:01:34|dcc-wychem-01|1|1|100M||/hpc/group/bio1/ian/eurotiomycetes/phylo_scripts/logs|
idm7|COMPLETED|scavenger|2023-05-29T09:43:58|2023-05-29T09:45:32|00:01:34|dcc-wychem-01|1|1|100M||/hpc/group/bio1/ian/eurotiomycetes/phylo_scripts/logs|
idm7|COMPLETED|scavenger|2023-05-29T09:44:00|2023-05-29T09:45:36|00:01:36|dcc-wychem-01|1|1|100M||/hpc/group/bio1/ian/eurotiomycetes/phylo_scripts/logs|
idm7|COMPLETED|scavenger|2023-05-29T09:44:00|2023-05-29T09:45:32|00:01:32|dcc-wychem-01|1|1|100M||/hpc/group/bio1/ian/eurotiomycetes/phylo_scripts/logs|
idm7|COMPLETED|scavenger|2023-05-29T09:44:16|2023-05-29T09:47:42|00:03:26|dcc-youlab-01|1|1|100M||/hpc/group/bio1/ian/eurotiomycetes/phylo_scripts/logs|
idm7|COMPLETED|scavenger|2023-05-29T09:44:29|2023-05-29T09:47:44|00:03:15|dcc-youlab-01|1|1|100M||/hpc/group/bio1/ian/eurotiomycetes/phylo_scripts/logs|
idm7|COMPLETED|scavenger|2023-05-29T09:44:48|2023-05-29T09:47:54|00:03:06|dcc-youlab-01|1|1|100M||/hpc/group/bio1/ian/eurotiomycetes/phylo_scripts/logs|
idm7|COMPLETED|scavenger|2023-05-29T09:44:58|2023-05-29T09:47:56|00:02:58|dcc-youlab-01|1|1|100M||/hpc/group/bio1/ian/eurotiomycetes/phylo_scripts/logs|
idm7|COMPLETED|scavenger|2023-05-29T09:45:04|2023-05-29T09:46:46|00:01:42|dcc-wychem-01|1|1|100M||/hpc/group/bio1/ian/eurotiomycetes/phylo_scripts/logs|
idm7|COMPLETED|scavenger|2023-05-29T09:45:04|2023-05-29T09:46:47|00:01:43|dcc-wychem-01|1|1|100M||/hpc/group/bio1/ian/eurotiomycetes/phylo_scripts/logs|
idm7|COMPLETED|scavenger|2023-05-29T09:45:04|2023-05-29T09:46:47|00:01:43|dcc-wychem-01|1|1|100M||/hpc/group/bio1/ian/eurotiomycetes/phylo_scripts/logs|
idm7|COMPLETED|scavenger|2023-05-29T09:45:04|2023-05-29T09:46:44|00:01:40|dcc-wychem-01|1|1|100M||/hpc/group/bio1/ian/eurotiomycetes/phylo_scripts/logs|
idm7|COMPLETED|scavenger|2023-05-29T09:45:04|2023-05-29T09:46:46|00:01:42|dcc-wychem-01|1|1|100M||/hpc/group/bio1/ian/eurotiomycetes/phylo_scripts/logs|
idm7|COMPLETED|scavenger|2023-05-29T09:45:29|2023-05-29T09:47:08|00:01:39|dcc-wychem-01|1|1|100M||/hpc/group/bio1/ian/eurotiomycetes/phylo_scripts/logs|
idm7|COMPLETED|scavenger|2023-05-29T09:45:34|2023-05-29T09:47:13|00:01:39|dcc-wychem-01|1|1|100M||/hpc/group/bio1/ian/eurotiomycetes/phylo_scripts/logs|
idm7|COMPLETED|scavenger|2023-05-29T09:45:34|2023-05-29T09:47:14|00:01:40|dcc-wychem-01|1|1|100M||/hpc/group/bio1/ian/eurotiomycetes/phylo_scripts/logs|
idm7|COMPLETED|scavenger|2023-05-29T09:45:36|2023-05-29T09:47:15|00:01:39|dcc-wychem-01|1|1|100M||/hpc/group/bio1/ian/eurotiomycetes/phylo_scripts/logs|
idm7|COMPLETED|scavenger|2023-05-29T09:45:52|2023-05-29T09:48:10|00:02:18|dcc-youlab-01|1|1|100M||/hpc/group/bio1/ian/eurotiomycetes/phylo_scripts/logs|
idm7|COMPLETED|scavenger|2023-05-29T09:45:54|2023-05-29T09:47:29|00:01:35|dcc-wychem-01|1|1|100M||/hpc/group/bio1/ian/eurotiomycetes/phylo_scripts/logs|
idm7|COMPLETED|scavenger|2023-05-29T09:45:54|2023-05-29T09:47:33|00:01:39|dcc-wychem-01|1|1|100M||/hpc/group/bio1/ian/eurotiomycetes/phylo_scripts/logs|
idm7|COMPLETED|scavenger|2023-05-29T09:45:56|2023-05-29T09:48:10|00:02:14|dcc-youlab-01|1|1|100M||/hpc/group/bio1/ian/eurotiomycetes/phylo_scripts/logs|
idm7|COMPLETED|scavenger|2023-05-29T09:46:00|2023-05-29T09:48:11|00:02:11|dcc-youlab-01|1|1|100M||/hpc/group/bio1/ian/eurotiomycetes/phylo_scripts/logs|
idm7|COMPLETED|scavenger|2023-05-29T09:46:00|2023-05-29T09:48:13|00:02:13|dcc-youlab-01|1|1|100M||/hpc/group/bio1/ian/eurotiomycetes/phylo_scripts/logs|
idm7|COMPLETED|scavenger|2023-05-29T09:46:02|2023-05-29T09:48:13|00:02:11|dcc-youlab-01|1|1|100M||/hpc/group/bio1/ian/eurotiomycetes/phylo_scripts/logs|
idm7|COMPLETED|scavenger|2023-05-29T09:46:02|2023-05-29T09:48:13|00:02:11|dcc-youlab-01|1|1|100M||/hpc/group/bio1/ian/eurotiomycetes/phylo_scripts/logs|
idm7|COMPLETED|scavenger|2023-05-29T09:46:02|2023-05-29T09:48:13|00:02:11|dcc-youlab-01|1|1|100M||/hpc/group/bio1/ian/eurotiomycetes/phylo_scripts/logs|
idm7|COMPLETED|scavenger|2023-05-29T09:46:04|2023-05-29T09:48:12|00:02:08|dcc-youlab-01|1|1|100M||/hpc/group/bio1/ian/eurotiomycetes/phylo_scripts/logs|
idm7|COMPLETED|scavenger|2023-05-29T09:46:04|2023-05-29T09:48:15|00:02:11|dcc-youlab-01|1|1|100M||/hpc/group/bio1/ian/eurotiomycetes/phylo_scripts/logs|
idm7|COMPLETED|scavenger|2023-05-29T09:46:06|2023-05-29T09:48:16|00:02:10|dcc-youlab-01|1|1|100M||/hpc/group/bio1/ian/eurotiomycetes/phylo_scripts/logs|
idm7|COMPLETED|scavenger|2023-05-29T09:46:06|2023-05-29T09:47:42|00:01:36|dcc-youlab-01|1|1|100M||/hpc/group/bio1/ian/eurotiomycetes/phylo_scripts/logs|
idm7|COMPLETED|scavenger|2023-05-29T09:46:10|2023-05-29T09:48:17|00:02:07|dcc-youlab-01|1|1|100M||/hpc/group/bio1/ian/eurotiomycetes/phylo_scripts/logs|
