pz19|COMPLETED|scavenger|2023-05-10T09:53:22|2023-05-22T13:35:04|12-03:41:42|dcc-adrc-01|1|16|32000M||/work/pz19/Dexter|
pz19|COMPLETED|scavenger|2023-05-15T23:21:42|2023-05-30T14:18:14|14-14:56:32|dcc-fergusonlab-01|1|16|32000M||/work/pz19/Dexter|
jz316|COMPLETED|scavenger|2023-05-17T10:58:19|2023-05-22T04:41:57|4-17:43:38|dcc-carin-25|1|10|31G||/work/jz316/fenhc-pdi/tpssh|
jz316|COMPLETED|scavenger|2023-05-17T10:59:23|2023-05-23T13:56:56|6-02:57:33|dcc-dunsonlab-02|1|10|31G||/work/jz316/fenhc-pdi/mn15l|
ew198|COMPLETED|scavenger|2023-05-17T15:01:57|2023-05-30T13:18:19|12-22:16:22|dcc-youlab-01|1|1|125G||/cifs/hariri-long/Projects/Annchen/Scripts/ArealMSHBM|
ew198|COMPLETED|scavenger|2023-05-17T15:01:57|2023-05-30T13:18:47|12-22:16:50|dcc-wychem-01|1|1|16000M||/cifs/hariri-long/Projects/Annchen/Scripts/ArealMSHBM|
ew198|COMPLETED|scavenger|2023-05-17T15:01:57|2023-05-30T13:18:47|12-22:16:50|dcc-wychem-01|1|1|16000M||/cifs/hariri-long/Projects/Annchen/Scripts/ArealMSHBM|
ew198|COMPLETED|scavenger|2023-05-17T15:01:57|2023-05-30T13:18:47|12-22:16:50|dcc-wychem-01|1|1|16000M||/cifs/hariri-long/Projects/Annchen/Scripts/ArealMSHBM|
ew198|COMPLETED|scavenger|2023-05-17T15:01:57|2023-05-30T13:18:47|12-22:16:50|dcc-wychem-01|1|1|16000M||/cifs/hariri-long/Projects/Annchen/Scripts/ArealMSHBM|
ew198|COMPLETED|scavenger|2023-05-17T15:01:57|2023-05-30T13:18:47|12-22:16:50|dcc-wychem-01|1|1|16000M||/cifs/hariri-long/Projects/Annchen/Scripts/ArealMSHBM|
ew198|COMPLETED|scavenger|2023-05-17T15:01:57|2023-05-30T13:18:47|12-22:16:50|dcc-wychem-01|1|1|16000M||/cifs/hariri-long/Projects/Annchen/Scripts/ArealMSHBM|
ew198|COMPLETED|scavenger|2023-05-17T15:01:57|2023-05-30T13:18:47|12-22:16:50|dcc-wychem-01|1|1|16000M||/cifs/hariri-long/Projects/Annchen/Scripts/ArealMSHBM|
ew198|COMPLETED|scavenger|2023-05-17T15:01:57|2023-05-30T13:18:47|12-22:16:50|dcc-wychem-01|1|1|16000M||/cifs/hariri-long/Projects/Annchen/Scripts/ArealMSHBM|
ew198|COMPLETED|scavenger|2023-05-17T15:01:57|2023-05-30T13:18:47|12-22:16:50|dcc-wychem-01|1|1|16000M||/cifs/hariri-long/Projects/Annchen/Scripts/ArealMSHBM|
ew198|COMPLETED|scavenger|2023-05-17T15:01:58|2023-05-30T13:18:33|12-22:16:35|dcc-tunglab-01|1|1|16000M||/cifs/hariri-long/Projects/Annchen/Scripts/ArealMSHBM|
ew198|COMPLETED|scavenger|2023-05-17T15:01:58|2023-05-30T13:18:33|12-22:16:35|dcc-tunglab-01|1|1|16000M||/cifs/hariri-long/Projects/Annchen/Scripts/ArealMSHBM|
ew198|COMPLETED|scavenger|2023-05-17T15:01:58|2023-05-30T13:18:33|12-22:16:35|dcc-tunglab-01|1|1|16000M||/cifs/hariri-long/Projects/Annchen/Scripts/ArealMSHBM|
ew198|COMPLETED|scavenger|2023-05-17T15:01:58|2023-05-30T13:18:33|12-22:16:35|dcc-tunglab-01|1|1|16000M||/cifs/hariri-long/Projects/Annchen/Scripts/ArealMSHBM|
ew198|COMPLETED|scavenger|2023-05-17T15:01:59|2023-05-30T13:18:33|12-22:16:34|dcc-tunglab-01|1|1|16000M||/cifs/hariri-long/Projects/Annchen/Scripts/ArealMSHBM|
ew198|COMPLETED|scavenger|2023-05-17T15:01:59|2023-05-30T13:18:47|12-22:16:48|dcc-tmolab-02|1|1|16000M||/cifs/hariri-long/Projects/Annchen/Scripts/ArealMSHBM|
ew198|COMPLETED|scavenger|2023-05-17T15:01:59|2023-05-30T13:18:47|12-22:16:48|dcc-tmolab-02|1|1|16000M||/cifs/hariri-long/Projects/Annchen/Scripts/ArealMSHBM|
ew198|COMPLETED|scavenger|2023-05-17T15:01:59|2023-05-30T13:18:47|12-22:16:48|dcc-tmolab-02|1|1|16000M||/cifs/hariri-long/Projects/Annchen/Scripts/ArealMSHBM|
ew198|COMPLETED|scavenger|2023-05-17T15:01:59|2023-05-30T13:18:47|12-22:16:48|dcc-tmolab-02|1|1|16000M||/cifs/hariri-long/Projects/Annchen/Scripts/ArealMSHBM|
ew198|COMPLETED|scavenger|2023-05-17T15:01:59|2023-05-30T13:18:44|12-22:16:45|dcc-tmolab-01|1|1|16000M||/cifs/hariri-long/Projects/Annchen/Scripts/ArealMSHBM|
ew198|COMPLETED|scavenger|2023-05-17T15:01:59|2023-05-30T13:18:44|12-22:16:45|dcc-tmolab-01|1|1|16000M||/cifs/hariri-long/Projects/Annchen/Scripts/ArealMSHBM|
ew198|COMPLETED|scavenger|2023-05-17T15:01:59|2023-05-30T13:18:44|12-22:16:45|dcc-tmolab-01|1|1|16000M||/cifs/hariri-long/Projects/Annchen/Scripts/ArealMSHBM|
ew198|COMPLETED|scavenger|2023-05-17T15:02:00|2023-05-30T13:19:00|12-22:17:00|dcc-statdept-01|1|1|16000M||/cifs/hariri-long/Projects/Annchen/Scripts/ArealMSHBM|
ew198|COMPLETED|scavenger|2023-05-17T15:02:30|2023-05-30T13:19:00|12-22:16:30|dcc-statdept-01|1|1|16000M||/cifs/hariri-long/Projects/Annchen/Scripts/ArealMSHBM|
ew198|COMPLETED|scavenger|2023-05-17T15:02:30|2023-05-30T13:18:35|12-22:16:05|dcc-savageresearch-02|1|1|16000M||/cifs/hariri-long/Projects/Annchen/Scripts/ArealMSHBM|
ew198|COMPLETED|scavenger|2023-05-17T15:02:30|2023-05-30T13:18:35|12-22:16:05|dcc-savageresearch-02|1|1|16000M||/cifs/hariri-long/Projects/Annchen/Scripts/ArealMSHBM|
ew198|COMPLETED|scavenger|2023-05-17T15:02:30|2023-05-30T13:18:35|12-22:16:05|dcc-savageresearch-02|1|1|16000M||/cifs/hariri-long/Projects/Annchen/Scripts/ArealMSHBM|
ew198|COMPLETED|scavenger|2023-05-17T15:02:31|2023-05-30T13:18:35|12-22:16:04|dcc-savageresearch-02|1|1|16000M||/cifs/hariri-long/Projects/Annchen/Scripts/ArealMSHBM|
ew198|COMPLETED|scavenger|2023-05-17T15:02:31|2023-05-30T13:18:35|12-22:16:04|dcc-savageresearch-02|1|1|16000M||/cifs/hariri-long/Projects/Annchen/Scripts/ArealMSHBM|
ew198|COMPLETED|scavenger|2023-05-17T15:02:31|2023-05-30T13:18:35|12-22:16:04|dcc-savageresearch-02|1|1|16000M||/cifs/hariri-long/Projects/Annchen/Scripts/ArealMSHBM|
ew198|COMPLETED|scavenger|2023-05-17T15:02:31|2023-05-30T13:18:35|12-22:16:04|dcc-savageresearch-01|1|1|16000M||/cifs/hariri-long/Projects/Annchen/Scripts/ArealMSHBM|
ew198|COMPLETED|scavenger|2023-05-17T15:02:31|2023-05-30T13:18:35|12-22:16:04|dcc-savageresearch-01|1|1|16000M||/cifs/hariri-long/Projects/Annchen/Scripts/ArealMSHBM|
ew198|COMPLETED|scavenger|2023-05-17T15:02:31|2023-05-30T13:18:35|12-22:16:04|dcc-savageresearch-01|1|1|16000M||/cifs/hariri-long/Projects/Annchen/Scripts/ArealMSHBM|
ew198|COMPLETED|scavenger|2023-05-17T15:02:31|2023-05-30T13:18:52|12-22:16:21|dcc-rausherlab-02|1|1|16000M||/cifs/hariri-long/Projects/Annchen/Scripts/ArealMSHBM|
ew198|COMPLETED|scavenger|2023-05-17T15:02:31|2023-05-30T13:18:42|12-22:16:11|dcc-rausherlab-01|1|1|16000M||/cifs/hariri-long/Projects/Annchen/Scripts/ArealMSHBM|
ew198|COMPLETED|scavenger|2023-05-17T15:02:32|2023-05-30T13:18:42|12-22:16:10|dcc-rausherlab-01|1|1|16000M||/cifs/hariri-long/Projects/Annchen/Scripts/ArealMSHBM|
ew198|COMPLETED|scavenger|2023-05-17T15:02:32|2023-05-30T13:18:44|12-22:16:12|dcc-rausherlab-01|1|1|16000M||/cifs/hariri-long/Projects/Annchen/Scripts/ArealMSHBM|
ew198|COMPLETED|scavenger|2023-05-17T15:02:32|2023-05-30T13:18:44|12-22:16:12|dcc-rausherlab-01|1|1|16000M||/cifs/hariri-long/Projects/Annchen/Scripts/ArealMSHBM|
bp187|COMPLETED|scavenger|2023-05-21T09:28:37|2023-05-21T21:27:40|11:59:03|dcc-youlab-01|1|1|2000M||/hpc/home/bp187/proj/steane/build|
dg304|COMPLETED|scavenger|2023-05-19T09:38:39|2023-05-22T01:31:19|2-15:52:40|dcc-rausherlab-02|1|1|16G||/work/dg304/dala/sideprojects/fungal_genomes_tree|
dg304|COMPLETED|scavenger|2023-05-22T08:30:17|2023-05-22T08:44:41|00:14:24|dcc-cagpm-01|1|16|256G||/work/dg304/dala/cyanolichen_holobiome|
dg304|COMPLETED|scavenger|2023-05-22T08:30:17|2023-05-22T08:41:20|00:11:03|dcc-delairelab-01|1|16|256G||/work/dg304/dala/cyanolichen_holobiome|
dg304|COMPLETED|scavenger|2023-05-22T08:30:17|2023-05-22T08:41:24|00:11:07|dcc-donglab-01|1|16|256G||/work/dg304/dala/cyanolichen_holobiome|
dg304|COMPLETED|scavenger|2023-05-22T08:30:17|2023-05-22T08:45:27|00:15:10|dcc-kirschlab-01|1|16|256G||/work/dg304/dala/cyanolichen_holobiome|
dg304|COMPLETED|scavenger|2023-05-22T08:30:17|2023-05-22T08:43:15|00:12:58|dcc-nsoe-it-01|1|16|256G||/work/dg304/dala/cyanolichen_holobiome|
dg304|COMPLETED|scavenger|2023-05-22T08:41:23|2023-05-22T08:47:34|00:06:11|dcc-delairelab-01|1|16|256G||/work/dg304/dala/cyanolichen_holobiome|
dg304|COMPLETED|scavenger|2023-05-22T08:41:27|2023-05-22T08:46:44|00:05:17|dcc-donglab-01|1|16|256G||/work/dg304/dala/cyanolichen_holobiome|
dg304|COMPLETED|scavenger|2023-05-22T08:43:20|2023-05-22T08:48:05|00:04:45|dcc-nsoe-it-01|1|16|256G||/work/dg304/dala/cyanolichen_holobiome|
dg304|COMPLETED|scavenger|2023-05-22T08:44:43|2023-05-22T08:56:06|00:11:23|dcc-cagpm-01|1|16|256G||/work/dg304/dala/cyanolichen_holobiome|
dg304|COMPLETED|scavenger|2023-05-22T08:45:27|2023-05-22T08:49:57|00:04:30|dcc-kirschlab-01|1|16|256G||/work/dg304/dala/cyanolichen_holobiome|
dg304|COMPLETED|scavenger|2023-05-22T08:46:47|2023-05-22T08:48:37|00:01:50|dcc-donglab-01|1|16|256G||/work/dg304/dala/cyanolichen_holobiome|
dg304|COMPLETED|scavenger|2023-05-22T08:47:36|2023-05-22T08:50:40|00:03:04|dcc-delairelab-01|1|16|256G||/work/dg304/dala/cyanolichen_holobiome|
jml165|COMPLETED|scavenger|2023-05-19T18:32:02|2023-05-21T23:26:30|2-04:54:28|dcc-pbenfeylab-01|1|1|2000M||/hpc/home/jml165/rl/lawson-bandits|
jml165|COMPLETED|scavenger|2023-05-19T18:34:38|2023-05-21T22:09:20|2-03:34:42|dcc-hulab-05|1|1|2000M||/hpc/home/jml165/rl/lawson-bandits|
jml165|COMPLETED|scavenger|2023-05-19T18:35:20|2023-05-21T22:31:51|2-03:56:31|dcc-hulab-04|1|1|2000M||/hpc/home/jml165/rl/lawson-bandits|
jml165|COMPLETED|scavenger|2023-05-19T18:35:56|2023-05-21T23:13:37|2-04:37:41|dcc-hulab-04|1|1|2000M||/hpc/home/jml165/rl/lawson-bandits|
jml165|COMPLETED|scavenger|2023-05-19T18:35:56|2023-05-22T01:28:55|2-06:52:59|dcc-hulab-04|1|1|2000M||/hpc/home/jml165/rl/lawson-bandits|
jml165|COMPLETED|scavenger|2023-05-19T18:35:57|2023-05-22T00:06:47|2-05:30:50|dcc-hulab-04|1|1|2000M||/hpc/home/jml165/rl/lawson-bandits|
jml165|COMPLETED|scavenger|2023-05-19T18:35:57|2023-05-22T03:08:52|2-08:32:55|dcc-hulab-04|1|1|2000M||/hpc/home/jml165/rl/lawson-bandits|
jml165|COMPLETED|scavenger|2023-05-19T18:35:57|2023-05-21T22:45:22|2-04:09:25|dcc-hulab-04|1|1|2000M||/hpc/home/jml165/rl/lawson-bandits|
jml165|COMPLETED|scavenger|2023-05-19T18:35:58|2023-05-21T23:09:06|2-04:33:08|dcc-hulab-04|1|1|2000M||/hpc/home/jml165/rl/lawson-bandits|
jml165|COMPLETED|scavenger|2023-05-19T18:37:57|2023-05-21T21:10:45|2-02:32:48|dcc-gcb-15|1|1|2000M||/hpc/home/jml165/rl/lawson-bandits|
yl708|COMPLETED|scavenger|2023-05-21T18:36:50|2023-05-21T20:06:19|01:29:29|dcc-wychem-01|1|1|2500M||/hpc/group/donald/yl708/TopologyNet-2017/perturbations|
yl708|COMPLETED|scavenger|2023-05-21T18:49:22|2023-05-21T20:00:52|01:11:30|dcc-youlab-01|1|1|2500M||/hpc/group/donald/yl708/TopologyNet-2017/perturbations|
yl708|COMPLETED|scavenger|2023-05-21T18:51:35|2023-05-21T20:03:15|01:11:40|dcc-youlab-01|1|1|2500M||/hpc/group/donald/yl708/TopologyNet-2017/perturbations|
yl708|COMPLETED|scavenger|2023-05-21T18:54:50|2023-05-21T20:06:31|01:11:41|dcc-youlab-01|1|1|2500M||/hpc/group/donald/yl708/TopologyNet-2017/perturbations|
yl708|COMPLETED|scavenger|2023-05-21T18:54:50|2023-05-21T20:06:39|01:11:49|dcc-youlab-01|1|1|2500M||/hpc/group/donald/yl708/TopologyNet-2017/perturbations|
yl708|COMPLETED|scavenger|2023-05-21T18:55:57|2023-05-21T20:06:59|01:11:02|dcc-youlab-01|1|1|2500M||/hpc/group/donald/yl708/TopologyNet-2017/perturbations|
yl708|COMPLETED|scavenger|2023-05-21T18:56:29|2023-05-21T20:07:23|01:10:54|dcc-youlab-01|1|1|2500M||/hpc/group/donald/yl708/TopologyNet-2017/perturbations|
yl708|COMPLETED|scavenger|2023-05-21T19:01:21|2023-05-21T20:12:52|01:11:31|dcc-youlab-01|1|1|2500M||/hpc/group/donald/yl708/TopologyNet-2017/perturbations|
yl708|COMPLETED|scavenger|2023-05-21T19:10:42|2023-05-21T20:22:33|01:11:51|dcc-youlab-01|1|1|2500M||/hpc/group/donald/yl708/TopologyNet-2017/perturbations|
yl708|COMPLETED|scavenger|2023-05-21T19:10:43|2023-05-21T20:21:33|01:10:50|dcc-youlab-01|1|1|2500M||/hpc/group/donald/yl708/TopologyNet-2017/perturbations|
yl708|COMPLETED|scavenger|2023-05-21T19:10:10|2023-05-21T20:22:05|01:11:55|dcc-youlab-01|1|1|2500M||/hpc/group/donald/yl708/TopologyNet-2017/perturbations|
yl708|COMPLETED|scavenger|2023-05-21T19:14:06|2023-05-21T20:24:41|01:10:35|dcc-youlab-01|1|1|2500M||/hpc/group/donald/yl708/TopologyNet-2017/perturbations|
yl708|COMPLETED|scavenger|2023-05-21T19:18:05|2023-05-21T20:28:31|01:10:26|dcc-youlab-01|1|1|2500M||/hpc/group/donald/yl708/TopologyNet-2017/perturbations|
yl708|COMPLETED|scavenger|2023-05-21T19:18:40|2023-05-21T20:29:34|01:10:54|dcc-youlab-01|1|1|2500M||/hpc/group/donald/yl708/TopologyNet-2017/perturbations|
yl708|COMPLETED|scavenger|2023-05-21T19:20:17|2023-05-21T20:49:50|01:29:33|dcc-wychem-01|1|1|2500M||/hpc/group/donald/yl708/TopologyNet-2017/perturbations|
yl708|COMPLETED|scavenger|2023-05-21T19:20:18|2023-05-21T20:50:10|01:29:52|dcc-wychem-01|1|1|2500M||/hpc/group/donald/yl708/TopologyNet-2017/perturbations|
yl708|COMPLETED|scavenger|2023-05-21T19:29:35|2023-05-21T20:41:05|01:11:30|dcc-youlab-01|1|1|2500M||/hpc/group/donald/yl708/TopologyNet-2017/perturbations|
yl708|COMPLETED|scavenger|2023-05-21T19:31:14|2023-05-21T21:00:00|01:28:46|dcc-wychem-01|1|1|2500M||/hpc/group/donald/yl708/TopologyNet-2017/perturbations|
yl708|COMPLETED|scavenger|2023-05-21T19:33:57|2023-05-21T20:43:11|01:09:14|dcc-youlab-01|1|1|2500M||/hpc/group/donald/yl708/TopologyNet-2017/perturbations|
yl708|COMPLETED|scavenger|2023-05-21T19:37:12|2023-05-21T21:44:30|02:07:18|dcc-tunglab-01|1|1|2500M||/hpc/group/donald/yl708/TopologyNet-2017/perturbations|
yl708|COMPLETED|scavenger|2023-05-21T19:40:28|2023-05-21T20:52:03|01:11:35|dcc-youlab-01|1|1|2500M||/hpc/group/donald/yl708/TopologyNet-2017/perturbations|
yl708|COMPLETED|scavenger|2023-05-21T20:09:46|2023-05-21T21:20:35|01:10:49|dcc-youlab-01|1|1|2500M||/hpc/group/donald/yl708/TopologyNet-2017/perturbations|
yl708|COMPLETED|scavenger|2023-05-21T20:09:49|2023-05-21T21:38:17|01:28:28|dcc-wychem-01|1|1|2500M||/hpc/group/donald/yl708/TopologyNet-2017/perturbations|
yl708|COMPLETED|scavenger|2023-05-21T20:08:43|2023-05-21T21:19:07|01:10:24|dcc-youlab-01|1|1|2500M||/hpc/group/donald/yl708/TopologyNet-2017/perturbations|
yl708|COMPLETED|scavenger|2023-05-21T20:40:44|2023-05-21T21:51:16|01:10:32|dcc-youlab-01|1|1|2500M||/hpc/group/donald/yl708/TopologyNet-2017/perturbations|
yl708|COMPLETED|scavenger|2023-05-21T20:43:26|2023-05-21T21:54:24|01:10:58|dcc-youlab-01|1|1|2500M||/hpc/group/donald/yl708/TopologyNet-2017/perturbations|
yl708|COMPLETED|scavenger|2023-05-21T20:50:32|2023-05-21T22:01:32|01:11:00|dcc-youlab-01|1|1|2500M||/hpc/group/donald/yl708/TopologyNet-2017/perturbations|
yl708|COMPLETED|scavenger|2023-05-21T21:11:40|2023-05-21T22:23:20|01:11:40|dcc-youlab-01|1|1|2500M||/hpc/group/donald/yl708/TopologyNet-2017/perturbations|
yl708|COMPLETED|scavenger|2023-05-21T21:08:56|2023-05-21T22:20:15|01:11:19|dcc-youlab-01|1|1|2500M||/hpc/group/donald/yl708/TopologyNet-2017/perturbations|
yl708|COMPLETED|scavenger|2023-05-21T21:12:46|2023-05-21T22:24:27|01:11:41|dcc-youlab-01|1|1|2500M||/hpc/group/donald/yl708/TopologyNet-2017/perturbations|
yl708|COMPLETED|scavenger|2023-05-21T21:12:46|2023-05-21T22:24:27|01:11:41|dcc-youlab-01|1|1|2500M||/hpc/group/donald/yl708/TopologyNet-2017/perturbations|
yl708|COMPLETED|scavenger|2023-05-21T21:14:54|2023-05-21T22:26:34|01:11:40|dcc-youlab-01|1|1|2500M||/hpc/group/donald/yl708/TopologyNet-2017/perturbations|
yl708|COMPLETED|scavenger|2023-05-21T21:14:54|2023-05-21T22:21:42|01:06:48|dcc-youlab-01|1|1|2500M||/hpc/group/donald/yl708/TopologyNet-2017/perturbations|
yl708|COMPLETED|scavenger|2023-05-21T21:15:27|2023-05-21T22:22:03|01:06:36|dcc-youlab-01|1|1|2500M||/hpc/group/donald/yl708/TopologyNet-2017/perturbations|
yl708|COMPLETED|scavenger|2023-05-21T21:19:17|2023-05-21T22:30:46|01:11:29|dcc-youlab-01|1|1|2500M||/hpc/group/donald/yl708/TopologyNet-2017/perturbations|
yl708|COMPLETED|scavenger|2023-05-21T21:37:08|2023-05-21T22:48:35|01:11:27|dcc-youlab-01|1|1|2500M||/hpc/group/donald/yl708/TopologyNet-2017/perturbations|
yl708|COMPLETED|scavenger|2023-05-21T21:40:55|2023-05-21T22:52:29|01:11:34|dcc-youlab-01|1|1|2500M||/hpc/group/donald/yl708/TopologyNet-2017/perturbations|
yl708|COMPLETED|scavenger|2023-05-21T21:58:59|2023-05-21T23:10:11|01:11:12|dcc-youlab-01|1|1|2500M||/hpc/group/donald/yl708/TopologyNet-2017/perturbations|
yl708|COMPLETED|scavenger|2023-05-21T22:00:36|2023-05-21T23:12:02|01:11:26|dcc-youlab-01|1|1|2500M||/hpc/group/donald/yl708/TopologyNet-2017/perturbations|
yl708|COMPLETED|scavenger|2023-05-21T22:16:55|2023-05-21T23:27:34|01:10:39|dcc-youlab-01|1|1|2500M||/hpc/group/donald/yl708/TopologyNet-2017/perturbations|
yl708|COMPLETED|scavenger|2023-05-21T22:40:02|2023-05-21T23:46:36|01:06:34|dcc-youlab-01|1|1|2500M||/hpc/group/donald/yl708/TopologyNet-2017/perturbations|
yl708|COMPLETED|scavenger|2023-05-21T22:40:02|2023-05-22T01:02:17|02:22:15|dcc-velmeshevlab-01|1|1|2500M||/hpc/group/donald/yl708/TopologyNet-2017/perturbations|
yl708|COMPLETED|scavenger|2023-05-21T22:40:35|2023-05-22T01:04:35|02:24:00|dcc-velmeshevlab-01|1|1|2500M||/hpc/group/donald/yl708/TopologyNet-2017/perturbations|
yl708|COMPLETED|scavenger|2023-05-21T22:40:35|2023-05-22T01:03:33|02:22:58|dcc-velmeshevlab-01|1|1|2500M||/hpc/group/donald/yl708/TopologyNet-2017/perturbations|
yl708|COMPLETED|scavenger|2023-05-21T22:42:15|2023-05-22T01:04:00|02:21:45|dcc-velmeshevlab-01|1|1|2500M||/hpc/group/donald/yl708/TopologyNet-2017/perturbations|
yl708|COMPLETED|scavenger|2023-05-21T22:47:07|2023-05-22T01:07:06|02:19:59|dcc-velmeshevlab-01|1|1|2500M||/hpc/group/donald/yl708/TopologyNet-2017/perturbations|
yl708|COMPLETED|scavenger|2023-05-21T22:55:16|2023-05-22T00:05:35|01:10:19|dcc-youlab-01|1|1|2500M||/hpc/group/donald/yl708/TopologyNet-2017/perturbations|
yl708|COMPLETED|scavenger|2023-05-21T22:58:01|2023-05-22T00:09:35|01:11:34|dcc-youlab-01|1|1|2500M||/hpc/group/donald/yl708/TopologyNet-2017/perturbations|
yl708|COMPLETED|scavenger|2023-05-21T23:08:58|2023-05-22T01:29:32|02:20:34|dcc-velmeshevlab-01|1|1|2500M||/hpc/group/donald/yl708/TopologyNet-2017/perturbations|
yl708|COMPLETED|scavenger|2023-05-21T23:11:42|2023-05-22T00:41:01|01:29:19|dcc-wychem-01|1|1|2500M||/hpc/group/donald/yl708/TopologyNet-2017/perturbations|
yl708|COMPLETED|scavenger|2023-05-21T23:16:42|2023-05-22T00:28:31|01:11:49|dcc-youlab-01|1|1|2500M||/hpc/group/donald/yl708/TopologyNet-2017/perturbations|
yl708|COMPLETED|scavenger|2023-05-21T23:16:42|2023-05-22T00:28:11|01:11:29|dcc-youlab-01|1|1|2500M||/hpc/group/donald/yl708/TopologyNet-2017/perturbations|
yl708|COMPLETED|scavenger|2023-05-21T23:18:23|2023-05-22T00:46:50|01:28:27|dcc-wychem-01|1|1|2500M||/hpc/group/donald/yl708/TopologyNet-2017/perturbations|
yl708|COMPLETED|scavenger|2023-05-21T23:18:23|2023-05-22T00:46:17|01:27:54|dcc-wychem-01|1|1|2500M||/hpc/group/donald/yl708/TopologyNet-2017/perturbations|
yl708|COMPLETED|scavenger|2023-05-21T23:18:23|2023-05-22T00:46:53|01:28:30|dcc-wychem-01|1|1|2500M||/hpc/group/donald/yl708/TopologyNet-2017/perturbations|
yl708|COMPLETED|scavenger|2023-05-21T23:21:11|2023-05-22T00:32:59|01:11:48|dcc-youlab-01|1|1|2500M||/hpc/group/donald/yl708/TopologyNet-2017/perturbations|
yl708|COMPLETED|scavenger|2023-05-21T23:21:11|2023-05-22T00:29:28|01:08:17|dcc-youlab-01|1|1|2500M||/hpc/group/donald/yl708/TopologyNet-2017/perturbations|
yl708|COMPLETED|scavenger|2023-05-21T23:21:11|2023-05-22T00:29:27|01:08:16|dcc-youlab-01|1|1|2500M||/hpc/group/donald/yl708/TopologyNet-2017/perturbations|
yl708|COMPLETED|scavenger|2023-05-21T23:27:46|2023-05-22T00:39:13|01:11:27|dcc-youlab-01|1|1|2500M||/hpc/group/donald/yl708/TopologyNet-2017/perturbations|
yl708|COMPLETED|scavenger|2023-05-21T23:37:12|2023-05-22T00:48:37|01:11:25|dcc-youlab-01|1|1|2500M||/hpc/group/donald/yl708/TopologyNet-2017/perturbations|
yl708|COMPLETED|scavenger|2023-05-21T23:40:31|2023-05-22T00:47:53|01:07:22|dcc-youlab-01|1|1|2500M||/hpc/group/donald/yl708/TopologyNet-2017/perturbations|
yl708|COMPLETED|scavenger|2023-05-22T00:14:38|2023-05-22T01:24:55|01:10:17|dcc-youlab-01|1|1|2500M||/hpc/group/donald/yl708/TopologyNet-2017/perturbations|
yl708|COMPLETED|scavenger|2023-05-22T00:21:15|2023-05-22T01:32:29|01:11:14|dcc-youlab-01|1|1|2500M||/hpc/group/donald/yl708/TopologyNet-2017/perturbations|
yl708|COMPLETED|scavenger|2023-05-22T00:28:57|2023-05-22T01:40:15|01:11:18|dcc-youlab-01|1|1|2500M||/hpc/group/donald/yl708/TopologyNet-2017/perturbations|
yl708|COMPLETED|scavenger|2023-05-22T00:43:44|2023-05-22T01:55:16|01:11:32|dcc-youlab-01|1|1|2500M||/hpc/group/donald/yl708/TopologyNet-2017/perturbations|
yl708|COMPLETED|scavenger|2023-05-22T00:51:29|2023-05-22T02:03:18|01:11:49|dcc-youlab-01|1|1|2500M||/hpc/group/donald/yl708/TopologyNet-2017/perturbations|
yl708|COMPLETED|scavenger|2023-05-22T00:52:40|2023-05-22T02:20:47|01:28:07|dcc-wychem-01|1|1|2500M||/hpc/group/donald/yl708/TopologyNet-2017/perturbations|
yl708|COMPLETED|scavenger|2023-05-22T01:08:29|2023-05-22T02:21:15|01:12:46|dcc-youlab-01|1|1|2500M||/hpc/group/donald/yl708/TopologyNet-2017/perturbations|
yl708|COMPLETED|scavenger|2023-05-22T01:10:43|2023-05-22T02:22:32|01:11:49|dcc-youlab-01|1|1|2500M||/hpc/group/donald/yl708/TopologyNet-2017/perturbations|
yl708|COMPLETED|scavenger|2023-05-22T01:14:02|2023-05-22T02:25:56|01:11:54|dcc-youlab-01|1|1|2500M||/hpc/group/donald/yl708/TopologyNet-2017/perturbations|
yl708|COMPLETED|scavenger|2023-05-22T01:17:54|2023-05-22T02:30:16|01:12:22|dcc-youlab-01|1|1|2500M||/hpc/group/donald/yl708/TopologyNet-2017/perturbations|
yl708|COMPLETED|scavenger|2023-05-22T01:18:26|2023-05-22T02:30:28|01:12:02|dcc-youlab-01|1|1|2500M||/hpc/group/donald/yl708/TopologyNet-2017/perturbations|
yl708|COMPLETED|scavenger|2023-05-22T01:20:03|2023-05-22T02:31:55|01:11:52|dcc-youlab-01|1|1|2500M||/hpc/group/donald/yl708/TopologyNet-2017/perturbations|
yl708|COMPLETED|scavenger|2023-05-22T01:21:09|2023-05-22T02:33:19|01:12:10|dcc-youlab-01|1|1|2500M||/hpc/group/donald/yl708/TopologyNet-2017/perturbations|
yl708|COMPLETED|scavenger|2023-05-22T01:24:54|2023-05-22T02:37:03|01:12:09|dcc-youlab-01|1|1|2500M||/hpc/group/donald/yl708/TopologyNet-2017/perturbations|
yl708|COMPLETED|scavenger|2023-05-22T01:24:54|2023-05-22T02:37:20|01:12:26|dcc-youlab-01|1|1|2500M||/hpc/group/donald/yl708/TopologyNet-2017/perturbations|
yl708|COMPLETED|scavenger|2023-05-22T01:25:27|2023-05-22T02:36:59|01:11:32|dcc-youlab-01|1|1|2500M||/hpc/group/donald/yl708/TopologyNet-2017/perturbations|
yl708|COMPLETED|scavenger|2023-05-22T01:26:31|2023-05-22T02:38:42|01:12:11|dcc-youlab-01|1|1|2500M||/hpc/group/donald/yl708/TopologyNet-2017/perturbations|
yl708|COMPLETED|scavenger|2023-05-22T01:28:11|2023-05-22T02:41:16|01:13:05|dcc-youlab-01|1|1|2500M||/hpc/group/donald/yl708/TopologyNet-2017/perturbations|
yl708|COMPLETED|scavenger|2023-05-22T01:29:48|2023-05-22T02:41:50|01:12:02|dcc-youlab-01|1|1|2500M||/hpc/group/donald/yl708/TopologyNet-2017/perturbations|
yl708|COMPLETED|scavenger|2023-05-22T01:34:11|2023-05-22T02:46:10|01:11:59|dcc-youlab-01|1|1|2500M||/hpc/group/donald/yl708/TopologyNet-2017/perturbations|
yl708|COMPLETED|scavenger|2023-05-22T01:34:43|2023-05-22T03:04:37|01:29:54|dcc-wychem-01|1|1|2500M||/hpc/group/donald/yl708/TopologyNet-2017/perturbations|
yl708|COMPLETED|scavenger|2023-05-22T01:33:06|2023-05-22T02:44:30|01:11:24|dcc-youlab-01|1|1|2500M||/hpc/group/donald/yl708/TopologyNet-2017/perturbations|
yl708|COMPLETED|scavenger|2023-05-22T01:37:27|2023-05-22T03:07:34|01:30:07|dcc-wychem-01|1|1|2500M||/hpc/group/donald/yl708/TopologyNet-2017/perturbations|
yl708|COMPLETED|scavenger|2023-05-22T01:42:19|2023-05-22T02:53:57|01:11:38|dcc-youlab-01|1|1|2500M||/hpc/group/donald/yl708/TopologyNet-2017/perturbations|
yl708|COMPLETED|scavenger|2023-05-22T01:43:27|2023-05-22T03:13:05|01:29:38|dcc-wychem-01|1|1|2500M||/hpc/group/donald/yl708/TopologyNet-2017/perturbations|
yl708|COMPLETED|scavenger|2023-05-22T01:44:00|2023-05-22T03:14:31|01:30:31|dcc-wychem-01|1|1|2500M||/hpc/group/donald/yl708/TopologyNet-2017/perturbations|
yl708|COMPLETED|scavenger|2023-05-22T01:48:21|2023-05-22T03:17:23|01:29:02|dcc-wychem-01|1|1|2500M||/hpc/group/donald/yl708/TopologyNet-2017/perturbations|
yl708|COMPLETED|scavenger|2023-05-22T01:51:05|2023-05-22T03:20:10|01:29:05|dcc-wychem-01|1|1|2500M||/hpc/group/donald/yl708/TopologyNet-2017/perturbations|
yl708|COMPLETED|scavenger|2023-05-22T01:54:21|2023-05-22T03:23:26|01:29:05|dcc-wychem-01|1|1|2500M||/hpc/group/donald/yl708/TopologyNet-2017/perturbations|
yl708|COMPLETED|scavenger|2023-05-22T01:54:21|2023-05-22T03:23:10|01:28:49|dcc-wychem-01|1|1|2500M||/hpc/group/donald/yl708/TopologyNet-2017/perturbations|
yl708|COMPLETED|scavenger|2023-05-22T02:00:55|2023-05-22T03:12:02|01:11:07|dcc-youlab-01|1|1|2500M||/hpc/group/donald/yl708/TopologyNet-2017/perturbations|
yl708|COMPLETED|scavenger|2023-05-22T02:17:42|2023-05-22T03:29:18|01:11:36|dcc-youlab-01|1|1|2500M||/hpc/group/donald/yl708/TopologyNet-2017/perturbations|
yl708|COMPLETED|scavenger|2023-05-22T02:23:12|2023-05-22T03:34:59|01:11:47|dcc-youlab-01|1|1|2500M||/hpc/group/donald/yl708/TopologyNet-2017/perturbations|
yl708|COMPLETED|scavenger|2023-05-22T02:34:41|2023-05-22T03:46:28|01:11:47|dcc-youlab-01|1|1|2500M||/hpc/group/donald/yl708/TopologyNet-2017/perturbations|
yl708|COMPLETED|scavenger|2023-05-22T02:35:14|2023-05-22T03:46:47|01:11:33|dcc-youlab-01|1|1|2500M||/hpc/group/donald/yl708/TopologyNet-2017/perturbations|
yl708|COMPLETED|scavenger|2023-05-22T02:39:03|2023-05-22T03:50:53|01:11:50|dcc-youlab-01|1|1|2500M||/hpc/group/donald/yl708/TopologyNet-2017/perturbations|
yl708|COMPLETED|scavenger|2023-05-22T02:50:02|2023-05-22T04:01:50|01:11:48|dcc-youlab-01|1|1|2500M||/hpc/group/donald/yl708/TopologyNet-2017/perturbations|
yl708|COMPLETED|scavenger|2023-05-22T02:46:10|2023-05-22T04:13:50|01:27:40|dcc-wychem-01|1|1|2500M||/hpc/group/donald/yl708/TopologyNet-2017/perturbations|
yl708|COMPLETED|scavenger|2023-05-22T02:51:09|2023-05-22T04:02:45|01:11:36|dcc-youlab-01|1|1|2500M||/hpc/group/donald/yl708/TopologyNet-2017/perturbations|
yl708|COMPLETED|scavenger|2023-05-22T02:51:41|2023-05-22T04:03:01|01:11:20|dcc-youlab-01|1|1|2500M||/hpc/group/donald/yl708/TopologyNet-2017/perturbations|
yl708|COMPLETED|scavenger|2023-05-22T02:49:30|2023-05-22T04:01:24|01:11:54|dcc-youlab-01|1|1|2500M||/hpc/group/donald/yl708/TopologyNet-2017/perturbations|
yl708|COMPLETED|scavenger|2023-05-22T02:58:50|2023-05-22T04:10:28|01:11:38|dcc-youlab-01|1|1|2500M||/hpc/group/donald/yl708/TopologyNet-2017/perturbations|
yl708|COMPLETED|scavenger|2023-05-22T03:06:27|2023-05-22T04:17:56|01:11:29|dcc-youlab-01|1|1|2500M||/hpc/group/donald/yl708/TopologyNet-2017/perturbations|
yl708|COMPLETED|scavenger|2023-05-22T03:07:02|2023-05-22T04:18:58|01:11:56|dcc-youlab-01|1|1|2500M||/hpc/group/donald/yl708/TopologyNet-2017/perturbations|
yl708|COMPLETED|scavenger|2023-05-22T03:11:54|2023-05-22T04:24:33|01:12:39|dcc-youlab-01|1|1|2500M||/hpc/group/donald/yl708/TopologyNet-2017/perturbations|
yl708|COMPLETED|scavenger|2023-05-22T03:09:44|2023-05-22T04:21:39|01:11:55|dcc-youlab-01|1|1|2500M||/hpc/group/donald/yl708/TopologyNet-2017/perturbations|
yl708|COMPLETED|scavenger|2023-05-22T03:11:22|2023-05-22T04:23:32|01:12:10|dcc-youlab-01|1|1|2500M||/hpc/group/donald/yl708/TopologyNet-2017/perturbations|
yl708|COMPLETED|scavenger|2023-05-22T03:20:02|2023-05-22T04:31:40|01:11:38|dcc-youlab-01|1|1|2500M||/hpc/group/donald/yl708/TopologyNet-2017/perturbations|
yl708|COMPLETED|scavenger|2023-05-22T03:19:30|2023-05-22T04:30:59|01:11:29|dcc-youlab-01|1|1|2500M||/hpc/group/donald/yl708/TopologyNet-2017/perturbations|
yl708|COMPLETED|scavenger|2023-05-22T03:29:10|2023-05-22T04:40:50|01:11:40|dcc-youlab-01|1|1|2500M||/hpc/group/donald/yl708/TopologyNet-2017/perturbations|
yl708|COMPLETED|scavenger|2023-05-22T03:30:15|2023-05-22T04:40:48|01:10:33|dcc-youlab-01|1|1|2500M||/hpc/group/donald/yl708/TopologyNet-2017/perturbations|
yl708|COMPLETED|scavenger|2023-05-22T03:39:26|2023-05-22T04:50:40|01:11:14|dcc-youlab-01|1|1|2500M||/hpc/group/donald/yl708/TopologyNet-2017/perturbations|
yl708|COMPLETED|scavenger|2023-05-22T03:41:37|2023-05-22T05:07:58|01:26:21|dcc-wychem-01|1|1|2500M||/hpc/group/donald/yl708/TopologyNet-2017/perturbations|
yl708|COMPLETED|scavenger|2023-05-22T03:41:37|2023-05-22T05:07:23|01:25:46|dcc-wychem-01|1|1|2500M||/hpc/group/donald/yl708/TopologyNet-2017/perturbations|
yl708|COMPLETED|scavenger|2023-05-22T03:42:09|2023-05-22T05:09:50|01:27:41|dcc-wychem-01|1|1|2500M||/hpc/group/donald/yl708/TopologyNet-2017/perturbations|
yl708|COMPLETED|scavenger|2023-05-22T03:45:57|2023-05-22T05:14:16|01:28:19|dcc-wychem-01|1|1|2500M||/hpc/group/donald/yl708/TopologyNet-2017/perturbations|
yl708|COMPLETED|scavenger|2023-05-22T04:04:51|2023-05-22T05:16:18|01:11:27|dcc-youlab-01|1|1|2500M||/hpc/group/donald/yl708/TopologyNet-2017/perturbations|
yl708|COMPLETED|scavenger|2023-05-22T04:05:24|2023-05-22T05:17:09|01:11:45|dcc-youlab-01|1|1|2500M||/hpc/group/donald/yl708/TopologyNet-2017/perturbations|
yl708|COMPLETED|scavenger|2023-05-22T04:04:19|2023-05-22T05:16:16|01:11:57|dcc-youlab-01|1|1|2500M||/hpc/group/donald/yl708/TopologyNet-2017/perturbations|
yl708|COMPLETED|scavenger|2023-05-22T04:02:42|2023-05-22T05:13:55|01:11:13|dcc-youlab-01|1|1|2500M||/hpc/group/donald/yl708/TopologyNet-2017/perturbations|
yl708|COMPLETED|scavenger|2023-05-22T04:14:35|2023-05-22T05:25:45|01:11:10|dcc-youlab-01|1|1|2500M||/hpc/group/donald/yl708/TopologyNet-2017/perturbations|
yl708|COMPLETED|scavenger|2023-05-22T04:30:15|2023-05-22T05:42:27|01:12:12|dcc-youlab-01|1|1|2500M||/hpc/group/donald/yl708/TopologyNet-2017/perturbations|
yl708|COMPLETED|scavenger|2023-05-22T04:30:15|2023-05-22T05:41:54|01:11:39|dcc-youlab-01|1|1|2500M||/hpc/group/donald/yl708/TopologyNet-2017/perturbations|
yl708|COMPLETED|scavenger|2023-05-22T04:34:35|2023-05-22T05:46:24|01:11:49|dcc-youlab-01|1|1|2500M||/hpc/group/donald/yl708/TopologyNet-2017/perturbations|
yl708|COMPLETED|scavenger|2023-05-22T04:40:33|2023-05-22T05:52:02|01:11:29|dcc-youlab-01|1|1|2500M||/hpc/group/donald/yl708/TopologyNet-2017/perturbations|
yl708|COMPLETED|scavenger|2023-05-22T04:49:10|2023-05-22T06:00:54|01:11:44|dcc-youlab-01|1|1|2500M||/hpc/group/donald/yl708/TopologyNet-2017/perturbations|
yl708|COMPLETED|scavenger|2023-05-22T04:50:48|2023-05-22T06:02:36|01:11:48|dcc-youlab-01|1|1|2500M||/hpc/group/donald/yl708/TopologyNet-2017/perturbations|
yl708|COMPLETED|scavenger|2023-05-22T04:50:48|2023-05-22T06:01:25|01:10:37|dcc-youlab-01|1|1|2500M||/hpc/group/donald/yl708/TopologyNet-2017/perturbations|
yl708|COMPLETED|scavenger|2023-05-22T05:05:51|2023-05-22T06:16:56|01:11:05|dcc-youlab-01|1|1|2500M||/hpc/group/donald/yl708/TopologyNet-2017/perturbations|
yl708|COMPLETED|scavenger|2023-05-22T05:07:27|2023-05-22T06:18:18|01:10:51|dcc-youlab-01|1|1|2500M||/hpc/group/donald/yl708/TopologyNet-2017/perturbations|
yl708|COMPLETED|scavenger|2023-05-22T05:15:08|2023-05-22T06:26:28|01:11:20|dcc-youlab-01|1|1|2500M||/hpc/group/donald/yl708/TopologyNet-2017/perturbations|
yl708|COMPLETED|scavenger|2023-05-22T05:22:06|2023-05-22T06:33:59|01:11:53|dcc-youlab-01|1|1|2500M||/hpc/group/donald/yl708/TopologyNet-2017/perturbations|
yl708|COMPLETED|scavenger|2023-05-22T05:22:06|2023-05-22T06:33:43|01:11:37|dcc-youlab-01|1|1|2500M||/hpc/group/donald/yl708/TopologyNet-2017/perturbations|
yl708|COMPLETED|scavenger|2023-05-22T05:23:44|2023-05-22T06:34:11|01:10:27|dcc-youlab-01|1|1|2500M||/hpc/group/donald/yl708/TopologyNet-2017/perturbations|
yl708|COMPLETED|scavenger|2023-05-22T05:23:11|2023-05-22T06:34:37|01:11:26|dcc-youlab-01|1|1|2500M||/hpc/group/donald/yl708/TopologyNet-2017/perturbations|
yl708|COMPLETED|scavenger|2023-05-22T05:35:36|2023-05-22T06:46:31|01:10:55|dcc-youlab-01|1|1|2500M||/hpc/group/donald/yl708/TopologyNet-2017/perturbations|
yl708|COMPLETED|scavenger|2023-05-22T05:32:55|2023-05-22T06:44:14|01:11:19|dcc-youlab-01|1|1|2500M||/hpc/group/donald/yl708/TopologyNet-2017/perturbations|
yl708|COMPLETED|scavenger|2023-05-22T05:53:22|2023-05-22T07:04:46|01:11:24|dcc-youlab-01|1|1|2500M||/hpc/group/donald/yl708/TopologyNet-2017/perturbations|
yl708|COMPLETED|scavenger|2023-05-22T05:59:53|2023-05-22T07:11:19|01:11:26|dcc-youlab-01|1|1|2500M||/hpc/group/donald/yl708/TopologyNet-2017/perturbations|
yl708|COMPLETED|scavenger|2023-05-22T06:01:31|2023-05-22T07:12:54|01:11:23|dcc-youlab-01|1|1|2500M||/hpc/group/donald/yl708/TopologyNet-2017/perturbations|
yl708|COMPLETED|scavenger|2023-05-22T06:21:53|2023-05-22T07:33:33|01:11:40|dcc-youlab-01|1|1|2500M||/hpc/group/donald/yl708/TopologyNet-2017/perturbations|
yl708|COMPLETED|scavenger|2023-05-22T06:21:53|2023-05-22T07:34:01|01:12:08|dcc-youlab-01|1|1|2500M||/hpc/group/donald/yl708/TopologyNet-2017/perturbations|
yl708|COMPLETED|scavenger|2023-05-22T06:24:33|2023-05-22T07:36:36|01:12:03|dcc-youlab-01|1|1|2500M||/hpc/group/donald/yl708/TopologyNet-2017/perturbations|
yl708|COMPLETED|scavenger|2023-05-22T06:27:15|2023-05-22T07:38:55|01:11:40|dcc-youlab-01|1|1|2500M||/hpc/group/donald/yl708/TopologyNet-2017/perturbations|
yl708|COMPLETED|scavenger|2023-05-22T06:48:49|2023-05-22T07:59:52|01:11:03|dcc-youlab-01|1|1|2500M||/hpc/group/donald/yl708/TopologyNet-2017/perturbations|
yl708|COMPLETED|scavenger|2023-05-22T06:54:43|2023-05-22T08:06:05|01:11:22|dcc-youlab-01|1|1|2500M||/hpc/group/donald/yl708/TopologyNet-2017/perturbations|
yl708|COMPLETED|scavenger|2023-05-22T07:01:15|2023-05-22T08:12:11|01:10:56|dcc-youlab-01|1|1|2500M||/hpc/group/donald/yl708/TopologyNet-2017/perturbations|
yl708|COMPLETED|scavenger|2023-05-22T06:58:00|2023-05-22T08:08:56|01:10:56|dcc-youlab-01|1|1|2500M||/hpc/group/donald/yl708/TopologyNet-2017/perturbations|
yl708|COMPLETED|scavenger|2023-05-22T07:03:25|2023-05-22T08:13:14|01:09:49|dcc-youlab-01|1|1|2500M||/hpc/group/donald/yl708/TopologyNet-2017/perturbations|
yl708|COMPLETED|scavenger|2023-05-22T07:09:57|2023-05-22T08:20:55|01:10:58|dcc-youlab-01|1|1|2500M||/hpc/group/donald/yl708/TopologyNet-2017/perturbations|
yl708|COMPLETED|scavenger|2023-05-22T07:09:57|2023-05-22T08:19:43|01:09:46|dcc-youlab-01|1|1|2500M||/hpc/group/donald/yl708/TopologyNet-2017/perturbations|
yl708|COMPLETED|scavenger|2023-05-22T07:15:54|2023-05-22T08:27:03|01:11:09|dcc-youlab-01|1|1|2500M||/hpc/group/donald/yl708/TopologyNet-2017/perturbations|
yl708|COMPLETED|scavenger|2023-05-22T07:18:05|2023-05-22T08:28:51|01:10:46|dcc-youlab-01|1|1|2500M||/hpc/group/donald/yl708/TopologyNet-2017/perturbations|
yl708|COMPLETED|scavenger|2023-05-22T08:05:10|2023-05-22T09:14:23|01:09:13|dcc-youlab-01|1|1|2500M||/hpc/group/donald/yl708/TopologyNet-2017/perturbations|
yl708|COMPLETED|scavenger|2023-05-22T08:05:10|2023-05-22T09:15:49|01:10:39|dcc-youlab-01|1|1|2500M||/hpc/group/donald/yl708/TopologyNet-2017/perturbations|
yl708|COMPLETED|scavenger|2023-05-22T08:28:15|2023-05-22T09:38:12|01:09:57|dcc-youlab-01|1|1|2500M||/hpc/group/donald/yl708/TopologyNet-2017/perturbations|
yl708|COMPLETED|scavenger|2023-05-22T08:32:02|2023-05-22T09:42:48|01:10:46|dcc-youlab-01|1|1|2500M||/hpc/group/donald/yl708/TopologyNet-2017/perturbations|
yl708|COMPLETED|scavenger|2023-05-22T08:33:08|2023-05-22T09:44:01|01:10:53|dcc-youlab-01|1|1|2500M||/hpc/group/donald/yl708/TopologyNet-2017/perturbations|
yl708|COMPLETED|scavenger|2023-05-22T08:47:05|2023-05-22T09:57:47|01:10:42|dcc-youlab-01|1|1|2500M||/hpc/group/donald/yl708/TopologyNet-2017/perturbations|
yl708|COMPLETED|scavenger|2023-05-22T09:09:10|2023-05-22T10:20:05|01:10:55|dcc-youlab-01|1|1|2500M||/hpc/group/donald/yl708/TopologyNet-2017/perturbations|
yl708|COMPLETED|scavenger|2023-05-22T09:15:50|2023-05-22T10:28:01|01:12:11|dcc-youlab-01|1|1|2500M||/hpc/group/donald/yl708/TopologyNet-2017/perturbations|
yl708|COMPLETED|scavenger|2023-05-22T09:15:50|2023-05-22T10:27:57|01:12:07|dcc-youlab-01|1|1|2500M||/hpc/group/donald/yl708/TopologyNet-2017/perturbations|
yl708|COMPLETED|scavenger|2023-05-22T09:15:50|2023-05-22T10:27:46|01:11:56|dcc-youlab-01|1|1|2500M||/hpc/group/donald/yl708/TopologyNet-2017/perturbations|
yl708|COMPLETED|scavenger|2023-05-22T09:15:50|2023-05-22T10:27:54|01:12:04|dcc-youlab-01|1|1|2500M||/hpc/group/donald/yl708/TopologyNet-2017/perturbations|
yl708|COMPLETED|scavenger|2023-05-22T09:15:50|2023-05-22T10:28:06|01:12:16|dcc-youlab-01|1|1|2500M||/hpc/group/donald/yl708/TopologyNet-2017/perturbations|
yl708|COMPLETED|scavenger|2023-05-22T09:15:50|2023-05-22T10:26:19|01:10:29|dcc-youlab-01|1|1|2500M||/hpc/group/donald/yl708/TopologyNet-2017/perturbations|
yl708|COMPLETED|scavenger|2023-05-22T09:23:56|2023-05-22T10:33:44|01:09:48|dcc-youlab-01|1|1|2500M||/hpc/group/donald/yl708/TopologyNet-2017/perturbations|
yl708|COMPLETED|scavenger|2023-05-22T09:23:56|2023-05-22T10:50:04|01:26:08|dcc-wychem-01|1|1|2500M||/hpc/group/donald/yl708/TopologyNet-2017/perturbations|
yl708|COMPLETED|scavenger|2023-05-22T09:32:38|2023-05-22T10:57:51|01:25:13|dcc-wychem-01|1|1|2500M||/hpc/group/donald/yl708/TopologyNet-2017/perturbations|
yl708|COMPLETED|scavenger|2023-05-22T09:43:57|2023-05-22T10:53:46|01:09:49|dcc-youlab-01|1|1|2500M||/hpc/group/donald/yl708/TopologyNet-2017/perturbations|
bl242|COMPLETED|scavenger|2023-05-22T03:20:35|2023-05-22T03:21:20|00:00:45|dcc-velmeshevlab-01|1|1|50G||/hpc/home/bl242|
kw297|COMPLETED|scavenger|2023-05-20T16:42:00|2023-05-22T14:46:17|1-22:04:17|dcc-adrc-01|1|2|8G||/hpc/group/ychenlab/DA|
kw297|COMPLETED|scavenger|2023-05-20T16:42:00|2023-05-22T14:08:59|1-21:26:59|dcc-adrc-01|1|2|8G||/hpc/group/ychenlab/DA|
kw297|COMPLETED|scavenger|2023-05-20T16:42:01|2023-05-21T20:44:18|1-04:02:17|dcc-pfister-01|1|2|8G||/hpc/group/ychenlab/DA|
hk288|COMPLETED|scavenger|2023-05-21T13:30:27|2023-05-21T22:54:21|09:23:54|dcc-noor-02|1|32|40G||/hpc/group/mastatlab/hk288/code_paired_ntaxa_bfam|
hk288|COMPLETED|scavenger|2023-05-21T13:30:27|2023-05-21T20:07:43|06:37:16|dcc-nsoe-it-01|1|32|40G||/hpc/group/mastatlab/hk288/code_paired_ntaxa_bfam|
hk288|COMPLETED|scavenger|2023-05-21T13:30:27|2023-05-21T23:23:28|09:53:01|dcc-hulab-02|1|32|40G||/hpc/group/mastatlab/hk288/code_paired_ntaxa_bfam|
hk288|COMPLETED|scavenger|2023-05-21T13:30:27|2023-05-21T23:50:53|10:20:26|dcc-hulab-03|1|32|40G||/hpc/group/mastatlab/hk288/code_paired_ntaxa_bfam|
hk288|COMPLETED|scavenger|2023-05-21T13:32:20|2023-05-21T23:03:33|09:31:13|dcc-hulab-04|1|32|40G||/hpc/group/mastatlab/hk288/code_paired_ntaxa_bfam|
hk288|COMPLETED|scavenger|2023-05-21T13:32:20|2023-05-22T00:05:43|10:33:23|dcc-hulab-05|1|32|40G||/hpc/group/mastatlab/hk288/code_paired_ntaxa_bfam|
hk288|COMPLETED|scavenger|2023-05-21T13:34:43|2023-05-21T22:27:43|08:53:00|dcc-compeb-02|1|32|40G||/hpc/group/mastatlab/hk288/code_paired_ntaxa_bfam|
hk288|COMPLETED|scavenger|2023-05-21T13:34:43|2023-05-22T02:27:06|12:52:23|dcc-hulab-04|1|32|40G||/hpc/group/mastatlab/hk288/code_paired_ntaxa_bfam|
hk288|COMPLETED|scavenger|2023-05-21T18:52:08|2023-05-21T20:50:43|01:58:35|dcc-compeb-04|1|32|40G||/hpc/group/mastatlab/hk288/code_paired_ntaxa_bfam|
hk288|COMPLETED|scavenger|2023-05-21T18:52:08|2023-05-21T20:30:02|01:37:54|dcc-delairelab-01|1|32|40G||/hpc/group/mastatlab/hk288/code_paired_ntaxa_bfam|
hk288|COMPLETED|scavenger|2023-05-21T18:52:08|2023-05-21T20:47:16|01:55:08|dcc-donglab-01|1|32|40G||/hpc/group/mastatlab/hk288/code_paired_ntaxa_bfam|
hk288|COMPLETED|scavenger|2023-05-21T18:52:08|2023-05-21T21:22:18|02:30:10|dcc-fergusonlab-01|1|32|40G||/hpc/group/mastatlab/hk288/code_paired_ntaxa_bfam|
hk288|COMPLETED|scavenger|2023-05-21T18:52:40|2023-05-21T20:51:34|01:58:54|dcc-gcb-15|1|32|40G||/hpc/group/mastatlab/hk288/code_paired_ntaxa_bfam|
hk288|COMPLETED|scavenger|2023-05-21T18:52:40|2023-05-21T20:45:42|01:53:02|dcc-hulab-05|1|32|40G||/hpc/group/mastatlab/hk288/code_paired_ntaxa_bfam|
hk288|COMPLETED|scavenger|2023-05-21T18:52:40|2023-05-21T21:03:09|02:10:29|dcc-mainsahlab-01|1|32|40G||/hpc/group/mastatlab/hk288/code_paired_ntaxa_bfam|
hk288|COMPLETED|scavenger|2023-05-21T18:52:40|2023-05-21T21:46:30|02:53:50|dcc-tmolab-01|1|32|40G||/hpc/group/mastatlab/hk288/code_paired_ntaxa_bfam|
hk288|COMPLETED|scavenger|2023-05-21T18:53:47|2023-05-22T00:08:45|05:14:58|dcc-cagpm-01|1|32|40G||/hpc/group/mastatlab/hk288/code_paired_ntaxa_bfam|
hk288|COMPLETED|scavenger|2023-05-21T18:53:47|2023-05-22T02:48:12|07:54:25|dcc-cagpm-02|1|32|40G||/hpc/group/mastatlab/hk288/code_paired_ntaxa_bfam|
hk288|COMPLETED|scavenger|2023-05-21T18:53:47|2023-05-22T02:56:10|08:02:23|dcc-dunsonlab-01|1|32|40G||/hpc/group/mastatlab/hk288/code_paired_ntaxa_bfam|
hk288|COMPLETED|scavenger|2023-05-21T18:53:47|2023-05-22T02:40:02|07:46:15|dcc-dunsonlab-01|1|32|40G||/hpc/group/mastatlab/hk288/code_paired_ntaxa_bfam|
hk288|COMPLETED|scavenger|2023-05-21T18:54:19|2023-05-22T02:09:12|07:14:53|dcc-nicolab-01|1|32|40G||/hpc/group/mastatlab/hk288/code_paired_ntaxa_bfam|
hk288|COMPLETED|scavenger|2023-05-21T18:54:19|2023-05-22T02:20:40|07:26:21|dcc-noor-01|1|32|40G||/hpc/group/mastatlab/hk288/code_paired_ntaxa_bfam|
hk288|COMPLETED|scavenger|2023-05-21T18:54:19|2023-05-22T04:16:10|09:21:51|dcc-tunglab-01|1|32|40G||/hpc/group/mastatlab/hk288/code_paired_ntaxa_bfam|
hk288|COMPLETED|scavenger|2023-05-21T18:55:24|2023-05-22T01:50:29|06:55:05|dcc-tunglab-01|1|32|40G||/hpc/group/mastatlab/hk288/code_paired_ntaxa_bfam|
hk288|COMPLETED|scavenger|2023-05-21T18:55:57|2023-05-22T15:06:02|20:10:05|dcc-velmeshevlab-01|1|32|40G||/hpc/group/mastatlab/hk288/code_paired_ntaxa_bfam|
hk288|COMPLETED|scavenger|2023-05-21T18:55:57|2023-05-22T15:55:23|20:59:26|dcc-velmeshevlab-01|1|32|40G||/hpc/group/mastatlab/hk288/code_paired_ntaxa_bfam|
hk288|COMPLETED|scavenger|2023-05-21T18:55:58|2023-05-22T17:24:12|22:28:14|dcc-bragg-01|1|32|40G||/hpc/group/mastatlab/hk288/code_paired_ntaxa_bfam|
hk288|COMPLETED|scavenger|2023-05-21T18:56:30|2023-05-22T19:16:55|1-00:20:25|dcc-bragg-02|1|32|40G||/hpc/group/mastatlab/hk288/code_paired_ntaxa_bfam|
hk288|COMPLETED|scavenger|2023-05-21T18:56:30|2023-05-22T15:24:56|20:28:26|dcc-bragg-03|1|32|40G||/hpc/group/mastatlab/hk288/code_paired_ntaxa_bfam|
hk288|COMPLETED|scavenger|2023-05-21T18:56:30|2023-05-22T10:53:34|15:57:04|dcc-pbenfeylab-02|1|32|40G||/hpc/group/mastatlab/hk288/code_paired_ntaxa_bfam|
hk288|COMPLETED|scavenger|2023-05-21T18:56:30|2023-05-22T16:01:57|21:05:27|dcc-pbenfeylab-01|1|32|40G||/hpc/group/mastatlab/hk288/code_paired_ntaxa_bfam|
hk288|COMPLETED|scavenger|2023-05-21T18:57:03|2023-05-22T11:43:37|16:46:34|dcc-pbenfeylab-01|1|32|40G||/hpc/group/mastatlab/hk288/code_paired_ntaxa_bfam|
tcl21|COMPLETED|scavenger|2023-05-21T19:13:10|2023-05-21T20:47:36|01:34:26|dcc-delairelab-01|1|10|240G||/hpc/group/baughlab/imagexpress/brendan_cellprofiler-nf|
hk288|COMPLETED|scavenger|2023-05-21T19:15:47|2023-05-21T21:11:40|01:55:53|dcc-delairelab-01|1|32|40G||/hpc/group/mastatlab/hk288/code_paired_ntaxa_bfam|
hk288|COMPLETED|scavenger|2023-05-21T19:15:47|2023-05-22T02:15:53|07:00:06|dcc-dunsonlab-02|1|32|40G||/hpc/group/mastatlab/hk288/code_paired_ntaxa_bfam|
hk288|COMPLETED|scavenger|2023-05-21T19:15:47|2023-05-22T17:43:34|22:27:47|dcc-kirschlab-01|1|32|40G||/hpc/group/mastatlab/hk288/code_paired_ntaxa_bfam|
hk288|COMPLETED|scavenger|2023-05-21T19:16:20|2023-05-21T21:22:54|02:06:34|dcc-kirschlab-01|1|32|40G||/hpc/group/mastatlab/hk288/code_paired_ntaxa_bfam|
hk288|COMPLETED|scavenger|2023-05-21T19:16:20|2023-05-22T02:07:08|06:50:48|dcc-hulab-01|1|32|40G||/hpc/group/mastatlab/hk288/code_paired_ntaxa_bfam|
hk288|COMPLETED|scavenger|2023-05-21T19:16:20|2023-05-21T21:23:48|02:07:28|dcc-herringlab-01|1|32|40G||/hpc/group/mastatlab/hk288/code_paired_ntaxa_bfam|
hk288|COMPLETED|scavenger|2023-05-21T19:16:20|2023-05-22T02:46:23|07:30:03|dcc-hulab-02|1|32|40G||/hpc/group/mastatlab/hk288/code_paired_ntaxa_bfam|
hk288|COMPLETED|scavenger|2023-05-21T19:16:20|2023-05-22T14:38:45|19:22:25|dcc-hulab-03|1|32|40G||/hpc/group/mastatlab/hk288/code_paired_ntaxa_bfam|
hk288|COMPLETED|scavenger|2023-05-21T19:16:20|2023-05-21T21:30:47|02:14:27|dcc-fergusonlab-04|1|32|40G||/hpc/group/mastatlab/hk288/code_paired_ntaxa_bfam|
hk288|COMPLETED|scavenger|2023-05-21T19:16:20|2023-05-22T12:50:19|17:33:59|dcc-fergusonlab-03|1|32|40G||/hpc/group/mastatlab/hk288/code_paired_ntaxa_bfam|
hk288|COMPLETED|scavenger|2023-05-21T19:17:29|2023-05-21T21:57:51|02:40:22|dcc-fergusonlab-03|1|32|40G||/hpc/group/mastatlab/hk288/code_paired_ntaxa_bfam|
hk288|COMPLETED|scavenger|2023-05-21T19:17:30|2023-05-22T02:20:11|07:02:41|dcc-herringlab-01|1|32|40G||/hpc/group/mastatlab/hk288/code_paired_ntaxa_bfam|
hk288|COMPLETED|scavenger|2023-05-21T19:17:30|2023-05-22T13:50:29|18:32:59|dcc-fergusonlab-05|1|32|40G||/hpc/group/mastatlab/hk288/code_paired_ntaxa_bfam|
hk288|COMPLETED|scavenger|2023-05-21T19:17:30|2023-05-21T21:31:54|02:14:24|dcc-gcb-01|1|32|40G||/hpc/group/mastatlab/hk288/code_paired_ntaxa_bfam|
hk288|COMPLETED|scavenger|2023-05-21T19:17:30|2023-05-22T01:50:16|06:32:46|dcc-gcb-06|1|32|40G||/hpc/group/mastatlab/hk288/code_paired_ntaxa_bfam|
hk288|COMPLETED|scavenger|2023-05-21T19:17:30|2023-05-22T17:05:09|21:47:39|dcc-gcb-03|1|32|40G||/hpc/group/mastatlab/hk288/code_paired_ntaxa_bfam|
hk288|COMPLETED|scavenger|2023-05-21T19:20:19|2023-05-21T21:13:32|01:53:13|dcc-fergusonlab-06|1|32|40G||/hpc/group/mastatlab/hk288/code_paired_ntaxa_bfam|
hk288|COMPLETED|scavenger|2023-05-21T19:20:19|2023-05-22T03:26:40|08:06:21|dcc-gcb-01|1|32|40G||/hpc/group/mastatlab/hk288/code_paired_ntaxa_bfam|
hk288|COMPLETED|scavenger|2023-05-21T19:20:19|2023-05-22T10:09:59|14:49:40|dcc-gcb-02|1|32|40G||/hpc/group/mastatlab/hk288/code_paired_ntaxa_bfam|
hk288|COMPLETED|scavenger|2023-05-21T19:20:19|2023-05-21T21:50:59|02:30:40|dcc-gcb-03|1|32|40G||/hpc/group/mastatlab/hk288/code_paired_ntaxa_bfam|
hk288|COMPLETED|scavenger|2023-05-21T20:08:10|2023-05-22T01:45:55|05:37:45|dcc-nsoe-it-01|1|32|40G||/hpc/group/mastatlab/hk288/code_paired_ntaxa_bfam|
hk288|COMPLETED|scavenger|2023-05-21T20:30:23|2023-05-22T09:17:53|12:47:30|dcc-delairelab-01|1|32|40G||/hpc/group/mastatlab/hk288/code_paired_ntaxa_bfam|
tcl21|COMPLETED|scavenger|2023-05-21T19:41:50|2023-05-21T20:01:45|00:19:55|dcc-velmeshevlab-01|1|1|8G||/work/tcl21/1f/55c76f2b36bd078e8808f65442cbc3|
tcl21|COMPLETED|scavenger|2023-05-21T19:48:00|2023-05-21T20:02:28|00:14:28|dcc-velmeshevlab-01|1|1|8G||/work/tcl21/2c/fb5d0f661678e81970ac2432b36b95|
tcl21|COMPLETED|scavenger|2023-05-21T19:51:46|2023-05-21T20:02:31|00:10:45|dcc-tunglab-01|1|1|8G||/work/tcl21/6b/c4c97e29c6509ad989047cde713ea0|
tcl21|COMPLETED|scavenger|2023-05-21T19:54:51|2023-05-21T20:12:44|00:17:53|dcc-velmeshevlab-01|1|1|8G||/work/tcl21/16/c0a163f52de3b48c20d20c3a753ec0|
tcl21|COMPLETED|scavenger|2023-05-21T19:55:07|2023-05-21T20:09:15|00:14:08|dcc-velmeshevlab-01|1|1|8G||/work/tcl21/3a/09a24a93d441ccb57d75de5c8de725|
tcl21|COMPLETED|scavenger|2023-05-21T19:55:07|2023-05-21T20:05:38|00:10:31|dcc-tunglab-01|1|1|8G||/work/tcl21/58/fd1d3e48772f35220c3558e606c28b|
tcl21|COMPLETED|scavenger|2023-05-21T19:55:38|2023-05-21T20:01:15|00:05:37|dcc-wychem-01|1|1|8G||/work/tcl21/54/df3f409c7e06664cea471936457c05|
tcl21|COMPLETED|scavenger|2023-05-21T19:55:50|2023-05-21T20:06:12|00:10:22|dcc-tunglab-01|1|1|8G||/work/tcl21/eb/5f5ff9e72a2adbb96fd0be958eaad6|
tcl21|COMPLETED|scavenger|2023-05-21T19:57:48|2023-05-21T20:03:31|00:05:43|dcc-youlab-01|1|1|8G||/work/tcl21/6d/799ccbd479796958380382ad65e746|
tcl21|COMPLETED|scavenger|2023-05-21T19:57:48|2023-05-21T20:11:54|00:14:06|dcc-velmeshevlab-01|1|1|8G||/work/tcl21/f9/fed65abb861f27048a4cf87ee4eee4|
tcl21|COMPLETED|scavenger|2023-05-21T19:58:48|2023-05-21T20:04:46|00:05:58|dcc-wychem-01|1|1|8G||/work/tcl21/80/496ff9e0891feebc9051d160615048|
tcl21|COMPLETED|scavenger|2023-05-21T19:59:53|2023-05-21T20:06:15|00:06:22|dcc-youlab-01|1|1|8G||/work/tcl21/56/0da7ab95475cc93df1e4cfb5464ef3|
smokeauth2-tst|COMPLETED|scavenger|2023-05-21T20:01:32|2023-05-21T20:01:33|00:00:01|dcc-youlab-01|1|1|2G||/hpc/home/smokeauth2-tst|
smokeauth2-tst|COMPLETED|scavenger|2023-05-21T20:01:36|2023-05-21T20:01:38|00:00:02|dcc-youlab-01|1|1|2G||/hpc/home/smokeauth2-tst|
smokeauth2-tst|COMPLETED|scavenger|2023-05-21T20:01:44|2023-05-21T20:01:45|00:00:01|dcc-youlab-01|1|1|2G||/hpc/home/smokeauth2-tst|
smokeauth2-tst|COMPLETED|scavenger|2023-05-21T20:01:52|2023-05-21T20:01:53|00:00:01|dcc-youlab-01|1|1|2G||/hpc/home/smokeauth2-tst|
tcl21|COMPLETED|scavenger|2023-05-21T20:01:56|2023-05-21T20:08:03|00:06:07|dcc-youlab-01|1|1|8G||/work/tcl21/14/2c68ff761ae488c1c735864e7bbafa|
tcl21|COMPLETED|scavenger|2023-05-21T20:01:56|2023-05-21T20:08:35|00:06:39|dcc-wychem-01|1|1|8G||/work/tcl21/06/fb9621124da84960b2ac8448263c21|
smokeauth2-tst|COMPLETED|scavenger|2023-05-21T20:01:56|2023-05-21T20:01:57|00:00:01|dcc-velmeshevlab-01|1|1|2G||/hpc/home/smokeauth2-tst|
tcl21|COMPLETED|scavenger|2023-05-21T20:03:13|2023-05-21T20:17:01|00:13:48|dcc-velmeshevlab-01|1|1|8G||/work/tcl21/9d/7147dff12f60ac118c7c2ff89aee40|
tcl21|COMPLETED|scavenger|2023-05-21T20:03:13|2023-05-21T20:14:54|00:11:41|dcc-velmeshevlab-01|1|1|8G||/work/tcl21/44/a91598db53e452856fabbbd2d0cbaf|
tcl21|COMPLETED|scavenger|2023-05-21T20:03:33|2023-05-21T20:08:46|00:05:13|dcc-youlab-01|1|1|8G||/work/tcl21/1c/1cca583b3904993620beadc4bfd56d|
tcl21|COMPLETED|scavenger|2023-05-21T20:05:07|2023-05-21T20:10:28|00:05:21|dcc-wychem-01|1|1|8G||/work/tcl21/d0/fdcb9ddff82f996559b6ed85e66443|
tcl21|COMPLETED|scavenger|2023-05-21T20:05:55|2023-05-21T20:20:10|00:14:15|dcc-tunglab-01|1|1|8G||/work/tcl21/38/276271f5f59bbd15fe02d9b9673196|
tcl21|COMPLETED|scavenger|2023-05-21T20:06:54|2023-05-21T20:11:46|00:04:52|dcc-youlab-01|1|1|8G||/work/tcl21/f4/dc7dc161eb862b208f9840dfccc321|
tcl21|COMPLETED|scavenger|2023-05-21T20:06:54|2023-05-21T20:12:11|00:05:17|dcc-youlab-01|1|1|8G||/work/tcl21/c7/dade8dfef3c938788ae5f9db2fee36|
tcl21|COMPLETED|scavenger|2023-05-21T20:08:45|2023-05-21T20:14:25|00:05:40|dcc-youlab-01|1|1|8G||/work/tcl21/59/8a7c339032a9fd8258f0876bcde81d|
tcl21|COMPLETED|scavenger|2023-05-21T20:08:45|2023-05-21T20:14:56|00:06:11|dcc-wychem-01|1|1|8G||/work/tcl21/c7/2bad2056d11e3def17e96bcac5e3b6|
tcl21|COMPLETED|scavenger|2023-05-21T20:08:58|2023-05-21T20:13:45|00:04:47|dcc-youlab-01|1|1|8G||/work/tcl21/47/b3a76f1ff029c53fb5e9162c272ba8|
tcl21|COMPLETED|scavenger|2023-05-21T20:09:23|2023-05-21T20:19:46|00:10:23|dcc-velmeshevlab-01|1|1|8G||/work/tcl21/93/e17ba68a4c69322064ed40c9959416|
tcl21|COMPLETED|scavenger|2023-05-21T20:10:35|2023-05-21T20:15:23|00:04:48|dcc-wychem-01|1|1|8G||/work/tcl21/79/b4d640cc965e476f45e5bb4325a097|
smokeauth2-tst|COMPLETED|scavenger|2023-05-21T20:11:36|2023-05-21T20:11:37|00:00:01|dcc-velmeshevlab-01|1|1|2G||/hpc/home/smokeauth2-tst|
smokeauth2-tst|COMPLETED|scavenger|2023-05-21T20:11:40|2023-05-21T20:11:41|00:00:01|dcc-velmeshevlab-01|1|1|2G||/hpc/home/smokeauth2-tst|
smokeauth2-tst|COMPLETED|scavenger|2023-05-21T20:11:44|2023-05-21T20:11:45|00:00:01|dcc-velmeshevlab-01|1|1|2G||/hpc/home/smokeauth2-tst|
smokeauth2-tst|COMPLETED|scavenger|2023-05-21T20:11:48|2023-05-21T20:11:49|00:00:01|dcc-youlab-01|1|1|2G||/hpc/home/smokeauth2-tst|
smokeauth2-tst|COMPLETED|scavenger|2023-05-21T20:11:52|2023-05-21T20:11:53|00:00:01|dcc-youlab-01|1|1|2G||/hpc/home/smokeauth2-tst|
tcl21|COMPLETED|scavenger|2023-05-21T20:11:57|2023-05-21T20:17:10|00:05:13|dcc-youlab-01|1|1|8G||/work/tcl21/2b/f392c1fac874e14f1f504e138aa493|
tcl21|COMPLETED|scavenger|2023-05-21T20:12:04|2023-05-21T20:27:52|00:15:48|dcc-velmeshevlab-01|1|1|8G||/work/tcl21/61/73e35a12fac54a0a4663282c63997a|
tcl21|COMPLETED|scavenger|2023-05-21T20:13:03|2023-05-21T20:18:33|00:05:30|dcc-youlab-01|1|1|8G||/work/tcl21/5b/bab6612c9d010a285cf052bd9fc5b3|
tcl21|COMPLETED|scavenger|2023-05-21T20:13:04|2023-05-21T20:29:34|00:16:30|dcc-velmeshevlab-01|1|1|8G||/work/tcl21/32/bb6cecbc0019b364b3deac09adae78|
tcl21|COMPLETED|scavenger|2023-05-21T20:14:09|2023-05-21T20:20:44|00:06:35|dcc-youlab-01|1|1|8G||/work/tcl21/c3/668cfe66bf75aa62f2aca2ca0b340b|
tcl21|COMPLETED|scavenger|2023-05-21T20:15:03|2023-05-21T20:19:46|00:04:43|dcc-youlab-01|1|1|8G||/work/tcl21/c3/79ba2f85832fafe329d8a58ae79a65|
tcl21|COMPLETED|scavenger|2023-05-21T20:15:07|2023-05-21T20:21:08|00:06:01|dcc-wychem-01|1|1|8G||/work/tcl21/64/29dbb0f2ba723ce6a3d77bf3cbc061|
tcl21|COMPLETED|scavenger|2023-05-21T20:15:11|2023-05-21T20:28:23|00:13:12|dcc-velmeshevlab-01|1|1|8G||/work/tcl21/d6/993edb227eba39dd155ae3c19c227a|
tcl21|COMPLETED|scavenger|2023-05-21T20:15:49|2023-05-21T20:22:54|00:07:05|dcc-wychem-01|1|1|8G||/work/tcl21/af/48bd622a2cba47a496741d9377bf74|
tcl21|COMPLETED|scavenger|2023-05-21T20:17:16|2023-05-21T20:22:31|00:05:15|dcc-youlab-01|1|1|8G||/work/tcl21/ee/3809b092fa26df8b2cfbbcb0019557|
tcl21|COMPLETED|scavenger|2023-05-21T20:17:36|2023-05-21T20:34:15|00:16:39|dcc-velmeshevlab-01|1|1|8G||/work/tcl21/91/6ea24453a351f8264fe283057d7510|
tcl21|COMPLETED|scavenger|2023-05-21T20:19:12|2023-05-21T20:25:38|00:06:26|dcc-youlab-01|1|1|8G||/work/tcl21/6b/7cb93324619eac716b9a939aa42c51|
tcl21|COMPLETED|scavenger|2023-05-21T20:20:03|2023-05-21T20:25:29|00:05:26|dcc-youlab-01|1|1|8G||/work/tcl21/24/948e66419067b96e4927050972b63b|
tcl21|COMPLETED|scavenger|2023-05-21T20:20:07|2023-05-21T20:32:39|00:12:32|dcc-velmeshevlab-01|1|1|8G||/work/tcl21/f2/0fe936f8898d3b95609ed06c23915f|
tcl21|COMPLETED|scavenger|2023-05-21T20:20:16|2023-05-21T20:29:19|00:09:03|dcc-tunglab-01|1|1|8G||/work/tcl21/cc/4e28273b8ec1613873adeb56c3c30b|
tcl21|COMPLETED|scavenger|2023-05-21T20:21:03|2023-05-21T20:26:20|00:05:17|dcc-youlab-01|1|1|8G||/work/tcl21/6a/008fbc8a673ff3f63034478aec8651|
smokeauth2-tst|COMPLETED|scavenger|2023-05-21T20:21:36|2023-05-21T20:21:37|00:00:01|dcc-youlab-01|1|1|2G||/hpc/home/smokeauth2-tst|
smokeauth2-tst|COMPLETED|scavenger|2023-05-21T20:21:40|2023-05-21T20:21:41|00:00:01|dcc-youlab-01|1|1|2G||/hpc/home/smokeauth2-tst|
smokeauth2-tst|COMPLETED|scavenger|2023-05-21T20:21:44|2023-05-21T20:21:46|00:00:02|dcc-youlab-01|1|1|2G||/hpc/home/smokeauth2-tst|
tcl21|COMPLETED|scavenger|2023-05-21T20:21:48|2023-05-21T20:29:07|00:07:19|dcc-wychem-01|1|1|8G||/work/tcl21/dd/0883c8cd4ba1db30961c5c1122e4bb|
smokeauth2-tst|COMPLETED|scavenger|2023-05-21T20:21:52|2023-05-21T20:21:53|00:00:01|dcc-youlab-01|1|1|2G||/hpc/home/smokeauth2-tst|
smokeauth2-tst|COMPLETED|scavenger|2023-05-21T20:21:56|2023-05-21T20:21:57|00:00:01|dcc-youlab-01|1|1|2G||/hpc/home/smokeauth2-tst|
tcl21|COMPLETED|scavenger|2023-05-21T20:22:53|2023-05-21T20:27:03|00:04:10|dcc-youlab-01|1|1|8G||/work/tcl21/41/152f2e1b53de306f14e3622bc37b68|
tcl21|COMPLETED|scavenger|2023-05-21T20:23:05|2023-05-21T20:29:38|00:06:33|dcc-youlab-01|1|1|8G||/work/tcl21/68/0f040fc6dd8488cc8ae03037c18614|
tcl21|COMPLETED|scavenger|2023-05-21T20:25:45|2023-05-21T20:29:58|00:04:13|dcc-youlab-01|1|1|8G||/work/tcl21/b3/c73d951ffde186122010d765589456|
tcl21|COMPLETED|scavenger|2023-05-21T20:25:45|2023-05-21T20:30:33|00:04:48|dcc-youlab-01|1|1|8G||/work/tcl21/59/387476002348d9edb37c96f1418494|
tcl21|COMPLETED|scavenger|2023-05-21T20:27:08|2023-05-21T20:31:49|00:04:41|dcc-youlab-01|1|1|8G||/work/tcl21/03/665423d4d522b151f41626e20db133|
tcl21|COMPLETED|scavenger|2023-05-21T20:27:08|2023-05-21T20:32:09|00:05:01|dcc-youlab-01|1|1|8G||/work/tcl21/ff/f430f41fe7c8815d1df544dfad8bd6|
tcl21|COMPLETED|scavenger|2023-05-21T20:28:10|2023-05-21T20:34:11|00:06:01|dcc-wychem-01|1|1|8G||/work/tcl21/68/66fdc66f48f25a43ad138a076d206d|
tcl21|COMPLETED|scavenger|2023-05-21T20:28:53|2023-05-21T20:42:07|00:13:14|dcc-velmeshevlab-01|1|1|8G||/work/tcl21/b3/54ce6207d10061f04dc76a65457032|
tcl21|COMPLETED|scavenger|2023-05-21T20:29:17|2023-05-21T20:36:05|00:06:48|dcc-wychem-01|1|1|8G||/work/tcl21/7b/2df78efceb5b9b0944a3dbfb3ad8da|
tcl21|COMPLETED|scavenger|2023-05-21T20:30:09|2023-05-21T20:34:14|00:04:05|dcc-youlab-01|1|1|8G||/work/tcl21/d8/ddde4e7ffde2faf547bb8f560e083c|
tcl21|COMPLETED|scavenger|2023-05-21T20:30:09|2023-05-21T20:35:53|00:05:44|dcc-youlab-01|1|1|8G||/work/tcl21/c4/cb0d934620c5b94fc0ecc720b4516e|
tcl21|COMPLETED|scavenger|2023-05-21T20:30:09|2023-05-21T20:35:34|00:05:25|dcc-youlab-01|1|1|8G||/work/tcl21/e2/db6a9673c1b5c79294e3c19d44ae9d|
tcl21|COMPLETED|scavenger|2023-05-21T20:30:13|2023-05-21T20:42:23|00:12:10|dcc-velmeshevlab-01|1|1|8G||/work/tcl21/a9/c6872b043bcc6a8e18441b90473153|
tcl21|COMPLETED|scavenger|2023-05-21T20:31:08|2023-05-21T20:35:53|00:04:45|dcc-youlab-01|1|1|8G||/work/tcl21/7c/2438f0d0ded125f86d9aaf24fb6d1e|
smokeauth2-tst|COMPLETED|scavenger|2023-05-21T20:31:32|2023-05-21T20:31:33|00:00:01|dcc-velmeshevlab-01|1|1|2G||/hpc/home/smokeauth2-tst|
smokeauth2-tst|COMPLETED|scavenger|2023-05-21T20:31:36|2023-05-21T20:31:37|00:00:01|dcc-velmeshevlab-01|1|1|2G||/hpc/home/smokeauth2-tst|
smokeauth2-tst|COMPLETED|scavenger|2023-05-21T20:31:40|2023-05-21T20:31:41|00:00:01|dcc-velmeshevlab-01|1|1|2G||/hpc/home/smokeauth2-tst|
smokeauth2-tst|COMPLETED|scavenger|2023-05-21T20:31:44|2023-05-21T20:31:45|00:00:01|dcc-velmeshevlab-01|1|1|2G||/hpc/home/smokeauth2-tst|
smokeauth2-tst|COMPLETED|scavenger|2023-05-21T20:31:48|2023-05-21T20:31:49|00:00:01|dcc-velmeshevlab-01|1|1|2G||/hpc/home/smokeauth2-tst|
tcl21|COMPLETED|scavenger|2023-05-21T20:32:08|2023-05-21T20:37:20|00:05:12|dcc-youlab-01|1|1|8G||/work/tcl21/04/de2176f31fcedacb728e14a62b9140|
tcl21|COMPLETED|scavenger|2023-05-21T20:32:25|2023-05-21T20:38:32|00:06:07|dcc-youlab-01|1|1|8G||/work/tcl21/9b/19d45a2650f6d05a32a3347f0d2871|
tcl21|COMPLETED|scavenger|2023-05-21T20:33:11|2023-05-21T20:45:28|00:12:17|dcc-velmeshevlab-01|1|1|8G||/work/tcl21/86/cab13cdaa939f073642a8e7408b05a|
tcl21|COMPLETED|scavenger|2023-05-21T20:34:21|2023-05-21T20:39:30|00:05:09|dcc-youlab-01|1|1|8G||/work/tcl21/c0/2d0878b059def757f3994b78729eef|
tcl21|COMPLETED|scavenger|2023-05-21T20:34:21|2023-05-21T20:38:54|00:04:33|dcc-wychem-01|1|1|8G||/work/tcl21/c6/8d70c82e33324365e1b275409ea282|
smokeauth2-tst|COMPLETED|scavenger|2023-05-21T20:41:32|2023-05-21T20:41:33|00:00:01|dcc-youlab-01|1|1|2G||/hpc/home/smokeauth2-tst|
smokeauth2-tst|COMPLETED|scavenger|2023-05-21T20:41:36|2023-05-21T20:41:37|00:00:01|dcc-youlab-01|1|1|2G||/hpc/home/smokeauth2-tst|
smokeauth2-tst|COMPLETED|scavenger|2023-05-21T20:41:40|2023-05-21T20:41:41|00:00:01|dcc-youlab-01|1|1|2G||/hpc/home/smokeauth2-tst|
smokeauth2-tst|COMPLETED|scavenger|2023-05-21T20:41:44|2023-05-21T20:41:45|00:00:01|dcc-youlab-01|1|1|2G||/hpc/home/smokeauth2-tst|
smokeauth2-tst|COMPLETED|scavenger|2023-05-21T20:41:48|2023-05-21T20:41:50|00:00:02|dcc-youlab-01|1|1|2G||/hpc/home/smokeauth2-tst|
smokeauth2-tst|COMPLETED|scavenger|2023-05-21T20:51:32|2023-05-21T20:51:33|00:00:01|dcc-youlab-01|1|1|2G||/hpc/home/smokeauth2-tst|
smokeauth2-tst|COMPLETED|scavenger|2023-05-21T20:51:35|2023-05-21T20:51:37|00:00:02|dcc-youlab-01|1|1|2G||/hpc/home/smokeauth2-tst|
smokeauth2-tst|COMPLETED|scavenger|2023-05-21T20:51:40|2023-05-21T20:51:41|00:00:01|dcc-youlab-01|1|1|2G||/hpc/home/smokeauth2-tst|
smokeauth2-tst|COMPLETED|scavenger|2023-05-21T20:51:44|2023-05-21T20:51:45|00:00:01|dcc-youlab-01|1|1|2G||/hpc/home/smokeauth2-tst|
smokeauth2-tst|COMPLETED|scavenger|2023-05-21T20:51:48|2023-05-21T20:51:49|00:00:01|dcc-youlab-01|1|1|2G||/hpc/home/smokeauth2-tst|
